{
  "cover": "https://avt.mkklcdnv6.com/47/y/8-1583480007.jpg",
  "title": "Onani Master Kurosawa",
  "original": "オナニマスタ黑沢 ; Masturbation Master Kurosawa",
  "genre": "Doujinshi, Drama, Mature, Psychological, Romance, School life, Seinen, Slice of life, Manga",
  "author": "Ise Katsura",
  "status": "Completed",
  "backlink": "https://manganu.com/collections/ise-katsura/onani-master-kurosawa/",
  "description": "\"Onani\" means masturbation. And that's what this guy is good at. Every day after school, he sneaks into the mostly unused girls bathroom on the 3rd floor, and masturbates. Until one day when he's caught...\nThis is a story of mistakes, redemption, and the choices made in between. It contains the very worst and best of the human condition.",
  "language": "English",
  "images": [
    "https://img-proxy.imgfo.com/?referer=https://manganelo.com&url=https://s5.mkklcdnv6temp.com/mangakakalot/o1/onani_master_kurosawa/vol2_chapter_9_masturbation_vacation/1.jpg",
    "https://img-proxy.imgfo.com/?referer=https://manganelo.com&url=https://s5.mkklcdnv6temp.com/mangakakalot/o1/onani_master_kurosawa/vol2_chapter_9_masturbation_vacation/2.jpg",
    "https://img-proxy.imgfo.com/?referer=https://manganelo.com&url=https://s5.mkklcdnv6temp.com/mangakakalot/o1/onani_master_kurosawa/vol2_chapter_9_masturbation_vacation/3.jpg",
    "https://img-proxy.imgfo.com/?referer=https://manganelo.com&url=https://s5.mkklcdnv6temp.com/mangakakalot/o1/onani_master_kurosawa/vol2_chapter_9_masturbation_vacation/4.jpg",
    "https://img-proxy.imgfo.com/?referer=https://manganelo.com&url=https://s5.mkklcdnv6temp.com/mangakakalot/o1/onani_master_kurosawa/vol2_chapter_9_masturbation_vacation/5.jpg",
    "https://img-proxy.imgfo.com/?referer=https://manganelo.com&url=https://s5.mkklcdnv6temp.com/mangakakalot/o1/onani_master_kurosawa/vol2_chapter_9_masturbation_vacation/6.jpg",
    "https://img-proxy.imgfo.com/?referer=https://manganelo.com&url=https://s5.mkklcdnv6temp.com/mangakakalot/o1/onani_master_kurosawa/vol2_chapter_9_masturbation_vacation/7.jpg",
    "https://img-proxy.imgfo.com/?referer=https://manganelo.com&url=https://s5.mkklcdnv6temp.com/mangakakalot/o1/onani_master_kurosawa/vol2_chapter_9_masturbation_vacation/8.jpg",
    "https://img-proxy.imgfo.com/?referer=https://manganelo.com&url=https://s5.mkklcdnv6temp.com/mangakakalot/o1/onani_master_kurosawa/vol2_chapter_9_masturbation_vacation/9.jpg",
    "https://img-proxy.imgfo.com/?referer=https://manganelo.com&url=https://s5.mkklcdnv6temp.com/mangakakalot/o1/onani_master_kurosawa/vol2_chapter_9_masturbation_vacation/10.jpg",
    "https://img-proxy.imgfo.com/?referer=https://manganelo.com&url=https://s5.mkklcdnv6temp.com/mangakakalot/o1/onani_master_kurosawa/vol2_chapter_9_masturbation_vacation/11.jpg",
    "https://img-proxy.imgfo.com/?referer=https://manganelo.com&url=https://s5.mkklcdnv6temp.com/mangakakalot/o1/onani_master_kurosawa/vol2_chapter_9_masturbation_vacation/12.jpg",
    "https://img-proxy.imgfo.com/?referer=https://manganelo.com&url=https://s5.mkklcdnv6temp.com/mangakakalot/o1/onani_master_kurosawa/vol2_chapter_9_masturbation_vacation/13.jpg",
    "https://img-proxy.imgfo.com/?referer=https://manganelo.com&url=https://s5.mkklcdnv6temp.com/mangakakalot/o1/onani_master_kurosawa/vol2_chapter_9_masturbation_vacation/14.jpg",
    "https://img-proxy.imgfo.com/?referer=https://manganelo.com&url=https://s5.mkklcdnv6temp.com/mangakakalot/o1/onani_master_kurosawa/vol2_chapter_9_masturbation_vacation/15.jpg",
    "https://img-proxy.imgfo.com/?referer=https://manganelo.com&url=https://s5.mkklcdnv6temp.com/mangakakalot/o1/onani_master_kurosawa/vol2_chapter_9_masturbation_vacation/16.jpg",
    "https://img-proxy.imgfo.com/?referer=https://manganelo.com&url=https://s5.mkklcdnv6temp.com/mangakakalot/o1/onani_master_kurosawa/vol2_chapter_9_masturbation_vacation/17.jpg",
    "https://img-proxy.imgfo.com/?referer=https://manganelo.com&url=https://s5.mkklcdnv6temp.com/mangakakalot/o1/onani_master_kurosawa/vol2_chapter_9_masturbation_vacation/18.jpg",
    "https://img-proxy.imgfo.com/?referer=https://manganelo.com&url=https://s5.mkklcdnv6temp.com/mangakakalot/o1/onani_master_kurosawa/vol2_chapter_9_masturbation_vacation/19.jpg",
    "https://img-proxy.imgfo.com/?referer=https://manganelo.com&url=https://s5.mkklcdnv6temp.com/mangakakalot/o1/onani_master_kurosawa/vol2_chapter_9_masturbation_vacation/20.jpg",
    "https://img-proxy.imgfo.com/?referer=https://manganelo.com&url=https://s5.mkklcdnv6temp.com/mangakakalot/o1/onani_master_kurosawa/vol2_chapter_9_masturbation_vacation/21.jpg",
    "https://img-proxy.imgfo.com/?referer=https://manganelo.com&url=https://s5.mkklcdnv6temp.com/mangakakalot/o1/onani_master_kurosawa/vol2_chapter_9_masturbation_vacation/22.jpg",
    "https://img-proxy.imgfo.com/?referer=https://manganelo.com&url=https://s5.mkklcdnv6temp.com/mangakakalot/o1/onani_master_kurosawa/vol2_chapter_9_masturbation_vacation/23.jpg",
    "https://img-proxy.imgfo.com/?referer=https://manganelo.com&url=https://s5.mkklcdnv6temp.com/mangakakalot/o1/onani_master_kurosawa/vol2_chapter_9_masturbation_vacation/24.jpg"
  ]
}