{
  "cover": "https://avt.mkklcdnv6.com/10/a/3-1583468034.jpg",
  "title": "Rose Guns Days - Season 1",
  "original": "ROSE GUNS DAYS Season1",
  "genre": "Action, Shounen, Manga",
  "author": "Ryukishi 07",
  "status": "Completed",
  "backlink": "https://manganu.com/collections/ryukishi-07/rose-guns-days-season-1/",
  "description": "Rose Guns Days takes place in Japan at the end of World War II. Devastated in the aftermath of defeat, the Japanese government complies with the Alliesâ&euro;&trade; reconstruction plan and the country begins to recover from the loss after a few years, but America and China intricately divide the nation on a municipal level.Eventually, Chinaâ&euro;&trade;s military districts become Chinatowns, and places controlled by the United States are Americanized. The many Chinese and American immigrants make Japanese people the minority in their own land. Some Japanese are unwilling to accept this fate and secretly gather their strength to challenge the new system. A girl named Rose Haibara works at the club Primavera and lends money to Japanese people so that they can rebuild their lives. Meanwhile, Leo Shishigami is best known for his reputation among women. Everything begins to change when that legendary man meets Rose in the spring of 1947.",
  "language": "English",
  "images": [
    "https://img-proxy.imgfo.com/?referer=https://manganelo.com&url=https://s7.mkklcdnv6temp.com/mangakakalot/r2/rose_guns_days_season_1/vol1_chapter_0_scene00/1.jpg",
    "https://img-proxy.imgfo.com/?referer=https://manganelo.com&url=https://s7.mkklcdnv6temp.com/mangakakalot/r2/rose_guns_days_season_1/vol1_chapter_0_scene00/2.jpg",
    "https://img-proxy.imgfo.com/?referer=https://manganelo.com&url=https://s7.mkklcdnv6temp.com/mangakakalot/r2/rose_guns_days_season_1/vol1_chapter_0_scene00/3.jpg",
    "https://img-proxy.imgfo.com/?referer=https://manganelo.com&url=https://s7.mkklcdnv6temp.com/mangakakalot/r2/rose_guns_days_season_1/vol1_chapter_0_scene00/4.jpg",
    "https://img-proxy.imgfo.com/?referer=https://manganelo.com&url=https://s7.mkklcdnv6temp.com/mangakakalot/r2/rose_guns_days_season_1/vol1_chapter_0_scene00/5.jpg",
    "https://img-proxy.imgfo.com/?referer=https://manganelo.com&url=https://s7.mkklcdnv6temp.com/mangakakalot/r2/rose_guns_days_season_1/vol1_chapter_0_scene00/6.jpg",
    "https://img-proxy.imgfo.com/?referer=https://manganelo.com&url=https://s7.mkklcdnv6temp.com/mangakakalot/r2/rose_guns_days_season_1/vol1_chapter_0_scene00/7.jpg",
    "https://img-proxy.imgfo.com/?referer=https://manganelo.com&url=https://s7.mkklcdnv6temp.com/mangakakalot/r2/rose_guns_days_season_1/vol1_chapter_0_scene00/8.jpg",
    "https://img-proxy.imgfo.com/?referer=https://manganelo.com&url=https://s7.mkklcdnv6temp.com/mangakakalot/r2/rose_guns_days_season_1/vol1_chapter_0_scene00/9.jpg",
    "https://img-proxy.imgfo.com/?referer=https://manganelo.com&url=https://s7.mkklcdnv6temp.com/mangakakalot/r2/rose_guns_days_season_1/vol1_chapter_0_scene00/10.jpg",
    "https://img-proxy.imgfo.com/?referer=https://manganelo.com&url=https://s7.mkklcdnv6temp.com/mangakakalot/r2/rose_guns_days_season_1/vol1_chapter_0_scene00/11.jpg",
    "https://img-proxy.imgfo.com/?referer=https://manganelo.com&url=https://s7.mkklcdnv6temp.com/mangakakalot/r2/rose_guns_days_season_1/vol1_chapter_0_scene00/12.jpg",
    "https://img-proxy.imgfo.com/?referer=https://manganelo.com&url=https://s7.mkklcdnv6temp.com/mangakakalot/r2/rose_guns_days_season_1/vol1_chapter_0_scene00/13.jpg",
    "https://img-proxy.imgfo.com/?referer=https://manganelo.com&url=https://s7.mkklcdnv6temp.com/mangakakalot/r2/rose_guns_days_season_1/vol1_chapter_0_scene00/14.jpg",
    "https://img-proxy.imgfo.com/?referer=https://manganelo.com&url=https://s7.mkklcdnv6temp.com/mangakakalot/r2/rose_guns_days_season_1/vol1_chapter_0_scene00/15.jpg",
    "https://img-proxy.imgfo.com/?referer=https://manganelo.com&url=https://s7.mkklcdnv6temp.com/mangakakalot/r2/rose_guns_days_season_1/vol1_chapter_0_scene00/16.jpg",
    "https://img-proxy.imgfo.com/?referer=https://manganelo.com&url=https://s7.mkklcdnv6temp.com/mangakakalot/r2/rose_guns_days_season_1/vol1_chapter_0_scene00/17.jpg",
    "https://img-proxy.imgfo.com/?referer=https://manganelo.com&url=https://s7.mkklcdnv6temp.com/mangakakalot/r2/rose_guns_days_season_1/vol1_chapter_0_scene00/18.jpg",
    "https://img-proxy.imgfo.com/?referer=https://manganelo.com&url=https://s7.mkklcdnv6temp.com/mangakakalot/r2/rose_guns_days_season_1/vol1_chapter_0_scene00/19.jpg",
    "https://img-proxy.imgfo.com/?referer=https://manganelo.com&url=https://s7.mkklcdnv6temp.com/mangakakalot/r2/rose_guns_days_season_1/vol1_chapter_0_scene00/20.jpg"
  ]
}