{
  "cover": "https://avt.mkklcdnv6.com/10/s/4-1583470104.jpg",
  "title": "Ashita Dorobou",
  "original": "再見明日 ; 明日泥棒 ; Ashita's Thief ; Tomorrow's Thief",
  "genre": "Comedy, Drama, Mature, Romance, Sci fi, Seinen, Supernatural, Manga",
  "author": "Hokazono Masaya",
  "status": "Completed",
  "backlink": "https://manganu.com/collections/hokazono-masaya/ashita-dorobou/",
  "description": "From Mixini Studios:\nKyouichi Miyasako is the star employee at his company. Why does he work so hard? He doesn’t know either. What he does know is that he sorely misses his girlfriend… the one he broke up with in college because he couldn’t put up with her hobbies any further.\nOne day, an ominous black sphere mysteriously appears in the skies and shoots a laser beam in his direction. He doesn’t get hit, of course, but when the smoke clears, guess who he sees?",
  "language": "English",
  "images": [
    "https://img-proxy.imgfo.com/?referer=https://manganelo.com&url=https://s41.mkklcdnv6temp.com/mangakakalot/a2/ashita_dorobou/vol2_chapter_13_lets_search_for_tomorrow/1.jpg",
    "https://img-proxy.imgfo.com/?referer=https://manganelo.com&url=https://s41.mkklcdnv6temp.com/mangakakalot/a2/ashita_dorobou/vol2_chapter_13_lets_search_for_tomorrow/2.jpg",
    "https://img-proxy.imgfo.com/?referer=https://manganelo.com&url=https://s41.mkklcdnv6temp.com/mangakakalot/a2/ashita_dorobou/vol2_chapter_13_lets_search_for_tomorrow/3.jpg",
    "https://img-proxy.imgfo.com/?referer=https://manganelo.com&url=https://s41.mkklcdnv6temp.com/mangakakalot/a2/ashita_dorobou/vol2_chapter_13_lets_search_for_tomorrow/4.jpg",
    "https://img-proxy.imgfo.com/?referer=https://manganelo.com&url=https://s41.mkklcdnv6temp.com/mangakakalot/a2/ashita_dorobou/vol2_chapter_13_lets_search_for_tomorrow/5.jpg",
    "https://img-proxy.imgfo.com/?referer=https://manganelo.com&url=https://s41.mkklcdnv6temp.com/mangakakalot/a2/ashita_dorobou/vol2_chapter_13_lets_search_for_tomorrow/6.jpg",
    "https://img-proxy.imgfo.com/?referer=https://manganelo.com&url=https://s41.mkklcdnv6temp.com/mangakakalot/a2/ashita_dorobou/vol2_chapter_13_lets_search_for_tomorrow/7.jpg",
    "https://img-proxy.imgfo.com/?referer=https://manganelo.com&url=https://s41.mkklcdnv6temp.com/mangakakalot/a2/ashita_dorobou/vol2_chapter_13_lets_search_for_tomorrow/8.jpg",
    "https://img-proxy.imgfo.com/?referer=https://manganelo.com&url=https://s41.mkklcdnv6temp.com/mangakakalot/a2/ashita_dorobou/vol2_chapter_13_lets_search_for_tomorrow/9.jpg",
    "https://img-proxy.imgfo.com/?referer=https://manganelo.com&url=https://s41.mkklcdnv6temp.com/mangakakalot/a2/ashita_dorobou/vol2_chapter_13_lets_search_for_tomorrow/10.jpg",
    "https://img-proxy.imgfo.com/?referer=https://manganelo.com&url=https://s41.mkklcdnv6temp.com/mangakakalot/a2/ashita_dorobou/vol2_chapter_13_lets_search_for_tomorrow/11.jpg",
    "https://img-proxy.imgfo.com/?referer=https://manganelo.com&url=https://s41.mkklcdnv6temp.com/mangakakalot/a2/ashita_dorobou/vol2_chapter_13_lets_search_for_tomorrow/12.jpg",
    "https://img-proxy.imgfo.com/?referer=https://manganelo.com&url=https://s41.mkklcdnv6temp.com/mangakakalot/a2/ashita_dorobou/vol2_chapter_13_lets_search_for_tomorrow/13.jpg",
    "https://img-proxy.imgfo.com/?referer=https://manganelo.com&url=https://s41.mkklcdnv6temp.com/mangakakalot/a2/ashita_dorobou/vol2_chapter_13_lets_search_for_tomorrow/14.jpg",
    "https://img-proxy.imgfo.com/?referer=https://manganelo.com&url=https://s41.mkklcdnv6temp.com/mangakakalot/a2/ashita_dorobou/vol2_chapter_13_lets_search_for_tomorrow/15.jpg",
    "https://img-proxy.imgfo.com/?referer=https://manganelo.com&url=https://s41.mkklcdnv6temp.com/mangakakalot/a2/ashita_dorobou/vol2_chapter_13_lets_search_for_tomorrow/16.jpg",
    "https://img-proxy.imgfo.com/?referer=https://manganelo.com&url=https://s41.mkklcdnv6temp.com/mangakakalot/a2/ashita_dorobou/vol2_chapter_13_lets_search_for_tomorrow/17.jpg",
    "https://img-proxy.imgfo.com/?referer=https://manganelo.com&url=https://s41.mkklcdnv6temp.com/mangakakalot/a2/ashita_dorobou/vol2_chapter_13_lets_search_for_tomorrow/18.jpg",
    "https://img-proxy.imgfo.com/?referer=https://manganelo.com&url=https://s41.mkklcdnv6temp.com/mangakakalot/a2/ashita_dorobou/vol2_chapter_13_lets_search_for_tomorrow/19.jpg",
    "https://img-proxy.imgfo.com/?referer=https://manganelo.com&url=https://s41.mkklcdnv6temp.com/mangakakalot/a2/ashita_dorobou/vol2_chapter_13_lets_search_for_tomorrow/20.jpg",
    "https://img-proxy.imgfo.com/?referer=https://manganelo.com&url=https://s41.mkklcdnv6temp.com/mangakakalot/a2/ashita_dorobou/vol2_chapter_13_lets_search_for_tomorrow/21.jpg",
    "https://img-proxy.imgfo.com/?referer=https://manganelo.com&url=https://s41.mkklcdnv6temp.com/mangakakalot/a2/ashita_dorobou/vol2_chapter_13_lets_search_for_tomorrow/22.jpg",
    "https://img-proxy.imgfo.com/?referer=https://manganelo.com&url=https://s41.mkklcdnv6temp.com/mangakakalot/a2/ashita_dorobou/vol2_chapter_13_lets_search_for_tomorrow/23.jpg",
    "https://img-proxy.imgfo.com/?referer=https://manganelo.com&url=https://s41.mkklcdnv6temp.com/mangakakalot/a2/ashita_dorobou/vol2_chapter_13_lets_search_for_tomorrow/24.jpg",
    "https://img-proxy.imgfo.com/?referer=https://manganelo.com&url=https://s41.mkklcdnv6temp.com/mangakakalot/a2/ashita_dorobou/vol2_chapter_13_lets_search_for_tomorrow/25.jpg"
  ]
}