{
  "cover": "https://avt.mkklcdnv6.com/10/s/4-1583470104.jpg",
  "title": "Ashita Dorobou",
  "original": "再見明日 ; 明日泥棒 ; Ashita's Thief ; Tomorrow's Thief",
  "genre": "Comedy, Drama, Mature, Romance, Sci fi, Seinen, Supernatural, Manga",
  "author": "Hokazono Masaya",
  "status": "Completed",
  "backlink": "https://manganu.com/collections/hokazono-masaya/ashita-dorobou/",
  "description": "From Mixini Studios:\nKyouichi Miyasako is the star employee at his company. Why does he work so hard? He doesn’t know either. What he does know is that he sorely misses his girlfriend… the one he broke up with in college because he couldn’t put up with her hobbies any further.\nOne day, an ominous black sphere mysteriously appears in the skies and shoots a laser beam in his direction. He doesn’t get hit, of course, but when the smoke clears, guess who he sees?",
  "language": "English",
  "images": [
    "https://img-proxy.imgfo.com/?referer=https://manganelo.com&url=https://s41.mkklcdnv6temp.com/mangakakalot/a2/ashita_dorobou/vol3_chapter_17_programmed_cell_death/1.jpg",
    "https://img-proxy.imgfo.com/?referer=https://manganelo.com&url=https://s41.mkklcdnv6temp.com/mangakakalot/a2/ashita_dorobou/vol3_chapter_17_programmed_cell_death/2.jpg",
    "https://img-proxy.imgfo.com/?referer=https://manganelo.com&url=https://s41.mkklcdnv6temp.com/mangakakalot/a2/ashita_dorobou/vol3_chapter_17_programmed_cell_death/3.jpg",
    "https://img-proxy.imgfo.com/?referer=https://manganelo.com&url=https://s41.mkklcdnv6temp.com/mangakakalot/a2/ashita_dorobou/vol3_chapter_17_programmed_cell_death/4.jpg",
    "https://img-proxy.imgfo.com/?referer=https://manganelo.com&url=https://s41.mkklcdnv6temp.com/mangakakalot/a2/ashita_dorobou/vol3_chapter_17_programmed_cell_death/5.jpg",
    "https://img-proxy.imgfo.com/?referer=https://manganelo.com&url=https://s41.mkklcdnv6temp.com/mangakakalot/a2/ashita_dorobou/vol3_chapter_17_programmed_cell_death/6.jpg",
    "https://img-proxy.imgfo.com/?referer=https://manganelo.com&url=https://s41.mkklcdnv6temp.com/mangakakalot/a2/ashita_dorobou/vol3_chapter_17_programmed_cell_death/7.jpg",
    "https://img-proxy.imgfo.com/?referer=https://manganelo.com&url=https://s41.mkklcdnv6temp.com/mangakakalot/a2/ashita_dorobou/vol3_chapter_17_programmed_cell_death/8.jpg",
    "https://img-proxy.imgfo.com/?referer=https://manganelo.com&url=https://s41.mkklcdnv6temp.com/mangakakalot/a2/ashita_dorobou/vol3_chapter_17_programmed_cell_death/9.jpg",
    "https://img-proxy.imgfo.com/?referer=https://manganelo.com&url=https://s41.mkklcdnv6temp.com/mangakakalot/a2/ashita_dorobou/vol3_chapter_17_programmed_cell_death/10.jpg",
    "https://img-proxy.imgfo.com/?referer=https://manganelo.com&url=https://s41.mkklcdnv6temp.com/mangakakalot/a2/ashita_dorobou/vol3_chapter_17_programmed_cell_death/11.jpg",
    "https://img-proxy.imgfo.com/?referer=https://manganelo.com&url=https://s41.mkklcdnv6temp.com/mangakakalot/a2/ashita_dorobou/vol3_chapter_17_programmed_cell_death/12.jpg",
    "https://img-proxy.imgfo.com/?referer=https://manganelo.com&url=https://s41.mkklcdnv6temp.com/mangakakalot/a2/ashita_dorobou/vol3_chapter_17_programmed_cell_death/13.jpg",
    "https://img-proxy.imgfo.com/?referer=https://manganelo.com&url=https://s41.mkklcdnv6temp.com/mangakakalot/a2/ashita_dorobou/vol3_chapter_17_programmed_cell_death/14.jpg",
    "https://img-proxy.imgfo.com/?referer=https://manganelo.com&url=https://s41.mkklcdnv6temp.com/mangakakalot/a2/ashita_dorobou/vol3_chapter_17_programmed_cell_death/15.jpg",
    "https://img-proxy.imgfo.com/?referer=https://manganelo.com&url=https://s41.mkklcdnv6temp.com/mangakakalot/a2/ashita_dorobou/vol3_chapter_17_programmed_cell_death/16.jpg",
    "https://img-proxy.imgfo.com/?referer=https://manganelo.com&url=https://s41.mkklcdnv6temp.com/mangakakalot/a2/ashita_dorobou/vol3_chapter_17_programmed_cell_death/17.jpg",
    "https://img-proxy.imgfo.com/?referer=https://manganelo.com&url=https://s41.mkklcdnv6temp.com/mangakakalot/a2/ashita_dorobou/vol3_chapter_17_programmed_cell_death/18.jpg",
    "https://img-proxy.imgfo.com/?referer=https://manganelo.com&url=https://s41.mkklcdnv6temp.com/mangakakalot/a2/ashita_dorobou/vol3_chapter_17_programmed_cell_death/19.jpg",
    "https://img-proxy.imgfo.com/?referer=https://manganelo.com&url=https://s41.mkklcdnv6temp.com/mangakakalot/a2/ashita_dorobou/vol3_chapter_17_programmed_cell_death/20.jpg",
    "https://img-proxy.imgfo.com/?referer=https://manganelo.com&url=https://s41.mkklcdnv6temp.com/mangakakalot/a2/ashita_dorobou/vol3_chapter_17_programmed_cell_death/21.jpg",
    "https://img-proxy.imgfo.com/?referer=https://manganelo.com&url=https://s41.mkklcdnv6temp.com/mangakakalot/a2/ashita_dorobou/vol3_chapter_17_programmed_cell_death/22.jpg"
  ]
}