{
  "cover": "https://avt.mkklcdnv6.com/43/y/4-1583471517.jpg",
  "title": "Yoru Made Matenai",
  "original": "夜まで待てない。 ; 等不到夜晚 ; Can't wait until night ; Wait till the night ; Hindi ako makakapaghintay hanggang gabi",
  "genre": "Comedy, Drama, Romance, School life, Shoujo, Smut, Manga",
  "author": "Oota Saki",
  "status": "Completed",
  "backlink": "https://manganu.com/collections/oota-saki/yoru-made-matenai/",
  "description": "From Shoujomagic:\nHaruka is a sweet, innocent high school girl who is very excited to meet her new step-brother, Tsukasa. Since her father works overseas, Haruka has been living alone, but now that her father has remarried, she'll have little grade schooler Tsukasa with her while both their parents are out of the country. When they finally meet, Tsukasa is even cuter than Haruka had hoped! He wants to get her help with his homework and sleep in her bed...and undress her and make love to her!?",
  "language": "English",
  "images": [
    "https://img-proxy.imgfo.com/?referer=https://manganelo.com&url=https://s6.mkklcdnv6temp.com/mangakakalot/y2/yoru_made_matenai/vol7_chapter_291_secret_1/1.jpg",
    "https://img-proxy.imgfo.com/?referer=https://manganelo.com&url=https://s6.mkklcdnv6temp.com/mangakakalot/y2/yoru_made_matenai/vol7_chapter_291_secret_1/2.jpg",
    "https://img-proxy.imgfo.com/?referer=https://manganelo.com&url=https://s6.mkklcdnv6temp.com/mangakakalot/y2/yoru_made_matenai/vol7_chapter_291_secret_1/3.jpg",
    "https://img-proxy.imgfo.com/?referer=https://manganelo.com&url=https://s6.mkklcdnv6temp.com/mangakakalot/y2/yoru_made_matenai/vol7_chapter_291_secret_1/4.jpg",
    "https://img-proxy.imgfo.com/?referer=https://manganelo.com&url=https://s6.mkklcdnv6temp.com/mangakakalot/y2/yoru_made_matenai/vol7_chapter_291_secret_1/5.jpg",
    "https://img-proxy.imgfo.com/?referer=https://manganelo.com&url=https://s6.mkklcdnv6temp.com/mangakakalot/y2/yoru_made_matenai/vol7_chapter_291_secret_1/6.jpg"
  ]
}