{
  "cover": "https://avt.mkklcdnv6.com/10/f/7-1583476679.jpg",
  "title": "21St Century Boys",
  "original": "二十一世纪少年 ; 21世紀少年 ; 21世纪少年 ; 21stcb ; 21 Seiki Shounen",
  "genre": "Action, Drama, Mystery, Psychological, Sci fi, Seinen, Manga",
  "author": "Urasawa Naoki",
  "status": "Completed",
  "backlink": "https://manganu.com/collections/urasawa-naoki/21st-century-boys/",
  "description": "Growing older is pretty rough and Kenji is finding out just how hard it can be as life starts wearing down on him. On top of trying to make ends meet running a convenience store he has to care for the niece that his missing sister left in his care. Memories of youth make it easier, until those memories come back to haunt him. Continuation of Urasawa Naoki&#39;s masterpiece, 20th Century Boys. -- Wikipedia",
  "language": "English",
  "images": [
    "https://img-proxy.imgfo.com/?referer=https://manganelo.com&url=https://s6.mkklcdnv6temp.com/mangakakalot/02/21st_century_boys/vol1_chapter_3_our_flag/1.jpg",
    "https://img-proxy.imgfo.com/?referer=https://manganelo.com&url=https://s6.mkklcdnv6temp.com/mangakakalot/02/21st_century_boys/vol1_chapter_3_our_flag/2.jpg",
    "https://img-proxy.imgfo.com/?referer=https://manganelo.com&url=https://s6.mkklcdnv6temp.com/mangakakalot/02/21st_century_boys/vol1_chapter_3_our_flag/3.jpg",
    "https://img-proxy.imgfo.com/?referer=https://manganelo.com&url=https://s6.mkklcdnv6temp.com/mangakakalot/02/21st_century_boys/vol1_chapter_3_our_flag/4.jpg",
    "https://img-proxy.imgfo.com/?referer=https://manganelo.com&url=https://s6.mkklcdnv6temp.com/mangakakalot/02/21st_century_boys/vol1_chapter_3_our_flag/5.jpg",
    "https://img-proxy.imgfo.com/?referer=https://manganelo.com&url=https://s6.mkklcdnv6temp.com/mangakakalot/02/21st_century_boys/vol1_chapter_3_our_flag/6.jpg",
    "https://img-proxy.imgfo.com/?referer=https://manganelo.com&url=https://s6.mkklcdnv6temp.com/mangakakalot/02/21st_century_boys/vol1_chapter_3_our_flag/7.jpg",
    "https://img-proxy.imgfo.com/?referer=https://manganelo.com&url=https://s6.mkklcdnv6temp.com/mangakakalot/02/21st_century_boys/vol1_chapter_3_our_flag/8.jpg",
    "https://img-proxy.imgfo.com/?referer=https://manganelo.com&url=https://s6.mkklcdnv6temp.com/mangakakalot/02/21st_century_boys/vol1_chapter_3_our_flag/9.jpg",
    "https://img-proxy.imgfo.com/?referer=https://manganelo.com&url=https://s6.mkklcdnv6temp.com/mangakakalot/02/21st_century_boys/vol1_chapter_3_our_flag/10.jpg",
    "https://img-proxy.imgfo.com/?referer=https://manganelo.com&url=https://s6.mkklcdnv6temp.com/mangakakalot/02/21st_century_boys/vol1_chapter_3_our_flag/11.jpg",
    "https://img-proxy.imgfo.com/?referer=https://manganelo.com&url=https://s6.mkklcdnv6temp.com/mangakakalot/02/21st_century_boys/vol1_chapter_3_our_flag/12.jpg",
    "https://img-proxy.imgfo.com/?referer=https://manganelo.com&url=https://s6.mkklcdnv6temp.com/mangakakalot/02/21st_century_boys/vol1_chapter_3_our_flag/13.jpg",
    "https://img-proxy.imgfo.com/?referer=https://manganelo.com&url=https://s6.mkklcdnv6temp.com/mangakakalot/02/21st_century_boys/vol1_chapter_3_our_flag/14.jpg",
    "https://img-proxy.imgfo.com/?referer=https://manganelo.com&url=https://s6.mkklcdnv6temp.com/mangakakalot/02/21st_century_boys/vol1_chapter_3_our_flag/15.jpg",
    "https://img-proxy.imgfo.com/?referer=https://manganelo.com&url=https://s6.mkklcdnv6temp.com/mangakakalot/02/21st_century_boys/vol1_chapter_3_our_flag/16.jpg",
    "https://img-proxy.imgfo.com/?referer=https://manganelo.com&url=https://s6.mkklcdnv6temp.com/mangakakalot/02/21st_century_boys/vol1_chapter_3_our_flag/17.jpg",
    "https://img-proxy.imgfo.com/?referer=https://manganelo.com&url=https://s6.mkklcdnv6temp.com/mangakakalot/02/21st_century_boys/vol1_chapter_3_our_flag/18.jpg",
    "https://img-proxy.imgfo.com/?referer=https://manganelo.com&url=https://s6.mkklcdnv6temp.com/mangakakalot/02/21st_century_boys/vol1_chapter_3_our_flag/19.jpg",
    "https://img-proxy.imgfo.com/?referer=https://manganelo.com&url=https://s6.mkklcdnv6temp.com/mangakakalot/02/21st_century_boys/vol1_chapter_3_our_flag/20.jpg",
    "https://img-proxy.imgfo.com/?referer=https://manganelo.com&url=https://s6.mkklcdnv6temp.com/mangakakalot/02/21st_century_boys/vol1_chapter_3_our_flag/21.jpg",
    "https://img-proxy.imgfo.com/?referer=https://manganelo.com&url=https://s6.mkklcdnv6temp.com/mangakakalot/02/21st_century_boys/vol1_chapter_3_our_flag/22.jpg",
    "https://img-proxy.imgfo.com/?referer=https://manganelo.com&url=https://s6.mkklcdnv6temp.com/mangakakalot/02/21st_century_boys/vol1_chapter_3_our_flag/23.jpg",
    "https://img-proxy.imgfo.com/?referer=https://manganelo.com&url=https://s6.mkklcdnv6temp.com/mangakakalot/02/21st_century_boys/vol1_chapter_3_our_flag/24.jpg",
    "https://img-proxy.imgfo.com/?referer=https://manganelo.com&url=https://s6.mkklcdnv6temp.com/mangakakalot/02/21st_century_boys/vol1_chapter_3_our_flag/25.jpg"
  ]
}