{
  "cover": "https://avt.mkklcdnv6.com/25/g/12-1583486755.jpg",
  "title": "Me And The Devil Blues",
  "original": "Ore to Akuma no Blues",
  "genre": "Drama, Psychological, Seinen, Manga",
  "author": "Hiramoto Akira",
  "status": "Completed",
  "backlink": "https://manganu.com/collections/hiramoto-akira/me-and-the-devil-blues/",
  "description": "Robert Johnson did not invent the blues, he merely refined it with such skill that he became the most famous and influential delta blues singer in history. There is a well-known legend he gained his skill by selling his soul to the Devil at a lonesome crossroads late at night. This manga is an account of his life that doesn't intend to be historically accurate.\nNote - This series was discontinued at 4 volumes.",
  "language": "English",
  "images": [
    "https://img-proxy.imgfo.com/?referer=https://manganelo.com&url=https://s7.mkklcdnv6temp.com/mangakakalot/m1/me_and_the_devil_blues/vol4_chapter_25/1.jpg",
    "https://img-proxy.imgfo.com/?referer=https://manganelo.com&url=https://s7.mkklcdnv6temp.com/mangakakalot/m1/me_and_the_devil_blues/vol4_chapter_25/2.jpg",
    "https://img-proxy.imgfo.com/?referer=https://manganelo.com&url=https://s7.mkklcdnv6temp.com/mangakakalot/m1/me_and_the_devil_blues/vol4_chapter_25/3.jpg",
    "https://img-proxy.imgfo.com/?referer=https://manganelo.com&url=https://s7.mkklcdnv6temp.com/mangakakalot/m1/me_and_the_devil_blues/vol4_chapter_25/4.jpg",
    "https://img-proxy.imgfo.com/?referer=https://manganelo.com&url=https://s7.mkklcdnv6temp.com/mangakakalot/m1/me_and_the_devil_blues/vol4_chapter_25/5.jpg",
    "https://img-proxy.imgfo.com/?referer=https://manganelo.com&url=https://s7.mkklcdnv6temp.com/mangakakalot/m1/me_and_the_devil_blues/vol4_chapter_25/6.jpg",
    "https://img-proxy.imgfo.com/?referer=https://manganelo.com&url=https://s7.mkklcdnv6temp.com/mangakakalot/m1/me_and_the_devil_blues/vol4_chapter_25/7.jpg",
    "https://img-proxy.imgfo.com/?referer=https://manganelo.com&url=https://s7.mkklcdnv6temp.com/mangakakalot/m1/me_and_the_devil_blues/vol4_chapter_25/8.jpg",
    "https://img-proxy.imgfo.com/?referer=https://manganelo.com&url=https://s7.mkklcdnv6temp.com/mangakakalot/m1/me_and_the_devil_blues/vol4_chapter_25/9.jpg",
    "https://img-proxy.imgfo.com/?referer=https://manganelo.com&url=https://s7.mkklcdnv6temp.com/mangakakalot/m1/me_and_the_devil_blues/vol4_chapter_25/10.jpg",
    "https://img-proxy.imgfo.com/?referer=https://manganelo.com&url=https://s7.mkklcdnv6temp.com/mangakakalot/m1/me_and_the_devil_blues/vol4_chapter_25/11.jpg",
    "https://img-proxy.imgfo.com/?referer=https://manganelo.com&url=https://s7.mkklcdnv6temp.com/mangakakalot/m1/me_and_the_devil_blues/vol4_chapter_25/12.jpg",
    "https://img-proxy.imgfo.com/?referer=https://manganelo.com&url=https://s7.mkklcdnv6temp.com/mangakakalot/m1/me_and_the_devil_blues/vol4_chapter_25/13.jpg",
    "https://img-proxy.imgfo.com/?referer=https://manganelo.com&url=https://s7.mkklcdnv6temp.com/mangakakalot/m1/me_and_the_devil_blues/vol4_chapter_25/14.jpg",
    "https://img-proxy.imgfo.com/?referer=https://manganelo.com&url=https://s7.mkklcdnv6temp.com/mangakakalot/m1/me_and_the_devil_blues/vol4_chapter_25/15.jpg",
    "https://img-proxy.imgfo.com/?referer=https://manganelo.com&url=https://s7.mkklcdnv6temp.com/mangakakalot/m1/me_and_the_devil_blues/vol4_chapter_25/16.jpg",
    "https://img-proxy.imgfo.com/?referer=https://manganelo.com&url=https://s7.mkklcdnv6temp.com/mangakakalot/m1/me_and_the_devil_blues/vol4_chapter_25/17.jpg",
    "https://img-proxy.imgfo.com/?referer=https://manganelo.com&url=https://s7.mkklcdnv6temp.com/mangakakalot/m1/me_and_the_devil_blues/vol4_chapter_25/18.jpg",
    "https://img-proxy.imgfo.com/?referer=https://manganelo.com&url=https://s7.mkklcdnv6temp.com/mangakakalot/m1/me_and_the_devil_blues/vol4_chapter_25/19.jpg",
    "https://img-proxy.imgfo.com/?referer=https://manganelo.com&url=https://s7.mkklcdnv6temp.com/mangakakalot/m1/me_and_the_devil_blues/vol4_chapter_25/20.jpg",
    "https://img-proxy.imgfo.com/?referer=https://manganelo.com&url=https://s7.mkklcdnv6temp.com/mangakakalot/m1/me_and_the_devil_blues/vol4_chapter_25/21.jpg",
    "https://img-proxy.imgfo.com/?referer=https://manganelo.com&url=https://s7.mkklcdnv6temp.com/mangakakalot/m1/me_and_the_devil_blues/vol4_chapter_25/22.jpg",
    "https://img-proxy.imgfo.com/?referer=https://manganelo.com&url=https://s7.mkklcdnv6temp.com/mangakakalot/m1/me_and_the_devil_blues/vol4_chapter_25/23.jpg",
    "https://img-proxy.imgfo.com/?referer=https://manganelo.com&url=https://s7.mkklcdnv6temp.com/mangakakalot/m1/me_and_the_devil_blues/vol4_chapter_25/24.jpg",
    "https://img-proxy.imgfo.com/?referer=https://manganelo.com&url=https://s7.mkklcdnv6temp.com/mangakakalot/m1/me_and_the_devil_blues/vol4_chapter_25/25.jpg",
    "https://img-proxy.imgfo.com/?referer=https://manganelo.com&url=https://s7.mkklcdnv6temp.com/mangakakalot/m1/me_and_the_devil_blues/vol4_chapter_25/26.jpg",
    "https://img-proxy.imgfo.com/?referer=https://manganelo.com&url=https://s7.mkklcdnv6temp.com/mangakakalot/m1/me_and_the_devil_blues/vol4_chapter_25/27.jpg",
    "https://img-proxy.imgfo.com/?referer=https://manganelo.com&url=https://s7.mkklcdnv6temp.com/mangakakalot/m1/me_and_the_devil_blues/vol4_chapter_25/28.jpg",
    "https://img-proxy.imgfo.com/?referer=https://manganelo.com&url=https://s7.mkklcdnv6temp.com/mangakakalot/m1/me_and_the_devil_blues/vol4_chapter_25/29.jpg",
    "https://img-proxy.imgfo.com/?referer=https://manganelo.com&url=https://s7.mkklcdnv6temp.com/mangakakalot/m1/me_and_the_devil_blues/vol4_chapter_25/30.jpg",
    "https://img-proxy.imgfo.com/?referer=https://manganelo.com&url=https://s7.mkklcdnv6temp.com/mangakakalot/m1/me_and_the_devil_blues/vol4_chapter_25/31.jpg",
    "https://img-proxy.imgfo.com/?referer=https://manganelo.com&url=https://s7.mkklcdnv6temp.com/mangakakalot/m1/me_and_the_devil_blues/vol4_chapter_25/32.jpg",
    "https://img-proxy.imgfo.com/?referer=https://manganelo.com&url=https://s7.mkklcdnv6temp.com/mangakakalot/m1/me_and_the_devil_blues/vol4_chapter_25/33.jpg"
  ]
}