{
  "cover": "https://avt.mkklcdnv6.com/15/k/9-1583480678.jpg",
  "title": "Familiar",
  "original": "ファミリア 小冊子付初回限定 ; ファミリア 普及版",
  "genre": "Drama, Romance, Smut, Yaoi, Manga",
  "author": "Ootsuki Miu",
  "status": "Completed",
  "backlink": "https://manganu.com/collections/ootsuki-miu/familiar/",
  "description": "From bl-gyaru:\nAfter their parents' remarriage, Ryohei finds out Nanao, who has just become his stepbrother, is gay. Ryohei hates gays but in order to hold Nanao back from meeting his sex-friend, he bluntly says 'I will satisfy your sex drive instead of your sex-friend' and forcefully kisses Nanao.",
  "language": "English",
  "images": [
    "https://img-proxy.imgfo.com/?referer=https://manganelo.com&url=https://s41.mkklcdnv6temp.com/mangakakalot/f1/familiar/vol1_chapter_45/1.jpg",
    "https://img-proxy.imgfo.com/?referer=https://manganelo.com&url=https://s41.mkklcdnv6temp.com/mangakakalot/f1/familiar/vol1_chapter_45/2.jpg",
    "https://img-proxy.imgfo.com/?referer=https://manganelo.com&url=https://s41.mkklcdnv6temp.com/mangakakalot/f1/familiar/vol1_chapter_45/3.jpg",
    "https://img-proxy.imgfo.com/?referer=https://manganelo.com&url=https://s41.mkklcdnv6temp.com/mangakakalot/f1/familiar/vol1_chapter_45/4.jpg",
    "https://img-proxy.imgfo.com/?referer=https://manganelo.com&url=https://s41.mkklcdnv6temp.com/mangakakalot/f1/familiar/vol1_chapter_45/5.jpg",
    "https://img-proxy.imgfo.com/?referer=https://manganelo.com&url=https://s41.mkklcdnv6temp.com/mangakakalot/f1/familiar/vol1_chapter_45/6.jpg",
    "https://img-proxy.imgfo.com/?referer=https://manganelo.com&url=https://s41.mkklcdnv6temp.com/mangakakalot/f1/familiar/vol1_chapter_45/7.jpg",
    "https://img-proxy.imgfo.com/?referer=https://manganelo.com&url=https://s41.mkklcdnv6temp.com/mangakakalot/f1/familiar/vol1_chapter_45/8.jpg",
    "https://img-proxy.imgfo.com/?referer=https://manganelo.com&url=https://s41.mkklcdnv6temp.com/mangakakalot/f1/familiar/vol1_chapter_45/9.jpg",
    "https://img-proxy.imgfo.com/?referer=https://manganelo.com&url=https://s41.mkklcdnv6temp.com/mangakakalot/f1/familiar/vol1_chapter_45/10.jpg",
    "https://img-proxy.imgfo.com/?referer=https://manganelo.com&url=https://s41.mkklcdnv6temp.com/mangakakalot/f1/familiar/vol1_chapter_45/11.jpg",
    "https://img-proxy.imgfo.com/?referer=https://manganelo.com&url=https://s41.mkklcdnv6temp.com/mangakakalot/f1/familiar/vol1_chapter_45/12.jpg",
    "https://img-proxy.imgfo.com/?referer=https://manganelo.com&url=https://s41.mkklcdnv6temp.com/mangakakalot/f1/familiar/vol1_chapter_45/13.jpg",
    "https://img-proxy.imgfo.com/?referer=https://manganelo.com&url=https://s41.mkklcdnv6temp.com/mangakakalot/f1/familiar/vol1_chapter_45/14.jpg",
    "https://img-proxy.imgfo.com/?referer=https://manganelo.com&url=https://s41.mkklcdnv6temp.com/mangakakalot/f1/familiar/vol1_chapter_45/15.jpg",
    "https://img-proxy.imgfo.com/?referer=https://manganelo.com&url=https://s41.mkklcdnv6temp.com/mangakakalot/f1/familiar/vol1_chapter_45/16.jpg",
    "https://img-proxy.imgfo.com/?referer=https://manganelo.com&url=https://s41.mkklcdnv6temp.com/mangakakalot/f1/familiar/vol1_chapter_45/17.jpg",
    "https://img-proxy.imgfo.com/?referer=https://manganelo.com&url=https://s41.mkklcdnv6temp.com/mangakakalot/f1/familiar/vol1_chapter_45/18.jpg"
  ]
}