{
  "cover": "https://avt.mkklcdnv6.com/12/u/4-1583470187.jpg",
  "title": "Akumetsu",
  "original": "アクメツ ; 恶灭",
  "genre": "Action, Comedy, Drama, Horror, Mature, Psychological, School life, Sci fi, Shounen, Supernatural, Tragedy, Manga",
  "author": "Tabata Yoshiaki",
  "status": "Completed",
  "backlink": "https://manganu.com/collections/tabata-yoshiaki/akumetsu/",
  "description": "Nagasawa Shiina was just your average 3rd year high schooler when her parents&#39; company went bankrupt. In order to help pay the bills, she sells herself into prostitution. At her first job, a mysterious masked man crashes the party...and it&#39;s someone she knows... Akumetsu is the story of Shou, who defends his own view of justice in a vigilante manner while wearing a mask and calling himself Akumetsu.",
  "language": "English",
  "images": [
    "https://img-proxy.imgfo.com/?referer=https://manganelo.com&url=https://s7.mkklcdnv6temp.com/mangakakalot/a1/akumetsu/vol7_chapter_53_unseen_countdown/1.jpg",
    "https://img-proxy.imgfo.com/?referer=https://manganelo.com&url=https://s7.mkklcdnv6temp.com/mangakakalot/a1/akumetsu/vol7_chapter_53_unseen_countdown/2.jpg",
    "https://img-proxy.imgfo.com/?referer=https://manganelo.com&url=https://s7.mkklcdnv6temp.com/mangakakalot/a1/akumetsu/vol7_chapter_53_unseen_countdown/3.jpg",
    "https://img-proxy.imgfo.com/?referer=https://manganelo.com&url=https://s7.mkklcdnv6temp.com/mangakakalot/a1/akumetsu/vol7_chapter_53_unseen_countdown/4.jpg",
    "https://img-proxy.imgfo.com/?referer=https://manganelo.com&url=https://s7.mkklcdnv6temp.com/mangakakalot/a1/akumetsu/vol7_chapter_53_unseen_countdown/5.jpg",
    "https://img-proxy.imgfo.com/?referer=https://manganelo.com&url=https://s7.mkklcdnv6temp.com/mangakakalot/a1/akumetsu/vol7_chapter_53_unseen_countdown/6.jpg",
    "https://img-proxy.imgfo.com/?referer=https://manganelo.com&url=https://s7.mkklcdnv6temp.com/mangakakalot/a1/akumetsu/vol7_chapter_53_unseen_countdown/7.jpg",
    "https://img-proxy.imgfo.com/?referer=https://manganelo.com&url=https://s7.mkklcdnv6temp.com/mangakakalot/a1/akumetsu/vol7_chapter_53_unseen_countdown/8.jpg",
    "https://img-proxy.imgfo.com/?referer=https://manganelo.com&url=https://s7.mkklcdnv6temp.com/mangakakalot/a1/akumetsu/vol7_chapter_53_unseen_countdown/9.jpg",
    "https://img-proxy.imgfo.com/?referer=https://manganelo.com&url=https://s7.mkklcdnv6temp.com/mangakakalot/a1/akumetsu/vol7_chapter_53_unseen_countdown/10.jpg",
    "https://img-proxy.imgfo.com/?referer=https://manganelo.com&url=https://s7.mkklcdnv6temp.com/mangakakalot/a1/akumetsu/vol7_chapter_53_unseen_countdown/11.jpg",
    "https://img-proxy.imgfo.com/?referer=https://manganelo.com&url=https://s7.mkklcdnv6temp.com/mangakakalot/a1/akumetsu/vol7_chapter_53_unseen_countdown/12.jpg",
    "https://img-proxy.imgfo.com/?referer=https://manganelo.com&url=https://s7.mkklcdnv6temp.com/mangakakalot/a1/akumetsu/vol7_chapter_53_unseen_countdown/13.jpg",
    "https://img-proxy.imgfo.com/?referer=https://manganelo.com&url=https://s7.mkklcdnv6temp.com/mangakakalot/a1/akumetsu/vol7_chapter_53_unseen_countdown/14.jpg",
    "https://img-proxy.imgfo.com/?referer=https://manganelo.com&url=https://s7.mkklcdnv6temp.com/mangakakalot/a1/akumetsu/vol7_chapter_53_unseen_countdown/15.jpg",
    "https://img-proxy.imgfo.com/?referer=https://manganelo.com&url=https://s7.mkklcdnv6temp.com/mangakakalot/a1/akumetsu/vol7_chapter_53_unseen_countdown/16.jpg",
    "https://img-proxy.imgfo.com/?referer=https://manganelo.com&url=https://s7.mkklcdnv6temp.com/mangakakalot/a1/akumetsu/vol7_chapter_53_unseen_countdown/17.jpg",
    "https://img-proxy.imgfo.com/?referer=https://manganelo.com&url=https://s7.mkklcdnv6temp.com/mangakakalot/a1/akumetsu/vol7_chapter_53_unseen_countdown/18.jpg",
    "https://img-proxy.imgfo.com/?referer=https://manganelo.com&url=https://s7.mkklcdnv6temp.com/mangakakalot/a1/akumetsu/vol7_chapter_53_unseen_countdown/19.jpg",
    "https://img-proxy.imgfo.com/?referer=https://manganelo.com&url=https://s7.mkklcdnv6temp.com/mangakakalot/a1/akumetsu/vol7_chapter_53_unseen_countdown/20.jpg",
    "https://img-proxy.imgfo.com/?referer=https://manganelo.com&url=https://s7.mkklcdnv6temp.com/mangakakalot/a1/akumetsu/vol7_chapter_53_unseen_countdown/21.jpg",
    "https://img-proxy.imgfo.com/?referer=https://manganelo.com&url=https://s7.mkklcdnv6temp.com/mangakakalot/a1/akumetsu/vol7_chapter_53_unseen_countdown/22.jpg",
    "https://img-proxy.imgfo.com/?referer=https://manganelo.com&url=https://s7.mkklcdnv6temp.com/mangakakalot/a1/akumetsu/vol7_chapter_53_unseen_countdown/23.jpg"
  ]
}