{
  "cover": "https://avt.mkklcdnv6.com/12/u/4-1583470187.jpg",
  "title": "Akumetsu",
  "original": "アクメツ ; 恶灭",
  "genre": "Action, Comedy, Drama, Horror, Mature, Psychological, School life, Sci fi, Shounen, Supernatural, Tragedy, Manga",
  "author": "Tabata Yoshiaki",
  "status": "Completed",
  "backlink": "https://manganu.com/collections/tabata-yoshiaki/akumetsu/",
  "description": "Nagasawa Shiina was just your average 3rd year high schooler when her parents&#39; company went bankrupt. In order to help pay the bills, she sells herself into prostitution. At her first job, a mysterious masked man crashes the party...and it&#39;s someone she knows... Akumetsu is the story of Shou, who defends his own view of justice in a vigilante manner while wearing a mask and calling himself Akumetsu.",
  "language": "English",
  "images": [
    "https://img-proxy.imgfo.com/?referer=https://manganelo.com&url=https://s7.mkklcdnv6temp.com/mangakakalot/a1/akumetsu/vol2_chapter_16_super_power/1.jpg",
    "https://img-proxy.imgfo.com/?referer=https://manganelo.com&url=https://s7.mkklcdnv6temp.com/mangakakalot/a1/akumetsu/vol2_chapter_16_super_power/2.jpg",
    "https://img-proxy.imgfo.com/?referer=https://manganelo.com&url=https://s7.mkklcdnv6temp.com/mangakakalot/a1/akumetsu/vol2_chapter_16_super_power/3.jpg",
    "https://img-proxy.imgfo.com/?referer=https://manganelo.com&url=https://s7.mkklcdnv6temp.com/mangakakalot/a1/akumetsu/vol2_chapter_16_super_power/4.jpg",
    "https://img-proxy.imgfo.com/?referer=https://manganelo.com&url=https://s7.mkklcdnv6temp.com/mangakakalot/a1/akumetsu/vol2_chapter_16_super_power/5.jpg",
    "https://img-proxy.imgfo.com/?referer=https://manganelo.com&url=https://s7.mkklcdnv6temp.com/mangakakalot/a1/akumetsu/vol2_chapter_16_super_power/6.jpg",
    "https://img-proxy.imgfo.com/?referer=https://manganelo.com&url=https://s7.mkklcdnv6temp.com/mangakakalot/a1/akumetsu/vol2_chapter_16_super_power/7.jpg",
    "https://img-proxy.imgfo.com/?referer=https://manganelo.com&url=https://s7.mkklcdnv6temp.com/mangakakalot/a1/akumetsu/vol2_chapter_16_super_power/8.jpg",
    "https://img-proxy.imgfo.com/?referer=https://manganelo.com&url=https://s7.mkklcdnv6temp.com/mangakakalot/a1/akumetsu/vol2_chapter_16_super_power/9.jpg",
    "https://img-proxy.imgfo.com/?referer=https://manganelo.com&url=https://s7.mkklcdnv6temp.com/mangakakalot/a1/akumetsu/vol2_chapter_16_super_power/10.jpg",
    "https://img-proxy.imgfo.com/?referer=https://manganelo.com&url=https://s7.mkklcdnv6temp.com/mangakakalot/a1/akumetsu/vol2_chapter_16_super_power/11.jpg",
    "https://img-proxy.imgfo.com/?referer=https://manganelo.com&url=https://s7.mkklcdnv6temp.com/mangakakalot/a1/akumetsu/vol2_chapter_16_super_power/12.jpg",
    "https://img-proxy.imgfo.com/?referer=https://manganelo.com&url=https://s7.mkklcdnv6temp.com/mangakakalot/a1/akumetsu/vol2_chapter_16_super_power/13.jpg",
    "https://img-proxy.imgfo.com/?referer=https://manganelo.com&url=https://s7.mkklcdnv6temp.com/mangakakalot/a1/akumetsu/vol2_chapter_16_super_power/14.jpg",
    "https://img-proxy.imgfo.com/?referer=https://manganelo.com&url=https://s7.mkklcdnv6temp.com/mangakakalot/a1/akumetsu/vol2_chapter_16_super_power/15.jpg",
    "https://img-proxy.imgfo.com/?referer=https://manganelo.com&url=https://s7.mkklcdnv6temp.com/mangakakalot/a1/akumetsu/vol2_chapter_16_super_power/16.jpg",
    "https://img-proxy.imgfo.com/?referer=https://manganelo.com&url=https://s7.mkklcdnv6temp.com/mangakakalot/a1/akumetsu/vol2_chapter_16_super_power/17.jpg",
    "https://img-proxy.imgfo.com/?referer=https://manganelo.com&url=https://s7.mkklcdnv6temp.com/mangakakalot/a1/akumetsu/vol2_chapter_16_super_power/18.jpg",
    "https://img-proxy.imgfo.com/?referer=https://manganelo.com&url=https://s7.mkklcdnv6temp.com/mangakakalot/a1/akumetsu/vol2_chapter_16_super_power/19.jpg",
    "https://img-proxy.imgfo.com/?referer=https://manganelo.com&url=https://s7.mkklcdnv6temp.com/mangakakalot/a1/akumetsu/vol2_chapter_16_super_power/20.jpg",
    "https://img-proxy.imgfo.com/?referer=https://manganelo.com&url=https://s7.mkklcdnv6temp.com/mangakakalot/a1/akumetsu/vol2_chapter_16_super_power/21.jpg"
  ]
}