{
  "cover": "https://avt.mkklcdnv6.com/12/u/4-1583470187.jpg",
  "title": "Akumetsu",
  "original": "アクメツ ; 恶灭",
  "genre": "Action, Comedy, Drama, Horror, Mature, Psychological, School life, Sci fi, Shounen, Supernatural, Tragedy, Manga",
  "author": "Tabata Yoshiaki",
  "status": "Completed",
  "backlink": "https://manganu.com/collections/tabata-yoshiaki/akumetsu/",
  "description": "Nagasawa Shiina was just your average 3rd year high schooler when her parents&#39; company went bankrupt. In order to help pay the bills, she sells herself into prostitution. At her first job, a mysterious masked man crashes the party...and it&#39;s someone she knows... Akumetsu is the story of Shou, who defends his own view of justice in a vigilante manner while wearing a mask and calling himself Akumetsu.",
  "language": "English",
  "images": [
    "https://img-proxy.imgfo.com/?referer=https://manganelo.com&url=https://s7.mkklcdnv6temp.com/mangakakalot/a1/akumetsu/vol9_chapter_78_greatest_evil_fisher_in_japan/1.jpg",
    "https://img-proxy.imgfo.com/?referer=https://manganelo.com&url=https://s7.mkklcdnv6temp.com/mangakakalot/a1/akumetsu/vol9_chapter_78_greatest_evil_fisher_in_japan/2.jpg",
    "https://img-proxy.imgfo.com/?referer=https://manganelo.com&url=https://s7.mkklcdnv6temp.com/mangakakalot/a1/akumetsu/vol9_chapter_78_greatest_evil_fisher_in_japan/3.jpg",
    "https://img-proxy.imgfo.com/?referer=https://manganelo.com&url=https://s7.mkklcdnv6temp.com/mangakakalot/a1/akumetsu/vol9_chapter_78_greatest_evil_fisher_in_japan/4.jpg",
    "https://img-proxy.imgfo.com/?referer=https://manganelo.com&url=https://s7.mkklcdnv6temp.com/mangakakalot/a1/akumetsu/vol9_chapter_78_greatest_evil_fisher_in_japan/5.jpg",
    "https://img-proxy.imgfo.com/?referer=https://manganelo.com&url=https://s7.mkklcdnv6temp.com/mangakakalot/a1/akumetsu/vol9_chapter_78_greatest_evil_fisher_in_japan/6.jpg",
    "https://img-proxy.imgfo.com/?referer=https://manganelo.com&url=https://s7.mkklcdnv6temp.com/mangakakalot/a1/akumetsu/vol9_chapter_78_greatest_evil_fisher_in_japan/7.jpg",
    "https://img-proxy.imgfo.com/?referer=https://manganelo.com&url=https://s7.mkklcdnv6temp.com/mangakakalot/a1/akumetsu/vol9_chapter_78_greatest_evil_fisher_in_japan/8.jpg",
    "https://img-proxy.imgfo.com/?referer=https://manganelo.com&url=https://s7.mkklcdnv6temp.com/mangakakalot/a1/akumetsu/vol9_chapter_78_greatest_evil_fisher_in_japan/9.jpg",
    "https://img-proxy.imgfo.com/?referer=https://manganelo.com&url=https://s7.mkklcdnv6temp.com/mangakakalot/a1/akumetsu/vol9_chapter_78_greatest_evil_fisher_in_japan/10.jpg",
    "https://img-proxy.imgfo.com/?referer=https://manganelo.com&url=https://s7.mkklcdnv6temp.com/mangakakalot/a1/akumetsu/vol9_chapter_78_greatest_evil_fisher_in_japan/11.jpg",
    "https://img-proxy.imgfo.com/?referer=https://manganelo.com&url=https://s7.mkklcdnv6temp.com/mangakakalot/a1/akumetsu/vol9_chapter_78_greatest_evil_fisher_in_japan/12.jpg",
    "https://img-proxy.imgfo.com/?referer=https://manganelo.com&url=https://s7.mkklcdnv6temp.com/mangakakalot/a1/akumetsu/vol9_chapter_78_greatest_evil_fisher_in_japan/13.jpg",
    "https://img-proxy.imgfo.com/?referer=https://manganelo.com&url=https://s7.mkklcdnv6temp.com/mangakakalot/a1/akumetsu/vol9_chapter_78_greatest_evil_fisher_in_japan/14.jpg",
    "https://img-proxy.imgfo.com/?referer=https://manganelo.com&url=https://s7.mkklcdnv6temp.com/mangakakalot/a1/akumetsu/vol9_chapter_78_greatest_evil_fisher_in_japan/15.jpg",
    "https://img-proxy.imgfo.com/?referer=https://manganelo.com&url=https://s7.mkklcdnv6temp.com/mangakakalot/a1/akumetsu/vol9_chapter_78_greatest_evil_fisher_in_japan/16.jpg",
    "https://img-proxy.imgfo.com/?referer=https://manganelo.com&url=https://s7.mkklcdnv6temp.com/mangakakalot/a1/akumetsu/vol9_chapter_78_greatest_evil_fisher_in_japan/17.jpg",
    "https://img-proxy.imgfo.com/?referer=https://manganelo.com&url=https://s7.mkklcdnv6temp.com/mangakakalot/a1/akumetsu/vol9_chapter_78_greatest_evil_fisher_in_japan/18.jpg",
    "https://img-proxy.imgfo.com/?referer=https://manganelo.com&url=https://s7.mkklcdnv6temp.com/mangakakalot/a1/akumetsu/vol9_chapter_78_greatest_evil_fisher_in_japan/19.jpg",
    "https://img-proxy.imgfo.com/?referer=https://manganelo.com&url=https://s7.mkklcdnv6temp.com/mangakakalot/a1/akumetsu/vol9_chapter_78_greatest_evil_fisher_in_japan/20.jpg"
  ]
}