{
  "cover": "https://avt.mkklcdnv6.com/26/g/14-1583490675.jpg",
  "title": "Diamond Wa Kudakenai",
  "original": "Diamond is Unbreakable ; JoJo's Bizarre Adventure Part 4: Diamond is Unbreakable ; JoJo's Bizarre Adventure Part 4: Higashikata Josuke",
  "genre": "Action, Comedy, Mystery, Shounen, Supernatural, Manga",
  "author": "Araki Hirohiko",
  "status": "Completed",
  "backlink": "https://manganu.com/collections/araki-hirohiko/diamond-wa-kudakenai/",
  "description": "SERIES 4: Diamond is Unbreakable Diamond is Unbreakable follows Josuke Higashikata and his good friend Koichi Hirose as they protect their town from the influx of Stand users. Jotaro Kujo arrives to warn Josuke about the Bow and Arrow a mysterious man is using to bring out a person&#39;s Stand abilities, but it is up to Josuke, Koichi and their allies to defeat those who would use their Stand abilities for evil - most notably Yoshikage Kira.",
  "language": "English",
  "images": [
    "https://img-proxy.imgfo.com/?referer=https://manganelo.com&url=https://s3.mkklcdnv6temp.com/mangakakalot/d1/diamond_wa_kudakenai/vol32_chapter_298_yukako_yamagishi_is_in_love_part_5/1.jpg",
    "https://img-proxy.imgfo.com/?referer=https://manganelo.com&url=https://s3.mkklcdnv6temp.com/mangakakalot/d1/diamond_wa_kudakenai/vol32_chapter_298_yukako_yamagishi_is_in_love_part_5/2.jpg",
    "https://img-proxy.imgfo.com/?referer=https://manganelo.com&url=https://s3.mkklcdnv6temp.com/mangakakalot/d1/diamond_wa_kudakenai/vol32_chapter_298_yukako_yamagishi_is_in_love_part_5/3.jpg",
    "https://img-proxy.imgfo.com/?referer=https://manganelo.com&url=https://s3.mkklcdnv6temp.com/mangakakalot/d1/diamond_wa_kudakenai/vol32_chapter_298_yukako_yamagishi_is_in_love_part_5/4.jpg",
    "https://img-proxy.imgfo.com/?referer=https://manganelo.com&url=https://s3.mkklcdnv6temp.com/mangakakalot/d1/diamond_wa_kudakenai/vol32_chapter_298_yukako_yamagishi_is_in_love_part_5/5.jpg",
    "https://img-proxy.imgfo.com/?referer=https://manganelo.com&url=https://s3.mkklcdnv6temp.com/mangakakalot/d1/diamond_wa_kudakenai/vol32_chapter_298_yukako_yamagishi_is_in_love_part_5/6.jpg",
    "https://img-proxy.imgfo.com/?referer=https://manganelo.com&url=https://s3.mkklcdnv6temp.com/mangakakalot/d1/diamond_wa_kudakenai/vol32_chapter_298_yukako_yamagishi_is_in_love_part_5/7.jpg",
    "https://img-proxy.imgfo.com/?referer=https://manganelo.com&url=https://s3.mkklcdnv6temp.com/mangakakalot/d1/diamond_wa_kudakenai/vol32_chapter_298_yukako_yamagishi_is_in_love_part_5/8.jpg",
    "https://img-proxy.imgfo.com/?referer=https://manganelo.com&url=https://s3.mkklcdnv6temp.com/mangakakalot/d1/diamond_wa_kudakenai/vol32_chapter_298_yukako_yamagishi_is_in_love_part_5/9.jpg",
    "https://img-proxy.imgfo.com/?referer=https://manganelo.com&url=https://s3.mkklcdnv6temp.com/mangakakalot/d1/diamond_wa_kudakenai/vol32_chapter_298_yukako_yamagishi_is_in_love_part_5/10.jpg",
    "https://img-proxy.imgfo.com/?referer=https://manganelo.com&url=https://s3.mkklcdnv6temp.com/mangakakalot/d1/diamond_wa_kudakenai/vol32_chapter_298_yukako_yamagishi_is_in_love_part_5/11.jpg",
    "https://img-proxy.imgfo.com/?referer=https://manganelo.com&url=https://s3.mkklcdnv6temp.com/mangakakalot/d1/diamond_wa_kudakenai/vol32_chapter_298_yukako_yamagishi_is_in_love_part_5/12.jpg",
    "https://img-proxy.imgfo.com/?referer=https://manganelo.com&url=https://s3.mkklcdnv6temp.com/mangakakalot/d1/diamond_wa_kudakenai/vol32_chapter_298_yukako_yamagishi_is_in_love_part_5/13.jpg",
    "https://img-proxy.imgfo.com/?referer=https://manganelo.com&url=https://s3.mkklcdnv6temp.com/mangakakalot/d1/diamond_wa_kudakenai/vol32_chapter_298_yukako_yamagishi_is_in_love_part_5/14.jpg",
    "https://img-proxy.imgfo.com/?referer=https://manganelo.com&url=https://s3.mkklcdnv6temp.com/mangakakalot/d1/diamond_wa_kudakenai/vol32_chapter_298_yukako_yamagishi_is_in_love_part_5/15.jpg",
    "https://img-proxy.imgfo.com/?referer=https://manganelo.com&url=https://s3.mkklcdnv6temp.com/mangakakalot/d1/diamond_wa_kudakenai/vol32_chapter_298_yukako_yamagishi_is_in_love_part_5/16.jpg",
    "https://img-proxy.imgfo.com/?referer=https://manganelo.com&url=https://s3.mkklcdnv6temp.com/mangakakalot/d1/diamond_wa_kudakenai/vol32_chapter_298_yukako_yamagishi_is_in_love_part_5/17.jpg",
    "https://img-proxy.imgfo.com/?referer=https://manganelo.com&url=https://s3.mkklcdnv6temp.com/mangakakalot/d1/diamond_wa_kudakenai/vol32_chapter_298_yukako_yamagishi_is_in_love_part_5/18.jpg",
    "https://img-proxy.imgfo.com/?referer=https://manganelo.com&url=https://s3.mkklcdnv6temp.com/mangakakalot/d1/diamond_wa_kudakenai/vol32_chapter_298_yukako_yamagishi_is_in_love_part_5/19.jpg",
    "https://img-proxy.imgfo.com/?referer=https://manganelo.com&url=https://s3.mkklcdnv6temp.com/mangakakalot/d1/diamond_wa_kudakenai/vol32_chapter_298_yukako_yamagishi_is_in_love_part_5/20.jpg"
  ]
}