{
  "cover": "https://avt.mkklcdnv6.com/7/k/6-1583474397.jpg",
  "title": "Umineko No Naku Koro Ni Episode 3: Banquet Of The Golden Witch",
  "genre": "Action, Drama, Fantasy, Horror, Mystery, Psychological, Shounen, Supernatural, Tragedy, Manga",
  "author": "Ryukishi 07",
  "status": "Completed",
  "backlink": "https://manganu.com/collections/ryukishi-07/umineko-no-naku-koro-ni-episode-3-banquet-of-the-golden-witch/",
  "description": "In 1986, eleven members of the Ushiromiya family and several of their servants were trapped and mysteriously murdered on Rokkenjima, which the Golden Witch Beatrice claims to be responsible for. While Battler Ushiromiya is unable to defeat her and explain how the murders occurred without magic, he refuses to acknowledge Beatrice, forcing their game to continue with higher stakes.\nAs the events on Rokkenjima are begin again, Eva Ushiromiya succeeds in solving the Epitaph of the Golden Witch in order to become the head of the Ushiromiya family and inherit the family's massive fortune. However, a phantom of Eva's dark side emerges and uncontrollably begins to wreck havoc on the island as Beatrice's successor.",
  "language": "English",
  "images": [
    "https://img-proxy.imgfo.com/?referer=https://manganelo.com&url=https://s5.mkklcdnv6temp.com/mangakakalot/u1/umineko_no_naku_koro_ni_episode_3_banquet_of_the_golden_witch/vol5_chapter_22_hidden_tea_party/1.jpg",
    "https://img-proxy.imgfo.com/?referer=https://manganelo.com&url=https://s5.mkklcdnv6temp.com/mangakakalot/u1/umineko_no_naku_koro_ni_episode_3_banquet_of_the_golden_witch/vol5_chapter_22_hidden_tea_party/2.jpg",
    "https://img-proxy.imgfo.com/?referer=https://manganelo.com&url=https://s5.mkklcdnv6temp.com/mangakakalot/u1/umineko_no_naku_koro_ni_episode_3_banquet_of_the_golden_witch/vol5_chapter_22_hidden_tea_party/3.jpg",
    "https://img-proxy.imgfo.com/?referer=https://manganelo.com&url=https://s5.mkklcdnv6temp.com/mangakakalot/u1/umineko_no_naku_koro_ni_episode_3_banquet_of_the_golden_witch/vol5_chapter_22_hidden_tea_party/4.jpg",
    "https://img-proxy.imgfo.com/?referer=https://manganelo.com&url=https://s5.mkklcdnv6temp.com/mangakakalot/u1/umineko_no_naku_koro_ni_episode_3_banquet_of_the_golden_witch/vol5_chapter_22_hidden_tea_party/5.jpg",
    "https://img-proxy.imgfo.com/?referer=https://manganelo.com&url=https://s5.mkklcdnv6temp.com/mangakakalot/u1/umineko_no_naku_koro_ni_episode_3_banquet_of_the_golden_witch/vol5_chapter_22_hidden_tea_party/6.jpg",
    "https://img-proxy.imgfo.com/?referer=https://manganelo.com&url=https://s5.mkklcdnv6temp.com/mangakakalot/u1/umineko_no_naku_koro_ni_episode_3_banquet_of_the_golden_witch/vol5_chapter_22_hidden_tea_party/7.jpg",
    "https://img-proxy.imgfo.com/?referer=https://manganelo.com&url=https://s5.mkklcdnv6temp.com/mangakakalot/u1/umineko_no_naku_koro_ni_episode_3_banquet_of_the_golden_witch/vol5_chapter_22_hidden_tea_party/8.jpg",
    "https://img-proxy.imgfo.com/?referer=https://manganelo.com&url=https://s5.mkklcdnv6temp.com/mangakakalot/u1/umineko_no_naku_koro_ni_episode_3_banquet_of_the_golden_witch/vol5_chapter_22_hidden_tea_party/9.jpg",
    "https://img-proxy.imgfo.com/?referer=https://manganelo.com&url=https://s5.mkklcdnv6temp.com/mangakakalot/u1/umineko_no_naku_koro_ni_episode_3_banquet_of_the_golden_witch/vol5_chapter_22_hidden_tea_party/10.jpg",
    "https://img-proxy.imgfo.com/?referer=https://manganelo.com&url=https://s5.mkklcdnv6temp.com/mangakakalot/u1/umineko_no_naku_koro_ni_episode_3_banquet_of_the_golden_witch/vol5_chapter_22_hidden_tea_party/11.jpg",
    "https://img-proxy.imgfo.com/?referer=https://manganelo.com&url=https://s5.mkklcdnv6temp.com/mangakakalot/u1/umineko_no_naku_koro_ni_episode_3_banquet_of_the_golden_witch/vol5_chapter_22_hidden_tea_party/12.jpg",
    "https://img-proxy.imgfo.com/?referer=https://manganelo.com&url=https://s5.mkklcdnv6temp.com/mangakakalot/u1/umineko_no_naku_koro_ni_episode_3_banquet_of_the_golden_witch/vol5_chapter_22_hidden_tea_party/13.jpg",
    "https://img-proxy.imgfo.com/?referer=https://manganelo.com&url=https://s5.mkklcdnv6temp.com/mangakakalot/u1/umineko_no_naku_koro_ni_episode_3_banquet_of_the_golden_witch/vol5_chapter_22_hidden_tea_party/14.jpg",
    "https://img-proxy.imgfo.com/?referer=https://manganelo.com&url=https://s5.mkklcdnv6temp.com/mangakakalot/u1/umineko_no_naku_koro_ni_episode_3_banquet_of_the_golden_witch/vol5_chapter_22_hidden_tea_party/15.jpg",
    "https://img-proxy.imgfo.com/?referer=https://manganelo.com&url=https://s5.mkklcdnv6temp.com/mangakakalot/u1/umineko_no_naku_koro_ni_episode_3_banquet_of_the_golden_witch/vol5_chapter_22_hidden_tea_party/16.jpg",
    "https://img-proxy.imgfo.com/?referer=https://manganelo.com&url=https://s5.mkklcdnv6temp.com/mangakakalot/u1/umineko_no_naku_koro_ni_episode_3_banquet_of_the_golden_witch/vol5_chapter_22_hidden_tea_party/17.jpg",
    "https://img-proxy.imgfo.com/?referer=https://manganelo.com&url=https://s5.mkklcdnv6temp.com/mangakakalot/u1/umineko_no_naku_koro_ni_episode_3_banquet_of_the_golden_witch/vol5_chapter_22_hidden_tea_party/18.jpg",
    "https://img-proxy.imgfo.com/?referer=https://manganelo.com&url=https://s5.mkklcdnv6temp.com/mangakakalot/u1/umineko_no_naku_koro_ni_episode_3_banquet_of_the_golden_witch/vol5_chapter_22_hidden_tea_party/19.jpg",
    "https://img-proxy.imgfo.com/?referer=https://manganelo.com&url=https://s5.mkklcdnv6temp.com/mangakakalot/u1/umineko_no_naku_koro_ni_episode_3_banquet_of_the_golden_witch/vol5_chapter_22_hidden_tea_party/20.jpg",
    "https://img-proxy.imgfo.com/?referer=https://manganelo.com&url=https://s5.mkklcdnv6temp.com/mangakakalot/u1/umineko_no_naku_koro_ni_episode_3_banquet_of_the_golden_witch/vol5_chapter_22_hidden_tea_party/21.jpg",
    "https://img-proxy.imgfo.com/?referer=https://manganelo.com&url=https://s5.mkklcdnv6temp.com/mangakakalot/u1/umineko_no_naku_koro_ni_episode_3_banquet_of_the_golden_witch/vol5_chapter_22_hidden_tea_party/22.jpg",
    "https://img-proxy.imgfo.com/?referer=https://manganelo.com&url=https://s5.mkklcdnv6temp.com/mangakakalot/u1/umineko_no_naku_koro_ni_episode_3_banquet_of_the_golden_witch/vol5_chapter_22_hidden_tea_party/23.jpg",
    "https://img-proxy.imgfo.com/?referer=https://manganelo.com&url=https://s5.mkklcdnv6temp.com/mangakakalot/u1/umineko_no_naku_koro_ni_episode_3_banquet_of_the_golden_witch/vol5_chapter_22_hidden_tea_party/24.jpg",
    "https://img-proxy.imgfo.com/?referer=https://manganelo.com&url=https://s5.mkklcdnv6temp.com/mangakakalot/u1/umineko_no_naku_koro_ni_episode_3_banquet_of_the_golden_witch/vol5_chapter_22_hidden_tea_party/25.jpg",
    "https://img-proxy.imgfo.com/?referer=https://manganelo.com&url=https://s5.mkklcdnv6temp.com/mangakakalot/u1/umineko_no_naku_koro_ni_episode_3_banquet_of_the_golden_witch/vol5_chapter_22_hidden_tea_party/26.jpg",
    "https://img-proxy.imgfo.com/?referer=https://manganelo.com&url=https://s5.mkklcdnv6temp.com/mangakakalot/u1/umineko_no_naku_koro_ni_episode_3_banquet_of_the_golden_witch/vol5_chapter_22_hidden_tea_party/27.jpg",
    "https://img-proxy.imgfo.com/?referer=https://manganelo.com&url=https://s5.mkklcdnv6temp.com/mangakakalot/u1/umineko_no_naku_koro_ni_episode_3_banquet_of_the_golden_witch/vol5_chapter_22_hidden_tea_party/28.jpg",
    "https://img-proxy.imgfo.com/?referer=https://manganelo.com&url=https://s5.mkklcdnv6temp.com/mangakakalot/u1/umineko_no_naku_koro_ni_episode_3_banquet_of_the_golden_witch/vol5_chapter_22_hidden_tea_party/29.jpg",
    "https://img-proxy.imgfo.com/?referer=https://manganelo.com&url=https://s5.mkklcdnv6temp.com/mangakakalot/u1/umineko_no_naku_koro_ni_episode_3_banquet_of_the_golden_witch/vol5_chapter_22_hidden_tea_party/30.jpg",
    "https://img-proxy.imgfo.com/?referer=https://manganelo.com&url=https://s5.mkklcdnv6temp.com/mangakakalot/u1/umineko_no_naku_koro_ni_episode_3_banquet_of_the_golden_witch/vol5_chapter_22_hidden_tea_party/31.jpg",
    "https://img-proxy.imgfo.com/?referer=https://manganelo.com&url=https://s5.mkklcdnv6temp.com/mangakakalot/u1/umineko_no_naku_koro_ni_episode_3_banquet_of_the_golden_witch/vol5_chapter_22_hidden_tea_party/32.jpg",
    "https://img-proxy.imgfo.com/?referer=https://manganelo.com&url=https://s5.mkklcdnv6temp.com/mangakakalot/u1/umineko_no_naku_koro_ni_episode_3_banquet_of_the_golden_witch/vol5_chapter_22_hidden_tea_party/33.jpg",
    "https://img-proxy.imgfo.com/?referer=https://manganelo.com&url=https://s5.mkklcdnv6temp.com/mangakakalot/u1/umineko_no_naku_koro_ni_episode_3_banquet_of_the_golden_witch/vol5_chapter_22_hidden_tea_party/34.jpg",
    "https://img-proxy.imgfo.com/?referer=https://manganelo.com&url=https://s5.mkklcdnv6temp.com/mangakakalot/u1/umineko_no_naku_koro_ni_episode_3_banquet_of_the_golden_witch/vol5_chapter_22_hidden_tea_party/35.jpg",
    "https://img-proxy.imgfo.com/?referer=https://manganelo.com&url=https://s5.mkklcdnv6temp.com/mangakakalot/u1/umineko_no_naku_koro_ni_episode_3_banquet_of_the_golden_witch/vol5_chapter_22_hidden_tea_party/36.jpg",
    "https://img-proxy.imgfo.com/?referer=https://manganelo.com&url=https://s5.mkklcdnv6temp.com/mangakakalot/u1/umineko_no_naku_koro_ni_episode_3_banquet_of_the_golden_witch/vol5_chapter_22_hidden_tea_party/37.jpg",
    "https://img-proxy.imgfo.com/?referer=https://manganelo.com&url=https://s5.mkklcdnv6temp.com/mangakakalot/u1/umineko_no_naku_koro_ni_episode_3_banquet_of_the_golden_witch/vol5_chapter_22_hidden_tea_party/38.jpg",
    "https://img-proxy.imgfo.com/?referer=https://manganelo.com&url=https://s5.mkklcdnv6temp.com/mangakakalot/u1/umineko_no_naku_koro_ni_episode_3_banquet_of_the_golden_witch/vol5_chapter_22_hidden_tea_party/39.jpg",
    "https://img-proxy.imgfo.com/?referer=https://manganelo.com&url=https://s5.mkklcdnv6temp.com/mangakakalot/u1/umineko_no_naku_koro_ni_episode_3_banquet_of_the_golden_witch/vol5_chapter_22_hidden_tea_party/40.jpg",
    "https://img-proxy.imgfo.com/?referer=https://manganelo.com&url=https://s5.mkklcdnv6temp.com/mangakakalot/u1/umineko_no_naku_koro_ni_episode_3_banquet_of_the_golden_witch/vol5_chapter_22_hidden_tea_party/41.jpg",
    "https://img-proxy.imgfo.com/?referer=https://manganelo.com&url=https://s5.mkklcdnv6temp.com/mangakakalot/u1/umineko_no_naku_koro_ni_episode_3_banquet_of_the_golden_witch/vol5_chapter_22_hidden_tea_party/42.jpg"
  ]
}