{
  "cover": "https://avt.mkklcdnv6.com/40/m/18-1583498671.jpg",
  "title": "Bimajyo No Ayano-San",
  "original": "Bimajo no Ayano-san; 美魔女の綾乃さん; 魔性的綾乃小姐; 魔性的绫乃小姐; 미마녀 아야노씨",
  "genre": "Comedy, Ecchi, Seinen, Slice of life, Manga",
  "author": "Aihara Akito",
  "status": "Completed",
  "backlink": "https://manganu.com/collections/aihara-akito/bimajyo-no-ayano-san/",
  "description": "Ayano-san is a beautiful housewife with a son, Yuusei, who doesn&#39;t seem to approve of her carefree ways. Always smiling and well-meaning, Ayano-san still finds a way to make herself an object of curiosity and appreciation by passing people.\n\n&quot;Bimajyo&quot; (literally beautiful witch) is a term apparently used in Japan to describe a woman older than 35 or so who has retained her great beauty, almost as if by magic. So it doesn&#39;t mean she&#39;s a witch or the series will pivot to that genre in the future.",
  "language": "English",
  "images": [
    "https://img-proxy.imgfo.com/?referer=https://manganelo.com&url=https://s41.mkklcdnv6temp.com/mangakakalot/u1/ui919666/vol1_chapter_14/1.jpg",
    "https://img-proxy.imgfo.com/?referer=https://manganelo.com&url=https://s41.mkklcdnv6temp.com/mangakakalot/u1/ui919666/vol1_chapter_14/2.jpg",
    "https://img-proxy.imgfo.com/?referer=https://manganelo.com&url=https://s41.mkklcdnv6temp.com/mangakakalot/u1/ui919666/vol1_chapter_14/3.jpg",
    "https://img-proxy.imgfo.com/?referer=https://manganelo.com&url=https://s41.mkklcdnv6temp.com/mangakakalot/u1/ui919666/vol1_chapter_14/4.jpg",
    "https://img-proxy.imgfo.com/?referer=https://manganelo.com&url=https://s41.mkklcdnv6temp.com/mangakakalot/u1/ui919666/vol1_chapter_14/5.jpg",
    "https://img-proxy.imgfo.com/?referer=https://manganelo.com&url=https://s41.mkklcdnv6temp.com/mangakakalot/u1/ui919666/vol1_chapter_14/6.jpg"
  ]
}