{
  "cover": "https://avt.mkklcdnv6.com/36/u/9-1583481600.jpg",
  "title": "Young Gun Carnaval",
  "original": "ヤングガン・カルナバル ; 刺客少年 ; Young Gun Carnival",
  "genre": "Action, Drama, School life, Seinen, Manga",
  "author": "Fukami Makoto",
  "status": "Completed",
  "backlink": "https://manganu.com/collections/fukami-makoto/young-gun-carnaval/",
  "description": "High school student Jinpachi Kogure is a member of the manga club and is no good with women. Yumika Testuyoshi is a troubled female high school student who&#39;s always skipping school and searching for a girl she doesn&#39;t hate. However, these two are in reality young masters of the art of killing people: &quot;Young Guns&quot;----!",
  "language": "English",
  "images": [
    "https://img-proxy.imgfo.com/?referer=https://manganelo.com&url=https://s41.mkklcdnv6temp.com/mangakakalot/y2/young_gun_carnaval/vol2_chapter_7_storm_warning/1.jpg",
    "https://img-proxy.imgfo.com/?referer=https://manganelo.com&url=https://s41.mkklcdnv6temp.com/mangakakalot/y2/young_gun_carnaval/vol2_chapter_7_storm_warning/2.jpg",
    "https://img-proxy.imgfo.com/?referer=https://manganelo.com&url=https://s41.mkklcdnv6temp.com/mangakakalot/y2/young_gun_carnaval/vol2_chapter_7_storm_warning/3.jpg",
    "https://img-proxy.imgfo.com/?referer=https://manganelo.com&url=https://s41.mkklcdnv6temp.com/mangakakalot/y2/young_gun_carnaval/vol2_chapter_7_storm_warning/4.jpg",
    "https://img-proxy.imgfo.com/?referer=https://manganelo.com&url=https://s41.mkklcdnv6temp.com/mangakakalot/y2/young_gun_carnaval/vol2_chapter_7_storm_warning/5.jpg",
    "https://img-proxy.imgfo.com/?referer=https://manganelo.com&url=https://s41.mkklcdnv6temp.com/mangakakalot/y2/young_gun_carnaval/vol2_chapter_7_storm_warning/6.jpg",
    "https://img-proxy.imgfo.com/?referer=https://manganelo.com&url=https://s41.mkklcdnv6temp.com/mangakakalot/y2/young_gun_carnaval/vol2_chapter_7_storm_warning/7.jpg",
    "https://img-proxy.imgfo.com/?referer=https://manganelo.com&url=https://s41.mkklcdnv6temp.com/mangakakalot/y2/young_gun_carnaval/vol2_chapter_7_storm_warning/8.jpg",
    "https://img-proxy.imgfo.com/?referer=https://manganelo.com&url=https://s41.mkklcdnv6temp.com/mangakakalot/y2/young_gun_carnaval/vol2_chapter_7_storm_warning/9.jpg",
    "https://img-proxy.imgfo.com/?referer=https://manganelo.com&url=https://s41.mkklcdnv6temp.com/mangakakalot/y2/young_gun_carnaval/vol2_chapter_7_storm_warning/10.jpg",
    "https://img-proxy.imgfo.com/?referer=https://manganelo.com&url=https://s41.mkklcdnv6temp.com/mangakakalot/y2/young_gun_carnaval/vol2_chapter_7_storm_warning/11.jpg",
    "https://img-proxy.imgfo.com/?referer=https://manganelo.com&url=https://s41.mkklcdnv6temp.com/mangakakalot/y2/young_gun_carnaval/vol2_chapter_7_storm_warning/12.jpg",
    "https://img-proxy.imgfo.com/?referer=https://manganelo.com&url=https://s41.mkklcdnv6temp.com/mangakakalot/y2/young_gun_carnaval/vol2_chapter_7_storm_warning/13.jpg",
    "https://img-proxy.imgfo.com/?referer=https://manganelo.com&url=https://s41.mkklcdnv6temp.com/mangakakalot/y2/young_gun_carnaval/vol2_chapter_7_storm_warning/14.jpg",
    "https://img-proxy.imgfo.com/?referer=https://manganelo.com&url=https://s41.mkklcdnv6temp.com/mangakakalot/y2/young_gun_carnaval/vol2_chapter_7_storm_warning/15.jpg",
    "https://img-proxy.imgfo.com/?referer=https://manganelo.com&url=https://s41.mkklcdnv6temp.com/mangakakalot/y2/young_gun_carnaval/vol2_chapter_7_storm_warning/16.jpg",
    "https://img-proxy.imgfo.com/?referer=https://manganelo.com&url=https://s41.mkklcdnv6temp.com/mangakakalot/y2/young_gun_carnaval/vol2_chapter_7_storm_warning/17.jpg",
    "https://img-proxy.imgfo.com/?referer=https://manganelo.com&url=https://s41.mkklcdnv6temp.com/mangakakalot/y2/young_gun_carnaval/vol2_chapter_7_storm_warning/18.jpg",
    "https://img-proxy.imgfo.com/?referer=https://manganelo.com&url=https://s41.mkklcdnv6temp.com/mangakakalot/y2/young_gun_carnaval/vol2_chapter_7_storm_warning/19.jpg",
    "https://img-proxy.imgfo.com/?referer=https://manganelo.com&url=https://s41.mkklcdnv6temp.com/mangakakalot/y2/young_gun_carnaval/vol2_chapter_7_storm_warning/20.jpg",
    "https://img-proxy.imgfo.com/?referer=https://manganelo.com&url=https://s41.mkklcdnv6temp.com/mangakakalot/y2/young_gun_carnaval/vol2_chapter_7_storm_warning/21.jpg",
    "https://img-proxy.imgfo.com/?referer=https://manganelo.com&url=https://s41.mkklcdnv6temp.com/mangakakalot/y2/young_gun_carnaval/vol2_chapter_7_storm_warning/22.jpg",
    "https://img-proxy.imgfo.com/?referer=https://manganelo.com&url=https://s41.mkklcdnv6temp.com/mangakakalot/y2/young_gun_carnaval/vol2_chapter_7_storm_warning/23.jpg",
    "https://img-proxy.imgfo.com/?referer=https://manganelo.com&url=https://s41.mkklcdnv6temp.com/mangakakalot/y2/young_gun_carnaval/vol2_chapter_7_storm_warning/24.jpg",
    "https://img-proxy.imgfo.com/?referer=https://manganelo.com&url=https://s41.mkklcdnv6temp.com/mangakakalot/y2/young_gun_carnaval/vol2_chapter_7_storm_warning/25.jpg",
    "https://img-proxy.imgfo.com/?referer=https://manganelo.com&url=https://s41.mkklcdnv6temp.com/mangakakalot/y2/young_gun_carnaval/vol2_chapter_7_storm_warning/26.jpg",
    "https://img-proxy.imgfo.com/?referer=https://manganelo.com&url=https://s41.mkklcdnv6temp.com/mangakakalot/y2/young_gun_carnaval/vol2_chapter_7_storm_warning/27.jpg",
    "https://img-proxy.imgfo.com/?referer=https://manganelo.com&url=https://s41.mkklcdnv6temp.com/mangakakalot/y2/young_gun_carnaval/vol2_chapter_7_storm_warning/28.jpg",
    "https://img-proxy.imgfo.com/?referer=https://manganelo.com&url=https://s41.mkklcdnv6temp.com/mangakakalot/y2/young_gun_carnaval/vol2_chapter_7_storm_warning/29.jpg",
    "https://img-proxy.imgfo.com/?referer=https://manganelo.com&url=https://s41.mkklcdnv6temp.com/mangakakalot/y2/young_gun_carnaval/vol2_chapter_7_storm_warning/30.jpg",
    "https://img-proxy.imgfo.com/?referer=https://manganelo.com&url=https://s41.mkklcdnv6temp.com/mangakakalot/y2/young_gun_carnaval/vol2_chapter_7_storm_warning/31.jpg",
    "https://img-proxy.imgfo.com/?referer=https://manganelo.com&url=https://s41.mkklcdnv6temp.com/mangakakalot/y2/young_gun_carnaval/vol2_chapter_7_storm_warning/32.jpg"
  ]
}