{
  "cover": "https://avt.mkklcdnv6.com/49/k/1-1583465655.jpg",
  "title": "Koori No Mamono No Monogatari",
  "original": "冰之魔物語 ; 冰之魔物语 ; 氷の魔物の物語 ; ตำนานภูตน้ำแข็ง ; The Ice-Cold Demon's Tale ; Truyền thuyết băng quỷ",
  "genre": "Adventure, Comedy, Drama, Fantasy, Mystery, Shounen ai, Supernatural, Manga",
  "author": "Sugiura Shiho",
  "status": "Completed",
  "backlink": "https://manganu.com/collections/sugiura-shiho/koori-no-mamono-no-monogatari/",
  "description": "From Storm in Heaven:\nDeep in a cave lies a demon trapped in ice who will eat any human who dares enter. The demon, Blood, waits for the human who will cry the purest tears, for the gem formed from those tears will break the spell that binds him. Then one day, a young man named Ishuca appears in the cave - and knowing that his weak heart will not last long, he has come to die. Touched by Ishuca's gentle nature, Blood gradually begins to change from the cruel, ice-cold demon he once was.",
  "language": "English",
  "images": [
    "https://img-proxy.imgfo.com/?referer=https://manganelo.com&url=https://s7.mkklcdnv6temp.com/mangakakalot/k2/koori_no_mamono_no_monogatari/vol6_chapter_27/1.jpg",
    "https://img-proxy.imgfo.com/?referer=https://manganelo.com&url=https://s7.mkklcdnv6temp.com/mangakakalot/k2/koori_no_mamono_no_monogatari/vol6_chapter_27/2.jpg",
    "https://img-proxy.imgfo.com/?referer=https://manganelo.com&url=https://s7.mkklcdnv6temp.com/mangakakalot/k2/koori_no_mamono_no_monogatari/vol6_chapter_27/3.jpg",
    "https://img-proxy.imgfo.com/?referer=https://manganelo.com&url=https://s7.mkklcdnv6temp.com/mangakakalot/k2/koori_no_mamono_no_monogatari/vol6_chapter_27/4.jpg",
    "https://img-proxy.imgfo.com/?referer=https://manganelo.com&url=https://s7.mkklcdnv6temp.com/mangakakalot/k2/koori_no_mamono_no_monogatari/vol6_chapter_27/5.jpg",
    "https://img-proxy.imgfo.com/?referer=https://manganelo.com&url=https://s7.mkklcdnv6temp.com/mangakakalot/k2/koori_no_mamono_no_monogatari/vol6_chapter_27/6.jpg",
    "https://img-proxy.imgfo.com/?referer=https://manganelo.com&url=https://s7.mkklcdnv6temp.com/mangakakalot/k2/koori_no_mamono_no_monogatari/vol6_chapter_27/7.jpg",
    "https://img-proxy.imgfo.com/?referer=https://manganelo.com&url=https://s7.mkklcdnv6temp.com/mangakakalot/k2/koori_no_mamono_no_monogatari/vol6_chapter_27/8.jpg",
    "https://img-proxy.imgfo.com/?referer=https://manganelo.com&url=https://s7.mkklcdnv6temp.com/mangakakalot/k2/koori_no_mamono_no_monogatari/vol6_chapter_27/9.jpg",
    "https://img-proxy.imgfo.com/?referer=https://manganelo.com&url=https://s7.mkklcdnv6temp.com/mangakakalot/k2/koori_no_mamono_no_monogatari/vol6_chapter_27/10.jpg",
    "https://img-proxy.imgfo.com/?referer=https://manganelo.com&url=https://s7.mkklcdnv6temp.com/mangakakalot/k2/koori_no_mamono_no_monogatari/vol6_chapter_27/11.jpg",
    "https://img-proxy.imgfo.com/?referer=https://manganelo.com&url=https://s7.mkklcdnv6temp.com/mangakakalot/k2/koori_no_mamono_no_monogatari/vol6_chapter_27/12.jpg",
    "https://img-proxy.imgfo.com/?referer=https://manganelo.com&url=https://s7.mkklcdnv6temp.com/mangakakalot/k2/koori_no_mamono_no_monogatari/vol6_chapter_27/13.jpg",
    "https://img-proxy.imgfo.com/?referer=https://manganelo.com&url=https://s7.mkklcdnv6temp.com/mangakakalot/k2/koori_no_mamono_no_monogatari/vol6_chapter_27/14.jpg",
    "https://img-proxy.imgfo.com/?referer=https://manganelo.com&url=https://s7.mkklcdnv6temp.com/mangakakalot/k2/koori_no_mamono_no_monogatari/vol6_chapter_27/15.jpg",
    "https://img-proxy.imgfo.com/?referer=https://manganelo.com&url=https://s7.mkklcdnv6temp.com/mangakakalot/k2/koori_no_mamono_no_monogatari/vol6_chapter_27/16.jpg",
    "https://img-proxy.imgfo.com/?referer=https://manganelo.com&url=https://s7.mkklcdnv6temp.com/mangakakalot/k2/koori_no_mamono_no_monogatari/vol6_chapter_27/17.jpg",
    "https://img-proxy.imgfo.com/?referer=https://manganelo.com&url=https://s7.mkklcdnv6temp.com/mangakakalot/k2/koori_no_mamono_no_monogatari/vol6_chapter_27/18.jpg",
    "https://img-proxy.imgfo.com/?referer=https://manganelo.com&url=https://s7.mkklcdnv6temp.com/mangakakalot/k2/koori_no_mamono_no_monogatari/vol6_chapter_27/19.jpg",
    "https://img-proxy.imgfo.com/?referer=https://manganelo.com&url=https://s7.mkklcdnv6temp.com/mangakakalot/k2/koori_no_mamono_no_monogatari/vol6_chapter_27/20.jpg",
    "https://img-proxy.imgfo.com/?referer=https://manganelo.com&url=https://s7.mkklcdnv6temp.com/mangakakalot/k2/koori_no_mamono_no_monogatari/vol6_chapter_27/21.jpg",
    "https://img-proxy.imgfo.com/?referer=https://manganelo.com&url=https://s7.mkklcdnv6temp.com/mangakakalot/k2/koori_no_mamono_no_monogatari/vol6_chapter_27/22.jpg",
    "https://img-proxy.imgfo.com/?referer=https://manganelo.com&url=https://s7.mkklcdnv6temp.com/mangakakalot/k2/koori_no_mamono_no_monogatari/vol6_chapter_27/23.jpg",
    "https://img-proxy.imgfo.com/?referer=https://manganelo.com&url=https://s7.mkklcdnv6temp.com/mangakakalot/k2/koori_no_mamono_no_monogatari/vol6_chapter_27/24.jpg",
    "https://img-proxy.imgfo.com/?referer=https://manganelo.com&url=https://s7.mkklcdnv6temp.com/mangakakalot/k2/koori_no_mamono_no_monogatari/vol6_chapter_27/25.jpg",
    "https://img-proxy.imgfo.com/?referer=https://manganelo.com&url=https://s7.mkklcdnv6temp.com/mangakakalot/k2/koori_no_mamono_no_monogatari/vol6_chapter_27/26.jpg",
    "https://img-proxy.imgfo.com/?referer=https://manganelo.com&url=https://s7.mkklcdnv6temp.com/mangakakalot/k2/koori_no_mamono_no_monogatari/vol6_chapter_27/27.jpg",
    "https://img-proxy.imgfo.com/?referer=https://manganelo.com&url=https://s7.mkklcdnv6temp.com/mangakakalot/k2/koori_no_mamono_no_monogatari/vol6_chapter_27/28.jpg",
    "https://img-proxy.imgfo.com/?referer=https://manganelo.com&url=https://s7.mkklcdnv6temp.com/mangakakalot/k2/koori_no_mamono_no_monogatari/vol6_chapter_27/29.jpg",
    "https://img-proxy.imgfo.com/?referer=https://manganelo.com&url=https://s7.mkklcdnv6temp.com/mangakakalot/k2/koori_no_mamono_no_monogatari/vol6_chapter_27/30.jpg",
    "https://img-proxy.imgfo.com/?referer=https://manganelo.com&url=https://s7.mkklcdnv6temp.com/mangakakalot/k2/koori_no_mamono_no_monogatari/vol6_chapter_27/31.jpg",
    "https://img-proxy.imgfo.com/?referer=https://manganelo.com&url=https://s7.mkklcdnv6temp.com/mangakakalot/k2/koori_no_mamono_no_monogatari/vol6_chapter_27/32.jpg",
    "https://img-proxy.imgfo.com/?referer=https://manganelo.com&url=https://s7.mkklcdnv6temp.com/mangakakalot/k2/koori_no_mamono_no_monogatari/vol6_chapter_27/33.jpg",
    "https://img-proxy.imgfo.com/?referer=https://manganelo.com&url=https://s7.mkklcdnv6temp.com/mangakakalot/k2/koori_no_mamono_no_monogatari/vol6_chapter_27/34.jpg",
    "https://img-proxy.imgfo.com/?referer=https://manganelo.com&url=https://s7.mkklcdnv6temp.com/mangakakalot/k2/koori_no_mamono_no_monogatari/vol6_chapter_27/35.jpg",
    "https://img-proxy.imgfo.com/?referer=https://manganelo.com&url=https://s7.mkklcdnv6temp.com/mangakakalot/k2/koori_no_mamono_no_monogatari/vol6_chapter_27/36.jpg",
    "https://img-proxy.imgfo.com/?referer=https://manganelo.com&url=https://s7.mkklcdnv6temp.com/mangakakalot/k2/koori_no_mamono_no_monogatari/vol6_chapter_27/37.jpg",
    "https://img-proxy.imgfo.com/?referer=https://manganelo.com&url=https://s7.mkklcdnv6temp.com/mangakakalot/k2/koori_no_mamono_no_monogatari/vol6_chapter_27/38.jpg",
    "https://img-proxy.imgfo.com/?referer=https://manganelo.com&url=https://s7.mkklcdnv6temp.com/mangakakalot/k2/koori_no_mamono_no_monogatari/vol6_chapter_27/39.jpg",
    "https://img-proxy.imgfo.com/?referer=https://manganelo.com&url=https://s7.mkklcdnv6temp.com/mangakakalot/k2/koori_no_mamono_no_monogatari/vol6_chapter_27/40.jpg",
    "https://img-proxy.imgfo.com/?referer=https://manganelo.com&url=https://s7.mkklcdnv6temp.com/mangakakalot/k2/koori_no_mamono_no_monogatari/vol6_chapter_27/41.jpg",
    "https://img-proxy.imgfo.com/?referer=https://manganelo.com&url=https://s7.mkklcdnv6temp.com/mangakakalot/k2/koori_no_mamono_no_monogatari/vol6_chapter_27/42.jpg",
    "https://img-proxy.imgfo.com/?referer=https://manganelo.com&url=https://s7.mkklcdnv6temp.com/mangakakalot/k2/koori_no_mamono_no_monogatari/vol6_chapter_27/43.jpg",
    "https://img-proxy.imgfo.com/?referer=https://manganelo.com&url=https://s7.mkklcdnv6temp.com/mangakakalot/k2/koori_no_mamono_no_monogatari/vol6_chapter_27/44.jpg",
    "https://img-proxy.imgfo.com/?referer=https://manganelo.com&url=https://s7.mkklcdnv6temp.com/mangakakalot/k2/koori_no_mamono_no_monogatari/vol6_chapter_27/45.jpg",
    "https://img-proxy.imgfo.com/?referer=https://manganelo.com&url=https://s7.mkklcdnv6temp.com/mangakakalot/k2/koori_no_mamono_no_monogatari/vol6_chapter_27/46.jpg",
    "https://img-proxy.imgfo.com/?referer=https://manganelo.com&url=https://s7.mkklcdnv6temp.com/mangakakalot/k2/koori_no_mamono_no_monogatari/vol6_chapter_27/47.jpg",
    "https://img-proxy.imgfo.com/?referer=https://manganelo.com&url=https://s7.mkklcdnv6temp.com/mangakakalot/k2/koori_no_mamono_no_monogatari/vol6_chapter_27/48.jpg",
    "https://img-proxy.imgfo.com/?referer=https://manganelo.com&url=https://s7.mkklcdnv6temp.com/mangakakalot/k2/koori_no_mamono_no_monogatari/vol6_chapter_27/49.jpg",
    "https://img-proxy.imgfo.com/?referer=https://manganelo.com&url=https://s7.mkklcdnv6temp.com/mangakakalot/k2/koori_no_mamono_no_monogatari/vol6_chapter_27/50.jpg",
    "https://img-proxy.imgfo.com/?referer=https://manganelo.com&url=https://s7.mkklcdnv6temp.com/mangakakalot/k2/koori_no_mamono_no_monogatari/vol6_chapter_27/51.jpg",
    "https://img-proxy.imgfo.com/?referer=https://manganelo.com&url=https://s7.mkklcdnv6temp.com/mangakakalot/k2/koori_no_mamono_no_monogatari/vol6_chapter_27/52.jpg",
    "https://img-proxy.imgfo.com/?referer=https://manganelo.com&url=https://s7.mkklcdnv6temp.com/mangakakalot/k2/koori_no_mamono_no_monogatari/vol6_chapter_27/53.jpg",
    "https://img-proxy.imgfo.com/?referer=https://manganelo.com&url=https://s7.mkklcdnv6temp.com/mangakakalot/k2/koori_no_mamono_no_monogatari/vol6_chapter_27/54.jpg",
    "https://img-proxy.imgfo.com/?referer=https://manganelo.com&url=https://s7.mkklcdnv6temp.com/mangakakalot/k2/koori_no_mamono_no_monogatari/vol6_chapter_27/55.jpg",
    "https://img-proxy.imgfo.com/?referer=https://manganelo.com&url=https://s7.mkklcdnv6temp.com/mangakakalot/k2/koori_no_mamono_no_monogatari/vol6_chapter_27/56.jpg",
    "https://img-proxy.imgfo.com/?referer=https://manganelo.com&url=https://s7.mkklcdnv6temp.com/mangakakalot/k2/koori_no_mamono_no_monogatari/vol6_chapter_27/57.jpg"
  ]
}