{
  "cover": "https://avt.mkklcdnv6.com/10/g/7-1583476681.jpg",
  "title": "20Th Century Boys",
  "original": "二十世纪少年 ; 20世纪少年 ; 20世紀少年 ; 20세기 소년 ; 20 Seiki Shounen ; 20thCB ; Nijuu Seiki Shounen ; فتيان القرن العشرين",
  "genre": "Action, Drama, Mystery, Psychological, Sci fi, Seinen, Tragedy, Manga",
  "author": "Urasawa Naoki",
  "status": "Completed",
  "backlink": "https://manganu.com/collections/urasawa-naoki/20th-century-boys/",
  "description": "From here: Growing older is pretty rough and Kenji is finding out just how hard it can be as life starts wearing down on him. On top of trying to make ends meet running a convenience store, he has to care for the niece that his missing sister left in his care. Memories of youth make it easier, until those memories come back to haunt you. Kenji and his old friends are slowly being drawn into a mysterious conspiracy that could threaten the world. Who is the mysterious &quot;friend&quot;, and how does he tie into Kenji&#39;s youth? Why are there disappearances and deaths tied into Ochanomizu University? The friend&#39;s memories hold the keys to the puzzle, but years between cloud the clues. The strange occurances and the reach of the &quot;friend&quot; conspiracy grow by the day. It will all culminate on New Year&#39;s Eve 2000. Will Kenji and the rest of the group be able to put together the puzzle and save the world? Note: The last two volumes of the story were serialized under the name 21st Century Boys and are not included here.",
  "language": "English",
  "images": [
    "https://img-proxy.imgfo.com/?referer=https://manganelo.com&url=https://s5.mkklcdnv6temp.com/mangakakalot/02/20th_century_boys/vol13_chapter_134/1.jpg",
    "https://img-proxy.imgfo.com/?referer=https://manganelo.com&url=https://s5.mkklcdnv6temp.com/mangakakalot/02/20th_century_boys/vol13_chapter_134/2.jpg",
    "https://img-proxy.imgfo.com/?referer=https://manganelo.com&url=https://s5.mkklcdnv6temp.com/mangakakalot/02/20th_century_boys/vol13_chapter_134/3.jpg",
    "https://img-proxy.imgfo.com/?referer=https://manganelo.com&url=https://s5.mkklcdnv6temp.com/mangakakalot/02/20th_century_boys/vol13_chapter_134/4.jpg",
    "https://img-proxy.imgfo.com/?referer=https://manganelo.com&url=https://s5.mkklcdnv6temp.com/mangakakalot/02/20th_century_boys/vol13_chapter_134/5.jpg",
    "https://img-proxy.imgfo.com/?referer=https://manganelo.com&url=https://s5.mkklcdnv6temp.com/mangakakalot/02/20th_century_boys/vol13_chapter_134/6.jpg",
    "https://img-proxy.imgfo.com/?referer=https://manganelo.com&url=https://s5.mkklcdnv6temp.com/mangakakalot/02/20th_century_boys/vol13_chapter_134/7.jpg",
    "https://img-proxy.imgfo.com/?referer=https://manganelo.com&url=https://s5.mkklcdnv6temp.com/mangakakalot/02/20th_century_boys/vol13_chapter_134/8.jpg",
    "https://img-proxy.imgfo.com/?referer=https://manganelo.com&url=https://s5.mkklcdnv6temp.com/mangakakalot/02/20th_century_boys/vol13_chapter_134/9.jpg",
    "https://img-proxy.imgfo.com/?referer=https://manganelo.com&url=https://s5.mkklcdnv6temp.com/mangakakalot/02/20th_century_boys/vol13_chapter_134/10.jpg",
    "https://img-proxy.imgfo.com/?referer=https://manganelo.com&url=https://s5.mkklcdnv6temp.com/mangakakalot/02/20th_century_boys/vol13_chapter_134/11.jpg",
    "https://img-proxy.imgfo.com/?referer=https://manganelo.com&url=https://s5.mkklcdnv6temp.com/mangakakalot/02/20th_century_boys/vol13_chapter_134/12.jpg",
    "https://img-proxy.imgfo.com/?referer=https://manganelo.com&url=https://s5.mkklcdnv6temp.com/mangakakalot/02/20th_century_boys/vol13_chapter_134/13.jpg",
    "https://img-proxy.imgfo.com/?referer=https://manganelo.com&url=https://s5.mkklcdnv6temp.com/mangakakalot/02/20th_century_boys/vol13_chapter_134/14.jpg",
    "https://img-proxy.imgfo.com/?referer=https://manganelo.com&url=https://s5.mkklcdnv6temp.com/mangakakalot/02/20th_century_boys/vol13_chapter_134/15.jpg",
    "https://img-proxy.imgfo.com/?referer=https://manganelo.com&url=https://s5.mkklcdnv6temp.com/mangakakalot/02/20th_century_boys/vol13_chapter_134/16.jpg",
    "https://img-proxy.imgfo.com/?referer=https://manganelo.com&url=https://s5.mkklcdnv6temp.com/mangakakalot/02/20th_century_boys/vol13_chapter_134/17.jpg",
    "https://img-proxy.imgfo.com/?referer=https://manganelo.com&url=https://s5.mkklcdnv6temp.com/mangakakalot/02/20th_century_boys/vol13_chapter_134/18.jpg",
    "https://img-proxy.imgfo.com/?referer=https://manganelo.com&url=https://s5.mkklcdnv6temp.com/mangakakalot/02/20th_century_boys/vol13_chapter_134/19.jpg",
    "https://img-proxy.imgfo.com/?referer=https://manganelo.com&url=https://s5.mkklcdnv6temp.com/mangakakalot/02/20th_century_boys/vol13_chapter_134/20.jpg",
    "https://img-proxy.imgfo.com/?referer=https://manganelo.com&url=https://s5.mkklcdnv6temp.com/mangakakalot/02/20th_century_boys/vol13_chapter_134/21.jpg",
    "https://img-proxy.imgfo.com/?referer=https://manganelo.com&url=https://s5.mkklcdnv6temp.com/mangakakalot/02/20th_century_boys/vol13_chapter_134/22.jpg",
    "https://img-proxy.imgfo.com/?referer=https://manganelo.com&url=https://s5.mkklcdnv6temp.com/mangakakalot/02/20th_century_boys/vol13_chapter_134/23.jpg"
  ]
}