{
  "cover": "https://avt.mkklcdnv6.com/27/r/1-1583464779.jpg",
  "title": "Imori 201",
  "original": "イモリ201 (Japanese); 蝾螈201; 我的鄰居是女高中生?; 201室的井森小姐 (Chinese)",
  "genre": "Comedy, Ecchi, Harem, Mature, Romance, School life, Seinen, Manga",
  "author": "Imai Yuu",
  "status": "Completed",
  "backlink": "https://manganu.com/collections/imai-yuu/imori-201/",
  "description": "From Fairgame: In both middle school and high school, Kawashima hadn&#39;t had any luck with girls, but this is a day that a miracle encounter came to him! Apartment where he moved, there were a high school girl living in his neighbor and in addition to that, she is living alone! In a situation that any man will admire, Kawashima&#39;s tension is hyped up. However, there was also a odd part to it, like she likes to drink beer. What is her identity? It&#39;s a little bit ecchi JK comedy!",
  "language": "English",
  "images": [
    "https://img-proxy.imgfo.com/?referer=https://manganelo.com&url=https://s6.mkklcdnv6temp.com/mangakakalot/i1/imori_201/vol1_chapter_1_read_online/1.jpg",
    "https://img-proxy.imgfo.com/?referer=https://manganelo.com&url=https://s6.mkklcdnv6temp.com/mangakakalot/i1/imori_201/vol1_chapter_1_read_online/2.jpg",
    "https://img-proxy.imgfo.com/?referer=https://manganelo.com&url=https://s6.mkklcdnv6temp.com/mangakakalot/i1/imori_201/vol1_chapter_1_read_online/3.jpg",
    "https://img-proxy.imgfo.com/?referer=https://manganelo.com&url=https://s6.mkklcdnv6temp.com/mangakakalot/i1/imori_201/vol1_chapter_1_read_online/4.jpg",
    "https://img-proxy.imgfo.com/?referer=https://manganelo.com&url=https://s6.mkklcdnv6temp.com/mangakakalot/i1/imori_201/vol1_chapter_1_read_online/5.jpg",
    "https://img-proxy.imgfo.com/?referer=https://manganelo.com&url=https://s6.mkklcdnv6temp.com/mangakakalot/i1/imori_201/vol1_chapter_1_read_online/6.jpg",
    "https://img-proxy.imgfo.com/?referer=https://manganelo.com&url=https://s6.mkklcdnv6temp.com/mangakakalot/i1/imori_201/vol1_chapter_1_read_online/7.jpg",
    "https://img-proxy.imgfo.com/?referer=https://manganelo.com&url=https://s6.mkklcdnv6temp.com/mangakakalot/i1/imori_201/vol1_chapter_1_read_online/8.jpg",
    "https://img-proxy.imgfo.com/?referer=https://manganelo.com&url=https://s6.mkklcdnv6temp.com/mangakakalot/i1/imori_201/vol1_chapter_1_read_online/9.jpg",
    "https://img-proxy.imgfo.com/?referer=https://manganelo.com&url=https://s6.mkklcdnv6temp.com/mangakakalot/i1/imori_201/vol1_chapter_1_read_online/10.jpg",
    "https://img-proxy.imgfo.com/?referer=https://manganelo.com&url=https://s6.mkklcdnv6temp.com/mangakakalot/i1/imori_201/vol1_chapter_1_read_online/11.jpg",
    "https://img-proxy.imgfo.com/?referer=https://manganelo.com&url=https://s6.mkklcdnv6temp.com/mangakakalot/i1/imori_201/vol1_chapter_1_read_online/12.jpg",
    "https://img-proxy.imgfo.com/?referer=https://manganelo.com&url=https://s6.mkklcdnv6temp.com/mangakakalot/i1/imori_201/vol1_chapter_1_read_online/13.jpg",
    "https://img-proxy.imgfo.com/?referer=https://manganelo.com&url=https://s6.mkklcdnv6temp.com/mangakakalot/i1/imori_201/vol1_chapter_1_read_online/14.jpg",
    "https://img-proxy.imgfo.com/?referer=https://manganelo.com&url=https://s6.mkklcdnv6temp.com/mangakakalot/i1/imori_201/vol1_chapter_1_read_online/15.jpg",
    "https://img-proxy.imgfo.com/?referer=https://manganelo.com&url=https://s6.mkklcdnv6temp.com/mangakakalot/i1/imori_201/vol1_chapter_1_read_online/16.jpg",
    "https://img-proxy.imgfo.com/?referer=https://manganelo.com&url=https://s6.mkklcdnv6temp.com/mangakakalot/i1/imori_201/vol1_chapter_1_read_online/17.jpg",
    "https://img-proxy.imgfo.com/?referer=https://manganelo.com&url=https://s6.mkklcdnv6temp.com/mangakakalot/i1/imori_201/vol1_chapter_1_read_online/18.jpg",
    "https://img-proxy.imgfo.com/?referer=https://manganelo.com&url=https://s6.mkklcdnv6temp.com/mangakakalot/i1/imori_201/vol1_chapter_1_read_online/19.jpg",
    "https://img-proxy.imgfo.com/?referer=https://manganelo.com&url=https://s6.mkklcdnv6temp.com/mangakakalot/i1/imori_201/vol1_chapter_1_read_online/20.jpg",
    "https://img-proxy.imgfo.com/?referer=https://manganelo.com&url=https://s6.mkklcdnv6temp.com/mangakakalot/i1/imori_201/vol1_chapter_1_read_online/21.jpg",
    "https://img-proxy.imgfo.com/?referer=https://manganelo.com&url=https://s6.mkklcdnv6temp.com/mangakakalot/i1/imori_201/vol1_chapter_1_read_online/22.jpg",
    "https://img-proxy.imgfo.com/?referer=https://manganelo.com&url=https://s6.mkklcdnv6temp.com/mangakakalot/i1/imori_201/vol1_chapter_1_read_online/23.jpg",
    "https://img-proxy.imgfo.com/?referer=https://manganelo.com&url=https://s6.mkklcdnv6temp.com/mangakakalot/i1/imori_201/vol1_chapter_1_read_online/24.jpg",
    "https://img-proxy.imgfo.com/?referer=https://manganelo.com&url=https://s6.mkklcdnv6temp.com/mangakakalot/i1/imori_201/vol1_chapter_1_read_online/25.jpg",
    "https://img-proxy.imgfo.com/?referer=https://manganelo.com&url=https://s6.mkklcdnv6temp.com/mangakakalot/i1/imori_201/vol1_chapter_1_read_online/26.jpg",
    "https://img-proxy.imgfo.com/?referer=https://manganelo.com&url=https://s6.mkklcdnv6temp.com/mangakakalot/i1/imori_201/vol1_chapter_1_read_online/27.jpg",
    "https://img-proxy.imgfo.com/?referer=https://manganelo.com&url=https://s6.mkklcdnv6temp.com/mangakakalot/i1/imori_201/vol1_chapter_1_read_online/28.jpg",
    "https://img-proxy.imgfo.com/?referer=https://manganelo.com&url=https://s6.mkklcdnv6temp.com/mangakakalot/i1/imori_201/vol1_chapter_1_read_online/29.jpg",
    "https://img-proxy.imgfo.com/?referer=https://manganelo.com&url=https://s6.mkklcdnv6temp.com/mangakakalot/i1/imori_201/vol1_chapter_1_read_online/30.jpg",
    "https://img-proxy.imgfo.com/?referer=https://manganelo.com&url=https://s6.mkklcdnv6temp.com/mangakakalot/i1/imori_201/vol1_chapter_1_read_online/31.jpg",
    "https://img-proxy.imgfo.com/?referer=https://manganelo.com&url=https://s6.mkklcdnv6temp.com/mangakakalot/i1/imori_201/vol1_chapter_1_read_online/32.jpg",
    "https://img-proxy.imgfo.com/?referer=https://manganelo.com&url=https://s6.mkklcdnv6temp.com/mangakakalot/i1/imori_201/vol1_chapter_1_read_online/33.jpg",
    "https://img-proxy.imgfo.com/?referer=https://manganelo.com&url=https://s6.mkklcdnv6temp.com/mangakakalot/i1/imori_201/vol1_chapter_1_read_online/34.jpg",
    "https://img-proxy.imgfo.com/?referer=https://manganelo.com&url=https://s6.mkklcdnv6temp.com/mangakakalot/i1/imori_201/vol1_chapter_1_read_online/35.jpg",
    "https://img-proxy.imgfo.com/?referer=https://manganelo.com&url=https://s6.mkklcdnv6temp.com/mangakakalot/i1/imori_201/vol1_chapter_1_read_online/36.jpg",
    "https://img-proxy.imgfo.com/?referer=https://manganelo.com&url=https://s6.mkklcdnv6temp.com/mangakakalot/i1/imori_201/vol1_chapter_1_read_online/37.jpg",
    "https://img-proxy.imgfo.com/?referer=https://manganelo.com&url=https://s6.mkklcdnv6temp.com/mangakakalot/i1/imori_201/vol1_chapter_1_read_online/38.jpg",
    "https://img-proxy.imgfo.com/?referer=https://manganelo.com&url=https://s6.mkklcdnv6temp.com/mangakakalot/i1/imori_201/vol1_chapter_1_read_online/39.jpg"
  ]
}