{
  "cover": "https://avt.mkklcdnv6.com/4/n/5-1583472012.jpg",
  "title": "Sukitte Iwasete?",
  "original": "好きって言わせて？ ; Suki tte Iwasete? ; Love&quot ; ? ; I Love You&quot",
  "genre": "Comedy, Drama, Romance, Slice of life, Yaoi, Manga",
  "author": "Yamamoto Kotetsuko",
  "status": "Completed",
  "backlink": "https://manganu.com/collections/yamamoto-kotetsuko/sukitte-iwasete/",
  "description": "From Girls' Generation Scanlations:\nThe cheerful and affectionate Hidekazu, and the thoughtful and genial Eiji. They were my old neighbors, the super popular twins. I, Ueto Shun, am in love with the younger twin, Eiji. We study at the same university and share an apartment, although I do not pay the rent... I live under the same roof, but... I am in trouble! I'm happy, but I find it problematic... The excitement of living with the person I love. I have to add that his older brother, Hidekazu, falls for a tsundere at first sight.",
  "language": "English",
  "images": [
    "https://img-proxy.imgfo.com/?referer=https://manganelo.com&url=https://s41.mkklcdnv6temp.com/mangakakalot/s2/sukitte_iwasete/vol1_chapter_3_please_say_love/1.jpg",
    "https://img-proxy.imgfo.com/?referer=https://manganelo.com&url=https://s41.mkklcdnv6temp.com/mangakakalot/s2/sukitte_iwasete/vol1_chapter_3_please_say_love/2.jpg",
    "https://img-proxy.imgfo.com/?referer=https://manganelo.com&url=https://s41.mkklcdnv6temp.com/mangakakalot/s2/sukitte_iwasete/vol1_chapter_3_please_say_love/3.jpg",
    "https://img-proxy.imgfo.com/?referer=https://manganelo.com&url=https://s41.mkklcdnv6temp.com/mangakakalot/s2/sukitte_iwasete/vol1_chapter_3_please_say_love/4.jpg",
    "https://img-proxy.imgfo.com/?referer=https://manganelo.com&url=https://s41.mkklcdnv6temp.com/mangakakalot/s2/sukitte_iwasete/vol1_chapter_3_please_say_love/5.jpg",
    "https://img-proxy.imgfo.com/?referer=https://manganelo.com&url=https://s41.mkklcdnv6temp.com/mangakakalot/s2/sukitte_iwasete/vol1_chapter_3_please_say_love/6.jpg",
    "https://img-proxy.imgfo.com/?referer=https://manganelo.com&url=https://s41.mkklcdnv6temp.com/mangakakalot/s2/sukitte_iwasete/vol1_chapter_3_please_say_love/7.jpg",
    "https://img-proxy.imgfo.com/?referer=https://manganelo.com&url=https://s41.mkklcdnv6temp.com/mangakakalot/s2/sukitte_iwasete/vol1_chapter_3_please_say_love/8.jpg",
    "https://img-proxy.imgfo.com/?referer=https://manganelo.com&url=https://s41.mkklcdnv6temp.com/mangakakalot/s2/sukitte_iwasete/vol1_chapter_3_please_say_love/9.jpg",
    "https://img-proxy.imgfo.com/?referer=https://manganelo.com&url=https://s41.mkklcdnv6temp.com/mangakakalot/s2/sukitte_iwasete/vol1_chapter_3_please_say_love/10.jpg",
    "https://img-proxy.imgfo.com/?referer=https://manganelo.com&url=https://s41.mkklcdnv6temp.com/mangakakalot/s2/sukitte_iwasete/vol1_chapter_3_please_say_love/11.jpg",
    "https://img-proxy.imgfo.com/?referer=https://manganelo.com&url=https://s41.mkklcdnv6temp.com/mangakakalot/s2/sukitte_iwasete/vol1_chapter_3_please_say_love/12.jpg",
    "https://img-proxy.imgfo.com/?referer=https://manganelo.com&url=https://s41.mkklcdnv6temp.com/mangakakalot/s2/sukitte_iwasete/vol1_chapter_3_please_say_love/13.jpg",
    "https://img-proxy.imgfo.com/?referer=https://manganelo.com&url=https://s41.mkklcdnv6temp.com/mangakakalot/s2/sukitte_iwasete/vol1_chapter_3_please_say_love/14.jpg",
    "https://img-proxy.imgfo.com/?referer=https://manganelo.com&url=https://s41.mkklcdnv6temp.com/mangakakalot/s2/sukitte_iwasete/vol1_chapter_3_please_say_love/15.jpg",
    "https://img-proxy.imgfo.com/?referer=https://manganelo.com&url=https://s41.mkklcdnv6temp.com/mangakakalot/s2/sukitte_iwasete/vol1_chapter_3_please_say_love/16.jpg",
    "https://img-proxy.imgfo.com/?referer=https://manganelo.com&url=https://s41.mkklcdnv6temp.com/mangakakalot/s2/sukitte_iwasete/vol1_chapter_3_please_say_love/17.jpg",
    "https://img-proxy.imgfo.com/?referer=https://manganelo.com&url=https://s41.mkklcdnv6temp.com/mangakakalot/s2/sukitte_iwasete/vol1_chapter_3_please_say_love/18.jpg",
    "https://img-proxy.imgfo.com/?referer=https://manganelo.com&url=https://s41.mkklcdnv6temp.com/mangakakalot/s2/sukitte_iwasete/vol1_chapter_3_please_say_love/19.jpg",
    "https://img-proxy.imgfo.com/?referer=https://manganelo.com&url=https://s41.mkklcdnv6temp.com/mangakakalot/s2/sukitte_iwasete/vol1_chapter_3_please_say_love/20.jpg",
    "https://img-proxy.imgfo.com/?referer=https://manganelo.com&url=https://s41.mkklcdnv6temp.com/mangakakalot/s2/sukitte_iwasete/vol1_chapter_3_please_say_love/21.jpg",
    "https://img-proxy.imgfo.com/?referer=https://manganelo.com&url=https://s41.mkklcdnv6temp.com/mangakakalot/s2/sukitte_iwasete/vol1_chapter_3_please_say_love/22.jpg",
    "https://img-proxy.imgfo.com/?referer=https://manganelo.com&url=https://s41.mkklcdnv6temp.com/mangakakalot/s2/sukitte_iwasete/vol1_chapter_3_please_say_love/23.jpg",
    "https://img-proxy.imgfo.com/?referer=https://manganelo.com&url=https://s41.mkklcdnv6temp.com/mangakakalot/s2/sukitte_iwasete/vol1_chapter_3_please_say_love/24.jpg",
    "https://img-proxy.imgfo.com/?referer=https://manganelo.com&url=https://s41.mkklcdnv6temp.com/mangakakalot/s2/sukitte_iwasete/vol1_chapter_3_please_say_love/25.jpg",
    "https://img-proxy.imgfo.com/?referer=https://manganelo.com&url=https://s41.mkklcdnv6temp.com/mangakakalot/s2/sukitte_iwasete/vol1_chapter_3_please_say_love/26.jpg",
    "https://img-proxy.imgfo.com/?referer=https://manganelo.com&url=https://s41.mkklcdnv6temp.com/mangakakalot/s2/sukitte_iwasete/vol1_chapter_3_please_say_love/27.jpg",
    "https://img-proxy.imgfo.com/?referer=https://manganelo.com&url=https://s41.mkklcdnv6temp.com/mangakakalot/s2/sukitte_iwasete/vol1_chapter_3_please_say_love/28.jpg",
    "https://img-proxy.imgfo.com/?referer=https://manganelo.com&url=https://s41.mkklcdnv6temp.com/mangakakalot/s2/sukitte_iwasete/vol1_chapter_3_please_say_love/29.jpg",
    "https://img-proxy.imgfo.com/?referer=https://manganelo.com&url=https://s41.mkklcdnv6temp.com/mangakakalot/s2/sukitte_iwasete/vol1_chapter_3_please_say_love/30.jpg",
    "https://img-proxy.imgfo.com/?referer=https://manganelo.com&url=https://s41.mkklcdnv6temp.com/mangakakalot/s2/sukitte_iwasete/vol1_chapter_3_please_say_love/31.jpg",
    "https://img-proxy.imgfo.com/?referer=https://manganelo.com&url=https://s41.mkklcdnv6temp.com/mangakakalot/s2/sukitte_iwasete/vol1_chapter_3_please_say_love/32.jpg",
    "https://img-proxy.imgfo.com/?referer=https://manganelo.com&url=https://s41.mkklcdnv6temp.com/mangakakalot/s2/sukitte_iwasete/vol1_chapter_3_please_say_love/33.jpg",
    "https://img-proxy.imgfo.com/?referer=https://manganelo.com&url=https://s41.mkklcdnv6temp.com/mangakakalot/s2/sukitte_iwasete/vol1_chapter_3_please_say_love/34.jpg",
    "https://img-proxy.imgfo.com/?referer=https://manganelo.com&url=https://s41.mkklcdnv6temp.com/mangakakalot/s2/sukitte_iwasete/vol1_chapter_3_please_say_love/35.jpg",
    "https://img-proxy.imgfo.com/?referer=https://manganelo.com&url=https://s41.mkklcdnv6temp.com/mangakakalot/s2/sukitte_iwasete/vol1_chapter_3_please_say_love/36.jpg",
    "https://img-proxy.imgfo.com/?referer=https://manganelo.com&url=https://s41.mkklcdnv6temp.com/mangakakalot/s2/sukitte_iwasete/vol1_chapter_3_please_say_love/37.jpg",
    "https://img-proxy.imgfo.com/?referer=https://manganelo.com&url=https://s41.mkklcdnv6temp.com/mangakakalot/s2/sukitte_iwasete/vol1_chapter_3_please_say_love/38.jpg",
    "https://img-proxy.imgfo.com/?referer=https://manganelo.com&url=https://s41.mkklcdnv6temp.com/mangakakalot/s2/sukitte_iwasete/vol1_chapter_3_please_say_love/39.jpg",
    "https://img-proxy.imgfo.com/?referer=https://manganelo.com&url=https://s41.mkklcdnv6temp.com/mangakakalot/s2/sukitte_iwasete/vol1_chapter_3_please_say_love/40.jpg",
    "https://img-proxy.imgfo.com/?referer=https://manganelo.com&url=https://s41.mkklcdnv6temp.com/mangakakalot/s2/sukitte_iwasete/vol1_chapter_3_please_say_love/41.jpg",
    "https://img-proxy.imgfo.com/?referer=https://manganelo.com&url=https://s41.mkklcdnv6temp.com/mangakakalot/s2/sukitte_iwasete/vol1_chapter_3_please_say_love/42.jpg",
    "https://img-proxy.imgfo.com/?referer=https://manganelo.com&url=https://s41.mkklcdnv6temp.com/mangakakalot/s2/sukitte_iwasete/vol1_chapter_3_please_say_love/43.jpg"
  ]
}