{
  "cover": "https://avt.mkklcdnv6.com/41/g/4-1583471389.jpg",
  "title": "Star Ocean: Till The End Of Time",
  "original": "スターオーシャン Till the End of Time ; スターオーシャン3 Till the End of Time ; SOTEOT ; Star Ocean 3 ; Star Ocean 3: The End of Time ; Star Ocean : Till the End Of Time ; Star Ocean Till the End of Time ; Star Ocean: The End of Time",
  "genre": "Action, Adventure, Comedy, Fantasy, Sci fi, Shounen, Manga",
  "author": "Kanda Akira",
  "status": "Completed",
  "backlink": "https://manganu.com/collections/kanda-akira/star-ocean-till-the-end-of-time/",
  "description": "Based on the popular PS2 games is Star Ocean the End of Time.\nTwelve heroes thwarted the Ten Wise Men's plot to destroy the universe. Four hundred years have since passed. The date is SD 772. The Pangalactic Federation has already explored one third of the Milky Way, and continues to research in its insatiable quest for even more power. In that time, the young Earthling Fayt Leingod and his family visit Hyda, a resort planet in the Pangalactic Federation when, suddenly, an unknown military space force attacks Hyda. The assault leaves buildings destroyed and the resort's natural surroundings in ruin. Amidst the chaos, Fayt attempts to escape with Sophia and the other resort guests to an emergency shelter, joining his parents along the way. But even their escape route falls under attack. Fayt manages to reach the shelter, but he is separated from his parents...",
  "language": "English",
  "images": [
    "https://img-proxy.imgfo.com/?referer=https://manganelo.com&url=https://s6.mkklcdnv6temp.com/mangakakalot/s2/star_ocean_till_the_end_of_time/vol7_chapter_28_new_world/1.jpg",
    "https://img-proxy.imgfo.com/?referer=https://manganelo.com&url=https://s6.mkklcdnv6temp.com/mangakakalot/s2/star_ocean_till_the_end_of_time/vol7_chapter_28_new_world/2.jpg",
    "https://img-proxy.imgfo.com/?referer=https://manganelo.com&url=https://s6.mkklcdnv6temp.com/mangakakalot/s2/star_ocean_till_the_end_of_time/vol7_chapter_28_new_world/3.jpg",
    "https://img-proxy.imgfo.com/?referer=https://manganelo.com&url=https://s6.mkklcdnv6temp.com/mangakakalot/s2/star_ocean_till_the_end_of_time/vol7_chapter_28_new_world/4.jpg",
    "https://img-proxy.imgfo.com/?referer=https://manganelo.com&url=https://s6.mkklcdnv6temp.com/mangakakalot/s2/star_ocean_till_the_end_of_time/vol7_chapter_28_new_world/5.jpg",
    "https://img-proxy.imgfo.com/?referer=https://manganelo.com&url=https://s6.mkklcdnv6temp.com/mangakakalot/s2/star_ocean_till_the_end_of_time/vol7_chapter_28_new_world/6.jpg",
    "https://img-proxy.imgfo.com/?referer=https://manganelo.com&url=https://s6.mkklcdnv6temp.com/mangakakalot/s2/star_ocean_till_the_end_of_time/vol7_chapter_28_new_world/7.jpg",
    "https://img-proxy.imgfo.com/?referer=https://manganelo.com&url=https://s6.mkklcdnv6temp.com/mangakakalot/s2/star_ocean_till_the_end_of_time/vol7_chapter_28_new_world/8.jpg",
    "https://img-proxy.imgfo.com/?referer=https://manganelo.com&url=https://s6.mkklcdnv6temp.com/mangakakalot/s2/star_ocean_till_the_end_of_time/vol7_chapter_28_new_world/9.jpg",
    "https://img-proxy.imgfo.com/?referer=https://manganelo.com&url=https://s6.mkklcdnv6temp.com/mangakakalot/s2/star_ocean_till_the_end_of_time/vol7_chapter_28_new_world/10.jpg",
    "https://img-proxy.imgfo.com/?referer=https://manganelo.com&url=https://s6.mkklcdnv6temp.com/mangakakalot/s2/star_ocean_till_the_end_of_time/vol7_chapter_28_new_world/11.jpg",
    "https://img-proxy.imgfo.com/?referer=https://manganelo.com&url=https://s6.mkklcdnv6temp.com/mangakakalot/s2/star_ocean_till_the_end_of_time/vol7_chapter_28_new_world/12.jpg",
    "https://img-proxy.imgfo.com/?referer=https://manganelo.com&url=https://s6.mkklcdnv6temp.com/mangakakalot/s2/star_ocean_till_the_end_of_time/vol7_chapter_28_new_world/13.jpg",
    "https://img-proxy.imgfo.com/?referer=https://manganelo.com&url=https://s6.mkklcdnv6temp.com/mangakakalot/s2/star_ocean_till_the_end_of_time/vol7_chapter_28_new_world/14.jpg",
    "https://img-proxy.imgfo.com/?referer=https://manganelo.com&url=https://s6.mkklcdnv6temp.com/mangakakalot/s2/star_ocean_till_the_end_of_time/vol7_chapter_28_new_world/15.jpg",
    "https://img-proxy.imgfo.com/?referer=https://manganelo.com&url=https://s6.mkklcdnv6temp.com/mangakakalot/s2/star_ocean_till_the_end_of_time/vol7_chapter_28_new_world/16.jpg",
    "https://img-proxy.imgfo.com/?referer=https://manganelo.com&url=https://s6.mkklcdnv6temp.com/mangakakalot/s2/star_ocean_till_the_end_of_time/vol7_chapter_28_new_world/17.jpg",
    "https://img-proxy.imgfo.com/?referer=https://manganelo.com&url=https://s6.mkklcdnv6temp.com/mangakakalot/s2/star_ocean_till_the_end_of_time/vol7_chapter_28_new_world/18.jpg",
    "https://img-proxy.imgfo.com/?referer=https://manganelo.com&url=https://s6.mkklcdnv6temp.com/mangakakalot/s2/star_ocean_till_the_end_of_time/vol7_chapter_28_new_world/19.jpg",
    "https://img-proxy.imgfo.com/?referer=https://manganelo.com&url=https://s6.mkklcdnv6temp.com/mangakakalot/s2/star_ocean_till_the_end_of_time/vol7_chapter_28_new_world/20.jpg",
    "https://img-proxy.imgfo.com/?referer=https://manganelo.com&url=https://s6.mkklcdnv6temp.com/mangakakalot/s2/star_ocean_till_the_end_of_time/vol7_chapter_28_new_world/21.jpg",
    "https://img-proxy.imgfo.com/?referer=https://manganelo.com&url=https://s6.mkklcdnv6temp.com/mangakakalot/s2/star_ocean_till_the_end_of_time/vol7_chapter_28_new_world/22.jpg",
    "https://img-proxy.imgfo.com/?referer=https://manganelo.com&url=https://s6.mkklcdnv6temp.com/mangakakalot/s2/star_ocean_till_the_end_of_time/vol7_chapter_28_new_world/23.jpg",
    "https://img-proxy.imgfo.com/?referer=https://manganelo.com&url=https://s6.mkklcdnv6temp.com/mangakakalot/s2/star_ocean_till_the_end_of_time/vol7_chapter_28_new_world/24.jpg",
    "https://img-proxy.imgfo.com/?referer=https://manganelo.com&url=https://s6.mkklcdnv6temp.com/mangakakalot/s2/star_ocean_till_the_end_of_time/vol7_chapter_28_new_world/25.jpg",
    "https://img-proxy.imgfo.com/?referer=https://manganelo.com&url=https://s6.mkklcdnv6temp.com/mangakakalot/s2/star_ocean_till_the_end_of_time/vol7_chapter_28_new_world/26.jpg",
    "https://img-proxy.imgfo.com/?referer=https://manganelo.com&url=https://s6.mkklcdnv6temp.com/mangakakalot/s2/star_ocean_till_the_end_of_time/vol7_chapter_28_new_world/27.jpg",
    "https://img-proxy.imgfo.com/?referer=https://manganelo.com&url=https://s6.mkklcdnv6temp.com/mangakakalot/s2/star_ocean_till_the_end_of_time/vol7_chapter_28_new_world/28.jpg",
    "https://img-proxy.imgfo.com/?referer=https://manganelo.com&url=https://s6.mkklcdnv6temp.com/mangakakalot/s2/star_ocean_till_the_end_of_time/vol7_chapter_28_new_world/29.jpg",
    "https://img-proxy.imgfo.com/?referer=https://manganelo.com&url=https://s6.mkklcdnv6temp.com/mangakakalot/s2/star_ocean_till_the_end_of_time/vol7_chapter_28_new_world/30.jpg",
    "https://img-proxy.imgfo.com/?referer=https://manganelo.com&url=https://s6.mkklcdnv6temp.com/mangakakalot/s2/star_ocean_till_the_end_of_time/vol7_chapter_28_new_world/31.jpg",
    "https://img-proxy.imgfo.com/?referer=https://manganelo.com&url=https://s6.mkklcdnv6temp.com/mangakakalot/s2/star_ocean_till_the_end_of_time/vol7_chapter_28_new_world/32.jpg",
    "https://img-proxy.imgfo.com/?referer=https://manganelo.com&url=https://s6.mkklcdnv6temp.com/mangakakalot/s2/star_ocean_till_the_end_of_time/vol7_chapter_28_new_world/33.jpg",
    "https://img-proxy.imgfo.com/?referer=https://manganelo.com&url=https://s6.mkklcdnv6temp.com/mangakakalot/s2/star_ocean_till_the_end_of_time/vol7_chapter_28_new_world/34.jpg",
    "https://img-proxy.imgfo.com/?referer=https://manganelo.com&url=https://s6.mkklcdnv6temp.com/mangakakalot/s2/star_ocean_till_the_end_of_time/vol7_chapter_28_new_world/35.jpg",
    "https://img-proxy.imgfo.com/?referer=https://manganelo.com&url=https://s6.mkklcdnv6temp.com/mangakakalot/s2/star_ocean_till_the_end_of_time/vol7_chapter_28_new_world/36.jpg",
    "https://img-proxy.imgfo.com/?referer=https://manganelo.com&url=https://s6.mkklcdnv6temp.com/mangakakalot/s2/star_ocean_till_the_end_of_time/vol7_chapter_28_new_world/37.jpg",
    "https://img-proxy.imgfo.com/?referer=https://manganelo.com&url=https://s6.mkklcdnv6temp.com/mangakakalot/s2/star_ocean_till_the_end_of_time/vol7_chapter_28_new_world/38.jpg"
  ]
}