{
  "cover": "https://avt.mkklcdnv6.com/44/y/5-1583473650.jpg",
  "title": "Hisho To Yajuu",
  "original": "秘書と野獣 ; Secretary and The Beast",
  "genre": "Comedy, Romance, Yaoi, Manga",
  "author": "Takahashi Yuu",
  "status": "Completed",
  "backlink": "https://manganu.com/collections/takahashi-yuu/hisho-to-yajuu/",
  "description": "1) My Elegant One\nWhen Tatsuya Koumura runs into Miyata because of his job, he's wary. Throughout college straight Miyata had protected Koumura from perverts, until Koumura's feelings became something he had to hide. But now that Miyata has found him again, he doesn't intend to let Koumura go that easily.\n2-5) The president of Kyouei Group, Kyoujima Eiichi, is making others jealous with his successful career and passionate love life. His secretary, Togawa Akihiko, is an honest man and has been secretly in love with him. Includes a Las Vegas working trip that shocked the secretary with the president's past…\n6) I Hate You the Most in the World\nSince his grandfather's death 17 year old Kazuki is alone in the world with only his guardians, businessman Kyoujima and lawyer Sasai to look out for him. Stung by Sasai's indifference, Kazuki finds himself leaning on Kyoujima. How will Sasai react?\nFirst series out of four.\nSequel: \"Suit o Kita Akuma\"",
  "language": "English",
  "images": [
    "https://img-proxy.imgfo.com/?referer=https://manganelo.com&url=https://s3.mkklcdnv6temp.com/mangakakalot/h1/hisho_to_yajuu/vol1_chapter_6_i_hate_you_the_most_in_the_world/1.jpg",
    "https://img-proxy.imgfo.com/?referer=https://manganelo.com&url=https://s3.mkklcdnv6temp.com/mangakakalot/h1/hisho_to_yajuu/vol1_chapter_6_i_hate_you_the_most_in_the_world/2.jpg",
    "https://img-proxy.imgfo.com/?referer=https://manganelo.com&url=https://s3.mkklcdnv6temp.com/mangakakalot/h1/hisho_to_yajuu/vol1_chapter_6_i_hate_you_the_most_in_the_world/3.jpg",
    "https://img-proxy.imgfo.com/?referer=https://manganelo.com&url=https://s3.mkklcdnv6temp.com/mangakakalot/h1/hisho_to_yajuu/vol1_chapter_6_i_hate_you_the_most_in_the_world/4.jpg",
    "https://img-proxy.imgfo.com/?referer=https://manganelo.com&url=https://s3.mkklcdnv6temp.com/mangakakalot/h1/hisho_to_yajuu/vol1_chapter_6_i_hate_you_the_most_in_the_world/5.jpg",
    "https://img-proxy.imgfo.com/?referer=https://manganelo.com&url=https://s3.mkklcdnv6temp.com/mangakakalot/h1/hisho_to_yajuu/vol1_chapter_6_i_hate_you_the_most_in_the_world/6.jpg",
    "https://img-proxy.imgfo.com/?referer=https://manganelo.com&url=https://s3.mkklcdnv6temp.com/mangakakalot/h1/hisho_to_yajuu/vol1_chapter_6_i_hate_you_the_most_in_the_world/7.jpg",
    "https://img-proxy.imgfo.com/?referer=https://manganelo.com&url=https://s3.mkklcdnv6temp.com/mangakakalot/h1/hisho_to_yajuu/vol1_chapter_6_i_hate_you_the_most_in_the_world/8.jpg",
    "https://img-proxy.imgfo.com/?referer=https://manganelo.com&url=https://s3.mkklcdnv6temp.com/mangakakalot/h1/hisho_to_yajuu/vol1_chapter_6_i_hate_you_the_most_in_the_world/9.jpg",
    "https://img-proxy.imgfo.com/?referer=https://manganelo.com&url=https://s3.mkklcdnv6temp.com/mangakakalot/h1/hisho_to_yajuu/vol1_chapter_6_i_hate_you_the_most_in_the_world/10.jpg",
    "https://img-proxy.imgfo.com/?referer=https://manganelo.com&url=https://s3.mkklcdnv6temp.com/mangakakalot/h1/hisho_to_yajuu/vol1_chapter_6_i_hate_you_the_most_in_the_world/11.jpg",
    "https://img-proxy.imgfo.com/?referer=https://manganelo.com&url=https://s3.mkklcdnv6temp.com/mangakakalot/h1/hisho_to_yajuu/vol1_chapter_6_i_hate_you_the_most_in_the_world/12.jpg",
    "https://img-proxy.imgfo.com/?referer=https://manganelo.com&url=https://s3.mkklcdnv6temp.com/mangakakalot/h1/hisho_to_yajuu/vol1_chapter_6_i_hate_you_the_most_in_the_world/13.jpg",
    "https://img-proxy.imgfo.com/?referer=https://manganelo.com&url=https://s3.mkklcdnv6temp.com/mangakakalot/h1/hisho_to_yajuu/vol1_chapter_6_i_hate_you_the_most_in_the_world/14.jpg",
    "https://img-proxy.imgfo.com/?referer=https://manganelo.com&url=https://s3.mkklcdnv6temp.com/mangakakalot/h1/hisho_to_yajuu/vol1_chapter_6_i_hate_you_the_most_in_the_world/15.jpg",
    "https://img-proxy.imgfo.com/?referer=https://manganelo.com&url=https://s3.mkklcdnv6temp.com/mangakakalot/h1/hisho_to_yajuu/vol1_chapter_6_i_hate_you_the_most_in_the_world/16.jpg",
    "https://img-proxy.imgfo.com/?referer=https://manganelo.com&url=https://s3.mkklcdnv6temp.com/mangakakalot/h1/hisho_to_yajuu/vol1_chapter_6_i_hate_you_the_most_in_the_world/17.jpg",
    "https://img-proxy.imgfo.com/?referer=https://manganelo.com&url=https://s3.mkklcdnv6temp.com/mangakakalot/h1/hisho_to_yajuu/vol1_chapter_6_i_hate_you_the_most_in_the_world/18.jpg",
    "https://img-proxy.imgfo.com/?referer=https://manganelo.com&url=https://s3.mkklcdnv6temp.com/mangakakalot/h1/hisho_to_yajuu/vol1_chapter_6_i_hate_you_the_most_in_the_world/19.jpg",
    "https://img-proxy.imgfo.com/?referer=https://manganelo.com&url=https://s3.mkklcdnv6temp.com/mangakakalot/h1/hisho_to_yajuu/vol1_chapter_6_i_hate_you_the_most_in_the_world/20.jpg",
    "https://img-proxy.imgfo.com/?referer=https://manganelo.com&url=https://s3.mkklcdnv6temp.com/mangakakalot/h1/hisho_to_yajuu/vol1_chapter_6_i_hate_you_the_most_in_the_world/21.jpg",
    "https://img-proxy.imgfo.com/?referer=https://manganelo.com&url=https://s3.mkklcdnv6temp.com/mangakakalot/h1/hisho_to_yajuu/vol1_chapter_6_i_hate_you_the_most_in_the_world/22.jpg",
    "https://img-proxy.imgfo.com/?referer=https://manganelo.com&url=https://s3.mkklcdnv6temp.com/mangakakalot/h1/hisho_to_yajuu/vol1_chapter_6_i_hate_you_the_most_in_the_world/23.jpg",
    "https://img-proxy.imgfo.com/?referer=https://manganelo.com&url=https://s3.mkklcdnv6temp.com/mangakakalot/h1/hisho_to_yajuu/vol1_chapter_6_i_hate_you_the_most_in_the_world/24.jpg",
    "https://img-proxy.imgfo.com/?referer=https://manganelo.com&url=https://s3.mkklcdnv6temp.com/mangakakalot/h1/hisho_to_yajuu/vol1_chapter_6_i_hate_you_the_most_in_the_world/25.jpg",
    "https://img-proxy.imgfo.com/?referer=https://manganelo.com&url=https://s3.mkklcdnv6temp.com/mangakakalot/h1/hisho_to_yajuu/vol1_chapter_6_i_hate_you_the_most_in_the_world/26.jpg",
    "https://img-proxy.imgfo.com/?referer=https://manganelo.com&url=https://s3.mkklcdnv6temp.com/mangakakalot/h1/hisho_to_yajuu/vol1_chapter_6_i_hate_you_the_most_in_the_world/27.jpg",
    "https://img-proxy.imgfo.com/?referer=https://manganelo.com&url=https://s3.mkklcdnv6temp.com/mangakakalot/h1/hisho_to_yajuu/vol1_chapter_6_i_hate_you_the_most_in_the_world/28.jpg",
    "https://img-proxy.imgfo.com/?referer=https://manganelo.com&url=https://s3.mkklcdnv6temp.com/mangakakalot/h1/hisho_to_yajuu/vol1_chapter_6_i_hate_you_the_most_in_the_world/29.jpg",
    "https://img-proxy.imgfo.com/?referer=https://manganelo.com&url=https://s3.mkklcdnv6temp.com/mangakakalot/h1/hisho_to_yajuu/vol1_chapter_6_i_hate_you_the_most_in_the_world/30.jpg",
    "https://img-proxy.imgfo.com/?referer=https://manganelo.com&url=https://s3.mkklcdnv6temp.com/mangakakalot/h1/hisho_to_yajuu/vol1_chapter_6_i_hate_you_the_most_in_the_world/31.jpg",
    "https://img-proxy.imgfo.com/?referer=https://manganelo.com&url=https://s3.mkklcdnv6temp.com/mangakakalot/h1/hisho_to_yajuu/vol1_chapter_6_i_hate_you_the_most_in_the_world/32.jpg",
    "https://img-proxy.imgfo.com/?referer=https://manganelo.com&url=https://s3.mkklcdnv6temp.com/mangakakalot/h1/hisho_to_yajuu/vol1_chapter_6_i_hate_you_the_most_in_the_world/33.jpg",
    "https://img-proxy.imgfo.com/?referer=https://manganelo.com&url=https://s3.mkklcdnv6temp.com/mangakakalot/h1/hisho_to_yajuu/vol1_chapter_6_i_hate_you_the_most_in_the_world/34.jpg",
    "https://img-proxy.imgfo.com/?referer=https://manganelo.com&url=https://s3.mkklcdnv6temp.com/mangakakalot/h1/hisho_to_yajuu/vol1_chapter_6_i_hate_you_the_most_in_the_world/35.jpg",
    "https://img-proxy.imgfo.com/?referer=https://manganelo.com&url=https://s3.mkklcdnv6temp.com/mangakakalot/h1/hisho_to_yajuu/vol1_chapter_6_i_hate_you_the_most_in_the_world/36.jpg",
    "https://img-proxy.imgfo.com/?referer=https://manganelo.com&url=https://s3.mkklcdnv6temp.com/mangakakalot/h1/hisho_to_yajuu/vol1_chapter_6_i_hate_you_the_most_in_the_world/37.jpg",
    "https://img-proxy.imgfo.com/?referer=https://manganelo.com&url=https://s3.mkklcdnv6temp.com/mangakakalot/h1/hisho_to_yajuu/vol1_chapter_6_i_hate_you_the_most_in_the_world/38.jpg",
    "https://img-proxy.imgfo.com/?referer=https://manganelo.com&url=https://s3.mkklcdnv6temp.com/mangakakalot/h1/hisho_to_yajuu/vol1_chapter_6_i_hate_you_the_most_in_the_world/39.jpg"
  ]
}