{
  "cover": "https://avt.mkklcdnv6.com/47/a/3-1583469530.jpg",
  "title": "Beelzebub",
  "original": "べるぜバブ (Japanese); Beelzebub manga (English); Vua Quỷ; Đứa Con Của Ma Vương (Vietnamese - Tiếng Việt - TV)",
  "genre": "Action, Comedy, Drama, School life, Shounen, Supernatural, Manga",
  "author": "Tamura Ryuuhei",
  "status": "Completed",
  "backlink": "https://manganu.com/collections/tamura-ryuuhei/beelzebub/",
  "description": "Ishiyama High is a school populated entirely by delinquents, where nonstop violence and lawlessness are the norm. However, there is one universally acknowledged rule&mdash;don&#39;t cross first year student Tatsumi Oga, Ishiyama&#39;s most vicious fighter. One day, Oga is by a riverbed when he encounters a man floating down the river. After being retrieved by Oga, the man splits down the middle to reveal a baby, which crawls onto Oga&#39;s back and immediately forms an attachment to him. Though he doesn&#39;t know it yet, this baby is named Kaiser de Emperana Beelzebub IV, or &quot;Baby Beel&quot; for short&mdash;the son of the Demon Lord! As if finding the future Lord of the Underworld isn&#39;t enough, Oga is also confronted by Hildegard, Beel&#39;s demon maid. Together they attempt to raise Baby Beel&mdash;although surrounded by juvenile delinquents and demonic powers, the two of them may be in for more of a challenge than they can imagine.",
  "language": "English",
  "images": [
    "https://img-proxy.imgfo.com/?referer=https://manganelo.com&url=https://s7.mkklcdnv6temp.com/mangakakalot/r1/read_beelzebub_manga/vol4_chapter_31_everyone_assembled/1.jpg",
    "https://img-proxy.imgfo.com/?referer=https://manganelo.com&url=https://s7.mkklcdnv6temp.com/mangakakalot/r1/read_beelzebub_manga/vol4_chapter_31_everyone_assembled/2.jpg",
    "https://img-proxy.imgfo.com/?referer=https://manganelo.com&url=https://s7.mkklcdnv6temp.com/mangakakalot/r1/read_beelzebub_manga/vol4_chapter_31_everyone_assembled/3.jpg",
    "https://img-proxy.imgfo.com/?referer=https://manganelo.com&url=https://s7.mkklcdnv6temp.com/mangakakalot/r1/read_beelzebub_manga/vol4_chapter_31_everyone_assembled/4.jpg",
    "https://img-proxy.imgfo.com/?referer=https://manganelo.com&url=https://s7.mkklcdnv6temp.com/mangakakalot/r1/read_beelzebub_manga/vol4_chapter_31_everyone_assembled/5.jpg",
    "https://img-proxy.imgfo.com/?referer=https://manganelo.com&url=https://s7.mkklcdnv6temp.com/mangakakalot/r1/read_beelzebub_manga/vol4_chapter_31_everyone_assembled/6.jpg",
    "https://img-proxy.imgfo.com/?referer=https://manganelo.com&url=https://s7.mkklcdnv6temp.com/mangakakalot/r1/read_beelzebub_manga/vol4_chapter_31_everyone_assembled/7.jpg",
    "https://img-proxy.imgfo.com/?referer=https://manganelo.com&url=https://s7.mkklcdnv6temp.com/mangakakalot/r1/read_beelzebub_manga/vol4_chapter_31_everyone_assembled/8.jpg",
    "https://img-proxy.imgfo.com/?referer=https://manganelo.com&url=https://s7.mkklcdnv6temp.com/mangakakalot/r1/read_beelzebub_manga/vol4_chapter_31_everyone_assembled/9.jpg",
    "https://img-proxy.imgfo.com/?referer=https://manganelo.com&url=https://s7.mkklcdnv6temp.com/mangakakalot/r1/read_beelzebub_manga/vol4_chapter_31_everyone_assembled/10.jpg",
    "https://img-proxy.imgfo.com/?referer=https://manganelo.com&url=https://s7.mkklcdnv6temp.com/mangakakalot/r1/read_beelzebub_manga/vol4_chapter_31_everyone_assembled/11.jpg",
    "https://img-proxy.imgfo.com/?referer=https://manganelo.com&url=https://s7.mkklcdnv6temp.com/mangakakalot/r1/read_beelzebub_manga/vol4_chapter_31_everyone_assembled/12.jpg",
    "https://img-proxy.imgfo.com/?referer=https://manganelo.com&url=https://s7.mkklcdnv6temp.com/mangakakalot/r1/read_beelzebub_manga/vol4_chapter_31_everyone_assembled/13.jpg",
    "https://img-proxy.imgfo.com/?referer=https://manganelo.com&url=https://s7.mkklcdnv6temp.com/mangakakalot/r1/read_beelzebub_manga/vol4_chapter_31_everyone_assembled/14.jpg",
    "https://img-proxy.imgfo.com/?referer=https://manganelo.com&url=https://s7.mkklcdnv6temp.com/mangakakalot/r1/read_beelzebub_manga/vol4_chapter_31_everyone_assembled/15.jpg",
    "https://img-proxy.imgfo.com/?referer=https://manganelo.com&url=https://s7.mkklcdnv6temp.com/mangakakalot/r1/read_beelzebub_manga/vol4_chapter_31_everyone_assembled/16.jpg",
    "https://img-proxy.imgfo.com/?referer=https://manganelo.com&url=https://s7.mkklcdnv6temp.com/mangakakalot/r1/read_beelzebub_manga/vol4_chapter_31_everyone_assembled/17.jpg"
  ]
}