{
  "cover": "https://avt.mkklcdnv6.com/44/k/6-1583475991.jpg",
  "title": "Basara",
  "original": "バサラ ; 命运之子 ; 婆娑罗 ; Legend of Basara",
  "genre": "Action, Adult, Adventure, Cooking, Doujinshi, Drama, Fantasy, Gender bender, Mature, Romance, Shoujo, Tragedy, Manga",
  "author": "Tamura Yumi",
  "status": "Completed",
  "backlink": "https://manganu.com/collections/tamura-yumi/basara/",
  "description": "Born under a prophecy that will liberate and unite Japan, Sarasa has had to take her brother Tatara&#39;s place as the &quot;Boy of Destiny.&quot; Fighting for the oppressed, Sarasa journeys across Japan to gain allies and defeat her enemies--all while keeping her identity a secret!",
  "language": "English",
  "images": [
    "https://img-proxy.imgfo.com/?referer=https://manganelo.com&url=https://s5.mkklcdnv6temp.com/mangakakalot/r1/read_basara_manga_online/vol07_chapter_262_lapis_lazuli_ch7_cursed_forest/1.jpg",
    "https://img-proxy.imgfo.com/?referer=https://manganelo.com&url=https://s5.mkklcdnv6temp.com/mangakakalot/r1/read_basara_manga_online/vol07_chapter_262_lapis_lazuli_ch7_cursed_forest/2.jpg",
    "https://img-proxy.imgfo.com/?referer=https://manganelo.com&url=https://s5.mkklcdnv6temp.com/mangakakalot/r1/read_basara_manga_online/vol07_chapter_262_lapis_lazuli_ch7_cursed_forest/3.jpg",
    "https://img-proxy.imgfo.com/?referer=https://manganelo.com&url=https://s5.mkklcdnv6temp.com/mangakakalot/r1/read_basara_manga_online/vol07_chapter_262_lapis_lazuli_ch7_cursed_forest/4.jpg",
    "https://img-proxy.imgfo.com/?referer=https://manganelo.com&url=https://s5.mkklcdnv6temp.com/mangakakalot/r1/read_basara_manga_online/vol07_chapter_262_lapis_lazuli_ch7_cursed_forest/5.jpg",
    "https://img-proxy.imgfo.com/?referer=https://manganelo.com&url=https://s5.mkklcdnv6temp.com/mangakakalot/r1/read_basara_manga_online/vol07_chapter_262_lapis_lazuli_ch7_cursed_forest/6.jpg",
    "https://img-proxy.imgfo.com/?referer=https://manganelo.com&url=https://s5.mkklcdnv6temp.com/mangakakalot/r1/read_basara_manga_online/vol07_chapter_262_lapis_lazuli_ch7_cursed_forest/7.jpg",
    "https://img-proxy.imgfo.com/?referer=https://manganelo.com&url=https://s5.mkklcdnv6temp.com/mangakakalot/r1/read_basara_manga_online/vol07_chapter_262_lapis_lazuli_ch7_cursed_forest/8.jpg",
    "https://img-proxy.imgfo.com/?referer=https://manganelo.com&url=https://s5.mkklcdnv6temp.com/mangakakalot/r1/read_basara_manga_online/vol07_chapter_262_lapis_lazuli_ch7_cursed_forest/9.jpg",
    "https://img-proxy.imgfo.com/?referer=https://manganelo.com&url=https://s5.mkklcdnv6temp.com/mangakakalot/r1/read_basara_manga_online/vol07_chapter_262_lapis_lazuli_ch7_cursed_forest/10.jpg",
    "https://img-proxy.imgfo.com/?referer=https://manganelo.com&url=https://s5.mkklcdnv6temp.com/mangakakalot/r1/read_basara_manga_online/vol07_chapter_262_lapis_lazuli_ch7_cursed_forest/11.jpg",
    "https://img-proxy.imgfo.com/?referer=https://manganelo.com&url=https://s5.mkklcdnv6temp.com/mangakakalot/r1/read_basara_manga_online/vol07_chapter_262_lapis_lazuli_ch7_cursed_forest/12.jpg",
    "https://img-proxy.imgfo.com/?referer=https://manganelo.com&url=https://s5.mkklcdnv6temp.com/mangakakalot/r1/read_basara_manga_online/vol07_chapter_262_lapis_lazuli_ch7_cursed_forest/13.jpg",
    "https://img-proxy.imgfo.com/?referer=https://manganelo.com&url=https://s5.mkklcdnv6temp.com/mangakakalot/r1/read_basara_manga_online/vol07_chapter_262_lapis_lazuli_ch7_cursed_forest/14.jpg",
    "https://img-proxy.imgfo.com/?referer=https://manganelo.com&url=https://s5.mkklcdnv6temp.com/mangakakalot/r1/read_basara_manga_online/vol07_chapter_262_lapis_lazuli_ch7_cursed_forest/15.jpg",
    "https://img-proxy.imgfo.com/?referer=https://manganelo.com&url=https://s5.mkklcdnv6temp.com/mangakakalot/r1/read_basara_manga_online/vol07_chapter_262_lapis_lazuli_ch7_cursed_forest/16.jpg",
    "https://img-proxy.imgfo.com/?referer=https://manganelo.com&url=https://s5.mkklcdnv6temp.com/mangakakalot/r1/read_basara_manga_online/vol07_chapter_262_lapis_lazuli_ch7_cursed_forest/17.jpg",
    "https://img-proxy.imgfo.com/?referer=https://manganelo.com&url=https://s5.mkklcdnv6temp.com/mangakakalot/r1/read_basara_manga_online/vol07_chapter_262_lapis_lazuli_ch7_cursed_forest/18.jpg",
    "https://img-proxy.imgfo.com/?referer=https://manganelo.com&url=https://s5.mkklcdnv6temp.com/mangakakalot/r1/read_basara_manga_online/vol07_chapter_262_lapis_lazuli_ch7_cursed_forest/19.jpg",
    "https://img-proxy.imgfo.com/?referer=https://manganelo.com&url=https://s5.mkklcdnv6temp.com/mangakakalot/r1/read_basara_manga_online/vol07_chapter_262_lapis_lazuli_ch7_cursed_forest/20.jpg",
    "https://img-proxy.imgfo.com/?referer=https://manganelo.com&url=https://s5.mkklcdnv6temp.com/mangakakalot/r1/read_basara_manga_online/vol07_chapter_262_lapis_lazuli_ch7_cursed_forest/21.jpg",
    "https://img-proxy.imgfo.com/?referer=https://manganelo.com&url=https://s5.mkklcdnv6temp.com/mangakakalot/r1/read_basara_manga_online/vol07_chapter_262_lapis_lazuli_ch7_cursed_forest/22.jpg",
    "https://img-proxy.imgfo.com/?referer=https://manganelo.com&url=https://s5.mkklcdnv6temp.com/mangakakalot/r1/read_basara_manga_online/vol07_chapter_262_lapis_lazuli_ch7_cursed_forest/23.jpg",
    "https://img-proxy.imgfo.com/?referer=https://manganelo.com&url=https://s5.mkklcdnv6temp.com/mangakakalot/r1/read_basara_manga_online/vol07_chapter_262_lapis_lazuli_ch7_cursed_forest/24.jpg",
    "https://img-proxy.imgfo.com/?referer=https://manganelo.com&url=https://s5.mkklcdnv6temp.com/mangakakalot/r1/read_basara_manga_online/vol07_chapter_262_lapis_lazuli_ch7_cursed_forest/25.jpg"
  ]
}