{
  "cover": "https://avt.mkklcdnv6.com/35/x/3-1583469087.jpg",
  "title": "Tokyo Ghoul",
  "original": "東京喰種 ; トーキョーグール ; Toukyou Kushu ; Tokyo Kushu ; Tokyo Kusyu ; Toukyou Ghoul ; طوكيو غول ; غول طوكيو ; غول توكيو",
  "genre": "Action, Adult, Adventure, Comedy, Doujinshi, Drama, Fantasy, Horror, Mystery, Psychological, Seinen, Supernatural, Tragedy, Manga",
  "author": "Ishida Sui",
  "status": "Completed",
  "backlink": "https://manganu.com/collections/ishida-sui/tokyo-ghoul/",
  "description": "Part 2 : Tokyo Ghoul : Re\n\nTokyo Ghoul Manga",
  "language": "English",
  "images": [
    "https://img-proxy.imgfo.com/?referer=https://manganelo.com&url=https://s7.mkklcdnv6temp.com/mangakakalot/r1/read_tokyo_ghoul_manga_online_free4/chapter_87/1.jpg",
    "https://img-proxy.imgfo.com/?referer=https://manganelo.com&url=https://s7.mkklcdnv6temp.com/mangakakalot/r1/read_tokyo_ghoul_manga_online_free4/chapter_87/2.jpg",
    "https://img-proxy.imgfo.com/?referer=https://manganelo.com&url=https://s7.mkklcdnv6temp.com/mangakakalot/r1/read_tokyo_ghoul_manga_online_free4/chapter_87/3.jpg",
    "https://img-proxy.imgfo.com/?referer=https://manganelo.com&url=https://s7.mkklcdnv6temp.com/mangakakalot/r1/read_tokyo_ghoul_manga_online_free4/chapter_87/4.jpg",
    "https://img-proxy.imgfo.com/?referer=https://manganelo.com&url=https://s7.mkklcdnv6temp.com/mangakakalot/r1/read_tokyo_ghoul_manga_online_free4/chapter_87/5.jpg",
    "https://img-proxy.imgfo.com/?referer=https://manganelo.com&url=https://s7.mkklcdnv6temp.com/mangakakalot/r1/read_tokyo_ghoul_manga_online_free4/chapter_87/6.jpg",
    "https://img-proxy.imgfo.com/?referer=https://manganelo.com&url=https://s7.mkklcdnv6temp.com/mangakakalot/r1/read_tokyo_ghoul_manga_online_free4/chapter_87/7.jpg",
    "https://img-proxy.imgfo.com/?referer=https://manganelo.com&url=https://s7.mkklcdnv6temp.com/mangakakalot/r1/read_tokyo_ghoul_manga_online_free4/chapter_87/8.jpg",
    "https://img-proxy.imgfo.com/?referer=https://manganelo.com&url=https://s7.mkklcdnv6temp.com/mangakakalot/r1/read_tokyo_ghoul_manga_online_free4/chapter_87/9.jpg",
    "https://img-proxy.imgfo.com/?referer=https://manganelo.com&url=https://s7.mkklcdnv6temp.com/mangakakalot/r1/read_tokyo_ghoul_manga_online_free4/chapter_87/10.jpg",
    "https://img-proxy.imgfo.com/?referer=https://manganelo.com&url=https://s7.mkklcdnv6temp.com/mangakakalot/r1/read_tokyo_ghoul_manga_online_free4/chapter_87/11.jpg",
    "https://img-proxy.imgfo.com/?referer=https://manganelo.com&url=https://s7.mkklcdnv6temp.com/mangakakalot/r1/read_tokyo_ghoul_manga_online_free4/chapter_87/12.jpg",
    "https://img-proxy.imgfo.com/?referer=https://manganelo.com&url=https://s7.mkklcdnv6temp.com/mangakakalot/r1/read_tokyo_ghoul_manga_online_free4/chapter_87/13.jpg",
    "https://img-proxy.imgfo.com/?referer=https://manganelo.com&url=https://s7.mkklcdnv6temp.com/mangakakalot/r1/read_tokyo_ghoul_manga_online_free4/chapter_87/14.jpg",
    "https://img-proxy.imgfo.com/?referer=https://manganelo.com&url=https://s7.mkklcdnv6temp.com/mangakakalot/r1/read_tokyo_ghoul_manga_online_free4/chapter_87/15.jpg"
  ]
}