{
  "cover": "https://avt.mkklcdnv6.com/1/c/10-1583484027.jpg",
  "title": "Itsuka Ame Ga Furu You Ni",
  "original": "いつか雨が降るように ; Like as the Time Will Come When it Will Rain",
  "genre": "Drama, Psychological, Supernatural, Tragedy, Yaoi, Manga",
  "author": "Kunieda Saika",
  "status": "Completed",
  "backlink": "https://manganu.com/collections/kunieda-saika/itsuka-ame-ga-furu-you-ni/",
  "description": "1) Like as the Time Will Come When it Will RainOn a rainy day Ryouichi takes in a boy with no memories. As they slowly evolve a relationship will the memories the boy has break their fragile bonds?2) An Uncertain CycleTsuda has known Hitomi all his life, but they've never been close. Tsuda noticed Hitomi's split personality early on and has avoided him ever since. So why is Hitomi standing on his doorstep?3) Changing OddsTsuda and Hitomi meet again.4) Reflections in the WaterCollege student Hayase finds out his distant boyfriend Shou has a twin and wants to meet him. (Note: This was adapted into a movie called \"Itsuka no Kimi e\".)5) Secrets and LiesA terrible secret haunts a salaryman who suddenly reconnects with his sister's ex-boyfriend.6) A Single FutonShunji figured that his brother Yuu had a girlfriend when he decided to move out, but his girlfriend is actually a boyfriend! After years of taking care of the older Yuu, can Shunji let his brother go?7) The CurseA man, cursed to forget the past, struggles to remember. A continuation from the first story of Natsu Jikan( http://mangapark.com/search?q=natsujikan )",
  "language": "English",
  "images": [
    "https://img-proxy.imgfo.com/?referer=https://manganelo.com&url=https://s41.mkklcdnv6temp.com/mangakakalot/i2/itsuka_ame_ga_furu_you_ni/vol1_chapter_2_an_uncertain_cycle/1.jpg",
    "https://img-proxy.imgfo.com/?referer=https://manganelo.com&url=https://s41.mkklcdnv6temp.com/mangakakalot/i2/itsuka_ame_ga_furu_you_ni/vol1_chapter_2_an_uncertain_cycle/2.jpg",
    "https://img-proxy.imgfo.com/?referer=https://manganelo.com&url=https://s41.mkklcdnv6temp.com/mangakakalot/i2/itsuka_ame_ga_furu_you_ni/vol1_chapter_2_an_uncertain_cycle/3.jpg",
    "https://img-proxy.imgfo.com/?referer=https://manganelo.com&url=https://s41.mkklcdnv6temp.com/mangakakalot/i2/itsuka_ame_ga_furu_you_ni/vol1_chapter_2_an_uncertain_cycle/4.jpg",
    "https://img-proxy.imgfo.com/?referer=https://manganelo.com&url=https://s41.mkklcdnv6temp.com/mangakakalot/i2/itsuka_ame_ga_furu_you_ni/vol1_chapter_2_an_uncertain_cycle/5.jpg",
    "https://img-proxy.imgfo.com/?referer=https://manganelo.com&url=https://s41.mkklcdnv6temp.com/mangakakalot/i2/itsuka_ame_ga_furu_you_ni/vol1_chapter_2_an_uncertain_cycle/6.jpg",
    "https://img-proxy.imgfo.com/?referer=https://manganelo.com&url=https://s41.mkklcdnv6temp.com/mangakakalot/i2/itsuka_ame_ga_furu_you_ni/vol1_chapter_2_an_uncertain_cycle/7.jpg",
    "https://img-proxy.imgfo.com/?referer=https://manganelo.com&url=https://s41.mkklcdnv6temp.com/mangakakalot/i2/itsuka_ame_ga_furu_you_ni/vol1_chapter_2_an_uncertain_cycle/8.jpg",
    "https://img-proxy.imgfo.com/?referer=https://manganelo.com&url=https://s41.mkklcdnv6temp.com/mangakakalot/i2/itsuka_ame_ga_furu_you_ni/vol1_chapter_2_an_uncertain_cycle/9.jpg",
    "https://img-proxy.imgfo.com/?referer=https://manganelo.com&url=https://s41.mkklcdnv6temp.com/mangakakalot/i2/itsuka_ame_ga_furu_you_ni/vol1_chapter_2_an_uncertain_cycle/10.jpg",
    "https://img-proxy.imgfo.com/?referer=https://manganelo.com&url=https://s41.mkklcdnv6temp.com/mangakakalot/i2/itsuka_ame_ga_furu_you_ni/vol1_chapter_2_an_uncertain_cycle/11.jpg",
    "https://img-proxy.imgfo.com/?referer=https://manganelo.com&url=https://s41.mkklcdnv6temp.com/mangakakalot/i2/itsuka_ame_ga_furu_you_ni/vol1_chapter_2_an_uncertain_cycle/12.jpg",
    "https://img-proxy.imgfo.com/?referer=https://manganelo.com&url=https://s41.mkklcdnv6temp.com/mangakakalot/i2/itsuka_ame_ga_furu_you_ni/vol1_chapter_2_an_uncertain_cycle/13.jpg",
    "https://img-proxy.imgfo.com/?referer=https://manganelo.com&url=https://s41.mkklcdnv6temp.com/mangakakalot/i2/itsuka_ame_ga_furu_you_ni/vol1_chapter_2_an_uncertain_cycle/14.jpg",
    "https://img-proxy.imgfo.com/?referer=https://manganelo.com&url=https://s41.mkklcdnv6temp.com/mangakakalot/i2/itsuka_ame_ga_furu_you_ni/vol1_chapter_2_an_uncertain_cycle/15.jpg",
    "https://img-proxy.imgfo.com/?referer=https://manganelo.com&url=https://s41.mkklcdnv6temp.com/mangakakalot/i2/itsuka_ame_ga_furu_you_ni/vol1_chapter_2_an_uncertain_cycle/16.jpg",
    "https://img-proxy.imgfo.com/?referer=https://manganelo.com&url=https://s41.mkklcdnv6temp.com/mangakakalot/i2/itsuka_ame_ga_furu_you_ni/vol1_chapter_2_an_uncertain_cycle/17.jpg",
    "https://img-proxy.imgfo.com/?referer=https://manganelo.com&url=https://s41.mkklcdnv6temp.com/mangakakalot/i2/itsuka_ame_ga_furu_you_ni/vol1_chapter_2_an_uncertain_cycle/18.jpg",
    "https://img-proxy.imgfo.com/?referer=https://manganelo.com&url=https://s41.mkklcdnv6temp.com/mangakakalot/i2/itsuka_ame_ga_furu_you_ni/vol1_chapter_2_an_uncertain_cycle/19.jpg",
    "https://img-proxy.imgfo.com/?referer=https://manganelo.com&url=https://s41.mkklcdnv6temp.com/mangakakalot/i2/itsuka_ame_ga_furu_you_ni/vol1_chapter_2_an_uncertain_cycle/20.jpg",
    "https://img-proxy.imgfo.com/?referer=https://manganelo.com&url=https://s41.mkklcdnv6temp.com/mangakakalot/i2/itsuka_ame_ga_furu_you_ni/vol1_chapter_2_an_uncertain_cycle/21.jpg"
  ]
}