{
  "cover": "https://avt.mkklcdnv6.com/9/e/5-1583472220.jpg",
  "title": "Onnanoko Tokidoki Otokonoko",
  "original": "女の子ときどき男のこ ; Onna no Ko Toki doki Otoko no Ko ; Onna no Ko Tokidoki Otoko no Ko ; Onnanoko Toki Doki Otokonoko ; Girl Sometimes Boy",
  "genre": "Comedy, Ecchi, Gender bender, Romance, School life, Shounen ai, Manga",
  "author": "Hinemosu Notari",
  "status": "Completed",
  "backlink": "https://manganu.com/collections/hinemosu-notari/onnanoko-tokidoki-otokonoko/",
  "description": "Yuusuke's childhood friend Akira is back as a beautiful girl, but something is not right. Despite the fact that Yuusuke doesn't remember much of Akira, he definitely knows Akira is a male.",
  "language": "English",
  "images": [
    "https://img-proxy.imgfo.com/?referer=https://manganelo.com&url=https://s7.mkklcdnv6temp.com/mangakakalot/o1/onnanoko_tokidoki_otokonoko/vol1_chapter_6/1.jpg",
    "https://img-proxy.imgfo.com/?referer=https://manganelo.com&url=https://s7.mkklcdnv6temp.com/mangakakalot/o1/onnanoko_tokidoki_otokonoko/vol1_chapter_6/2.jpg",
    "https://img-proxy.imgfo.com/?referer=https://manganelo.com&url=https://s7.mkklcdnv6temp.com/mangakakalot/o1/onnanoko_tokidoki_otokonoko/vol1_chapter_6/3.jpg",
    "https://img-proxy.imgfo.com/?referer=https://manganelo.com&url=https://s7.mkklcdnv6temp.com/mangakakalot/o1/onnanoko_tokidoki_otokonoko/vol1_chapter_6/4.jpg",
    "https://img-proxy.imgfo.com/?referer=https://manganelo.com&url=https://s7.mkklcdnv6temp.com/mangakakalot/o1/onnanoko_tokidoki_otokonoko/vol1_chapter_6/5.jpg",
    "https://img-proxy.imgfo.com/?referer=https://manganelo.com&url=https://s7.mkklcdnv6temp.com/mangakakalot/o1/onnanoko_tokidoki_otokonoko/vol1_chapter_6/6.jpg",
    "https://img-proxy.imgfo.com/?referer=https://manganelo.com&url=https://s7.mkklcdnv6temp.com/mangakakalot/o1/onnanoko_tokidoki_otokonoko/vol1_chapter_6/7.jpg",
    "https://img-proxy.imgfo.com/?referer=https://manganelo.com&url=https://s7.mkklcdnv6temp.com/mangakakalot/o1/onnanoko_tokidoki_otokonoko/vol1_chapter_6/8.jpg",
    "https://img-proxy.imgfo.com/?referer=https://manganelo.com&url=https://s7.mkklcdnv6temp.com/mangakakalot/o1/onnanoko_tokidoki_otokonoko/vol1_chapter_6/9.jpg",
    "https://img-proxy.imgfo.com/?referer=https://manganelo.com&url=https://s7.mkklcdnv6temp.com/mangakakalot/o1/onnanoko_tokidoki_otokonoko/vol1_chapter_6/10.jpg",
    "https://img-proxy.imgfo.com/?referer=https://manganelo.com&url=https://s7.mkklcdnv6temp.com/mangakakalot/o1/onnanoko_tokidoki_otokonoko/vol1_chapter_6/11.jpg",
    "https://img-proxy.imgfo.com/?referer=https://manganelo.com&url=https://s7.mkklcdnv6temp.com/mangakakalot/o1/onnanoko_tokidoki_otokonoko/vol1_chapter_6/12.jpg",
    "https://img-proxy.imgfo.com/?referer=https://manganelo.com&url=https://s7.mkklcdnv6temp.com/mangakakalot/o1/onnanoko_tokidoki_otokonoko/vol1_chapter_6/13.jpg",
    "https://img-proxy.imgfo.com/?referer=https://manganelo.com&url=https://s7.mkklcdnv6temp.com/mangakakalot/o1/onnanoko_tokidoki_otokonoko/vol1_chapter_6/14.jpg",
    "https://img-proxy.imgfo.com/?referer=https://manganelo.com&url=https://s7.mkklcdnv6temp.com/mangakakalot/o1/onnanoko_tokidoki_otokonoko/vol1_chapter_6/15.jpg",
    "https://img-proxy.imgfo.com/?referer=https://manganelo.com&url=https://s7.mkklcdnv6temp.com/mangakakalot/o1/onnanoko_tokidoki_otokonoko/vol1_chapter_6/16.jpg",
    "https://img-proxy.imgfo.com/?referer=https://manganelo.com&url=https://s7.mkklcdnv6temp.com/mangakakalot/o1/onnanoko_tokidoki_otokonoko/vol1_chapter_6/17.jpg",
    "https://img-proxy.imgfo.com/?referer=https://manganelo.com&url=https://s7.mkklcdnv6temp.com/mangakakalot/o1/onnanoko_tokidoki_otokonoko/vol1_chapter_6/18.jpg",
    "https://img-proxy.imgfo.com/?referer=https://manganelo.com&url=https://s7.mkklcdnv6temp.com/mangakakalot/o1/onnanoko_tokidoki_otokonoko/vol1_chapter_6/19.jpg",
    "https://img-proxy.imgfo.com/?referer=https://manganelo.com&url=https://s7.mkklcdnv6temp.com/mangakakalot/o1/onnanoko_tokidoki_otokonoko/vol1_chapter_6/20.jpg",
    "https://img-proxy.imgfo.com/?referer=https://manganelo.com&url=https://s7.mkklcdnv6temp.com/mangakakalot/o1/onnanoko_tokidoki_otokonoko/vol1_chapter_6/21.jpg",
    "https://img-proxy.imgfo.com/?referer=https://manganelo.com&url=https://s7.mkklcdnv6temp.com/mangakakalot/o1/onnanoko_tokidoki_otokonoko/vol1_chapter_6/22.jpg",
    "https://img-proxy.imgfo.com/?referer=https://manganelo.com&url=https://s7.mkklcdnv6temp.com/mangakakalot/o1/onnanoko_tokidoki_otokonoko/vol1_chapter_6/23.jpg",
    "https://img-proxy.imgfo.com/?referer=https://manganelo.com&url=https://s7.mkklcdnv6temp.com/mangakakalot/o1/onnanoko_tokidoki_otokonoko/vol1_chapter_6/24.jpg",
    "https://img-proxy.imgfo.com/?referer=https://manganelo.com&url=https://s7.mkklcdnv6temp.com/mangakakalot/o1/onnanoko_tokidoki_otokonoko/vol1_chapter_6/25.jpg"
  ]
}