{
  "cover": "https://avt.mkklcdnv6.com/43/n/5-1583473603.jpg",
  "title": "Idol Shopping",
  "original": "아이돌 쇼핑, ; Thần tượng mua sắm ( Vietnamese) ; Namimili ng Idolo (Filipino) ; Idol handel (Norwegian) ; 明星较易(Chinese)",
  "genre": "Action, Comedy, Drama, Gender bender, Romance, School life, Shoujo, Slice of life, Manhwa",
  "author": "Hwang Mi-Ri",
  "status": "Completed",
  "backlink": "https://manganu.com/collections/hwang-mi-ri/idol-shopping/",
  "description": "'S' is a known as a bully caretaker, who avenges her bullied clients -- for a price, of course.\nHowever, in reality, 'S' is a nerd named Kang Song Ih, with a twin brother named Kang Ah Eul, whom she loves above anything. Ah Eul attends Chungha High School, a famous and expensive school, but over winter break, he attempts to commit suicide. Song Ih, determined to understand why her brother tried to kill himself, attends Chungha High School, pretending to be Ah Eul -- uncovering the reasons why Ah Eul was driven to suicide, including one mysteriously handsome but \"bad\" guy named Suh Ga Yoon.\nRead as you follow her life while staying in an All-Boy's school and living in a dorm -- with a male roommate, who happens to be a famous singer and someone she as \"S\" had once nearly beat up.\nWatch out! Whoever bothers \"S\"'s brother, prepare to face her!",
  "language": "English",
  "images": [
    "https://img-proxy.imgfo.com/?referer=https://manganelo.com&url=https://s3.mkklcdnv6temp.com/mangakakalot/i1/idol_shopping/vol8_chapter_32/1.jpg",
    "https://img-proxy.imgfo.com/?referer=https://manganelo.com&url=https://s3.mkklcdnv6temp.com/mangakakalot/i1/idol_shopping/vol8_chapter_32/2.jpg",
    "https://img-proxy.imgfo.com/?referer=https://manganelo.com&url=https://s3.mkklcdnv6temp.com/mangakakalot/i1/idol_shopping/vol8_chapter_32/3.jpg",
    "https://img-proxy.imgfo.com/?referer=https://manganelo.com&url=https://s3.mkklcdnv6temp.com/mangakakalot/i1/idol_shopping/vol8_chapter_32/4.jpg",
    "https://img-proxy.imgfo.com/?referer=https://manganelo.com&url=https://s3.mkklcdnv6temp.com/mangakakalot/i1/idol_shopping/vol8_chapter_32/5.jpg",
    "https://img-proxy.imgfo.com/?referer=https://manganelo.com&url=https://s3.mkklcdnv6temp.com/mangakakalot/i1/idol_shopping/vol8_chapter_32/6.jpg",
    "https://img-proxy.imgfo.com/?referer=https://manganelo.com&url=https://s3.mkklcdnv6temp.com/mangakakalot/i1/idol_shopping/vol8_chapter_32/7.jpg",
    "https://img-proxy.imgfo.com/?referer=https://manganelo.com&url=https://s3.mkklcdnv6temp.com/mangakakalot/i1/idol_shopping/vol8_chapter_32/8.jpg",
    "https://img-proxy.imgfo.com/?referer=https://manganelo.com&url=https://s3.mkklcdnv6temp.com/mangakakalot/i1/idol_shopping/vol8_chapter_32/9.jpg",
    "https://img-proxy.imgfo.com/?referer=https://manganelo.com&url=https://s3.mkklcdnv6temp.com/mangakakalot/i1/idol_shopping/vol8_chapter_32/10.jpg",
    "https://img-proxy.imgfo.com/?referer=https://manganelo.com&url=https://s3.mkklcdnv6temp.com/mangakakalot/i1/idol_shopping/vol8_chapter_32/11.jpg",
    "https://img-proxy.imgfo.com/?referer=https://manganelo.com&url=https://s3.mkklcdnv6temp.com/mangakakalot/i1/idol_shopping/vol8_chapter_32/12.jpg",
    "https://img-proxy.imgfo.com/?referer=https://manganelo.com&url=https://s3.mkklcdnv6temp.com/mangakakalot/i1/idol_shopping/vol8_chapter_32/13.jpg",
    "https://img-proxy.imgfo.com/?referer=https://manganelo.com&url=https://s3.mkklcdnv6temp.com/mangakakalot/i1/idol_shopping/vol8_chapter_32/14.jpg",
    "https://img-proxy.imgfo.com/?referer=https://manganelo.com&url=https://s3.mkklcdnv6temp.com/mangakakalot/i1/idol_shopping/vol8_chapter_32/15.jpg",
    "https://img-proxy.imgfo.com/?referer=https://manganelo.com&url=https://s3.mkklcdnv6temp.com/mangakakalot/i1/idol_shopping/vol8_chapter_32/16.jpg",
    "https://img-proxy.imgfo.com/?referer=https://manganelo.com&url=https://s3.mkklcdnv6temp.com/mangakakalot/i1/idol_shopping/vol8_chapter_32/17.jpg",
    "https://img-proxy.imgfo.com/?referer=https://manganelo.com&url=https://s3.mkklcdnv6temp.com/mangakakalot/i1/idol_shopping/vol8_chapter_32/18.jpg",
    "https://img-proxy.imgfo.com/?referer=https://manganelo.com&url=https://s3.mkklcdnv6temp.com/mangakakalot/i1/idol_shopping/vol8_chapter_32/19.jpg",
    "https://img-proxy.imgfo.com/?referer=https://manganelo.com&url=https://s3.mkklcdnv6temp.com/mangakakalot/i1/idol_shopping/vol8_chapter_32/20.jpg",
    "https://img-proxy.imgfo.com/?referer=https://manganelo.com&url=https://s3.mkklcdnv6temp.com/mangakakalot/i1/idol_shopping/vol8_chapter_32/21.jpg",
    "https://img-proxy.imgfo.com/?referer=https://manganelo.com&url=https://s3.mkklcdnv6temp.com/mangakakalot/i1/idol_shopping/vol8_chapter_32/22.jpg",
    "https://img-proxy.imgfo.com/?referer=https://manganelo.com&url=https://s3.mkklcdnv6temp.com/mangakakalot/i1/idol_shopping/vol8_chapter_32/23.jpg",
    "https://img-proxy.imgfo.com/?referer=https://manganelo.com&url=https://s3.mkklcdnv6temp.com/mangakakalot/i1/idol_shopping/vol8_chapter_32/24.jpg",
    "https://img-proxy.imgfo.com/?referer=https://manganelo.com&url=https://s3.mkklcdnv6temp.com/mangakakalot/i1/idol_shopping/vol8_chapter_32/25.jpg",
    "https://img-proxy.imgfo.com/?referer=https://manganelo.com&url=https://s3.mkklcdnv6temp.com/mangakakalot/i1/idol_shopping/vol8_chapter_32/26.jpg",
    "https://img-proxy.imgfo.com/?referer=https://manganelo.com&url=https://s3.mkklcdnv6temp.com/mangakakalot/i1/idol_shopping/vol8_chapter_32/27.jpg",
    "https://img-proxy.imgfo.com/?referer=https://manganelo.com&url=https://s3.mkklcdnv6temp.com/mangakakalot/i1/idol_shopping/vol8_chapter_32/28.jpg",
    "https://img-proxy.imgfo.com/?referer=https://manganelo.com&url=https://s3.mkklcdnv6temp.com/mangakakalot/i1/idol_shopping/vol8_chapter_32/29.jpg",
    "https://img-proxy.imgfo.com/?referer=https://manganelo.com&url=https://s3.mkklcdnv6temp.com/mangakakalot/i1/idol_shopping/vol8_chapter_32/30.jpg",
    "https://img-proxy.imgfo.com/?referer=https://manganelo.com&url=https://s3.mkklcdnv6temp.com/mangakakalot/i1/idol_shopping/vol8_chapter_32/31.jpg",
    "https://img-proxy.imgfo.com/?referer=https://manganelo.com&url=https://s3.mkklcdnv6temp.com/mangakakalot/i1/idol_shopping/vol8_chapter_32/32.jpg",
    "https://img-proxy.imgfo.com/?referer=https://manganelo.com&url=https://s3.mkklcdnv6temp.com/mangakakalot/i1/idol_shopping/vol8_chapter_32/33.jpg",
    "https://img-proxy.imgfo.com/?referer=https://manganelo.com&url=https://s3.mkklcdnv6temp.com/mangakakalot/i1/idol_shopping/vol8_chapter_32/34.jpg",
    "https://img-proxy.imgfo.com/?referer=https://manganelo.com&url=https://s3.mkklcdnv6temp.com/mangakakalot/i1/idol_shopping/vol8_chapter_32/35.jpg"
  ]
}