{
  "cover": "https://avt.mkklcdnv6.com/8/j/5-1583472193.jpg",
  "title": "Perowan! - Hayaku Shinasai! Goshujinsama",
  "original": "ぺろわん! -早くシなさい! ご主人さま♪- ; 舔呀 汪!-还不快来满足我!主人♪- ; 舔足游戏 ; Perowan! ; Perowan! - Hayakushinasai! Goshujin-sama",
  "genre": "Comedy, Ecchi, Fantasy, Harem, Romance, School life, Shounen, Supernatural, Manga",
  "author": "Yui Daisuke",
  "status": "Completed",
  "backlink": "https://manganu.com/collections/yui-daisuke/perowan-hayaku-shinasai-goshujinsama/",
  "description": "Inukai Shirou a male high-school student leading his life when suddenly his dog Mashiro turns into a human girl and now he must satisfy her wants or face the consequences.",
  "language": "English",
  "images": [
    "https://img-proxy.imgfo.com/?referer=https://manganelo.com&url=https://s3.mkklcdnv6temp.com/mangakakalot/p1/perowan_hayaku_shinasai_goshujinsama/vol3_chapter_17_lots_of_memories/1.jpg",
    "https://img-proxy.imgfo.com/?referer=https://manganelo.com&url=https://s3.mkklcdnv6temp.com/mangakakalot/p1/perowan_hayaku_shinasai_goshujinsama/vol3_chapter_17_lots_of_memories/2.jpg",
    "https://img-proxy.imgfo.com/?referer=https://manganelo.com&url=https://s3.mkklcdnv6temp.com/mangakakalot/p1/perowan_hayaku_shinasai_goshujinsama/vol3_chapter_17_lots_of_memories/3.jpg",
    "https://img-proxy.imgfo.com/?referer=https://manganelo.com&url=https://s3.mkklcdnv6temp.com/mangakakalot/p1/perowan_hayaku_shinasai_goshujinsama/vol3_chapter_17_lots_of_memories/4.jpg",
    "https://img-proxy.imgfo.com/?referer=https://manganelo.com&url=https://s3.mkklcdnv6temp.com/mangakakalot/p1/perowan_hayaku_shinasai_goshujinsama/vol3_chapter_17_lots_of_memories/5.jpg",
    "https://img-proxy.imgfo.com/?referer=https://manganelo.com&url=https://s3.mkklcdnv6temp.com/mangakakalot/p1/perowan_hayaku_shinasai_goshujinsama/vol3_chapter_17_lots_of_memories/6.jpg",
    "https://img-proxy.imgfo.com/?referer=https://manganelo.com&url=https://s3.mkklcdnv6temp.com/mangakakalot/p1/perowan_hayaku_shinasai_goshujinsama/vol3_chapter_17_lots_of_memories/7.jpg",
    "https://img-proxy.imgfo.com/?referer=https://manganelo.com&url=https://s3.mkklcdnv6temp.com/mangakakalot/p1/perowan_hayaku_shinasai_goshujinsama/vol3_chapter_17_lots_of_memories/8.jpg",
    "https://img-proxy.imgfo.com/?referer=https://manganelo.com&url=https://s3.mkklcdnv6temp.com/mangakakalot/p1/perowan_hayaku_shinasai_goshujinsama/vol3_chapter_17_lots_of_memories/9.jpg",
    "https://img-proxy.imgfo.com/?referer=https://manganelo.com&url=https://s3.mkklcdnv6temp.com/mangakakalot/p1/perowan_hayaku_shinasai_goshujinsama/vol3_chapter_17_lots_of_memories/10.jpg",
    "https://img-proxy.imgfo.com/?referer=https://manganelo.com&url=https://s3.mkklcdnv6temp.com/mangakakalot/p1/perowan_hayaku_shinasai_goshujinsama/vol3_chapter_17_lots_of_memories/11.jpg",
    "https://img-proxy.imgfo.com/?referer=https://manganelo.com&url=https://s3.mkklcdnv6temp.com/mangakakalot/p1/perowan_hayaku_shinasai_goshujinsama/vol3_chapter_17_lots_of_memories/12.jpg",
    "https://img-proxy.imgfo.com/?referer=https://manganelo.com&url=https://s3.mkklcdnv6temp.com/mangakakalot/p1/perowan_hayaku_shinasai_goshujinsama/vol3_chapter_17_lots_of_memories/13.jpg",
    "https://img-proxy.imgfo.com/?referer=https://manganelo.com&url=https://s3.mkklcdnv6temp.com/mangakakalot/p1/perowan_hayaku_shinasai_goshujinsama/vol3_chapter_17_lots_of_memories/14.jpg",
    "https://img-proxy.imgfo.com/?referer=https://manganelo.com&url=https://s3.mkklcdnv6temp.com/mangakakalot/p1/perowan_hayaku_shinasai_goshujinsama/vol3_chapter_17_lots_of_memories/15.jpg",
    "https://img-proxy.imgfo.com/?referer=https://manganelo.com&url=https://s3.mkklcdnv6temp.com/mangakakalot/p1/perowan_hayaku_shinasai_goshujinsama/vol3_chapter_17_lots_of_memories/16.jpg",
    "https://img-proxy.imgfo.com/?referer=https://manganelo.com&url=https://s3.mkklcdnv6temp.com/mangakakalot/p1/perowan_hayaku_shinasai_goshujinsama/vol3_chapter_17_lots_of_memories/17.jpg",
    "https://img-proxy.imgfo.com/?referer=https://manganelo.com&url=https://s3.mkklcdnv6temp.com/mangakakalot/p1/perowan_hayaku_shinasai_goshujinsama/vol3_chapter_17_lots_of_memories/18.jpg",
    "https://img-proxy.imgfo.com/?referer=https://manganelo.com&url=https://s3.mkklcdnv6temp.com/mangakakalot/p1/perowan_hayaku_shinasai_goshujinsama/vol3_chapter_17_lots_of_memories/19.jpg",
    "https://img-proxy.imgfo.com/?referer=https://manganelo.com&url=https://s3.mkklcdnv6temp.com/mangakakalot/p1/perowan_hayaku_shinasai_goshujinsama/vol3_chapter_17_lots_of_memories/20.jpg",
    "https://img-proxy.imgfo.com/?referer=https://manganelo.com&url=https://s3.mkklcdnv6temp.com/mangakakalot/p1/perowan_hayaku_shinasai_goshujinsama/vol3_chapter_17_lots_of_memories/21.jpg",
    "https://img-proxy.imgfo.com/?referer=https://manganelo.com&url=https://s3.mkklcdnv6temp.com/mangakakalot/p1/perowan_hayaku_shinasai_goshujinsama/vol3_chapter_17_lots_of_memories/22.jpg",
    "https://img-proxy.imgfo.com/?referer=https://manganelo.com&url=https://s3.mkklcdnv6temp.com/mangakakalot/p1/perowan_hayaku_shinasai_goshujinsama/vol3_chapter_17_lots_of_memories/23.jpg",
    "https://img-proxy.imgfo.com/?referer=https://manganelo.com&url=https://s3.mkklcdnv6temp.com/mangakakalot/p1/perowan_hayaku_shinasai_goshujinsama/vol3_chapter_17_lots_of_memories/24.jpg",
    "https://img-proxy.imgfo.com/?referer=https://manganelo.com&url=https://s3.mkklcdnv6temp.com/mangakakalot/p1/perowan_hayaku_shinasai_goshujinsama/vol3_chapter_17_lots_of_memories/25.jpg",
    "https://img-proxy.imgfo.com/?referer=https://manganelo.com&url=https://s3.mkklcdnv6temp.com/mangakakalot/p1/perowan_hayaku_shinasai_goshujinsama/vol3_chapter_17_lots_of_memories/26.jpg",
    "https://img-proxy.imgfo.com/?referer=https://manganelo.com&url=https://s3.mkklcdnv6temp.com/mangakakalot/p1/perowan_hayaku_shinasai_goshujinsama/vol3_chapter_17_lots_of_memories/27.jpg"
  ]
}