{
  "cover": "https://avt.mkklcdnv6.com/8/j/5-1583472193.jpg",
  "title": "Perowan! - Hayaku Shinasai! Goshujinsama",
  "original": "ぺろわん! -早くシなさい! ご主人さま♪- ; 舔呀 汪!-还不快来满足我!主人♪- ; 舔足游戏 ; Perowan! ; Perowan! - Hayakushinasai! Goshujin-sama",
  "genre": "Comedy, Ecchi, Fantasy, Harem, Romance, School life, Shounen, Supernatural, Manga",
  "author": "Yui Daisuke",
  "status": "Completed",
  "backlink": "https://manganu.com/collections/yui-daisuke/perowan-hayaku-shinasai-goshujinsama/",
  "description": "Inukai Shirou a male high-school student leading his life when suddenly his dog Mashiro turns into a human girl and now he must satisfy her wants or face the consequences.",
  "language": "English",
  "images": [
    "https://img-proxy.imgfo.com/?referer=https://manganelo.com&url=https://s3.mkklcdnv6temp.com/mangakakalot/p1/perowan_hayaku_shinasai_goshujinsama/vol2_chapter_12_together_with_the_witch/1.jpg",
    "https://img-proxy.imgfo.com/?referer=https://manganelo.com&url=https://s3.mkklcdnv6temp.com/mangakakalot/p1/perowan_hayaku_shinasai_goshujinsama/vol2_chapter_12_together_with_the_witch/2.jpg",
    "https://img-proxy.imgfo.com/?referer=https://manganelo.com&url=https://s3.mkklcdnv6temp.com/mangakakalot/p1/perowan_hayaku_shinasai_goshujinsama/vol2_chapter_12_together_with_the_witch/3.jpg",
    "https://img-proxy.imgfo.com/?referer=https://manganelo.com&url=https://s3.mkklcdnv6temp.com/mangakakalot/p1/perowan_hayaku_shinasai_goshujinsama/vol2_chapter_12_together_with_the_witch/4.jpg",
    "https://img-proxy.imgfo.com/?referer=https://manganelo.com&url=https://s3.mkklcdnv6temp.com/mangakakalot/p1/perowan_hayaku_shinasai_goshujinsama/vol2_chapter_12_together_with_the_witch/5.jpg",
    "https://img-proxy.imgfo.com/?referer=https://manganelo.com&url=https://s3.mkklcdnv6temp.com/mangakakalot/p1/perowan_hayaku_shinasai_goshujinsama/vol2_chapter_12_together_with_the_witch/6.jpg",
    "https://img-proxy.imgfo.com/?referer=https://manganelo.com&url=https://s3.mkklcdnv6temp.com/mangakakalot/p1/perowan_hayaku_shinasai_goshujinsama/vol2_chapter_12_together_with_the_witch/7.jpg",
    "https://img-proxy.imgfo.com/?referer=https://manganelo.com&url=https://s3.mkklcdnv6temp.com/mangakakalot/p1/perowan_hayaku_shinasai_goshujinsama/vol2_chapter_12_together_with_the_witch/8.jpg",
    "https://img-proxy.imgfo.com/?referer=https://manganelo.com&url=https://s3.mkklcdnv6temp.com/mangakakalot/p1/perowan_hayaku_shinasai_goshujinsama/vol2_chapter_12_together_with_the_witch/9.jpg",
    "https://img-proxy.imgfo.com/?referer=https://manganelo.com&url=https://s3.mkklcdnv6temp.com/mangakakalot/p1/perowan_hayaku_shinasai_goshujinsama/vol2_chapter_12_together_with_the_witch/10.jpg",
    "https://img-proxy.imgfo.com/?referer=https://manganelo.com&url=https://s3.mkklcdnv6temp.com/mangakakalot/p1/perowan_hayaku_shinasai_goshujinsama/vol2_chapter_12_together_with_the_witch/11.jpg",
    "https://img-proxy.imgfo.com/?referer=https://manganelo.com&url=https://s3.mkklcdnv6temp.com/mangakakalot/p1/perowan_hayaku_shinasai_goshujinsama/vol2_chapter_12_together_with_the_witch/12.jpg",
    "https://img-proxy.imgfo.com/?referer=https://manganelo.com&url=https://s3.mkklcdnv6temp.com/mangakakalot/p1/perowan_hayaku_shinasai_goshujinsama/vol2_chapter_12_together_with_the_witch/13.jpg",
    "https://img-proxy.imgfo.com/?referer=https://manganelo.com&url=https://s3.mkklcdnv6temp.com/mangakakalot/p1/perowan_hayaku_shinasai_goshujinsama/vol2_chapter_12_together_with_the_witch/14.jpg",
    "https://img-proxy.imgfo.com/?referer=https://manganelo.com&url=https://s3.mkklcdnv6temp.com/mangakakalot/p1/perowan_hayaku_shinasai_goshujinsama/vol2_chapter_12_together_with_the_witch/15.jpg",
    "https://img-proxy.imgfo.com/?referer=https://manganelo.com&url=https://s3.mkklcdnv6temp.com/mangakakalot/p1/perowan_hayaku_shinasai_goshujinsama/vol2_chapter_12_together_with_the_witch/16.jpg",
    "https://img-proxy.imgfo.com/?referer=https://manganelo.com&url=https://s3.mkklcdnv6temp.com/mangakakalot/p1/perowan_hayaku_shinasai_goshujinsama/vol2_chapter_12_together_with_the_witch/17.jpg",
    "https://img-proxy.imgfo.com/?referer=https://manganelo.com&url=https://s3.mkklcdnv6temp.com/mangakakalot/p1/perowan_hayaku_shinasai_goshujinsama/vol2_chapter_12_together_with_the_witch/18.jpg",
    "https://img-proxy.imgfo.com/?referer=https://manganelo.com&url=https://s3.mkklcdnv6temp.com/mangakakalot/p1/perowan_hayaku_shinasai_goshujinsama/vol2_chapter_12_together_with_the_witch/19.jpg",
    "https://img-proxy.imgfo.com/?referer=https://manganelo.com&url=https://s3.mkklcdnv6temp.com/mangakakalot/p1/perowan_hayaku_shinasai_goshujinsama/vol2_chapter_12_together_with_the_witch/20.jpg",
    "https://img-proxy.imgfo.com/?referer=https://manganelo.com&url=https://s3.mkklcdnv6temp.com/mangakakalot/p1/perowan_hayaku_shinasai_goshujinsama/vol2_chapter_12_together_with_the_witch/21.jpg",
    "https://img-proxy.imgfo.com/?referer=https://manganelo.com&url=https://s3.mkklcdnv6temp.com/mangakakalot/p1/perowan_hayaku_shinasai_goshujinsama/vol2_chapter_12_together_with_the_witch/22.jpg",
    "https://img-proxy.imgfo.com/?referer=https://manganelo.com&url=https://s3.mkklcdnv6temp.com/mangakakalot/p1/perowan_hayaku_shinasai_goshujinsama/vol2_chapter_12_together_with_the_witch/23.jpg",
    "https://img-proxy.imgfo.com/?referer=https://manganelo.com&url=https://s3.mkklcdnv6temp.com/mangakakalot/p1/perowan_hayaku_shinasai_goshujinsama/vol2_chapter_12_together_with_the_witch/24.jpg",
    "https://img-proxy.imgfo.com/?referer=https://manganelo.com&url=https://s3.mkklcdnv6temp.com/mangakakalot/p1/perowan_hayaku_shinasai_goshujinsama/vol2_chapter_12_together_with_the_witch/25.jpg",
    "https://img-proxy.imgfo.com/?referer=https://manganelo.com&url=https://s3.mkklcdnv6temp.com/mangakakalot/p1/perowan_hayaku_shinasai_goshujinsama/vol2_chapter_12_together_with_the_witch/26.jpg",
    "https://img-proxy.imgfo.com/?referer=https://manganelo.com&url=https://s3.mkklcdnv6temp.com/mangakakalot/p1/perowan_hayaku_shinasai_goshujinsama/vol2_chapter_12_together_with_the_witch/27.jpg",
    "https://img-proxy.imgfo.com/?referer=https://manganelo.com&url=https://s3.mkklcdnv6temp.com/mangakakalot/p1/perowan_hayaku_shinasai_goshujinsama/vol2_chapter_12_together_with_the_witch/28.jpg",
    "https://img-proxy.imgfo.com/?referer=https://manganelo.com&url=https://s3.mkklcdnv6temp.com/mangakakalot/p1/perowan_hayaku_shinasai_goshujinsama/vol2_chapter_12_together_with_the_witch/29.jpg",
    "https://img-proxy.imgfo.com/?referer=https://manganelo.com&url=https://s3.mkklcdnv6temp.com/mangakakalot/p1/perowan_hayaku_shinasai_goshujinsama/vol2_chapter_12_together_with_the_witch/30.jpg"
  ]
}