{
  "cover": "https://avt.mkklcdnv6.com/11/h/11-1583484417.jpg",
  "title": "Futari No Tame Ni Sekai Wa Aru No",
  "original": "ふたりのために世界はあるの ; 水城せとな傑作集2 ふたりのために世界はあるの ; The Queen's Favorite ; The World Exists Because of the Two of Us ; The World Exists for Just Us Two ; Valentine Cinema",
  "genre": "Drama, Romance, Shoujo, Smut, Manga",
  "author": "Mizushiro Setona",
  "status": "Completed",
  "backlink": "https://manganu.com/collections/mizushiro-setona/futari-no-tame-ni-sekai-wa-aru-no/",
  "description": "From ShoujoMagic:\n1) Futari no Tame ni Sekai wa Aru no (2 chapters and an extra) Asukagawa Chiharu is student body president of Ushitora High. Kisaragi Kyou is student body president of Ushitora's rival school, Bishin Academy. That naturally makes Chiharu and Kyou bitter rivals as well, but the relationship they hesitate to flaunt in front of the public eye is one of... lovers! They even have sex at hotels and are an average (!?) couple!!\nSee \"Soko wa Nemuri no Mori,\" story 02 : \"The Star Knows Everything\", for a side story of this manga.\n2) Valentine Cinema\n3) The Queen's Favorite",
  "language": "English",
  "images": [
    "https://img-proxy.imgfo.com/?referer=https://manganelo.com&url=https://s7.mkklcdnv6temp.com/mangakakalot/f2/futari_no_tame_ni_sekai_wa_aru_no/vol1_chapter_11_the_world_exists_for_just_us_two/1.jpg",
    "https://img-proxy.imgfo.com/?referer=https://manganelo.com&url=https://s7.mkklcdnv6temp.com/mangakakalot/f2/futari_no_tame_ni_sekai_wa_aru_no/vol1_chapter_11_the_world_exists_for_just_us_two/2.jpg",
    "https://img-proxy.imgfo.com/?referer=https://manganelo.com&url=https://s7.mkklcdnv6temp.com/mangakakalot/f2/futari_no_tame_ni_sekai_wa_aru_no/vol1_chapter_11_the_world_exists_for_just_us_two/3.jpg",
    "https://img-proxy.imgfo.com/?referer=https://manganelo.com&url=https://s7.mkklcdnv6temp.com/mangakakalot/f2/futari_no_tame_ni_sekai_wa_aru_no/vol1_chapter_11_the_world_exists_for_just_us_two/4.jpg",
    "https://img-proxy.imgfo.com/?referer=https://manganelo.com&url=https://s7.mkklcdnv6temp.com/mangakakalot/f2/futari_no_tame_ni_sekai_wa_aru_no/vol1_chapter_11_the_world_exists_for_just_us_two/5.jpg",
    "https://img-proxy.imgfo.com/?referer=https://manganelo.com&url=https://s7.mkklcdnv6temp.com/mangakakalot/f2/futari_no_tame_ni_sekai_wa_aru_no/vol1_chapter_11_the_world_exists_for_just_us_two/6.jpg",
    "https://img-proxy.imgfo.com/?referer=https://manganelo.com&url=https://s7.mkklcdnv6temp.com/mangakakalot/f2/futari_no_tame_ni_sekai_wa_aru_no/vol1_chapter_11_the_world_exists_for_just_us_two/7.jpg",
    "https://img-proxy.imgfo.com/?referer=https://manganelo.com&url=https://s7.mkklcdnv6temp.com/mangakakalot/f2/futari_no_tame_ni_sekai_wa_aru_no/vol1_chapter_11_the_world_exists_for_just_us_two/8.jpg",
    "https://img-proxy.imgfo.com/?referer=https://manganelo.com&url=https://s7.mkklcdnv6temp.com/mangakakalot/f2/futari_no_tame_ni_sekai_wa_aru_no/vol1_chapter_11_the_world_exists_for_just_us_two/9.jpg",
    "https://img-proxy.imgfo.com/?referer=https://manganelo.com&url=https://s7.mkklcdnv6temp.com/mangakakalot/f2/futari_no_tame_ni_sekai_wa_aru_no/vol1_chapter_11_the_world_exists_for_just_us_two/10.jpg",
    "https://img-proxy.imgfo.com/?referer=https://manganelo.com&url=https://s7.mkklcdnv6temp.com/mangakakalot/f2/futari_no_tame_ni_sekai_wa_aru_no/vol1_chapter_11_the_world_exists_for_just_us_two/11.jpg",
    "https://img-proxy.imgfo.com/?referer=https://manganelo.com&url=https://s7.mkklcdnv6temp.com/mangakakalot/f2/futari_no_tame_ni_sekai_wa_aru_no/vol1_chapter_11_the_world_exists_for_just_us_two/12.jpg",
    "https://img-proxy.imgfo.com/?referer=https://manganelo.com&url=https://s7.mkklcdnv6temp.com/mangakakalot/f2/futari_no_tame_ni_sekai_wa_aru_no/vol1_chapter_11_the_world_exists_for_just_us_two/13.jpg",
    "https://img-proxy.imgfo.com/?referer=https://manganelo.com&url=https://s7.mkklcdnv6temp.com/mangakakalot/f2/futari_no_tame_ni_sekai_wa_aru_no/vol1_chapter_11_the_world_exists_for_just_us_two/14.jpg",
    "https://img-proxy.imgfo.com/?referer=https://manganelo.com&url=https://s7.mkklcdnv6temp.com/mangakakalot/f2/futari_no_tame_ni_sekai_wa_aru_no/vol1_chapter_11_the_world_exists_for_just_us_two/15.jpg",
    "https://img-proxy.imgfo.com/?referer=https://manganelo.com&url=https://s7.mkklcdnv6temp.com/mangakakalot/f2/futari_no_tame_ni_sekai_wa_aru_no/vol1_chapter_11_the_world_exists_for_just_us_two/16.jpg",
    "https://img-proxy.imgfo.com/?referer=https://manganelo.com&url=https://s7.mkklcdnv6temp.com/mangakakalot/f2/futari_no_tame_ni_sekai_wa_aru_no/vol1_chapter_11_the_world_exists_for_just_us_two/17.jpg",
    "https://img-proxy.imgfo.com/?referer=https://manganelo.com&url=https://s7.mkklcdnv6temp.com/mangakakalot/f2/futari_no_tame_ni_sekai_wa_aru_no/vol1_chapter_11_the_world_exists_for_just_us_two/18.jpg",
    "https://img-proxy.imgfo.com/?referer=https://manganelo.com&url=https://s7.mkklcdnv6temp.com/mangakakalot/f2/futari_no_tame_ni_sekai_wa_aru_no/vol1_chapter_11_the_world_exists_for_just_us_two/19.jpg",
    "https://img-proxy.imgfo.com/?referer=https://manganelo.com&url=https://s7.mkklcdnv6temp.com/mangakakalot/f2/futari_no_tame_ni_sekai_wa_aru_no/vol1_chapter_11_the_world_exists_for_just_us_two/20.jpg",
    "https://img-proxy.imgfo.com/?referer=https://manganelo.com&url=https://s7.mkklcdnv6temp.com/mangakakalot/f2/futari_no_tame_ni_sekai_wa_aru_no/vol1_chapter_11_the_world_exists_for_just_us_two/21.jpg",
    "https://img-proxy.imgfo.com/?referer=https://manganelo.com&url=https://s7.mkklcdnv6temp.com/mangakakalot/f2/futari_no_tame_ni_sekai_wa_aru_no/vol1_chapter_11_the_world_exists_for_just_us_two/22.jpg",
    "https://img-proxy.imgfo.com/?referer=https://manganelo.com&url=https://s7.mkklcdnv6temp.com/mangakakalot/f2/futari_no_tame_ni_sekai_wa_aru_no/vol1_chapter_11_the_world_exists_for_just_us_two/23.jpg",
    "https://img-proxy.imgfo.com/?referer=https://manganelo.com&url=https://s7.mkklcdnv6temp.com/mangakakalot/f2/futari_no_tame_ni_sekai_wa_aru_no/vol1_chapter_11_the_world_exists_for_just_us_two/24.jpg",
    "https://img-proxy.imgfo.com/?referer=https://manganelo.com&url=https://s7.mkklcdnv6temp.com/mangakakalot/f2/futari_no_tame_ni_sekai_wa_aru_no/vol1_chapter_11_the_world_exists_for_just_us_two/25.jpg",
    "https://img-proxy.imgfo.com/?referer=https://manganelo.com&url=https://s7.mkklcdnv6temp.com/mangakakalot/f2/futari_no_tame_ni_sekai_wa_aru_no/vol1_chapter_11_the_world_exists_for_just_us_two/26.jpg",
    "https://img-proxy.imgfo.com/?referer=https://manganelo.com&url=https://s7.mkklcdnv6temp.com/mangakakalot/f2/futari_no_tame_ni_sekai_wa_aru_no/vol1_chapter_11_the_world_exists_for_just_us_two/27.jpg",
    "https://img-proxy.imgfo.com/?referer=https://manganelo.com&url=https://s7.mkklcdnv6temp.com/mangakakalot/f2/futari_no_tame_ni_sekai_wa_aru_no/vol1_chapter_11_the_world_exists_for_just_us_two/28.jpg",
    "https://img-proxy.imgfo.com/?referer=https://manganelo.com&url=https://s7.mkklcdnv6temp.com/mangakakalot/f2/futari_no_tame_ni_sekai_wa_aru_no/vol1_chapter_11_the_world_exists_for_just_us_two/29.jpg",
    "https://img-proxy.imgfo.com/?referer=https://manganelo.com&url=https://s7.mkklcdnv6temp.com/mangakakalot/f2/futari_no_tame_ni_sekai_wa_aru_no/vol1_chapter_11_the_world_exists_for_just_us_two/30.jpg",
    "https://img-proxy.imgfo.com/?referer=https://manganelo.com&url=https://s7.mkklcdnv6temp.com/mangakakalot/f2/futari_no_tame_ni_sekai_wa_aru_no/vol1_chapter_11_the_world_exists_for_just_us_two/31.jpg",
    "https://img-proxy.imgfo.com/?referer=https://manganelo.com&url=https://s7.mkklcdnv6temp.com/mangakakalot/f2/futari_no_tame_ni_sekai_wa_aru_no/vol1_chapter_11_the_world_exists_for_just_us_two/32.jpg",
    "https://img-proxy.imgfo.com/?referer=https://manganelo.com&url=https://s7.mkklcdnv6temp.com/mangakakalot/f2/futari_no_tame_ni_sekai_wa_aru_no/vol1_chapter_11_the_world_exists_for_just_us_two/33.jpg",
    "https://img-proxy.imgfo.com/?referer=https://manganelo.com&url=https://s7.mkklcdnv6temp.com/mangakakalot/f2/futari_no_tame_ni_sekai_wa_aru_no/vol1_chapter_11_the_world_exists_for_just_us_two/34.jpg",
    "https://img-proxy.imgfo.com/?referer=https://manganelo.com&url=https://s7.mkklcdnv6temp.com/mangakakalot/f2/futari_no_tame_ni_sekai_wa_aru_no/vol1_chapter_11_the_world_exists_for_just_us_two/35.jpg",
    "https://img-proxy.imgfo.com/?referer=https://manganelo.com&url=https://s7.mkklcdnv6temp.com/mangakakalot/f2/futari_no_tame_ni_sekai_wa_aru_no/vol1_chapter_11_the_world_exists_for_just_us_two/36.jpg",
    "https://img-proxy.imgfo.com/?referer=https://manganelo.com&url=https://s7.mkklcdnv6temp.com/mangakakalot/f2/futari_no_tame_ni_sekai_wa_aru_no/vol1_chapter_11_the_world_exists_for_just_us_two/37.jpg",
    "https://img-proxy.imgfo.com/?referer=https://manganelo.com&url=https://s7.mkklcdnv6temp.com/mangakakalot/f2/futari_no_tame_ni_sekai_wa_aru_no/vol1_chapter_11_the_world_exists_for_just_us_two/38.jpg",
    "https://img-proxy.imgfo.com/?referer=https://manganelo.com&url=https://s7.mkklcdnv6temp.com/mangakakalot/f2/futari_no_tame_ni_sekai_wa_aru_no/vol1_chapter_11_the_world_exists_for_just_us_two/39.jpg",
    "https://img-proxy.imgfo.com/?referer=https://manganelo.com&url=https://s7.mkklcdnv6temp.com/mangakakalot/f2/futari_no_tame_ni_sekai_wa_aru_no/vol1_chapter_11_the_world_exists_for_just_us_two/40.jpg",
    "https://img-proxy.imgfo.com/?referer=https://manganelo.com&url=https://s7.mkklcdnv6temp.com/mangakakalot/f2/futari_no_tame_ni_sekai_wa_aru_no/vol1_chapter_11_the_world_exists_for_just_us_two/41.jpg",
    "https://img-proxy.imgfo.com/?referer=https://manganelo.com&url=https://s7.mkklcdnv6temp.com/mangakakalot/f2/futari_no_tame_ni_sekai_wa_aru_no/vol1_chapter_11_the_world_exists_for_just_us_two/42.jpg",
    "https://img-proxy.imgfo.com/?referer=https://manganelo.com&url=https://s7.mkklcdnv6temp.com/mangakakalot/f2/futari_no_tame_ni_sekai_wa_aru_no/vol1_chapter_11_the_world_exists_for_just_us_two/43.jpg",
    "https://img-proxy.imgfo.com/?referer=https://manganelo.com&url=https://s7.mkklcdnv6temp.com/mangakakalot/f2/futari_no_tame_ni_sekai_wa_aru_no/vol1_chapter_11_the_world_exists_for_just_us_two/44.jpg",
    "https://img-proxy.imgfo.com/?referer=https://manganelo.com&url=https://s7.mkklcdnv6temp.com/mangakakalot/f2/futari_no_tame_ni_sekai_wa_aru_no/vol1_chapter_11_the_world_exists_for_just_us_two/45.jpg",
    "https://img-proxy.imgfo.com/?referer=https://manganelo.com&url=https://s7.mkklcdnv6temp.com/mangakakalot/f2/futari_no_tame_ni_sekai_wa_aru_no/vol1_chapter_11_the_world_exists_for_just_us_two/46.jpg",
    "https://img-proxy.imgfo.com/?referer=https://manganelo.com&url=https://s7.mkklcdnv6temp.com/mangakakalot/f2/futari_no_tame_ni_sekai_wa_aru_no/vol1_chapter_11_the_world_exists_for_just_us_two/47.jpg",
    "https://img-proxy.imgfo.com/?referer=https://manganelo.com&url=https://s7.mkklcdnv6temp.com/mangakakalot/f2/futari_no_tame_ni_sekai_wa_aru_no/vol1_chapter_11_the_world_exists_for_just_us_two/48.jpg"
  ]
}