{
  "cover": "https://avt.mkklcdnv6.com/13/h/17-1583495744.jpg",
  "title": "Ghost In The Shell: Stand Alone Complex",
  "original": "Koukaku Kidoutai - Stand Alone Complex ; Koukaku Kidoutai S.A.C. ; Ghost in the Shell - Stand Alone Complex ; Koukaku Kidoutai: Stand Alone Complex ; 攻殻機動隊STAND ALONE COMPLEX ; 攻殻機動隊 STAND ALONE COMPLEX",
  "genre": "Action, Drama, Mature, Mecha, Mystery, Psychological, Sci fi, Seinen, Manga",
  "author": "Kinutani Yuu",
  "status": "Completed",
  "backlink": "https://manganu.com/collections/kinutani-yuu/ghost-in-the-shell-stand-alone-complex/",
  "description": "Stand Alone Complex takes place in the year 2030, in the fictional Japanese city of New Port. The story follows the members of Public Security Section 9, a special-operations task-force made up of former military officers and police detectives. The manga presents individual cases that Section 9 investigates, along with an ongoing, more serious investigation into the serial killer and hacker known only as &ldquo;The Laughing Man.&rdquo;",
  "language": "English",
  "images": [
    "https://img-proxy.imgfo.com/?referer=https://manganelo.com&url=https://s3.mkklcdnv6temp.com/mangakakalot/q1/qm917558/vol1_translation_notes/1.jpg",
    "https://img-proxy.imgfo.com/?referer=https://manganelo.com&url=https://s3.mkklcdnv6temp.com/mangakakalot/q1/qm917558/vol1_translation_notes/2.jpg",
    "https://img-proxy.imgfo.com/?referer=https://manganelo.com&url=https://s3.mkklcdnv6temp.com/mangakakalot/q1/qm917558/vol1_translation_notes/3.jpg",
    "https://img-proxy.imgfo.com/?referer=https://manganelo.com&url=https://s3.mkklcdnv6temp.com/mangakakalot/q1/qm917558/vol1_translation_notes/4.jpg"
  ]
}