{
  "cover": "https://avt.mkklcdnv6.com/36/m/5-1583473328.jpg",
  "title": "Maison Ikkoku",
  "original": "めぞん一刻 ; 相聚一刻 ; Mezon Ikkoku",
  "genre": "Action, Adult, Comedy, Cooking, Drama, Romance, Seinen, Slice of life, Manga",
  "author": "Takahashi Rumiko",
  "status": "Completed",
  "backlink": "https://manganu.com/collections/takahashi-rumiko/maison-ikkoku/",
  "description": "[From Viz]: Travel into Japan&#39;s nuttiest apartment house and meet its volatile inhabitants: Kyoko, the beautiful and mysterious new apartment manager; Yusaku, the exam-addled college student; Mrs. Ichinose, the drunken gossip; Kentaro, her bratty son; Akemi, the boozy bar hostess; and the mooching and peeping Mr. Yotsuya.",
  "language": "English",
  "images": [
    "https://img-proxy.imgfo.com/?referer=https://manganelo.com&url=https://s3.mkklcdnv6temp.com/mangakakalot/m1/maison_ikkoku/volb_chapter_0_lost_chapter/1.jpg",
    "https://img-proxy.imgfo.com/?referer=https://manganelo.com&url=https://s3.mkklcdnv6temp.com/mangakakalot/m1/maison_ikkoku/volb_chapter_0_lost_chapter/2.jpg",
    "https://img-proxy.imgfo.com/?referer=https://manganelo.com&url=https://s3.mkklcdnv6temp.com/mangakakalot/m1/maison_ikkoku/volb_chapter_0_lost_chapter/3.jpg",
    "https://img-proxy.imgfo.com/?referer=https://manganelo.com&url=https://s3.mkklcdnv6temp.com/mangakakalot/m1/maison_ikkoku/volb_chapter_0_lost_chapter/4.jpg",
    "https://img-proxy.imgfo.com/?referer=https://manganelo.com&url=https://s3.mkklcdnv6temp.com/mangakakalot/m1/maison_ikkoku/volb_chapter_0_lost_chapter/5.jpg",
    "https://img-proxy.imgfo.com/?referer=https://manganelo.com&url=https://s3.mkklcdnv6temp.com/mangakakalot/m1/maison_ikkoku/volb_chapter_0_lost_chapter/6.jpg",
    "https://img-proxy.imgfo.com/?referer=https://manganelo.com&url=https://s3.mkklcdnv6temp.com/mangakakalot/m1/maison_ikkoku/volb_chapter_0_lost_chapter/7.jpg",
    "https://img-proxy.imgfo.com/?referer=https://manganelo.com&url=https://s3.mkklcdnv6temp.com/mangakakalot/m1/maison_ikkoku/volb_chapter_0_lost_chapter/8.jpg",
    "https://img-proxy.imgfo.com/?referer=https://manganelo.com&url=https://s3.mkklcdnv6temp.com/mangakakalot/m1/maison_ikkoku/volb_chapter_0_lost_chapter/9.jpg",
    "https://img-proxy.imgfo.com/?referer=https://manganelo.com&url=https://s3.mkklcdnv6temp.com/mangakakalot/m1/maison_ikkoku/volb_chapter_0_lost_chapter/10.jpg",
    "https://img-proxy.imgfo.com/?referer=https://manganelo.com&url=https://s3.mkklcdnv6temp.com/mangakakalot/m1/maison_ikkoku/volb_chapter_0_lost_chapter/11.jpg",
    "https://img-proxy.imgfo.com/?referer=https://manganelo.com&url=https://s3.mkklcdnv6temp.com/mangakakalot/m1/maison_ikkoku/volb_chapter_0_lost_chapter/12.jpg",
    "https://img-proxy.imgfo.com/?referer=https://manganelo.com&url=https://s3.mkklcdnv6temp.com/mangakakalot/m1/maison_ikkoku/volb_chapter_0_lost_chapter/13.jpg",
    "https://img-proxy.imgfo.com/?referer=https://manganelo.com&url=https://s3.mkklcdnv6temp.com/mangakakalot/m1/maison_ikkoku/volb_chapter_0_lost_chapter/14.jpg",
    "https://img-proxy.imgfo.com/?referer=https://manganelo.com&url=https://s3.mkklcdnv6temp.com/mangakakalot/m1/maison_ikkoku/volb_chapter_0_lost_chapter/15.jpg",
    "https://img-proxy.imgfo.com/?referer=https://manganelo.com&url=https://s3.mkklcdnv6temp.com/mangakakalot/m1/maison_ikkoku/volb_chapter_0_lost_chapter/16.jpg",
    "https://img-proxy.imgfo.com/?referer=https://manganelo.com&url=https://s3.mkklcdnv6temp.com/mangakakalot/m1/maison_ikkoku/volb_chapter_0_lost_chapter/17.jpg",
    "https://img-proxy.imgfo.com/?referer=https://manganelo.com&url=https://s3.mkklcdnv6temp.com/mangakakalot/m1/maison_ikkoku/volb_chapter_0_lost_chapter/18.jpg",
    "https://img-proxy.imgfo.com/?referer=https://manganelo.com&url=https://s3.mkklcdnv6temp.com/mangakakalot/m1/maison_ikkoku/volb_chapter_0_lost_chapter/19.jpg",
    "https://img-proxy.imgfo.com/?referer=https://manganelo.com&url=https://s3.mkklcdnv6temp.com/mangakakalot/m1/maison_ikkoku/volb_chapter_0_lost_chapter/20.jpg",
    "https://img-proxy.imgfo.com/?referer=https://manganelo.com&url=https://s3.mkklcdnv6temp.com/mangakakalot/m1/maison_ikkoku/volb_chapter_0_lost_chapter/21.jpg",
    "https://img-proxy.imgfo.com/?referer=https://manganelo.com&url=https://s3.mkklcdnv6temp.com/mangakakalot/m1/maison_ikkoku/volb_chapter_0_lost_chapter/22.jpg",
    "https://img-proxy.imgfo.com/?referer=https://manganelo.com&url=https://s3.mkklcdnv6temp.com/mangakakalot/m1/maison_ikkoku/volb_chapter_0_lost_chapter/23.jpg",
    "https://img-proxy.imgfo.com/?referer=https://manganelo.com&url=https://s3.mkklcdnv6temp.com/mangakakalot/m1/maison_ikkoku/volb_chapter_0_lost_chapter/24.jpg"
  ]
}