{
  "cover": "https://avt.mkklcdnv6.com/18/j/11-1583484679.jpg",
  "title": "Yubisaki Milk Tea",
  "original": "ゆびさきミルクティー ; 少年美眉 ; 指尖奶茶 ; 손끝의 밀크티 ; Fingertip's Milktea ; Yubisaki Milktea",
  "genre": "Adult, Drama, Ecchi, Gender bender, Romance, Seinen, Slice of life, Manga",
  "author": "Miyano Tomochika",
  "status": "Completed",
  "backlink": "https://manganu.com/collections/miyano-tomochika/yubisaki-milk-tea/",
  "description": "From Tokyopop:\nThrough a series of coincidences, Yoshinori wound up having to fill in for his beautiful older sister as a model for a bridal gown. Now, he has discovered that he has a liking for cross-dressing, and that by doing so, he is learning a great deal about what it means to be a woman--and a man.\nContains a short story entitled \"Reason\" in volume 2",
  "language": "English",
  "images": [
    "https://img-proxy.imgfo.com/?referer=https://manganelo.com&url=https://s3.mkklcdnv6temp.com/mangakakalot/y2/yubisaki_milk_tea/vol2_chapter_145_side_story/1.jpg",
    "https://img-proxy.imgfo.com/?referer=https://manganelo.com&url=https://s3.mkklcdnv6temp.com/mangakakalot/y2/yubisaki_milk_tea/vol2_chapter_145_side_story/2.jpg",
    "https://img-proxy.imgfo.com/?referer=https://manganelo.com&url=https://s3.mkklcdnv6temp.com/mangakakalot/y2/yubisaki_milk_tea/vol2_chapter_145_side_story/3.jpg",
    "https://img-proxy.imgfo.com/?referer=https://manganelo.com&url=https://s3.mkklcdnv6temp.com/mangakakalot/y2/yubisaki_milk_tea/vol2_chapter_145_side_story/4.jpg",
    "https://img-proxy.imgfo.com/?referer=https://manganelo.com&url=https://s3.mkklcdnv6temp.com/mangakakalot/y2/yubisaki_milk_tea/vol2_chapter_145_side_story/5.jpg",
    "https://img-proxy.imgfo.com/?referer=https://manganelo.com&url=https://s3.mkklcdnv6temp.com/mangakakalot/y2/yubisaki_milk_tea/vol2_chapter_145_side_story/6.jpg",
    "https://img-proxy.imgfo.com/?referer=https://manganelo.com&url=https://s3.mkklcdnv6temp.com/mangakakalot/y2/yubisaki_milk_tea/vol2_chapter_145_side_story/7.jpg",
    "https://img-proxy.imgfo.com/?referer=https://manganelo.com&url=https://s3.mkklcdnv6temp.com/mangakakalot/y2/yubisaki_milk_tea/vol2_chapter_145_side_story/8.jpg",
    "https://img-proxy.imgfo.com/?referer=https://manganelo.com&url=https://s3.mkklcdnv6temp.com/mangakakalot/y2/yubisaki_milk_tea/vol2_chapter_145_side_story/9.jpg",
    "https://img-proxy.imgfo.com/?referer=https://manganelo.com&url=https://s3.mkklcdnv6temp.com/mangakakalot/y2/yubisaki_milk_tea/vol2_chapter_145_side_story/10.jpg",
    "https://img-proxy.imgfo.com/?referer=https://manganelo.com&url=https://s3.mkklcdnv6temp.com/mangakakalot/y2/yubisaki_milk_tea/vol2_chapter_145_side_story/11.jpg",
    "https://img-proxy.imgfo.com/?referer=https://manganelo.com&url=https://s3.mkklcdnv6temp.com/mangakakalot/y2/yubisaki_milk_tea/vol2_chapter_145_side_story/12.jpg",
    "https://img-proxy.imgfo.com/?referer=https://manganelo.com&url=https://s3.mkklcdnv6temp.com/mangakakalot/y2/yubisaki_milk_tea/vol2_chapter_145_side_story/13.jpg",
    "https://img-proxy.imgfo.com/?referer=https://manganelo.com&url=https://s3.mkklcdnv6temp.com/mangakakalot/y2/yubisaki_milk_tea/vol2_chapter_145_side_story/14.jpg",
    "https://img-proxy.imgfo.com/?referer=https://manganelo.com&url=https://s3.mkklcdnv6temp.com/mangakakalot/y2/yubisaki_milk_tea/vol2_chapter_145_side_story/15.jpg",
    "https://img-proxy.imgfo.com/?referer=https://manganelo.com&url=https://s3.mkklcdnv6temp.com/mangakakalot/y2/yubisaki_milk_tea/vol2_chapter_145_side_story/16.jpg",
    "https://img-proxy.imgfo.com/?referer=https://manganelo.com&url=https://s3.mkklcdnv6temp.com/mangakakalot/y2/yubisaki_milk_tea/vol2_chapter_145_side_story/17.jpg",
    "https://img-proxy.imgfo.com/?referer=https://manganelo.com&url=https://s3.mkklcdnv6temp.com/mangakakalot/y2/yubisaki_milk_tea/vol2_chapter_145_side_story/18.jpg",
    "https://img-proxy.imgfo.com/?referer=https://manganelo.com&url=https://s3.mkklcdnv6temp.com/mangakakalot/y2/yubisaki_milk_tea/vol2_chapter_145_side_story/19.jpg",
    "https://img-proxy.imgfo.com/?referer=https://manganelo.com&url=https://s3.mkklcdnv6temp.com/mangakakalot/y2/yubisaki_milk_tea/vol2_chapter_145_side_story/20.jpg",
    "https://img-proxy.imgfo.com/?referer=https://manganelo.com&url=https://s3.mkklcdnv6temp.com/mangakakalot/y2/yubisaki_milk_tea/vol2_chapter_145_side_story/21.jpg",
    "https://img-proxy.imgfo.com/?referer=https://manganelo.com&url=https://s3.mkklcdnv6temp.com/mangakakalot/y2/yubisaki_milk_tea/vol2_chapter_145_side_story/22.jpg",
    "https://img-proxy.imgfo.com/?referer=https://manganelo.com&url=https://s3.mkklcdnv6temp.com/mangakakalot/y2/yubisaki_milk_tea/vol2_chapter_145_side_story/23.jpg",
    "https://img-proxy.imgfo.com/?referer=https://manganelo.com&url=https://s3.mkklcdnv6temp.com/mangakakalot/y2/yubisaki_milk_tea/vol2_chapter_145_side_story/24.jpg",
    "https://img-proxy.imgfo.com/?referer=https://manganelo.com&url=https://s3.mkklcdnv6temp.com/mangakakalot/y2/yubisaki_milk_tea/vol2_chapter_145_side_story/25.jpg",
    "https://img-proxy.imgfo.com/?referer=https://manganelo.com&url=https://s3.mkklcdnv6temp.com/mangakakalot/y2/yubisaki_milk_tea/vol2_chapter_145_side_story/26.jpg",
    "https://img-proxy.imgfo.com/?referer=https://manganelo.com&url=https://s3.mkklcdnv6temp.com/mangakakalot/y2/yubisaki_milk_tea/vol2_chapter_145_side_story/27.jpg"
  ]
}