{
  "cover": "https://avt.mkklcdnv6.com/8/j/11-1583484308.jpg",
  "title": "Gunslinger Girl",
  "original": "ガンスリンガー·ガール ; 神枪少女 ; GunslingerGirl",
  "genre": "Action, Drama, Mature, Psychological, Sci fi, Shounen, Tragedy, Manga",
  "author": "Aida Yu",
  "status": "Completed",
  "backlink": "https://manganu.com/collections/aida-yu/gunslinger-girl/",
  "description": "From ADV: Henrietta barely survived a brutal attack that killed her family. &#39;Rescued&#39; by the Social Welfare Agency, her injuries were repaired with robotic components and she was brainwashed. Lost with the memory of her family&#39;s deaths was almost every trace of her own humanity. Now, she is an extraordinarily lethal cyborg assassin, obediently working with her handler Giuseppe to carry out her deadly tasks. Despite her conditioning and programming, Henrietta still has the heart of a young girl. She has not completely forgotten how to love, yet the very emotion is contrary to her training and programming. Can the Gunslinger Girl survive? Can she find peace in a struggle against her very nature?",
  "language": "English",
  "images": [
    "https://img-proxy.imgfo.com/?referer=https://manganelo.com&url=https://s6.mkklcdnv6temp.com/mangakakalot/g2/gunslinger_girl/vol8_chapter_42_mind_speech/1.jpg",
    "https://img-proxy.imgfo.com/?referer=https://manganelo.com&url=https://s6.mkklcdnv6temp.com/mangakakalot/g2/gunslinger_girl/vol8_chapter_42_mind_speech/2.jpg",
    "https://img-proxy.imgfo.com/?referer=https://manganelo.com&url=https://s6.mkklcdnv6temp.com/mangakakalot/g2/gunslinger_girl/vol8_chapter_42_mind_speech/3.jpg",
    "https://img-proxy.imgfo.com/?referer=https://manganelo.com&url=https://s6.mkklcdnv6temp.com/mangakakalot/g2/gunslinger_girl/vol8_chapter_42_mind_speech/4.jpg",
    "https://img-proxy.imgfo.com/?referer=https://manganelo.com&url=https://s6.mkklcdnv6temp.com/mangakakalot/g2/gunslinger_girl/vol8_chapter_42_mind_speech/5.jpg",
    "https://img-proxy.imgfo.com/?referer=https://manganelo.com&url=https://s6.mkklcdnv6temp.com/mangakakalot/g2/gunslinger_girl/vol8_chapter_42_mind_speech/6.jpg",
    "https://img-proxy.imgfo.com/?referer=https://manganelo.com&url=https://s6.mkklcdnv6temp.com/mangakakalot/g2/gunslinger_girl/vol8_chapter_42_mind_speech/7.jpg",
    "https://img-proxy.imgfo.com/?referer=https://manganelo.com&url=https://s6.mkklcdnv6temp.com/mangakakalot/g2/gunslinger_girl/vol8_chapter_42_mind_speech/8.jpg",
    "https://img-proxy.imgfo.com/?referer=https://manganelo.com&url=https://s6.mkklcdnv6temp.com/mangakakalot/g2/gunslinger_girl/vol8_chapter_42_mind_speech/9.jpg",
    "https://img-proxy.imgfo.com/?referer=https://manganelo.com&url=https://s6.mkklcdnv6temp.com/mangakakalot/g2/gunslinger_girl/vol8_chapter_42_mind_speech/10.jpg",
    "https://img-proxy.imgfo.com/?referer=https://manganelo.com&url=https://s6.mkklcdnv6temp.com/mangakakalot/g2/gunslinger_girl/vol8_chapter_42_mind_speech/11.jpg",
    "https://img-proxy.imgfo.com/?referer=https://manganelo.com&url=https://s6.mkklcdnv6temp.com/mangakakalot/g2/gunslinger_girl/vol8_chapter_42_mind_speech/12.jpg",
    "https://img-proxy.imgfo.com/?referer=https://manganelo.com&url=https://s6.mkklcdnv6temp.com/mangakakalot/g2/gunslinger_girl/vol8_chapter_42_mind_speech/13.jpg",
    "https://img-proxy.imgfo.com/?referer=https://manganelo.com&url=https://s6.mkklcdnv6temp.com/mangakakalot/g2/gunslinger_girl/vol8_chapter_42_mind_speech/14.jpg",
    "https://img-proxy.imgfo.com/?referer=https://manganelo.com&url=https://s6.mkklcdnv6temp.com/mangakakalot/g2/gunslinger_girl/vol8_chapter_42_mind_speech/15.jpg",
    "https://img-proxy.imgfo.com/?referer=https://manganelo.com&url=https://s6.mkklcdnv6temp.com/mangakakalot/g2/gunslinger_girl/vol8_chapter_42_mind_speech/16.jpg",
    "https://img-proxy.imgfo.com/?referer=https://manganelo.com&url=https://s6.mkklcdnv6temp.com/mangakakalot/g2/gunslinger_girl/vol8_chapter_42_mind_speech/17.jpg",
    "https://img-proxy.imgfo.com/?referer=https://manganelo.com&url=https://s6.mkklcdnv6temp.com/mangakakalot/g2/gunslinger_girl/vol8_chapter_42_mind_speech/18.jpg",
    "https://img-proxy.imgfo.com/?referer=https://manganelo.com&url=https://s6.mkklcdnv6temp.com/mangakakalot/g2/gunslinger_girl/vol8_chapter_42_mind_speech/19.jpg",
    "https://img-proxy.imgfo.com/?referer=https://manganelo.com&url=https://s6.mkklcdnv6temp.com/mangakakalot/g2/gunslinger_girl/vol8_chapter_42_mind_speech/20.jpg",
    "https://img-proxy.imgfo.com/?referer=https://manganelo.com&url=https://s6.mkklcdnv6temp.com/mangakakalot/g2/gunslinger_girl/vol8_chapter_42_mind_speech/21.jpg",
    "https://img-proxy.imgfo.com/?referer=https://manganelo.com&url=https://s6.mkklcdnv6temp.com/mangakakalot/g2/gunslinger_girl/vol8_chapter_42_mind_speech/22.jpg",
    "https://img-proxy.imgfo.com/?referer=https://manganelo.com&url=https://s6.mkklcdnv6temp.com/mangakakalot/g2/gunslinger_girl/vol8_chapter_42_mind_speech/23.jpg",
    "https://img-proxy.imgfo.com/?referer=https://manganelo.com&url=https://s6.mkklcdnv6temp.com/mangakakalot/g2/gunslinger_girl/vol8_chapter_42_mind_speech/24.jpg"
  ]
}