{
  "cover": "https://avt.mkklcdnv6.com/8/j/11-1583484308.jpg",
  "title": "Gunslinger Girl",
  "original": "ガンスリンガー·ガール ; 神枪少女 ; GunslingerGirl",
  "genre": "Action, Drama, Mature, Psychological, Sci fi, Shounen, Tragedy, Manga",
  "author": "Aida Yu",
  "status": "Completed",
  "backlink": "https://manganu.com/collections/aida-yu/gunslinger-girl/",
  "description": "From ADV: Henrietta barely survived a brutal attack that killed her family. &#39;Rescued&#39; by the Social Welfare Agency, her injuries were repaired with robotic components and she was brainwashed. Lost with the memory of her family&#39;s deaths was almost every trace of her own humanity. Now, she is an extraordinarily lethal cyborg assassin, obediently working with her handler Giuseppe to carry out her deadly tasks. Despite her conditioning and programming, Henrietta still has the heart of a young girl. She has not completely forgotten how to love, yet the very emotion is contrary to her training and programming. Can the Gunslinger Girl survive? Can she find peace in a struggle against her very nature?",
  "language": "English",
  "images": [
    "https://img-proxy.imgfo.com/?referer=https://manganelo.com&url=https://s6.mkklcdnv6temp.com/mangakakalot/g2/gunslinger_girl/vol3_chapter_16_breaking_the_chains_of_retaliation/1.jpg",
    "https://img-proxy.imgfo.com/?referer=https://manganelo.com&url=https://s6.mkklcdnv6temp.com/mangakakalot/g2/gunslinger_girl/vol3_chapter_16_breaking_the_chains_of_retaliation/2.jpg",
    "https://img-proxy.imgfo.com/?referer=https://manganelo.com&url=https://s6.mkklcdnv6temp.com/mangakakalot/g2/gunslinger_girl/vol3_chapter_16_breaking_the_chains_of_retaliation/3.jpg",
    "https://img-proxy.imgfo.com/?referer=https://manganelo.com&url=https://s6.mkklcdnv6temp.com/mangakakalot/g2/gunslinger_girl/vol3_chapter_16_breaking_the_chains_of_retaliation/4.jpg",
    "https://img-proxy.imgfo.com/?referer=https://manganelo.com&url=https://s6.mkklcdnv6temp.com/mangakakalot/g2/gunslinger_girl/vol3_chapter_16_breaking_the_chains_of_retaliation/5.jpg",
    "https://img-proxy.imgfo.com/?referer=https://manganelo.com&url=https://s6.mkklcdnv6temp.com/mangakakalot/g2/gunslinger_girl/vol3_chapter_16_breaking_the_chains_of_retaliation/6.jpg",
    "https://img-proxy.imgfo.com/?referer=https://manganelo.com&url=https://s6.mkklcdnv6temp.com/mangakakalot/g2/gunslinger_girl/vol3_chapter_16_breaking_the_chains_of_retaliation/7.jpg",
    "https://img-proxy.imgfo.com/?referer=https://manganelo.com&url=https://s6.mkklcdnv6temp.com/mangakakalot/g2/gunslinger_girl/vol3_chapter_16_breaking_the_chains_of_retaliation/8.jpg",
    "https://img-proxy.imgfo.com/?referer=https://manganelo.com&url=https://s6.mkklcdnv6temp.com/mangakakalot/g2/gunslinger_girl/vol3_chapter_16_breaking_the_chains_of_retaliation/9.jpg",
    "https://img-proxy.imgfo.com/?referer=https://manganelo.com&url=https://s6.mkklcdnv6temp.com/mangakakalot/g2/gunslinger_girl/vol3_chapter_16_breaking_the_chains_of_retaliation/10.jpg",
    "https://img-proxy.imgfo.com/?referer=https://manganelo.com&url=https://s6.mkklcdnv6temp.com/mangakakalot/g2/gunslinger_girl/vol3_chapter_16_breaking_the_chains_of_retaliation/11.jpg",
    "https://img-proxy.imgfo.com/?referer=https://manganelo.com&url=https://s6.mkklcdnv6temp.com/mangakakalot/g2/gunslinger_girl/vol3_chapter_16_breaking_the_chains_of_retaliation/12.jpg",
    "https://img-proxy.imgfo.com/?referer=https://manganelo.com&url=https://s6.mkklcdnv6temp.com/mangakakalot/g2/gunslinger_girl/vol3_chapter_16_breaking_the_chains_of_retaliation/13.jpg",
    "https://img-proxy.imgfo.com/?referer=https://manganelo.com&url=https://s6.mkklcdnv6temp.com/mangakakalot/g2/gunslinger_girl/vol3_chapter_16_breaking_the_chains_of_retaliation/14.jpg",
    "https://img-proxy.imgfo.com/?referer=https://manganelo.com&url=https://s6.mkklcdnv6temp.com/mangakakalot/g2/gunslinger_girl/vol3_chapter_16_breaking_the_chains_of_retaliation/15.jpg",
    "https://img-proxy.imgfo.com/?referer=https://manganelo.com&url=https://s6.mkklcdnv6temp.com/mangakakalot/g2/gunslinger_girl/vol3_chapter_16_breaking_the_chains_of_retaliation/16.jpg",
    "https://img-proxy.imgfo.com/?referer=https://manganelo.com&url=https://s6.mkklcdnv6temp.com/mangakakalot/g2/gunslinger_girl/vol3_chapter_16_breaking_the_chains_of_retaliation/17.jpg",
    "https://img-proxy.imgfo.com/?referer=https://manganelo.com&url=https://s6.mkklcdnv6temp.com/mangakakalot/g2/gunslinger_girl/vol3_chapter_16_breaking_the_chains_of_retaliation/18.jpg",
    "https://img-proxy.imgfo.com/?referer=https://manganelo.com&url=https://s6.mkklcdnv6temp.com/mangakakalot/g2/gunslinger_girl/vol3_chapter_16_breaking_the_chains_of_retaliation/19.jpg",
    "https://img-proxy.imgfo.com/?referer=https://manganelo.com&url=https://s6.mkklcdnv6temp.com/mangakakalot/g2/gunslinger_girl/vol3_chapter_16_breaking_the_chains_of_retaliation/20.jpg",
    "https://img-proxy.imgfo.com/?referer=https://manganelo.com&url=https://s6.mkklcdnv6temp.com/mangakakalot/g2/gunslinger_girl/vol3_chapter_16_breaking_the_chains_of_retaliation/21.jpg",
    "https://img-proxy.imgfo.com/?referer=https://manganelo.com&url=https://s6.mkklcdnv6temp.com/mangakakalot/g2/gunslinger_girl/vol3_chapter_16_breaking_the_chains_of_retaliation/22.jpg",
    "https://img-proxy.imgfo.com/?referer=https://manganelo.com&url=https://s6.mkklcdnv6temp.com/mangakakalot/g2/gunslinger_girl/vol3_chapter_16_breaking_the_chains_of_retaliation/23.jpg",
    "https://img-proxy.imgfo.com/?referer=https://manganelo.com&url=https://s6.mkklcdnv6temp.com/mangakakalot/g2/gunslinger_girl/vol3_chapter_16_breaking_the_chains_of_retaliation/24.jpg",
    "https://img-proxy.imgfo.com/?referer=https://manganelo.com&url=https://s6.mkklcdnv6temp.com/mangakakalot/g2/gunslinger_girl/vol3_chapter_16_breaking_the_chains_of_retaliation/25.jpg",
    "https://img-proxy.imgfo.com/?referer=https://manganelo.com&url=https://s6.mkklcdnv6temp.com/mangakakalot/g2/gunslinger_girl/vol3_chapter_16_breaking_the_chains_of_retaliation/26.jpg",
    "https://img-proxy.imgfo.com/?referer=https://manganelo.com&url=https://s6.mkklcdnv6temp.com/mangakakalot/g2/gunslinger_girl/vol3_chapter_16_breaking_the_chains_of_retaliation/27.jpg",
    "https://img-proxy.imgfo.com/?referer=https://manganelo.com&url=https://s6.mkklcdnv6temp.com/mangakakalot/g2/gunslinger_girl/vol3_chapter_16_breaking_the_chains_of_retaliation/28.jpg",
    "https://img-proxy.imgfo.com/?referer=https://manganelo.com&url=https://s6.mkklcdnv6temp.com/mangakakalot/g2/gunslinger_girl/vol3_chapter_16_breaking_the_chains_of_retaliation/29.jpg",
    "https://img-proxy.imgfo.com/?referer=https://manganelo.com&url=https://s6.mkklcdnv6temp.com/mangakakalot/g2/gunslinger_girl/vol3_chapter_16_breaking_the_chains_of_retaliation/30.jpg",
    "https://img-proxy.imgfo.com/?referer=https://manganelo.com&url=https://s6.mkklcdnv6temp.com/mangakakalot/g2/gunslinger_girl/vol3_chapter_16_breaking_the_chains_of_retaliation/31.jpg",
    "https://img-proxy.imgfo.com/?referer=https://manganelo.com&url=https://s6.mkklcdnv6temp.com/mangakakalot/g2/gunslinger_girl/vol3_chapter_16_breaking_the_chains_of_retaliation/32.jpg",
    "https://img-proxy.imgfo.com/?referer=https://manganelo.com&url=https://s6.mkklcdnv6temp.com/mangakakalot/g2/gunslinger_girl/vol3_chapter_16_breaking_the_chains_of_retaliation/33.jpg",
    "https://img-proxy.imgfo.com/?referer=https://manganelo.com&url=https://s6.mkklcdnv6temp.com/mangakakalot/g2/gunslinger_girl/vol3_chapter_16_breaking_the_chains_of_retaliation/34.jpg",
    "https://img-proxy.imgfo.com/?referer=https://manganelo.com&url=https://s6.mkklcdnv6temp.com/mangakakalot/g2/gunslinger_girl/vol3_chapter_16_breaking_the_chains_of_retaliation/35.jpg",
    "https://img-proxy.imgfo.com/?referer=https://manganelo.com&url=https://s6.mkklcdnv6temp.com/mangakakalot/g2/gunslinger_girl/vol3_chapter_16_breaking_the_chains_of_retaliation/36.jpg"
  ]
}