{
  "cover": "https://avt.mkklcdnv6.com/14/b/4-1583470242.jpg",
  "title": "Ai Ga Tomaranai!",
  "original": "アイが止まらない！ ; ＡＩが止まらない！ ; A.I Non-Stop! ; A.I. Love You ; A I Love You ; Ai Love You ; AIが止まらない！ ; The Love Doesn't Stop! ; AI Won't Stop! ; สมองกลคนสวย! (Thai)",
  "genre": "Adventure, Comedy, Ecchi, Harem, Romance, School life, Sci fi, Shounen, Manga",
  "author": "Akamatsu Ken",
  "status": "Completed",
  "backlink": "https://manganu.com/collections/akamatsu-ken/ai-ga-tomaranai/",
  "description": "Hitoshi Kobe is a terrible student and an even worse athlete ... though he does have an incredible talent for creating Artificial Intelligence programs. Thirty is his best artificial intelligence program yet -- and, more important, the only girl who will talk to him. Hitoshi's life is forever changed when a freak accident brings Thirty to life ...",
  "language": "English",
  "images": [
    "https://img-proxy.imgfo.com/?referer=https://manganelo.com&url=https://s5.mkklcdnv6temp.com/mangakakalot/a1/ai_ga_tomaranai/vol8_chapter_49_i_love_toni/1.jpg",
    "https://img-proxy.imgfo.com/?referer=https://manganelo.com&url=https://s5.mkklcdnv6temp.com/mangakakalot/a1/ai_ga_tomaranai/vol8_chapter_49_i_love_toni/2.jpg",
    "https://img-proxy.imgfo.com/?referer=https://manganelo.com&url=https://s5.mkklcdnv6temp.com/mangakakalot/a1/ai_ga_tomaranai/vol8_chapter_49_i_love_toni/3.jpg",
    "https://img-proxy.imgfo.com/?referer=https://manganelo.com&url=https://s5.mkklcdnv6temp.com/mangakakalot/a1/ai_ga_tomaranai/vol8_chapter_49_i_love_toni/4.jpg",
    "https://img-proxy.imgfo.com/?referer=https://manganelo.com&url=https://s5.mkklcdnv6temp.com/mangakakalot/a1/ai_ga_tomaranai/vol8_chapter_49_i_love_toni/5.jpg",
    "https://img-proxy.imgfo.com/?referer=https://manganelo.com&url=https://s5.mkklcdnv6temp.com/mangakakalot/a1/ai_ga_tomaranai/vol8_chapter_49_i_love_toni/6.jpg",
    "https://img-proxy.imgfo.com/?referer=https://manganelo.com&url=https://s5.mkklcdnv6temp.com/mangakakalot/a1/ai_ga_tomaranai/vol8_chapter_49_i_love_toni/7.jpg",
    "https://img-proxy.imgfo.com/?referer=https://manganelo.com&url=https://s5.mkklcdnv6temp.com/mangakakalot/a1/ai_ga_tomaranai/vol8_chapter_49_i_love_toni/8.jpg",
    "https://img-proxy.imgfo.com/?referer=https://manganelo.com&url=https://s5.mkklcdnv6temp.com/mangakakalot/a1/ai_ga_tomaranai/vol8_chapter_49_i_love_toni/9.jpg",
    "https://img-proxy.imgfo.com/?referer=https://manganelo.com&url=https://s5.mkklcdnv6temp.com/mangakakalot/a1/ai_ga_tomaranai/vol8_chapter_49_i_love_toni/10.jpg",
    "https://img-proxy.imgfo.com/?referer=https://manganelo.com&url=https://s5.mkklcdnv6temp.com/mangakakalot/a1/ai_ga_tomaranai/vol8_chapter_49_i_love_toni/11.jpg",
    "https://img-proxy.imgfo.com/?referer=https://manganelo.com&url=https://s5.mkklcdnv6temp.com/mangakakalot/a1/ai_ga_tomaranai/vol8_chapter_49_i_love_toni/12.jpg",
    "https://img-proxy.imgfo.com/?referer=https://manganelo.com&url=https://s5.mkklcdnv6temp.com/mangakakalot/a1/ai_ga_tomaranai/vol8_chapter_49_i_love_toni/13.jpg",
    "https://img-proxy.imgfo.com/?referer=https://manganelo.com&url=https://s5.mkklcdnv6temp.com/mangakakalot/a1/ai_ga_tomaranai/vol8_chapter_49_i_love_toni/14.jpg",
    "https://img-proxy.imgfo.com/?referer=https://manganelo.com&url=https://s5.mkklcdnv6temp.com/mangakakalot/a1/ai_ga_tomaranai/vol8_chapter_49_i_love_toni/15.jpg",
    "https://img-proxy.imgfo.com/?referer=https://manganelo.com&url=https://s5.mkklcdnv6temp.com/mangakakalot/a1/ai_ga_tomaranai/vol8_chapter_49_i_love_toni/16.jpg",
    "https://img-proxy.imgfo.com/?referer=https://manganelo.com&url=https://s5.mkklcdnv6temp.com/mangakakalot/a1/ai_ga_tomaranai/vol8_chapter_49_i_love_toni/17.jpg",
    "https://img-proxy.imgfo.com/?referer=https://manganelo.com&url=https://s5.mkklcdnv6temp.com/mangakakalot/a1/ai_ga_tomaranai/vol8_chapter_49_i_love_toni/18.jpg",
    "https://img-proxy.imgfo.com/?referer=https://manganelo.com&url=https://s5.mkklcdnv6temp.com/mangakakalot/a1/ai_ga_tomaranai/vol8_chapter_49_i_love_toni/19.jpg",
    "https://img-proxy.imgfo.com/?referer=https://manganelo.com&url=https://s5.mkklcdnv6temp.com/mangakakalot/a1/ai_ga_tomaranai/vol8_chapter_49_i_love_toni/20.jpg",
    "https://img-proxy.imgfo.com/?referer=https://manganelo.com&url=https://s5.mkklcdnv6temp.com/mangakakalot/a1/ai_ga_tomaranai/vol8_chapter_49_i_love_toni/21.jpg",
    "https://img-proxy.imgfo.com/?referer=https://manganelo.com&url=https://s5.mkklcdnv6temp.com/mangakakalot/a1/ai_ga_tomaranai/vol8_chapter_49_i_love_toni/22.jpg",
    "https://img-proxy.imgfo.com/?referer=https://manganelo.com&url=https://s5.mkklcdnv6temp.com/mangakakalot/a1/ai_ga_tomaranai/vol8_chapter_49_i_love_toni/23.jpg",
    "https://img-proxy.imgfo.com/?referer=https://manganelo.com&url=https://s5.mkklcdnv6temp.com/mangakakalot/a1/ai_ga_tomaranai/vol8_chapter_49_i_love_toni/24.jpg",
    "https://img-proxy.imgfo.com/?referer=https://manganelo.com&url=https://s5.mkklcdnv6temp.com/mangakakalot/a1/ai_ga_tomaranai/vol8_chapter_49_i_love_toni/25.jpg",
    "https://img-proxy.imgfo.com/?referer=https://manganelo.com&url=https://s5.mkklcdnv6temp.com/mangakakalot/a1/ai_ga_tomaranai/vol8_chapter_49_i_love_toni/26.jpg",
    "https://img-proxy.imgfo.com/?referer=https://manganelo.com&url=https://s5.mkklcdnv6temp.com/mangakakalot/a1/ai_ga_tomaranai/vol8_chapter_49_i_love_toni/27.jpg",
    "https://img-proxy.imgfo.com/?referer=https://manganelo.com&url=https://s5.mkklcdnv6temp.com/mangakakalot/a1/ai_ga_tomaranai/vol8_chapter_49_i_love_toni/28.jpg",
    "https://img-proxy.imgfo.com/?referer=https://manganelo.com&url=https://s5.mkklcdnv6temp.com/mangakakalot/a1/ai_ga_tomaranai/vol8_chapter_49_i_love_toni/29.jpg",
    "https://img-proxy.imgfo.com/?referer=https://manganelo.com&url=https://s5.mkklcdnv6temp.com/mangakakalot/a1/ai_ga_tomaranai/vol8_chapter_49_i_love_toni/30.jpg",
    "https://img-proxy.imgfo.com/?referer=https://manganelo.com&url=https://s5.mkklcdnv6temp.com/mangakakalot/a1/ai_ga_tomaranai/vol8_chapter_49_i_love_toni/31.jpg",
    "https://img-proxy.imgfo.com/?referer=https://manganelo.com&url=https://s5.mkklcdnv6temp.com/mangakakalot/a1/ai_ga_tomaranai/vol8_chapter_49_i_love_toni/32.jpg",
    "https://img-proxy.imgfo.com/?referer=https://manganelo.com&url=https://s5.mkklcdnv6temp.com/mangakakalot/a1/ai_ga_tomaranai/vol8_chapter_49_i_love_toni/33.jpg",
    "https://img-proxy.imgfo.com/?referer=https://manganelo.com&url=https://s5.mkklcdnv6temp.com/mangakakalot/a1/ai_ga_tomaranai/vol8_chapter_49_i_love_toni/34.jpg",
    "https://img-proxy.imgfo.com/?referer=https://manganelo.com&url=https://s5.mkklcdnv6temp.com/mangakakalot/a1/ai_ga_tomaranai/vol8_chapter_49_i_love_toni/35.jpg",
    "https://img-proxy.imgfo.com/?referer=https://manganelo.com&url=https://s5.mkklcdnv6temp.com/mangakakalot/a1/ai_ga_tomaranai/vol8_chapter_49_i_love_toni/36.jpg",
    "https://img-proxy.imgfo.com/?referer=https://manganelo.com&url=https://s5.mkklcdnv6temp.com/mangakakalot/a1/ai_ga_tomaranai/vol8_chapter_49_i_love_toni/37.jpg",
    "https://img-proxy.imgfo.com/?referer=https://manganelo.com&url=https://s5.mkklcdnv6temp.com/mangakakalot/a1/ai_ga_tomaranai/vol8_chapter_49_i_love_toni/38.jpg",
    "https://img-proxy.imgfo.com/?referer=https://manganelo.com&url=https://s5.mkklcdnv6temp.com/mangakakalot/a1/ai_ga_tomaranai/vol8_chapter_49_i_love_toni/39.jpg"
  ]
}