{
  "cover": "https://avt.mkklcdnv6.com/48/x/6-1583476226.jpg",
  "title": "Arcana (Lee So Young)",
  "original": "圣传少女银娜斯 ; 아르카나",
  "genre": "Drama, Fantasy, Gender bender, Romance, Shoujo, Manhwa",
  "author": "Lee So Young",
  "status": "Completed",
  "backlink": "https://manganu.com/collections/lee-so-young/arcana-lee-so-young/",
  "description": "From Tokyopop:\nInez is a young orphan girl with a special gift that allows her to communicate with all creatures. A great destiny awaits her, the nature of which she is yet unaware.\nAs our story opens, Inez is traveling with an old wizard named Kaager and a faithful dog named Zode. Her country is about to plunge into its first winter in one hundred years and ominous signs abound concerning the return of a demon-race which threatens the country's fragile peace.\nCan little Inez- via a magic amulet - bring back her country's ancient dragon protector in time?",
  "language": "English",
  "images": [
    "https://img-proxy.imgfo.com/?referer=https://manganelo.com&url=https://s6.mkklcdnv6temp.com/mangakakalot/a2/arcana_lee_so_young/vol11_chapter_231_the_land_of_promise/1.jpg",
    "https://img-proxy.imgfo.com/?referer=https://manganelo.com&url=https://s6.mkklcdnv6temp.com/mangakakalot/a2/arcana_lee_so_young/vol11_chapter_231_the_land_of_promise/2.jpg",
    "https://img-proxy.imgfo.com/?referer=https://manganelo.com&url=https://s6.mkklcdnv6temp.com/mangakakalot/a2/arcana_lee_so_young/vol11_chapter_231_the_land_of_promise/3.jpg",
    "https://img-proxy.imgfo.com/?referer=https://manganelo.com&url=https://s6.mkklcdnv6temp.com/mangakakalot/a2/arcana_lee_so_young/vol11_chapter_231_the_land_of_promise/4.jpg",
    "https://img-proxy.imgfo.com/?referer=https://manganelo.com&url=https://s6.mkklcdnv6temp.com/mangakakalot/a2/arcana_lee_so_young/vol11_chapter_231_the_land_of_promise/5.jpg",
    "https://img-proxy.imgfo.com/?referer=https://manganelo.com&url=https://s6.mkklcdnv6temp.com/mangakakalot/a2/arcana_lee_so_young/vol11_chapter_231_the_land_of_promise/6.jpg",
    "https://img-proxy.imgfo.com/?referer=https://manganelo.com&url=https://s6.mkklcdnv6temp.com/mangakakalot/a2/arcana_lee_so_young/vol11_chapter_231_the_land_of_promise/7.jpg",
    "https://img-proxy.imgfo.com/?referer=https://manganelo.com&url=https://s6.mkklcdnv6temp.com/mangakakalot/a2/arcana_lee_so_young/vol11_chapter_231_the_land_of_promise/8.jpg",
    "https://img-proxy.imgfo.com/?referer=https://manganelo.com&url=https://s6.mkklcdnv6temp.com/mangakakalot/a2/arcana_lee_so_young/vol11_chapter_231_the_land_of_promise/9.jpg",
    "https://img-proxy.imgfo.com/?referer=https://manganelo.com&url=https://s6.mkklcdnv6temp.com/mangakakalot/a2/arcana_lee_so_young/vol11_chapter_231_the_land_of_promise/10.jpg",
    "https://img-proxy.imgfo.com/?referer=https://manganelo.com&url=https://s6.mkklcdnv6temp.com/mangakakalot/a2/arcana_lee_so_young/vol11_chapter_231_the_land_of_promise/11.jpg",
    "https://img-proxy.imgfo.com/?referer=https://manganelo.com&url=https://s6.mkklcdnv6temp.com/mangakakalot/a2/arcana_lee_so_young/vol11_chapter_231_the_land_of_promise/12.jpg",
    "https://img-proxy.imgfo.com/?referer=https://manganelo.com&url=https://s6.mkklcdnv6temp.com/mangakakalot/a2/arcana_lee_so_young/vol11_chapter_231_the_land_of_promise/13.jpg",
    "https://img-proxy.imgfo.com/?referer=https://manganelo.com&url=https://s6.mkklcdnv6temp.com/mangakakalot/a2/arcana_lee_so_young/vol11_chapter_231_the_land_of_promise/14.jpg",
    "https://img-proxy.imgfo.com/?referer=https://manganelo.com&url=https://s6.mkklcdnv6temp.com/mangakakalot/a2/arcana_lee_so_young/vol11_chapter_231_the_land_of_promise/15.jpg",
    "https://img-proxy.imgfo.com/?referer=https://manganelo.com&url=https://s6.mkklcdnv6temp.com/mangakakalot/a2/arcana_lee_so_young/vol11_chapter_231_the_land_of_promise/16.jpg",
    "https://img-proxy.imgfo.com/?referer=https://manganelo.com&url=https://s6.mkklcdnv6temp.com/mangakakalot/a2/arcana_lee_so_young/vol11_chapter_231_the_land_of_promise/17.jpg",
    "https://img-proxy.imgfo.com/?referer=https://manganelo.com&url=https://s6.mkklcdnv6temp.com/mangakakalot/a2/arcana_lee_so_young/vol11_chapter_231_the_land_of_promise/18.jpg",
    "https://img-proxy.imgfo.com/?referer=https://manganelo.com&url=https://s6.mkklcdnv6temp.com/mangakakalot/a2/arcana_lee_so_young/vol11_chapter_231_the_land_of_promise/19.jpg",
    "https://img-proxy.imgfo.com/?referer=https://manganelo.com&url=https://s6.mkklcdnv6temp.com/mangakakalot/a2/arcana_lee_so_young/vol11_chapter_231_the_land_of_promise/20.jpg",
    "https://img-proxy.imgfo.com/?referer=https://manganelo.com&url=https://s6.mkklcdnv6temp.com/mangakakalot/a2/arcana_lee_so_young/vol11_chapter_231_the_land_of_promise/21.jpg",
    "https://img-proxy.imgfo.com/?referer=https://manganelo.com&url=https://s6.mkklcdnv6temp.com/mangakakalot/a2/arcana_lee_so_young/vol11_chapter_231_the_land_of_promise/22.jpg",
    "https://img-proxy.imgfo.com/?referer=https://manganelo.com&url=https://s6.mkklcdnv6temp.com/mangakakalot/a2/arcana_lee_so_young/vol11_chapter_231_the_land_of_promise/23.jpg",
    "https://img-proxy.imgfo.com/?referer=https://manganelo.com&url=https://s6.mkklcdnv6temp.com/mangakakalot/a2/arcana_lee_so_young/vol11_chapter_231_the_land_of_promise/24.jpg",
    "https://img-proxy.imgfo.com/?referer=https://manganelo.com&url=https://s6.mkklcdnv6temp.com/mangakakalot/a2/arcana_lee_so_young/vol11_chapter_231_the_land_of_promise/25.jpg",
    "https://img-proxy.imgfo.com/?referer=https://manganelo.com&url=https://s6.mkklcdnv6temp.com/mangakakalot/a2/arcana_lee_so_young/vol11_chapter_231_the_land_of_promise/26.jpg",
    "https://img-proxy.imgfo.com/?referer=https://manganelo.com&url=https://s6.mkklcdnv6temp.com/mangakakalot/a2/arcana_lee_so_young/vol11_chapter_231_the_land_of_promise/27.jpg",
    "https://img-proxy.imgfo.com/?referer=https://manganelo.com&url=https://s6.mkklcdnv6temp.com/mangakakalot/a2/arcana_lee_so_young/vol11_chapter_231_the_land_of_promise/28.jpg",
    "https://img-proxy.imgfo.com/?referer=https://manganelo.com&url=https://s6.mkklcdnv6temp.com/mangakakalot/a2/arcana_lee_so_young/vol11_chapter_231_the_land_of_promise/29.jpg",
    "https://img-proxy.imgfo.com/?referer=https://manganelo.com&url=https://s6.mkklcdnv6temp.com/mangakakalot/a2/arcana_lee_so_young/vol11_chapter_231_the_land_of_promise/30.jpg",
    "https://img-proxy.imgfo.com/?referer=https://manganelo.com&url=https://s6.mkklcdnv6temp.com/mangakakalot/a2/arcana_lee_so_young/vol11_chapter_231_the_land_of_promise/31.jpg"
  ]
}