{
  "cover": "https://avt.mkklcdnv6.com/37/p/6-1583475667.jpg",
  "title": "Buddha",
  "original": "ブッダ",
  "genre": "Adventure, Drama, Historical, Mature, Psychological, Shounen, Tragedy, Manga",
  "author": "Tezuka Osamu",
  "status": "Completed",
  "backlink": "https://manganu.com/collections/tezuka-osamu/buddha/",
  "description": "The complete biography of Buddha, as seen by Osamu Tezuka.\nReceived the Bungei Shunju Manga Award in 1975 and ended in 1984.\nThe manga Buddha is fiction with many characters who represent various life morals. Example Chapra and his mother show the love of a mother to a son.\nFrom Anime-Planet:\nThe time is several millennia ago; the place is India. Droughts and famine plague the country, and its people are forced into a strict caste system that rewards only the elite cream of the crop. Across the land animals and Brahmin alike rejoice, for the blessed child with a birthright to become a god is about to be born. His name is Siddhartha Gautama, later to be known as the Buddha. However, Siddhartha's life will not be an easy one. He will experience love and loss, learn about the value of life and influence the lives of many, including Tatta and Pariah, Bandaka the bandit and countless others.\nThe complete biography of Buddha, as seen by Osamu Tezuka.\nReceived the Bungei Shunju Manga Award in 1975 and ended in 1984.",
  "language": "English",
  "images": [
    "https://img-proxy.imgfo.com/?referer=https://manganelo.com&url=https://s41.mkklcdnv6temp.com/mangakakalot/b2/buddha/vol7_chapter_48_venuvana/1.jpg",
    "https://img-proxy.imgfo.com/?referer=https://manganelo.com&url=https://s41.mkklcdnv6temp.com/mangakakalot/b2/buddha/vol7_chapter_48_venuvana/2.jpg",
    "https://img-proxy.imgfo.com/?referer=https://manganelo.com&url=https://s41.mkklcdnv6temp.com/mangakakalot/b2/buddha/vol7_chapter_48_venuvana/3.jpg",
    "https://img-proxy.imgfo.com/?referer=https://manganelo.com&url=https://s41.mkklcdnv6temp.com/mangakakalot/b2/buddha/vol7_chapter_48_venuvana/4.jpg",
    "https://img-proxy.imgfo.com/?referer=https://manganelo.com&url=https://s41.mkklcdnv6temp.com/mangakakalot/b2/buddha/vol7_chapter_48_venuvana/5.jpg",
    "https://img-proxy.imgfo.com/?referer=https://manganelo.com&url=https://s41.mkklcdnv6temp.com/mangakakalot/b2/buddha/vol7_chapter_48_venuvana/6.jpg",
    "https://img-proxy.imgfo.com/?referer=https://manganelo.com&url=https://s41.mkklcdnv6temp.com/mangakakalot/b2/buddha/vol7_chapter_48_venuvana/7.jpg",
    "https://img-proxy.imgfo.com/?referer=https://manganelo.com&url=https://s41.mkklcdnv6temp.com/mangakakalot/b2/buddha/vol7_chapter_48_venuvana/8.jpg",
    "https://img-proxy.imgfo.com/?referer=https://manganelo.com&url=https://s41.mkklcdnv6temp.com/mangakakalot/b2/buddha/vol7_chapter_48_venuvana/9.jpg",
    "https://img-proxy.imgfo.com/?referer=https://manganelo.com&url=https://s41.mkklcdnv6temp.com/mangakakalot/b2/buddha/vol7_chapter_48_venuvana/10.jpg",
    "https://img-proxy.imgfo.com/?referer=https://manganelo.com&url=https://s41.mkklcdnv6temp.com/mangakakalot/b2/buddha/vol7_chapter_48_venuvana/11.jpg",
    "https://img-proxy.imgfo.com/?referer=https://manganelo.com&url=https://s41.mkklcdnv6temp.com/mangakakalot/b2/buddha/vol7_chapter_48_venuvana/12.jpg",
    "https://img-proxy.imgfo.com/?referer=https://manganelo.com&url=https://s41.mkklcdnv6temp.com/mangakakalot/b2/buddha/vol7_chapter_48_venuvana/13.jpg",
    "https://img-proxy.imgfo.com/?referer=https://manganelo.com&url=https://s41.mkklcdnv6temp.com/mangakakalot/b2/buddha/vol7_chapter_48_venuvana/14.jpg",
    "https://img-proxy.imgfo.com/?referer=https://manganelo.com&url=https://s41.mkklcdnv6temp.com/mangakakalot/b2/buddha/vol7_chapter_48_venuvana/15.jpg",
    "https://img-proxy.imgfo.com/?referer=https://manganelo.com&url=https://s41.mkklcdnv6temp.com/mangakakalot/b2/buddha/vol7_chapter_48_venuvana/16.jpg",
    "https://img-proxy.imgfo.com/?referer=https://manganelo.com&url=https://s41.mkklcdnv6temp.com/mangakakalot/b2/buddha/vol7_chapter_48_venuvana/17.jpg",
    "https://img-proxy.imgfo.com/?referer=https://manganelo.com&url=https://s41.mkklcdnv6temp.com/mangakakalot/b2/buddha/vol7_chapter_48_venuvana/18.jpg",
    "https://img-proxy.imgfo.com/?referer=https://manganelo.com&url=https://s41.mkklcdnv6temp.com/mangakakalot/b2/buddha/vol7_chapter_48_venuvana/19.jpg",
    "https://img-proxy.imgfo.com/?referer=https://manganelo.com&url=https://s41.mkklcdnv6temp.com/mangakakalot/b2/buddha/vol7_chapter_48_venuvana/20.jpg",
    "https://img-proxy.imgfo.com/?referer=https://manganelo.com&url=https://s41.mkklcdnv6temp.com/mangakakalot/b2/buddha/vol7_chapter_48_venuvana/21.jpg",
    "https://img-proxy.imgfo.com/?referer=https://manganelo.com&url=https://s41.mkklcdnv6temp.com/mangakakalot/b2/buddha/vol7_chapter_48_venuvana/22.jpg",
    "https://img-proxy.imgfo.com/?referer=https://manganelo.com&url=https://s41.mkklcdnv6temp.com/mangakakalot/b2/buddha/vol7_chapter_48_venuvana/23.jpg",
    "https://img-proxy.imgfo.com/?referer=https://manganelo.com&url=https://s41.mkklcdnv6temp.com/mangakakalot/b2/buddha/vol7_chapter_48_venuvana/24.jpg",
    "https://img-proxy.imgfo.com/?referer=https://manganelo.com&url=https://s41.mkklcdnv6temp.com/mangakakalot/b2/buddha/vol7_chapter_48_venuvana/25.jpg",
    "https://img-proxy.imgfo.com/?referer=https://manganelo.com&url=https://s41.mkklcdnv6temp.com/mangakakalot/b2/buddha/vol7_chapter_48_venuvana/26.jpg",
    "https://img-proxy.imgfo.com/?referer=https://manganelo.com&url=https://s41.mkklcdnv6temp.com/mangakakalot/b2/buddha/vol7_chapter_48_venuvana/27.jpg",
    "https://img-proxy.imgfo.com/?referer=https://manganelo.com&url=https://s41.mkklcdnv6temp.com/mangakakalot/b2/buddha/vol7_chapter_48_venuvana/28.jpg",
    "https://img-proxy.imgfo.com/?referer=https://manganelo.com&url=https://s41.mkklcdnv6temp.com/mangakakalot/b2/buddha/vol7_chapter_48_venuvana/29.jpg",
    "https://img-proxy.imgfo.com/?referer=https://manganelo.com&url=https://s41.mkklcdnv6temp.com/mangakakalot/b2/buddha/vol7_chapter_48_venuvana/30.jpg",
    "https://img-proxy.imgfo.com/?referer=https://manganelo.com&url=https://s41.mkklcdnv6temp.com/mangakakalot/b2/buddha/vol7_chapter_48_venuvana/31.jpg",
    "https://img-proxy.imgfo.com/?referer=https://manganelo.com&url=https://s41.mkklcdnv6temp.com/mangakakalot/b2/buddha/vol7_chapter_48_venuvana/32.jpg",
    "https://img-proxy.imgfo.com/?referer=https://manganelo.com&url=https://s41.mkklcdnv6temp.com/mangakakalot/b2/buddha/vol7_chapter_48_venuvana/33.jpg",
    "https://img-proxy.imgfo.com/?referer=https://manganelo.com&url=https://s41.mkklcdnv6temp.com/mangakakalot/b2/buddha/vol7_chapter_48_venuvana/34.jpg",
    "https://img-proxy.imgfo.com/?referer=https://manganelo.com&url=https://s41.mkklcdnv6temp.com/mangakakalot/b2/buddha/vol7_chapter_48_venuvana/35.jpg",
    "https://img-proxy.imgfo.com/?referer=https://manganelo.com&url=https://s41.mkklcdnv6temp.com/mangakakalot/b2/buddha/vol7_chapter_48_venuvana/36.jpg",
    "https://img-proxy.imgfo.com/?referer=https://manganelo.com&url=https://s41.mkklcdnv6temp.com/mangakakalot/b2/buddha/vol7_chapter_48_venuvana/37.jpg",
    "https://img-proxy.imgfo.com/?referer=https://manganelo.com&url=https://s41.mkklcdnv6temp.com/mangakakalot/b2/buddha/vol7_chapter_48_venuvana/38.jpg",
    "https://img-proxy.imgfo.com/?referer=https://manganelo.com&url=https://s41.mkklcdnv6temp.com/mangakakalot/b2/buddha/vol7_chapter_48_venuvana/39.jpg",
    "https://img-proxy.imgfo.com/?referer=https://manganelo.com&url=https://s41.mkklcdnv6temp.com/mangakakalot/b2/buddha/vol7_chapter_48_venuvana/40.jpg",
    "https://img-proxy.imgfo.com/?referer=https://manganelo.com&url=https://s41.mkklcdnv6temp.com/mangakakalot/b2/buddha/vol7_chapter_48_venuvana/41.jpg",
    "https://img-proxy.imgfo.com/?referer=https://manganelo.com&url=https://s41.mkklcdnv6temp.com/mangakakalot/b2/buddha/vol7_chapter_48_venuvana/42.jpg",
    "https://img-proxy.imgfo.com/?referer=https://manganelo.com&url=https://s41.mkklcdnv6temp.com/mangakakalot/b2/buddha/vol7_chapter_48_venuvana/43.jpg",
    "https://img-proxy.imgfo.com/?referer=https://manganelo.com&url=https://s41.mkklcdnv6temp.com/mangakakalot/b2/buddha/vol7_chapter_48_venuvana/44.jpg",
    "https://img-proxy.imgfo.com/?referer=https://manganelo.com&url=https://s41.mkklcdnv6temp.com/mangakakalot/b2/buddha/vol7_chapter_48_venuvana/45.jpg",
    "https://img-proxy.imgfo.com/?referer=https://manganelo.com&url=https://s41.mkklcdnv6temp.com/mangakakalot/b2/buddha/vol7_chapter_48_venuvana/46.jpg",
    "https://img-proxy.imgfo.com/?referer=https://manganelo.com&url=https://s41.mkklcdnv6temp.com/mangakakalot/b2/buddha/vol7_chapter_48_venuvana/47.jpg",
    "https://img-proxy.imgfo.com/?referer=https://manganelo.com&url=https://s41.mkklcdnv6temp.com/mangakakalot/b2/buddha/vol7_chapter_48_venuvana/48.jpg",
    "https://img-proxy.imgfo.com/?referer=https://manganelo.com&url=https://s41.mkklcdnv6temp.com/mangakakalot/b2/buddha/vol7_chapter_48_venuvana/49.jpg",
    "https://img-proxy.imgfo.com/?referer=https://manganelo.com&url=https://s41.mkklcdnv6temp.com/mangakakalot/b2/buddha/vol7_chapter_48_venuvana/50.jpg",
    "https://img-proxy.imgfo.com/?referer=https://manganelo.com&url=https://s41.mkklcdnv6temp.com/mangakakalot/b2/buddha/vol7_chapter_48_venuvana/51.jpg",
    "https://img-proxy.imgfo.com/?referer=https://manganelo.com&url=https://s41.mkklcdnv6temp.com/mangakakalot/b2/buddha/vol7_chapter_48_venuvana/52.jpg",
    "https://img-proxy.imgfo.com/?referer=https://manganelo.com&url=https://s41.mkklcdnv6temp.com/mangakakalot/b2/buddha/vol7_chapter_48_venuvana/53.jpg",
    "https://img-proxy.imgfo.com/?referer=https://manganelo.com&url=https://s41.mkklcdnv6temp.com/mangakakalot/b2/buddha/vol7_chapter_48_venuvana/54.jpg",
    "https://img-proxy.imgfo.com/?referer=https://manganelo.com&url=https://s41.mkklcdnv6temp.com/mangakakalot/b2/buddha/vol7_chapter_48_venuvana/55.jpg",
    "https://img-proxy.imgfo.com/?referer=https://manganelo.com&url=https://s41.mkklcdnv6temp.com/mangakakalot/b2/buddha/vol7_chapter_48_venuvana/56.jpg",
    "https://img-proxy.imgfo.com/?referer=https://manganelo.com&url=https://s41.mkklcdnv6temp.com/mangakakalot/b2/buddha/vol7_chapter_48_venuvana/57.jpg",
    "https://img-proxy.imgfo.com/?referer=https://manganelo.com&url=https://s41.mkklcdnv6temp.com/mangakakalot/b2/buddha/vol7_chapter_48_venuvana/58.jpg",
    "https://img-proxy.imgfo.com/?referer=https://manganelo.com&url=https://s41.mkklcdnv6temp.com/mangakakalot/b2/buddha/vol7_chapter_48_venuvana/59.jpg",
    "https://img-proxy.imgfo.com/?referer=https://manganelo.com&url=https://s41.mkklcdnv6temp.com/mangakakalot/b2/buddha/vol7_chapter_48_venuvana/60.jpg",
    "https://img-proxy.imgfo.com/?referer=https://manganelo.com&url=https://s41.mkklcdnv6temp.com/mangakakalot/b2/buddha/vol7_chapter_48_venuvana/61.jpg",
    "https://img-proxy.imgfo.com/?referer=https://manganelo.com&url=https://s41.mkklcdnv6temp.com/mangakakalot/b2/buddha/vol7_chapter_48_venuvana/62.jpg",
    "https://img-proxy.imgfo.com/?referer=https://manganelo.com&url=https://s41.mkklcdnv6temp.com/mangakakalot/b2/buddha/vol7_chapter_48_venuvana/63.jpg",
    "https://img-proxy.imgfo.com/?referer=https://manganelo.com&url=https://s41.mkklcdnv6temp.com/mangakakalot/b2/buddha/vol7_chapter_48_venuvana/64.jpg",
    "https://img-proxy.imgfo.com/?referer=https://manganelo.com&url=https://s41.mkklcdnv6temp.com/mangakakalot/b2/buddha/vol7_chapter_48_venuvana/65.jpg",
    "https://img-proxy.imgfo.com/?referer=https://manganelo.com&url=https://s41.mkklcdnv6temp.com/mangakakalot/b2/buddha/vol7_chapter_48_venuvana/66.jpg",
    "https://img-proxy.imgfo.com/?referer=https://manganelo.com&url=https://s41.mkklcdnv6temp.com/mangakakalot/b2/buddha/vol7_chapter_48_venuvana/67.jpg",
    "https://img-proxy.imgfo.com/?referer=https://manganelo.com&url=https://s41.mkklcdnv6temp.com/mangakakalot/b2/buddha/vol7_chapter_48_venuvana/68.jpg",
    "https://img-proxy.imgfo.com/?referer=https://manganelo.com&url=https://s41.mkklcdnv6temp.com/mangakakalot/b2/buddha/vol7_chapter_48_venuvana/69.jpg",
    "https://img-proxy.imgfo.com/?referer=https://manganelo.com&url=https://s41.mkklcdnv6temp.com/mangakakalot/b2/buddha/vol7_chapter_48_venuvana/70.jpg",
    "https://img-proxy.imgfo.com/?referer=https://manganelo.com&url=https://s41.mkklcdnv6temp.com/mangakakalot/b2/buddha/vol7_chapter_48_venuvana/71.jpg",
    "https://img-proxy.imgfo.com/?referer=https://manganelo.com&url=https://s41.mkklcdnv6temp.com/mangakakalot/b2/buddha/vol7_chapter_48_venuvana/72.jpg",
    "https://img-proxy.imgfo.com/?referer=https://manganelo.com&url=https://s41.mkklcdnv6temp.com/mangakakalot/b2/buddha/vol7_chapter_48_venuvana/73.jpg"
  ]
}