{
  "cover": "https://avt.mkklcdnv6.com/16/p/5-1583472495.jpg",
  "title": "Houshin Engi",
  "original": "仙界伝 封神演義 ; 封神 演義 ; 封神演义 ; Hoshin ; Hoshin Engi ; Phong Thần ; Senkai-den Hoshin Engi ; Soul Hunter ; Truyền thuyết các thần linh(Vietnam)",
  "genre": "Action, Adventure, Comedy, Drama, Fantasy, Historical, Shounen, Supernatural, Manga",
  "author": "Fujisaki Ryu",
  "status": "Completed",
  "backlink": "https://manganu.com/collections/fujisaki-ryu/houshin-engi/",
  "description": "Once, there were two worlds that existed on this earth. In the sky where the deities lived was the Senninkai. On the ground where, of course, the people lived was Ningenkai. In the novel adaptation by Ryu Fujisaki, Houshin Engi follows Taikoubou on his mission to rid the Ningenkai of the evil immortals that have resided there. This colorful historically set manga keeps the reader on their feet and loving every minute of the in-depth characters and exciting adventures",
  "language": "English",
  "images": [
    "https://img-proxy.imgfo.com/?referer=https://manganelo.com&url=https://s3.mkklcdnv6temp.com/mangakakalot/h2/houshin_engi/vol17_chapter_151_the_journey_to_find_taijou_roukun_3_waiver_in_the_clouds_but_be_not/1.jpg",
    "https://img-proxy.imgfo.com/?referer=https://manganelo.com&url=https://s3.mkklcdnv6temp.com/mangakakalot/h2/houshin_engi/vol17_chapter_151_the_journey_to_find_taijou_roukun_3_waiver_in_the_clouds_but_be_not/2.jpg",
    "https://img-proxy.imgfo.com/?referer=https://manganelo.com&url=https://s3.mkklcdnv6temp.com/mangakakalot/h2/houshin_engi/vol17_chapter_151_the_journey_to_find_taijou_roukun_3_waiver_in_the_clouds_but_be_not/3.jpg",
    "https://img-proxy.imgfo.com/?referer=https://manganelo.com&url=https://s3.mkklcdnv6temp.com/mangakakalot/h2/houshin_engi/vol17_chapter_151_the_journey_to_find_taijou_roukun_3_waiver_in_the_clouds_but_be_not/4.jpg",
    "https://img-proxy.imgfo.com/?referer=https://manganelo.com&url=https://s3.mkklcdnv6temp.com/mangakakalot/h2/houshin_engi/vol17_chapter_151_the_journey_to_find_taijou_roukun_3_waiver_in_the_clouds_but_be_not/5.jpg",
    "https://img-proxy.imgfo.com/?referer=https://manganelo.com&url=https://s3.mkklcdnv6temp.com/mangakakalot/h2/houshin_engi/vol17_chapter_151_the_journey_to_find_taijou_roukun_3_waiver_in_the_clouds_but_be_not/6.jpg",
    "https://img-proxy.imgfo.com/?referer=https://manganelo.com&url=https://s3.mkklcdnv6temp.com/mangakakalot/h2/houshin_engi/vol17_chapter_151_the_journey_to_find_taijou_roukun_3_waiver_in_the_clouds_but_be_not/7.jpg",
    "https://img-proxy.imgfo.com/?referer=https://manganelo.com&url=https://s3.mkklcdnv6temp.com/mangakakalot/h2/houshin_engi/vol17_chapter_151_the_journey_to_find_taijou_roukun_3_waiver_in_the_clouds_but_be_not/8.jpg",
    "https://img-proxy.imgfo.com/?referer=https://manganelo.com&url=https://s3.mkklcdnv6temp.com/mangakakalot/h2/houshin_engi/vol17_chapter_151_the_journey_to_find_taijou_roukun_3_waiver_in_the_clouds_but_be_not/9.jpg",
    "https://img-proxy.imgfo.com/?referer=https://manganelo.com&url=https://s3.mkklcdnv6temp.com/mangakakalot/h2/houshin_engi/vol17_chapter_151_the_journey_to_find_taijou_roukun_3_waiver_in_the_clouds_but_be_not/10.jpg",
    "https://img-proxy.imgfo.com/?referer=https://manganelo.com&url=https://s3.mkklcdnv6temp.com/mangakakalot/h2/houshin_engi/vol17_chapter_151_the_journey_to_find_taijou_roukun_3_waiver_in_the_clouds_but_be_not/11.jpg",
    "https://img-proxy.imgfo.com/?referer=https://manganelo.com&url=https://s3.mkklcdnv6temp.com/mangakakalot/h2/houshin_engi/vol17_chapter_151_the_journey_to_find_taijou_roukun_3_waiver_in_the_clouds_but_be_not/12.jpg",
    "https://img-proxy.imgfo.com/?referer=https://manganelo.com&url=https://s3.mkklcdnv6temp.com/mangakakalot/h2/houshin_engi/vol17_chapter_151_the_journey_to_find_taijou_roukun_3_waiver_in_the_clouds_but_be_not/13.jpg",
    "https://img-proxy.imgfo.com/?referer=https://manganelo.com&url=https://s3.mkklcdnv6temp.com/mangakakalot/h2/houshin_engi/vol17_chapter_151_the_journey_to_find_taijou_roukun_3_waiver_in_the_clouds_but_be_not/14.jpg",
    "https://img-proxy.imgfo.com/?referer=https://manganelo.com&url=https://s3.mkklcdnv6temp.com/mangakakalot/h2/houshin_engi/vol17_chapter_151_the_journey_to_find_taijou_roukun_3_waiver_in_the_clouds_but_be_not/15.jpg",
    "https://img-proxy.imgfo.com/?referer=https://manganelo.com&url=https://s3.mkklcdnv6temp.com/mangakakalot/h2/houshin_engi/vol17_chapter_151_the_journey_to_find_taijou_roukun_3_waiver_in_the_clouds_but_be_not/16.jpg",
    "https://img-proxy.imgfo.com/?referer=https://manganelo.com&url=https://s3.mkklcdnv6temp.com/mangakakalot/h2/houshin_engi/vol17_chapter_151_the_journey_to_find_taijou_roukun_3_waiver_in_the_clouds_but_be_not/17.jpg",
    "https://img-proxy.imgfo.com/?referer=https://manganelo.com&url=https://s3.mkklcdnv6temp.com/mangakakalot/h2/houshin_engi/vol17_chapter_151_the_journey_to_find_taijou_roukun_3_waiver_in_the_clouds_but_be_not/18.jpg",
    "https://img-proxy.imgfo.com/?referer=https://manganelo.com&url=https://s3.mkklcdnv6temp.com/mangakakalot/h2/houshin_engi/vol17_chapter_151_the_journey_to_find_taijou_roukun_3_waiver_in_the_clouds_but_be_not/19.jpg",
    "https://img-proxy.imgfo.com/?referer=https://manganelo.com&url=https://s3.mkklcdnv6temp.com/mangakakalot/h2/houshin_engi/vol17_chapter_151_the_journey_to_find_taijou_roukun_3_waiver_in_the_clouds_but_be_not/20.jpg",
    "https://img-proxy.imgfo.com/?referer=https://manganelo.com&url=https://s3.mkklcdnv6temp.com/mangakakalot/h2/houshin_engi/vol17_chapter_151_the_journey_to_find_taijou_roukun_3_waiver_in_the_clouds_but_be_not/21.jpg"
  ]
}