{
  "cover": "https://avt.mkklcdnv6.com/38/e/10-1583483552.jpg",
  "title": "Me-Teru No Kimochi",
  "original": "め～てるの気持ち ; Me-Teru's Feelings",
  "genre": "Adult, Drama, Mature, Romance, Seinen, Manga",
  "author": "Oku Hiroya",
  "status": "Completed",
  "backlink": "https://manganu.com/collections/oku-hiroya/me-teru-no-kimochi/",
  "description": "Koizumi, Shintarou is 30 years old, a virgin, and has isolated himself in his room for 15 years. He has become a burden on his father, Koizumi Yasujirou. one day, Shintarou makes a proposition that if Yasujirou gets a girlfriend, Shintarou will come out of his room. It turns out that Yasujirou has already made a girlfriend, a young beautiful woman, Yoshinaga Haruka, who is with Yasujirou for her own personal reasons.Yasujirou and Haruka decide to get married, but Yasujirou dies on their honeymoon. Now Haruka decides to take care of Shintarou, and so this weird \"mother and son\" are now living together.",
  "language": "English",
  "images": [
    "https://img-proxy.imgfo.com/?referer=https://manganelo.com&url=https://s7.mkklcdnv6temp.com/mangakakalot/m1/meteru_no_kimochi/vol2_chapter_18/1.jpg",
    "https://img-proxy.imgfo.com/?referer=https://manganelo.com&url=https://s7.mkklcdnv6temp.com/mangakakalot/m1/meteru_no_kimochi/vol2_chapter_18/2.jpg",
    "https://img-proxy.imgfo.com/?referer=https://manganelo.com&url=https://s7.mkklcdnv6temp.com/mangakakalot/m1/meteru_no_kimochi/vol2_chapter_18/3.jpg",
    "https://img-proxy.imgfo.com/?referer=https://manganelo.com&url=https://s7.mkklcdnv6temp.com/mangakakalot/m1/meteru_no_kimochi/vol2_chapter_18/4.jpg",
    "https://img-proxy.imgfo.com/?referer=https://manganelo.com&url=https://s7.mkklcdnv6temp.com/mangakakalot/m1/meteru_no_kimochi/vol2_chapter_18/5.jpg",
    "https://img-proxy.imgfo.com/?referer=https://manganelo.com&url=https://s7.mkklcdnv6temp.com/mangakakalot/m1/meteru_no_kimochi/vol2_chapter_18/6.jpg",
    "https://img-proxy.imgfo.com/?referer=https://manganelo.com&url=https://s7.mkklcdnv6temp.com/mangakakalot/m1/meteru_no_kimochi/vol2_chapter_18/7.jpg",
    "https://img-proxy.imgfo.com/?referer=https://manganelo.com&url=https://s7.mkklcdnv6temp.com/mangakakalot/m1/meteru_no_kimochi/vol2_chapter_18/8.jpg",
    "https://img-proxy.imgfo.com/?referer=https://manganelo.com&url=https://s7.mkklcdnv6temp.com/mangakakalot/m1/meteru_no_kimochi/vol2_chapter_18/9.jpg",
    "https://img-proxy.imgfo.com/?referer=https://manganelo.com&url=https://s7.mkklcdnv6temp.com/mangakakalot/m1/meteru_no_kimochi/vol2_chapter_18/10.jpg",
    "https://img-proxy.imgfo.com/?referer=https://manganelo.com&url=https://s7.mkklcdnv6temp.com/mangakakalot/m1/meteru_no_kimochi/vol2_chapter_18/11.jpg",
    "https://img-proxy.imgfo.com/?referer=https://manganelo.com&url=https://s7.mkklcdnv6temp.com/mangakakalot/m1/meteru_no_kimochi/vol2_chapter_18/12.jpg",
    "https://img-proxy.imgfo.com/?referer=https://manganelo.com&url=https://s7.mkklcdnv6temp.com/mangakakalot/m1/meteru_no_kimochi/vol2_chapter_18/13.jpg",
    "https://img-proxy.imgfo.com/?referer=https://manganelo.com&url=https://s7.mkklcdnv6temp.com/mangakakalot/m1/meteru_no_kimochi/vol2_chapter_18/14.jpg",
    "https://img-proxy.imgfo.com/?referer=https://manganelo.com&url=https://s7.mkklcdnv6temp.com/mangakakalot/m1/meteru_no_kimochi/vol2_chapter_18/15.jpg",
    "https://img-proxy.imgfo.com/?referer=https://manganelo.com&url=https://s7.mkklcdnv6temp.com/mangakakalot/m1/meteru_no_kimochi/vol2_chapter_18/16.jpg",
    "https://img-proxy.imgfo.com/?referer=https://manganelo.com&url=https://s7.mkklcdnv6temp.com/mangakakalot/m1/meteru_no_kimochi/vol2_chapter_18/17.jpg",
    "https://img-proxy.imgfo.com/?referer=https://manganelo.com&url=https://s7.mkklcdnv6temp.com/mangakakalot/m1/meteru_no_kimochi/vol2_chapter_18/18.jpg",
    "https://img-proxy.imgfo.com/?referer=https://manganelo.com&url=https://s7.mkklcdnv6temp.com/mangakakalot/m1/meteru_no_kimochi/vol2_chapter_18/19.jpg",
    "https://img-proxy.imgfo.com/?referer=https://manganelo.com&url=https://s7.mkklcdnv6temp.com/mangakakalot/m1/meteru_no_kimochi/vol2_chapter_18/20.jpg"
  ]
}