{
  "cover": "https://avt.mkklcdnv6.com/48/e/5-1583473774.jpg",
  "title": "K-Sensei No Yaban Na Renai",
  "original": "K Sensei no Yaban na Ren'ai ; K Sensei no Yaban na Renai ; K先生の野蛮な恋愛 ; K老师的野蛮恋 ; K-sensei no Yaban na Ren'ai",
  "genre": "Comedy, Romance, Yaoi, Manga",
  "author": "Natsumizu Ritsu",
  "status": "Completed",
  "backlink": "https://manganu.com/collections/natsumizu-ritsu/k-sensei-no-yaban-na-renai/",
  "description": "Continues the story of the erotica writer Kaji \"K\" sensei and his ever flustered editor Kobayakawa.\nRelated Series:\nK-sensei no Yajuu na Aijou (Prequel)\nKoigokoro wa Neko o mo Nurasu (Adapted From)",
  "language": "English",
  "images": [
    "https://img-proxy.imgfo.com/?referer=https://manganelo.com&url=https://s41.mkklcdnv6temp.com/mangakakalot/k2/ksensei_no_yaban_na_renai/vol5_chapter_3/1.jpg",
    "https://img-proxy.imgfo.com/?referer=https://manganelo.com&url=https://s41.mkklcdnv6temp.com/mangakakalot/k2/ksensei_no_yaban_na_renai/vol5_chapter_3/2.jpg",
    "https://img-proxy.imgfo.com/?referer=https://manganelo.com&url=https://s41.mkklcdnv6temp.com/mangakakalot/k2/ksensei_no_yaban_na_renai/vol5_chapter_3/3.jpg",
    "https://img-proxy.imgfo.com/?referer=https://manganelo.com&url=https://s41.mkklcdnv6temp.com/mangakakalot/k2/ksensei_no_yaban_na_renai/vol5_chapter_3/4.jpg",
    "https://img-proxy.imgfo.com/?referer=https://manganelo.com&url=https://s41.mkklcdnv6temp.com/mangakakalot/k2/ksensei_no_yaban_na_renai/vol5_chapter_3/5.jpg",
    "https://img-proxy.imgfo.com/?referer=https://manganelo.com&url=https://s41.mkklcdnv6temp.com/mangakakalot/k2/ksensei_no_yaban_na_renai/vol5_chapter_3/6.jpg",
    "https://img-proxy.imgfo.com/?referer=https://manganelo.com&url=https://s41.mkklcdnv6temp.com/mangakakalot/k2/ksensei_no_yaban_na_renai/vol5_chapter_3/7.jpg",
    "https://img-proxy.imgfo.com/?referer=https://manganelo.com&url=https://s41.mkklcdnv6temp.com/mangakakalot/k2/ksensei_no_yaban_na_renai/vol5_chapter_3/8.jpg",
    "https://img-proxy.imgfo.com/?referer=https://manganelo.com&url=https://s41.mkklcdnv6temp.com/mangakakalot/k2/ksensei_no_yaban_na_renai/vol5_chapter_3/9.jpg",
    "https://img-proxy.imgfo.com/?referer=https://manganelo.com&url=https://s41.mkklcdnv6temp.com/mangakakalot/k2/ksensei_no_yaban_na_renai/vol5_chapter_3/10.jpg",
    "https://img-proxy.imgfo.com/?referer=https://manganelo.com&url=https://s41.mkklcdnv6temp.com/mangakakalot/k2/ksensei_no_yaban_na_renai/vol5_chapter_3/11.jpg",
    "https://img-proxy.imgfo.com/?referer=https://manganelo.com&url=https://s41.mkklcdnv6temp.com/mangakakalot/k2/ksensei_no_yaban_na_renai/vol5_chapter_3/12.jpg",
    "https://img-proxy.imgfo.com/?referer=https://manganelo.com&url=https://s41.mkklcdnv6temp.com/mangakakalot/k2/ksensei_no_yaban_na_renai/vol5_chapter_3/13.jpg",
    "https://img-proxy.imgfo.com/?referer=https://manganelo.com&url=https://s41.mkklcdnv6temp.com/mangakakalot/k2/ksensei_no_yaban_na_renai/vol5_chapter_3/14.jpg",
    "https://img-proxy.imgfo.com/?referer=https://manganelo.com&url=https://s41.mkklcdnv6temp.com/mangakakalot/k2/ksensei_no_yaban_na_renai/vol5_chapter_3/15.jpg",
    "https://img-proxy.imgfo.com/?referer=https://manganelo.com&url=https://s41.mkklcdnv6temp.com/mangakakalot/k2/ksensei_no_yaban_na_renai/vol5_chapter_3/16.jpg",
    "https://img-proxy.imgfo.com/?referer=https://manganelo.com&url=https://s41.mkklcdnv6temp.com/mangakakalot/k2/ksensei_no_yaban_na_renai/vol5_chapter_3/17.jpg",
    "https://img-proxy.imgfo.com/?referer=https://manganelo.com&url=https://s41.mkklcdnv6temp.com/mangakakalot/k2/ksensei_no_yaban_na_renai/vol5_chapter_3/18.jpg",
    "https://img-proxy.imgfo.com/?referer=https://manganelo.com&url=https://s41.mkklcdnv6temp.com/mangakakalot/k2/ksensei_no_yaban_na_renai/vol5_chapter_3/19.jpg",
    "https://img-proxy.imgfo.com/?referer=https://manganelo.com&url=https://s41.mkklcdnv6temp.com/mangakakalot/k2/ksensei_no_yaban_na_renai/vol5_chapter_3/20.jpg",
    "https://img-proxy.imgfo.com/?referer=https://manganelo.com&url=https://s41.mkklcdnv6temp.com/mangakakalot/k2/ksensei_no_yaban_na_renai/vol5_chapter_3/21.jpg",
    "https://img-proxy.imgfo.com/?referer=https://manganelo.com&url=https://s41.mkklcdnv6temp.com/mangakakalot/k2/ksensei_no_yaban_na_renai/vol5_chapter_3/22.jpg",
    "https://img-proxy.imgfo.com/?referer=https://manganelo.com&url=https://s41.mkklcdnv6temp.com/mangakakalot/k2/ksensei_no_yaban_na_renai/vol5_chapter_3/23.jpg",
    "https://img-proxy.imgfo.com/?referer=https://manganelo.com&url=https://s41.mkklcdnv6temp.com/mangakakalot/k2/ksensei_no_yaban_na_renai/vol5_chapter_3/24.jpg",
    "https://img-proxy.imgfo.com/?referer=https://manganelo.com&url=https://s41.mkklcdnv6temp.com/mangakakalot/k2/ksensei_no_yaban_na_renai/vol5_chapter_3/25.jpg",
    "https://img-proxy.imgfo.com/?referer=https://manganelo.com&url=https://s41.mkklcdnv6temp.com/mangakakalot/k2/ksensei_no_yaban_na_renai/vol5_chapter_3/26.jpg",
    "https://img-proxy.imgfo.com/?referer=https://manganelo.com&url=https://s41.mkklcdnv6temp.com/mangakakalot/k2/ksensei_no_yaban_na_renai/vol5_chapter_3/27.jpg",
    "https://img-proxy.imgfo.com/?referer=https://manganelo.com&url=https://s41.mkklcdnv6temp.com/mangakakalot/k2/ksensei_no_yaban_na_renai/vol5_chapter_3/28.jpg"
  ]
}