{
  "cover": "https://avt.mkklcdnv6.com/48/e/5-1583473774.jpg",
  "title": "K-Sensei No Yaban Na Renai",
  "original": "K Sensei no Yaban na Ren'ai ; K Sensei no Yaban na Renai ; K先生の野蛮な恋愛 ; K老师的野蛮恋 ; K-sensei no Yaban na Ren'ai",
  "genre": "Comedy, Romance, Yaoi, Manga",
  "author": "Natsumizu Ritsu",
  "status": "Completed",
  "backlink": "https://manganu.com/collections/natsumizu-ritsu/k-sensei-no-yaban-na-renai/",
  "description": "Continues the story of the erotica writer Kaji \"K\" sensei and his ever flustered editor Kobayakawa.\nRelated Series:\nK-sensei no Yajuu na Aijou (Prequel)\nKoigokoro wa Neko o mo Nurasu (Adapted From)",
  "language": "English",
  "images": [
    "https://img-proxy.imgfo.com/?referer=https://manganelo.com&url=https://s41.mkklcdnv6temp.com/mangakakalot/k2/ksensei_no_yaban_na_renai/vol1_chapter_41_extra/1.jpg",
    "https://img-proxy.imgfo.com/?referer=https://manganelo.com&url=https://s41.mkklcdnv6temp.com/mangakakalot/k2/ksensei_no_yaban_na_renai/vol1_chapter_41_extra/2.jpg",
    "https://img-proxy.imgfo.com/?referer=https://manganelo.com&url=https://s41.mkklcdnv6temp.com/mangakakalot/k2/ksensei_no_yaban_na_renai/vol1_chapter_41_extra/3.jpg",
    "https://img-proxy.imgfo.com/?referer=https://manganelo.com&url=https://s41.mkklcdnv6temp.com/mangakakalot/k2/ksensei_no_yaban_na_renai/vol1_chapter_41_extra/4.jpg",
    "https://img-proxy.imgfo.com/?referer=https://manganelo.com&url=https://s41.mkklcdnv6temp.com/mangakakalot/k2/ksensei_no_yaban_na_renai/vol1_chapter_41_extra/5.jpg",
    "https://img-proxy.imgfo.com/?referer=https://manganelo.com&url=https://s41.mkklcdnv6temp.com/mangakakalot/k2/ksensei_no_yaban_na_renai/vol1_chapter_41_extra/6.jpg",
    "https://img-proxy.imgfo.com/?referer=https://manganelo.com&url=https://s41.mkklcdnv6temp.com/mangakakalot/k2/ksensei_no_yaban_na_renai/vol1_chapter_41_extra/7.jpg",
    "https://img-proxy.imgfo.com/?referer=https://manganelo.com&url=https://s41.mkklcdnv6temp.com/mangakakalot/k2/ksensei_no_yaban_na_renai/vol1_chapter_41_extra/8.jpg",
    "https://img-proxy.imgfo.com/?referer=https://manganelo.com&url=https://s41.mkklcdnv6temp.com/mangakakalot/k2/ksensei_no_yaban_na_renai/vol1_chapter_41_extra/9.jpg",
    "https://img-proxy.imgfo.com/?referer=https://manganelo.com&url=https://s41.mkklcdnv6temp.com/mangakakalot/k2/ksensei_no_yaban_na_renai/vol1_chapter_41_extra/10.jpg",
    "https://img-proxy.imgfo.com/?referer=https://manganelo.com&url=https://s41.mkklcdnv6temp.com/mangakakalot/k2/ksensei_no_yaban_na_renai/vol1_chapter_41_extra/11.jpg"
  ]
}