{
  "cover": "https://avt.mkklcdnv6.com/17/t/5-1583472541.jpg",
  "title": "Hareluya Ii Boy",
  "original": "BØY ; H2B ; Hareluya 2 Boy",
  "genre": "Action, Adventure, Comedy, Drama, School life, Shounen, Manga",
  "author": "Umezawa Haruto",
  "status": "Completed",
  "backlink": "https://manganu.com/collections/umezawa-haruto/hareluya-ii-boy/",
  "description": "From Eternal-Blue:\nBasically, this manga follows Hibino Hareluya as he tries to \"conquer the world\" by dealing with the everyday punks on the street. Always ready to fight and always winning his fights, he just finds himself in more and more trouble. Along the way he surrounds himself with friends who are all very strong in their own unique way.\nIt's from the same mangaka of Bremen.",
  "language": "English",
  "images": [
    "https://img-proxy.imgfo.com/?referer=https://manganelo.com&url=https://s7.mkklcdnv6temp.com/mangakakalot/h1/hareluya_ii_boy/vol30_chapter_263_blade/1.jpg",
    "https://img-proxy.imgfo.com/?referer=https://manganelo.com&url=https://s7.mkklcdnv6temp.com/mangakakalot/h1/hareluya_ii_boy/vol30_chapter_263_blade/2.jpg",
    "https://img-proxy.imgfo.com/?referer=https://manganelo.com&url=https://s7.mkklcdnv6temp.com/mangakakalot/h1/hareluya_ii_boy/vol30_chapter_263_blade/3.jpg",
    "https://img-proxy.imgfo.com/?referer=https://manganelo.com&url=https://s7.mkklcdnv6temp.com/mangakakalot/h1/hareluya_ii_boy/vol30_chapter_263_blade/4.jpg",
    "https://img-proxy.imgfo.com/?referer=https://manganelo.com&url=https://s7.mkklcdnv6temp.com/mangakakalot/h1/hareluya_ii_boy/vol30_chapter_263_blade/5.jpg",
    "https://img-proxy.imgfo.com/?referer=https://manganelo.com&url=https://s7.mkklcdnv6temp.com/mangakakalot/h1/hareluya_ii_boy/vol30_chapter_263_blade/6.jpg",
    "https://img-proxy.imgfo.com/?referer=https://manganelo.com&url=https://s7.mkklcdnv6temp.com/mangakakalot/h1/hareluya_ii_boy/vol30_chapter_263_blade/7.jpg",
    "https://img-proxy.imgfo.com/?referer=https://manganelo.com&url=https://s7.mkklcdnv6temp.com/mangakakalot/h1/hareluya_ii_boy/vol30_chapter_263_blade/8.jpg",
    "https://img-proxy.imgfo.com/?referer=https://manganelo.com&url=https://s7.mkklcdnv6temp.com/mangakakalot/h1/hareluya_ii_boy/vol30_chapter_263_blade/9.jpg",
    "https://img-proxy.imgfo.com/?referer=https://manganelo.com&url=https://s7.mkklcdnv6temp.com/mangakakalot/h1/hareluya_ii_boy/vol30_chapter_263_blade/10.jpg",
    "https://img-proxy.imgfo.com/?referer=https://manganelo.com&url=https://s7.mkklcdnv6temp.com/mangakakalot/h1/hareluya_ii_boy/vol30_chapter_263_blade/11.jpg",
    "https://img-proxy.imgfo.com/?referer=https://manganelo.com&url=https://s7.mkklcdnv6temp.com/mangakakalot/h1/hareluya_ii_boy/vol30_chapter_263_blade/12.jpg",
    "https://img-proxy.imgfo.com/?referer=https://manganelo.com&url=https://s7.mkklcdnv6temp.com/mangakakalot/h1/hareluya_ii_boy/vol30_chapter_263_blade/13.jpg",
    "https://img-proxy.imgfo.com/?referer=https://manganelo.com&url=https://s7.mkklcdnv6temp.com/mangakakalot/h1/hareluya_ii_boy/vol30_chapter_263_blade/14.jpg",
    "https://img-proxy.imgfo.com/?referer=https://manganelo.com&url=https://s7.mkklcdnv6temp.com/mangakakalot/h1/hareluya_ii_boy/vol30_chapter_263_blade/15.jpg",
    "https://img-proxy.imgfo.com/?referer=https://manganelo.com&url=https://s7.mkklcdnv6temp.com/mangakakalot/h1/hareluya_ii_boy/vol30_chapter_263_blade/16.jpg",
    "https://img-proxy.imgfo.com/?referer=https://manganelo.com&url=https://s7.mkklcdnv6temp.com/mangakakalot/h1/hareluya_ii_boy/vol30_chapter_263_blade/17.jpg",
    "https://img-proxy.imgfo.com/?referer=https://manganelo.com&url=https://s7.mkklcdnv6temp.com/mangakakalot/h1/hareluya_ii_boy/vol30_chapter_263_blade/18.jpg",
    "https://img-proxy.imgfo.com/?referer=https://manganelo.com&url=https://s7.mkklcdnv6temp.com/mangakakalot/h1/hareluya_ii_boy/vol30_chapter_263_blade/19.jpg",
    "https://img-proxy.imgfo.com/?referer=https://manganelo.com&url=https://s7.mkklcdnv6temp.com/mangakakalot/h1/hareluya_ii_boy/vol30_chapter_263_blade/20.jpg",
    "https://img-proxy.imgfo.com/?referer=https://manganelo.com&url=https://s7.mkklcdnv6temp.com/mangakakalot/h1/hareluya_ii_boy/vol30_chapter_263_blade/21.jpg"
  ]
}