{
  "cover": "https://avt.mkklcdnv6.com/24/p/10-1583483059.jpg",
  "title": "Ruri No Kaze Ni Hana Wa Nagareru",
  "original": "琉璃風中花朵飄散 ; 瑠璃の風に花は流れる ; Flowers Flow in the Lapis Lazuli Wind ; Pagdaloy ng mga Bulaklak sa Hanging Lapiz Lazuli (Filipino)",
  "genre": "Action, Adventure, Fantasy, Romance, Shoujo, Manga",
  "author": "Maki Arisa",
  "status": "Completed",
  "backlink": "https://manganu.com/collections/maki-arisa/ruri-no-kaze-ni-hana-wa-nagareru/",
  "description": "From Aerandria Scans:\n\"You've always belonged to me since long ago.\" In order to get revenge against the enemy nation, who destroyed her own country, Hina decided to become their crown princess... However, she cannot help being attracted to Ashiru, who's supposed to be her enemy...",
  "language": "English",
  "images": [
    "https://img-proxy.imgfo.com/?referer=https://manganelo.com&url=https://s5.mkklcdnv6temp.com/mangakakalot/r2/ruri_no_kaze_ni_hana_wa_nagareru/vol3_chapter_13/1.jpg",
    "https://img-proxy.imgfo.com/?referer=https://manganelo.com&url=https://s5.mkklcdnv6temp.com/mangakakalot/r2/ruri_no_kaze_ni_hana_wa_nagareru/vol3_chapter_13/2.jpg",
    "https://img-proxy.imgfo.com/?referer=https://manganelo.com&url=https://s5.mkklcdnv6temp.com/mangakakalot/r2/ruri_no_kaze_ni_hana_wa_nagareru/vol3_chapter_13/3.jpg",
    "https://img-proxy.imgfo.com/?referer=https://manganelo.com&url=https://s5.mkklcdnv6temp.com/mangakakalot/r2/ruri_no_kaze_ni_hana_wa_nagareru/vol3_chapter_13/4.jpg",
    "https://img-proxy.imgfo.com/?referer=https://manganelo.com&url=https://s5.mkklcdnv6temp.com/mangakakalot/r2/ruri_no_kaze_ni_hana_wa_nagareru/vol3_chapter_13/5.jpg",
    "https://img-proxy.imgfo.com/?referer=https://manganelo.com&url=https://s5.mkklcdnv6temp.com/mangakakalot/r2/ruri_no_kaze_ni_hana_wa_nagareru/vol3_chapter_13/6.jpg",
    "https://img-proxy.imgfo.com/?referer=https://manganelo.com&url=https://s5.mkklcdnv6temp.com/mangakakalot/r2/ruri_no_kaze_ni_hana_wa_nagareru/vol3_chapter_13/7.jpg",
    "https://img-proxy.imgfo.com/?referer=https://manganelo.com&url=https://s5.mkklcdnv6temp.com/mangakakalot/r2/ruri_no_kaze_ni_hana_wa_nagareru/vol3_chapter_13/8.jpg",
    "https://img-proxy.imgfo.com/?referer=https://manganelo.com&url=https://s5.mkklcdnv6temp.com/mangakakalot/r2/ruri_no_kaze_ni_hana_wa_nagareru/vol3_chapter_13/9.jpg",
    "https://img-proxy.imgfo.com/?referer=https://manganelo.com&url=https://s5.mkklcdnv6temp.com/mangakakalot/r2/ruri_no_kaze_ni_hana_wa_nagareru/vol3_chapter_13/10.jpg",
    "https://img-proxy.imgfo.com/?referer=https://manganelo.com&url=https://s5.mkklcdnv6temp.com/mangakakalot/r2/ruri_no_kaze_ni_hana_wa_nagareru/vol3_chapter_13/11.jpg",
    "https://img-proxy.imgfo.com/?referer=https://manganelo.com&url=https://s5.mkklcdnv6temp.com/mangakakalot/r2/ruri_no_kaze_ni_hana_wa_nagareru/vol3_chapter_13/12.jpg",
    "https://img-proxy.imgfo.com/?referer=https://manganelo.com&url=https://s5.mkklcdnv6temp.com/mangakakalot/r2/ruri_no_kaze_ni_hana_wa_nagareru/vol3_chapter_13/13.jpg",
    "https://img-proxy.imgfo.com/?referer=https://manganelo.com&url=https://s5.mkklcdnv6temp.com/mangakakalot/r2/ruri_no_kaze_ni_hana_wa_nagareru/vol3_chapter_13/14.jpg",
    "https://img-proxy.imgfo.com/?referer=https://manganelo.com&url=https://s5.mkklcdnv6temp.com/mangakakalot/r2/ruri_no_kaze_ni_hana_wa_nagareru/vol3_chapter_13/15.jpg",
    "https://img-proxy.imgfo.com/?referer=https://manganelo.com&url=https://s5.mkklcdnv6temp.com/mangakakalot/r2/ruri_no_kaze_ni_hana_wa_nagareru/vol3_chapter_13/16.jpg",
    "https://img-proxy.imgfo.com/?referer=https://manganelo.com&url=https://s5.mkklcdnv6temp.com/mangakakalot/r2/ruri_no_kaze_ni_hana_wa_nagareru/vol3_chapter_13/17.jpg",
    "https://img-proxy.imgfo.com/?referer=https://manganelo.com&url=https://s5.mkklcdnv6temp.com/mangakakalot/r2/ruri_no_kaze_ni_hana_wa_nagareru/vol3_chapter_13/18.jpg",
    "https://img-proxy.imgfo.com/?referer=https://manganelo.com&url=https://s5.mkklcdnv6temp.com/mangakakalot/r2/ruri_no_kaze_ni_hana_wa_nagareru/vol3_chapter_13/19.jpg",
    "https://img-proxy.imgfo.com/?referer=https://manganelo.com&url=https://s5.mkklcdnv6temp.com/mangakakalot/r2/ruri_no_kaze_ni_hana_wa_nagareru/vol3_chapter_13/20.jpg",
    "https://img-proxy.imgfo.com/?referer=https://manganelo.com&url=https://s5.mkklcdnv6temp.com/mangakakalot/r2/ruri_no_kaze_ni_hana_wa_nagareru/vol3_chapter_13/21.jpg",
    "https://img-proxy.imgfo.com/?referer=https://manganelo.com&url=https://s5.mkklcdnv6temp.com/mangakakalot/r2/ruri_no_kaze_ni_hana_wa_nagareru/vol3_chapter_13/22.jpg",
    "https://img-proxy.imgfo.com/?referer=https://manganelo.com&url=https://s5.mkklcdnv6temp.com/mangakakalot/r2/ruri_no_kaze_ni_hana_wa_nagareru/vol3_chapter_13/23.jpg",
    "https://img-proxy.imgfo.com/?referer=https://manganelo.com&url=https://s5.mkklcdnv6temp.com/mangakakalot/r2/ruri_no_kaze_ni_hana_wa_nagareru/vol3_chapter_13/24.jpg",
    "https://img-proxy.imgfo.com/?referer=https://manganelo.com&url=https://s5.mkklcdnv6temp.com/mangakakalot/r2/ruri_no_kaze_ni_hana_wa_nagareru/vol3_chapter_13/25.jpg",
    "https://img-proxy.imgfo.com/?referer=https://manganelo.com&url=https://s5.mkklcdnv6temp.com/mangakakalot/r2/ruri_no_kaze_ni_hana_wa_nagareru/vol3_chapter_13/26.jpg",
    "https://img-proxy.imgfo.com/?referer=https://manganelo.com&url=https://s5.mkklcdnv6temp.com/mangakakalot/r2/ruri_no_kaze_ni_hana_wa_nagareru/vol3_chapter_13/27.jpg",
    "https://img-proxy.imgfo.com/?referer=https://manganelo.com&url=https://s5.mkklcdnv6temp.com/mangakakalot/r2/ruri_no_kaze_ni_hana_wa_nagareru/vol3_chapter_13/28.jpg",
    "https://img-proxy.imgfo.com/?referer=https://manganelo.com&url=https://s5.mkklcdnv6temp.com/mangakakalot/r2/ruri_no_kaze_ni_hana_wa_nagareru/vol3_chapter_13/29.jpg",
    "https://img-proxy.imgfo.com/?referer=https://manganelo.com&url=https://s5.mkklcdnv6temp.com/mangakakalot/r2/ruri_no_kaze_ni_hana_wa_nagareru/vol3_chapter_13/30.jpg",
    "https://img-proxy.imgfo.com/?referer=https://manganelo.com&url=https://s5.mkklcdnv6temp.com/mangakakalot/r2/ruri_no_kaze_ni_hana_wa_nagareru/vol3_chapter_13/31.jpg",
    "https://img-proxy.imgfo.com/?referer=https://manganelo.com&url=https://s5.mkklcdnv6temp.com/mangakakalot/r2/ruri_no_kaze_ni_hana_wa_nagareru/vol3_chapter_13/32.jpg",
    "https://img-proxy.imgfo.com/?referer=https://manganelo.com&url=https://s5.mkklcdnv6temp.com/mangakakalot/r2/ruri_no_kaze_ni_hana_wa_nagareru/vol3_chapter_13/33.jpg"
  ]
}