{
  "cover": "https://avt.mkklcdnv6.com/24/p/10-1583483059.jpg",
  "title": "Ruri No Kaze Ni Hana Wa Nagareru",
  "original": "琉璃風中花朵飄散 ; 瑠璃の風に花は流れる ; Flowers Flow in the Lapis Lazuli Wind ; Pagdaloy ng mga Bulaklak sa Hanging Lapiz Lazuli (Filipino)",
  "genre": "Action, Adventure, Fantasy, Romance, Shoujo, Manga",
  "author": "Maki Arisa",
  "status": "Completed",
  "backlink": "https://manganu.com/collections/maki-arisa/ruri-no-kaze-ni-hana-wa-nagareru/",
  "description": "From Aerandria Scans:\n\"You've always belonged to me since long ago.\" In order to get revenge against the enemy nation, who destroyed her own country, Hina decided to become their crown princess... However, she cannot help being attracted to Ashiru, who's supposed to be her enemy...",
  "language": "English",
  "images": [
    "https://img-proxy.imgfo.com/?referer=https://manganelo.com&url=https://s5.mkklcdnv6temp.com/mangakakalot/r2/ruri_no_kaze_ni_hana_wa_nagareru/vol2_chapter_8/1.jpg",
    "https://img-proxy.imgfo.com/?referer=https://manganelo.com&url=https://s5.mkklcdnv6temp.com/mangakakalot/r2/ruri_no_kaze_ni_hana_wa_nagareru/vol2_chapter_8/2.jpg",
    "https://img-proxy.imgfo.com/?referer=https://manganelo.com&url=https://s5.mkklcdnv6temp.com/mangakakalot/r2/ruri_no_kaze_ni_hana_wa_nagareru/vol2_chapter_8/3.jpg",
    "https://img-proxy.imgfo.com/?referer=https://manganelo.com&url=https://s5.mkklcdnv6temp.com/mangakakalot/r2/ruri_no_kaze_ni_hana_wa_nagareru/vol2_chapter_8/4.jpg",
    "https://img-proxy.imgfo.com/?referer=https://manganelo.com&url=https://s5.mkklcdnv6temp.com/mangakakalot/r2/ruri_no_kaze_ni_hana_wa_nagareru/vol2_chapter_8/5.jpg",
    "https://img-proxy.imgfo.com/?referer=https://manganelo.com&url=https://s5.mkklcdnv6temp.com/mangakakalot/r2/ruri_no_kaze_ni_hana_wa_nagareru/vol2_chapter_8/6.jpg",
    "https://img-proxy.imgfo.com/?referer=https://manganelo.com&url=https://s5.mkklcdnv6temp.com/mangakakalot/r2/ruri_no_kaze_ni_hana_wa_nagareru/vol2_chapter_8/7.jpg",
    "https://img-proxy.imgfo.com/?referer=https://manganelo.com&url=https://s5.mkklcdnv6temp.com/mangakakalot/r2/ruri_no_kaze_ni_hana_wa_nagareru/vol2_chapter_8/8.jpg",
    "https://img-proxy.imgfo.com/?referer=https://manganelo.com&url=https://s5.mkklcdnv6temp.com/mangakakalot/r2/ruri_no_kaze_ni_hana_wa_nagareru/vol2_chapter_8/9.jpg",
    "https://img-proxy.imgfo.com/?referer=https://manganelo.com&url=https://s5.mkklcdnv6temp.com/mangakakalot/r2/ruri_no_kaze_ni_hana_wa_nagareru/vol2_chapter_8/10.jpg",
    "https://img-proxy.imgfo.com/?referer=https://manganelo.com&url=https://s5.mkklcdnv6temp.com/mangakakalot/r2/ruri_no_kaze_ni_hana_wa_nagareru/vol2_chapter_8/11.jpg",
    "https://img-proxy.imgfo.com/?referer=https://manganelo.com&url=https://s5.mkklcdnv6temp.com/mangakakalot/r2/ruri_no_kaze_ni_hana_wa_nagareru/vol2_chapter_8/12.jpg",
    "https://img-proxy.imgfo.com/?referer=https://manganelo.com&url=https://s5.mkklcdnv6temp.com/mangakakalot/r2/ruri_no_kaze_ni_hana_wa_nagareru/vol2_chapter_8/13.jpg",
    "https://img-proxy.imgfo.com/?referer=https://manganelo.com&url=https://s5.mkklcdnv6temp.com/mangakakalot/r2/ruri_no_kaze_ni_hana_wa_nagareru/vol2_chapter_8/14.jpg",
    "https://img-proxy.imgfo.com/?referer=https://manganelo.com&url=https://s5.mkklcdnv6temp.com/mangakakalot/r2/ruri_no_kaze_ni_hana_wa_nagareru/vol2_chapter_8/15.jpg",
    "https://img-proxy.imgfo.com/?referer=https://manganelo.com&url=https://s5.mkklcdnv6temp.com/mangakakalot/r2/ruri_no_kaze_ni_hana_wa_nagareru/vol2_chapter_8/16.jpg",
    "https://img-proxy.imgfo.com/?referer=https://manganelo.com&url=https://s5.mkklcdnv6temp.com/mangakakalot/r2/ruri_no_kaze_ni_hana_wa_nagareru/vol2_chapter_8/17.jpg",
    "https://img-proxy.imgfo.com/?referer=https://manganelo.com&url=https://s5.mkklcdnv6temp.com/mangakakalot/r2/ruri_no_kaze_ni_hana_wa_nagareru/vol2_chapter_8/18.jpg",
    "https://img-proxy.imgfo.com/?referer=https://manganelo.com&url=https://s5.mkklcdnv6temp.com/mangakakalot/r2/ruri_no_kaze_ni_hana_wa_nagareru/vol2_chapter_8/19.jpg",
    "https://img-proxy.imgfo.com/?referer=https://manganelo.com&url=https://s5.mkklcdnv6temp.com/mangakakalot/r2/ruri_no_kaze_ni_hana_wa_nagareru/vol2_chapter_8/20.jpg",
    "https://img-proxy.imgfo.com/?referer=https://manganelo.com&url=https://s5.mkklcdnv6temp.com/mangakakalot/r2/ruri_no_kaze_ni_hana_wa_nagareru/vol2_chapter_8/21.jpg",
    "https://img-proxy.imgfo.com/?referer=https://manganelo.com&url=https://s5.mkklcdnv6temp.com/mangakakalot/r2/ruri_no_kaze_ni_hana_wa_nagareru/vol2_chapter_8/22.jpg",
    "https://img-proxy.imgfo.com/?referer=https://manganelo.com&url=https://s5.mkklcdnv6temp.com/mangakakalot/r2/ruri_no_kaze_ni_hana_wa_nagareru/vol2_chapter_8/23.jpg",
    "https://img-proxy.imgfo.com/?referer=https://manganelo.com&url=https://s5.mkklcdnv6temp.com/mangakakalot/r2/ruri_no_kaze_ni_hana_wa_nagareru/vol2_chapter_8/24.jpg",
    "https://img-proxy.imgfo.com/?referer=https://manganelo.com&url=https://s5.mkklcdnv6temp.com/mangakakalot/r2/ruri_no_kaze_ni_hana_wa_nagareru/vol2_chapter_8/25.jpg",
    "https://img-proxy.imgfo.com/?referer=https://manganelo.com&url=https://s5.mkklcdnv6temp.com/mangakakalot/r2/ruri_no_kaze_ni_hana_wa_nagareru/vol2_chapter_8/26.jpg",
    "https://img-proxy.imgfo.com/?referer=https://manganelo.com&url=https://s5.mkklcdnv6temp.com/mangakakalot/r2/ruri_no_kaze_ni_hana_wa_nagareru/vol2_chapter_8/27.jpg",
    "https://img-proxy.imgfo.com/?referer=https://manganelo.com&url=https://s5.mkklcdnv6temp.com/mangakakalot/r2/ruri_no_kaze_ni_hana_wa_nagareru/vol2_chapter_8/28.jpg",
    "https://img-proxy.imgfo.com/?referer=https://manganelo.com&url=https://s5.mkklcdnv6temp.com/mangakakalot/r2/ruri_no_kaze_ni_hana_wa_nagareru/vol2_chapter_8/29.jpg",
    "https://img-proxy.imgfo.com/?referer=https://manganelo.com&url=https://s5.mkklcdnv6temp.com/mangakakalot/r2/ruri_no_kaze_ni_hana_wa_nagareru/vol2_chapter_8/30.jpg",
    "https://img-proxy.imgfo.com/?referer=https://manganelo.com&url=https://s5.mkklcdnv6temp.com/mangakakalot/r2/ruri_no_kaze_ni_hana_wa_nagareru/vol2_chapter_8/31.jpg",
    "https://img-proxy.imgfo.com/?referer=https://manganelo.com&url=https://s5.mkklcdnv6temp.com/mangakakalot/r2/ruri_no_kaze_ni_hana_wa_nagareru/vol2_chapter_8/32.jpg",
    "https://img-proxy.imgfo.com/?referer=https://manganelo.com&url=https://s5.mkklcdnv6temp.com/mangakakalot/r2/ruri_no_kaze_ni_hana_wa_nagareru/vol2_chapter_8/33.jpg",
    "https://img-proxy.imgfo.com/?referer=https://manganelo.com&url=https://s5.mkklcdnv6temp.com/mangakakalot/r2/ruri_no_kaze_ni_hana_wa_nagareru/vol2_chapter_8/34.jpg"
  ]
}