{
  "cover": "https://avt.mkklcdnv6.com/13/d/7-1583476779.jpg",
  "title": "Life",
  "original": "ライフ ; 라이프 ; Life~人生 ; vida(español latino) ; حياه ; Raifu",
  "genre": "Action, Adventure, Drama, Mature, Psychological, Romance, School life, Shoujo, Slice of life, Tragedy, Manga",
  "author": "Suenobu Keiko",
  "status": "Completed",
  "backlink": "https://manganu.com/collections/suenobu-keiko/life/",
  "description": "From Tokyopop:\nAyumu Shiiba is studying for the all-important high school entrance exams. She is struggling to get by, but thankfully has help from her best friend Shii-chan, who is at the top of their class. Test results come back and their friendship falls apart when Ayumu surpasses Shii-chan's scores and gets into her high school of choice while Shii-chan doesn't!\nLosing Shii-chan is so painful for Ayumu that she starts cutting her wrists for comfort. Hoping for a fresh start, Ayumu arrives at her new high school and finally opens up to a new friend, Manami. But will Manami prove to be the friend that Ayumu truly needs or send her further in a downward spiral?",
  "language": "English",
  "images": [
    "https://img-proxy.imgfo.com/?referer=https://manganelo.com&url=https://s7.mkklcdnv6temp.com/mangakakalot/l1/life/vol4_chapter_13_target/1.jpg",
    "https://img-proxy.imgfo.com/?referer=https://manganelo.com&url=https://s7.mkklcdnv6temp.com/mangakakalot/l1/life/vol4_chapter_13_target/2.jpg",
    "https://img-proxy.imgfo.com/?referer=https://manganelo.com&url=https://s7.mkklcdnv6temp.com/mangakakalot/l1/life/vol4_chapter_13_target/3.jpg",
    "https://img-proxy.imgfo.com/?referer=https://manganelo.com&url=https://s7.mkklcdnv6temp.com/mangakakalot/l1/life/vol4_chapter_13_target/4.jpg",
    "https://img-proxy.imgfo.com/?referer=https://manganelo.com&url=https://s7.mkklcdnv6temp.com/mangakakalot/l1/life/vol4_chapter_13_target/5.jpg",
    "https://img-proxy.imgfo.com/?referer=https://manganelo.com&url=https://s7.mkklcdnv6temp.com/mangakakalot/l1/life/vol4_chapter_13_target/6.jpg",
    "https://img-proxy.imgfo.com/?referer=https://manganelo.com&url=https://s7.mkklcdnv6temp.com/mangakakalot/l1/life/vol4_chapter_13_target/7.jpg",
    "https://img-proxy.imgfo.com/?referer=https://manganelo.com&url=https://s7.mkklcdnv6temp.com/mangakakalot/l1/life/vol4_chapter_13_target/8.jpg",
    "https://img-proxy.imgfo.com/?referer=https://manganelo.com&url=https://s7.mkklcdnv6temp.com/mangakakalot/l1/life/vol4_chapter_13_target/9.jpg",
    "https://img-proxy.imgfo.com/?referer=https://manganelo.com&url=https://s7.mkklcdnv6temp.com/mangakakalot/l1/life/vol4_chapter_13_target/10.jpg",
    "https://img-proxy.imgfo.com/?referer=https://manganelo.com&url=https://s7.mkklcdnv6temp.com/mangakakalot/l1/life/vol4_chapter_13_target/11.jpg",
    "https://img-proxy.imgfo.com/?referer=https://manganelo.com&url=https://s7.mkklcdnv6temp.com/mangakakalot/l1/life/vol4_chapter_13_target/12.jpg",
    "https://img-proxy.imgfo.com/?referer=https://manganelo.com&url=https://s7.mkklcdnv6temp.com/mangakakalot/l1/life/vol4_chapter_13_target/13.jpg",
    "https://img-proxy.imgfo.com/?referer=https://manganelo.com&url=https://s7.mkklcdnv6temp.com/mangakakalot/l1/life/vol4_chapter_13_target/14.jpg",
    "https://img-proxy.imgfo.com/?referer=https://manganelo.com&url=https://s7.mkklcdnv6temp.com/mangakakalot/l1/life/vol4_chapter_13_target/15.jpg",
    "https://img-proxy.imgfo.com/?referer=https://manganelo.com&url=https://s7.mkklcdnv6temp.com/mangakakalot/l1/life/vol4_chapter_13_target/16.jpg",
    "https://img-proxy.imgfo.com/?referer=https://manganelo.com&url=https://s7.mkklcdnv6temp.com/mangakakalot/l1/life/vol4_chapter_13_target/17.jpg",
    "https://img-proxy.imgfo.com/?referer=https://manganelo.com&url=https://s7.mkklcdnv6temp.com/mangakakalot/l1/life/vol4_chapter_13_target/18.jpg",
    "https://img-proxy.imgfo.com/?referer=https://manganelo.com&url=https://s7.mkklcdnv6temp.com/mangakakalot/l1/life/vol4_chapter_13_target/19.jpg",
    "https://img-proxy.imgfo.com/?referer=https://manganelo.com&url=https://s7.mkklcdnv6temp.com/mangakakalot/l1/life/vol4_chapter_13_target/20.jpg",
    "https://img-proxy.imgfo.com/?referer=https://manganelo.com&url=https://s7.mkklcdnv6temp.com/mangakakalot/l1/life/vol4_chapter_13_target/21.jpg",
    "https://img-proxy.imgfo.com/?referer=https://manganelo.com&url=https://s7.mkklcdnv6temp.com/mangakakalot/l1/life/vol4_chapter_13_target/22.jpg"
  ]
}