{
  "cover": "https://avt.mkklcdnv6.com/39/p/1-1583465259.jpg",
  "title": "Daiya No A",
  "original": "ダイヤのエース ; ダイヤのA (Japanese); 钻石王牌 (Chinese); Ace of Diamond (English); Ace of the Diamond ; Daiya no Ace ; Diamond no Ace ; Diamond no Ace - Act I ; Diamond no Ace 1",
  "genre": "Comedy, School life, Shounen, Sports, Manga",
  "author": "Terajima Yuuji",
  "status": "Completed",
  "backlink": "https://manganu.com/collections/terajima-yuuji/daiya-no-a/",
  "description": "It is a manga of high-school baseball. The main character, who is a pitcher from a country high school, accidentally gets teamed up with a catcher from a school with an elite baseball team. He decides to quit his school to attend the school that this catcher plays... Winner of the 53rd Annual Shogakukan Manga award (2008) and the 34th Annual Kodansha Manga Award for the Shounen category.\n\nSport manga you may also like:\n+&nbsp;Daiya no A - Act II\n+ Smoky B.B",
  "language": "English",
  "images": [
    "https://img-proxy.imgfo.com/?referer=https://manganelo.com&url=https://s7.mkklcdnv6temp.com/mangakakalot/d1/daiya_no_a/vol1_chapter_2_companion/1.jpg",
    "https://img-proxy.imgfo.com/?referer=https://manganelo.com&url=https://s7.mkklcdnv6temp.com/mangakakalot/d1/daiya_no_a/vol1_chapter_2_companion/2.jpg",
    "https://img-proxy.imgfo.com/?referer=https://manganelo.com&url=https://s7.mkklcdnv6temp.com/mangakakalot/d1/daiya_no_a/vol1_chapter_2_companion/3.jpg",
    "https://img-proxy.imgfo.com/?referer=https://manganelo.com&url=https://s7.mkklcdnv6temp.com/mangakakalot/d1/daiya_no_a/vol1_chapter_2_companion/4.jpg",
    "https://img-proxy.imgfo.com/?referer=https://manganelo.com&url=https://s7.mkklcdnv6temp.com/mangakakalot/d1/daiya_no_a/vol1_chapter_2_companion/5.jpg",
    "https://img-proxy.imgfo.com/?referer=https://manganelo.com&url=https://s7.mkklcdnv6temp.com/mangakakalot/d1/daiya_no_a/vol1_chapter_2_companion/6.jpg",
    "https://img-proxy.imgfo.com/?referer=https://manganelo.com&url=https://s7.mkklcdnv6temp.com/mangakakalot/d1/daiya_no_a/vol1_chapter_2_companion/7.jpg",
    "https://img-proxy.imgfo.com/?referer=https://manganelo.com&url=https://s7.mkklcdnv6temp.com/mangakakalot/d1/daiya_no_a/vol1_chapter_2_companion/8.jpg",
    "https://img-proxy.imgfo.com/?referer=https://manganelo.com&url=https://s7.mkklcdnv6temp.com/mangakakalot/d1/daiya_no_a/vol1_chapter_2_companion/9.jpg",
    "https://img-proxy.imgfo.com/?referer=https://manganelo.com&url=https://s7.mkklcdnv6temp.com/mangakakalot/d1/daiya_no_a/vol1_chapter_2_companion/10.jpg",
    "https://img-proxy.imgfo.com/?referer=https://manganelo.com&url=https://s7.mkklcdnv6temp.com/mangakakalot/d1/daiya_no_a/vol1_chapter_2_companion/11.jpg",
    "https://img-proxy.imgfo.com/?referer=https://manganelo.com&url=https://s7.mkklcdnv6temp.com/mangakakalot/d1/daiya_no_a/vol1_chapter_2_companion/12.jpg",
    "https://img-proxy.imgfo.com/?referer=https://manganelo.com&url=https://s7.mkklcdnv6temp.com/mangakakalot/d1/daiya_no_a/vol1_chapter_2_companion/13.jpg",
    "https://img-proxy.imgfo.com/?referer=https://manganelo.com&url=https://s7.mkklcdnv6temp.com/mangakakalot/d1/daiya_no_a/vol1_chapter_2_companion/14.jpg",
    "https://img-proxy.imgfo.com/?referer=https://manganelo.com&url=https://s7.mkklcdnv6temp.com/mangakakalot/d1/daiya_no_a/vol1_chapter_2_companion/15.jpg",
    "https://img-proxy.imgfo.com/?referer=https://manganelo.com&url=https://s7.mkklcdnv6temp.com/mangakakalot/d1/daiya_no_a/vol1_chapter_2_companion/16.jpg",
    "https://img-proxy.imgfo.com/?referer=https://manganelo.com&url=https://s7.mkklcdnv6temp.com/mangakakalot/d1/daiya_no_a/vol1_chapter_2_companion/17.jpg",
    "https://img-proxy.imgfo.com/?referer=https://manganelo.com&url=https://s7.mkklcdnv6temp.com/mangakakalot/d1/daiya_no_a/vol1_chapter_2_companion/18.jpg",
    "https://img-proxy.imgfo.com/?referer=https://manganelo.com&url=https://s7.mkklcdnv6temp.com/mangakakalot/d1/daiya_no_a/vol1_chapter_2_companion/19.jpg",
    "https://img-proxy.imgfo.com/?referer=https://manganelo.com&url=https://s7.mkklcdnv6temp.com/mangakakalot/d1/daiya_no_a/vol1_chapter_2_companion/20.jpg",
    "https://img-proxy.imgfo.com/?referer=https://manganelo.com&url=https://s7.mkklcdnv6temp.com/mangakakalot/d1/daiya_no_a/vol1_chapter_2_companion/21.jpg",
    "https://img-proxy.imgfo.com/?referer=https://manganelo.com&url=https://s7.mkklcdnv6temp.com/mangakakalot/d1/daiya_no_a/vol1_chapter_2_companion/22.jpg",
    "https://img-proxy.imgfo.com/?referer=https://manganelo.com&url=https://s7.mkklcdnv6temp.com/mangakakalot/d1/daiya_no_a/vol1_chapter_2_companion/23.jpg",
    "https://img-proxy.imgfo.com/?referer=https://manganelo.com&url=https://s7.mkklcdnv6temp.com/mangakakalot/d1/daiya_no_a/vol1_chapter_2_companion/24.jpg",
    "https://img-proxy.imgfo.com/?referer=https://manganelo.com&url=https://s7.mkklcdnv6temp.com/mangakakalot/d1/daiya_no_a/vol1_chapter_2_companion/25.jpg",
    "https://img-proxy.imgfo.com/?referer=https://manganelo.com&url=https://s7.mkklcdnv6temp.com/mangakakalot/d1/daiya_no_a/vol1_chapter_2_companion/26.jpg",
    "https://img-proxy.imgfo.com/?referer=https://manganelo.com&url=https://s7.mkklcdnv6temp.com/mangakakalot/d1/daiya_no_a/vol1_chapter_2_companion/27.jpg",
    "https://img-proxy.imgfo.com/?referer=https://manganelo.com&url=https://s7.mkklcdnv6temp.com/mangakakalot/d1/daiya_no_a/vol1_chapter_2_companion/28.jpg",
    "https://img-proxy.imgfo.com/?referer=https://manganelo.com&url=https://s7.mkklcdnv6temp.com/mangakakalot/d1/daiya_no_a/vol1_chapter_2_companion/29.jpg",
    "https://img-proxy.imgfo.com/?referer=https://manganelo.com&url=https://s7.mkklcdnv6temp.com/mangakakalot/d1/daiya_no_a/vol1_chapter_2_companion/30.jpg",
    "https://img-proxy.imgfo.com/?referer=https://manganelo.com&url=https://s7.mkklcdnv6temp.com/mangakakalot/d1/daiya_no_a/vol1_chapter_2_companion/31.jpg",
    "https://img-proxy.imgfo.com/?referer=https://manganelo.com&url=https://s7.mkklcdnv6temp.com/mangakakalot/d1/daiya_no_a/vol1_chapter_2_companion/32.jpg",
    "https://img-proxy.imgfo.com/?referer=https://manganelo.com&url=https://s7.mkklcdnv6temp.com/mangakakalot/d1/daiya_no_a/vol1_chapter_2_companion/33.jpg",
    "https://img-proxy.imgfo.com/?referer=https://manganelo.com&url=https://s7.mkklcdnv6temp.com/mangakakalot/d1/daiya_no_a/vol1_chapter_2_companion/34.jpg",
    "https://img-proxy.imgfo.com/?referer=https://manganelo.com&url=https://s7.mkklcdnv6temp.com/mangakakalot/d1/daiya_no_a/vol1_chapter_2_companion/35.jpg",
    "https://img-proxy.imgfo.com/?referer=https://manganelo.com&url=https://s7.mkklcdnv6temp.com/mangakakalot/d1/daiya_no_a/vol1_chapter_2_companion/36.jpg",
    "https://img-proxy.imgfo.com/?referer=https://manganelo.com&url=https://s7.mkklcdnv6temp.com/mangakakalot/d1/daiya_no_a/vol1_chapter_2_companion/37.jpg",
    "https://img-proxy.imgfo.com/?referer=https://manganelo.com&url=https://s7.mkklcdnv6temp.com/mangakakalot/d1/daiya_no_a/vol1_chapter_2_companion/38.jpg",
    "https://img-proxy.imgfo.com/?referer=https://manganelo.com&url=https://s7.mkklcdnv6temp.com/mangakakalot/d1/daiya_no_a/vol1_chapter_2_companion/39.jpg",
    "https://img-proxy.imgfo.com/?referer=https://manganelo.com&url=https://s7.mkklcdnv6temp.com/mangakakalot/d1/daiya_no_a/vol1_chapter_2_companion/40.jpg",
    "https://img-proxy.imgfo.com/?referer=https://manganelo.com&url=https://s7.mkklcdnv6temp.com/mangakakalot/d1/daiya_no_a/vol1_chapter_2_companion/41.jpg",
    "https://img-proxy.imgfo.com/?referer=https://manganelo.com&url=https://s7.mkklcdnv6temp.com/mangakakalot/d1/daiya_no_a/vol1_chapter_2_companion/42.jpg",
    "https://img-proxy.imgfo.com/?referer=https://manganelo.com&url=https://s7.mkklcdnv6temp.com/mangakakalot/d1/daiya_no_a/vol1_chapter_2_companion/43.jpg"
  ]
}