{
  "cover": "https://avt.mkklcdnv6.com/39/p/1-1583465259.jpg",
  "title": "Daiya No A",
  "original": "ダイヤのエース ; ダイヤのA (Japanese); 钻石王牌 (Chinese); Ace of Diamond (English); Ace of the Diamond ; Daiya no Ace ; Diamond no Ace ; Diamond no Ace - Act I ; Diamond no Ace 1",
  "genre": "Comedy, School life, Shounen, Sports, Manga",
  "author": "Terajima Yuuji",
  "status": "Completed",
  "backlink": "https://manganu.com/collections/terajima-yuuji/daiya-no-a/",
  "description": "It is a manga of high-school baseball. The main character, who is a pitcher from a country high school, accidentally gets teamed up with a catcher from a school with an elite baseball team. He decides to quit his school to attend the school that this catcher plays... Winner of the 53rd Annual Shogakukan Manga award (2008) and the 34th Annual Kodansha Manga Award for the Shounen category.\n\nSport manga you may also like:\n+&nbsp;Daiya no A - Act II\n+ Smoky B.B",
  "language": "English",
  "images": [
    "https://img-proxy.imgfo.com/?referer=https://manganelo.com&url=https://s7.mkklcdnv6temp.com/mangakakalot/d1/daiya_no_a/vol8_chapter_188_critical_moment/1.jpg",
    "https://img-proxy.imgfo.com/?referer=https://manganelo.com&url=https://s7.mkklcdnv6temp.com/mangakakalot/d1/daiya_no_a/vol8_chapter_188_critical_moment/2.jpg",
    "https://img-proxy.imgfo.com/?referer=https://manganelo.com&url=https://s7.mkklcdnv6temp.com/mangakakalot/d1/daiya_no_a/vol8_chapter_188_critical_moment/3.jpg",
    "https://img-proxy.imgfo.com/?referer=https://manganelo.com&url=https://s7.mkklcdnv6temp.com/mangakakalot/d1/daiya_no_a/vol8_chapter_188_critical_moment/4.jpg",
    "https://img-proxy.imgfo.com/?referer=https://manganelo.com&url=https://s7.mkklcdnv6temp.com/mangakakalot/d1/daiya_no_a/vol8_chapter_188_critical_moment/5.jpg",
    "https://img-proxy.imgfo.com/?referer=https://manganelo.com&url=https://s7.mkklcdnv6temp.com/mangakakalot/d1/daiya_no_a/vol8_chapter_188_critical_moment/6.jpg",
    "https://img-proxy.imgfo.com/?referer=https://manganelo.com&url=https://s7.mkklcdnv6temp.com/mangakakalot/d1/daiya_no_a/vol8_chapter_188_critical_moment/7.jpg",
    "https://img-proxy.imgfo.com/?referer=https://manganelo.com&url=https://s7.mkklcdnv6temp.com/mangakakalot/d1/daiya_no_a/vol8_chapter_188_critical_moment/8.jpg",
    "https://img-proxy.imgfo.com/?referer=https://manganelo.com&url=https://s7.mkklcdnv6temp.com/mangakakalot/d1/daiya_no_a/vol8_chapter_188_critical_moment/9.jpg",
    "https://img-proxy.imgfo.com/?referer=https://manganelo.com&url=https://s7.mkklcdnv6temp.com/mangakakalot/d1/daiya_no_a/vol8_chapter_188_critical_moment/10.jpg",
    "https://img-proxy.imgfo.com/?referer=https://manganelo.com&url=https://s7.mkklcdnv6temp.com/mangakakalot/d1/daiya_no_a/vol8_chapter_188_critical_moment/11.jpg",
    "https://img-proxy.imgfo.com/?referer=https://manganelo.com&url=https://s7.mkklcdnv6temp.com/mangakakalot/d1/daiya_no_a/vol8_chapter_188_critical_moment/12.jpg",
    "https://img-proxy.imgfo.com/?referer=https://manganelo.com&url=https://s7.mkklcdnv6temp.com/mangakakalot/d1/daiya_no_a/vol8_chapter_188_critical_moment/13.jpg",
    "https://img-proxy.imgfo.com/?referer=https://manganelo.com&url=https://s7.mkklcdnv6temp.com/mangakakalot/d1/daiya_no_a/vol8_chapter_188_critical_moment/14.jpg",
    "https://img-proxy.imgfo.com/?referer=https://manganelo.com&url=https://s7.mkklcdnv6temp.com/mangakakalot/d1/daiya_no_a/vol8_chapter_188_critical_moment/15.jpg",
    "https://img-proxy.imgfo.com/?referer=https://manganelo.com&url=https://s7.mkklcdnv6temp.com/mangakakalot/d1/daiya_no_a/vol8_chapter_188_critical_moment/16.jpg",
    "https://img-proxy.imgfo.com/?referer=https://manganelo.com&url=https://s7.mkklcdnv6temp.com/mangakakalot/d1/daiya_no_a/vol8_chapter_188_critical_moment/17.jpg",
    "https://img-proxy.imgfo.com/?referer=https://manganelo.com&url=https://s7.mkklcdnv6temp.com/mangakakalot/d1/daiya_no_a/vol8_chapter_188_critical_moment/18.jpg",
    "https://img-proxy.imgfo.com/?referer=https://manganelo.com&url=https://s7.mkklcdnv6temp.com/mangakakalot/d1/daiya_no_a/vol8_chapter_188_critical_moment/19.jpg"
  ]
}