{
  "cover": "https://avt.mkklcdnv6.com/47/j/4-1583471679.jpg",
  "title": "Milk Crown",
  "original": "Tình Cảm Sâu Đậm (Vietnam)",
  "genre": "Comedy, Romance, Shoujo, Manga",
  "author": "Mizuto Aqua",
  "status": "Completed",
  "backlink": "https://manganu.com/collections/mizuto-aqua/milk-crown/",
  "description": "Oto Tachibana, a 17-year-old, good-natured and caring girl, decides to earn her own school fees from now on, so she takes a job at her new school as a dormitory maid for \"Class Z,\" an elitist class full of people with special talents. As such, she starts her new life away from her family in the dormitory, surrounded by (mainly) boys that are all a little different. Among them is Jin, the dormitory head, a boy who is amazingly strong and who keeps a \"cuddly\" pet at the dormitory's swimming pool - a pet shark! The quite charming and funny story revolves around the daily lives of the people in the dormitory, and in the middle is the relationship that Oto and Jin are starting to build.",
  "language": "English",
  "images": [
    "https://img-proxy.imgfo.com/?referer=https://manganelo.com&url=https://s41.mkklcdnv6temp.com/mangakakalot/m1/milk_crown/vol1_chapter_5_step_5_trick_or_treat/1.jpg",
    "https://img-proxy.imgfo.com/?referer=https://manganelo.com&url=https://s41.mkklcdnv6temp.com/mangakakalot/m1/milk_crown/vol1_chapter_5_step_5_trick_or_treat/2.jpg",
    "https://img-proxy.imgfo.com/?referer=https://manganelo.com&url=https://s41.mkklcdnv6temp.com/mangakakalot/m1/milk_crown/vol1_chapter_5_step_5_trick_or_treat/3.jpg",
    "https://img-proxy.imgfo.com/?referer=https://manganelo.com&url=https://s41.mkklcdnv6temp.com/mangakakalot/m1/milk_crown/vol1_chapter_5_step_5_trick_or_treat/4.jpg",
    "https://img-proxy.imgfo.com/?referer=https://manganelo.com&url=https://s41.mkklcdnv6temp.com/mangakakalot/m1/milk_crown/vol1_chapter_5_step_5_trick_or_treat/5.jpg",
    "https://img-proxy.imgfo.com/?referer=https://manganelo.com&url=https://s41.mkklcdnv6temp.com/mangakakalot/m1/milk_crown/vol1_chapter_5_step_5_trick_or_treat/6.jpg",
    "https://img-proxy.imgfo.com/?referer=https://manganelo.com&url=https://s41.mkklcdnv6temp.com/mangakakalot/m1/milk_crown/vol1_chapter_5_step_5_trick_or_treat/7.jpg",
    "https://img-proxy.imgfo.com/?referer=https://manganelo.com&url=https://s41.mkklcdnv6temp.com/mangakakalot/m1/milk_crown/vol1_chapter_5_step_5_trick_or_treat/8.jpg",
    "https://img-proxy.imgfo.com/?referer=https://manganelo.com&url=https://s41.mkklcdnv6temp.com/mangakakalot/m1/milk_crown/vol1_chapter_5_step_5_trick_or_treat/9.jpg",
    "https://img-proxy.imgfo.com/?referer=https://manganelo.com&url=https://s41.mkklcdnv6temp.com/mangakakalot/m1/milk_crown/vol1_chapter_5_step_5_trick_or_treat/10.jpg",
    "https://img-proxy.imgfo.com/?referer=https://manganelo.com&url=https://s41.mkklcdnv6temp.com/mangakakalot/m1/milk_crown/vol1_chapter_5_step_5_trick_or_treat/11.jpg",
    "https://img-proxy.imgfo.com/?referer=https://manganelo.com&url=https://s41.mkklcdnv6temp.com/mangakakalot/m1/milk_crown/vol1_chapter_5_step_5_trick_or_treat/12.jpg",
    "https://img-proxy.imgfo.com/?referer=https://manganelo.com&url=https://s41.mkklcdnv6temp.com/mangakakalot/m1/milk_crown/vol1_chapter_5_step_5_trick_or_treat/13.jpg",
    "https://img-proxy.imgfo.com/?referer=https://manganelo.com&url=https://s41.mkklcdnv6temp.com/mangakakalot/m1/milk_crown/vol1_chapter_5_step_5_trick_or_treat/14.jpg",
    "https://img-proxy.imgfo.com/?referer=https://manganelo.com&url=https://s41.mkklcdnv6temp.com/mangakakalot/m1/milk_crown/vol1_chapter_5_step_5_trick_or_treat/15.jpg",
    "https://img-proxy.imgfo.com/?referer=https://manganelo.com&url=https://s41.mkklcdnv6temp.com/mangakakalot/m1/milk_crown/vol1_chapter_5_step_5_trick_or_treat/16.jpg",
    "https://img-proxy.imgfo.com/?referer=https://manganelo.com&url=https://s41.mkklcdnv6temp.com/mangakakalot/m1/milk_crown/vol1_chapter_5_step_5_trick_or_treat/17.jpg",
    "https://img-proxy.imgfo.com/?referer=https://manganelo.com&url=https://s41.mkklcdnv6temp.com/mangakakalot/m1/milk_crown/vol1_chapter_5_step_5_trick_or_treat/18.jpg",
    "https://img-proxy.imgfo.com/?referer=https://manganelo.com&url=https://s41.mkklcdnv6temp.com/mangakakalot/m1/milk_crown/vol1_chapter_5_step_5_trick_or_treat/19.jpg",
    "https://img-proxy.imgfo.com/?referer=https://manganelo.com&url=https://s41.mkklcdnv6temp.com/mangakakalot/m1/milk_crown/vol1_chapter_5_step_5_trick_or_treat/20.jpg",
    "https://img-proxy.imgfo.com/?referer=https://manganelo.com&url=https://s41.mkklcdnv6temp.com/mangakakalot/m1/milk_crown/vol1_chapter_5_step_5_trick_or_treat/21.jpg",
    "https://img-proxy.imgfo.com/?referer=https://manganelo.com&url=https://s41.mkklcdnv6temp.com/mangakakalot/m1/milk_crown/vol1_chapter_5_step_5_trick_or_treat/22.jpg",
    "https://img-proxy.imgfo.com/?referer=https://manganelo.com&url=https://s41.mkklcdnv6temp.com/mangakakalot/m1/milk_crown/vol1_chapter_5_step_5_trick_or_treat/23.jpg",
    "https://img-proxy.imgfo.com/?referer=https://manganelo.com&url=https://s41.mkklcdnv6temp.com/mangakakalot/m1/milk_crown/vol1_chapter_5_step_5_trick_or_treat/24.jpg",
    "https://img-proxy.imgfo.com/?referer=https://manganelo.com&url=https://s41.mkklcdnv6temp.com/mangakakalot/m1/milk_crown/vol1_chapter_5_step_5_trick_or_treat/25.jpg",
    "https://img-proxy.imgfo.com/?referer=https://manganelo.com&url=https://s41.mkklcdnv6temp.com/mangakakalot/m1/milk_crown/vol1_chapter_5_step_5_trick_or_treat/26.jpg",
    "https://img-proxy.imgfo.com/?referer=https://manganelo.com&url=https://s41.mkklcdnv6temp.com/mangakakalot/m1/milk_crown/vol1_chapter_5_step_5_trick_or_treat/27.jpg",
    "https://img-proxy.imgfo.com/?referer=https://manganelo.com&url=https://s41.mkklcdnv6temp.com/mangakakalot/m1/milk_crown/vol1_chapter_5_step_5_trick_or_treat/28.jpg"
  ]
}