{
  "cover": "https://avt.mkklcdnv6.com/10/y/5-1583472285.jpg",
  "title": "Mucha Kucha Daisuki",
  "original": "むちゃくちゃ大好き。 ; 东京爱情物语 ; รักสุดๆ หยุดไม่อยู่ ; Crazy For You (Indonesia) ; Dingue de toi! (French) ; Love You Like Crazy ; Namida no Koimonogatari ; Wait For A Night When Snow Falls ; Your and My Rendebu",
  "genre": "Comedy, Drama, Romance, School life, Shoujo, Tragedy, Manga",
  "author": "Shimaki Ako",
  "status": "Completed",
  "backlink": "https://manganu.com/collections/shimaki-ako/mucha-kucha-daisuki/",
  "description": "Katagiri Aoi lives in the countryside, and likes it just fine there. Yet, to her dismay, her parents are moving to Tokyo, and she has to come along. Just before leaving her home town, however, she has a chance encounter with a visiting Tokyoite, Sugita Tsuyoshi, a city-born playboy type. On impulse, he kisses her--only to realize that this kiss, unlike all the others, carries unexpected meaning for them both.\nExtra stories:\nvol1: Love\nvol1: The River Person\nvol3: Psycho Love\nvol4: Wait For a Night When Snow Falls\nvol4: Your and My Rendezvous (Rendebu)\nvol4: A Tearful Tale of Love",
  "language": "English",
  "images": [
    "https://img-proxy.imgfo.com/?referer=https://manganelo.com&url=https://s41.mkklcdnv6temp.com/mangakakalot/m2/mucha_kucha_daisuki/vol3_chapter_11/1.jpg",
    "https://img-proxy.imgfo.com/?referer=https://manganelo.com&url=https://s41.mkklcdnv6temp.com/mangakakalot/m2/mucha_kucha_daisuki/vol3_chapter_11/2.jpg",
    "https://img-proxy.imgfo.com/?referer=https://manganelo.com&url=https://s41.mkklcdnv6temp.com/mangakakalot/m2/mucha_kucha_daisuki/vol3_chapter_11/3.jpg",
    "https://img-proxy.imgfo.com/?referer=https://manganelo.com&url=https://s41.mkklcdnv6temp.com/mangakakalot/m2/mucha_kucha_daisuki/vol3_chapter_11/4.jpg",
    "https://img-proxy.imgfo.com/?referer=https://manganelo.com&url=https://s41.mkklcdnv6temp.com/mangakakalot/m2/mucha_kucha_daisuki/vol3_chapter_11/5.jpg",
    "https://img-proxy.imgfo.com/?referer=https://manganelo.com&url=https://s41.mkklcdnv6temp.com/mangakakalot/m2/mucha_kucha_daisuki/vol3_chapter_11/6.jpg",
    "https://img-proxy.imgfo.com/?referer=https://manganelo.com&url=https://s41.mkklcdnv6temp.com/mangakakalot/m2/mucha_kucha_daisuki/vol3_chapter_11/7.jpg",
    "https://img-proxy.imgfo.com/?referer=https://manganelo.com&url=https://s41.mkklcdnv6temp.com/mangakakalot/m2/mucha_kucha_daisuki/vol3_chapter_11/8.jpg",
    "https://img-proxy.imgfo.com/?referer=https://manganelo.com&url=https://s41.mkklcdnv6temp.com/mangakakalot/m2/mucha_kucha_daisuki/vol3_chapter_11/9.jpg",
    "https://img-proxy.imgfo.com/?referer=https://manganelo.com&url=https://s41.mkklcdnv6temp.com/mangakakalot/m2/mucha_kucha_daisuki/vol3_chapter_11/10.jpg",
    "https://img-proxy.imgfo.com/?referer=https://manganelo.com&url=https://s41.mkklcdnv6temp.com/mangakakalot/m2/mucha_kucha_daisuki/vol3_chapter_11/11.jpg",
    "https://img-proxy.imgfo.com/?referer=https://manganelo.com&url=https://s41.mkklcdnv6temp.com/mangakakalot/m2/mucha_kucha_daisuki/vol3_chapter_11/12.jpg",
    "https://img-proxy.imgfo.com/?referer=https://manganelo.com&url=https://s41.mkklcdnv6temp.com/mangakakalot/m2/mucha_kucha_daisuki/vol3_chapter_11/13.jpg",
    "https://img-proxy.imgfo.com/?referer=https://manganelo.com&url=https://s41.mkklcdnv6temp.com/mangakakalot/m2/mucha_kucha_daisuki/vol3_chapter_11/14.jpg",
    "https://img-proxy.imgfo.com/?referer=https://manganelo.com&url=https://s41.mkklcdnv6temp.com/mangakakalot/m2/mucha_kucha_daisuki/vol3_chapter_11/15.jpg",
    "https://img-proxy.imgfo.com/?referer=https://manganelo.com&url=https://s41.mkklcdnv6temp.com/mangakakalot/m2/mucha_kucha_daisuki/vol3_chapter_11/16.jpg",
    "https://img-proxy.imgfo.com/?referer=https://manganelo.com&url=https://s41.mkklcdnv6temp.com/mangakakalot/m2/mucha_kucha_daisuki/vol3_chapter_11/17.jpg",
    "https://img-proxy.imgfo.com/?referer=https://manganelo.com&url=https://s41.mkklcdnv6temp.com/mangakakalot/m2/mucha_kucha_daisuki/vol3_chapter_11/18.jpg",
    "https://img-proxy.imgfo.com/?referer=https://manganelo.com&url=https://s41.mkklcdnv6temp.com/mangakakalot/m2/mucha_kucha_daisuki/vol3_chapter_11/19.jpg",
    "https://img-proxy.imgfo.com/?referer=https://manganelo.com&url=https://s41.mkklcdnv6temp.com/mangakakalot/m2/mucha_kucha_daisuki/vol3_chapter_11/20.jpg",
    "https://img-proxy.imgfo.com/?referer=https://manganelo.com&url=https://s41.mkklcdnv6temp.com/mangakakalot/m2/mucha_kucha_daisuki/vol3_chapter_11/21.jpg",
    "https://img-proxy.imgfo.com/?referer=https://manganelo.com&url=https://s41.mkklcdnv6temp.com/mangakakalot/m2/mucha_kucha_daisuki/vol3_chapter_11/22.jpg",
    "https://img-proxy.imgfo.com/?referer=https://manganelo.com&url=https://s41.mkklcdnv6temp.com/mangakakalot/m2/mucha_kucha_daisuki/vol3_chapter_11/23.jpg",
    "https://img-proxy.imgfo.com/?referer=https://manganelo.com&url=https://s41.mkklcdnv6temp.com/mangakakalot/m2/mucha_kucha_daisuki/vol3_chapter_11/24.jpg",
    "https://img-proxy.imgfo.com/?referer=https://manganelo.com&url=https://s41.mkklcdnv6temp.com/mangakakalot/m2/mucha_kucha_daisuki/vol3_chapter_11/25.jpg",
    "https://img-proxy.imgfo.com/?referer=https://manganelo.com&url=https://s41.mkklcdnv6temp.com/mangakakalot/m2/mucha_kucha_daisuki/vol3_chapter_11/26.jpg",
    "https://img-proxy.imgfo.com/?referer=https://manganelo.com&url=https://s41.mkklcdnv6temp.com/mangakakalot/m2/mucha_kucha_daisuki/vol3_chapter_11/27.jpg",
    "https://img-proxy.imgfo.com/?referer=https://manganelo.com&url=https://s41.mkklcdnv6temp.com/mangakakalot/m2/mucha_kucha_daisuki/vol3_chapter_11/28.jpg",
    "https://img-proxy.imgfo.com/?referer=https://manganelo.com&url=https://s41.mkklcdnv6temp.com/mangakakalot/m2/mucha_kucha_daisuki/vol3_chapter_11/29.jpg",
    "https://img-proxy.imgfo.com/?referer=https://manganelo.com&url=https://s41.mkklcdnv6temp.com/mangakakalot/m2/mucha_kucha_daisuki/vol3_chapter_11/30.jpg",
    "https://img-proxy.imgfo.com/?referer=https://manganelo.com&url=https://s41.mkklcdnv6temp.com/mangakakalot/m2/mucha_kucha_daisuki/vol3_chapter_11/31.jpg",
    "https://img-proxy.imgfo.com/?referer=https://manganelo.com&url=https://s41.mkklcdnv6temp.com/mangakakalot/m2/mucha_kucha_daisuki/vol3_chapter_11/32.jpg",
    "https://img-proxy.imgfo.com/?referer=https://manganelo.com&url=https://s41.mkklcdnv6temp.com/mangakakalot/m2/mucha_kucha_daisuki/vol3_chapter_11/33.jpg",
    "https://img-proxy.imgfo.com/?referer=https://manganelo.com&url=https://s41.mkklcdnv6temp.com/mangakakalot/m2/mucha_kucha_daisuki/vol3_chapter_11/34.jpg",
    "https://img-proxy.imgfo.com/?referer=https://manganelo.com&url=https://s41.mkklcdnv6temp.com/mangakakalot/m2/mucha_kucha_daisuki/vol3_chapter_11/35.jpg",
    "https://img-proxy.imgfo.com/?referer=https://manganelo.com&url=https://s41.mkklcdnv6temp.com/mangakakalot/m2/mucha_kucha_daisuki/vol3_chapter_11/36.jpg",
    "https://img-proxy.imgfo.com/?referer=https://manganelo.com&url=https://s41.mkklcdnv6temp.com/mangakakalot/m2/mucha_kucha_daisuki/vol3_chapter_11/37.jpg",
    "https://img-proxy.imgfo.com/?referer=https://manganelo.com&url=https://s41.mkklcdnv6temp.com/mangakakalot/m2/mucha_kucha_daisuki/vol3_chapter_11/38.jpg",
    "https://img-proxy.imgfo.com/?referer=https://manganelo.com&url=https://s41.mkklcdnv6temp.com/mangakakalot/m2/mucha_kucha_daisuki/vol3_chapter_11/39.jpg",
    "https://img-proxy.imgfo.com/?referer=https://manganelo.com&url=https://s41.mkklcdnv6temp.com/mangakakalot/m2/mucha_kucha_daisuki/vol3_chapter_11/40.jpg",
    "https://img-proxy.imgfo.com/?referer=https://manganelo.com&url=https://s41.mkklcdnv6temp.com/mangakakalot/m2/mucha_kucha_daisuki/vol3_chapter_11/41.jpg",
    "https://img-proxy.imgfo.com/?referer=https://manganelo.com&url=https://s41.mkklcdnv6temp.com/mangakakalot/m2/mucha_kucha_daisuki/vol3_chapter_11/42.jpg",
    "https://img-proxy.imgfo.com/?referer=https://manganelo.com&url=https://s41.mkklcdnv6temp.com/mangakakalot/m2/mucha_kucha_daisuki/vol3_chapter_11/43.jpg"
  ]
}