{
  "cover": "https://avt.mkklcdnv6.com/50/x/4-1583471840.jpg",
  "title": "Yappari Yoru Made Matenai",
  "original": "やっぱり夜まで待てない。 ; I knew i couldn't wait till the night",
  "genre": "Comedy, Drama, Romance, Shoujo, Smut, Manga",
  "author": "Oota Saki",
  "status": "Completed",
  "backlink": "https://manganu.com/collections/oota-saki/yappari-yoru-made-matenai/",
  "description": "Short stories of the original story Yoru Made Matenai",
  "language": "English",
  "images": [
    "https://img-proxy.imgfo.com/?referer=https://manganelo.com&url=https://s6.mkklcdnv6temp.com/mangakakalot/y1/yappari_yoru_made_matenai/vol1_chapter_4_love_is_somtimes_like_rain/1.jpg",
    "https://img-proxy.imgfo.com/?referer=https://manganelo.com&url=https://s6.mkklcdnv6temp.com/mangakakalot/y1/yappari_yoru_made_matenai/vol1_chapter_4_love_is_somtimes_like_rain/2.jpg",
    "https://img-proxy.imgfo.com/?referer=https://manganelo.com&url=https://s6.mkklcdnv6temp.com/mangakakalot/y1/yappari_yoru_made_matenai/vol1_chapter_4_love_is_somtimes_like_rain/3.jpg",
    "https://img-proxy.imgfo.com/?referer=https://manganelo.com&url=https://s6.mkklcdnv6temp.com/mangakakalot/y1/yappari_yoru_made_matenai/vol1_chapter_4_love_is_somtimes_like_rain/4.jpg",
    "https://img-proxy.imgfo.com/?referer=https://manganelo.com&url=https://s6.mkklcdnv6temp.com/mangakakalot/y1/yappari_yoru_made_matenai/vol1_chapter_4_love_is_somtimes_like_rain/5.jpg",
    "https://img-proxy.imgfo.com/?referer=https://manganelo.com&url=https://s6.mkklcdnv6temp.com/mangakakalot/y1/yappari_yoru_made_matenai/vol1_chapter_4_love_is_somtimes_like_rain/6.jpg",
    "https://img-proxy.imgfo.com/?referer=https://manganelo.com&url=https://s6.mkklcdnv6temp.com/mangakakalot/y1/yappari_yoru_made_matenai/vol1_chapter_4_love_is_somtimes_like_rain/7.jpg",
    "https://img-proxy.imgfo.com/?referer=https://manganelo.com&url=https://s6.mkklcdnv6temp.com/mangakakalot/y1/yappari_yoru_made_matenai/vol1_chapter_4_love_is_somtimes_like_rain/8.jpg",
    "https://img-proxy.imgfo.com/?referer=https://manganelo.com&url=https://s6.mkklcdnv6temp.com/mangakakalot/y1/yappari_yoru_made_matenai/vol1_chapter_4_love_is_somtimes_like_rain/9.jpg",
    "https://img-proxy.imgfo.com/?referer=https://manganelo.com&url=https://s6.mkklcdnv6temp.com/mangakakalot/y1/yappari_yoru_made_matenai/vol1_chapter_4_love_is_somtimes_like_rain/10.jpg",
    "https://img-proxy.imgfo.com/?referer=https://manganelo.com&url=https://s6.mkklcdnv6temp.com/mangakakalot/y1/yappari_yoru_made_matenai/vol1_chapter_4_love_is_somtimes_like_rain/11.jpg",
    "https://img-proxy.imgfo.com/?referer=https://manganelo.com&url=https://s6.mkklcdnv6temp.com/mangakakalot/y1/yappari_yoru_made_matenai/vol1_chapter_4_love_is_somtimes_like_rain/12.jpg",
    "https://img-proxy.imgfo.com/?referer=https://manganelo.com&url=https://s6.mkklcdnv6temp.com/mangakakalot/y1/yappari_yoru_made_matenai/vol1_chapter_4_love_is_somtimes_like_rain/13.jpg",
    "https://img-proxy.imgfo.com/?referer=https://manganelo.com&url=https://s6.mkklcdnv6temp.com/mangakakalot/y1/yappari_yoru_made_matenai/vol1_chapter_4_love_is_somtimes_like_rain/14.jpg",
    "https://img-proxy.imgfo.com/?referer=https://manganelo.com&url=https://s6.mkklcdnv6temp.com/mangakakalot/y1/yappari_yoru_made_matenai/vol1_chapter_4_love_is_somtimes_like_rain/15.jpg",
    "https://img-proxy.imgfo.com/?referer=https://manganelo.com&url=https://s6.mkklcdnv6temp.com/mangakakalot/y1/yappari_yoru_made_matenai/vol1_chapter_4_love_is_somtimes_like_rain/16.jpg",
    "https://img-proxy.imgfo.com/?referer=https://manganelo.com&url=https://s6.mkklcdnv6temp.com/mangakakalot/y1/yappari_yoru_made_matenai/vol1_chapter_4_love_is_somtimes_like_rain/17.jpg",
    "https://img-proxy.imgfo.com/?referer=https://manganelo.com&url=https://s6.mkklcdnv6temp.com/mangakakalot/y1/yappari_yoru_made_matenai/vol1_chapter_4_love_is_somtimes_like_rain/18.jpg",
    "https://img-proxy.imgfo.com/?referer=https://manganelo.com&url=https://s6.mkklcdnv6temp.com/mangakakalot/y1/yappari_yoru_made_matenai/vol1_chapter_4_love_is_somtimes_like_rain/19.jpg",
    "https://img-proxy.imgfo.com/?referer=https://manganelo.com&url=https://s6.mkklcdnv6temp.com/mangakakalot/y1/yappari_yoru_made_matenai/vol1_chapter_4_love_is_somtimes_like_rain/20.jpg",
    "https://img-proxy.imgfo.com/?referer=https://manganelo.com&url=https://s6.mkklcdnv6temp.com/mangakakalot/y1/yappari_yoru_made_matenai/vol1_chapter_4_love_is_somtimes_like_rain/21.jpg",
    "https://img-proxy.imgfo.com/?referer=https://manganelo.com&url=https://s6.mkklcdnv6temp.com/mangakakalot/y1/yappari_yoru_made_matenai/vol1_chapter_4_love_is_somtimes_like_rain/22.jpg",
    "https://img-proxy.imgfo.com/?referer=https://manganelo.com&url=https://s6.mkklcdnv6temp.com/mangakakalot/y1/yappari_yoru_made_matenai/vol1_chapter_4_love_is_somtimes_like_rain/23.jpg",
    "https://img-proxy.imgfo.com/?referer=https://manganelo.com&url=https://s6.mkklcdnv6temp.com/mangakakalot/y1/yappari_yoru_made_matenai/vol1_chapter_4_love_is_somtimes_like_rain/24.jpg",
    "https://img-proxy.imgfo.com/?referer=https://manganelo.com&url=https://s6.mkklcdnv6temp.com/mangakakalot/y1/yappari_yoru_made_matenai/vol1_chapter_4_love_is_somtimes_like_rain/25.jpg",
    "https://img-proxy.imgfo.com/?referer=https://manganelo.com&url=https://s6.mkklcdnv6temp.com/mangakakalot/y1/yappari_yoru_made_matenai/vol1_chapter_4_love_is_somtimes_like_rain/26.jpg",
    "https://img-proxy.imgfo.com/?referer=https://manganelo.com&url=https://s6.mkklcdnv6temp.com/mangakakalot/y1/yappari_yoru_made_matenai/vol1_chapter_4_love_is_somtimes_like_rain/27.jpg",
    "https://img-proxy.imgfo.com/?referer=https://manganelo.com&url=https://s6.mkklcdnv6temp.com/mangakakalot/y1/yappari_yoru_made_matenai/vol1_chapter_4_love_is_somtimes_like_rain/28.jpg",
    "https://img-proxy.imgfo.com/?referer=https://manganelo.com&url=https://s6.mkklcdnv6temp.com/mangakakalot/y1/yappari_yoru_made_matenai/vol1_chapter_4_love_is_somtimes_like_rain/29.jpg",
    "https://img-proxy.imgfo.com/?referer=https://manganelo.com&url=https://s6.mkklcdnv6temp.com/mangakakalot/y1/yappari_yoru_made_matenai/vol1_chapter_4_love_is_somtimes_like_rain/30.jpg",
    "https://img-proxy.imgfo.com/?referer=https://manganelo.com&url=https://s6.mkklcdnv6temp.com/mangakakalot/y1/yappari_yoru_made_matenai/vol1_chapter_4_love_is_somtimes_like_rain/31.jpg",
    "https://img-proxy.imgfo.com/?referer=https://manganelo.com&url=https://s6.mkklcdnv6temp.com/mangakakalot/y1/yappari_yoru_made_matenai/vol1_chapter_4_love_is_somtimes_like_rain/32.jpg",
    "https://img-proxy.imgfo.com/?referer=https://manganelo.com&url=https://s6.mkklcdnv6temp.com/mangakakalot/y1/yappari_yoru_made_matenai/vol1_chapter_4_love_is_somtimes_like_rain/33.jpg",
    "https://img-proxy.imgfo.com/?referer=https://manganelo.com&url=https://s6.mkklcdnv6temp.com/mangakakalot/y1/yappari_yoru_made_matenai/vol1_chapter_4_love_is_somtimes_like_rain/34.jpg"
  ]
}