{
  "cover": "https://avt.mkklcdnv6.com/11/z/4-1583470156.jpg",
  "title": "Anata To Senya Ichiya",
  "original": "あなたと千夜一夜 ; 千夜一夜 ; 1001 Nights with You ; One Thousand and One Nights with You",
  "genre": "Comedy, Josei, Romance, Smut, Manga",
  "author": "Yoshihara Yuki",
  "status": "Completed",
  "backlink": "https://manganu.com/collections/yoshihara-yuki/anata-to-senya-ichiya/",
  "description": "From HotCakes:\nThe man super-uptight office worker Ooizumi Sonoko got drunk and spent the night with shows up at her work and turns out to be the section chief?! A hilarious romantic comedy about pure love wrapped in indecency.\nThis series was published as part of vol 2 - 5 in Oboretai and the first 3 chapters(done by ShoujoMagic) can be found in vol 2.",
  "language": "English",
  "images": [
    "https://img-proxy.imgfo.com/?referer=https://manganelo.com&url=https://s7.mkklcdnv6temp.com/mangakakalot/a1/anata_to_senya_ichiya/vol2_chapter_12/1.jpg",
    "https://img-proxy.imgfo.com/?referer=https://manganelo.com&url=https://s7.mkklcdnv6temp.com/mangakakalot/a1/anata_to_senya_ichiya/vol2_chapter_12/2.jpg",
    "https://img-proxy.imgfo.com/?referer=https://manganelo.com&url=https://s7.mkklcdnv6temp.com/mangakakalot/a1/anata_to_senya_ichiya/vol2_chapter_12/3.jpg",
    "https://img-proxy.imgfo.com/?referer=https://manganelo.com&url=https://s7.mkklcdnv6temp.com/mangakakalot/a1/anata_to_senya_ichiya/vol2_chapter_12/4.jpg",
    "https://img-proxy.imgfo.com/?referer=https://manganelo.com&url=https://s7.mkklcdnv6temp.com/mangakakalot/a1/anata_to_senya_ichiya/vol2_chapter_12/5.jpg",
    "https://img-proxy.imgfo.com/?referer=https://manganelo.com&url=https://s7.mkklcdnv6temp.com/mangakakalot/a1/anata_to_senya_ichiya/vol2_chapter_12/6.jpg",
    "https://img-proxy.imgfo.com/?referer=https://manganelo.com&url=https://s7.mkklcdnv6temp.com/mangakakalot/a1/anata_to_senya_ichiya/vol2_chapter_12/7.jpg",
    "https://img-proxy.imgfo.com/?referer=https://manganelo.com&url=https://s7.mkklcdnv6temp.com/mangakakalot/a1/anata_to_senya_ichiya/vol2_chapter_12/8.jpg",
    "https://img-proxy.imgfo.com/?referer=https://manganelo.com&url=https://s7.mkklcdnv6temp.com/mangakakalot/a1/anata_to_senya_ichiya/vol2_chapter_12/9.jpg",
    "https://img-proxy.imgfo.com/?referer=https://manganelo.com&url=https://s7.mkklcdnv6temp.com/mangakakalot/a1/anata_to_senya_ichiya/vol2_chapter_12/10.jpg",
    "https://img-proxy.imgfo.com/?referer=https://manganelo.com&url=https://s7.mkklcdnv6temp.com/mangakakalot/a1/anata_to_senya_ichiya/vol2_chapter_12/11.jpg",
    "https://img-proxy.imgfo.com/?referer=https://manganelo.com&url=https://s7.mkklcdnv6temp.com/mangakakalot/a1/anata_to_senya_ichiya/vol2_chapter_12/12.jpg",
    "https://img-proxy.imgfo.com/?referer=https://manganelo.com&url=https://s7.mkklcdnv6temp.com/mangakakalot/a1/anata_to_senya_ichiya/vol2_chapter_12/13.jpg",
    "https://img-proxy.imgfo.com/?referer=https://manganelo.com&url=https://s7.mkklcdnv6temp.com/mangakakalot/a1/anata_to_senya_ichiya/vol2_chapter_12/14.jpg",
    "https://img-proxy.imgfo.com/?referer=https://manganelo.com&url=https://s7.mkklcdnv6temp.com/mangakakalot/a1/anata_to_senya_ichiya/vol2_chapter_12/15.jpg",
    "https://img-proxy.imgfo.com/?referer=https://manganelo.com&url=https://s7.mkklcdnv6temp.com/mangakakalot/a1/anata_to_senya_ichiya/vol2_chapter_12/16.jpg",
    "https://img-proxy.imgfo.com/?referer=https://manganelo.com&url=https://s7.mkklcdnv6temp.com/mangakakalot/a1/anata_to_senya_ichiya/vol2_chapter_12/17.jpg",
    "https://img-proxy.imgfo.com/?referer=https://manganelo.com&url=https://s7.mkklcdnv6temp.com/mangakakalot/a1/anata_to_senya_ichiya/vol2_chapter_12/18.jpg",
    "https://img-proxy.imgfo.com/?referer=https://manganelo.com&url=https://s7.mkklcdnv6temp.com/mangakakalot/a1/anata_to_senya_ichiya/vol2_chapter_12/19.jpg",
    "https://img-proxy.imgfo.com/?referer=https://manganelo.com&url=https://s7.mkklcdnv6temp.com/mangakakalot/a1/anata_to_senya_ichiya/vol2_chapter_12/20.jpg",
    "https://img-proxy.imgfo.com/?referer=https://manganelo.com&url=https://s7.mkklcdnv6temp.com/mangakakalot/a1/anata_to_senya_ichiya/vol2_chapter_12/21.jpg",
    "https://img-proxy.imgfo.com/?referer=https://manganelo.com&url=https://s7.mkklcdnv6temp.com/mangakakalot/a1/anata_to_senya_ichiya/vol2_chapter_12/22.jpg",
    "https://img-proxy.imgfo.com/?referer=https://manganelo.com&url=https://s7.mkklcdnv6temp.com/mangakakalot/a1/anata_to_senya_ichiya/vol2_chapter_12/23.jpg",
    "https://img-proxy.imgfo.com/?referer=https://manganelo.com&url=https://s7.mkklcdnv6temp.com/mangakakalot/a1/anata_to_senya_ichiya/vol2_chapter_12/24.jpg",
    "https://img-proxy.imgfo.com/?referer=https://manganelo.com&url=https://s7.mkklcdnv6temp.com/mangakakalot/a1/anata_to_senya_ichiya/vol2_chapter_12/25.jpg",
    "https://img-proxy.imgfo.com/?referer=https://manganelo.com&url=https://s7.mkklcdnv6temp.com/mangakakalot/a1/anata_to_senya_ichiya/vol2_chapter_12/26.jpg",
    "https://img-proxy.imgfo.com/?referer=https://manganelo.com&url=https://s7.mkklcdnv6temp.com/mangakakalot/a1/anata_to_senya_ichiya/vol2_chapter_12/27.jpg",
    "https://img-proxy.imgfo.com/?referer=https://manganelo.com&url=https://s7.mkklcdnv6temp.com/mangakakalot/a1/anata_to_senya_ichiya/vol2_chapter_12/28.jpg",
    "https://img-proxy.imgfo.com/?referer=https://manganelo.com&url=https://s7.mkklcdnv6temp.com/mangakakalot/a1/anata_to_senya_ichiya/vol2_chapter_12/29.jpg",
    "https://img-proxy.imgfo.com/?referer=https://manganelo.com&url=https://s7.mkklcdnv6temp.com/mangakakalot/a1/anata_to_senya_ichiya/vol2_chapter_12/30.jpg",
    "https://img-proxy.imgfo.com/?referer=https://manganelo.com&url=https://s7.mkklcdnv6temp.com/mangakakalot/a1/anata_to_senya_ichiya/vol2_chapter_12/31.jpg",
    "https://img-proxy.imgfo.com/?referer=https://manganelo.com&url=https://s7.mkklcdnv6temp.com/mangakakalot/a1/anata_to_senya_ichiya/vol2_chapter_12/32.jpg",
    "https://img-proxy.imgfo.com/?referer=https://manganelo.com&url=https://s7.mkklcdnv6temp.com/mangakakalot/a1/anata_to_senya_ichiya/vol2_chapter_12/33.jpg",
    "https://img-proxy.imgfo.com/?referer=https://manganelo.com&url=https://s7.mkklcdnv6temp.com/mangakakalot/a1/anata_to_senya_ichiya/vol2_chapter_12/34.jpg",
    "https://img-proxy.imgfo.com/?referer=https://manganelo.com&url=https://s7.mkklcdnv6temp.com/mangakakalot/a1/anata_to_senya_ichiya/vol2_chapter_12/35.jpg",
    "https://img-proxy.imgfo.com/?referer=https://manganelo.com&url=https://s7.mkklcdnv6temp.com/mangakakalot/a1/anata_to_senya_ichiya/vol2_chapter_12/36.jpg"
  ]
}