{
  "cover": "https://avt.mkklcdnv6.com/35/p/2-1583467067.jpg",
  "title": "Yugami-Kun Ni Wa Tomodachi Ga Inai",
  "original": "汤神君没有朋友 ; 湯神くんには友達がいない ; He Does Not Have Any Friends ; Yugami-kun Doesn't Have Any Friends ; Yugami-kun ni ha Tomodachi ga Inai ; Yugami-kun niha Tomodachi ga Inai ; Yugami-kun niwa Tomodachi ga Inai",
  "genre": "Comedy, Romance, School life, Shounen, Slice of life, Manga",
  "author": "Sakura Jun",
  "status": "Completed",
  "backlink": "https://manganu.com/collections/sakura-jun/yugami-kun-ni-wa-tomodachi-ga-inai/",
  "description": "The story of the comedy manga revolves around Yūji Yugami and Chihiro Watanuki, who sit next to each other in class. Unfortunately for the transfer student Chihiro, Yūji is weird... extremely weird. Even though he&#39;s the ace of the baseball club, he hasn&#39;t adapted to the club at all. He also stands apart from the rest of the class, but seems completely satisfied with being alone.",
  "language": "English",
  "images": [
    "https://img-proxy.imgfo.com/?referer=https://manganelo.com&url=https://s6.mkklcdnv6temp.com/mangakakalot/y2/yugamikun_ni_wa_tomodachi_ga_inai/vol10_chapter_49_watanukisan_cant_gather/1.jpg",
    "https://img-proxy.imgfo.com/?referer=https://manganelo.com&url=https://s6.mkklcdnv6temp.com/mangakakalot/y2/yugamikun_ni_wa_tomodachi_ga_inai/vol10_chapter_49_watanukisan_cant_gather/2.jpg",
    "https://img-proxy.imgfo.com/?referer=https://manganelo.com&url=https://s6.mkklcdnv6temp.com/mangakakalot/y2/yugamikun_ni_wa_tomodachi_ga_inai/vol10_chapter_49_watanukisan_cant_gather/3.jpg",
    "https://img-proxy.imgfo.com/?referer=https://manganelo.com&url=https://s6.mkklcdnv6temp.com/mangakakalot/y2/yugamikun_ni_wa_tomodachi_ga_inai/vol10_chapter_49_watanukisan_cant_gather/4.jpg",
    "https://img-proxy.imgfo.com/?referer=https://manganelo.com&url=https://s6.mkklcdnv6temp.com/mangakakalot/y2/yugamikun_ni_wa_tomodachi_ga_inai/vol10_chapter_49_watanukisan_cant_gather/5.jpg",
    "https://img-proxy.imgfo.com/?referer=https://manganelo.com&url=https://s6.mkklcdnv6temp.com/mangakakalot/y2/yugamikun_ni_wa_tomodachi_ga_inai/vol10_chapter_49_watanukisan_cant_gather/6.jpg",
    "https://img-proxy.imgfo.com/?referer=https://manganelo.com&url=https://s6.mkklcdnv6temp.com/mangakakalot/y2/yugamikun_ni_wa_tomodachi_ga_inai/vol10_chapter_49_watanukisan_cant_gather/7.jpg",
    "https://img-proxy.imgfo.com/?referer=https://manganelo.com&url=https://s6.mkklcdnv6temp.com/mangakakalot/y2/yugamikun_ni_wa_tomodachi_ga_inai/vol10_chapter_49_watanukisan_cant_gather/8.jpg",
    "https://img-proxy.imgfo.com/?referer=https://manganelo.com&url=https://s6.mkklcdnv6temp.com/mangakakalot/y2/yugamikun_ni_wa_tomodachi_ga_inai/vol10_chapter_49_watanukisan_cant_gather/9.jpg",
    "https://img-proxy.imgfo.com/?referer=https://manganelo.com&url=https://s6.mkklcdnv6temp.com/mangakakalot/y2/yugamikun_ni_wa_tomodachi_ga_inai/vol10_chapter_49_watanukisan_cant_gather/10.jpg",
    "https://img-proxy.imgfo.com/?referer=https://manganelo.com&url=https://s6.mkklcdnv6temp.com/mangakakalot/y2/yugamikun_ni_wa_tomodachi_ga_inai/vol10_chapter_49_watanukisan_cant_gather/11.jpg",
    "https://img-proxy.imgfo.com/?referer=https://manganelo.com&url=https://s6.mkklcdnv6temp.com/mangakakalot/y2/yugamikun_ni_wa_tomodachi_ga_inai/vol10_chapter_49_watanukisan_cant_gather/12.jpg",
    "https://img-proxy.imgfo.com/?referer=https://manganelo.com&url=https://s6.mkklcdnv6temp.com/mangakakalot/y2/yugamikun_ni_wa_tomodachi_ga_inai/vol10_chapter_49_watanukisan_cant_gather/13.jpg",
    "https://img-proxy.imgfo.com/?referer=https://manganelo.com&url=https://s6.mkklcdnv6temp.com/mangakakalot/y2/yugamikun_ni_wa_tomodachi_ga_inai/vol10_chapter_49_watanukisan_cant_gather/14.jpg",
    "https://img-proxy.imgfo.com/?referer=https://manganelo.com&url=https://s6.mkklcdnv6temp.com/mangakakalot/y2/yugamikun_ni_wa_tomodachi_ga_inai/vol10_chapter_49_watanukisan_cant_gather/15.jpg",
    "https://img-proxy.imgfo.com/?referer=https://manganelo.com&url=https://s6.mkklcdnv6temp.com/mangakakalot/y2/yugamikun_ni_wa_tomodachi_ga_inai/vol10_chapter_49_watanukisan_cant_gather/16.jpg",
    "https://img-proxy.imgfo.com/?referer=https://manganelo.com&url=https://s6.mkklcdnv6temp.com/mangakakalot/y2/yugamikun_ni_wa_tomodachi_ga_inai/vol10_chapter_49_watanukisan_cant_gather/17.jpg",
    "https://img-proxy.imgfo.com/?referer=https://manganelo.com&url=https://s6.mkklcdnv6temp.com/mangakakalot/y2/yugamikun_ni_wa_tomodachi_ga_inai/vol10_chapter_49_watanukisan_cant_gather/18.jpg",
    "https://img-proxy.imgfo.com/?referer=https://manganelo.com&url=https://s6.mkklcdnv6temp.com/mangakakalot/y2/yugamikun_ni_wa_tomodachi_ga_inai/vol10_chapter_49_watanukisan_cant_gather/19.jpg",
    "https://img-proxy.imgfo.com/?referer=https://manganelo.com&url=https://s6.mkklcdnv6temp.com/mangakakalot/y2/yugamikun_ni_wa_tomodachi_ga_inai/vol10_chapter_49_watanukisan_cant_gather/20.jpg",
    "https://img-proxy.imgfo.com/?referer=https://manganelo.com&url=https://s6.mkklcdnv6temp.com/mangakakalot/y2/yugamikun_ni_wa_tomodachi_ga_inai/vol10_chapter_49_watanukisan_cant_gather/21.jpg",
    "https://img-proxy.imgfo.com/?referer=https://manganelo.com&url=https://s6.mkklcdnv6temp.com/mangakakalot/y2/yugamikun_ni_wa_tomodachi_ga_inai/vol10_chapter_49_watanukisan_cant_gather/22.jpg",
    "https://img-proxy.imgfo.com/?referer=https://manganelo.com&url=https://s6.mkklcdnv6temp.com/mangakakalot/y2/yugamikun_ni_wa_tomodachi_ga_inai/vol10_chapter_49_watanukisan_cant_gather/23.jpg",
    "https://img-proxy.imgfo.com/?referer=https://manganelo.com&url=https://s6.mkklcdnv6temp.com/mangakakalot/y2/yugamikun_ni_wa_tomodachi_ga_inai/vol10_chapter_49_watanukisan_cant_gather/24.jpg",
    "https://img-proxy.imgfo.com/?referer=https://manganelo.com&url=https://s6.mkklcdnv6temp.com/mangakakalot/y2/yugamikun_ni_wa_tomodachi_ga_inai/vol10_chapter_49_watanukisan_cant_gather/25.jpg",
    "https://img-proxy.imgfo.com/?referer=https://manganelo.com&url=https://s6.mkklcdnv6temp.com/mangakakalot/y2/yugamikun_ni_wa_tomodachi_ga_inai/vol10_chapter_49_watanukisan_cant_gather/26.jpg",
    "https://img-proxy.imgfo.com/?referer=https://manganelo.com&url=https://s6.mkklcdnv6temp.com/mangakakalot/y2/yugamikun_ni_wa_tomodachi_ga_inai/vol10_chapter_49_watanukisan_cant_gather/27.jpg",
    "https://img-proxy.imgfo.com/?referer=https://manganelo.com&url=https://s6.mkklcdnv6temp.com/mangakakalot/y2/yugamikun_ni_wa_tomodachi_ga_inai/vol10_chapter_49_watanukisan_cant_gather/28.jpg",
    "https://img-proxy.imgfo.com/?referer=https://manganelo.com&url=https://s6.mkklcdnv6temp.com/mangakakalot/y2/yugamikun_ni_wa_tomodachi_ga_inai/vol10_chapter_49_watanukisan_cant_gather/29.jpg",
    "https://img-proxy.imgfo.com/?referer=https://manganelo.com&url=https://s6.mkklcdnv6temp.com/mangakakalot/y2/yugamikun_ni_wa_tomodachi_ga_inai/vol10_chapter_49_watanukisan_cant_gather/30.jpg"
  ]
}