{
  "cover": "https://avt.mkklcdnv6.com/1/g/8-1583480144.jpg",
  "title": "Under Grand Hotel",
  "original": "アンダーグランドホテル ; UGH ; Under Grand Hotel Hi no Ataru Basho ; Under Grand Hotel Toraware no Shirushi ; Under Ground Grand Hotel ; Undergound Hotel ; Undergrand Hotel",
  "genre": "Adult, Drama, Mature, Smut, Yaoi, Manga",
  "author": "Sadahiro Mika",
  "status": "Completed",
  "backlink": "https://manganu.com/collections/sadahiro-mika/under-grand-hotel/",
  "description": "Under Grand Hotel is the inmate&#39;s name for a prison in the US. Sen is a Japanese guy who has been imprisoned after killing his lover&#39;s husband. Sword Fish is the leader of the prison. Sen needs Sword&#39;s protection, but can a love story work in a prison?",
  "language": "English",
  "images": [
    "https://img-proxy.imgfo.com/?referer=https://manganelo.com&url=https://s3.mkklcdnv6temp.com/mangakakalot/u1/under_grand_hotel/vol02_chapter_4_round_11_revelations/1.jpg",
    "https://img-proxy.imgfo.com/?referer=https://manganelo.com&url=https://s3.mkklcdnv6temp.com/mangakakalot/u1/under_grand_hotel/vol02_chapter_4_round_11_revelations/2.jpg",
    "https://img-proxy.imgfo.com/?referer=https://manganelo.com&url=https://s3.mkklcdnv6temp.com/mangakakalot/u1/under_grand_hotel/vol02_chapter_4_round_11_revelations/3.jpg",
    "https://img-proxy.imgfo.com/?referer=https://manganelo.com&url=https://s3.mkklcdnv6temp.com/mangakakalot/u1/under_grand_hotel/vol02_chapter_4_round_11_revelations/4.jpg",
    "https://img-proxy.imgfo.com/?referer=https://manganelo.com&url=https://s3.mkklcdnv6temp.com/mangakakalot/u1/under_grand_hotel/vol02_chapter_4_round_11_revelations/5.jpg",
    "https://img-proxy.imgfo.com/?referer=https://manganelo.com&url=https://s3.mkklcdnv6temp.com/mangakakalot/u1/under_grand_hotel/vol02_chapter_4_round_11_revelations/6.jpg",
    "https://img-proxy.imgfo.com/?referer=https://manganelo.com&url=https://s3.mkklcdnv6temp.com/mangakakalot/u1/under_grand_hotel/vol02_chapter_4_round_11_revelations/7.jpg",
    "https://img-proxy.imgfo.com/?referer=https://manganelo.com&url=https://s3.mkklcdnv6temp.com/mangakakalot/u1/under_grand_hotel/vol02_chapter_4_round_11_revelations/8.jpg",
    "https://img-proxy.imgfo.com/?referer=https://manganelo.com&url=https://s3.mkklcdnv6temp.com/mangakakalot/u1/under_grand_hotel/vol02_chapter_4_round_11_revelations/9.jpg",
    "https://img-proxy.imgfo.com/?referer=https://manganelo.com&url=https://s3.mkklcdnv6temp.com/mangakakalot/u1/under_grand_hotel/vol02_chapter_4_round_11_revelations/10.jpg",
    "https://img-proxy.imgfo.com/?referer=https://manganelo.com&url=https://s3.mkklcdnv6temp.com/mangakakalot/u1/under_grand_hotel/vol02_chapter_4_round_11_revelations/11.jpg",
    "https://img-proxy.imgfo.com/?referer=https://manganelo.com&url=https://s3.mkklcdnv6temp.com/mangakakalot/u1/under_grand_hotel/vol02_chapter_4_round_11_revelations/12.jpg",
    "https://img-proxy.imgfo.com/?referer=https://manganelo.com&url=https://s3.mkklcdnv6temp.com/mangakakalot/u1/under_grand_hotel/vol02_chapter_4_round_11_revelations/13.jpg",
    "https://img-proxy.imgfo.com/?referer=https://manganelo.com&url=https://s3.mkklcdnv6temp.com/mangakakalot/u1/under_grand_hotel/vol02_chapter_4_round_11_revelations/14.jpg",
    "https://img-proxy.imgfo.com/?referer=https://manganelo.com&url=https://s3.mkklcdnv6temp.com/mangakakalot/u1/under_grand_hotel/vol02_chapter_4_round_11_revelations/15.jpg",
    "https://img-proxy.imgfo.com/?referer=https://manganelo.com&url=https://s3.mkklcdnv6temp.com/mangakakalot/u1/under_grand_hotel/vol02_chapter_4_round_11_revelations/16.jpg",
    "https://img-proxy.imgfo.com/?referer=https://manganelo.com&url=https://s3.mkklcdnv6temp.com/mangakakalot/u1/under_grand_hotel/vol02_chapter_4_round_11_revelations/17.jpg",
    "https://img-proxy.imgfo.com/?referer=https://manganelo.com&url=https://s3.mkklcdnv6temp.com/mangakakalot/u1/under_grand_hotel/vol02_chapter_4_round_11_revelations/18.jpg",
    "https://img-proxy.imgfo.com/?referer=https://manganelo.com&url=https://s3.mkklcdnv6temp.com/mangakakalot/u1/under_grand_hotel/vol02_chapter_4_round_11_revelations/19.jpg",
    "https://img-proxy.imgfo.com/?referer=https://manganelo.com&url=https://s3.mkklcdnv6temp.com/mangakakalot/u1/under_grand_hotel/vol02_chapter_4_round_11_revelations/20.jpg",
    "https://img-proxy.imgfo.com/?referer=https://manganelo.com&url=https://s3.mkklcdnv6temp.com/mangakakalot/u1/under_grand_hotel/vol02_chapter_4_round_11_revelations/21.jpg",
    "https://img-proxy.imgfo.com/?referer=https://manganelo.com&url=https://s3.mkklcdnv6temp.com/mangakakalot/u1/under_grand_hotel/vol02_chapter_4_round_11_revelations/22.jpg",
    "https://img-proxy.imgfo.com/?referer=https://manganelo.com&url=https://s3.mkklcdnv6temp.com/mangakakalot/u1/under_grand_hotel/vol02_chapter_4_round_11_revelations/23.jpg",
    "https://img-proxy.imgfo.com/?referer=https://manganelo.com&url=https://s3.mkklcdnv6temp.com/mangakakalot/u1/under_grand_hotel/vol02_chapter_4_round_11_revelations/24.jpg",
    "https://img-proxy.imgfo.com/?referer=https://manganelo.com&url=https://s3.mkklcdnv6temp.com/mangakakalot/u1/under_grand_hotel/vol02_chapter_4_round_11_revelations/25.jpg",
    "https://img-proxy.imgfo.com/?referer=https://manganelo.com&url=https://s3.mkklcdnv6temp.com/mangakakalot/u1/under_grand_hotel/vol02_chapter_4_round_11_revelations/26.jpg",
    "https://img-proxy.imgfo.com/?referer=https://manganelo.com&url=https://s3.mkklcdnv6temp.com/mangakakalot/u1/under_grand_hotel/vol02_chapter_4_round_11_revelations/27.jpg",
    "https://img-proxy.imgfo.com/?referer=https://manganelo.com&url=https://s3.mkklcdnv6temp.com/mangakakalot/u1/under_grand_hotel/vol02_chapter_4_round_11_revelations/28.jpg",
    "https://img-proxy.imgfo.com/?referer=https://manganelo.com&url=https://s3.mkklcdnv6temp.com/mangakakalot/u1/under_grand_hotel/vol02_chapter_4_round_11_revelations/29.jpg",
    "https://img-proxy.imgfo.com/?referer=https://manganelo.com&url=https://s3.mkklcdnv6temp.com/mangakakalot/u1/under_grand_hotel/vol02_chapter_4_round_11_revelations/30.jpg",
    "https://img-proxy.imgfo.com/?referer=https://manganelo.com&url=https://s3.mkklcdnv6temp.com/mangakakalot/u1/under_grand_hotel/vol02_chapter_4_round_11_revelations/31.jpg",
    "https://img-proxy.imgfo.com/?referer=https://manganelo.com&url=https://s3.mkklcdnv6temp.com/mangakakalot/u1/under_grand_hotel/vol02_chapter_4_round_11_revelations/32.jpg",
    "https://img-proxy.imgfo.com/?referer=https://manganelo.com&url=https://s3.mkklcdnv6temp.com/mangakakalot/u1/under_grand_hotel/vol02_chapter_4_round_11_revelations/33.jpg"
  ]
}