{
  "cover": "https://avt.mkklcdnv6.com/9/h/16-1583493808.jpg",
  "title": "Kuroko No Basket",
  "original": "黑子的篮球 ; 黑子的籃球 ; 黒子のバスケ ; 黒子のBASKET ; 쿠로코의 농구 ; Kuroko no Basket ; Kuroko Tuyển thủ vô hình ; Kuroko's Basket ; Kuroko's Basket Ball ; The Basketball which Kuroko Plays ; Kuroko no Basuke",
  "genre": "Comedy, Drama, School life, Shounen, Slice of life, Sports, Supernatural, Manga",
  "author": "Fujimaki Tadatoshi",
  "status": "Completed",
  "backlink": "https://manganu.com/collections/fujimaki-tadatoshi/kuroko-no-basket/",
  "description": "Kuroko is a member from the legendary middle school basketball team known as \"The Generation of Miracles \", and while nobody seems to know about him, the main 5 players of the team all admit that he is a better player. When he joins the high school basketball team, everyone is surprised to find out that he is small, weak, and easy to miss. What is the secret that makes him so strong, and how will he help his high school team?\n-Nins Leprechaun\n{Correction from Silvermagic}",
  "language": "English",
  "images": [
    "https://img-proxy.imgfo.com/?referer=https://manganelo.com&url=https://s41.mkklcdnv6temp.com/mangakakalot/k2/kuroko_no_basket/vol20_chapter_209_you_can_do_it/1.jpg",
    "https://img-proxy.imgfo.com/?referer=https://manganelo.com&url=https://s41.mkklcdnv6temp.com/mangakakalot/k2/kuroko_no_basket/vol20_chapter_209_you_can_do_it/2.jpg",
    "https://img-proxy.imgfo.com/?referer=https://manganelo.com&url=https://s41.mkklcdnv6temp.com/mangakakalot/k2/kuroko_no_basket/vol20_chapter_209_you_can_do_it/3.jpg",
    "https://img-proxy.imgfo.com/?referer=https://manganelo.com&url=https://s41.mkklcdnv6temp.com/mangakakalot/k2/kuroko_no_basket/vol20_chapter_209_you_can_do_it/4.jpg",
    "https://img-proxy.imgfo.com/?referer=https://manganelo.com&url=https://s41.mkklcdnv6temp.com/mangakakalot/k2/kuroko_no_basket/vol20_chapter_209_you_can_do_it/5.jpg",
    "https://img-proxy.imgfo.com/?referer=https://manganelo.com&url=https://s41.mkklcdnv6temp.com/mangakakalot/k2/kuroko_no_basket/vol20_chapter_209_you_can_do_it/6.jpg",
    "https://img-proxy.imgfo.com/?referer=https://manganelo.com&url=https://s41.mkklcdnv6temp.com/mangakakalot/k2/kuroko_no_basket/vol20_chapter_209_you_can_do_it/7.jpg",
    "https://img-proxy.imgfo.com/?referer=https://manganelo.com&url=https://s41.mkklcdnv6temp.com/mangakakalot/k2/kuroko_no_basket/vol20_chapter_209_you_can_do_it/8.jpg",
    "https://img-proxy.imgfo.com/?referer=https://manganelo.com&url=https://s41.mkklcdnv6temp.com/mangakakalot/k2/kuroko_no_basket/vol20_chapter_209_you_can_do_it/9.jpg",
    "https://img-proxy.imgfo.com/?referer=https://manganelo.com&url=https://s41.mkklcdnv6temp.com/mangakakalot/k2/kuroko_no_basket/vol20_chapter_209_you_can_do_it/10.jpg",
    "https://img-proxy.imgfo.com/?referer=https://manganelo.com&url=https://s41.mkklcdnv6temp.com/mangakakalot/k2/kuroko_no_basket/vol20_chapter_209_you_can_do_it/11.jpg",
    "https://img-proxy.imgfo.com/?referer=https://manganelo.com&url=https://s41.mkklcdnv6temp.com/mangakakalot/k2/kuroko_no_basket/vol20_chapter_209_you_can_do_it/12.jpg",
    "https://img-proxy.imgfo.com/?referer=https://manganelo.com&url=https://s41.mkklcdnv6temp.com/mangakakalot/k2/kuroko_no_basket/vol20_chapter_209_you_can_do_it/13.jpg",
    "https://img-proxy.imgfo.com/?referer=https://manganelo.com&url=https://s41.mkklcdnv6temp.com/mangakakalot/k2/kuroko_no_basket/vol20_chapter_209_you_can_do_it/14.jpg",
    "https://img-proxy.imgfo.com/?referer=https://manganelo.com&url=https://s41.mkklcdnv6temp.com/mangakakalot/k2/kuroko_no_basket/vol20_chapter_209_you_can_do_it/15.jpg",
    "https://img-proxy.imgfo.com/?referer=https://manganelo.com&url=https://s41.mkklcdnv6temp.com/mangakakalot/k2/kuroko_no_basket/vol20_chapter_209_you_can_do_it/16.jpg",
    "https://img-proxy.imgfo.com/?referer=https://manganelo.com&url=https://s41.mkklcdnv6temp.com/mangakakalot/k2/kuroko_no_basket/vol20_chapter_209_you_can_do_it/17.jpg",
    "https://img-proxy.imgfo.com/?referer=https://manganelo.com&url=https://s41.mkklcdnv6temp.com/mangakakalot/k2/kuroko_no_basket/vol20_chapter_209_you_can_do_it/18.jpg",
    "https://img-proxy.imgfo.com/?referer=https://manganelo.com&url=https://s41.mkklcdnv6temp.com/mangakakalot/k2/kuroko_no_basket/vol20_chapter_209_you_can_do_it/19.jpg",
    "https://img-proxy.imgfo.com/?referer=https://manganelo.com&url=https://s41.mkklcdnv6temp.com/mangakakalot/k2/kuroko_no_basket/vol20_chapter_209_you_can_do_it/20.jpg",
    "https://img-proxy.imgfo.com/?referer=https://manganelo.com&url=https://s41.mkklcdnv6temp.com/mangakakalot/k2/kuroko_no_basket/vol20_chapter_209_you_can_do_it/21.jpg"
  ]
}