{
  "cover": "https://avt.mkklcdnv6.com/9/h/16-1583493808.jpg",
  "title": "Kuroko No Basket",
  "original": "黑子的篮球 ; 黑子的籃球 ; 黒子のバスケ ; 黒子のBASKET ; 쿠로코의 농구 ; Kuroko no Basket ; Kuroko Tuyển thủ vô hình ; Kuroko's Basket ; Kuroko's Basket Ball ; The Basketball which Kuroko Plays ; Kuroko no Basuke",
  "genre": "Comedy, Drama, School life, Shounen, Slice of life, Sports, Supernatural, Manga",
  "author": "Fujimaki Tadatoshi",
  "status": "Completed",
  "backlink": "https://manganu.com/collections/fujimaki-tadatoshi/kuroko-no-basket/",
  "description": "Kuroko is a member from the legendary middle school basketball team known as \"The Generation of Miracles \", and while nobody seems to know about him, the main 5 players of the team all admit that he is a better player. When he joins the high school basketball team, everyone is surprised to find out that he is small, weak, and easy to miss. What is the secret that makes him so strong, and how will he help his high school team?\n-Nins Leprechaun\n{Correction from Silvermagic}",
  "language": "English",
  "images": [
    "https://img-proxy.imgfo.com/?referer=https://manganelo.com&url=https://s41.mkklcdnv6temp.com/mangakakalot/k2/kuroko_no_basket/vol01_chapter_001_i_am_kuroko/1.jpg",
    "https://img-proxy.imgfo.com/?referer=https://manganelo.com&url=https://s41.mkklcdnv6temp.com/mangakakalot/k2/kuroko_no_basket/vol01_chapter_001_i_am_kuroko/2.jpg",
    "https://img-proxy.imgfo.com/?referer=https://manganelo.com&url=https://s41.mkklcdnv6temp.com/mangakakalot/k2/kuroko_no_basket/vol01_chapter_001_i_am_kuroko/3.jpg",
    "https://img-proxy.imgfo.com/?referer=https://manganelo.com&url=https://s41.mkklcdnv6temp.com/mangakakalot/k2/kuroko_no_basket/vol01_chapter_001_i_am_kuroko/4.jpg",
    "https://img-proxy.imgfo.com/?referer=https://manganelo.com&url=https://s41.mkklcdnv6temp.com/mangakakalot/k2/kuroko_no_basket/vol01_chapter_001_i_am_kuroko/5.jpg",
    "https://img-proxy.imgfo.com/?referer=https://manganelo.com&url=https://s41.mkklcdnv6temp.com/mangakakalot/k2/kuroko_no_basket/vol01_chapter_001_i_am_kuroko/6.jpg",
    "https://img-proxy.imgfo.com/?referer=https://manganelo.com&url=https://s41.mkklcdnv6temp.com/mangakakalot/k2/kuroko_no_basket/vol01_chapter_001_i_am_kuroko/7.jpg",
    "https://img-proxy.imgfo.com/?referer=https://manganelo.com&url=https://s41.mkklcdnv6temp.com/mangakakalot/k2/kuroko_no_basket/vol01_chapter_001_i_am_kuroko/8.jpg",
    "https://img-proxy.imgfo.com/?referer=https://manganelo.com&url=https://s41.mkklcdnv6temp.com/mangakakalot/k2/kuroko_no_basket/vol01_chapter_001_i_am_kuroko/9.jpg",
    "https://img-proxy.imgfo.com/?referer=https://manganelo.com&url=https://s41.mkklcdnv6temp.com/mangakakalot/k2/kuroko_no_basket/vol01_chapter_001_i_am_kuroko/10.jpg",
    "https://img-proxy.imgfo.com/?referer=https://manganelo.com&url=https://s41.mkklcdnv6temp.com/mangakakalot/k2/kuroko_no_basket/vol01_chapter_001_i_am_kuroko/11.jpg",
    "https://img-proxy.imgfo.com/?referer=https://manganelo.com&url=https://s41.mkklcdnv6temp.com/mangakakalot/k2/kuroko_no_basket/vol01_chapter_001_i_am_kuroko/12.jpg",
    "https://img-proxy.imgfo.com/?referer=https://manganelo.com&url=https://s41.mkklcdnv6temp.com/mangakakalot/k2/kuroko_no_basket/vol01_chapter_001_i_am_kuroko/13.jpg",
    "https://img-proxy.imgfo.com/?referer=https://manganelo.com&url=https://s41.mkklcdnv6temp.com/mangakakalot/k2/kuroko_no_basket/vol01_chapter_001_i_am_kuroko/14.jpg",
    "https://img-proxy.imgfo.com/?referer=https://manganelo.com&url=https://s41.mkklcdnv6temp.com/mangakakalot/k2/kuroko_no_basket/vol01_chapter_001_i_am_kuroko/15.jpg",
    "https://img-proxy.imgfo.com/?referer=https://manganelo.com&url=https://s41.mkklcdnv6temp.com/mangakakalot/k2/kuroko_no_basket/vol01_chapter_001_i_am_kuroko/16.jpg",
    "https://img-proxy.imgfo.com/?referer=https://manganelo.com&url=https://s41.mkklcdnv6temp.com/mangakakalot/k2/kuroko_no_basket/vol01_chapter_001_i_am_kuroko/17.jpg",
    "https://img-proxy.imgfo.com/?referer=https://manganelo.com&url=https://s41.mkklcdnv6temp.com/mangakakalot/k2/kuroko_no_basket/vol01_chapter_001_i_am_kuroko/18.jpg",
    "https://img-proxy.imgfo.com/?referer=https://manganelo.com&url=https://s41.mkklcdnv6temp.com/mangakakalot/k2/kuroko_no_basket/vol01_chapter_001_i_am_kuroko/19.jpg",
    "https://img-proxy.imgfo.com/?referer=https://manganelo.com&url=https://s41.mkklcdnv6temp.com/mangakakalot/k2/kuroko_no_basket/vol01_chapter_001_i_am_kuroko/20.jpg",
    "https://img-proxy.imgfo.com/?referer=https://manganelo.com&url=https://s41.mkklcdnv6temp.com/mangakakalot/k2/kuroko_no_basket/vol01_chapter_001_i_am_kuroko/21.jpg",
    "https://img-proxy.imgfo.com/?referer=https://manganelo.com&url=https://s41.mkklcdnv6temp.com/mangakakalot/k2/kuroko_no_basket/vol01_chapter_001_i_am_kuroko/22.jpg",
    "https://img-proxy.imgfo.com/?referer=https://manganelo.com&url=https://s41.mkklcdnv6temp.com/mangakakalot/k2/kuroko_no_basket/vol01_chapter_001_i_am_kuroko/23.jpg",
    "https://img-proxy.imgfo.com/?referer=https://manganelo.com&url=https://s41.mkklcdnv6temp.com/mangakakalot/k2/kuroko_no_basket/vol01_chapter_001_i_am_kuroko/24.jpg",
    "https://img-proxy.imgfo.com/?referer=https://manganelo.com&url=https://s41.mkklcdnv6temp.com/mangakakalot/k2/kuroko_no_basket/vol01_chapter_001_i_am_kuroko/25.jpg",
    "https://img-proxy.imgfo.com/?referer=https://manganelo.com&url=https://s41.mkklcdnv6temp.com/mangakakalot/k2/kuroko_no_basket/vol01_chapter_001_i_am_kuroko/26.jpg",
    "https://img-proxy.imgfo.com/?referer=https://manganelo.com&url=https://s41.mkklcdnv6temp.com/mangakakalot/k2/kuroko_no_basket/vol01_chapter_001_i_am_kuroko/27.jpg",
    "https://img-proxy.imgfo.com/?referer=https://manganelo.com&url=https://s41.mkklcdnv6temp.com/mangakakalot/k2/kuroko_no_basket/vol01_chapter_001_i_am_kuroko/28.jpg",
    "https://img-proxy.imgfo.com/?referer=https://manganelo.com&url=https://s41.mkklcdnv6temp.com/mangakakalot/k2/kuroko_no_basket/vol01_chapter_001_i_am_kuroko/29.jpg",
    "https://img-proxy.imgfo.com/?referer=https://manganelo.com&url=https://s41.mkklcdnv6temp.com/mangakakalot/k2/kuroko_no_basket/vol01_chapter_001_i_am_kuroko/30.jpg",
    "https://img-proxy.imgfo.com/?referer=https://manganelo.com&url=https://s41.mkklcdnv6temp.com/mangakakalot/k2/kuroko_no_basket/vol01_chapter_001_i_am_kuroko/31.jpg",
    "https://img-proxy.imgfo.com/?referer=https://manganelo.com&url=https://s41.mkklcdnv6temp.com/mangakakalot/k2/kuroko_no_basket/vol01_chapter_001_i_am_kuroko/32.jpg",
    "https://img-proxy.imgfo.com/?referer=https://manganelo.com&url=https://s41.mkklcdnv6temp.com/mangakakalot/k2/kuroko_no_basket/vol01_chapter_001_i_am_kuroko/33.jpg",
    "https://img-proxy.imgfo.com/?referer=https://manganelo.com&url=https://s41.mkklcdnv6temp.com/mangakakalot/k2/kuroko_no_basket/vol01_chapter_001_i_am_kuroko/34.jpg",
    "https://img-proxy.imgfo.com/?referer=https://manganelo.com&url=https://s41.mkklcdnv6temp.com/mangakakalot/k2/kuroko_no_basket/vol01_chapter_001_i_am_kuroko/35.jpg",
    "https://img-proxy.imgfo.com/?referer=https://manganelo.com&url=https://s41.mkklcdnv6temp.com/mangakakalot/k2/kuroko_no_basket/vol01_chapter_001_i_am_kuroko/36.jpg",
    "https://img-proxy.imgfo.com/?referer=https://manganelo.com&url=https://s41.mkklcdnv6temp.com/mangakakalot/k2/kuroko_no_basket/vol01_chapter_001_i_am_kuroko/37.jpg",
    "https://img-proxy.imgfo.com/?referer=https://manganelo.com&url=https://s41.mkklcdnv6temp.com/mangakakalot/k2/kuroko_no_basket/vol01_chapter_001_i_am_kuroko/38.jpg",
    "https://img-proxy.imgfo.com/?referer=https://manganelo.com&url=https://s41.mkklcdnv6temp.com/mangakakalot/k2/kuroko_no_basket/vol01_chapter_001_i_am_kuroko/39.jpg",
    "https://img-proxy.imgfo.com/?referer=https://manganelo.com&url=https://s41.mkklcdnv6temp.com/mangakakalot/k2/kuroko_no_basket/vol01_chapter_001_i_am_kuroko/40.jpg",
    "https://img-proxy.imgfo.com/?referer=https://manganelo.com&url=https://s41.mkklcdnv6temp.com/mangakakalot/k2/kuroko_no_basket/vol01_chapter_001_i_am_kuroko/41.jpg",
    "https://img-proxy.imgfo.com/?referer=https://manganelo.com&url=https://s41.mkklcdnv6temp.com/mangakakalot/k2/kuroko_no_basket/vol01_chapter_001_i_am_kuroko/42.jpg",
    "https://img-proxy.imgfo.com/?referer=https://manganelo.com&url=https://s41.mkklcdnv6temp.com/mangakakalot/k2/kuroko_no_basket/vol01_chapter_001_i_am_kuroko/43.jpg",
    "https://img-proxy.imgfo.com/?referer=https://manganelo.com&url=https://s41.mkklcdnv6temp.com/mangakakalot/k2/kuroko_no_basket/vol01_chapter_001_i_am_kuroko/44.jpg",
    "https://img-proxy.imgfo.com/?referer=https://manganelo.com&url=https://s41.mkklcdnv6temp.com/mangakakalot/k2/kuroko_no_basket/vol01_chapter_001_i_am_kuroko/45.jpg",
    "https://img-proxy.imgfo.com/?referer=https://manganelo.com&url=https://s41.mkklcdnv6temp.com/mangakakalot/k2/kuroko_no_basket/vol01_chapter_001_i_am_kuroko/46.jpg",
    "https://img-proxy.imgfo.com/?referer=https://manganelo.com&url=https://s41.mkklcdnv6temp.com/mangakakalot/k2/kuroko_no_basket/vol01_chapter_001_i_am_kuroko/47.jpg",
    "https://img-proxy.imgfo.com/?referer=https://manganelo.com&url=https://s41.mkklcdnv6temp.com/mangakakalot/k2/kuroko_no_basket/vol01_chapter_001_i_am_kuroko/48.jpg",
    "https://img-proxy.imgfo.com/?referer=https://manganelo.com&url=https://s41.mkklcdnv6temp.com/mangakakalot/k2/kuroko_no_basket/vol01_chapter_001_i_am_kuroko/49.jpg",
    "https://img-proxy.imgfo.com/?referer=https://manganelo.com&url=https://s41.mkklcdnv6temp.com/mangakakalot/k2/kuroko_no_basket/vol01_chapter_001_i_am_kuroko/50.jpg",
    "https://img-proxy.imgfo.com/?referer=https://manganelo.com&url=https://s41.mkklcdnv6temp.com/mangakakalot/k2/kuroko_no_basket/vol01_chapter_001_i_am_kuroko/51.jpg",
    "https://img-proxy.imgfo.com/?referer=https://manganelo.com&url=https://s41.mkklcdnv6temp.com/mangakakalot/k2/kuroko_no_basket/vol01_chapter_001_i_am_kuroko/52.jpg",
    "https://img-proxy.imgfo.com/?referer=https://manganelo.com&url=https://s41.mkklcdnv6temp.com/mangakakalot/k2/kuroko_no_basket/vol01_chapter_001_i_am_kuroko/53.jpg",
    "https://img-proxy.imgfo.com/?referer=https://manganelo.com&url=https://s41.mkklcdnv6temp.com/mangakakalot/k2/kuroko_no_basket/vol01_chapter_001_i_am_kuroko/54.jpg",
    "https://img-proxy.imgfo.com/?referer=https://manganelo.com&url=https://s41.mkklcdnv6temp.com/mangakakalot/k2/kuroko_no_basket/vol01_chapter_001_i_am_kuroko/55.jpg",
    "https://img-proxy.imgfo.com/?referer=https://manganelo.com&url=https://s41.mkklcdnv6temp.com/mangakakalot/k2/kuroko_no_basket/vol01_chapter_001_i_am_kuroko/56.jpg"
  ]
}