{
  "cover": "https://avt.mkklcdnv6.com/10/h/4-1583470086.jpg",
  "title": "Ayu Mayu",
  "original": "あゆまゆ ; 爱由真由 ; Mayu ; Ayu and Mayu",
  "genre": "Comedy, Ecchi, Harem, Romance, School life, Shounen, Manga",
  "author": "Shiotarou",
  "status": "Completed",
  "backlink": "https://manganu.com/collections/shiotarou/ayu-mayu/",
  "description": "From [Dynasty-Scan]:\nYousuke and his sister were orphaned at a young age. Yousuke's sister was adopted ten years before the start of the story, since then, he has been looking for her.\nOne day Yousuke found the couple that adopted his sister, the problem is that they have two daughters, Ayu and Mayu, both of which were adopted from the same orphanage and are roughly the same age. Both Ayu and Mayu had an older brother before being adopted.\nThings get more complicated when Yousuke learns that the orphanage where he previously lived was burned down a year earlier, destroying all the records, and that the couple's own records have disappeared. Yousuke must figure out which one of the girls is in fact his sister.",
  "language": "English",
  "images": [
    "https://img-proxy.imgfo.com/?referer=https://manganelo.com&url=https://s5.mkklcdnv6temp.com/mangakakalot/a2/ayu_mayu/vol2_chapter_62_continuation/1.jpg",
    "https://img-proxy.imgfo.com/?referer=https://manganelo.com&url=https://s5.mkklcdnv6temp.com/mangakakalot/a2/ayu_mayu/vol2_chapter_62_continuation/2.jpg",
    "https://img-proxy.imgfo.com/?referer=https://manganelo.com&url=https://s5.mkklcdnv6temp.com/mangakakalot/a2/ayu_mayu/vol2_chapter_62_continuation/3.jpg",
    "https://img-proxy.imgfo.com/?referer=https://manganelo.com&url=https://s5.mkklcdnv6temp.com/mangakakalot/a2/ayu_mayu/vol2_chapter_62_continuation/4.jpg",
    "https://img-proxy.imgfo.com/?referer=https://manganelo.com&url=https://s5.mkklcdnv6temp.com/mangakakalot/a2/ayu_mayu/vol2_chapter_62_continuation/5.jpg",
    "https://img-proxy.imgfo.com/?referer=https://manganelo.com&url=https://s5.mkklcdnv6temp.com/mangakakalot/a2/ayu_mayu/vol2_chapter_62_continuation/6.jpg",
    "https://img-proxy.imgfo.com/?referer=https://manganelo.com&url=https://s5.mkklcdnv6temp.com/mangakakalot/a2/ayu_mayu/vol2_chapter_62_continuation/7.jpg",
    "https://img-proxy.imgfo.com/?referer=https://manganelo.com&url=https://s5.mkklcdnv6temp.com/mangakakalot/a2/ayu_mayu/vol2_chapter_62_continuation/8.jpg",
    "https://img-proxy.imgfo.com/?referer=https://manganelo.com&url=https://s5.mkklcdnv6temp.com/mangakakalot/a2/ayu_mayu/vol2_chapter_62_continuation/9.jpg",
    "https://img-proxy.imgfo.com/?referer=https://manganelo.com&url=https://s5.mkklcdnv6temp.com/mangakakalot/a2/ayu_mayu/vol2_chapter_62_continuation/10.jpg",
    "https://img-proxy.imgfo.com/?referer=https://manganelo.com&url=https://s5.mkklcdnv6temp.com/mangakakalot/a2/ayu_mayu/vol2_chapter_62_continuation/11.jpg",
    "https://img-proxy.imgfo.com/?referer=https://manganelo.com&url=https://s5.mkklcdnv6temp.com/mangakakalot/a2/ayu_mayu/vol2_chapter_62_continuation/12.jpg",
    "https://img-proxy.imgfo.com/?referer=https://manganelo.com&url=https://s5.mkklcdnv6temp.com/mangakakalot/a2/ayu_mayu/vol2_chapter_62_continuation/13.jpg",
    "https://img-proxy.imgfo.com/?referer=https://manganelo.com&url=https://s5.mkklcdnv6temp.com/mangakakalot/a2/ayu_mayu/vol2_chapter_62_continuation/14.jpg",
    "https://img-proxy.imgfo.com/?referer=https://manganelo.com&url=https://s5.mkklcdnv6temp.com/mangakakalot/a2/ayu_mayu/vol2_chapter_62_continuation/15.jpg",
    "https://img-proxy.imgfo.com/?referer=https://manganelo.com&url=https://s5.mkklcdnv6temp.com/mangakakalot/a2/ayu_mayu/vol2_chapter_62_continuation/16.jpg",
    "https://img-proxy.imgfo.com/?referer=https://manganelo.com&url=https://s5.mkklcdnv6temp.com/mangakakalot/a2/ayu_mayu/vol2_chapter_62_continuation/17.jpg"
  ]
}