{
  "cover": "https://avt.mkklcdnv6.com/13/e/13-1583488223.jpg",
  "title": "I'll (Generation Basket)",
  "original": "Những Chàng Trai Điệu Nghệ (Viet Nam)",
  "genre": "Drama, School life, Shounen, Sports, Manga",
  "author": "Asada Hiroyuki",
  "status": "Completed",
  "backlink": "https://manganu.com/collections/asada-hiroyuki/ill-generation-basket/",
  "description": "Akane Tachibana is a freshman high school student who, despite his talent for basketball, decides to abandon sports clubs due to the pressure put on him by them. Once he arrives at Kouzu High, however, he meets the only other basketball player who has ever caught his eye on the courts and decides to join the team. The first match of the season is an exhibition game against the league's strongest team, Hyamazaki—the team that Hiiragi's father coaches and in which his older brother plays for. Hiiragi ends up playing in the second half of the game, and they seem to not be working well together on the court, losing the game, until unintentionally one of the senior players on the team challenges them to beat him. They join forces, inspiring the team to victory. Thus starts the story of a group of teenagers working to reach the top, fighting tooth and nail the entire way.",
  "language": "English",
  "images": [
    "https://img-proxy.imgfo.com/?referer=https://manganelo.com&url=https://s3.mkklcdnv6temp.com/mangakakalot/i1/ill_generation_basket/vol12_chapter_72_strong_will/1.jpg",
    "https://img-proxy.imgfo.com/?referer=https://manganelo.com&url=https://s3.mkklcdnv6temp.com/mangakakalot/i1/ill_generation_basket/vol12_chapter_72_strong_will/2.jpg",
    "https://img-proxy.imgfo.com/?referer=https://manganelo.com&url=https://s3.mkklcdnv6temp.com/mangakakalot/i1/ill_generation_basket/vol12_chapter_72_strong_will/3.jpg",
    "https://img-proxy.imgfo.com/?referer=https://manganelo.com&url=https://s3.mkklcdnv6temp.com/mangakakalot/i1/ill_generation_basket/vol12_chapter_72_strong_will/4.jpg",
    "https://img-proxy.imgfo.com/?referer=https://manganelo.com&url=https://s3.mkklcdnv6temp.com/mangakakalot/i1/ill_generation_basket/vol12_chapter_72_strong_will/5.jpg",
    "https://img-proxy.imgfo.com/?referer=https://manganelo.com&url=https://s3.mkklcdnv6temp.com/mangakakalot/i1/ill_generation_basket/vol12_chapter_72_strong_will/6.jpg",
    "https://img-proxy.imgfo.com/?referer=https://manganelo.com&url=https://s3.mkklcdnv6temp.com/mangakakalot/i1/ill_generation_basket/vol12_chapter_72_strong_will/7.jpg",
    "https://img-proxy.imgfo.com/?referer=https://manganelo.com&url=https://s3.mkklcdnv6temp.com/mangakakalot/i1/ill_generation_basket/vol12_chapter_72_strong_will/8.jpg",
    "https://img-proxy.imgfo.com/?referer=https://manganelo.com&url=https://s3.mkklcdnv6temp.com/mangakakalot/i1/ill_generation_basket/vol12_chapter_72_strong_will/9.jpg",
    "https://img-proxy.imgfo.com/?referer=https://manganelo.com&url=https://s3.mkklcdnv6temp.com/mangakakalot/i1/ill_generation_basket/vol12_chapter_72_strong_will/10.jpg",
    "https://img-proxy.imgfo.com/?referer=https://manganelo.com&url=https://s3.mkklcdnv6temp.com/mangakakalot/i1/ill_generation_basket/vol12_chapter_72_strong_will/11.jpg",
    "https://img-proxy.imgfo.com/?referer=https://manganelo.com&url=https://s3.mkklcdnv6temp.com/mangakakalot/i1/ill_generation_basket/vol12_chapter_72_strong_will/12.jpg",
    "https://img-proxy.imgfo.com/?referer=https://manganelo.com&url=https://s3.mkklcdnv6temp.com/mangakakalot/i1/ill_generation_basket/vol12_chapter_72_strong_will/13.jpg",
    "https://img-proxy.imgfo.com/?referer=https://manganelo.com&url=https://s3.mkklcdnv6temp.com/mangakakalot/i1/ill_generation_basket/vol12_chapter_72_strong_will/14.jpg",
    "https://img-proxy.imgfo.com/?referer=https://manganelo.com&url=https://s3.mkklcdnv6temp.com/mangakakalot/i1/ill_generation_basket/vol12_chapter_72_strong_will/15.jpg",
    "https://img-proxy.imgfo.com/?referer=https://manganelo.com&url=https://s3.mkklcdnv6temp.com/mangakakalot/i1/ill_generation_basket/vol12_chapter_72_strong_will/16.jpg",
    "https://img-proxy.imgfo.com/?referer=https://manganelo.com&url=https://s3.mkklcdnv6temp.com/mangakakalot/i1/ill_generation_basket/vol12_chapter_72_strong_will/17.jpg",
    "https://img-proxy.imgfo.com/?referer=https://manganelo.com&url=https://s3.mkklcdnv6temp.com/mangakakalot/i1/ill_generation_basket/vol12_chapter_72_strong_will/18.jpg"
  ]
}