{
  "cover": "https://avt.mkklcdnv6.com/22/u/18-1583497988.jpg",
  "title": "House Of Five Leaves",
  "original": "Saraiya Goyou,Sarai-ya Goyo,Sarai-ya Goyou,さらい屋五葉,江戶盜賊團五葉,납치사 고요",
  "genre": "Action, Drama, Historical, Martial arts, Seinen, Manga",
  "author": "Natsume Ono",
  "status": "Completed",
  "backlink": "https://manganu.com/collections/natsume-ono/house-of-five-leaves/",
  "description": "Masterless samurai Akitsu Masanosuke is a skilled and loyal swordsman, but his naïve, diffident nature has more than once caused him to be let go by the lords who employ him. Hungry and desperate, he agrees to become a bodyguard for Yaichi, the charismatic leader of a group calling itself &ldquo;Five Leaves.&rdquo; Although disturbed by the gang&rsquo;s sinister activities, Masa begins to suspect that Yaichi&rsquo;s motivations are not what they seem. And despite his misgivings, the deeper he&rsquo;s drawn into the world of the Five Leaves, the more he finds himself fascinated by these devious, mysterious outlaws.",
  "language": "English",
  "images": [
    "https://img-proxy.imgfo.com/?referer=https://manganelo.com&url=https://s7.mkklcdnv6temp.com/mangakakalot/g2/gw919181/vol3_glossary/1.jpg",
    "https://img-proxy.imgfo.com/?referer=https://manganelo.com&url=https://s7.mkklcdnv6temp.com/mangakakalot/g2/gw919181/vol3_glossary/2.jpg",
    "https://img-proxy.imgfo.com/?referer=https://manganelo.com&url=https://s7.mkklcdnv6temp.com/mangakakalot/g2/gw919181/vol3_glossary/3.jpg",
    "https://img-proxy.imgfo.com/?referer=https://manganelo.com&url=https://s7.mkklcdnv6temp.com/mangakakalot/g2/gw919181/vol3_glossary/4.jpg",
    "https://img-proxy.imgfo.com/?referer=https://manganelo.com&url=https://s7.mkklcdnv6temp.com/mangakakalot/g2/gw919181/vol3_glossary/5.jpg"
  ]
}