{
  "cover": "https://avt.mkklcdnv6.com/36/d/7-1583477634.jpg",
  "title": "Itou Junji Kyoufu Manga Collection",
  "original": "伊藤润二恐怖漫画精选 ; 伊藤潤二恐怖マンガ ; Blood-bubble Bushes ; Collection ; Flesh Coloured Horror ; Frankenstein ; Hallucinations ; Hanging Balloons ; House of the Marionettes ; Ito Junji Kyofu Hakubutsukan ; Junji Ito Collection ; Junji Ito's Museum of Terror ; Kao Dorobo ; Kao Dorobou ; Long Dream ; Lovesick Dead ; Museum of Terror ; Shibito no Kowazurai ; Slug Girl ; Souichi's Diary of Delights ; The Back Alley ; The Bully ; The Circus is Here ; The Face Burglar ; The Horror World of Junji ; The Junji Ito Ho",
  "genre": "Drama, Horror, Mystery, Psychological, Sci fi, Supernatural, Tragedy, Manga",
  "author": "Itou Junji",
  "status": "Completed",
  "backlink": "https://manganu.com/collections/itou-junji/itou-junji-kyoufu-manga-collection/",
  "description": "The first 2 volumes contain thematically linked but self-contained stories concerning Tomie - a beautiful young woman with the power to seduce and dominate any male, from small boys to elderly men. Later, the series leaves these characters behind and focuses on stand-alone gothic horror pieces. Each volume has its own title: 1. Tomie (Scanlated) Included one-shots: Tomie Photograph Kiss Mansion Revenge The Basin of the Waterfall 2. Tomie - Part 2 (Scanlated) Included one-shots: Tomie Part 2 Basement Painter Murder Hair Orphan Girl 3. Flesh Colored Horror (Scanlated) Included one-shots: Long Hair in the Attic Permission/Forgiveness The Bee Hive Dying Young Headless Statues Flesh Coloured Horror 4. The Face Burglar (Scanlated) Included one-shots: The Face Burglar Scarecrows Falling Red String My Dear Ancestors The Hanging Balloons 5. Souichi&#39;s Diary of Delights Included one-shots: Fun Summer Vacation (Scanlated) Fun Winter Vacation (Scanlated) Souichi&#39;s Diary of Delights (Scanlated) Souichi&#39;s Home Tutor (Scanlated) Cloth Teachers Souichi&#39;s Birthday (Scanlated) 6. Souichi&#39;s Diary of Curses Included one-shots: Souichi&#39;s Selfish Curse (Scanlated) The Silent Room The Coffin Rumours Fashion Model 7. Slug Girl Included one-shots: Slug Girl (Scanlated) Out of Its Element / Thing that Drifted Ashore (Scanlated) Mold Coldness (Scanlated) Ryokan The Groaning Drain (Scanlated) Biohouse (Scanlated) 8. Blood-bubble Bushes (Scanlated) Included one-shots: Blood-bubble Bushes Unbearable Labyrinth Sword of the Re-animator The Will The Bridge Demonology The Conversation Room 9. Hallucinations Included one-shots: Hallucinations Bog of the Living Dead Penpal Further Tales of Oshikiri Further Tales of Oshikiri: The Wall 10. House of the Marionettes Included one-shots: Ice Cream Bus (Scanlated) Gang House The Smoking Club Second-hand Record The Sleeping Room The Gift Bearer (Scanlated) House of the Marionettes (Scanlated) 11. The Town Without Streets Included one-shots: The Town Without Streets (Scanlated) Near Miss! (Scanlated) Maptown Village of the Sirens (Scanlated) The Supernatural Transfer Student 12. The Bully (Scanlated) Included one-shots: The Bully House of the Deserter Father&#39;s Heart Memory The Back Alley Love by the Book In the Soil 13. The Circus is Here Included one-shots: The Circus is Here Gravetown The Adjacent Window (Scanlated) Sleuth Kids: The Second Daughter&#39;s Lover Sleuth Kids: The Assembly of Fallen Ghost 14. The Story of the Mysterious Tunnel Included one-shots: Long Dream (Scanlated) The Story of the Mysterious Tunnel The Bronze Statue Drifting Spores Blood Sickness of the White Sands Village (Scanlated) 15. Lovesick Dead (Scanlated) Included one-shots: The Beautiful Youth of the Intersections The Anxious Woman Shadows Screams in the Night 16. Frankenstein (Scanlated) Included one-shots: Frankenstein A Doll&#39;s Hellish Burial Memories of Real Shit Note: Tomie has its own page because of a third volume that isn&#39;t part of this collection. Scanlation Groups: Slug-chicks Titania Daniel.AU iemonsy Neggie",
  "language": "English",
  "images": [
    "https://img-proxy.imgfo.com/?referer=https://manganelo.com&url=https://s6.mkklcdnv6temp.com/mangakakalot/y1/yau1003198789/vol2_chapter_6_orphan_girl/1.jpg",
    "https://img-proxy.imgfo.com/?referer=https://manganelo.com&url=https://s6.mkklcdnv6temp.com/mangakakalot/y1/yau1003198789/vol2_chapter_6_orphan_girl/2.jpg",
    "https://img-proxy.imgfo.com/?referer=https://manganelo.com&url=https://s6.mkklcdnv6temp.com/mangakakalot/y1/yau1003198789/vol2_chapter_6_orphan_girl/3.jpg",
    "https://img-proxy.imgfo.com/?referer=https://manganelo.com&url=https://s6.mkklcdnv6temp.com/mangakakalot/y1/yau1003198789/vol2_chapter_6_orphan_girl/4.jpg",
    "https://img-proxy.imgfo.com/?referer=https://manganelo.com&url=https://s6.mkklcdnv6temp.com/mangakakalot/y1/yau1003198789/vol2_chapter_6_orphan_girl/5.jpg",
    "https://img-proxy.imgfo.com/?referer=https://manganelo.com&url=https://s6.mkklcdnv6temp.com/mangakakalot/y1/yau1003198789/vol2_chapter_6_orphan_girl/6.jpg",
    "https://img-proxy.imgfo.com/?referer=https://manganelo.com&url=https://s6.mkklcdnv6temp.com/mangakakalot/y1/yau1003198789/vol2_chapter_6_orphan_girl/7.jpg",
    "https://img-proxy.imgfo.com/?referer=https://manganelo.com&url=https://s6.mkklcdnv6temp.com/mangakakalot/y1/yau1003198789/vol2_chapter_6_orphan_girl/8.jpg",
    "https://img-proxy.imgfo.com/?referer=https://manganelo.com&url=https://s6.mkklcdnv6temp.com/mangakakalot/y1/yau1003198789/vol2_chapter_6_orphan_girl/9.jpg",
    "https://img-proxy.imgfo.com/?referer=https://manganelo.com&url=https://s6.mkklcdnv6temp.com/mangakakalot/y1/yau1003198789/vol2_chapter_6_orphan_girl/10.jpg",
    "https://img-proxy.imgfo.com/?referer=https://manganelo.com&url=https://s6.mkklcdnv6temp.com/mangakakalot/y1/yau1003198789/vol2_chapter_6_orphan_girl/11.jpg",
    "https://img-proxy.imgfo.com/?referer=https://manganelo.com&url=https://s6.mkklcdnv6temp.com/mangakakalot/y1/yau1003198789/vol2_chapter_6_orphan_girl/12.jpg",
    "https://img-proxy.imgfo.com/?referer=https://manganelo.com&url=https://s6.mkklcdnv6temp.com/mangakakalot/y1/yau1003198789/vol2_chapter_6_orphan_girl/13.jpg",
    "https://img-proxy.imgfo.com/?referer=https://manganelo.com&url=https://s6.mkklcdnv6temp.com/mangakakalot/y1/yau1003198789/vol2_chapter_6_orphan_girl/14.jpg",
    "https://img-proxy.imgfo.com/?referer=https://manganelo.com&url=https://s6.mkklcdnv6temp.com/mangakakalot/y1/yau1003198789/vol2_chapter_6_orphan_girl/15.jpg",
    "https://img-proxy.imgfo.com/?referer=https://manganelo.com&url=https://s6.mkklcdnv6temp.com/mangakakalot/y1/yau1003198789/vol2_chapter_6_orphan_girl/16.jpg",
    "https://img-proxy.imgfo.com/?referer=https://manganelo.com&url=https://s6.mkklcdnv6temp.com/mangakakalot/y1/yau1003198789/vol2_chapter_6_orphan_girl/17.jpg",
    "https://img-proxy.imgfo.com/?referer=https://manganelo.com&url=https://s6.mkklcdnv6temp.com/mangakakalot/y1/yau1003198789/vol2_chapter_6_orphan_girl/18.jpg",
    "https://img-proxy.imgfo.com/?referer=https://manganelo.com&url=https://s6.mkklcdnv6temp.com/mangakakalot/y1/yau1003198789/vol2_chapter_6_orphan_girl/19.jpg",
    "https://img-proxy.imgfo.com/?referer=https://manganelo.com&url=https://s6.mkklcdnv6temp.com/mangakakalot/y1/yau1003198789/vol2_chapter_6_orphan_girl/20.jpg",
    "https://img-proxy.imgfo.com/?referer=https://manganelo.com&url=https://s6.mkklcdnv6temp.com/mangakakalot/y1/yau1003198789/vol2_chapter_6_orphan_girl/21.jpg",
    "https://img-proxy.imgfo.com/?referer=https://manganelo.com&url=https://s6.mkklcdnv6temp.com/mangakakalot/y1/yau1003198789/vol2_chapter_6_orphan_girl/22.jpg",
    "https://img-proxy.imgfo.com/?referer=https://manganelo.com&url=https://s6.mkklcdnv6temp.com/mangakakalot/y1/yau1003198789/vol2_chapter_6_orphan_girl/23.jpg",
    "https://img-proxy.imgfo.com/?referer=https://manganelo.com&url=https://s6.mkklcdnv6temp.com/mangakakalot/y1/yau1003198789/vol2_chapter_6_orphan_girl/24.jpg",
    "https://img-proxy.imgfo.com/?referer=https://manganelo.com&url=https://s6.mkklcdnv6temp.com/mangakakalot/y1/yau1003198789/vol2_chapter_6_orphan_girl/25.jpg",
    "https://img-proxy.imgfo.com/?referer=https://manganelo.com&url=https://s6.mkklcdnv6temp.com/mangakakalot/y1/yau1003198789/vol2_chapter_6_orphan_girl/26.jpg",
    "https://img-proxy.imgfo.com/?referer=https://manganelo.com&url=https://s6.mkklcdnv6temp.com/mangakakalot/y1/yau1003198789/vol2_chapter_6_orphan_girl/27.jpg",
    "https://img-proxy.imgfo.com/?referer=https://manganelo.com&url=https://s6.mkklcdnv6temp.com/mangakakalot/y1/yau1003198789/vol2_chapter_6_orphan_girl/28.jpg",
    "https://img-proxy.imgfo.com/?referer=https://manganelo.com&url=https://s6.mkklcdnv6temp.com/mangakakalot/y1/yau1003198789/vol2_chapter_6_orphan_girl/29.jpg",
    "https://img-proxy.imgfo.com/?referer=https://manganelo.com&url=https://s6.mkklcdnv6temp.com/mangakakalot/y1/yau1003198789/vol2_chapter_6_orphan_girl/30.jpg",
    "https://img-proxy.imgfo.com/?referer=https://manganelo.com&url=https://s6.mkklcdnv6temp.com/mangakakalot/y1/yau1003198789/vol2_chapter_6_orphan_girl/31.jpg",
    "https://img-proxy.imgfo.com/?referer=https://manganelo.com&url=https://s6.mkklcdnv6temp.com/mangakakalot/y1/yau1003198789/vol2_chapter_6_orphan_girl/32.jpg",
    "https://img-proxy.imgfo.com/?referer=https://manganelo.com&url=https://s6.mkklcdnv6temp.com/mangakakalot/y1/yau1003198789/vol2_chapter_6_orphan_girl/33.jpg",
    "https://img-proxy.imgfo.com/?referer=https://manganelo.com&url=https://s6.mkklcdnv6temp.com/mangakakalot/y1/yau1003198789/vol2_chapter_6_orphan_girl/34.jpg",
    "https://img-proxy.imgfo.com/?referer=https://manganelo.com&url=https://s6.mkklcdnv6temp.com/mangakakalot/y1/yau1003198789/vol2_chapter_6_orphan_girl/35.jpg",
    "https://img-proxy.imgfo.com/?referer=https://manganelo.com&url=https://s6.mkklcdnv6temp.com/mangakakalot/y1/yau1003198789/vol2_chapter_6_orphan_girl/36.jpg",
    "https://img-proxy.imgfo.com/?referer=https://manganelo.com&url=https://s6.mkklcdnv6temp.com/mangakakalot/y1/yau1003198789/vol2_chapter_6_orphan_girl/37.jpg",
    "https://img-proxy.imgfo.com/?referer=https://manganelo.com&url=https://s6.mkklcdnv6temp.com/mangakakalot/y1/yau1003198789/vol2_chapter_6_orphan_girl/38.jpg",
    "https://img-proxy.imgfo.com/?referer=https://manganelo.com&url=https://s6.mkklcdnv6temp.com/mangakakalot/y1/yau1003198789/vol2_chapter_6_orphan_girl/39.jpg",
    "https://img-proxy.imgfo.com/?referer=https://manganelo.com&url=https://s6.mkklcdnv6temp.com/mangakakalot/y1/yau1003198789/vol2_chapter_6_orphan_girl/40.jpg",
    "https://img-proxy.imgfo.com/?referer=https://manganelo.com&url=https://s6.mkklcdnv6temp.com/mangakakalot/y1/yau1003198789/vol2_chapter_6_orphan_girl/41.jpg",
    "https://img-proxy.imgfo.com/?referer=https://manganelo.com&url=https://s6.mkklcdnv6temp.com/mangakakalot/y1/yau1003198789/vol2_chapter_6_orphan_girl/42.jpg",
    "https://img-proxy.imgfo.com/?referer=https://manganelo.com&url=https://s6.mkklcdnv6temp.com/mangakakalot/y1/yau1003198789/vol2_chapter_6_orphan_girl/43.jpg",
    "https://img-proxy.imgfo.com/?referer=https://manganelo.com&url=https://s6.mkklcdnv6temp.com/mangakakalot/y1/yau1003198789/vol2_chapter_6_orphan_girl/44.jpg",
    "https://img-proxy.imgfo.com/?referer=https://manganelo.com&url=https://s6.mkklcdnv6temp.com/mangakakalot/y1/yau1003198789/vol2_chapter_6_orphan_girl/45.jpg",
    "https://img-proxy.imgfo.com/?referer=https://manganelo.com&url=https://s6.mkklcdnv6temp.com/mangakakalot/y1/yau1003198789/vol2_chapter_6_orphan_girl/46.jpg",
    "https://img-proxy.imgfo.com/?referer=https://manganelo.com&url=https://s6.mkklcdnv6temp.com/mangakakalot/y1/yau1003198789/vol2_chapter_6_orphan_girl/47.jpg",
    "https://img-proxy.imgfo.com/?referer=https://manganelo.com&url=https://s6.mkklcdnv6temp.com/mangakakalot/y1/yau1003198789/vol2_chapter_6_orphan_girl/48.jpg",
    "https://img-proxy.imgfo.com/?referer=https://manganelo.com&url=https://s6.mkklcdnv6temp.com/mangakakalot/y1/yau1003198789/vol2_chapter_6_orphan_girl/49.jpg"
  ]
}