{
  "cover": "https://avt.mkklcdnv6.com/44/m/4-1583471546.jpg",
  "title": "Umisho",
  "original": "ウミショー ; ケンコー全裸系水泳部 ; ケンコー全裸系水泳部 ウミショー ; Kenko Zenrakei Suieibu Umisho ; Kenkoo Stark Naked Swimming Club ; Umi Show",
  "genre": "Comedy, Ecchi, Romance, School life, Shounen, Sports, Manga",
  "author": "Hattori Mitsuru",
  "status": "Completed",
  "backlink": "https://manganu.com/collections/hattori-mitsuru/umisho/",
  "description": "From ANN:\nKaname Okiura, a student of Prefectoral Umineko Shougyou High (\"Umisho\" for short), joined the school's swimming club in order to learn how to swim, but the club is filled with weirdos, let alone teaches him swimming. Then, a sunny, happy-go-lucky girl named Amuro Ninagawa who was transferred from Okinawa joined the club. Her extraordinary underwater speed and unorthodox swimming style (plus her personal habit of nude swimming—a powerful magnet to teenage boys) surprised every club member, especially Okiura, because she reminds him of a mermaid-like creature he saw only once in his early childhood.",
  "language": "English",
  "images": [
    "https://img-proxy.imgfo.com/?referer=https://manganelo.com&url=https://s7.mkklcdnv6temp.com/mangakakalot/u1/umisho/vol3_chapter_38/1.jpg",
    "https://img-proxy.imgfo.com/?referer=https://manganelo.com&url=https://s7.mkklcdnv6temp.com/mangakakalot/u1/umisho/vol3_chapter_38/2.jpg",
    "https://img-proxy.imgfo.com/?referer=https://manganelo.com&url=https://s7.mkklcdnv6temp.com/mangakakalot/u1/umisho/vol3_chapter_38/3.jpg",
    "https://img-proxy.imgfo.com/?referer=https://manganelo.com&url=https://s7.mkklcdnv6temp.com/mangakakalot/u1/umisho/vol3_chapter_38/4.jpg",
    "https://img-proxy.imgfo.com/?referer=https://manganelo.com&url=https://s7.mkklcdnv6temp.com/mangakakalot/u1/umisho/vol3_chapter_38/5.jpg",
    "https://img-proxy.imgfo.com/?referer=https://manganelo.com&url=https://s7.mkklcdnv6temp.com/mangakakalot/u1/umisho/vol3_chapter_38/6.jpg",
    "https://img-proxy.imgfo.com/?referer=https://manganelo.com&url=https://s7.mkklcdnv6temp.com/mangakakalot/u1/umisho/vol3_chapter_38/7.jpg",
    "https://img-proxy.imgfo.com/?referer=https://manganelo.com&url=https://s7.mkklcdnv6temp.com/mangakakalot/u1/umisho/vol3_chapter_38/8.jpg",
    "https://img-proxy.imgfo.com/?referer=https://manganelo.com&url=https://s7.mkklcdnv6temp.com/mangakakalot/u1/umisho/vol3_chapter_38/9.jpg",
    "https://img-proxy.imgfo.com/?referer=https://manganelo.com&url=https://s7.mkklcdnv6temp.com/mangakakalot/u1/umisho/vol3_chapter_38/10.jpg"
  ]
}