{
  "cover": "https://avt.mkklcdnv6.com/13/u/4-1583470233.jpg",
  "title": "Ai Wa Karada De Kataru Mono",
  "original": "愛はカラダで語るもの ; Esprimo un amore con il mio corpo",
  "genre": "Comedy, School life, Yaoi, Manga",
  "author": "Tsukihara Mayuri",
  "status": "Completed",
  "backlink": "https://manganu.com/collections/tsukihara-mayuri/ai-wa-karada-de-kataru-mono/",
  "description": "Collection of oneshots. Very steamy!\n1) When violated by the perverted school doctor, Mizuru calls out the name of his best friend Natsura. But it's his best friend, he can't possibly be in love with him...right?! With Natsura being mute and Mizuru not being true to his real feelings, will these best friends have a happy (and smex-filled) ending?\n2) Ibuki has known that he is different from other boys since he was 12, but he has been able to keep it a secret. However, his dad's new Italian apprentice (who wants to bathe together!) is about to shatter Ibuki's resolve!\n3) Hachiya always felt Hozumi's eyes on him in high school, but never talked to him. Now they meet 8 years later in a gay pub but is it just coincidence? Or destiny?\n4) Takashina has an imaginary friend name Michael...an imaginary sex friend that is! But he wishes to fall in love with a real man. Maybe his friend Toriumi could be of assistance?\n5) Okabe is an artist who doesn't go out much. The first man he fell in love with is getting married soon, what is this difficult feeling? In comes Akiyo, a gay janitor who touched one of Okabe's sculptures. Can this straightforward and simple man show Okabe the world outside of his easel that he's been longing to see?\n6) Our Sin\n7) Lovesick Baby",
  "language": "English",
  "images": [
    "https://img-proxy.imgfo.com/?referer=https://manganelo.com&url=https://s3.mkklcdnv6temp.com/mangakakalot/a1/ai_wa_karada_de_kataru_mono/vol1_chapter_4_dont_be_hitoriyogari/1.jpg",
    "https://img-proxy.imgfo.com/?referer=https://manganelo.com&url=https://s3.mkklcdnv6temp.com/mangakakalot/a1/ai_wa_karada_de_kataru_mono/vol1_chapter_4_dont_be_hitoriyogari/2.jpg",
    "https://img-proxy.imgfo.com/?referer=https://manganelo.com&url=https://s3.mkklcdnv6temp.com/mangakakalot/a1/ai_wa_karada_de_kataru_mono/vol1_chapter_4_dont_be_hitoriyogari/3.jpg",
    "https://img-proxy.imgfo.com/?referer=https://manganelo.com&url=https://s3.mkklcdnv6temp.com/mangakakalot/a1/ai_wa_karada_de_kataru_mono/vol1_chapter_4_dont_be_hitoriyogari/4.jpg",
    "https://img-proxy.imgfo.com/?referer=https://manganelo.com&url=https://s3.mkklcdnv6temp.com/mangakakalot/a1/ai_wa_karada_de_kataru_mono/vol1_chapter_4_dont_be_hitoriyogari/5.jpg",
    "https://img-proxy.imgfo.com/?referer=https://manganelo.com&url=https://s3.mkklcdnv6temp.com/mangakakalot/a1/ai_wa_karada_de_kataru_mono/vol1_chapter_4_dont_be_hitoriyogari/6.jpg",
    "https://img-proxy.imgfo.com/?referer=https://manganelo.com&url=https://s3.mkklcdnv6temp.com/mangakakalot/a1/ai_wa_karada_de_kataru_mono/vol1_chapter_4_dont_be_hitoriyogari/7.jpg",
    "https://img-proxy.imgfo.com/?referer=https://manganelo.com&url=https://s3.mkklcdnv6temp.com/mangakakalot/a1/ai_wa_karada_de_kataru_mono/vol1_chapter_4_dont_be_hitoriyogari/8.jpg",
    "https://img-proxy.imgfo.com/?referer=https://manganelo.com&url=https://s3.mkklcdnv6temp.com/mangakakalot/a1/ai_wa_karada_de_kataru_mono/vol1_chapter_4_dont_be_hitoriyogari/9.jpg",
    "https://img-proxy.imgfo.com/?referer=https://manganelo.com&url=https://s3.mkklcdnv6temp.com/mangakakalot/a1/ai_wa_karada_de_kataru_mono/vol1_chapter_4_dont_be_hitoriyogari/10.jpg",
    "https://img-proxy.imgfo.com/?referer=https://manganelo.com&url=https://s3.mkklcdnv6temp.com/mangakakalot/a1/ai_wa_karada_de_kataru_mono/vol1_chapter_4_dont_be_hitoriyogari/11.jpg",
    "https://img-proxy.imgfo.com/?referer=https://manganelo.com&url=https://s3.mkklcdnv6temp.com/mangakakalot/a1/ai_wa_karada_de_kataru_mono/vol1_chapter_4_dont_be_hitoriyogari/12.jpg",
    "https://img-proxy.imgfo.com/?referer=https://manganelo.com&url=https://s3.mkklcdnv6temp.com/mangakakalot/a1/ai_wa_karada_de_kataru_mono/vol1_chapter_4_dont_be_hitoriyogari/13.jpg",
    "https://img-proxy.imgfo.com/?referer=https://manganelo.com&url=https://s3.mkklcdnv6temp.com/mangakakalot/a1/ai_wa_karada_de_kataru_mono/vol1_chapter_4_dont_be_hitoriyogari/14.jpg",
    "https://img-proxy.imgfo.com/?referer=https://manganelo.com&url=https://s3.mkklcdnv6temp.com/mangakakalot/a1/ai_wa_karada_de_kataru_mono/vol1_chapter_4_dont_be_hitoriyogari/15.jpg",
    "https://img-proxy.imgfo.com/?referer=https://manganelo.com&url=https://s3.mkklcdnv6temp.com/mangakakalot/a1/ai_wa_karada_de_kataru_mono/vol1_chapter_4_dont_be_hitoriyogari/16.jpg",
    "https://img-proxy.imgfo.com/?referer=https://manganelo.com&url=https://s3.mkklcdnv6temp.com/mangakakalot/a1/ai_wa_karada_de_kataru_mono/vol1_chapter_4_dont_be_hitoriyogari/17.jpg",
    "https://img-proxy.imgfo.com/?referer=https://manganelo.com&url=https://s3.mkklcdnv6temp.com/mangakakalot/a1/ai_wa_karada_de_kataru_mono/vol1_chapter_4_dont_be_hitoriyogari/18.jpg",
    "https://img-proxy.imgfo.com/?referer=https://manganelo.com&url=https://s3.mkklcdnv6temp.com/mangakakalot/a1/ai_wa_karada_de_kataru_mono/vol1_chapter_4_dont_be_hitoriyogari/19.jpg",
    "https://img-proxy.imgfo.com/?referer=https://manganelo.com&url=https://s3.mkklcdnv6temp.com/mangakakalot/a1/ai_wa_karada_de_kataru_mono/vol1_chapter_4_dont_be_hitoriyogari/20.jpg",
    "https://img-proxy.imgfo.com/?referer=https://manganelo.com&url=https://s3.mkklcdnv6temp.com/mangakakalot/a1/ai_wa_karada_de_kataru_mono/vol1_chapter_4_dont_be_hitoriyogari/21.jpg",
    "https://img-proxy.imgfo.com/?referer=https://manganelo.com&url=https://s3.mkklcdnv6temp.com/mangakakalot/a1/ai_wa_karada_de_kataru_mono/vol1_chapter_4_dont_be_hitoriyogari/22.jpg",
    "https://img-proxy.imgfo.com/?referer=https://manganelo.com&url=https://s3.mkklcdnv6temp.com/mangakakalot/a1/ai_wa_karada_de_kataru_mono/vol1_chapter_4_dont_be_hitoriyogari/23.jpg",
    "https://img-proxy.imgfo.com/?referer=https://manganelo.com&url=https://s3.mkklcdnv6temp.com/mangakakalot/a1/ai_wa_karada_de_kataru_mono/vol1_chapter_4_dont_be_hitoriyogari/24.jpg",
    "https://img-proxy.imgfo.com/?referer=https://manganelo.com&url=https://s3.mkklcdnv6temp.com/mangakakalot/a1/ai_wa_karada_de_kataru_mono/vol1_chapter_4_dont_be_hitoriyogari/25.jpg"
  ]
}