{
  "cover": "https://avt.mkklcdnv6.com/24/f/10-1583483047.jpg",
  "title": "Sad Love Story",
  "original": "悲しみ恋物語り ; 悲伤恋歌 ; 슬픈연가 ; 슬픈연가 (The Sad Love Story) ; Bản tình ca buồn ; Kanashiki Koiuta ; Sad Love Song ; Sad Sonata ; The Sad Love Story ; Bản Tình Ca Buồn ; la triste historia de amor (spanish)",
  "genre": "Drama, Romance, Shoujo, Tragedy, Manga",
  "author": "Shin Ji-Sang",
  "status": "Completed",
  "backlink": "https://manganu.com/collections/shin-ji-sang/sad-love-story/",
  "description": "As a child, Joon-young was always teased because his mother owned a bar that served Americans. When he meets Hae-in, a blind girl, they become childhood sweethearts and he vows to always protect her. However, Hae-in and her mom take off one night, leaving Joon-young and his promise behind. Hae-in later meets Gun-woo, the rich son of a CEO. Among these three, a tragic love triangle begins to form...\nThere is also a Korean movie with the same title and plotline.",
  "language": "English",
  "images": [
    "https://img-proxy.imgfo.com/?referer=https://manganelo.com&url=https://s5.mkklcdnv6temp.com/mangakakalot/s1/sad_love_story/vol05_chapter_3/1.jpg",
    "https://img-proxy.imgfo.com/?referer=https://manganelo.com&url=https://s5.mkklcdnv6temp.com/mangakakalot/s1/sad_love_story/vol05_chapter_3/2.jpg",
    "https://img-proxy.imgfo.com/?referer=https://manganelo.com&url=https://s5.mkklcdnv6temp.com/mangakakalot/s1/sad_love_story/vol05_chapter_3/3.jpg",
    "https://img-proxy.imgfo.com/?referer=https://manganelo.com&url=https://s5.mkklcdnv6temp.com/mangakakalot/s1/sad_love_story/vol05_chapter_3/4.jpg",
    "https://img-proxy.imgfo.com/?referer=https://manganelo.com&url=https://s5.mkklcdnv6temp.com/mangakakalot/s1/sad_love_story/vol05_chapter_3/5.jpg",
    "https://img-proxy.imgfo.com/?referer=https://manganelo.com&url=https://s5.mkklcdnv6temp.com/mangakakalot/s1/sad_love_story/vol05_chapter_3/6.jpg",
    "https://img-proxy.imgfo.com/?referer=https://manganelo.com&url=https://s5.mkklcdnv6temp.com/mangakakalot/s1/sad_love_story/vol05_chapter_3/7.jpg",
    "https://img-proxy.imgfo.com/?referer=https://manganelo.com&url=https://s5.mkklcdnv6temp.com/mangakakalot/s1/sad_love_story/vol05_chapter_3/8.jpg",
    "https://img-proxy.imgfo.com/?referer=https://manganelo.com&url=https://s5.mkklcdnv6temp.com/mangakakalot/s1/sad_love_story/vol05_chapter_3/9.jpg",
    "https://img-proxy.imgfo.com/?referer=https://manganelo.com&url=https://s5.mkklcdnv6temp.com/mangakakalot/s1/sad_love_story/vol05_chapter_3/10.jpg",
    "https://img-proxy.imgfo.com/?referer=https://manganelo.com&url=https://s5.mkklcdnv6temp.com/mangakakalot/s1/sad_love_story/vol05_chapter_3/11.jpg",
    "https://img-proxy.imgfo.com/?referer=https://manganelo.com&url=https://s5.mkklcdnv6temp.com/mangakakalot/s1/sad_love_story/vol05_chapter_3/12.jpg",
    "https://img-proxy.imgfo.com/?referer=https://manganelo.com&url=https://s5.mkklcdnv6temp.com/mangakakalot/s1/sad_love_story/vol05_chapter_3/13.jpg",
    "https://img-proxy.imgfo.com/?referer=https://manganelo.com&url=https://s5.mkklcdnv6temp.com/mangakakalot/s1/sad_love_story/vol05_chapter_3/14.jpg",
    "https://img-proxy.imgfo.com/?referer=https://manganelo.com&url=https://s5.mkklcdnv6temp.com/mangakakalot/s1/sad_love_story/vol05_chapter_3/15.jpg",
    "https://img-proxy.imgfo.com/?referer=https://manganelo.com&url=https://s5.mkklcdnv6temp.com/mangakakalot/s1/sad_love_story/vol05_chapter_3/16.jpg",
    "https://img-proxy.imgfo.com/?referer=https://manganelo.com&url=https://s5.mkklcdnv6temp.com/mangakakalot/s1/sad_love_story/vol05_chapter_3/17.jpg",
    "https://img-proxy.imgfo.com/?referer=https://manganelo.com&url=https://s5.mkklcdnv6temp.com/mangakakalot/s1/sad_love_story/vol05_chapter_3/18.jpg",
    "https://img-proxy.imgfo.com/?referer=https://manganelo.com&url=https://s5.mkklcdnv6temp.com/mangakakalot/s1/sad_love_story/vol05_chapter_3/19.jpg",
    "https://img-proxy.imgfo.com/?referer=https://manganelo.com&url=https://s5.mkklcdnv6temp.com/mangakakalot/s1/sad_love_story/vol05_chapter_3/20.jpg",
    "https://img-proxy.imgfo.com/?referer=https://manganelo.com&url=https://s5.mkklcdnv6temp.com/mangakakalot/s1/sad_love_story/vol05_chapter_3/21.jpg",
    "https://img-proxy.imgfo.com/?referer=https://manganelo.com&url=https://s5.mkklcdnv6temp.com/mangakakalot/s1/sad_love_story/vol05_chapter_3/22.jpg",
    "https://img-proxy.imgfo.com/?referer=https://manganelo.com&url=https://s5.mkklcdnv6temp.com/mangakakalot/s1/sad_love_story/vol05_chapter_3/23.jpg",
    "https://img-proxy.imgfo.com/?referer=https://manganelo.com&url=https://s5.mkklcdnv6temp.com/mangakakalot/s1/sad_love_story/vol05_chapter_3/24.jpg",
    "https://img-proxy.imgfo.com/?referer=https://manganelo.com&url=https://s5.mkklcdnv6temp.com/mangakakalot/s1/sad_love_story/vol05_chapter_3/25.jpg",
    "https://img-proxy.imgfo.com/?referer=https://manganelo.com&url=https://s5.mkklcdnv6temp.com/mangakakalot/s1/sad_love_story/vol05_chapter_3/26.jpg",
    "https://img-proxy.imgfo.com/?referer=https://manganelo.com&url=https://s5.mkklcdnv6temp.com/mangakakalot/s1/sad_love_story/vol05_chapter_3/27.jpg",
    "https://img-proxy.imgfo.com/?referer=https://manganelo.com&url=https://s5.mkklcdnv6temp.com/mangakakalot/s1/sad_love_story/vol05_chapter_3/28.jpg",
    "https://img-proxy.imgfo.com/?referer=https://manganelo.com&url=https://s5.mkklcdnv6temp.com/mangakakalot/s1/sad_love_story/vol05_chapter_3/29.jpg",
    "https://img-proxy.imgfo.com/?referer=https://manganelo.com&url=https://s5.mkklcdnv6temp.com/mangakakalot/s1/sad_love_story/vol05_chapter_3/30.jpg",
    "https://img-proxy.imgfo.com/?referer=https://manganelo.com&url=https://s5.mkklcdnv6temp.com/mangakakalot/s1/sad_love_story/vol05_chapter_3/31.jpg",
    "https://img-proxy.imgfo.com/?referer=https://manganelo.com&url=https://s5.mkklcdnv6temp.com/mangakakalot/s1/sad_love_story/vol05_chapter_3/32.jpg",
    "https://img-proxy.imgfo.com/?referer=https://manganelo.com&url=https://s5.mkklcdnv6temp.com/mangakakalot/s1/sad_love_story/vol05_chapter_3/33.jpg",
    "https://img-proxy.imgfo.com/?referer=https://manganelo.com&url=https://s5.mkklcdnv6temp.com/mangakakalot/s1/sad_love_story/vol05_chapter_3/34.jpg",
    "https://img-proxy.imgfo.com/?referer=https://manganelo.com&url=https://s5.mkklcdnv6temp.com/mangakakalot/s1/sad_love_story/vol05_chapter_3/35.jpg",
    "https://img-proxy.imgfo.com/?referer=https://manganelo.com&url=https://s5.mkklcdnv6temp.com/mangakakalot/s1/sad_love_story/vol05_chapter_3/36.jpg",
    "https://img-proxy.imgfo.com/?referer=https://manganelo.com&url=https://s5.mkklcdnv6temp.com/mangakakalot/s1/sad_love_story/vol05_chapter_3/37.jpg",
    "https://img-proxy.imgfo.com/?referer=https://manganelo.com&url=https://s5.mkklcdnv6temp.com/mangakakalot/s1/sad_love_story/vol05_chapter_3/38.jpg",
    "https://img-proxy.imgfo.com/?referer=https://manganelo.com&url=https://s5.mkklcdnv6temp.com/mangakakalot/s1/sad_love_story/vol05_chapter_3/39.jpg",
    "https://img-proxy.imgfo.com/?referer=https://manganelo.com&url=https://s5.mkklcdnv6temp.com/mangakakalot/s1/sad_love_story/vol05_chapter_3/40.jpg",
    "https://img-proxy.imgfo.com/?referer=https://manganelo.com&url=https://s5.mkklcdnv6temp.com/mangakakalot/s1/sad_love_story/vol05_chapter_3/41.jpg",
    "https://img-proxy.imgfo.com/?referer=https://manganelo.com&url=https://s5.mkklcdnv6temp.com/mangakakalot/s1/sad_love_story/vol05_chapter_3/42.jpg"
  ]
}