{
  "cover": "https://avt.mkklcdnv6.com/34/i/7-1583477568.jpg",
  "title": "Jiraishin",
  "original": "地雷震 ; Ice Blade",
  "genre": "Action, Drama, Mature, Mystery, Seinen, Manga",
  "author": "Takahashi Tsutomu",
  "status": "Completed",
  "backlink": "https://manganu.com/collections/takahashi-tsutomu/jiraishin/",
  "description": "Kyoya Iida is a hard-nosed detective from the Shinjuku Police precinct. He is known in the force as an unreasonable type who would use lethal force to solve cases, making him unpopular with the enlisted and high-ranking officers in the National Police Agency.\nDespite this, there are some in the force who admire Iida for his bravery and cleverness in using lethal force to solve criminal cases whenever legal means are met with a dead end.",
  "language": "English",
  "images": [
    "https://img-proxy.imgfo.com/?referer=https://manganelo.com&url=https://s5.mkklcdnv6temp.com/mangakakalot/j1/jiraishin/vol18_chapter_283_last_file_part_3_life_new_heaven/1.jpg",
    "https://img-proxy.imgfo.com/?referer=https://manganelo.com&url=https://s5.mkklcdnv6temp.com/mangakakalot/j1/jiraishin/vol18_chapter_283_last_file_part_3_life_new_heaven/2.jpg",
    "https://img-proxy.imgfo.com/?referer=https://manganelo.com&url=https://s5.mkklcdnv6temp.com/mangakakalot/j1/jiraishin/vol18_chapter_283_last_file_part_3_life_new_heaven/3.jpg",
    "https://img-proxy.imgfo.com/?referer=https://manganelo.com&url=https://s5.mkklcdnv6temp.com/mangakakalot/j1/jiraishin/vol18_chapter_283_last_file_part_3_life_new_heaven/4.jpg",
    "https://img-proxy.imgfo.com/?referer=https://manganelo.com&url=https://s5.mkklcdnv6temp.com/mangakakalot/j1/jiraishin/vol18_chapter_283_last_file_part_3_life_new_heaven/5.jpg",
    "https://img-proxy.imgfo.com/?referer=https://manganelo.com&url=https://s5.mkklcdnv6temp.com/mangakakalot/j1/jiraishin/vol18_chapter_283_last_file_part_3_life_new_heaven/6.jpg",
    "https://img-proxy.imgfo.com/?referer=https://manganelo.com&url=https://s5.mkklcdnv6temp.com/mangakakalot/j1/jiraishin/vol18_chapter_283_last_file_part_3_life_new_heaven/7.jpg",
    "https://img-proxy.imgfo.com/?referer=https://manganelo.com&url=https://s5.mkklcdnv6temp.com/mangakakalot/j1/jiraishin/vol18_chapter_283_last_file_part_3_life_new_heaven/8.jpg",
    "https://img-proxy.imgfo.com/?referer=https://manganelo.com&url=https://s5.mkklcdnv6temp.com/mangakakalot/j1/jiraishin/vol18_chapter_283_last_file_part_3_life_new_heaven/9.jpg",
    "https://img-proxy.imgfo.com/?referer=https://manganelo.com&url=https://s5.mkklcdnv6temp.com/mangakakalot/j1/jiraishin/vol18_chapter_283_last_file_part_3_life_new_heaven/10.jpg",
    "https://img-proxy.imgfo.com/?referer=https://manganelo.com&url=https://s5.mkklcdnv6temp.com/mangakakalot/j1/jiraishin/vol18_chapter_283_last_file_part_3_life_new_heaven/11.jpg",
    "https://img-proxy.imgfo.com/?referer=https://manganelo.com&url=https://s5.mkklcdnv6temp.com/mangakakalot/j1/jiraishin/vol18_chapter_283_last_file_part_3_life_new_heaven/12.jpg",
    "https://img-proxy.imgfo.com/?referer=https://manganelo.com&url=https://s5.mkklcdnv6temp.com/mangakakalot/j1/jiraishin/vol18_chapter_283_last_file_part_3_life_new_heaven/13.jpg",
    "https://img-proxy.imgfo.com/?referer=https://manganelo.com&url=https://s5.mkklcdnv6temp.com/mangakakalot/j1/jiraishin/vol18_chapter_283_last_file_part_3_life_new_heaven/14.jpg",
    "https://img-proxy.imgfo.com/?referer=https://manganelo.com&url=https://s5.mkklcdnv6temp.com/mangakakalot/j1/jiraishin/vol18_chapter_283_last_file_part_3_life_new_heaven/15.jpg",
    "https://img-proxy.imgfo.com/?referer=https://manganelo.com&url=https://s5.mkklcdnv6temp.com/mangakakalot/j1/jiraishin/vol18_chapter_283_last_file_part_3_life_new_heaven/16.jpg",
    "https://img-proxy.imgfo.com/?referer=https://manganelo.com&url=https://s5.mkklcdnv6temp.com/mangakakalot/j1/jiraishin/vol18_chapter_283_last_file_part_3_life_new_heaven/17.jpg",
    "https://img-proxy.imgfo.com/?referer=https://manganelo.com&url=https://s5.mkklcdnv6temp.com/mangakakalot/j1/jiraishin/vol18_chapter_283_last_file_part_3_life_new_heaven/18.jpg",
    "https://img-proxy.imgfo.com/?referer=https://manganelo.com&url=https://s5.mkklcdnv6temp.com/mangakakalot/j1/jiraishin/vol18_chapter_283_last_file_part_3_life_new_heaven/19.jpg",
    "https://img-proxy.imgfo.com/?referer=https://manganelo.com&url=https://s5.mkklcdnv6temp.com/mangakakalot/j1/jiraishin/vol18_chapter_283_last_file_part_3_life_new_heaven/20.jpg",
    "https://img-proxy.imgfo.com/?referer=https://manganelo.com&url=https://s5.mkklcdnv6temp.com/mangakakalot/j1/jiraishin/vol18_chapter_283_last_file_part_3_life_new_heaven/21.jpg",
    "https://img-proxy.imgfo.com/?referer=https://manganelo.com&url=https://s5.mkklcdnv6temp.com/mangakakalot/j1/jiraishin/vol18_chapter_283_last_file_part_3_life_new_heaven/22.jpg",
    "https://img-proxy.imgfo.com/?referer=https://manganelo.com&url=https://s5.mkklcdnv6temp.com/mangakakalot/j1/jiraishin/vol18_chapter_283_last_file_part_3_life_new_heaven/23.jpg",
    "https://img-proxy.imgfo.com/?referer=https://manganelo.com&url=https://s5.mkklcdnv6temp.com/mangakakalot/j1/jiraishin/vol18_chapter_283_last_file_part_3_life_new_heaven/24.jpg",
    "https://img-proxy.imgfo.com/?referer=https://manganelo.com&url=https://s5.mkklcdnv6temp.com/mangakakalot/j1/jiraishin/vol18_chapter_283_last_file_part_3_life_new_heaven/25.jpg",
    "https://img-proxy.imgfo.com/?referer=https://manganelo.com&url=https://s5.mkklcdnv6temp.com/mangakakalot/j1/jiraishin/vol18_chapter_283_last_file_part_3_life_new_heaven/26.jpg",
    "https://img-proxy.imgfo.com/?referer=https://manganelo.com&url=https://s5.mkklcdnv6temp.com/mangakakalot/j1/jiraishin/vol18_chapter_283_last_file_part_3_life_new_heaven/27.jpg",
    "https://img-proxy.imgfo.com/?referer=https://manganelo.com&url=https://s5.mkklcdnv6temp.com/mangakakalot/j1/jiraishin/vol18_chapter_283_last_file_part_3_life_new_heaven/28.jpg",
    "https://img-proxy.imgfo.com/?referer=https://manganelo.com&url=https://s5.mkklcdnv6temp.com/mangakakalot/j1/jiraishin/vol18_chapter_283_last_file_part_3_life_new_heaven/29.jpg",
    "https://img-proxy.imgfo.com/?referer=https://manganelo.com&url=https://s5.mkklcdnv6temp.com/mangakakalot/j1/jiraishin/vol18_chapter_283_last_file_part_3_life_new_heaven/30.jpg",
    "https://img-proxy.imgfo.com/?referer=https://manganelo.com&url=https://s5.mkklcdnv6temp.com/mangakakalot/j1/jiraishin/vol18_chapter_283_last_file_part_3_life_new_heaven/31.jpg",
    "https://img-proxy.imgfo.com/?referer=https://manganelo.com&url=https://s5.mkklcdnv6temp.com/mangakakalot/j1/jiraishin/vol18_chapter_283_last_file_part_3_life_new_heaven/32.jpg",
    "https://img-proxy.imgfo.com/?referer=https://manganelo.com&url=https://s5.mkklcdnv6temp.com/mangakakalot/j1/jiraishin/vol18_chapter_283_last_file_part_3_life_new_heaven/33.jpg",
    "https://img-proxy.imgfo.com/?referer=https://manganelo.com&url=https://s5.mkklcdnv6temp.com/mangakakalot/j1/jiraishin/vol18_chapter_283_last_file_part_3_life_new_heaven/34.jpg",
    "https://img-proxy.imgfo.com/?referer=https://manganelo.com&url=https://s5.mkklcdnv6temp.com/mangakakalot/j1/jiraishin/vol18_chapter_283_last_file_part_3_life_new_heaven/35.jpg",
    "https://img-proxy.imgfo.com/?referer=https://manganelo.com&url=https://s5.mkklcdnv6temp.com/mangakakalot/j1/jiraishin/vol18_chapter_283_last_file_part_3_life_new_heaven/36.jpg",
    "https://img-proxy.imgfo.com/?referer=https://manganelo.com&url=https://s5.mkklcdnv6temp.com/mangakakalot/j1/jiraishin/vol18_chapter_283_last_file_part_3_life_new_heaven/37.jpg",
    "https://img-proxy.imgfo.com/?referer=https://manganelo.com&url=https://s5.mkklcdnv6temp.com/mangakakalot/j1/jiraishin/vol18_chapter_283_last_file_part_3_life_new_heaven/38.jpg",
    "https://img-proxy.imgfo.com/?referer=https://manganelo.com&url=https://s5.mkklcdnv6temp.com/mangakakalot/j1/jiraishin/vol18_chapter_283_last_file_part_3_life_new_heaven/39.jpg",
    "https://img-proxy.imgfo.com/?referer=https://manganelo.com&url=https://s5.mkklcdnv6temp.com/mangakakalot/j1/jiraishin/vol18_chapter_283_last_file_part_3_life_new_heaven/40.jpg",
    "https://img-proxy.imgfo.com/?referer=https://manganelo.com&url=https://s5.mkklcdnv6temp.com/mangakakalot/j1/jiraishin/vol18_chapter_283_last_file_part_3_life_new_heaven/41.jpg",
    "https://img-proxy.imgfo.com/?referer=https://manganelo.com&url=https://s5.mkklcdnv6temp.com/mangakakalot/j1/jiraishin/vol18_chapter_283_last_file_part_3_life_new_heaven/42.jpg",
    "https://img-proxy.imgfo.com/?referer=https://manganelo.com&url=https://s5.mkklcdnv6temp.com/mangakakalot/j1/jiraishin/vol18_chapter_283_last_file_part_3_life_new_heaven/43.jpg",
    "https://img-proxy.imgfo.com/?referer=https://manganelo.com&url=https://s5.mkklcdnv6temp.com/mangakakalot/j1/jiraishin/vol18_chapter_283_last_file_part_3_life_new_heaven/44.jpg",
    "https://img-proxy.imgfo.com/?referer=https://manganelo.com&url=https://s5.mkklcdnv6temp.com/mangakakalot/j1/jiraishin/vol18_chapter_283_last_file_part_3_life_new_heaven/45.jpg",
    "https://img-proxy.imgfo.com/?referer=https://manganelo.com&url=https://s5.mkklcdnv6temp.com/mangakakalot/j1/jiraishin/vol18_chapter_283_last_file_part_3_life_new_heaven/46.jpg",
    "https://img-proxy.imgfo.com/?referer=https://manganelo.com&url=https://s5.mkklcdnv6temp.com/mangakakalot/j1/jiraishin/vol18_chapter_283_last_file_part_3_life_new_heaven/47.jpg",
    "https://img-proxy.imgfo.com/?referer=https://manganelo.com&url=https://s5.mkklcdnv6temp.com/mangakakalot/j1/jiraishin/vol18_chapter_283_last_file_part_3_life_new_heaven/48.jpg",
    "https://img-proxy.imgfo.com/?referer=https://manganelo.com&url=https://s5.mkklcdnv6temp.com/mangakakalot/j1/jiraishin/vol18_chapter_283_last_file_part_3_life_new_heaven/49.jpg",
    "https://img-proxy.imgfo.com/?referer=https://manganelo.com&url=https://s5.mkklcdnv6temp.com/mangakakalot/j1/jiraishin/vol18_chapter_283_last_file_part_3_life_new_heaven/50.jpg",
    "https://img-proxy.imgfo.com/?referer=https://manganelo.com&url=https://s5.mkklcdnv6temp.com/mangakakalot/j1/jiraishin/vol18_chapter_283_last_file_part_3_life_new_heaven/51.jpg",
    "https://img-proxy.imgfo.com/?referer=https://manganelo.com&url=https://s5.mkklcdnv6temp.com/mangakakalot/j1/jiraishin/vol18_chapter_283_last_file_part_3_life_new_heaven/52.jpg"
  ]
}