{
  "cover": "https://avt.mkklcdnv6.com/34/i/7-1583477568.jpg",
  "title": "Jiraishin",
  "original": "地雷震 ; Ice Blade",
  "genre": "Action, Drama, Mature, Mystery, Seinen, Manga",
  "author": "Takahashi Tsutomu",
  "status": "Completed",
  "backlink": "https://manganu.com/collections/takahashi-tsutomu/jiraishin/",
  "description": "Kyoya Iida is a hard-nosed detective from the Shinjuku Police precinct. He is known in the force as an unreasonable type who would use lethal force to solve cases, making him unpopular with the enlisted and high-ranking officers in the National Police Agency.\nDespite this, there are some in the force who admire Iida for his bravery and cleverness in using lethal force to solve criminal cases whenever legal means are met with a dead end.",
  "language": "English",
  "images": [
    "https://img-proxy.imgfo.com/?referer=https://manganelo.com&url=https://s5.mkklcdnv6temp.com/mangakakalot/j1/jiraishin/vol12_chapter_211_file_21_part_1_dont_cry_kiss/1.jpg",
    "https://img-proxy.imgfo.com/?referer=https://manganelo.com&url=https://s5.mkklcdnv6temp.com/mangakakalot/j1/jiraishin/vol12_chapter_211_file_21_part_1_dont_cry_kiss/2.jpg",
    "https://img-proxy.imgfo.com/?referer=https://manganelo.com&url=https://s5.mkklcdnv6temp.com/mangakakalot/j1/jiraishin/vol12_chapter_211_file_21_part_1_dont_cry_kiss/3.jpg",
    "https://img-proxy.imgfo.com/?referer=https://manganelo.com&url=https://s5.mkklcdnv6temp.com/mangakakalot/j1/jiraishin/vol12_chapter_211_file_21_part_1_dont_cry_kiss/4.jpg",
    "https://img-proxy.imgfo.com/?referer=https://manganelo.com&url=https://s5.mkklcdnv6temp.com/mangakakalot/j1/jiraishin/vol12_chapter_211_file_21_part_1_dont_cry_kiss/5.jpg",
    "https://img-proxy.imgfo.com/?referer=https://manganelo.com&url=https://s5.mkklcdnv6temp.com/mangakakalot/j1/jiraishin/vol12_chapter_211_file_21_part_1_dont_cry_kiss/6.jpg",
    "https://img-proxy.imgfo.com/?referer=https://manganelo.com&url=https://s5.mkklcdnv6temp.com/mangakakalot/j1/jiraishin/vol12_chapter_211_file_21_part_1_dont_cry_kiss/7.jpg",
    "https://img-proxy.imgfo.com/?referer=https://manganelo.com&url=https://s5.mkklcdnv6temp.com/mangakakalot/j1/jiraishin/vol12_chapter_211_file_21_part_1_dont_cry_kiss/8.jpg",
    "https://img-proxy.imgfo.com/?referer=https://manganelo.com&url=https://s5.mkklcdnv6temp.com/mangakakalot/j1/jiraishin/vol12_chapter_211_file_21_part_1_dont_cry_kiss/9.jpg",
    "https://img-proxy.imgfo.com/?referer=https://manganelo.com&url=https://s5.mkklcdnv6temp.com/mangakakalot/j1/jiraishin/vol12_chapter_211_file_21_part_1_dont_cry_kiss/10.jpg",
    "https://img-proxy.imgfo.com/?referer=https://manganelo.com&url=https://s5.mkklcdnv6temp.com/mangakakalot/j1/jiraishin/vol12_chapter_211_file_21_part_1_dont_cry_kiss/11.jpg",
    "https://img-proxy.imgfo.com/?referer=https://manganelo.com&url=https://s5.mkklcdnv6temp.com/mangakakalot/j1/jiraishin/vol12_chapter_211_file_21_part_1_dont_cry_kiss/12.jpg",
    "https://img-proxy.imgfo.com/?referer=https://manganelo.com&url=https://s5.mkklcdnv6temp.com/mangakakalot/j1/jiraishin/vol12_chapter_211_file_21_part_1_dont_cry_kiss/13.jpg",
    "https://img-proxy.imgfo.com/?referer=https://manganelo.com&url=https://s5.mkklcdnv6temp.com/mangakakalot/j1/jiraishin/vol12_chapter_211_file_21_part_1_dont_cry_kiss/14.jpg",
    "https://img-proxy.imgfo.com/?referer=https://manganelo.com&url=https://s5.mkklcdnv6temp.com/mangakakalot/j1/jiraishin/vol12_chapter_211_file_21_part_1_dont_cry_kiss/15.jpg",
    "https://img-proxy.imgfo.com/?referer=https://manganelo.com&url=https://s5.mkklcdnv6temp.com/mangakakalot/j1/jiraishin/vol12_chapter_211_file_21_part_1_dont_cry_kiss/16.jpg",
    "https://img-proxy.imgfo.com/?referer=https://manganelo.com&url=https://s5.mkklcdnv6temp.com/mangakakalot/j1/jiraishin/vol12_chapter_211_file_21_part_1_dont_cry_kiss/17.jpg",
    "https://img-proxy.imgfo.com/?referer=https://manganelo.com&url=https://s5.mkklcdnv6temp.com/mangakakalot/j1/jiraishin/vol12_chapter_211_file_21_part_1_dont_cry_kiss/18.jpg",
    "https://img-proxy.imgfo.com/?referer=https://manganelo.com&url=https://s5.mkklcdnv6temp.com/mangakakalot/j1/jiraishin/vol12_chapter_211_file_21_part_1_dont_cry_kiss/19.jpg",
    "https://img-proxy.imgfo.com/?referer=https://manganelo.com&url=https://s5.mkklcdnv6temp.com/mangakakalot/j1/jiraishin/vol12_chapter_211_file_21_part_1_dont_cry_kiss/20.jpg",
    "https://img-proxy.imgfo.com/?referer=https://manganelo.com&url=https://s5.mkklcdnv6temp.com/mangakakalot/j1/jiraishin/vol12_chapter_211_file_21_part_1_dont_cry_kiss/21.jpg",
    "https://img-proxy.imgfo.com/?referer=https://manganelo.com&url=https://s5.mkklcdnv6temp.com/mangakakalot/j1/jiraishin/vol12_chapter_211_file_21_part_1_dont_cry_kiss/22.jpg",
    "https://img-proxy.imgfo.com/?referer=https://manganelo.com&url=https://s5.mkklcdnv6temp.com/mangakakalot/j1/jiraishin/vol12_chapter_211_file_21_part_1_dont_cry_kiss/23.jpg",
    "https://img-proxy.imgfo.com/?referer=https://manganelo.com&url=https://s5.mkklcdnv6temp.com/mangakakalot/j1/jiraishin/vol12_chapter_211_file_21_part_1_dont_cry_kiss/24.jpg",
    "https://img-proxy.imgfo.com/?referer=https://manganelo.com&url=https://s5.mkklcdnv6temp.com/mangakakalot/j1/jiraishin/vol12_chapter_211_file_21_part_1_dont_cry_kiss/25.jpg",
    "https://img-proxy.imgfo.com/?referer=https://manganelo.com&url=https://s5.mkklcdnv6temp.com/mangakakalot/j1/jiraishin/vol12_chapter_211_file_21_part_1_dont_cry_kiss/26.jpg",
    "https://img-proxy.imgfo.com/?referer=https://manganelo.com&url=https://s5.mkklcdnv6temp.com/mangakakalot/j1/jiraishin/vol12_chapter_211_file_21_part_1_dont_cry_kiss/27.jpg",
    "https://img-proxy.imgfo.com/?referer=https://manganelo.com&url=https://s5.mkklcdnv6temp.com/mangakakalot/j1/jiraishin/vol12_chapter_211_file_21_part_1_dont_cry_kiss/28.jpg",
    "https://img-proxy.imgfo.com/?referer=https://manganelo.com&url=https://s5.mkklcdnv6temp.com/mangakakalot/j1/jiraishin/vol12_chapter_211_file_21_part_1_dont_cry_kiss/29.jpg",
    "https://img-proxy.imgfo.com/?referer=https://manganelo.com&url=https://s5.mkklcdnv6temp.com/mangakakalot/j1/jiraishin/vol12_chapter_211_file_21_part_1_dont_cry_kiss/30.jpg",
    "https://img-proxy.imgfo.com/?referer=https://manganelo.com&url=https://s5.mkklcdnv6temp.com/mangakakalot/j1/jiraishin/vol12_chapter_211_file_21_part_1_dont_cry_kiss/31.jpg",
    "https://img-proxy.imgfo.com/?referer=https://manganelo.com&url=https://s5.mkklcdnv6temp.com/mangakakalot/j1/jiraishin/vol12_chapter_211_file_21_part_1_dont_cry_kiss/32.jpg",
    "https://img-proxy.imgfo.com/?referer=https://manganelo.com&url=https://s5.mkklcdnv6temp.com/mangakakalot/j1/jiraishin/vol12_chapter_211_file_21_part_1_dont_cry_kiss/33.jpg",
    "https://img-proxy.imgfo.com/?referer=https://manganelo.com&url=https://s5.mkklcdnv6temp.com/mangakakalot/j1/jiraishin/vol12_chapter_211_file_21_part_1_dont_cry_kiss/34.jpg",
    "https://img-proxy.imgfo.com/?referer=https://manganelo.com&url=https://s5.mkklcdnv6temp.com/mangakakalot/j1/jiraishin/vol12_chapter_211_file_21_part_1_dont_cry_kiss/35.jpg",
    "https://img-proxy.imgfo.com/?referer=https://manganelo.com&url=https://s5.mkklcdnv6temp.com/mangakakalot/j1/jiraishin/vol12_chapter_211_file_21_part_1_dont_cry_kiss/36.jpg",
    "https://img-proxy.imgfo.com/?referer=https://manganelo.com&url=https://s5.mkklcdnv6temp.com/mangakakalot/j1/jiraishin/vol12_chapter_211_file_21_part_1_dont_cry_kiss/37.jpg",
    "https://img-proxy.imgfo.com/?referer=https://manganelo.com&url=https://s5.mkklcdnv6temp.com/mangakakalot/j1/jiraishin/vol12_chapter_211_file_21_part_1_dont_cry_kiss/38.jpg",
    "https://img-proxy.imgfo.com/?referer=https://manganelo.com&url=https://s5.mkklcdnv6temp.com/mangakakalot/j1/jiraishin/vol12_chapter_211_file_21_part_1_dont_cry_kiss/39.jpg",
    "https://img-proxy.imgfo.com/?referer=https://manganelo.com&url=https://s5.mkklcdnv6temp.com/mangakakalot/j1/jiraishin/vol12_chapter_211_file_21_part_1_dont_cry_kiss/40.jpg",
    "https://img-proxy.imgfo.com/?referer=https://manganelo.com&url=https://s5.mkklcdnv6temp.com/mangakakalot/j1/jiraishin/vol12_chapter_211_file_21_part_1_dont_cry_kiss/41.jpg",
    "https://img-proxy.imgfo.com/?referer=https://manganelo.com&url=https://s5.mkklcdnv6temp.com/mangakakalot/j1/jiraishin/vol12_chapter_211_file_21_part_1_dont_cry_kiss/42.jpg",
    "https://img-proxy.imgfo.com/?referer=https://manganelo.com&url=https://s5.mkklcdnv6temp.com/mangakakalot/j1/jiraishin/vol12_chapter_211_file_21_part_1_dont_cry_kiss/43.jpg",
    "https://img-proxy.imgfo.com/?referer=https://manganelo.com&url=https://s5.mkklcdnv6temp.com/mangakakalot/j1/jiraishin/vol12_chapter_211_file_21_part_1_dont_cry_kiss/44.jpg",
    "https://img-proxy.imgfo.com/?referer=https://manganelo.com&url=https://s5.mkklcdnv6temp.com/mangakakalot/j1/jiraishin/vol12_chapter_211_file_21_part_1_dont_cry_kiss/45.jpg",
    "https://img-proxy.imgfo.com/?referer=https://manganelo.com&url=https://s5.mkklcdnv6temp.com/mangakakalot/j1/jiraishin/vol12_chapter_211_file_21_part_1_dont_cry_kiss/46.jpg",
    "https://img-proxy.imgfo.com/?referer=https://manganelo.com&url=https://s5.mkklcdnv6temp.com/mangakakalot/j1/jiraishin/vol12_chapter_211_file_21_part_1_dont_cry_kiss/47.jpg",
    "https://img-proxy.imgfo.com/?referer=https://manganelo.com&url=https://s5.mkklcdnv6temp.com/mangakakalot/j1/jiraishin/vol12_chapter_211_file_21_part_1_dont_cry_kiss/48.jpg",
    "https://img-proxy.imgfo.com/?referer=https://manganelo.com&url=https://s5.mkklcdnv6temp.com/mangakakalot/j1/jiraishin/vol12_chapter_211_file_21_part_1_dont_cry_kiss/49.jpg",
    "https://img-proxy.imgfo.com/?referer=https://manganelo.com&url=https://s5.mkklcdnv6temp.com/mangakakalot/j1/jiraishin/vol12_chapter_211_file_21_part_1_dont_cry_kiss/50.jpg"
  ]
}