{
  "cover": "https://avt.mkklcdnv6.com/46/n/9-1583482050.jpg",
  "title": "Kodoku Experiment",
  "original": "コドク・エクスペリメント",
  "genre": "Action, Adventure, Drama, Horror, Sci fi, Seinen, Manga",
  "author": "Hoshino Yukinobu",
  "status": "Completed",
  "backlink": "https://manganu.com/collections/hoshino-yukinobu/kodoku-experiment/",
  "description": "Deronga Five Alpha is a dying unstable planet which according to studies, used to be a very lush planet with all kinds of different species. The current state of the planet is a horrifying place where vicious carnivorous creatures fight in the ?&oelig;survival of the fittest.”\nCaptain Bagures, the leader of the research spacecraft, is a cold and cruel woman who, despite the warnings, unnecessarily sends a military team down to the planet for research. The end result was a catastrophe with the team being slaughtered by the creatures on the planet. The leader of the team, Cannon, vows vengeance on Bagures before seemingly dying.\nJump to 20 years later, a spaceship comes near Deronga Five Alpha to see the end of the planet. As the planet explodes, a foreign object attaches itself onto the spaceship. As nothing can survive a planetary explosion, the crew investigates the object only to find out it is one of the creatures from the planet Deronga. As the story progresses, the creature goes into a rage after seeing Bagures, now an extremely important person in the military, on the monitor screen. Could this creature be Cannon and how do you stop something that can withstand a planetary explosion?",
  "language": "English",
  "images": [
    "https://img-proxy.imgfo.com/?referer=https://manganelo.com&url=https://s3.mkklcdnv6temp.com/mangakakalot/k2/kodoku_experiment/vol3_chapter_12/1.jpg",
    "https://img-proxy.imgfo.com/?referer=https://manganelo.com&url=https://s3.mkklcdnv6temp.com/mangakakalot/k2/kodoku_experiment/vol3_chapter_12/2.jpg",
    "https://img-proxy.imgfo.com/?referer=https://manganelo.com&url=https://s3.mkklcdnv6temp.com/mangakakalot/k2/kodoku_experiment/vol3_chapter_12/3.jpg",
    "https://img-proxy.imgfo.com/?referer=https://manganelo.com&url=https://s3.mkklcdnv6temp.com/mangakakalot/k2/kodoku_experiment/vol3_chapter_12/4.jpg",
    "https://img-proxy.imgfo.com/?referer=https://manganelo.com&url=https://s3.mkklcdnv6temp.com/mangakakalot/k2/kodoku_experiment/vol3_chapter_12/5.jpg",
    "https://img-proxy.imgfo.com/?referer=https://manganelo.com&url=https://s3.mkklcdnv6temp.com/mangakakalot/k2/kodoku_experiment/vol3_chapter_12/6.jpg",
    "https://img-proxy.imgfo.com/?referer=https://manganelo.com&url=https://s3.mkklcdnv6temp.com/mangakakalot/k2/kodoku_experiment/vol3_chapter_12/7.jpg",
    "https://img-proxy.imgfo.com/?referer=https://manganelo.com&url=https://s3.mkklcdnv6temp.com/mangakakalot/k2/kodoku_experiment/vol3_chapter_12/8.jpg",
    "https://img-proxy.imgfo.com/?referer=https://manganelo.com&url=https://s3.mkklcdnv6temp.com/mangakakalot/k2/kodoku_experiment/vol3_chapter_12/9.jpg",
    "https://img-proxy.imgfo.com/?referer=https://manganelo.com&url=https://s3.mkklcdnv6temp.com/mangakakalot/k2/kodoku_experiment/vol3_chapter_12/10.jpg",
    "https://img-proxy.imgfo.com/?referer=https://manganelo.com&url=https://s3.mkklcdnv6temp.com/mangakakalot/k2/kodoku_experiment/vol3_chapter_12/11.jpg",
    "https://img-proxy.imgfo.com/?referer=https://manganelo.com&url=https://s3.mkklcdnv6temp.com/mangakakalot/k2/kodoku_experiment/vol3_chapter_12/12.jpg",
    "https://img-proxy.imgfo.com/?referer=https://manganelo.com&url=https://s3.mkklcdnv6temp.com/mangakakalot/k2/kodoku_experiment/vol3_chapter_12/13.jpg",
    "https://img-proxy.imgfo.com/?referer=https://manganelo.com&url=https://s3.mkklcdnv6temp.com/mangakakalot/k2/kodoku_experiment/vol3_chapter_12/14.jpg",
    "https://img-proxy.imgfo.com/?referer=https://manganelo.com&url=https://s3.mkklcdnv6temp.com/mangakakalot/k2/kodoku_experiment/vol3_chapter_12/15.jpg",
    "https://img-proxy.imgfo.com/?referer=https://manganelo.com&url=https://s3.mkklcdnv6temp.com/mangakakalot/k2/kodoku_experiment/vol3_chapter_12/16.jpg",
    "https://img-proxy.imgfo.com/?referer=https://manganelo.com&url=https://s3.mkklcdnv6temp.com/mangakakalot/k2/kodoku_experiment/vol3_chapter_12/17.jpg",
    "https://img-proxy.imgfo.com/?referer=https://manganelo.com&url=https://s3.mkklcdnv6temp.com/mangakakalot/k2/kodoku_experiment/vol3_chapter_12/18.jpg",
    "https://img-proxy.imgfo.com/?referer=https://manganelo.com&url=https://s3.mkklcdnv6temp.com/mangakakalot/k2/kodoku_experiment/vol3_chapter_12/19.jpg",
    "https://img-proxy.imgfo.com/?referer=https://manganelo.com&url=https://s3.mkklcdnv6temp.com/mangakakalot/k2/kodoku_experiment/vol3_chapter_12/20.jpg",
    "https://img-proxy.imgfo.com/?referer=https://manganelo.com&url=https://s3.mkklcdnv6temp.com/mangakakalot/k2/kodoku_experiment/vol3_chapter_12/21.jpg",
    "https://img-proxy.imgfo.com/?referer=https://manganelo.com&url=https://s3.mkklcdnv6temp.com/mangakakalot/k2/kodoku_experiment/vol3_chapter_12/22.jpg",
    "https://img-proxy.imgfo.com/?referer=https://manganelo.com&url=https://s3.mkklcdnv6temp.com/mangakakalot/k2/kodoku_experiment/vol3_chapter_12/23.jpg",
    "https://img-proxy.imgfo.com/?referer=https://manganelo.com&url=https://s3.mkklcdnv6temp.com/mangakakalot/k2/kodoku_experiment/vol3_chapter_12/24.jpg",
    "https://img-proxy.imgfo.com/?referer=https://manganelo.com&url=https://s3.mkklcdnv6temp.com/mangakakalot/k2/kodoku_experiment/vol3_chapter_12/25.jpg",
    "https://img-proxy.imgfo.com/?referer=https://manganelo.com&url=https://s3.mkklcdnv6temp.com/mangakakalot/k2/kodoku_experiment/vol3_chapter_12/26.jpg",
    "https://img-proxy.imgfo.com/?referer=https://manganelo.com&url=https://s3.mkklcdnv6temp.com/mangakakalot/k2/kodoku_experiment/vol3_chapter_12/27.jpg",
    "https://img-proxy.imgfo.com/?referer=https://manganelo.com&url=https://s3.mkklcdnv6temp.com/mangakakalot/k2/kodoku_experiment/vol3_chapter_12/28.jpg",
    "https://img-proxy.imgfo.com/?referer=https://manganelo.com&url=https://s3.mkklcdnv6temp.com/mangakakalot/k2/kodoku_experiment/vol3_chapter_12/29.jpg",
    "https://img-proxy.imgfo.com/?referer=https://manganelo.com&url=https://s3.mkklcdnv6temp.com/mangakakalot/k2/kodoku_experiment/vol3_chapter_12/30.jpg",
    "https://img-proxy.imgfo.com/?referer=https://manganelo.com&url=https://s3.mkklcdnv6temp.com/mangakakalot/k2/kodoku_experiment/vol3_chapter_12/31.jpg",
    "https://img-proxy.imgfo.com/?referer=https://manganelo.com&url=https://s3.mkklcdnv6temp.com/mangakakalot/k2/kodoku_experiment/vol3_chapter_12/32.jpg",
    "https://img-proxy.imgfo.com/?referer=https://manganelo.com&url=https://s3.mkklcdnv6temp.com/mangakakalot/k2/kodoku_experiment/vol3_chapter_12/33.jpg",
    "https://img-proxy.imgfo.com/?referer=https://manganelo.com&url=https://s3.mkklcdnv6temp.com/mangakakalot/k2/kodoku_experiment/vol3_chapter_12/34.jpg",
    "https://img-proxy.imgfo.com/?referer=https://manganelo.com&url=https://s3.mkklcdnv6temp.com/mangakakalot/k2/kodoku_experiment/vol3_chapter_12/35.jpg",
    "https://img-proxy.imgfo.com/?referer=https://manganelo.com&url=https://s3.mkklcdnv6temp.com/mangakakalot/k2/kodoku_experiment/vol3_chapter_12/36.jpg",
    "https://img-proxy.imgfo.com/?referer=https://manganelo.com&url=https://s3.mkklcdnv6temp.com/mangakakalot/k2/kodoku_experiment/vol3_chapter_12/37.jpg",
    "https://img-proxy.imgfo.com/?referer=https://manganelo.com&url=https://s3.mkklcdnv6temp.com/mangakakalot/k2/kodoku_experiment/vol3_chapter_12/38.jpg",
    "https://img-proxy.imgfo.com/?referer=https://manganelo.com&url=https://s3.mkklcdnv6temp.com/mangakakalot/k2/kodoku_experiment/vol3_chapter_12/39.jpg",
    "https://img-proxy.imgfo.com/?referer=https://manganelo.com&url=https://s3.mkklcdnv6temp.com/mangakakalot/k2/kodoku_experiment/vol3_chapter_12/40.jpg",
    "https://img-proxy.imgfo.com/?referer=https://manganelo.com&url=https://s3.mkklcdnv6temp.com/mangakakalot/k2/kodoku_experiment/vol3_chapter_12/41.jpg",
    "https://img-proxy.imgfo.com/?referer=https://manganelo.com&url=https://s3.mkklcdnv6temp.com/mangakakalot/k2/kodoku_experiment/vol3_chapter_12/42.jpg",
    "https://img-proxy.imgfo.com/?referer=https://manganelo.com&url=https://s3.mkklcdnv6temp.com/mangakakalot/k2/kodoku_experiment/vol3_chapter_12/43.jpg",
    "https://img-proxy.imgfo.com/?referer=https://manganelo.com&url=https://s3.mkklcdnv6temp.com/mangakakalot/k2/kodoku_experiment/vol3_chapter_12/44.jpg",
    "https://img-proxy.imgfo.com/?referer=https://manganelo.com&url=https://s3.mkklcdnv6temp.com/mangakakalot/k2/kodoku_experiment/vol3_chapter_12/45.jpg",
    "https://img-proxy.imgfo.com/?referer=https://manganelo.com&url=https://s3.mkklcdnv6temp.com/mangakakalot/k2/kodoku_experiment/vol3_chapter_12/46.jpg",
    "https://img-proxy.imgfo.com/?referer=https://manganelo.com&url=https://s3.mkklcdnv6temp.com/mangakakalot/k2/kodoku_experiment/vol3_chapter_12/47.jpg",
    "https://img-proxy.imgfo.com/?referer=https://manganelo.com&url=https://s3.mkklcdnv6temp.com/mangakakalot/k2/kodoku_experiment/vol3_chapter_12/48.jpg",
    "https://img-proxy.imgfo.com/?referer=https://manganelo.com&url=https://s3.mkklcdnv6temp.com/mangakakalot/k2/kodoku_experiment/vol3_chapter_12/49.jpg",
    "https://img-proxy.imgfo.com/?referer=https://manganelo.com&url=https://s3.mkklcdnv6temp.com/mangakakalot/k2/kodoku_experiment/vol3_chapter_12/50.jpg",
    "https://img-proxy.imgfo.com/?referer=https://manganelo.com&url=https://s3.mkklcdnv6temp.com/mangakakalot/k2/kodoku_experiment/vol3_chapter_12/51.jpg",
    "https://img-proxy.imgfo.com/?referer=https://manganelo.com&url=https://s3.mkklcdnv6temp.com/mangakakalot/k2/kodoku_experiment/vol3_chapter_12/52.jpg",
    "https://img-proxy.imgfo.com/?referer=https://manganelo.com&url=https://s3.mkklcdnv6temp.com/mangakakalot/k2/kodoku_experiment/vol3_chapter_12/53.jpg",
    "https://img-proxy.imgfo.com/?referer=https://manganelo.com&url=https://s3.mkklcdnv6temp.com/mangakakalot/k2/kodoku_experiment/vol3_chapter_12/54.jpg",
    "https://img-proxy.imgfo.com/?referer=https://manganelo.com&url=https://s3.mkklcdnv6temp.com/mangakakalot/k2/kodoku_experiment/vol3_chapter_12/55.jpg"
  ]
}