{
  "cover": "https://avt.mkklcdnv6.com/43/r/4-1583471505.jpg",
  "title": "Shaman King",
  "original": "シャーマンキング ; 通灵王 ; Exotica ; Vua Pháp Thuật (Vietnam)",
  "genre": "Action, Adult, Adventure, Comedy, Fantasy, Shounen, Supernatural, Manga",
  "author": "Takei Hiroyuki",
  "status": "Completed",
  "backlink": "https://manganu.com/collections/takei-hiroyuki/shaman-king/",
  "description": "Yoh Asakura is a shaman--one of the gifted few who, thanks to training or natural talent, can channel spirits that most people can&#39;t even see. With the help of his fianc&eacute;e, Anna, Yoh is in training for the ultimate shaman sports event: the &quot;Shaman Fight in Tokyo,&quot; the once-every-500-years tournament to see who can shape humanity&#39;s future and become the Shaman King. But unfortunately for Yoh, every shaman in the world is competing for the same prize&hellip; --- Funbari no Uta is set seven years later (2007) after the Shaman Tournament, and revolves around Hana Asakura, the son of Yoh and Anna. Hana and Ryunosuke Umemiya are searching for the members of Team Ren and Lyserg for the grand opening of Funbari no Onsen, which is run by Tamao in the story. The story ends with a montage of panels showing all the aforementioned characters preparing to travel to Funbari no Onsen, ending with a spread of Anna and Yoh. --- Mappa-Douji - Is a manga created by Japanese mangaka Hiroyuki Takei. It is one chapter long and is the tale of Hao Asakura, a Shaman King character, as a child 1000 years ago. In this original incarnation, his name is Asaha Douji. He was named after his mother, Asano Ha, who was killed by humans for being a yokai who could see and speak with demons. After his mother&#39;s death, Asaha is left with no home and no family. He meets and befriends a demon named Ohachiyo who renames him Mappa Douji (Demon Child), to avoid confusion between his and his mother&#39;s similar names, as the kanji could be pronounced both ways. Ohachiyo teaches Mappa Douji many things, and towards the end of the story he gives Mappa Douji the demonic power of reading minds, the beginning of Hao&#39;s powerfully and dangerously gifted mind. It is not told in this story, but in the main Shaman King manga, Hao later becomes an onmyōji, which is a hint that Hao&#39;s fictional life may be based on the Japanese legend of Abe no Seimei, a famous onmyōji whose mother was also rumoured to be a yokai.",
  "language": "English",
  "images": [
    "https://img-proxy.imgfo.com/?referer=https://manganelo.com&url=https://s7.mkklcdnv6temp.com/mangakakalot/r1/read_shaman_king/vol21_chapter_181_epilogue_3/1.jpg",
    "https://img-proxy.imgfo.com/?referer=https://manganelo.com&url=https://s7.mkklcdnv6temp.com/mangakakalot/r1/read_shaman_king/vol21_chapter_181_epilogue_3/2.jpg",
    "https://img-proxy.imgfo.com/?referer=https://manganelo.com&url=https://s7.mkklcdnv6temp.com/mangakakalot/r1/read_shaman_king/vol21_chapter_181_epilogue_3/3.jpg",
    "https://img-proxy.imgfo.com/?referer=https://manganelo.com&url=https://s7.mkklcdnv6temp.com/mangakakalot/r1/read_shaman_king/vol21_chapter_181_epilogue_3/4.jpg",
    "https://img-proxy.imgfo.com/?referer=https://manganelo.com&url=https://s7.mkklcdnv6temp.com/mangakakalot/r1/read_shaman_king/vol21_chapter_181_epilogue_3/5.jpg",
    "https://img-proxy.imgfo.com/?referer=https://manganelo.com&url=https://s7.mkklcdnv6temp.com/mangakakalot/r1/read_shaman_king/vol21_chapter_181_epilogue_3/6.jpg",
    "https://img-proxy.imgfo.com/?referer=https://manganelo.com&url=https://s7.mkklcdnv6temp.com/mangakakalot/r1/read_shaman_king/vol21_chapter_181_epilogue_3/7.jpg",
    "https://img-proxy.imgfo.com/?referer=https://manganelo.com&url=https://s7.mkklcdnv6temp.com/mangakakalot/r1/read_shaman_king/vol21_chapter_181_epilogue_3/8.jpg",
    "https://img-proxy.imgfo.com/?referer=https://manganelo.com&url=https://s7.mkklcdnv6temp.com/mangakakalot/r1/read_shaman_king/vol21_chapter_181_epilogue_3/9.jpg",
    "https://img-proxy.imgfo.com/?referer=https://manganelo.com&url=https://s7.mkklcdnv6temp.com/mangakakalot/r1/read_shaman_king/vol21_chapter_181_epilogue_3/10.jpg",
    "https://img-proxy.imgfo.com/?referer=https://manganelo.com&url=https://s7.mkklcdnv6temp.com/mangakakalot/r1/read_shaman_king/vol21_chapter_181_epilogue_3/11.jpg",
    "https://img-proxy.imgfo.com/?referer=https://manganelo.com&url=https://s7.mkklcdnv6temp.com/mangakakalot/r1/read_shaman_king/vol21_chapter_181_epilogue_3/12.jpg",
    "https://img-proxy.imgfo.com/?referer=https://manganelo.com&url=https://s7.mkklcdnv6temp.com/mangakakalot/r1/read_shaman_king/vol21_chapter_181_epilogue_3/13.jpg",
    "https://img-proxy.imgfo.com/?referer=https://manganelo.com&url=https://s7.mkklcdnv6temp.com/mangakakalot/r1/read_shaman_king/vol21_chapter_181_epilogue_3/14.jpg",
    "https://img-proxy.imgfo.com/?referer=https://manganelo.com&url=https://s7.mkklcdnv6temp.com/mangakakalot/r1/read_shaman_king/vol21_chapter_181_epilogue_3/15.jpg",
    "https://img-proxy.imgfo.com/?referer=https://manganelo.com&url=https://s7.mkklcdnv6temp.com/mangakakalot/r1/read_shaman_king/vol21_chapter_181_epilogue_3/16.jpg",
    "https://img-proxy.imgfo.com/?referer=https://manganelo.com&url=https://s7.mkklcdnv6temp.com/mangakakalot/r1/read_shaman_king/vol21_chapter_181_epilogue_3/17.jpg",
    "https://img-proxy.imgfo.com/?referer=https://manganelo.com&url=https://s7.mkklcdnv6temp.com/mangakakalot/r1/read_shaman_king/vol21_chapter_181_epilogue_3/18.jpg",
    "https://img-proxy.imgfo.com/?referer=https://manganelo.com&url=https://s7.mkklcdnv6temp.com/mangakakalot/r1/read_shaman_king/vol21_chapter_181_epilogue_3/19.jpg",
    "https://img-proxy.imgfo.com/?referer=https://manganelo.com&url=https://s7.mkklcdnv6temp.com/mangakakalot/r1/read_shaman_king/vol21_chapter_181_epilogue_3/20.jpg",
    "https://img-proxy.imgfo.com/?referer=https://manganelo.com&url=https://s7.mkklcdnv6temp.com/mangakakalot/r1/read_shaman_king/vol21_chapter_181_epilogue_3/21.jpg",
    "https://img-proxy.imgfo.com/?referer=https://manganelo.com&url=https://s7.mkklcdnv6temp.com/mangakakalot/r1/read_shaman_king/vol21_chapter_181_epilogue_3/22.jpg",
    "https://img-proxy.imgfo.com/?referer=https://manganelo.com&url=https://s7.mkklcdnv6temp.com/mangakakalot/r1/read_shaman_king/vol21_chapter_181_epilogue_3/23.jpg"
  ]
}