{
  "cover": "https://avt.mkklcdnv6.com/48/g/5-1583473777.jpg",
  "title": "Nekoka Kareshi No Ayashikata",
  "original": "ネコ科彼氏のあやし方 ; 貓科男友的逗弄方法 ; Neko-Ka Kareshi no Ayashikata ; Cat boyfriend's teasing ways",
  "genre": "Comedy, School life, Supernatural, Yaoi, Manga",
  "author": "Sakyo Aya",
  "status": "Completed",
  "backlink": "https://manganu.com/collections/sakyo-aya/nekoka-kareshi-no-ayashikata/",
  "description": "From Girls' Generation:\nKokonoe is a werecat who turns into a cat when he is excited. Destiny has it that one morning, Kokonoe, runs into Natsume, who seems to have a special relationship with cats. With Natsume's touch, Kokonoe soons finds himself purring and getting excited. However, Kokonoe is determined to keep his cat side and the feelings he has for Natsume under control.\nHow will their love blossom? A love lesson between a white coat school doctor and a werecat.",
  "language": "English",
  "images": [
    "https://img-proxy.imgfo.com/?referer=https://manganelo.com&url=https://s3.mkklcdnv6temp.com/mangakakalot/n1/nekoka_kareshi_no_ayashikata/vol1_chapter_7_v2_extra_end/1.jpg",
    "https://img-proxy.imgfo.com/?referer=https://manganelo.com&url=https://s3.mkklcdnv6temp.com/mangakakalot/n1/nekoka_kareshi_no_ayashikata/vol1_chapter_7_v2_extra_end/2.jpg",
    "https://img-proxy.imgfo.com/?referer=https://manganelo.com&url=https://s3.mkklcdnv6temp.com/mangakakalot/n1/nekoka_kareshi_no_ayashikata/vol1_chapter_7_v2_extra_end/3.jpg",
    "https://img-proxy.imgfo.com/?referer=https://manganelo.com&url=https://s3.mkklcdnv6temp.com/mangakakalot/n1/nekoka_kareshi_no_ayashikata/vol1_chapter_7_v2_extra_end/4.jpg",
    "https://img-proxy.imgfo.com/?referer=https://manganelo.com&url=https://s3.mkklcdnv6temp.com/mangakakalot/n1/nekoka_kareshi_no_ayashikata/vol1_chapter_7_v2_extra_end/5.jpg",
    "https://img-proxy.imgfo.com/?referer=https://manganelo.com&url=https://s3.mkklcdnv6temp.com/mangakakalot/n1/nekoka_kareshi_no_ayashikata/vol1_chapter_7_v2_extra_end/6.jpg",
    "https://img-proxy.imgfo.com/?referer=https://manganelo.com&url=https://s3.mkklcdnv6temp.com/mangakakalot/n1/nekoka_kareshi_no_ayashikata/vol1_chapter_7_v2_extra_end/7.jpg",
    "https://img-proxy.imgfo.com/?referer=https://manganelo.com&url=https://s3.mkklcdnv6temp.com/mangakakalot/n1/nekoka_kareshi_no_ayashikata/vol1_chapter_7_v2_extra_end/8.jpg",
    "https://img-proxy.imgfo.com/?referer=https://manganelo.com&url=https://s3.mkklcdnv6temp.com/mangakakalot/n1/nekoka_kareshi_no_ayashikata/vol1_chapter_7_v2_extra_end/9.jpg",
    "https://img-proxy.imgfo.com/?referer=https://manganelo.com&url=https://s3.mkklcdnv6temp.com/mangakakalot/n1/nekoka_kareshi_no_ayashikata/vol1_chapter_7_v2_extra_end/10.jpg",
    "https://img-proxy.imgfo.com/?referer=https://manganelo.com&url=https://s3.mkklcdnv6temp.com/mangakakalot/n1/nekoka_kareshi_no_ayashikata/vol1_chapter_7_v2_extra_end/11.jpg",
    "https://img-proxy.imgfo.com/?referer=https://manganelo.com&url=https://s3.mkklcdnv6temp.com/mangakakalot/n1/nekoka_kareshi_no_ayashikata/vol1_chapter_7_v2_extra_end/12.jpg",
    "https://img-proxy.imgfo.com/?referer=https://manganelo.com&url=https://s3.mkklcdnv6temp.com/mangakakalot/n1/nekoka_kareshi_no_ayashikata/vol1_chapter_7_v2_extra_end/13.jpg",
    "https://img-proxy.imgfo.com/?referer=https://manganelo.com&url=https://s3.mkklcdnv6temp.com/mangakakalot/n1/nekoka_kareshi_no_ayashikata/vol1_chapter_7_v2_extra_end/14.jpg",
    "https://img-proxy.imgfo.com/?referer=https://manganelo.com&url=https://s3.mkklcdnv6temp.com/mangakakalot/n1/nekoka_kareshi_no_ayashikata/vol1_chapter_7_v2_extra_end/15.jpg",
    "https://img-proxy.imgfo.com/?referer=https://manganelo.com&url=https://s3.mkklcdnv6temp.com/mangakakalot/n1/nekoka_kareshi_no_ayashikata/vol1_chapter_7_v2_extra_end/16.jpg",
    "https://img-proxy.imgfo.com/?referer=https://manganelo.com&url=https://s3.mkklcdnv6temp.com/mangakakalot/n1/nekoka_kareshi_no_ayashikata/vol1_chapter_7_v2_extra_end/17.jpg"
  ]
}