{
  "cover": "https://avt.mkklcdnv6.com/15/c/5-1583472436.jpg",
  "title": "Kimagure Orange Road",
  "original": "きまぐれオレンジロード ; きまぐれオレンジ★ロード ; きまぐれオレンジ☆ロード ; KOR ; Orange Road",
  "genre": "Action, Adult, Comedy, Cooking, Drama, Romance, School life, Shounen, Slice of life, Supernatural, Manga",
  "author": "Matsumoto Izumi",
  "status": "Completed",
  "backlink": "https://manganu.com/collections/matsumoto-izumi/kimagure-orange-road/",
  "description": "[Taken from Mang-Project]: KOR is the story of the Kasuga family, but mostly the oldest son, Kyosuke (who narrates), as they move to a new town after being found out to be a family of ESPers. Kyosuke meets a pretty young girl as he counts the &quot;100 steps&quot; (there may only be 99) that lead to his new school and is immediately smitten. However, by the end of the second episode, the pretty young girl, named Ayukawa Madoka (as in Japanese custom, I use the family name first) has agreed to help her best friend Hiyama Hikaru win Kyosuke. Thus, a love triangle is born that lasts for 18 volumes.\n\nOther manga:\n+ Gangsta manga\n+ Deadman Wonderland manga",
  "language": "English",
  "images": [
    "https://img-proxy.imgfo.com/?referer=https://manganelo.com&url=https://s41.mkklcdnv6temp.com/mangakakalot/k1/kimagure_orange_road/vol7_chapter_56/1.jpg",
    "https://img-proxy.imgfo.com/?referer=https://manganelo.com&url=https://s41.mkklcdnv6temp.com/mangakakalot/k1/kimagure_orange_road/vol7_chapter_56/2.jpg",
    "https://img-proxy.imgfo.com/?referer=https://manganelo.com&url=https://s41.mkklcdnv6temp.com/mangakakalot/k1/kimagure_orange_road/vol7_chapter_56/3.jpg",
    "https://img-proxy.imgfo.com/?referer=https://manganelo.com&url=https://s41.mkklcdnv6temp.com/mangakakalot/k1/kimagure_orange_road/vol7_chapter_56/4.jpg",
    "https://img-proxy.imgfo.com/?referer=https://manganelo.com&url=https://s41.mkklcdnv6temp.com/mangakakalot/k1/kimagure_orange_road/vol7_chapter_56/5.jpg",
    "https://img-proxy.imgfo.com/?referer=https://manganelo.com&url=https://s41.mkklcdnv6temp.com/mangakakalot/k1/kimagure_orange_road/vol7_chapter_56/6.jpg",
    "https://img-proxy.imgfo.com/?referer=https://manganelo.com&url=https://s41.mkklcdnv6temp.com/mangakakalot/k1/kimagure_orange_road/vol7_chapter_56/7.jpg",
    "https://img-proxy.imgfo.com/?referer=https://manganelo.com&url=https://s41.mkklcdnv6temp.com/mangakakalot/k1/kimagure_orange_road/vol7_chapter_56/8.jpg",
    "https://img-proxy.imgfo.com/?referer=https://manganelo.com&url=https://s41.mkklcdnv6temp.com/mangakakalot/k1/kimagure_orange_road/vol7_chapter_56/9.jpg",
    "https://img-proxy.imgfo.com/?referer=https://manganelo.com&url=https://s41.mkklcdnv6temp.com/mangakakalot/k1/kimagure_orange_road/vol7_chapter_56/10.jpg",
    "https://img-proxy.imgfo.com/?referer=https://manganelo.com&url=https://s41.mkklcdnv6temp.com/mangakakalot/k1/kimagure_orange_road/vol7_chapter_56/11.jpg",
    "https://img-proxy.imgfo.com/?referer=https://manganelo.com&url=https://s41.mkklcdnv6temp.com/mangakakalot/k1/kimagure_orange_road/vol7_chapter_56/12.jpg",
    "https://img-proxy.imgfo.com/?referer=https://manganelo.com&url=https://s41.mkklcdnv6temp.com/mangakakalot/k1/kimagure_orange_road/vol7_chapter_56/13.jpg",
    "https://img-proxy.imgfo.com/?referer=https://manganelo.com&url=https://s41.mkklcdnv6temp.com/mangakakalot/k1/kimagure_orange_road/vol7_chapter_56/14.jpg",
    "https://img-proxy.imgfo.com/?referer=https://manganelo.com&url=https://s41.mkklcdnv6temp.com/mangakakalot/k1/kimagure_orange_road/vol7_chapter_56/15.jpg",
    "https://img-proxy.imgfo.com/?referer=https://manganelo.com&url=https://s41.mkklcdnv6temp.com/mangakakalot/k1/kimagure_orange_road/vol7_chapter_56/16.jpg",
    "https://img-proxy.imgfo.com/?referer=https://manganelo.com&url=https://s41.mkklcdnv6temp.com/mangakakalot/k1/kimagure_orange_road/vol7_chapter_56/17.jpg",
    "https://img-proxy.imgfo.com/?referer=https://manganelo.com&url=https://s41.mkklcdnv6temp.com/mangakakalot/k1/kimagure_orange_road/vol7_chapter_56/18.jpg",
    "https://img-proxy.imgfo.com/?referer=https://manganelo.com&url=https://s41.mkklcdnv6temp.com/mangakakalot/k1/kimagure_orange_road/vol7_chapter_56/19.jpg",
    "https://img-proxy.imgfo.com/?referer=https://manganelo.com&url=https://s41.mkklcdnv6temp.com/mangakakalot/k1/kimagure_orange_road/vol7_chapter_56/20.jpg",
    "https://img-proxy.imgfo.com/?referer=https://manganelo.com&url=https://s41.mkklcdnv6temp.com/mangakakalot/k1/kimagure_orange_road/vol7_chapter_56/21.jpg"
  ]
}