{
  "cover": "https://avt.mkklcdnv6.com/49/a/11-1583485783.jpg",
  "title": "Seikai Trilogy",
  "original": "Seikai no Monshou, Crest of the Stars",
  "genre": "Action, Romance, Sci fi, Manga",
  "author": "Morioka Hiroyuki",
  "status": "Completed",
  "backlink": "https://manganu.com/collections/morioka-hiroyuki/seikai-trilogy/",
  "description": "From Tokyopop:\nAfter his home world is ruthlessly taken over by the Abh - a space-faring race that has conquered thousands of galaxies - a boy named Jinto begins an unforgettable journey that stretches the boundaries of the final frontier. With a beautiful princess at his side, he will attempt to unlock the secret behind the Abh domination and discover that all's fair in love and interplanetary war.",
  "language": "English",
  "images": [
    "https://img-proxy.imgfo.com/?referer=https://manganelo.com&url=https://s7.mkklcdnv6temp.com/mangakakalot/s1/seikai_trilogy/vol02_chapter_3_hectocommander_atosuryua/1.jpg",
    "https://img-proxy.imgfo.com/?referer=https://manganelo.com&url=https://s7.mkklcdnv6temp.com/mangakakalot/s1/seikai_trilogy/vol02_chapter_3_hectocommander_atosuryua/2.jpg",
    "https://img-proxy.imgfo.com/?referer=https://manganelo.com&url=https://s7.mkklcdnv6temp.com/mangakakalot/s1/seikai_trilogy/vol02_chapter_3_hectocommander_atosuryua/3.jpg",
    "https://img-proxy.imgfo.com/?referer=https://manganelo.com&url=https://s7.mkklcdnv6temp.com/mangakakalot/s1/seikai_trilogy/vol02_chapter_3_hectocommander_atosuryua/4.jpg",
    "https://img-proxy.imgfo.com/?referer=https://manganelo.com&url=https://s7.mkklcdnv6temp.com/mangakakalot/s1/seikai_trilogy/vol02_chapter_3_hectocommander_atosuryua/5.jpg",
    "https://img-proxy.imgfo.com/?referer=https://manganelo.com&url=https://s7.mkklcdnv6temp.com/mangakakalot/s1/seikai_trilogy/vol02_chapter_3_hectocommander_atosuryua/6.jpg",
    "https://img-proxy.imgfo.com/?referer=https://manganelo.com&url=https://s7.mkklcdnv6temp.com/mangakakalot/s1/seikai_trilogy/vol02_chapter_3_hectocommander_atosuryua/7.jpg",
    "https://img-proxy.imgfo.com/?referer=https://manganelo.com&url=https://s7.mkklcdnv6temp.com/mangakakalot/s1/seikai_trilogy/vol02_chapter_3_hectocommander_atosuryua/8.jpg",
    "https://img-proxy.imgfo.com/?referer=https://manganelo.com&url=https://s7.mkklcdnv6temp.com/mangakakalot/s1/seikai_trilogy/vol02_chapter_3_hectocommander_atosuryua/9.jpg",
    "https://img-proxy.imgfo.com/?referer=https://manganelo.com&url=https://s7.mkklcdnv6temp.com/mangakakalot/s1/seikai_trilogy/vol02_chapter_3_hectocommander_atosuryua/10.jpg",
    "https://img-proxy.imgfo.com/?referer=https://manganelo.com&url=https://s7.mkklcdnv6temp.com/mangakakalot/s1/seikai_trilogy/vol02_chapter_3_hectocommander_atosuryua/11.jpg",
    "https://img-proxy.imgfo.com/?referer=https://manganelo.com&url=https://s7.mkklcdnv6temp.com/mangakakalot/s1/seikai_trilogy/vol02_chapter_3_hectocommander_atosuryua/12.jpg",
    "https://img-proxy.imgfo.com/?referer=https://manganelo.com&url=https://s7.mkklcdnv6temp.com/mangakakalot/s1/seikai_trilogy/vol02_chapter_3_hectocommander_atosuryua/13.jpg",
    "https://img-proxy.imgfo.com/?referer=https://manganelo.com&url=https://s7.mkklcdnv6temp.com/mangakakalot/s1/seikai_trilogy/vol02_chapter_3_hectocommander_atosuryua/14.jpg",
    "https://img-proxy.imgfo.com/?referer=https://manganelo.com&url=https://s7.mkklcdnv6temp.com/mangakakalot/s1/seikai_trilogy/vol02_chapter_3_hectocommander_atosuryua/15.jpg",
    "https://img-proxy.imgfo.com/?referer=https://manganelo.com&url=https://s7.mkklcdnv6temp.com/mangakakalot/s1/seikai_trilogy/vol02_chapter_3_hectocommander_atosuryua/16.jpg"
  ]
}