{
  "cover": "https://avt.mkklcdnv6.com/49/a/11-1583485783.jpg",
  "title": "Seikai Trilogy",
  "original": "Seikai no Monshou, Crest of the Stars",
  "genre": "Action, Romance, Sci fi, Manga",
  "author": "Morioka Hiroyuki",
  "status": "Completed",
  "backlink": "https://manganu.com/collections/morioka-hiroyuki/seikai-trilogy/",
  "description": "From Tokyopop:\nAfter his home world is ruthlessly taken over by the Abh - a space-faring race that has conquered thousands of galaxies - a boy named Jinto begins an unforgettable journey that stretches the boundaries of the final frontier. With a beautiful princess at his side, he will attempt to unlock the secret behind the Abh domination and discover that all's fair in love and interplanetary war.",
  "language": "English",
  "images": [
    "https://img-proxy.imgfo.com/?referer=https://manganelo.com&url=https://s7.mkklcdnv6temp.com/mangakakalot/s1/seikai_trilogy/vol03_chapter_7_things_to_protect/1.jpg",
    "https://img-proxy.imgfo.com/?referer=https://manganelo.com&url=https://s7.mkklcdnv6temp.com/mangakakalot/s1/seikai_trilogy/vol03_chapter_7_things_to_protect/2.jpg",
    "https://img-proxy.imgfo.com/?referer=https://manganelo.com&url=https://s7.mkklcdnv6temp.com/mangakakalot/s1/seikai_trilogy/vol03_chapter_7_things_to_protect/3.jpg",
    "https://img-proxy.imgfo.com/?referer=https://manganelo.com&url=https://s7.mkklcdnv6temp.com/mangakakalot/s1/seikai_trilogy/vol03_chapter_7_things_to_protect/4.jpg",
    "https://img-proxy.imgfo.com/?referer=https://manganelo.com&url=https://s7.mkklcdnv6temp.com/mangakakalot/s1/seikai_trilogy/vol03_chapter_7_things_to_protect/5.jpg",
    "https://img-proxy.imgfo.com/?referer=https://manganelo.com&url=https://s7.mkklcdnv6temp.com/mangakakalot/s1/seikai_trilogy/vol03_chapter_7_things_to_protect/6.jpg",
    "https://img-proxy.imgfo.com/?referer=https://manganelo.com&url=https://s7.mkklcdnv6temp.com/mangakakalot/s1/seikai_trilogy/vol03_chapter_7_things_to_protect/7.jpg",
    "https://img-proxy.imgfo.com/?referer=https://manganelo.com&url=https://s7.mkklcdnv6temp.com/mangakakalot/s1/seikai_trilogy/vol03_chapter_7_things_to_protect/8.jpg",
    "https://img-proxy.imgfo.com/?referer=https://manganelo.com&url=https://s7.mkklcdnv6temp.com/mangakakalot/s1/seikai_trilogy/vol03_chapter_7_things_to_protect/9.jpg",
    "https://img-proxy.imgfo.com/?referer=https://manganelo.com&url=https://s7.mkklcdnv6temp.com/mangakakalot/s1/seikai_trilogy/vol03_chapter_7_things_to_protect/10.jpg",
    "https://img-proxy.imgfo.com/?referer=https://manganelo.com&url=https://s7.mkklcdnv6temp.com/mangakakalot/s1/seikai_trilogy/vol03_chapter_7_things_to_protect/11.jpg",
    "https://img-proxy.imgfo.com/?referer=https://manganelo.com&url=https://s7.mkklcdnv6temp.com/mangakakalot/s1/seikai_trilogy/vol03_chapter_7_things_to_protect/12.jpg",
    "https://img-proxy.imgfo.com/?referer=https://manganelo.com&url=https://s7.mkklcdnv6temp.com/mangakakalot/s1/seikai_trilogy/vol03_chapter_7_things_to_protect/13.jpg",
    "https://img-proxy.imgfo.com/?referer=https://manganelo.com&url=https://s7.mkklcdnv6temp.com/mangakakalot/s1/seikai_trilogy/vol03_chapter_7_things_to_protect/14.jpg",
    "https://img-proxy.imgfo.com/?referer=https://manganelo.com&url=https://s7.mkklcdnv6temp.com/mangakakalot/s1/seikai_trilogy/vol03_chapter_7_things_to_protect/15.jpg",
    "https://img-proxy.imgfo.com/?referer=https://manganelo.com&url=https://s7.mkklcdnv6temp.com/mangakakalot/s1/seikai_trilogy/vol03_chapter_7_things_to_protect/16.jpg",
    "https://img-proxy.imgfo.com/?referer=https://manganelo.com&url=https://s7.mkklcdnv6temp.com/mangakakalot/s1/seikai_trilogy/vol03_chapter_7_things_to_protect/17.jpg",
    "https://img-proxy.imgfo.com/?referer=https://manganelo.com&url=https://s7.mkklcdnv6temp.com/mangakakalot/s1/seikai_trilogy/vol03_chapter_7_things_to_protect/18.jpg",
    "https://img-proxy.imgfo.com/?referer=https://manganelo.com&url=https://s7.mkklcdnv6temp.com/mangakakalot/s1/seikai_trilogy/vol03_chapter_7_things_to_protect/19.jpg",
    "https://img-proxy.imgfo.com/?referer=https://manganelo.com&url=https://s7.mkklcdnv6temp.com/mangakakalot/s1/seikai_trilogy/vol03_chapter_7_things_to_protect/20.jpg",
    "https://img-proxy.imgfo.com/?referer=https://manganelo.com&url=https://s7.mkklcdnv6temp.com/mangakakalot/s1/seikai_trilogy/vol03_chapter_7_things_to_protect/21.jpg",
    "https://img-proxy.imgfo.com/?referer=https://manganelo.com&url=https://s7.mkklcdnv6temp.com/mangakakalot/s1/seikai_trilogy/vol03_chapter_7_things_to_protect/22.jpg",
    "https://img-proxy.imgfo.com/?referer=https://manganelo.com&url=https://s7.mkklcdnv6temp.com/mangakakalot/s1/seikai_trilogy/vol03_chapter_7_things_to_protect/23.jpg",
    "https://img-proxy.imgfo.com/?referer=https://manganelo.com&url=https://s7.mkklcdnv6temp.com/mangakakalot/s1/seikai_trilogy/vol03_chapter_7_things_to_protect/24.jpg",
    "https://img-proxy.imgfo.com/?referer=https://manganelo.com&url=https://s7.mkklcdnv6temp.com/mangakakalot/s1/seikai_trilogy/vol03_chapter_7_things_to_protect/25.jpg",
    "https://img-proxy.imgfo.com/?referer=https://manganelo.com&url=https://s7.mkklcdnv6temp.com/mangakakalot/s1/seikai_trilogy/vol03_chapter_7_things_to_protect/26.jpg"
  ]
}