{
  "cover": "https://avt.mkklcdnv6.com/48/e/3-1583469576.jpg",
  "title": "Fruits Basket",
  "original": "フルバ; フルーツバスケット; 水果篮子; 후르츠 바스켓; Furuba; Giỏ Trái Cây; Hoá Giải Lời Nguyền ; Корзинка фруктов(Russian); Frugt Kurv (Denmark); سلة الفواكه (arabic); Fruktkurv (Norwegian); Frukt korg (swedish); Früchte Korb (German)",
  "genre": "Comedy, Drama, Harem, Psychological, Romance, School life, Shoujo, Slice of life, Supernatural, Manga",
  "author": "Takaya Natsuki",
  "status": "Completed",
  "backlink": "https://manganu.com/collections/takaya-natsuki/fruits-basket/",
  "description": "When high school pupil Tohru Honda&#39;s mom dies in an automobile crash on her way to perform in the parking-lot, she determines to live together with her grandpa. Restoration on unkind and un-supportive relatives and your house induce her to move from her grandpa&#39;s house briefly and, Tohru starts living in a tent and supporting herself because she&#39;s no where else to go. In other words, till she finds a house in the least likely of places, inhabited his cousin Shigure and by her well-liked classmate Yuki Sohma. The very first day Tohru goes into the Sohma residence, an orange-haired teen crashes throughout the roofing of her bedroom that is new and begins assaulting Yuki. This starter is Shigure&#39;s sharply mad cousin, Yuki and Kyo. He attempts to battle him again once Kyo loses rapidly to Yuki. When he is around to assault, Tohru attempts to prevent him, but slips on a clothes, making her fall onto the again of Kyo. At these times, something huge is discovered by Tohru about the Sohmas.\n\nThe Sohmas reside using a hex. Twelve family members (excluding Kyo, who&#39;s the cat) are possessed by spirits of the Chinese zodiac and turn into their zodiac creature when they&#39;re poor, under pressure, obstructed, or when embraced by someone of the other gender.\n\nWhen Tohru finds the Sohmas&#39; secret, is permitted to keep dwelling together and she promises to not tell. Even though the Sohmas&#39; curse is darker and deeper than Tohru understood, her endorsement of them and her existence shortly becomes a big, positive influence on those possessed by the zodiac. She sets out to break the hex and, on the way, meets and finds the Sohma spirits that are zodiac. Each has a style that is different, the same as the creatures in the Chinese zodiac. One by one, the lives of the Sohma family alters eternally.",
  "language": "English",
  "images": [
    "https://img-proxy.imgfo.com/?referer=https://manganelo.com&url=https://s3v3.mkklcdnv6temp.com/mangakakalot/f2/fruits_basket/vol9_chapter_49/1.jpg",
    "https://img-proxy.imgfo.com/?referer=https://manganelo.com&url=https://s3v3.mkklcdnv6temp.com/mangakakalot/f2/fruits_basket/vol9_chapter_49/2.jpg",
    "https://img-proxy.imgfo.com/?referer=https://manganelo.com&url=https://s3v3.mkklcdnv6temp.com/mangakakalot/f2/fruits_basket/vol9_chapter_49/3.jpg",
    "https://img-proxy.imgfo.com/?referer=https://manganelo.com&url=https://s3v3.mkklcdnv6temp.com/mangakakalot/f2/fruits_basket/vol9_chapter_49/4.jpg",
    "https://img-proxy.imgfo.com/?referer=https://manganelo.com&url=https://s3v3.mkklcdnv6temp.com/mangakakalot/f2/fruits_basket/vol9_chapter_49/5.jpg",
    "https://img-proxy.imgfo.com/?referer=https://manganelo.com&url=https://s3v3.mkklcdnv6temp.com/mangakakalot/f2/fruits_basket/vol9_chapter_49/6.jpg",
    "https://img-proxy.imgfo.com/?referer=https://manganelo.com&url=https://s3v3.mkklcdnv6temp.com/mangakakalot/f2/fruits_basket/vol9_chapter_49/7.jpg",
    "https://img-proxy.imgfo.com/?referer=https://manganelo.com&url=https://s3v3.mkklcdnv6temp.com/mangakakalot/f2/fruits_basket/vol9_chapter_49/8.jpg",
    "https://img-proxy.imgfo.com/?referer=https://manganelo.com&url=https://s3v3.mkklcdnv6temp.com/mangakakalot/f2/fruits_basket/vol9_chapter_49/9.jpg",
    "https://img-proxy.imgfo.com/?referer=https://manganelo.com&url=https://s3v3.mkklcdnv6temp.com/mangakakalot/f2/fruits_basket/vol9_chapter_49/10.jpg",
    "https://img-proxy.imgfo.com/?referer=https://manganelo.com&url=https://s3v3.mkklcdnv6temp.com/mangakakalot/f2/fruits_basket/vol9_chapter_49/11.jpg",
    "https://img-proxy.imgfo.com/?referer=https://manganelo.com&url=https://s3v3.mkklcdnv6temp.com/mangakakalot/f2/fruits_basket/vol9_chapter_49/12.jpg",
    "https://img-proxy.imgfo.com/?referer=https://manganelo.com&url=https://s3v3.mkklcdnv6temp.com/mangakakalot/f2/fruits_basket/vol9_chapter_49/13.jpg",
    "https://img-proxy.imgfo.com/?referer=https://manganelo.com&url=https://s3v3.mkklcdnv6temp.com/mangakakalot/f2/fruits_basket/vol9_chapter_49/14.jpg",
    "https://img-proxy.imgfo.com/?referer=https://manganelo.com&url=https://s3v3.mkklcdnv6temp.com/mangakakalot/f2/fruits_basket/vol9_chapter_49/15.jpg",
    "https://img-proxy.imgfo.com/?referer=https://manganelo.com&url=https://s3v3.mkklcdnv6temp.com/mangakakalot/f2/fruits_basket/vol9_chapter_49/16.jpg",
    "https://img-proxy.imgfo.com/?referer=https://manganelo.com&url=https://s3v3.mkklcdnv6temp.com/mangakakalot/f2/fruits_basket/vol9_chapter_49/17.jpg",
    "https://img-proxy.imgfo.com/?referer=https://manganelo.com&url=https://s3v3.mkklcdnv6temp.com/mangakakalot/f2/fruits_basket/vol9_chapter_49/18.jpg",
    "https://img-proxy.imgfo.com/?referer=https://manganelo.com&url=https://s3v3.mkklcdnv6temp.com/mangakakalot/f2/fruits_basket/vol9_chapter_49/19.jpg",
    "https://img-proxy.imgfo.com/?referer=https://manganelo.com&url=https://s3v3.mkklcdnv6temp.com/mangakakalot/f2/fruits_basket/vol9_chapter_49/20.jpg",
    "https://img-proxy.imgfo.com/?referer=https://manganelo.com&url=https://s3v3.mkklcdnv6temp.com/mangakakalot/f2/fruits_basket/vol9_chapter_49/21.jpg",
    "https://img-proxy.imgfo.com/?referer=https://manganelo.com&url=https://s3v3.mkklcdnv6temp.com/mangakakalot/f2/fruits_basket/vol9_chapter_49/22.jpg",
    "https://img-proxy.imgfo.com/?referer=https://manganelo.com&url=https://s3v3.mkklcdnv6temp.com/mangakakalot/f2/fruits_basket/vol9_chapter_49/23.jpg",
    "https://img-proxy.imgfo.com/?referer=https://manganelo.com&url=https://s3v3.mkklcdnv6temp.com/mangakakalot/f2/fruits_basket/vol9_chapter_49/24.jpg",
    "https://img-proxy.imgfo.com/?referer=https://manganelo.com&url=https://s3v3.mkklcdnv6temp.com/mangakakalot/f2/fruits_basket/vol9_chapter_49/25.jpg",
    "https://img-proxy.imgfo.com/?referer=https://manganelo.com&url=https://s3v3.mkklcdnv6temp.com/mangakakalot/f2/fruits_basket/vol9_chapter_49/26.jpg",
    "https://img-proxy.imgfo.com/?referer=https://manganelo.com&url=https://s3v3.mkklcdnv6temp.com/mangakakalot/f2/fruits_basket/vol9_chapter_49/27.jpg",
    "https://img-proxy.imgfo.com/?referer=https://manganelo.com&url=https://s3v3.mkklcdnv6temp.com/mangakakalot/f2/fruits_basket/vol9_chapter_49/28.jpg",
    "https://img-proxy.imgfo.com/?referer=https://manganelo.com&url=https://s3v3.mkklcdnv6temp.com/mangakakalot/f2/fruits_basket/vol9_chapter_49/29.jpg",
    "https://img-proxy.imgfo.com/?referer=https://manganelo.com&url=https://s3v3.mkklcdnv6temp.com/mangakakalot/f2/fruits_basket/vol9_chapter_49/30.jpg",
    "https://img-proxy.imgfo.com/?referer=https://manganelo.com&url=https://s3v3.mkklcdnv6temp.com/mangakakalot/f2/fruits_basket/vol9_chapter_49/31.jpg",
    "https://img-proxy.imgfo.com/?referer=https://manganelo.com&url=https://s3v3.mkklcdnv6temp.com/mangakakalot/f2/fruits_basket/vol9_chapter_49/32.jpg",
    "https://img-proxy.imgfo.com/?referer=https://manganelo.com&url=https://s3v3.mkklcdnv6temp.com/mangakakalot/f2/fruits_basket/vol9_chapter_49/33.jpg",
    "https://img-proxy.imgfo.com/?referer=https://manganelo.com&url=https://s3v3.mkklcdnv6temp.com/mangakakalot/f2/fruits_basket/vol9_chapter_49/34.jpg"
  ]
}