{
  "cover": "https://avt.mkklcdnv6.com/7/l/4-1583469977.jpg",
  "title": "Boku No Futatsu No Tsubasa",
  "original": "ボクのふたつの翼 ; 梦幻双翼 ; My Two Wings",
  "genre": "Adult, Comedy, Ecchi, Gender bender, Harem, Mature, Romance, School life, Sci fi, Seinen, Smut, Yuri, Manga",
  "author": "Yui Toshiki",
  "status": "Completed",
  "backlink": "https://manganu.com/collections/yui-toshiki/boku-no-futatsu-no-tsubasa/",
  "description": "Hiromi can't wait for her cousin Makoto to come live with her - but when \"he\" finally shows up, she gets a good deal more than she bargained for. Toshiki Yui turns a hentai fetish into the plot hook of this high school situation comedy.",
  "language": "English",
  "images": [
    "https://img-proxy.imgfo.com/?referer=https://manganelo.com&url=https://s3.mkklcdnv6temp.com/mangakakalot/b2/boku_no_futatsu_no_tsubasa/vol4_chapter_23/1.jpg",
    "https://img-proxy.imgfo.com/?referer=https://manganelo.com&url=https://s3.mkklcdnv6temp.com/mangakakalot/b2/boku_no_futatsu_no_tsubasa/vol4_chapter_23/2.jpg",
    "https://img-proxy.imgfo.com/?referer=https://manganelo.com&url=https://s3.mkklcdnv6temp.com/mangakakalot/b2/boku_no_futatsu_no_tsubasa/vol4_chapter_23/3.jpg",
    "https://img-proxy.imgfo.com/?referer=https://manganelo.com&url=https://s3.mkklcdnv6temp.com/mangakakalot/b2/boku_no_futatsu_no_tsubasa/vol4_chapter_23/4.jpg",
    "https://img-proxy.imgfo.com/?referer=https://manganelo.com&url=https://s3.mkklcdnv6temp.com/mangakakalot/b2/boku_no_futatsu_no_tsubasa/vol4_chapter_23/5.jpg",
    "https://img-proxy.imgfo.com/?referer=https://manganelo.com&url=https://s3.mkklcdnv6temp.com/mangakakalot/b2/boku_no_futatsu_no_tsubasa/vol4_chapter_23/6.jpg",
    "https://img-proxy.imgfo.com/?referer=https://manganelo.com&url=https://s3.mkklcdnv6temp.com/mangakakalot/b2/boku_no_futatsu_no_tsubasa/vol4_chapter_23/7.jpg",
    "https://img-proxy.imgfo.com/?referer=https://manganelo.com&url=https://s3.mkklcdnv6temp.com/mangakakalot/b2/boku_no_futatsu_no_tsubasa/vol4_chapter_23/8.jpg",
    "https://img-proxy.imgfo.com/?referer=https://manganelo.com&url=https://s3.mkklcdnv6temp.com/mangakakalot/b2/boku_no_futatsu_no_tsubasa/vol4_chapter_23/9.jpg",
    "https://img-proxy.imgfo.com/?referer=https://manganelo.com&url=https://s3.mkklcdnv6temp.com/mangakakalot/b2/boku_no_futatsu_no_tsubasa/vol4_chapter_23/10.jpg",
    "https://img-proxy.imgfo.com/?referer=https://manganelo.com&url=https://s3.mkklcdnv6temp.com/mangakakalot/b2/boku_no_futatsu_no_tsubasa/vol4_chapter_23/11.jpg",
    "https://img-proxy.imgfo.com/?referer=https://manganelo.com&url=https://s3.mkklcdnv6temp.com/mangakakalot/b2/boku_no_futatsu_no_tsubasa/vol4_chapter_23/12.jpg",
    "https://img-proxy.imgfo.com/?referer=https://manganelo.com&url=https://s3.mkklcdnv6temp.com/mangakakalot/b2/boku_no_futatsu_no_tsubasa/vol4_chapter_23/13.jpg",
    "https://img-proxy.imgfo.com/?referer=https://manganelo.com&url=https://s3.mkklcdnv6temp.com/mangakakalot/b2/boku_no_futatsu_no_tsubasa/vol4_chapter_23/14.jpg",
    "https://img-proxy.imgfo.com/?referer=https://manganelo.com&url=https://s3.mkklcdnv6temp.com/mangakakalot/b2/boku_no_futatsu_no_tsubasa/vol4_chapter_23/15.jpg",
    "https://img-proxy.imgfo.com/?referer=https://manganelo.com&url=https://s3.mkklcdnv6temp.com/mangakakalot/b2/boku_no_futatsu_no_tsubasa/vol4_chapter_23/16.jpg",
    "https://img-proxy.imgfo.com/?referer=https://manganelo.com&url=https://s3.mkklcdnv6temp.com/mangakakalot/b2/boku_no_futatsu_no_tsubasa/vol4_chapter_23/17.jpg",
    "https://img-proxy.imgfo.com/?referer=https://manganelo.com&url=https://s3.mkklcdnv6temp.com/mangakakalot/b2/boku_no_futatsu_no_tsubasa/vol4_chapter_23/18.jpg"
  ]
}