{
  "cover": "https://avt.mkklcdnv6.com/2/g/6-1583474178.jpg",
  "title": "Liar Game",
  "original": "ライアー　ゲーム; 欺诈游戏; لعبة الكذاب; 라이어 게임; Hazug Játék(hungarian); Laro ng Kasinungalingan (Filipino); เกมหลอกคนลวง; Trò Chơi Dối Trá",
  "genre": "Drama, Mystery, Psychological, Seinen, Manga",
  "author": "Kaitani Shinobu",
  "status": "Completed",
  "backlink": "https://manganu.com/collections/kaitani-shinobu/liar-game/",
  "description": "\nRead Liar Game Manga\n\nAt the start of manga, a scrupulously fair college student named Nao Kanzaki - receives a bundle including 100 million yen (about 1 million dollars) along with a note that she&#39;s now a contestant in the Liar Game Tournament. Contestants should cheat and lie to have other contestants&#39; cash, using the losing ones compelled to endure a debt proportional with their losses. When Nao&#39;s first competition - a former teacher that is sure - steals her cash, she seeks help from a con man named Shinichi Akiyama. Though they manage to get the better of him, Nao and Akiyama determine to buy out his debt and progress through different rounds of the Liar Game Tournament against merciless contestants, while in the exact same time trying to free their competitors from debt also to get the better of the Liar Game organization from within.\n\n&nbsp;\n\nThese characteristics enable her to win the trust of fellow contestants in the Liar Game, although she&#39;s incredibly reliable and, initially, innocent. Nao is usually in a position to make deep insights regarding human nature and the Liar Game and slowly learns to challenge others while keeping her power to trust her allies, while becoming more mature and considerate with each round played. She continues to play wanting to save the other players that have fallen into debt although Nao has had several great opportunities to depart the Liar Game. The simply known family member of Nao is her dad, who&#39;s in the hospital with terminal cancer.\n&nbsp;\nIn Volume 1 because he was reminded by her fair character of his mom, he&#39;s only been released from prison and consents to help Nao in the Liar Game. For continuing in the Liar Game Akiyama&#39;s motivation will be to discover the actual reasons on the other side of the Liar Game Tournament\n&nbsp;\nThe former teacher and competition in Round 1, who had been initially a type guy of Nao concerned regarding the wellbeing of his pupils. Following a number of misfortunes, Fujisawa is now hateful, mad, and mistrustful. Nao is shocked when he told her if she goes into debt that he does not care or is driven to pay it back. The choice of Akiyama, yet, just solidifies to aid Nao. By the end of Round 1 when Akiyama outsmarts to that he is able to repay his debt Nao although Fujisawa gives her winnings to Fujisawa, Fujisawa is last seen bowing in gratitude to her.\n\n&nbsp;\n\nA male to female transgendered man who first appears in Round 2, where she poses as a girl named Hitomi. Perhaps in-transition or post op MtF transsexual (in which case she shouldn&#39;t be called a transvestite, which differs from transgender), promises to be female in body along with thoughts, and exclusively male according to your birth certificate; still has breasts when not dressed in drag. Sly, computing, and a 5th degree black belt, Fukunaga is a skilled manipulator whose weaknesses may actually be her desire for her temper and cash. Alludes to being clearly older than she looks, age unknown. During Round 3, Fukunaga learns to work with Nao and Akiyama, as well as when Fukunaga completes the round debt-free, she decides to continue in the tournament to assist them. Nevertheless, Fukunaga is removed in the match with over one billion yen of debt and is made to face Yokoya without their help in the next resurrection round. In later chapters, Fukunaga understands begins and Nao&#39;s progress to get fond of her, although she still believes she&#39;s clumsy. Nao additionally noted that Fukunaga may have a crush on Akiyama. After Fukunaga&#39;s identified-as-male-at birth identity is disclosed, the Japanese text intentionally avoids referring to &quot;her&quot; by sex. (In the live variant this character remains male, but with a vaguely gay overtone). She&#39;s totally convincing as a female when she often has everyone fooled and wants. Additionally stated to have managed to play a persuasive nondescript man to orchestrate a scam (not shown), despite having outstanding &quot;real&quot; cleavage, said to be caused by a variety of female hormone shots and breast augmentation surgery with saline implants.\n\nOther manga:\n+ The World God only knows manga\n+&nbsp;Akame ga Kill Manga",
  "language": "English",
  "images": [
    "https://img-proxy.imgfo.com/?referer=https://manganelo.com&url=https://s41.mkklcdnv6temp.com/mangakakalot/r1/read_liar_game_manga/vol16_chapter_185_offense_and_defense/1.jpg",
    "https://img-proxy.imgfo.com/?referer=https://manganelo.com&url=https://s41.mkklcdnv6temp.com/mangakakalot/r1/read_liar_game_manga/vol16_chapter_185_offense_and_defense/2.jpg",
    "https://img-proxy.imgfo.com/?referer=https://manganelo.com&url=https://s41.mkklcdnv6temp.com/mangakakalot/r1/read_liar_game_manga/vol16_chapter_185_offense_and_defense/3.jpg",
    "https://img-proxy.imgfo.com/?referer=https://manganelo.com&url=https://s41.mkklcdnv6temp.com/mangakakalot/r1/read_liar_game_manga/vol16_chapter_185_offense_and_defense/4.jpg",
    "https://img-proxy.imgfo.com/?referer=https://manganelo.com&url=https://s41.mkklcdnv6temp.com/mangakakalot/r1/read_liar_game_manga/vol16_chapter_185_offense_and_defense/5.jpg",
    "https://img-proxy.imgfo.com/?referer=https://manganelo.com&url=https://s41.mkklcdnv6temp.com/mangakakalot/r1/read_liar_game_manga/vol16_chapter_185_offense_and_defense/6.jpg",
    "https://img-proxy.imgfo.com/?referer=https://manganelo.com&url=https://s41.mkklcdnv6temp.com/mangakakalot/r1/read_liar_game_manga/vol16_chapter_185_offense_and_defense/7.jpg",
    "https://img-proxy.imgfo.com/?referer=https://manganelo.com&url=https://s41.mkklcdnv6temp.com/mangakakalot/r1/read_liar_game_manga/vol16_chapter_185_offense_and_defense/8.jpg",
    "https://img-proxy.imgfo.com/?referer=https://manganelo.com&url=https://s41.mkklcdnv6temp.com/mangakakalot/r1/read_liar_game_manga/vol16_chapter_185_offense_and_defense/9.jpg",
    "https://img-proxy.imgfo.com/?referer=https://manganelo.com&url=https://s41.mkklcdnv6temp.com/mangakakalot/r1/read_liar_game_manga/vol16_chapter_185_offense_and_defense/10.jpg",
    "https://img-proxy.imgfo.com/?referer=https://manganelo.com&url=https://s41.mkklcdnv6temp.com/mangakakalot/r1/read_liar_game_manga/vol16_chapter_185_offense_and_defense/11.jpg",
    "https://img-proxy.imgfo.com/?referer=https://manganelo.com&url=https://s41.mkklcdnv6temp.com/mangakakalot/r1/read_liar_game_manga/vol16_chapter_185_offense_and_defense/12.jpg",
    "https://img-proxy.imgfo.com/?referer=https://manganelo.com&url=https://s41.mkklcdnv6temp.com/mangakakalot/r1/read_liar_game_manga/vol16_chapter_185_offense_and_defense/13.jpg",
    "https://img-proxy.imgfo.com/?referer=https://manganelo.com&url=https://s41.mkklcdnv6temp.com/mangakakalot/r1/read_liar_game_manga/vol16_chapter_185_offense_and_defense/14.jpg",
    "https://img-proxy.imgfo.com/?referer=https://manganelo.com&url=https://s41.mkklcdnv6temp.com/mangakakalot/r1/read_liar_game_manga/vol16_chapter_185_offense_and_defense/15.jpg",
    "https://img-proxy.imgfo.com/?referer=https://manganelo.com&url=https://s41.mkklcdnv6temp.com/mangakakalot/r1/read_liar_game_manga/vol16_chapter_185_offense_and_defense/16.jpg",
    "https://img-proxy.imgfo.com/?referer=https://manganelo.com&url=https://s41.mkklcdnv6temp.com/mangakakalot/r1/read_liar_game_manga/vol16_chapter_185_offense_and_defense/17.jpg",
    "https://img-proxy.imgfo.com/?referer=https://manganelo.com&url=https://s41.mkklcdnv6temp.com/mangakakalot/r1/read_liar_game_manga/vol16_chapter_185_offense_and_defense/18.jpg"
  ]
}