{
  "cover": "https://avt.mkklcdnv6.com/18/o/6-1583474895.jpg",
  "title": "Emma",
  "original": "エマ ; エマ 番外編 ; 英國戀愛物語艾瑪 ; Emma Bangai Hen ; Emma Bangaihen ; Emma Further Tales ; Emma's Further Tales ; Victorian Romance Emma",
  "genre": "Drama, Historical, Josei, Romance, Seinen, Slice of life, Manga",
  "author": "Mori Kaoru",
  "status": "Completed",
  "backlink": "https://manganu.com/collections/mori-kaoru/emma/",
  "description": "From CMX: In Victorian-era England, a young girl is rescued from a life of destitution and raised to become a proper British maid. Emma meets William, the eldest son of a wealthy family, and immediately falls in love with him. William shares her feelings, but the strict rules of their society prevent their relationship from ever coming out in the open. Traditional class distinctions and rich, historical details provide the backdrop for this appealing romance. Note: Volumes 8-10 are &quot;Emma: Further Tales&quot;. They fill in details from the Emma manga, both before and after the events in that storyline. Each chapter explores the motivations or simply shows a day in the life of a particular character from the story. Find out about the romance between Doug and Kelly in their early days, or follow the adventures of Eleanor as she overcomes her heartache and begins to live again, or visit with Tasha and her family on her day off. - IIChan",
  "language": "English",
  "images": [
    "https://img-proxy.imgfo.com/?referer=https://manganelo.com&url=https://s5.mkklcdnv6temp.com/mangakakalot/e1/emma/vol1_chapter_1_visit/1.jpg",
    "https://img-proxy.imgfo.com/?referer=https://manganelo.com&url=https://s5.mkklcdnv6temp.com/mangakakalot/e1/emma/vol1_chapter_1_visit/2.jpg",
    "https://img-proxy.imgfo.com/?referer=https://manganelo.com&url=https://s5.mkklcdnv6temp.com/mangakakalot/e1/emma/vol1_chapter_1_visit/3.jpg",
    "https://img-proxy.imgfo.com/?referer=https://manganelo.com&url=https://s5.mkklcdnv6temp.com/mangakakalot/e1/emma/vol1_chapter_1_visit/4.jpg",
    "https://img-proxy.imgfo.com/?referer=https://manganelo.com&url=https://s5.mkklcdnv6temp.com/mangakakalot/e1/emma/vol1_chapter_1_visit/5.jpg",
    "https://img-proxy.imgfo.com/?referer=https://manganelo.com&url=https://s5.mkklcdnv6temp.com/mangakakalot/e1/emma/vol1_chapter_1_visit/6.jpg",
    "https://img-proxy.imgfo.com/?referer=https://manganelo.com&url=https://s5.mkklcdnv6temp.com/mangakakalot/e1/emma/vol1_chapter_1_visit/7.jpg",
    "https://img-proxy.imgfo.com/?referer=https://manganelo.com&url=https://s5.mkklcdnv6temp.com/mangakakalot/e1/emma/vol1_chapter_1_visit/8.jpg",
    "https://img-proxy.imgfo.com/?referer=https://manganelo.com&url=https://s5.mkklcdnv6temp.com/mangakakalot/e1/emma/vol1_chapter_1_visit/9.jpg",
    "https://img-proxy.imgfo.com/?referer=https://manganelo.com&url=https://s5.mkklcdnv6temp.com/mangakakalot/e1/emma/vol1_chapter_1_visit/10.jpg",
    "https://img-proxy.imgfo.com/?referer=https://manganelo.com&url=https://s5.mkklcdnv6temp.com/mangakakalot/e1/emma/vol1_chapter_1_visit/11.jpg",
    "https://img-proxy.imgfo.com/?referer=https://manganelo.com&url=https://s5.mkklcdnv6temp.com/mangakakalot/e1/emma/vol1_chapter_1_visit/12.jpg",
    "https://img-proxy.imgfo.com/?referer=https://manganelo.com&url=https://s5.mkklcdnv6temp.com/mangakakalot/e1/emma/vol1_chapter_1_visit/13.jpg",
    "https://img-proxy.imgfo.com/?referer=https://manganelo.com&url=https://s5.mkklcdnv6temp.com/mangakakalot/e1/emma/vol1_chapter_1_visit/14.jpg",
    "https://img-proxy.imgfo.com/?referer=https://manganelo.com&url=https://s5.mkklcdnv6temp.com/mangakakalot/e1/emma/vol1_chapter_1_visit/15.jpg",
    "https://img-proxy.imgfo.com/?referer=https://manganelo.com&url=https://s5.mkklcdnv6temp.com/mangakakalot/e1/emma/vol1_chapter_1_visit/16.jpg",
    "https://img-proxy.imgfo.com/?referer=https://manganelo.com&url=https://s5.mkklcdnv6temp.com/mangakakalot/e1/emma/vol1_chapter_1_visit/17.jpg",
    "https://img-proxy.imgfo.com/?referer=https://manganelo.com&url=https://s5.mkklcdnv6temp.com/mangakakalot/e1/emma/vol1_chapter_1_visit/18.jpg",
    "https://img-proxy.imgfo.com/?referer=https://manganelo.com&url=https://s5.mkklcdnv6temp.com/mangakakalot/e1/emma/vol1_chapter_1_visit/19.jpg",
    "https://img-proxy.imgfo.com/?referer=https://manganelo.com&url=https://s5.mkklcdnv6temp.com/mangakakalot/e1/emma/vol1_chapter_1_visit/20.jpg",
    "https://img-proxy.imgfo.com/?referer=https://manganelo.com&url=https://s5.mkklcdnv6temp.com/mangakakalot/e1/emma/vol1_chapter_1_visit/21.jpg",
    "https://img-proxy.imgfo.com/?referer=https://manganelo.com&url=https://s5.mkklcdnv6temp.com/mangakakalot/e1/emma/vol1_chapter_1_visit/22.jpg",
    "https://img-proxy.imgfo.com/?referer=https://manganelo.com&url=https://s5.mkklcdnv6temp.com/mangakakalot/e1/emma/vol1_chapter_1_visit/23.jpg",
    "https://img-proxy.imgfo.com/?referer=https://manganelo.com&url=https://s5.mkklcdnv6temp.com/mangakakalot/e1/emma/vol1_chapter_1_visit/24.jpg",
    "https://img-proxy.imgfo.com/?referer=https://manganelo.com&url=https://s5.mkklcdnv6temp.com/mangakakalot/e1/emma/vol1_chapter_1_visit/25.jpg",
    "https://img-proxy.imgfo.com/?referer=https://manganelo.com&url=https://s5.mkklcdnv6temp.com/mangakakalot/e1/emma/vol1_chapter_1_visit/26.jpg",
    "https://img-proxy.imgfo.com/?referer=https://manganelo.com&url=https://s5.mkklcdnv6temp.com/mangakakalot/e1/emma/vol1_chapter_1_visit/27.jpg",
    "https://img-proxy.imgfo.com/?referer=https://manganelo.com&url=https://s5.mkklcdnv6temp.com/mangakakalot/e1/emma/vol1_chapter_1_visit/28.jpg",
    "https://img-proxy.imgfo.com/?referer=https://manganelo.com&url=https://s5.mkklcdnv6temp.com/mangakakalot/e1/emma/vol1_chapter_1_visit/29.jpg",
    "https://img-proxy.imgfo.com/?referer=https://manganelo.com&url=https://s5.mkklcdnv6temp.com/mangakakalot/e1/emma/vol1_chapter_1_visit/30.jpg",
    "https://img-proxy.imgfo.com/?referer=https://manganelo.com&url=https://s5.mkklcdnv6temp.com/mangakakalot/e1/emma/vol1_chapter_1_visit/31.jpg",
    "https://img-proxy.imgfo.com/?referer=https://manganelo.com&url=https://s5.mkklcdnv6temp.com/mangakakalot/e1/emma/vol1_chapter_1_visit/32.jpg",
    "https://img-proxy.imgfo.com/?referer=https://manganelo.com&url=https://s5.mkklcdnv6temp.com/mangakakalot/e1/emma/vol1_chapter_1_visit/33.jpg",
    "https://img-proxy.imgfo.com/?referer=https://manganelo.com&url=https://s5.mkklcdnv6temp.com/mangakakalot/e1/emma/vol1_chapter_1_visit/34.jpg",
    "https://img-proxy.imgfo.com/?referer=https://manganelo.com&url=https://s5.mkklcdnv6temp.com/mangakakalot/e1/emma/vol1_chapter_1_visit/35.jpg",
    "https://img-proxy.imgfo.com/?referer=https://manganelo.com&url=https://s5.mkklcdnv6temp.com/mangakakalot/e1/emma/vol1_chapter_1_visit/36.jpg",
    "https://img-proxy.imgfo.com/?referer=https://manganelo.com&url=https://s5.mkklcdnv6temp.com/mangakakalot/e1/emma/vol1_chapter_1_visit/37.jpg",
    "https://img-proxy.imgfo.com/?referer=https://manganelo.com&url=https://s5.mkklcdnv6temp.com/mangakakalot/e1/emma/vol1_chapter_1_visit/38.jpg"
  ]
}