{
  "cover": "https://avt.mkklcdnv6.com/44/i/3-1583469417.jpg",
  "title": "Air Gear",
  "original": "エアギア; エア・ギア (Japanese); 飛輪少年; 飞轮少年 (Chinese); 에어기어 (Korean); Air Gear Unlimited; AirGear (English); ขาคู่ทะลุฟ้า (Thai)",
  "genre": "Action, Comedy, Drama, Ecchi, Fantasy, Harem, Romance, School life, Sci fi, Shounen, Sports, Manga",
  "author": "Oh! Great",
  "status": "Completed",
  "backlink": "https://manganu.com/collections/oh-great/air-gear/",
  "description": "Itsuki Minami needs no introduction &ndash; everybody&rsquo;s heard of the &ldquo;Babyface&rdquo; of the Eastside. He&rsquo;s the toughest kid at Higashi Junior High School, easy on the eyes but dangerously tough when he needs to be. Plus, Itsuki lives with the mysterious and sexy Noyamano sisters. Life is never dull, but it becomes dangerous when Itsuki leads his school to victory over some vindictive Westside punks with gangster connections. Now he stands to lose his school, his friends, and everything he cares about. But in his darkest hour, the Noyamano girls come to Itsuki&rsquo;s aid. They can teach him a powerful skill that will save their school from the gangsters&rsquo; siege and introduce Itsuki to a thrilling and terrifying new world. Note: Won the 2006 Kodansha Manga Award in the shōnen category. A new edition named Air Gear Unlimited was released in 2014. The format is bigger and it contains some coloured pages.",
  "language": "English",
  "images": [
    "https://img-proxy.imgfo.com/?referer=https://manganelo.com&url=https://s41.mkklcdnv6temp.com/mangakakalot/a1/air_gear/vol13_chapter_109_trick109/1.jpg",
    "https://img-proxy.imgfo.com/?referer=https://manganelo.com&url=https://s41.mkklcdnv6temp.com/mangakakalot/a1/air_gear/vol13_chapter_109_trick109/2.jpg",
    "https://img-proxy.imgfo.com/?referer=https://manganelo.com&url=https://s41.mkklcdnv6temp.com/mangakakalot/a1/air_gear/vol13_chapter_109_trick109/3.jpg",
    "https://img-proxy.imgfo.com/?referer=https://manganelo.com&url=https://s41.mkklcdnv6temp.com/mangakakalot/a1/air_gear/vol13_chapter_109_trick109/4.jpg",
    "https://img-proxy.imgfo.com/?referer=https://manganelo.com&url=https://s41.mkklcdnv6temp.com/mangakakalot/a1/air_gear/vol13_chapter_109_trick109/5.jpg",
    "https://img-proxy.imgfo.com/?referer=https://manganelo.com&url=https://s41.mkklcdnv6temp.com/mangakakalot/a1/air_gear/vol13_chapter_109_trick109/6.jpg",
    "https://img-proxy.imgfo.com/?referer=https://manganelo.com&url=https://s41.mkklcdnv6temp.com/mangakakalot/a1/air_gear/vol13_chapter_109_trick109/7.jpg",
    "https://img-proxy.imgfo.com/?referer=https://manganelo.com&url=https://s41.mkklcdnv6temp.com/mangakakalot/a1/air_gear/vol13_chapter_109_trick109/8.jpg",
    "https://img-proxy.imgfo.com/?referer=https://manganelo.com&url=https://s41.mkklcdnv6temp.com/mangakakalot/a1/air_gear/vol13_chapter_109_trick109/9.jpg",
    "https://img-proxy.imgfo.com/?referer=https://manganelo.com&url=https://s41.mkklcdnv6temp.com/mangakakalot/a1/air_gear/vol13_chapter_109_trick109/10.jpg",
    "https://img-proxy.imgfo.com/?referer=https://manganelo.com&url=https://s41.mkklcdnv6temp.com/mangakakalot/a1/air_gear/vol13_chapter_109_trick109/11.jpg",
    "https://img-proxy.imgfo.com/?referer=https://manganelo.com&url=https://s41.mkklcdnv6temp.com/mangakakalot/a1/air_gear/vol13_chapter_109_trick109/12.jpg",
    "https://img-proxy.imgfo.com/?referer=https://manganelo.com&url=https://s41.mkklcdnv6temp.com/mangakakalot/a1/air_gear/vol13_chapter_109_trick109/13.jpg",
    "https://img-proxy.imgfo.com/?referer=https://manganelo.com&url=https://s41.mkklcdnv6temp.com/mangakakalot/a1/air_gear/vol13_chapter_109_trick109/14.jpg",
    "https://img-proxy.imgfo.com/?referer=https://manganelo.com&url=https://s41.mkklcdnv6temp.com/mangakakalot/a1/air_gear/vol13_chapter_109_trick109/15.jpg",
    "https://img-proxy.imgfo.com/?referer=https://manganelo.com&url=https://s41.mkklcdnv6temp.com/mangakakalot/a1/air_gear/vol13_chapter_109_trick109/16.jpg",
    "https://img-proxy.imgfo.com/?referer=https://manganelo.com&url=https://s41.mkklcdnv6temp.com/mangakakalot/a1/air_gear/vol13_chapter_109_trick109/17.jpg",
    "https://img-proxy.imgfo.com/?referer=https://manganelo.com&url=https://s41.mkklcdnv6temp.com/mangakakalot/a1/air_gear/vol13_chapter_109_trick109/18.jpg",
    "https://img-proxy.imgfo.com/?referer=https://manganelo.com&url=https://s41.mkklcdnv6temp.com/mangakakalot/a1/air_gear/vol13_chapter_109_trick109/19.jpg",
    "https://img-proxy.imgfo.com/?referer=https://manganelo.com&url=https://s41.mkklcdnv6temp.com/mangakakalot/a1/air_gear/vol13_chapter_109_trick109/20.jpg",
    "https://img-proxy.imgfo.com/?referer=https://manganelo.com&url=https://s41.mkklcdnv6temp.com/mangakakalot/a1/air_gear/vol13_chapter_109_trick109/21.jpg",
    "https://img-proxy.imgfo.com/?referer=https://manganelo.com&url=https://s41.mkklcdnv6temp.com/mangakakalot/a1/air_gear/vol13_chapter_109_trick109/22.jpg",
    "https://img-proxy.imgfo.com/?referer=https://manganelo.com&url=https://s41.mkklcdnv6temp.com/mangakakalot/a1/air_gear/vol13_chapter_109_trick109/23.jpg",
    "https://img-proxy.imgfo.com/?referer=https://manganelo.com&url=https://s41.mkklcdnv6temp.com/mangakakalot/a1/air_gear/vol13_chapter_109_trick109/24.jpg",
    "https://img-proxy.imgfo.com/?referer=https://manganelo.com&url=https://s41.mkklcdnv6temp.com/mangakakalot/a1/air_gear/vol13_chapter_109_trick109/25.jpg"
  ]
}