{
  "cover": "https://avt.mkklcdnv6.com/23/l/1-1583464619.jpg",
  "title": "Ansatsu Kyoushitsu",
  "original": "暗殺教室 ; Assassination Classroom ; فصل الأغتيال (arabic) ; 암살교실 ; Classe do Assassinato (Brazillian Portuguese),Ansatsu Kyoushitsu Manga",
  "genre": "Action, Adult, Comedy, Doujinshi, School life, Sci fi, Shounen, Supernatural, Manga",
  "author": "Matsui Yuusei",
  "status": "Completed",
  "backlink": "https://manganu.com/collections/matsui-yuusei/ansatsu-kyoushitsu/",
  "description": "Ansatsu Kyoushitsu Manga \n\nAnsatsu Kyoushitsu Manga is an ongoing Japanese series which revolves around the class 3E of the Kunugigaoka Middle School.The author of this entertaining series is Matsui Yuusei. Ansatsu Kyoushitsu Manga was released in the year of 2014.The story depicts about the students of the class 3E in this school who practise the by greeting the sensei in the morning. The greeting of the sensei is always done with a huge and massive firing squad.\n\nAnsatsu Kyoushitsu manga\n\nThe students of class 3E are quite dull in their academics and are often being discriminated by the remaining students in the school. A sensei is a bizarre collaboration of a deadly looking alien and an octopus.A mission is being assigned to the students to assassinate the tentacled creature named as &quot;Koro sensei&quot;.\n\nThis peculiar creature has the ability to move at the speed of mach-20.This tentacled creature was responsible for destroying the moon and it also rendered the moon&#39;s shape into a crescent form.The weird creature has also warned the students regarding the destruction of the planet Earth in the period of one year.Later on, the students realise that Koro sensei is an indestructible teacher in this universe.They also claim the Koro sensei to be an indomitable creature and the best teachers that they ever faced in their life.This action based series mainly focuses on the students of class 3E adapting and showcasing some powerful assassination skills and techniques to fight against the indestructible creature.The author also tells about the difficult times of the students being faced in their school and in life.Ansatsu Kyoushitsu Manga means &quot;Assassination classroom&quot; in English.\n\n\n\nThis series has been published in English by Viz Media under the name as &quot;Assassination classroom&quot; on December 2, 2014 with the help of Weekly Shonen Jump magazine.This series has also been published in Italy as Panini comics in May 2014. An action film based on this series was ranked as number one in Japanese box office.Video games based on this series was released on March 2015 with a warm welcome.\n\nOther manga :\n+ Tower of God Manga\n+ Read Berserk Manga",
  "language": "English",
  "images": [
    "https://img-proxy.imgfo.com/?referer=https://manganelo.com&url=https://s5.mkklcdnv6temp.com/mangakakalot/r1/read_ansatsu_kyoushitsu_manga_online/voltbd_chapter_178/1.jpg",
    "https://img-proxy.imgfo.com/?referer=https://manganelo.com&url=https://s5.mkklcdnv6temp.com/mangakakalot/r1/read_ansatsu_kyoushitsu_manga_online/voltbd_chapter_178/2.jpg",
    "https://img-proxy.imgfo.com/?referer=https://manganelo.com&url=https://s5.mkklcdnv6temp.com/mangakakalot/r1/read_ansatsu_kyoushitsu_manga_online/voltbd_chapter_178/3.jpg",
    "https://img-proxy.imgfo.com/?referer=https://manganelo.com&url=https://s5.mkklcdnv6temp.com/mangakakalot/r1/read_ansatsu_kyoushitsu_manga_online/voltbd_chapter_178/4.jpg",
    "https://img-proxy.imgfo.com/?referer=https://manganelo.com&url=https://s5.mkklcdnv6temp.com/mangakakalot/r1/read_ansatsu_kyoushitsu_manga_online/voltbd_chapter_178/5.jpg",
    "https://img-proxy.imgfo.com/?referer=https://manganelo.com&url=https://s5.mkklcdnv6temp.com/mangakakalot/r1/read_ansatsu_kyoushitsu_manga_online/voltbd_chapter_178/6.jpg",
    "https://img-proxy.imgfo.com/?referer=https://manganelo.com&url=https://s5.mkklcdnv6temp.com/mangakakalot/r1/read_ansatsu_kyoushitsu_manga_online/voltbd_chapter_178/7.jpg",
    "https://img-proxy.imgfo.com/?referer=https://manganelo.com&url=https://s5.mkklcdnv6temp.com/mangakakalot/r1/read_ansatsu_kyoushitsu_manga_online/voltbd_chapter_178/8.jpg",
    "https://img-proxy.imgfo.com/?referer=https://manganelo.com&url=https://s5.mkklcdnv6temp.com/mangakakalot/r1/read_ansatsu_kyoushitsu_manga_online/voltbd_chapter_178/9.jpg",
    "https://img-proxy.imgfo.com/?referer=https://manganelo.com&url=https://s5.mkklcdnv6temp.com/mangakakalot/r1/read_ansatsu_kyoushitsu_manga_online/voltbd_chapter_178/10.jpg",
    "https://img-proxy.imgfo.com/?referer=https://manganelo.com&url=https://s5.mkklcdnv6temp.com/mangakakalot/r1/read_ansatsu_kyoushitsu_manga_online/voltbd_chapter_178/11.jpg",
    "https://img-proxy.imgfo.com/?referer=https://manganelo.com&url=https://s5.mkklcdnv6temp.com/mangakakalot/r1/read_ansatsu_kyoushitsu_manga_online/voltbd_chapter_178/12.jpg",
    "https://img-proxy.imgfo.com/?referer=https://manganelo.com&url=https://s5.mkklcdnv6temp.com/mangakakalot/r1/read_ansatsu_kyoushitsu_manga_online/voltbd_chapter_178/13.jpg",
    "https://img-proxy.imgfo.com/?referer=https://manganelo.com&url=https://s5.mkklcdnv6temp.com/mangakakalot/r1/read_ansatsu_kyoushitsu_manga_online/voltbd_chapter_178/14.jpg",
    "https://img-proxy.imgfo.com/?referer=https://manganelo.com&url=https://s5.mkklcdnv6temp.com/mangakakalot/r1/read_ansatsu_kyoushitsu_manga_online/voltbd_chapter_178/15.jpg",
    "https://img-proxy.imgfo.com/?referer=https://manganelo.com&url=https://s5.mkklcdnv6temp.com/mangakakalot/r1/read_ansatsu_kyoushitsu_manga_online/voltbd_chapter_178/16.jpg",
    "https://img-proxy.imgfo.com/?referer=https://manganelo.com&url=https://s5.mkklcdnv6temp.com/mangakakalot/r1/read_ansatsu_kyoushitsu_manga_online/voltbd_chapter_178/17.jpg",
    "https://img-proxy.imgfo.com/?referer=https://manganelo.com&url=https://s5.mkklcdnv6temp.com/mangakakalot/r1/read_ansatsu_kyoushitsu_manga_online/voltbd_chapter_178/18.jpg",
    "https://img-proxy.imgfo.com/?referer=https://manganelo.com&url=https://s5.mkklcdnv6temp.com/mangakakalot/r1/read_ansatsu_kyoushitsu_manga_online/voltbd_chapter_178/19.jpg",
    "https://img-proxy.imgfo.com/?referer=https://manganelo.com&url=https://s5.mkklcdnv6temp.com/mangakakalot/r1/read_ansatsu_kyoushitsu_manga_online/voltbd_chapter_178/20.jpg",
    "https://img-proxy.imgfo.com/?referer=https://manganelo.com&url=https://s5.mkklcdnv6temp.com/mangakakalot/r1/read_ansatsu_kyoushitsu_manga_online/voltbd_chapter_178/21.jpg",
    "https://img-proxy.imgfo.com/?referer=https://manganelo.com&url=https://s5.mkklcdnv6temp.com/mangakakalot/r1/read_ansatsu_kyoushitsu_manga_online/voltbd_chapter_178/22.jpg",
    "https://img-proxy.imgfo.com/?referer=https://manganelo.com&url=https://s5.mkklcdnv6temp.com/mangakakalot/r1/read_ansatsu_kyoushitsu_manga_online/voltbd_chapter_178/23.jpg"
  ]
}