{
  "cover": "https://avt.mkklcdnv6.com/37/c/8-1583479588.jpg",
  "title": "Mede Shireru Yoru No Junjou",
  "original": "愛で痴れる夜の純情 ; 愛で痴れる夜の純情 ~禿偏~ ; 吉原春宵艳史 ; Me de Shireru Yoru no Junjou ; Me de Shireru Yoru no Junjou ~Toku Hen~ ; Kimono Boys [german] ; An Evening Filled with Intoxicating Pure Love",
  "genre": "Drama, Historical, Romance, Shounen ai, Yaoi, Manga",
  "author": "Suzuki Ami",
  "status": "Completed",
  "backlink": "https://manganu.com/collections/suzuki-ami/mede-shireru-yoru-no-junjou/",
  "description": "In Yoshiwara (present-day Tokyo during the Edo Period), laws against prostitution were abolished and brothels were restored in the red light district. We meet Kichou and his \"princess\" who are the top courtesans of the Men's Brothel Quarters at Hanafurirou.....\nSequel Is: Hanazono o Tooku Hanare te",
  "language": "English",
  "images": [
    "https://img-proxy.imgfo.com/?referer=https://manganelo.com&url=https://s7.mkklcdnv6temp.com/mangakakalot/m1/mede_shireru_yoru_no_junjou/vol3_chapter_10/1.jpg",
    "https://img-proxy.imgfo.com/?referer=https://manganelo.com&url=https://s7.mkklcdnv6temp.com/mangakakalot/m1/mede_shireru_yoru_no_junjou/vol3_chapter_10/2.jpg",
    "https://img-proxy.imgfo.com/?referer=https://manganelo.com&url=https://s7.mkklcdnv6temp.com/mangakakalot/m1/mede_shireru_yoru_no_junjou/vol3_chapter_10/3.jpg",
    "https://img-proxy.imgfo.com/?referer=https://manganelo.com&url=https://s7.mkklcdnv6temp.com/mangakakalot/m1/mede_shireru_yoru_no_junjou/vol3_chapter_10/4.jpg",
    "https://img-proxy.imgfo.com/?referer=https://manganelo.com&url=https://s7.mkklcdnv6temp.com/mangakakalot/m1/mede_shireru_yoru_no_junjou/vol3_chapter_10/5.jpg",
    "https://img-proxy.imgfo.com/?referer=https://manganelo.com&url=https://s7.mkklcdnv6temp.com/mangakakalot/m1/mede_shireru_yoru_no_junjou/vol3_chapter_10/6.jpg",
    "https://img-proxy.imgfo.com/?referer=https://manganelo.com&url=https://s7.mkklcdnv6temp.com/mangakakalot/m1/mede_shireru_yoru_no_junjou/vol3_chapter_10/7.jpg",
    "https://img-proxy.imgfo.com/?referer=https://manganelo.com&url=https://s7.mkklcdnv6temp.com/mangakakalot/m1/mede_shireru_yoru_no_junjou/vol3_chapter_10/8.jpg",
    "https://img-proxy.imgfo.com/?referer=https://manganelo.com&url=https://s7.mkklcdnv6temp.com/mangakakalot/m1/mede_shireru_yoru_no_junjou/vol3_chapter_10/9.jpg",
    "https://img-proxy.imgfo.com/?referer=https://manganelo.com&url=https://s7.mkklcdnv6temp.com/mangakakalot/m1/mede_shireru_yoru_no_junjou/vol3_chapter_10/10.jpg",
    "https://img-proxy.imgfo.com/?referer=https://manganelo.com&url=https://s7.mkklcdnv6temp.com/mangakakalot/m1/mede_shireru_yoru_no_junjou/vol3_chapter_10/11.jpg",
    "https://img-proxy.imgfo.com/?referer=https://manganelo.com&url=https://s7.mkklcdnv6temp.com/mangakakalot/m1/mede_shireru_yoru_no_junjou/vol3_chapter_10/12.jpg",
    "https://img-proxy.imgfo.com/?referer=https://manganelo.com&url=https://s7.mkklcdnv6temp.com/mangakakalot/m1/mede_shireru_yoru_no_junjou/vol3_chapter_10/13.jpg",
    "https://img-proxy.imgfo.com/?referer=https://manganelo.com&url=https://s7.mkklcdnv6temp.com/mangakakalot/m1/mede_shireru_yoru_no_junjou/vol3_chapter_10/14.jpg",
    "https://img-proxy.imgfo.com/?referer=https://manganelo.com&url=https://s7.mkklcdnv6temp.com/mangakakalot/m1/mede_shireru_yoru_no_junjou/vol3_chapter_10/15.jpg",
    "https://img-proxy.imgfo.com/?referer=https://manganelo.com&url=https://s7.mkklcdnv6temp.com/mangakakalot/m1/mede_shireru_yoru_no_junjou/vol3_chapter_10/16.jpg",
    "https://img-proxy.imgfo.com/?referer=https://manganelo.com&url=https://s7.mkklcdnv6temp.com/mangakakalot/m1/mede_shireru_yoru_no_junjou/vol3_chapter_10/17.jpg",
    "https://img-proxy.imgfo.com/?referer=https://manganelo.com&url=https://s7.mkklcdnv6temp.com/mangakakalot/m1/mede_shireru_yoru_no_junjou/vol3_chapter_10/18.jpg",
    "https://img-proxy.imgfo.com/?referer=https://manganelo.com&url=https://s7.mkklcdnv6temp.com/mangakakalot/m1/mede_shireru_yoru_no_junjou/vol3_chapter_10/19.jpg",
    "https://img-proxy.imgfo.com/?referer=https://manganelo.com&url=https://s7.mkklcdnv6temp.com/mangakakalot/m1/mede_shireru_yoru_no_junjou/vol3_chapter_10/20.jpg",
    "https://img-proxy.imgfo.com/?referer=https://manganelo.com&url=https://s7.mkklcdnv6temp.com/mangakakalot/m1/mede_shireru_yoru_no_junjou/vol3_chapter_10/21.jpg",
    "https://img-proxy.imgfo.com/?referer=https://manganelo.com&url=https://s7.mkklcdnv6temp.com/mangakakalot/m1/mede_shireru_yoru_no_junjou/vol3_chapter_10/22.jpg",
    "https://img-proxy.imgfo.com/?referer=https://manganelo.com&url=https://s7.mkklcdnv6temp.com/mangakakalot/m1/mede_shireru_yoru_no_junjou/vol3_chapter_10/23.jpg",
    "https://img-proxy.imgfo.com/?referer=https://manganelo.com&url=https://s7.mkklcdnv6temp.com/mangakakalot/m1/mede_shireru_yoru_no_junjou/vol3_chapter_10/24.jpg",
    "https://img-proxy.imgfo.com/?referer=https://manganelo.com&url=https://s7.mkklcdnv6temp.com/mangakakalot/m1/mede_shireru_yoru_no_junjou/vol3_chapter_10/25.jpg",
    "https://img-proxy.imgfo.com/?referer=https://manganelo.com&url=https://s7.mkklcdnv6temp.com/mangakakalot/m1/mede_shireru_yoru_no_junjou/vol3_chapter_10/26.jpg",
    "https://img-proxy.imgfo.com/?referer=https://manganelo.com&url=https://s7.mkklcdnv6temp.com/mangakakalot/m1/mede_shireru_yoru_no_junjou/vol3_chapter_10/27.jpg",
    "https://img-proxy.imgfo.com/?referer=https://manganelo.com&url=https://s7.mkklcdnv6temp.com/mangakakalot/m1/mede_shireru_yoru_no_junjou/vol3_chapter_10/28.jpg",
    "https://img-proxy.imgfo.com/?referer=https://manganelo.com&url=https://s7.mkklcdnv6temp.com/mangakakalot/m1/mede_shireru_yoru_no_junjou/vol3_chapter_10/29.jpg",
    "https://img-proxy.imgfo.com/?referer=https://manganelo.com&url=https://s7.mkklcdnv6temp.com/mangakakalot/m1/mede_shireru_yoru_no_junjou/vol3_chapter_10/30.jpg",
    "https://img-proxy.imgfo.com/?referer=https://manganelo.com&url=https://s7.mkklcdnv6temp.com/mangakakalot/m1/mede_shireru_yoru_no_junjou/vol3_chapter_10/31.jpg",
    "https://img-proxy.imgfo.com/?referer=https://manganelo.com&url=https://s7.mkklcdnv6temp.com/mangakakalot/m1/mede_shireru_yoru_no_junjou/vol3_chapter_10/32.jpg",
    "https://img-proxy.imgfo.com/?referer=https://manganelo.com&url=https://s7.mkklcdnv6temp.com/mangakakalot/m1/mede_shireru_yoru_no_junjou/vol3_chapter_10/33.jpg",
    "https://img-proxy.imgfo.com/?referer=https://manganelo.com&url=https://s7.mkklcdnv6temp.com/mangakakalot/m1/mede_shireru_yoru_no_junjou/vol3_chapter_10/34.jpg",
    "https://img-proxy.imgfo.com/?referer=https://manganelo.com&url=https://s7.mkklcdnv6temp.com/mangakakalot/m1/mede_shireru_yoru_no_junjou/vol3_chapter_10/35.jpg",
    "https://img-proxy.imgfo.com/?referer=https://manganelo.com&url=https://s7.mkklcdnv6temp.com/mangakakalot/m1/mede_shireru_yoru_no_junjou/vol3_chapter_10/36.jpg",
    "https://img-proxy.imgfo.com/?referer=https://manganelo.com&url=https://s7.mkklcdnv6temp.com/mangakakalot/m1/mede_shireru_yoru_no_junjou/vol3_chapter_10/37.jpg",
    "https://img-proxy.imgfo.com/?referer=https://manganelo.com&url=https://s7.mkklcdnv6temp.com/mangakakalot/m1/mede_shireru_yoru_no_junjou/vol3_chapter_10/38.jpg",
    "https://img-proxy.imgfo.com/?referer=https://manganelo.com&url=https://s7.mkklcdnv6temp.com/mangakakalot/m1/mede_shireru_yoru_no_junjou/vol3_chapter_10/39.jpg",
    "https://img-proxy.imgfo.com/?referer=https://manganelo.com&url=https://s7.mkklcdnv6temp.com/mangakakalot/m1/mede_shireru_yoru_no_junjou/vol3_chapter_10/40.jpg",
    "https://img-proxy.imgfo.com/?referer=https://manganelo.com&url=https://s7.mkklcdnv6temp.com/mangakakalot/m1/mede_shireru_yoru_no_junjou/vol3_chapter_10/41.jpg",
    "https://img-proxy.imgfo.com/?referer=https://manganelo.com&url=https://s7.mkklcdnv6temp.com/mangakakalot/m1/mede_shireru_yoru_no_junjou/vol3_chapter_10/42.jpg",
    "https://img-proxy.imgfo.com/?referer=https://manganelo.com&url=https://s7.mkklcdnv6temp.com/mangakakalot/m1/mede_shireru_yoru_no_junjou/vol3_chapter_10/43.jpg",
    "https://img-proxy.imgfo.com/?referer=https://manganelo.com&url=https://s7.mkklcdnv6temp.com/mangakakalot/m1/mede_shireru_yoru_no_junjou/vol3_chapter_10/44.jpg",
    "https://img-proxy.imgfo.com/?referer=https://manganelo.com&url=https://s7.mkklcdnv6temp.com/mangakakalot/m1/mede_shireru_yoru_no_junjou/vol3_chapter_10/45.jpg"
  ]
}