{
  "cover": "https://avt.mkklcdnv6.com/9/i/4-1583470048.jpg",
  "title": "Beach Stars",
  "original": "ビーチスターズ ; 沙滩之星 ; The Beach Stars ; Плажни звезди (Bulgarian)",
  "genre": "Comedy, Ecchi, School life, Seinen, Sports, Manga",
  "author": "Morio Masahiro",
  "status": "Completed",
  "backlink": "https://manganu.com/collections/morio-masahiro/beach-stars/",
  "description": "Taken from Baka-updates:\nThis is the story of Nanase Iruka. She's short, tomboyish, and her one joy in life is volleyball. On Iruka's 17th birthday, her Volleyball club is disbanded. Feeling somewhat depressed she and her friends from the club take a trip to the beach and discover Beach volleyball. Iruka can't wait to play and rushes to the court only to be told to give up being a player because of her short stature by the local Volleyball Diva. In a rage, Iruka challenges her to a match to prove her abilities. It doesn't look like she has a chance, but Iruka has a secret weapon, and nobody will ever make fun of her on the beach again....well....Not about her ability to play Volleyball anyway..",
  "language": "English",
  "images": [
    "https://img-proxy.imgfo.com/?referer=https://manganelo.com&url=https://s3.mkklcdnv6temp.com/mangakakalot/b1/beach_stars/vol1_chapter_9_twister_parade/1.jpg",
    "https://img-proxy.imgfo.com/?referer=https://manganelo.com&url=https://s3.mkklcdnv6temp.com/mangakakalot/b1/beach_stars/vol1_chapter_9_twister_parade/2.jpg",
    "https://img-proxy.imgfo.com/?referer=https://manganelo.com&url=https://s3.mkklcdnv6temp.com/mangakakalot/b1/beach_stars/vol1_chapter_9_twister_parade/3.jpg",
    "https://img-proxy.imgfo.com/?referer=https://manganelo.com&url=https://s3.mkklcdnv6temp.com/mangakakalot/b1/beach_stars/vol1_chapter_9_twister_parade/4.jpg",
    "https://img-proxy.imgfo.com/?referer=https://manganelo.com&url=https://s3.mkklcdnv6temp.com/mangakakalot/b1/beach_stars/vol1_chapter_9_twister_parade/5.jpg",
    "https://img-proxy.imgfo.com/?referer=https://manganelo.com&url=https://s3.mkklcdnv6temp.com/mangakakalot/b1/beach_stars/vol1_chapter_9_twister_parade/6.jpg",
    "https://img-proxy.imgfo.com/?referer=https://manganelo.com&url=https://s3.mkklcdnv6temp.com/mangakakalot/b1/beach_stars/vol1_chapter_9_twister_parade/7.jpg",
    "https://img-proxy.imgfo.com/?referer=https://manganelo.com&url=https://s3.mkklcdnv6temp.com/mangakakalot/b1/beach_stars/vol1_chapter_9_twister_parade/8.jpg",
    "https://img-proxy.imgfo.com/?referer=https://manganelo.com&url=https://s3.mkklcdnv6temp.com/mangakakalot/b1/beach_stars/vol1_chapter_9_twister_parade/9.jpg",
    "https://img-proxy.imgfo.com/?referer=https://manganelo.com&url=https://s3.mkklcdnv6temp.com/mangakakalot/b1/beach_stars/vol1_chapter_9_twister_parade/10.jpg",
    "https://img-proxy.imgfo.com/?referer=https://manganelo.com&url=https://s3.mkklcdnv6temp.com/mangakakalot/b1/beach_stars/vol1_chapter_9_twister_parade/11.jpg",
    "https://img-proxy.imgfo.com/?referer=https://manganelo.com&url=https://s3.mkklcdnv6temp.com/mangakakalot/b1/beach_stars/vol1_chapter_9_twister_parade/12.jpg",
    "https://img-proxy.imgfo.com/?referer=https://manganelo.com&url=https://s3.mkklcdnv6temp.com/mangakakalot/b1/beach_stars/vol1_chapter_9_twister_parade/13.jpg",
    "https://img-proxy.imgfo.com/?referer=https://manganelo.com&url=https://s3.mkklcdnv6temp.com/mangakakalot/b1/beach_stars/vol1_chapter_9_twister_parade/14.jpg",
    "https://img-proxy.imgfo.com/?referer=https://manganelo.com&url=https://s3.mkklcdnv6temp.com/mangakakalot/b1/beach_stars/vol1_chapter_9_twister_parade/15.jpg",
    "https://img-proxy.imgfo.com/?referer=https://manganelo.com&url=https://s3.mkklcdnv6temp.com/mangakakalot/b1/beach_stars/vol1_chapter_9_twister_parade/16.jpg",
    "https://img-proxy.imgfo.com/?referer=https://manganelo.com&url=https://s3.mkklcdnv6temp.com/mangakakalot/b1/beach_stars/vol1_chapter_9_twister_parade/17.jpg",
    "https://img-proxy.imgfo.com/?referer=https://manganelo.com&url=https://s3.mkklcdnv6temp.com/mangakakalot/b1/beach_stars/vol1_chapter_9_twister_parade/18.jpg",
    "https://img-proxy.imgfo.com/?referer=https://manganelo.com&url=https://s3.mkklcdnv6temp.com/mangakakalot/b1/beach_stars/vol1_chapter_9_twister_parade/19.jpg",
    "https://img-proxy.imgfo.com/?referer=https://manganelo.com&url=https://s3.mkklcdnv6temp.com/mangakakalot/b1/beach_stars/vol1_chapter_9_twister_parade/20.jpg",
    "https://img-proxy.imgfo.com/?referer=https://manganelo.com&url=https://s3.mkklcdnv6temp.com/mangakakalot/b1/beach_stars/vol1_chapter_9_twister_parade/21.jpg",
    "https://img-proxy.imgfo.com/?referer=https://manganelo.com&url=https://s3.mkklcdnv6temp.com/mangakakalot/b1/beach_stars/vol1_chapter_9_twister_parade/22.jpg",
    "https://img-proxy.imgfo.com/?referer=https://manganelo.com&url=https://s3.mkklcdnv6temp.com/mangakakalot/b1/beach_stars/vol1_chapter_9_twister_parade/23.jpg",
    "https://img-proxy.imgfo.com/?referer=https://manganelo.com&url=https://s3.mkklcdnv6temp.com/mangakakalot/b1/beach_stars/vol1_chapter_9_twister_parade/24.jpg",
    "https://img-proxy.imgfo.com/?referer=https://manganelo.com&url=https://s3.mkklcdnv6temp.com/mangakakalot/b1/beach_stars/vol1_chapter_9_twister_parade/25.jpg",
    "https://img-proxy.imgfo.com/?referer=https://manganelo.com&url=https://s3.mkklcdnv6temp.com/mangakakalot/b1/beach_stars/vol1_chapter_9_twister_parade/26.jpg"
  ]
}