{
  "cover": "https://avt.mkklcdnv6.com/4/x/5-1583472035.jpg",
  "title": "Spas-Pa",
  "original": "すぱすぱ ; 封魔未婚妻",
  "genre": "Action, Comedy, Ecchi, Romance, School life, Shounen, Supernatural, Manga",
  "author": "Miyake Taishi",
  "status": "Completed",
  "backlink": "https://manganu.com/collections/miyake-taishi/spas-pa/",
  "description": "Itsuki Minamori has fallen asleep in class and dreams about a girl from his past. He is awakened by Haruna a girl who apparently has a crush on him, but her friend Chihaya Yuuki tells her to stay away from this boy. He explains that he's spent his life being followed by evil ghosts and during the exposition, another one shows up.",
  "language": "English",
  "images": [
    "https://img-proxy.imgfo.com/?referer=https://manganelo.com&url=https://s41.mkklcdnv6temp.com/mangakakalot/s2/spaspa/vol6_chapter_255_extra_1_on_the_other_side_of_the_hot_springs_extra_2_dressin/1.jpg",
    "https://img-proxy.imgfo.com/?referer=https://manganelo.com&url=https://s41.mkklcdnv6temp.com/mangakakalot/s2/spaspa/vol6_chapter_255_extra_1_on_the_other_side_of_the_hot_springs_extra_2_dressin/2.jpg",
    "https://img-proxy.imgfo.com/?referer=https://manganelo.com&url=https://s41.mkklcdnv6temp.com/mangakakalot/s2/spaspa/vol6_chapter_255_extra_1_on_the_other_side_of_the_hot_springs_extra_2_dressin/3.jpg",
    "https://img-proxy.imgfo.com/?referer=https://manganelo.com&url=https://s41.mkklcdnv6temp.com/mangakakalot/s2/spaspa/vol6_chapter_255_extra_1_on_the_other_side_of_the_hot_springs_extra_2_dressin/4.jpg",
    "https://img-proxy.imgfo.com/?referer=https://manganelo.com&url=https://s41.mkklcdnv6temp.com/mangakakalot/s2/spaspa/vol6_chapter_255_extra_1_on_the_other_side_of_the_hot_springs_extra_2_dressin/5.jpg",
    "https://img-proxy.imgfo.com/?referer=https://manganelo.com&url=https://s41.mkklcdnv6temp.com/mangakakalot/s2/spaspa/vol6_chapter_255_extra_1_on_the_other_side_of_the_hot_springs_extra_2_dressin/6.jpg",
    "https://img-proxy.imgfo.com/?referer=https://manganelo.com&url=https://s41.mkklcdnv6temp.com/mangakakalot/s2/spaspa/vol6_chapter_255_extra_1_on_the_other_side_of_the_hot_springs_extra_2_dressin/7.jpg",
    "https://img-proxy.imgfo.com/?referer=https://manganelo.com&url=https://s41.mkklcdnv6temp.com/mangakakalot/s2/spaspa/vol6_chapter_255_extra_1_on_the_other_side_of_the_hot_springs_extra_2_dressin/8.jpg",
    "https://img-proxy.imgfo.com/?referer=https://manganelo.com&url=https://s41.mkklcdnv6temp.com/mangakakalot/s2/spaspa/vol6_chapter_255_extra_1_on_the_other_side_of_the_hot_springs_extra_2_dressin/9.jpg",
    "https://img-proxy.imgfo.com/?referer=https://manganelo.com&url=https://s41.mkklcdnv6temp.com/mangakakalot/s2/spaspa/vol6_chapter_255_extra_1_on_the_other_side_of_the_hot_springs_extra_2_dressin/10.jpg",
    "https://img-proxy.imgfo.com/?referer=https://manganelo.com&url=https://s41.mkklcdnv6temp.com/mangakakalot/s2/spaspa/vol6_chapter_255_extra_1_on_the_other_side_of_the_hot_springs_extra_2_dressin/11.jpg",
    "https://img-proxy.imgfo.com/?referer=https://manganelo.com&url=https://s41.mkklcdnv6temp.com/mangakakalot/s2/spaspa/vol6_chapter_255_extra_1_on_the_other_side_of_the_hot_springs_extra_2_dressin/12.jpg",
    "https://img-proxy.imgfo.com/?referer=https://manganelo.com&url=https://s41.mkklcdnv6temp.com/mangakakalot/s2/spaspa/vol6_chapter_255_extra_1_on_the_other_side_of_the_hot_springs_extra_2_dressin/13.jpg",
    "https://img-proxy.imgfo.com/?referer=https://manganelo.com&url=https://s41.mkklcdnv6temp.com/mangakakalot/s2/spaspa/vol6_chapter_255_extra_1_on_the_other_side_of_the_hot_springs_extra_2_dressin/14.jpg",
    "https://img-proxy.imgfo.com/?referer=https://manganelo.com&url=https://s41.mkklcdnv6temp.com/mangakakalot/s2/spaspa/vol6_chapter_255_extra_1_on_the_other_side_of_the_hot_springs_extra_2_dressin/15.jpg",
    "https://img-proxy.imgfo.com/?referer=https://manganelo.com&url=https://s41.mkklcdnv6temp.com/mangakakalot/s2/spaspa/vol6_chapter_255_extra_1_on_the_other_side_of_the_hot_springs_extra_2_dressin/16.jpg",
    "https://img-proxy.imgfo.com/?referer=https://manganelo.com&url=https://s41.mkklcdnv6temp.com/mangakakalot/s2/spaspa/vol6_chapter_255_extra_1_on_the_other_side_of_the_hot_springs_extra_2_dressin/17.jpg",
    "https://img-proxy.imgfo.com/?referer=https://manganelo.com&url=https://s41.mkklcdnv6temp.com/mangakakalot/s2/spaspa/vol6_chapter_255_extra_1_on_the_other_side_of_the_hot_springs_extra_2_dressin/18.jpg",
    "https://img-proxy.imgfo.com/?referer=https://manganelo.com&url=https://s41.mkklcdnv6temp.com/mangakakalot/s2/spaspa/vol6_chapter_255_extra_1_on_the_other_side_of_the_hot_springs_extra_2_dressin/19.jpg",
    "https://img-proxy.imgfo.com/?referer=https://manganelo.com&url=https://s41.mkklcdnv6temp.com/mangakakalot/s2/spaspa/vol6_chapter_255_extra_1_on_the_other_side_of_the_hot_springs_extra_2_dressin/20.jpg",
    "https://img-proxy.imgfo.com/?referer=https://manganelo.com&url=https://s41.mkklcdnv6temp.com/mangakakalot/s2/spaspa/vol6_chapter_255_extra_1_on_the_other_side_of_the_hot_springs_extra_2_dressin/21.jpg",
    "https://img-proxy.imgfo.com/?referer=https://manganelo.com&url=https://s41.mkklcdnv6temp.com/mangakakalot/s2/spaspa/vol6_chapter_255_extra_1_on_the_other_side_of_the_hot_springs_extra_2_dressin/22.jpg",
    "https://img-proxy.imgfo.com/?referer=https://manganelo.com&url=https://s41.mkklcdnv6temp.com/mangakakalot/s2/spaspa/vol6_chapter_255_extra_1_on_the_other_side_of_the_hot_springs_extra_2_dressin/23.jpg",
    "https://img-proxy.imgfo.com/?referer=https://manganelo.com&url=https://s41.mkklcdnv6temp.com/mangakakalot/s2/spaspa/vol6_chapter_255_extra_1_on_the_other_side_of_the_hot_springs_extra_2_dressin/24.jpg",
    "https://img-proxy.imgfo.com/?referer=https://manganelo.com&url=https://s41.mkklcdnv6temp.com/mangakakalot/s2/spaspa/vol6_chapter_255_extra_1_on_the_other_side_of_the_hot_springs_extra_2_dressin/25.jpg",
    "https://img-proxy.imgfo.com/?referer=https://manganelo.com&url=https://s41.mkklcdnv6temp.com/mangakakalot/s2/spaspa/vol6_chapter_255_extra_1_on_the_other_side_of_the_hot_springs_extra_2_dressin/26.jpg",
    "https://img-proxy.imgfo.com/?referer=https://manganelo.com&url=https://s41.mkklcdnv6temp.com/mangakakalot/s2/spaspa/vol6_chapter_255_extra_1_on_the_other_side_of_the_hot_springs_extra_2_dressin/27.jpg",
    "https://img-proxy.imgfo.com/?referer=https://manganelo.com&url=https://s41.mkklcdnv6temp.com/mangakakalot/s2/spaspa/vol6_chapter_255_extra_1_on_the_other_side_of_the_hot_springs_extra_2_dressin/28.jpg",
    "https://img-proxy.imgfo.com/?referer=https://manganelo.com&url=https://s41.mkklcdnv6temp.com/mangakakalot/s2/spaspa/vol6_chapter_255_extra_1_on_the_other_side_of_the_hot_springs_extra_2_dressin/29.jpg",
    "https://img-proxy.imgfo.com/?referer=https://manganelo.com&url=https://s41.mkklcdnv6temp.com/mangakakalot/s2/spaspa/vol6_chapter_255_extra_1_on_the_other_side_of_the_hot_springs_extra_2_dressin/30.jpg",
    "https://img-proxy.imgfo.com/?referer=https://manganelo.com&url=https://s41.mkklcdnv6temp.com/mangakakalot/s2/spaspa/vol6_chapter_255_extra_1_on_the_other_side_of_the_hot_springs_extra_2_dressin/31.jpg",
    "https://img-proxy.imgfo.com/?referer=https://manganelo.com&url=https://s41.mkklcdnv6temp.com/mangakakalot/s2/spaspa/vol6_chapter_255_extra_1_on_the_other_side_of_the_hot_springs_extra_2_dressin/32.jpg"
  ]
}