{
  "cover": "https://avt.mkklcdnv6.com/5/h/4-1583469871.jpg",
  "title": "Charming Junkie",
  "original": "悩殺ジャンキー ; 色誘中毒 ; รอยยิ้มสะกิดรัก ; 迷戀Junkie ; 뇌쇄미인 ; Nosatsu Junkie ; Nousatsu Junkie",
  "genre": "Comedy, Gender bender, Romance, School life, Shoujo, Manga",
  "author": "Fukuyama Ryoko",
  "status": "Completed",
  "backlink": "https://manganu.com/collections/fukuyama-ryoko/charming-junkie/",
  "description": "Naka Kaburagi has all the qualities a model can have, well, not really all. After being rejected by her senpai cause she can't smile like a flower and has a scary face, Naka is determined to get her revenge and to show her senpai that she can smile like a flower just like his female idol Umi Kajiwara. After failing her 19th audition, Naka accidentally bumps into this great Umi but wait..... What is this!? Umi is A MALE!!? To keep Naka's mouth shut, Umi gives her the job as his co-model. Always being together and sharing a dark secret, Naka's road to successful modeling has a lot of troubles to come... Especially when Naka and Umi started to feel funny whenever they are by each other's side....\n( - reads right to left - )",
  "language": "English",
  "images": [
    "https://img-proxy.imgfo.com/?referer=https://manganelo.com&url=https://s6.mkklcdnv6temp.com/mangakakalot/c1/charming_junkie/vol9_chapter_46_session_46/1.jpg",
    "https://img-proxy.imgfo.com/?referer=https://manganelo.com&url=https://s6.mkklcdnv6temp.com/mangakakalot/c1/charming_junkie/vol9_chapter_46_session_46/2.jpg",
    "https://img-proxy.imgfo.com/?referer=https://manganelo.com&url=https://s6.mkklcdnv6temp.com/mangakakalot/c1/charming_junkie/vol9_chapter_46_session_46/3.jpg",
    "https://img-proxy.imgfo.com/?referer=https://manganelo.com&url=https://s6.mkklcdnv6temp.com/mangakakalot/c1/charming_junkie/vol9_chapter_46_session_46/4.jpg",
    "https://img-proxy.imgfo.com/?referer=https://manganelo.com&url=https://s6.mkklcdnv6temp.com/mangakakalot/c1/charming_junkie/vol9_chapter_46_session_46/5.jpg",
    "https://img-proxy.imgfo.com/?referer=https://manganelo.com&url=https://s6.mkklcdnv6temp.com/mangakakalot/c1/charming_junkie/vol9_chapter_46_session_46/6.jpg",
    "https://img-proxy.imgfo.com/?referer=https://manganelo.com&url=https://s6.mkklcdnv6temp.com/mangakakalot/c1/charming_junkie/vol9_chapter_46_session_46/7.jpg",
    "https://img-proxy.imgfo.com/?referer=https://manganelo.com&url=https://s6.mkklcdnv6temp.com/mangakakalot/c1/charming_junkie/vol9_chapter_46_session_46/8.jpg",
    "https://img-proxy.imgfo.com/?referer=https://manganelo.com&url=https://s6.mkklcdnv6temp.com/mangakakalot/c1/charming_junkie/vol9_chapter_46_session_46/9.jpg",
    "https://img-proxy.imgfo.com/?referer=https://manganelo.com&url=https://s6.mkklcdnv6temp.com/mangakakalot/c1/charming_junkie/vol9_chapter_46_session_46/10.jpg",
    "https://img-proxy.imgfo.com/?referer=https://manganelo.com&url=https://s6.mkklcdnv6temp.com/mangakakalot/c1/charming_junkie/vol9_chapter_46_session_46/11.jpg",
    "https://img-proxy.imgfo.com/?referer=https://manganelo.com&url=https://s6.mkklcdnv6temp.com/mangakakalot/c1/charming_junkie/vol9_chapter_46_session_46/12.jpg",
    "https://img-proxy.imgfo.com/?referer=https://manganelo.com&url=https://s6.mkklcdnv6temp.com/mangakakalot/c1/charming_junkie/vol9_chapter_46_session_46/13.jpg",
    "https://img-proxy.imgfo.com/?referer=https://manganelo.com&url=https://s6.mkklcdnv6temp.com/mangakakalot/c1/charming_junkie/vol9_chapter_46_session_46/14.jpg",
    "https://img-proxy.imgfo.com/?referer=https://manganelo.com&url=https://s6.mkklcdnv6temp.com/mangakakalot/c1/charming_junkie/vol9_chapter_46_session_46/15.jpg",
    "https://img-proxy.imgfo.com/?referer=https://manganelo.com&url=https://s6.mkklcdnv6temp.com/mangakakalot/c1/charming_junkie/vol9_chapter_46_session_46/16.jpg",
    "https://img-proxy.imgfo.com/?referer=https://manganelo.com&url=https://s6.mkklcdnv6temp.com/mangakakalot/c1/charming_junkie/vol9_chapter_46_session_46/17.jpg",
    "https://img-proxy.imgfo.com/?referer=https://manganelo.com&url=https://s6.mkklcdnv6temp.com/mangakakalot/c1/charming_junkie/vol9_chapter_46_session_46/18.jpg",
    "https://img-proxy.imgfo.com/?referer=https://manganelo.com&url=https://s6.mkklcdnv6temp.com/mangakakalot/c1/charming_junkie/vol9_chapter_46_session_46/19.jpg",
    "https://img-proxy.imgfo.com/?referer=https://manganelo.com&url=https://s6.mkklcdnv6temp.com/mangakakalot/c1/charming_junkie/vol9_chapter_46_session_46/20.jpg",
    "https://img-proxy.imgfo.com/?referer=https://manganelo.com&url=https://s6.mkklcdnv6temp.com/mangakakalot/c1/charming_junkie/vol9_chapter_46_session_46/21.jpg",
    "https://img-proxy.imgfo.com/?referer=https://manganelo.com&url=https://s6.mkklcdnv6temp.com/mangakakalot/c1/charming_junkie/vol9_chapter_46_session_46/22.jpg",
    "https://img-proxy.imgfo.com/?referer=https://manganelo.com&url=https://s6.mkklcdnv6temp.com/mangakakalot/c1/charming_junkie/vol9_chapter_46_session_46/23.jpg",
    "https://img-proxy.imgfo.com/?referer=https://manganelo.com&url=https://s6.mkklcdnv6temp.com/mangakakalot/c1/charming_junkie/vol9_chapter_46_session_46/24.jpg",
    "https://img-proxy.imgfo.com/?referer=https://manganelo.com&url=https://s6.mkklcdnv6temp.com/mangakakalot/c1/charming_junkie/vol9_chapter_46_session_46/25.jpg",
    "https://img-proxy.imgfo.com/?referer=https://manganelo.com&url=https://s6.mkklcdnv6temp.com/mangakakalot/c1/charming_junkie/vol9_chapter_46_session_46/26.jpg",
    "https://img-proxy.imgfo.com/?referer=https://manganelo.com&url=https://s6.mkklcdnv6temp.com/mangakakalot/c1/charming_junkie/vol9_chapter_46_session_46/27.jpg",
    "https://img-proxy.imgfo.com/?referer=https://manganelo.com&url=https://s6.mkklcdnv6temp.com/mangakakalot/c1/charming_junkie/vol9_chapter_46_session_46/28.jpg",
    "https://img-proxy.imgfo.com/?referer=https://manganelo.com&url=https://s6.mkklcdnv6temp.com/mangakakalot/c1/charming_junkie/vol9_chapter_46_session_46/29.jpg",
    "https://img-proxy.imgfo.com/?referer=https://manganelo.com&url=https://s6.mkklcdnv6temp.com/mangakakalot/c1/charming_junkie/vol9_chapter_46_session_46/30.jpg",
    "https://img-proxy.imgfo.com/?referer=https://manganelo.com&url=https://s6.mkklcdnv6temp.com/mangakakalot/c1/charming_junkie/vol9_chapter_46_session_46/31.jpg"
  ]
}