{
  "cover": "http://ww1.heaventoon.com/content/upload/images/images/the-substitute-bride.jpg",
  "title": "The Substitute Bride",
  "genre": "Manhua, Romance, Slice of life, Full Color, Webtoons",
  "author": "Wan Hua Tong Manhua",
  "status": "Completed",
  "backlink": "https://manganu.com/collections/wan-hua-tong-manhua/the-substitute-bride/",
  "description": "An once popular actress, in order to repay for her father&rsquo;s debts, she signed a marriage contract with a cold and overbearing president. The content of the marriage contact was she has to be a substitute bride of the President, which she was looks a like of the President&rsquo;s ran away fiancee. At first, she thought that life was great, but there&rsquo;s always a continuos problems around her. Her father and the stepmother make things difficult for her, her grown up childhood friends harmed her. Let see how Luo Jia Yue avert disaster and turns to be upright &hellip;&hellip;",
  "language": "English",
  "images": [
    "https://xy-06-j.mangapark.net/96/f2/5dcf3bcd52d66011d1082f69/01_63453_1080_900.jpeg",
    "https://xy-06-j.mangapark.net/96/f2/5dcf3bcd52d66011d1082f69/02_54701_1080_900.jpeg",
    "https://xy-06-j.mangapark.net/96/f2/5dcf3bcd52d66011d1082f69/03_57691_1080_900.jpeg",
    "https://xy-06-j.mangapark.net/96/f2/5dcf3bcd52d66011d1082f69/04_74782_1080_900.jpeg",
    "https://xy-06-j.mangapark.net/96/f2/5dcf3bcd52d66011d1082f69/05_87918_1080_900.jpeg",
    "https://xy-06-j.mangapark.net/96/f2/5dcf3bcd52d66011d1082f69/06_52729_1080_900.jpeg",
    "https://xy-06-j.mangapark.net/96/f2/5dcf3bcd52d66011d1082f69/07_42761_1080_900.jpeg",
    "https://xy-06-j.mangapark.net/96/f2/5dcf3bcd52d66011d1082f69/08_50136_1080_900.jpeg",
    "https://xy-06-j.mangapark.net/96/f2/5dcf3bcd52d66011d1082f69/09_31887_1080_900.jpeg",
    "https://xy-06-j.mangapark.net/96/f2/5dcf3bcd52d66011d1082f69/10_50948_1080_900.jpeg",
    "https://xy-06-j.mangapark.net/96/f2/5dcf3bcd52d66011d1082f69/11_81113_1080_900.jpeg",
    "https://xy-06-j.mangapark.net/96/f2/5dcf3bcd52d66011d1082f69/12_84207_1080_900.jpeg",
    "https://xy-06-j.mangapark.net/96/f2/5dcf3bcd52d66011d1082f69/13_35100_1080_900.jpeg",
    "https://xy-06-j.mangapark.net/96/f2/5dcf3bcd52d66011d1082f69/14_35734_1080_900.jpeg",
    "https://xy-06-j.mangapark.net/96/f2/5dcf3bcd52d66011d1082f69/15_84229_1080_900.jpeg",
    "https://xy-06-j.mangapark.net/96/f2/5dcf3bcd52d66011d1082f69/16_51839_1080_900.jpeg",
    "https://xy-06-j.mangapark.net/96/f2/5dcf3bcd52d66011d1082f69/17_40887_1080_900.jpeg",
    "https://xy-06-j.mangapark.net/96/f2/5dcf3bcd52d66011d1082f69/18_86333_1080_900.jpeg",
    "https://xy-06-j.mangapark.net/96/f2/5dcf3bcd52d66011d1082f69/19_43773_1080_900.jpeg",
    "https://xy-06-j.mangapark.net/96/f2/5dcf3bcd52d66011d1082f69/20_53731_1080_900.jpeg",
    "https://xy-06-j.mangapark.net/96/f2/5dcf3bcd52d66011d1082f69/21_67270_1080_900.jpeg",
    "https://xy-06-j.mangapark.net/96/f2/5dcf3bcd52d66011d1082f69/22_27792_1080_900.jpeg",
    "https://xy-06-j.mangapark.net/96/f2/5dcf3bcd52d66011d1082f69/23_25649_1080_900.jpeg",
    "https://xy-06-j.mangapark.net/96/f2/5dcf3bcd52d66011d1082f69/24_47739_1080_900.jpeg",
    "https://xy-06-j.mangapark.net/96/f2/5dcf3bcd52d66011d1082f69/25_68813_1080_900.jpeg",
    "https://xy-06-j.mangapark.net/96/f2/5dcf3bcd52d66011d1082f69/26_61448_1080_900.jpeg",
    "https://xy-06-j.mangapark.net/96/f2/5dcf3bcd52d66011d1082f69/27_82817_1080_900.jpeg",
    "https://xy-06-j.mangapark.net/96/f2/5dcf3bcd52d66011d1082f69/28_65502_1080_900.jpeg",
    "https://xy-06-j.mangapark.net/96/f2/5dcf3bcd52d66011d1082f69/29_50454_1080_900.jpeg",
    "https://xy-06-j.mangapark.net/96/f2/5dcf3bcd52d66011d1082f69/30_60101_1080_900.jpeg",
    "https://xy-06-j.mangapark.net/96/f2/5dcf3bcd52d66011d1082f69/31_37941_1080_900.jpeg",
    "https://xy-06-j.mangapark.net/96/f2/5dcf3bcd52d66011d1082f69/32_63942_1080_900.jpeg",
    "https://xy-06-j.mangapark.net/96/f2/5dcf3bcd52d66011d1082f69/33_90809_1080_900.jpeg",
    "https://xy-06-j.mangapark.net/96/f2/5dcf3bcd52d66011d1082f69/34_79636_1080_900.jpeg",
    "https://xy-06-j.mangapark.net/96/f2/5dcf3bcd52d66011d1082f69/35_42012_1080_900.jpeg",
    "https://xy-06-j.mangapark.net/96/f2/5dcf3bcd52d66011d1082f69/36_60950_1080_900.jpeg",
    "https://xy-06-j.mangapark.net/96/f2/5dcf3bcd52d66011d1082f69/37_16288_1080_900.jpeg"
  ]
}