{
  "cover": "https://avt.mkklcdnv6.com/44/e/4-1583471526.jpg",
  "title": "Xxxholic",
  "original": "×××HOLiC ; Hành Trình Bí Ẩn (Vietnamese) ; HOLiC ; ×××ホリック",
  "genre": "Comedy, Drama, Fantasy, Mystery, Psychological, Romance, School life, Seinen, Supernatural, Manga",
  "author": "Ohkawa Ageha",
  "status": "Completed",
  "backlink": "https://manganu.com/collections/ohkawa-ageha/xxxholic/",
  "description": "Watanuki Kimihiro is a high school student plagued by yokai and ayakashi &ndash; spirits with a strong attraction to him. The spirits are invisible to others and encounters with them are extremely troublesome. When he stumbles into a shop that grants wishes, however, events in his life promise to become more unusual. The shop is owned by Yuuko Ichihara &ndash; a mysterious and beautiful (sometimes playful) witch of many names and esoteric renown. For a price, she offers to grant Watanuki&#39;s wish to be rid of the spirits. The price, according to Yuuko, must be of equal value and so, as payment, he temporarily becomes Yuuko&#39;s part-time employee &ndash; a maid to be precise! Watanuki&#39;s job also seems to consist of small errands dealing with the supernatural including the household chores. His love interest Himawari Kunogi, and &quot;rival&quot; Doumeki Shizuka, occasionally join him in his work as per Yuuko&#39;s request. The three become increasingly close despite Watanuki&#39;s annoyance with Doumeki. Yuuko constantly refers to &quot;hitsuzen&quot;, meaning inevitability, destiny, or fate, as being the driving force in the world. She states that there is no such thing as coincidence, and that every single action and decision is inevitable, because without them, other related events in the future could not happen.",
  "language": "English",
  "images": [
    "https://img-proxy.imgfo.com/?referer=https://manganelo.com&url=https://s6.mkklcdnv6temp.com/mangakakalot/x2/xxxholic/vol10_chapter_114/1.jpg",
    "https://img-proxy.imgfo.com/?referer=https://manganelo.com&url=https://s6.mkklcdnv6temp.com/mangakakalot/x2/xxxholic/vol10_chapter_114/2.jpg",
    "https://img-proxy.imgfo.com/?referer=https://manganelo.com&url=https://s6.mkklcdnv6temp.com/mangakakalot/x2/xxxholic/vol10_chapter_114/3.jpg",
    "https://img-proxy.imgfo.com/?referer=https://manganelo.com&url=https://s6.mkklcdnv6temp.com/mangakakalot/x2/xxxholic/vol10_chapter_114/4.jpg",
    "https://img-proxy.imgfo.com/?referer=https://manganelo.com&url=https://s6.mkklcdnv6temp.com/mangakakalot/x2/xxxholic/vol10_chapter_114/5.jpg",
    "https://img-proxy.imgfo.com/?referer=https://manganelo.com&url=https://s6.mkklcdnv6temp.com/mangakakalot/x2/xxxholic/vol10_chapter_114/6.jpg",
    "https://img-proxy.imgfo.com/?referer=https://manganelo.com&url=https://s6.mkklcdnv6temp.com/mangakakalot/x2/xxxholic/vol10_chapter_114/7.jpg",
    "https://img-proxy.imgfo.com/?referer=https://manganelo.com&url=https://s6.mkklcdnv6temp.com/mangakakalot/x2/xxxholic/vol10_chapter_114/8.jpg",
    "https://img-proxy.imgfo.com/?referer=https://manganelo.com&url=https://s6.mkklcdnv6temp.com/mangakakalot/x2/xxxholic/vol10_chapter_114/9.jpg",
    "https://img-proxy.imgfo.com/?referer=https://manganelo.com&url=https://s6.mkklcdnv6temp.com/mangakakalot/x2/xxxholic/vol10_chapter_114/10.jpg",
    "https://img-proxy.imgfo.com/?referer=https://manganelo.com&url=https://s6.mkklcdnv6temp.com/mangakakalot/x2/xxxholic/vol10_chapter_114/11.jpg",
    "https://img-proxy.imgfo.com/?referer=https://manganelo.com&url=https://s6.mkklcdnv6temp.com/mangakakalot/x2/xxxholic/vol10_chapter_114/12.jpg",
    "https://img-proxy.imgfo.com/?referer=https://manganelo.com&url=https://s6.mkklcdnv6temp.com/mangakakalot/x2/xxxholic/vol10_chapter_114/13.jpg",
    "https://img-proxy.imgfo.com/?referer=https://manganelo.com&url=https://s6.mkklcdnv6temp.com/mangakakalot/x2/xxxholic/vol10_chapter_114/14.jpg",
    "https://img-proxy.imgfo.com/?referer=https://manganelo.com&url=https://s6.mkklcdnv6temp.com/mangakakalot/x2/xxxholic/vol10_chapter_114/15.jpg",
    "https://img-proxy.imgfo.com/?referer=https://manganelo.com&url=https://s6.mkklcdnv6temp.com/mangakakalot/x2/xxxholic/vol10_chapter_114/16.jpg"
  ]
}