{
  "cover": "https://avt.mkklcdnv6.com/10/f/4-1583470084.jpg",
  "title": "B Gata H Kei",
  "original": "Ｂ型Ｈ系 ; B型H系 ; B-Type H-Group ; B-Type H-Style ; B-cupped Slut",
  "genre": "Comedy, Ecchi, Romance, School life, Seinen, Manga",
  "author": "Sanri Yoko",
  "status": "Completed",
  "backlink": "https://manganu.com/collections/sanri-yoko/b-gata-h-kei/",
  "description": "It's about a high school girl, who is always having pervert fancies. One day, she falls in love with a plain-looking boy and tries to date with him.\n4-panel manga",
  "language": "English",
  "images": [
    "https://img-proxy.imgfo.com/?referer=https://manganelo.com&url=https://s6.mkklcdnv6temp.com/mangakakalot/b2/b_gata_h_kei/vol8_chapter_249_cuttie_honey/1.jpg",
    "https://img-proxy.imgfo.com/?referer=https://manganelo.com&url=https://s6.mkklcdnv6temp.com/mangakakalot/b2/b_gata_h_kei/vol8_chapter_249_cuttie_honey/2.jpg",
    "https://img-proxy.imgfo.com/?referer=https://manganelo.com&url=https://s6.mkklcdnv6temp.com/mangakakalot/b2/b_gata_h_kei/vol8_chapter_249_cuttie_honey/3.jpg",
    "https://img-proxy.imgfo.com/?referer=https://manganelo.com&url=https://s6.mkklcdnv6temp.com/mangakakalot/b2/b_gata_h_kei/vol8_chapter_249_cuttie_honey/4.jpg",
    "https://img-proxy.imgfo.com/?referer=https://manganelo.com&url=https://s6.mkklcdnv6temp.com/mangakakalot/b2/b_gata_h_kei/vol8_chapter_249_cuttie_honey/5.jpg",
    "https://img-proxy.imgfo.com/?referer=https://manganelo.com&url=https://s6.mkklcdnv6temp.com/mangakakalot/b2/b_gata_h_kei/vol8_chapter_249_cuttie_honey/6.jpg"
  ]
}