{
  "cover": "https://avt.mkklcdnv6.com/20/y/11-1583484773.jpg",
  "title": "Y+M",
  "original": "The Yagyu Ninja Scrolls: Revenge of the Hori Clan ; Y十M ～柳生忍法帖～ ; Y十M ; Y- Jū -M - Yagyū Ninpōchō ; Y10M ; Y十M คมเขี้ยวพิฆาตอสูร",
  "genre": "Action, Historical, Martial arts, Mature, Seinen, Manga",
  "author": "Yamada Fuutarou",
  "status": "Completed",
  "backlink": "https://manganu.com/collections/yamada-fuutarou/ym/",
  "description": "Vow of Vengeance. Seventeenth-century Japan: A rebellion in the Aizu teritory has been brutally crushed, leaving twenty one brave warriors dead and most of the nuns of the local convent slaughtered. Now the surviving nuns have sworn to seek revenge. They turn to the greatest swordsman of the land to train them so they can kill the ones who slew the men and the other nuns.",
  "language": "English",
  "images": [
    "https://img-proxy.imgfo.com/?referer=https://manganelo.com&url=https://s5.mkklcdnv6temp.com/mangakakalot/y1/ym/vol6_chapter_45/1.jpg",
    "https://img-proxy.imgfo.com/?referer=https://manganelo.com&url=https://s5.mkklcdnv6temp.com/mangakakalot/y1/ym/vol6_chapter_45/2.jpg",
    "https://img-proxy.imgfo.com/?referer=https://manganelo.com&url=https://s5.mkklcdnv6temp.com/mangakakalot/y1/ym/vol6_chapter_45/3.jpg",
    "https://img-proxy.imgfo.com/?referer=https://manganelo.com&url=https://s5.mkklcdnv6temp.com/mangakakalot/y1/ym/vol6_chapter_45/4.jpg",
    "https://img-proxy.imgfo.com/?referer=https://manganelo.com&url=https://s5.mkklcdnv6temp.com/mangakakalot/y1/ym/vol6_chapter_45/5.jpg",
    "https://img-proxy.imgfo.com/?referer=https://manganelo.com&url=https://s5.mkklcdnv6temp.com/mangakakalot/y1/ym/vol6_chapter_45/6.jpg",
    "https://img-proxy.imgfo.com/?referer=https://manganelo.com&url=https://s5.mkklcdnv6temp.com/mangakakalot/y1/ym/vol6_chapter_45/7.jpg",
    "https://img-proxy.imgfo.com/?referer=https://manganelo.com&url=https://s5.mkklcdnv6temp.com/mangakakalot/y1/ym/vol6_chapter_45/8.jpg",
    "https://img-proxy.imgfo.com/?referer=https://manganelo.com&url=https://s5.mkklcdnv6temp.com/mangakakalot/y1/ym/vol6_chapter_45/9.jpg",
    "https://img-proxy.imgfo.com/?referer=https://manganelo.com&url=https://s5.mkklcdnv6temp.com/mangakakalot/y1/ym/vol6_chapter_45/10.jpg",
    "https://img-proxy.imgfo.com/?referer=https://manganelo.com&url=https://s5.mkklcdnv6temp.com/mangakakalot/y1/ym/vol6_chapter_45/11.jpg",
    "https://img-proxy.imgfo.com/?referer=https://manganelo.com&url=https://s5.mkklcdnv6temp.com/mangakakalot/y1/ym/vol6_chapter_45/12.jpg",
    "https://img-proxy.imgfo.com/?referer=https://manganelo.com&url=https://s5.mkklcdnv6temp.com/mangakakalot/y1/ym/vol6_chapter_45/13.jpg",
    "https://img-proxy.imgfo.com/?referer=https://manganelo.com&url=https://s5.mkklcdnv6temp.com/mangakakalot/y1/ym/vol6_chapter_45/14.jpg",
    "https://img-proxy.imgfo.com/?referer=https://manganelo.com&url=https://s5.mkklcdnv6temp.com/mangakakalot/y1/ym/vol6_chapter_45/15.jpg",
    "https://img-proxy.imgfo.com/?referer=https://manganelo.com&url=https://s5.mkklcdnv6temp.com/mangakakalot/y1/ym/vol6_chapter_45/16.jpg",
    "https://img-proxy.imgfo.com/?referer=https://manganelo.com&url=https://s5.mkklcdnv6temp.com/mangakakalot/y1/ym/vol6_chapter_45/17.jpg"
  ]
}