{
  "cover": "https://avt.mkklcdnv6.com/29/l/9-1583481276.jpg",
  "title": "Jun - Shotaro No Fantasy World",
  "original": "ファンタジーワールド ジュン ; Fantasy World Jun",
  "genre": "Drama, Fantasy, Psychological, Manga",
  "author": "Ishinomori Shotaro",
  "status": "Completed",
  "backlink": "https://manganu.com/collections/ishinomori-shotaro/jun-shotaro-no-fantasy-world/",
  "description": "A experimental manga series about a boy named Jun and his surreal voyages. The character is a alter-ego of Ishinomori himself.",
  "language": "English",
  "images": [
    "https://img-proxy.imgfo.com/?referer=https://manganelo.com&url=https://s41.mkklcdnv6temp.com/mangakakalot/j2/jun_shotaro_no_fantasy_world/vol1_chapter_18/1.jpg",
    "https://img-proxy.imgfo.com/?referer=https://manganelo.com&url=https://s41.mkklcdnv6temp.com/mangakakalot/j2/jun_shotaro_no_fantasy_world/vol1_chapter_18/2.jpg",
    "https://img-proxy.imgfo.com/?referer=https://manganelo.com&url=https://s41.mkklcdnv6temp.com/mangakakalot/j2/jun_shotaro_no_fantasy_world/vol1_chapter_18/3.jpg",
    "https://img-proxy.imgfo.com/?referer=https://manganelo.com&url=https://s41.mkklcdnv6temp.com/mangakakalot/j2/jun_shotaro_no_fantasy_world/vol1_chapter_18/4.jpg",
    "https://img-proxy.imgfo.com/?referer=https://manganelo.com&url=https://s41.mkklcdnv6temp.com/mangakakalot/j2/jun_shotaro_no_fantasy_world/vol1_chapter_18/5.jpg",
    "https://img-proxy.imgfo.com/?referer=https://manganelo.com&url=https://s41.mkklcdnv6temp.com/mangakakalot/j2/jun_shotaro_no_fantasy_world/vol1_chapter_18/6.jpg",
    "https://img-proxy.imgfo.com/?referer=https://manganelo.com&url=https://s41.mkklcdnv6temp.com/mangakakalot/j2/jun_shotaro_no_fantasy_world/vol1_chapter_18/7.jpg",
    "https://img-proxy.imgfo.com/?referer=https://manganelo.com&url=https://s41.mkklcdnv6temp.com/mangakakalot/j2/jun_shotaro_no_fantasy_world/vol1_chapter_18/8.jpg",
    "https://img-proxy.imgfo.com/?referer=https://manganelo.com&url=https://s41.mkklcdnv6temp.com/mangakakalot/j2/jun_shotaro_no_fantasy_world/vol1_chapter_18/9.jpg",
    "https://img-proxy.imgfo.com/?referer=https://manganelo.com&url=https://s41.mkklcdnv6temp.com/mangakakalot/j2/jun_shotaro_no_fantasy_world/vol1_chapter_18/10.jpg",
    "https://img-proxy.imgfo.com/?referer=https://manganelo.com&url=https://s41.mkklcdnv6temp.com/mangakakalot/j2/jun_shotaro_no_fantasy_world/vol1_chapter_18/11.jpg",
    "https://img-proxy.imgfo.com/?referer=https://manganelo.com&url=https://s41.mkklcdnv6temp.com/mangakakalot/j2/jun_shotaro_no_fantasy_world/vol1_chapter_18/12.jpg"
  ]
}