{
  "cover": "https://avt.mkklcdnv6.com/49/p/17-1583497058.jpg",
  "title": "Honzuki No Gekokujou ~Shisho Ni Naru Tame Ni Wa Shudan Wo Erandeiraremasen~ Dai 1-Bu - Hon Ga Nai Nara Tsukureba Ii!",
  "original": "Ascendance of a Bookworm: Part 1; Ascendance of a Bookworm: Stop at Nothing to be a Librarian; Honzuki no Gekokujou: Part 1; Honzuki no Gekokujou: Shisho ni Naru Tame ni wa Shudan wo Erandeiraremasen; 本好きの下剋上 ～司書になるためには手段を選んでいられません～ 第一部 「本がないなら作ればいい！」",
  "genre": "Drama, Shoujo, Slice of life",
  "author": "Kazuki Miya",
  "status": "Completed",
  "backlink": "https://manganu.com/collections/kazuki-miya/honzuki-no-gekokujou-shisho-ni-naru-tame-ni-wa-shudan-wo-erandeiraremasen-dai-1-bu-hon-ga-nai-nara-tsukureba-ii/",
  "description": "A certain college girl who&#39;s loved books ever since she was a little girl dies in an accident and is reborn in another world she knows nothing about. She is now Maine, the sickly five-year-old daughter of a poor soldier. To make things worse, the world she&#39;s been reborn in has a very low literacy rate and books mostly don&#39;t exist. She&#39;d have to pay an enormous amounts of money to buy one. Maine resolves herself: If there aren&#39;t any books, she&#39;ll just have to make them! Her goal is to become a librarian. This story begins with her quest to make books so she can live surrounded by them! Dive into this biblio-fantasy written for book lovers and bookworms!",
  "language": "English",
  "images": [
    "https://img-proxy.imgfo.com/?referer=https://manganelo.com&url=https://s5.mkklcdnv6temp.com/mangakakalot/f2/ft918545/vol7_chapter_336_extra_a_pound_cake_tasting_party/1.jpg",
    "https://img-proxy.imgfo.com/?referer=https://manganelo.com&url=https://s5.mkklcdnv6temp.com/mangakakalot/f2/ft918545/vol7_chapter_336_extra_a_pound_cake_tasting_party/2.jpg",
    "https://img-proxy.imgfo.com/?referer=https://manganelo.com&url=https://s5.mkklcdnv6temp.com/mangakakalot/f2/ft918545/vol7_chapter_336_extra_a_pound_cake_tasting_party/3.jpg",
    "https://img-proxy.imgfo.com/?referer=https://manganelo.com&url=https://s5.mkklcdnv6temp.com/mangakakalot/f2/ft918545/vol7_chapter_336_extra_a_pound_cake_tasting_party/4.jpg",
    "https://img-proxy.imgfo.com/?referer=https://manganelo.com&url=https://s5.mkklcdnv6temp.com/mangakakalot/f2/ft918545/vol7_chapter_336_extra_a_pound_cake_tasting_party/5.jpg",
    "https://img-proxy.imgfo.com/?referer=https://manganelo.com&url=https://s5.mkklcdnv6temp.com/mangakakalot/f2/ft918545/vol7_chapter_336_extra_a_pound_cake_tasting_party/6.jpg",
    "https://img-proxy.imgfo.com/?referer=https://manganelo.com&url=https://s5.mkklcdnv6temp.com/mangakakalot/f2/ft918545/vol7_chapter_336_extra_a_pound_cake_tasting_party/7.jpg",
    "https://img-proxy.imgfo.com/?referer=https://manganelo.com&url=https://s5.mkklcdnv6temp.com/mangakakalot/f2/ft918545/vol7_chapter_336_extra_a_pound_cake_tasting_party/8.jpg",
    "https://img-proxy.imgfo.com/?referer=https://manganelo.com&url=https://s5.mkklcdnv6temp.com/mangakakalot/f2/ft918545/vol7_chapter_336_extra_a_pound_cake_tasting_party/9.jpg",
    "https://img-proxy.imgfo.com/?referer=https://manganelo.com&url=https://s5.mkklcdnv6temp.com/mangakakalot/f2/ft918545/vol7_chapter_336_extra_a_pound_cake_tasting_party/10.jpg",
    "https://img-proxy.imgfo.com/?referer=https://manganelo.com&url=https://s5.mkklcdnv6temp.com/mangakakalot/f2/ft918545/vol7_chapter_336_extra_a_pound_cake_tasting_party/11.jpg",
    "https://img-proxy.imgfo.com/?referer=https://manganelo.com&url=https://s5.mkklcdnv6temp.com/mangakakalot/f2/ft918545/vol7_chapter_336_extra_a_pound_cake_tasting_party/12.jpg",
    "https://img-proxy.imgfo.com/?referer=https://manganelo.com&url=https://s5.mkklcdnv6temp.com/mangakakalot/f2/ft918545/vol7_chapter_336_extra_a_pound_cake_tasting_party/13.jpg",
    "https://img-proxy.imgfo.com/?referer=https://manganelo.com&url=https://s5.mkklcdnv6temp.com/mangakakalot/f2/ft918545/vol7_chapter_336_extra_a_pound_cake_tasting_party/14.jpg",
    "https://img-proxy.imgfo.com/?referer=https://manganelo.com&url=https://s5.mkklcdnv6temp.com/mangakakalot/f2/ft918545/vol7_chapter_336_extra_a_pound_cake_tasting_party/15.jpg",
    "https://img-proxy.imgfo.com/?referer=https://manganelo.com&url=https://s5.mkklcdnv6temp.com/mangakakalot/f2/ft918545/vol7_chapter_336_extra_a_pound_cake_tasting_party/16.jpg",
    "https://img-proxy.imgfo.com/?referer=https://manganelo.com&url=https://s5.mkklcdnv6temp.com/mangakakalot/f2/ft918545/vol7_chapter_336_extra_a_pound_cake_tasting_party/17.jpg",
    "https://img-proxy.imgfo.com/?referer=https://manganelo.com&url=https://s5.mkklcdnv6temp.com/mangakakalot/f2/ft918545/vol7_chapter_336_extra_a_pound_cake_tasting_party/18.jpg",
    "https://img-proxy.imgfo.com/?referer=https://manganelo.com&url=https://s5.mkklcdnv6temp.com/mangakakalot/f2/ft918545/vol7_chapter_336_extra_a_pound_cake_tasting_party/19.jpg",
    "https://img-proxy.imgfo.com/?referer=https://manganelo.com&url=https://s5.mkklcdnv6temp.com/mangakakalot/f2/ft918545/vol7_chapter_336_extra_a_pound_cake_tasting_party/20.jpg",
    "https://img-proxy.imgfo.com/?referer=https://manganelo.com&url=https://s5.mkklcdnv6temp.com/mangakakalot/f2/ft918545/vol7_chapter_336_extra_a_pound_cake_tasting_party/21.jpg",
    "https://img-proxy.imgfo.com/?referer=https://manganelo.com&url=https://s5.mkklcdnv6temp.com/mangakakalot/f2/ft918545/vol7_chapter_336_extra_a_pound_cake_tasting_party/22.jpg"
  ]
}