{
  "cover": "https://avt.mkklcdnv6.com/42/l/9-1583481870.jpg",
  "title": "Paladin",
  "original": "팔라딘 ; 팔라딘 Inevitable Destiny ; Paladin: Inevitable Destiny",
  "genre": "Action, Adventure, Fantasy, Historical, Martial arts, Seinen, Webtoons, Manhwa",
  "author": "Ryu Ki-Woon",
  "status": "Completed",
  "backlink": "https://manganu.com/collections/ryu-ki-woon/paladin/",
  "description": "From: Easy Going Scans\nThe country of Greenland, after losing the war to the Imperial Army, were in agony and despair for what will the future bring them. They had hired mercenaries to help them during the war and now they’ve come back to collect their reward while the country were still picking up their pieces of their broken dreams. By that time, the King has passed away and his heir was still too young to take up on the throne. After hearing the news of the King’s death the mercenaries decided to take over the throne and rule in his place. But there was an obstacle in their way... The Oracle!",
  "language": "English",
  "images": [
    "https://img-proxy.imgfo.com/?referer=https://manganelo.com&url=https://s7.mkklcdnv6temp.com/mangakakalot/p1/paladin/vol1_chapter_34/1.jpg",
    "https://img-proxy.imgfo.com/?referer=https://manganelo.com&url=https://s7.mkklcdnv6temp.com/mangakakalot/p1/paladin/vol1_chapter_34/2.jpg",
    "https://img-proxy.imgfo.com/?referer=https://manganelo.com&url=https://s7.mkklcdnv6temp.com/mangakakalot/p1/paladin/vol1_chapter_34/3.jpg",
    "https://img-proxy.imgfo.com/?referer=https://manganelo.com&url=https://s7.mkklcdnv6temp.com/mangakakalot/p1/paladin/vol1_chapter_34/4.jpg",
    "https://img-proxy.imgfo.com/?referer=https://manganelo.com&url=https://s7.mkklcdnv6temp.com/mangakakalot/p1/paladin/vol1_chapter_34/5.jpg",
    "https://img-proxy.imgfo.com/?referer=https://manganelo.com&url=https://s7.mkklcdnv6temp.com/mangakakalot/p1/paladin/vol1_chapter_34/6.jpg",
    "https://img-proxy.imgfo.com/?referer=https://manganelo.com&url=https://s7.mkklcdnv6temp.com/mangakakalot/p1/paladin/vol1_chapter_34/7.jpg",
    "https://img-proxy.imgfo.com/?referer=https://manganelo.com&url=https://s7.mkklcdnv6temp.com/mangakakalot/p1/paladin/vol1_chapter_34/8.jpg",
    "https://img-proxy.imgfo.com/?referer=https://manganelo.com&url=https://s7.mkklcdnv6temp.com/mangakakalot/p1/paladin/vol1_chapter_34/9.jpg",
    "https://img-proxy.imgfo.com/?referer=https://manganelo.com&url=https://s7.mkklcdnv6temp.com/mangakakalot/p1/paladin/vol1_chapter_34/10.jpg",
    "https://img-proxy.imgfo.com/?referer=https://manganelo.com&url=https://s7.mkklcdnv6temp.com/mangakakalot/p1/paladin/vol1_chapter_34/11.jpg",
    "https://img-proxy.imgfo.com/?referer=https://manganelo.com&url=https://s7.mkklcdnv6temp.com/mangakakalot/p1/paladin/vol1_chapter_34/12.jpg",
    "https://img-proxy.imgfo.com/?referer=https://manganelo.com&url=https://s7.mkklcdnv6temp.com/mangakakalot/p1/paladin/vol1_chapter_34/13.jpg",
    "https://img-proxy.imgfo.com/?referer=https://manganelo.com&url=https://s7.mkklcdnv6temp.com/mangakakalot/p1/paladin/vol1_chapter_34/14.jpg",
    "https://img-proxy.imgfo.com/?referer=https://manganelo.com&url=https://s7.mkklcdnv6temp.com/mangakakalot/p1/paladin/vol1_chapter_34/15.jpg",
    "https://img-proxy.imgfo.com/?referer=https://manganelo.com&url=https://s7.mkklcdnv6temp.com/mangakakalot/p1/paladin/vol1_chapter_34/16.jpg",
    "https://img-proxy.imgfo.com/?referer=https://manganelo.com&url=https://s7.mkklcdnv6temp.com/mangakakalot/p1/paladin/vol1_chapter_34/17.jpg",
    "https://img-proxy.imgfo.com/?referer=https://manganelo.com&url=https://s7.mkklcdnv6temp.com/mangakakalot/p1/paladin/vol1_chapter_34/18.jpg",
    "https://img-proxy.imgfo.com/?referer=https://manganelo.com&url=https://s7.mkklcdnv6temp.com/mangakakalot/p1/paladin/vol1_chapter_34/19.jpg",
    "https://img-proxy.imgfo.com/?referer=https://manganelo.com&url=https://s7.mkklcdnv6temp.com/mangakakalot/p1/paladin/vol1_chapter_34/20.jpg",
    "https://img-proxy.imgfo.com/?referer=https://manganelo.com&url=https://s7.mkklcdnv6temp.com/mangakakalot/p1/paladin/vol1_chapter_34/21.jpg",
    "https://img-proxy.imgfo.com/?referer=https://manganelo.com&url=https://s7.mkklcdnv6temp.com/mangakakalot/p1/paladin/vol1_chapter_34/22.jpg"
  ]
}