{
  "cover": "https://avt.mkklcdnv6.com/44/q/5-1583473635.jpg",
  "title": "Honey X Honey Drops",
  "original": "蜜×蜜ドロップス ; 蜜X蜜DROPS ; 허니허니드롭스 ; Honey Drops ; Mitsu x Mitsu Drops",
  "genre": "Comedy, Romance, School life, Shoujo, Smut, Manga",
  "author": "Minami Kanan",
  "status": "Completed",
  "backlink": "https://manganu.com/collections/minami-kanan/honey-x-honey-drops/",
  "description": "Yuzuru is a fifteen year old girl who is attending her first year in Houjou Academy. At her summer job, she met a troublesome rich boy, Renge Kai, who is attending the same school as her. Kai is part of the Kugeka, a class opened only to the rich students of Houjou.\nAt the end of the summer break she finds out that she has become Kai's \"Honey\". This nickname is given to all the students from the regular class choosen by the Kugeka to become their assistants, so that the rich boys can be successful without any problem. The up side to being a Honey is that all their school fees will be taken care of.\nAlthough Yuzuru's family has some financial problems, she doesn't want to accept her role of being Kai's honey. But the only way to quit is to leave the school... What is she to do?",
  "language": "English",
  "images": [
    "https://img-proxy.imgfo.com/?referer=https://manganelo.com&url=https://s7.mkklcdnv6temp.com/mangakakalot/h2/honey_x_honey_drops/vol7_chapter_40/1.jpg",
    "https://img-proxy.imgfo.com/?referer=https://manganelo.com&url=https://s7.mkklcdnv6temp.com/mangakakalot/h2/honey_x_honey_drops/vol7_chapter_40/2.jpg",
    "https://img-proxy.imgfo.com/?referer=https://manganelo.com&url=https://s7.mkklcdnv6temp.com/mangakakalot/h2/honey_x_honey_drops/vol7_chapter_40/3.jpg",
    "https://img-proxy.imgfo.com/?referer=https://manganelo.com&url=https://s7.mkklcdnv6temp.com/mangakakalot/h2/honey_x_honey_drops/vol7_chapter_40/4.jpg",
    "https://img-proxy.imgfo.com/?referer=https://manganelo.com&url=https://s7.mkklcdnv6temp.com/mangakakalot/h2/honey_x_honey_drops/vol7_chapter_40/5.jpg",
    "https://img-proxy.imgfo.com/?referer=https://manganelo.com&url=https://s7.mkklcdnv6temp.com/mangakakalot/h2/honey_x_honey_drops/vol7_chapter_40/6.jpg",
    "https://img-proxy.imgfo.com/?referer=https://manganelo.com&url=https://s7.mkklcdnv6temp.com/mangakakalot/h2/honey_x_honey_drops/vol7_chapter_40/7.jpg",
    "https://img-proxy.imgfo.com/?referer=https://manganelo.com&url=https://s7.mkklcdnv6temp.com/mangakakalot/h2/honey_x_honey_drops/vol7_chapter_40/8.jpg",
    "https://img-proxy.imgfo.com/?referer=https://manganelo.com&url=https://s7.mkklcdnv6temp.com/mangakakalot/h2/honey_x_honey_drops/vol7_chapter_40/9.jpg",
    "https://img-proxy.imgfo.com/?referer=https://manganelo.com&url=https://s7.mkklcdnv6temp.com/mangakakalot/h2/honey_x_honey_drops/vol7_chapter_40/10.jpg",
    "https://img-proxy.imgfo.com/?referer=https://manganelo.com&url=https://s7.mkklcdnv6temp.com/mangakakalot/h2/honey_x_honey_drops/vol7_chapter_40/11.jpg",
    "https://img-proxy.imgfo.com/?referer=https://manganelo.com&url=https://s7.mkklcdnv6temp.com/mangakakalot/h2/honey_x_honey_drops/vol7_chapter_40/12.jpg",
    "https://img-proxy.imgfo.com/?referer=https://manganelo.com&url=https://s7.mkklcdnv6temp.com/mangakakalot/h2/honey_x_honey_drops/vol7_chapter_40/13.jpg",
    "https://img-proxy.imgfo.com/?referer=https://manganelo.com&url=https://s7.mkklcdnv6temp.com/mangakakalot/h2/honey_x_honey_drops/vol7_chapter_40/14.jpg",
    "https://img-proxy.imgfo.com/?referer=https://manganelo.com&url=https://s7.mkklcdnv6temp.com/mangakakalot/h2/honey_x_honey_drops/vol7_chapter_40/15.jpg",
    "https://img-proxy.imgfo.com/?referer=https://manganelo.com&url=https://s7.mkklcdnv6temp.com/mangakakalot/h2/honey_x_honey_drops/vol7_chapter_40/16.jpg",
    "https://img-proxy.imgfo.com/?referer=https://manganelo.com&url=https://s7.mkklcdnv6temp.com/mangakakalot/h2/honey_x_honey_drops/vol7_chapter_40/17.jpg",
    "https://img-proxy.imgfo.com/?referer=https://manganelo.com&url=https://s7.mkklcdnv6temp.com/mangakakalot/h2/honey_x_honey_drops/vol7_chapter_40/18.jpg",
    "https://img-proxy.imgfo.com/?referer=https://manganelo.com&url=https://s7.mkklcdnv6temp.com/mangakakalot/h2/honey_x_honey_drops/vol7_chapter_40/19.jpg",
    "https://img-proxy.imgfo.com/?referer=https://manganelo.com&url=https://s7.mkklcdnv6temp.com/mangakakalot/h2/honey_x_honey_drops/vol7_chapter_40/20.jpg",
    "https://img-proxy.imgfo.com/?referer=https://manganelo.com&url=https://s7.mkklcdnv6temp.com/mangakakalot/h2/honey_x_honey_drops/vol7_chapter_40/21.jpg",
    "https://img-proxy.imgfo.com/?referer=https://manganelo.com&url=https://s7.mkklcdnv6temp.com/mangakakalot/h2/honey_x_honey_drops/vol7_chapter_40/22.jpg",
    "https://img-proxy.imgfo.com/?referer=https://manganelo.com&url=https://s7.mkklcdnv6temp.com/mangakakalot/h2/honey_x_honey_drops/vol7_chapter_40/23.jpg",
    "https://img-proxy.imgfo.com/?referer=https://manganelo.com&url=https://s7.mkklcdnv6temp.com/mangakakalot/h2/honey_x_honey_drops/vol7_chapter_40/24.jpg",
    "https://img-proxy.imgfo.com/?referer=https://manganelo.com&url=https://s7.mkklcdnv6temp.com/mangakakalot/h2/honey_x_honey_drops/vol7_chapter_40/25.jpg",
    "https://img-proxy.imgfo.com/?referer=https://manganelo.com&url=https://s7.mkklcdnv6temp.com/mangakakalot/h2/honey_x_honey_drops/vol7_chapter_40/26.jpg",
    "https://img-proxy.imgfo.com/?referer=https://manganelo.com&url=https://s7.mkklcdnv6temp.com/mangakakalot/h2/honey_x_honey_drops/vol7_chapter_40/27.jpg",
    "https://img-proxy.imgfo.com/?referer=https://manganelo.com&url=https://s7.mkklcdnv6temp.com/mangakakalot/h2/honey_x_honey_drops/vol7_chapter_40/28.jpg",
    "https://img-proxy.imgfo.com/?referer=https://manganelo.com&url=https://s7.mkklcdnv6temp.com/mangakakalot/h2/honey_x_honey_drops/vol7_chapter_40/29.jpg",
    "https://img-proxy.imgfo.com/?referer=https://manganelo.com&url=https://s7.mkklcdnv6temp.com/mangakakalot/h2/honey_x_honey_drops/vol7_chapter_40/30.jpg"
  ]
}