{
  "cover": "https://avt.mkklcdnv6.com/9/y/12-1583486183.jpg",
  "title": "Pathos",
  "original": "パトス",
  "genre": "Drama, Fantasy, Romance, Supernatural, Tragedy, Yaoi, Manga",
  "author": "Sadahiro Mika",
  "status": "Completed",
  "backlink": "https://manganu.com/collections/sadahiro-mika/pathos/",
  "description": "Ace, a human teenager, has been raised by King and Jay, vampires who have lived an eternal lifetime. As he grows up, he became attracted to Jay and Jay also comes to yearn strongly for Ace's blood. King and Jay, afraid that their secret will be exposed, decide to send Ace away to a boarding school. But when Ace finds that out, he wishes to be a vampire like them.\nSadahiro Mika's Gothic love story about the growth of a teenager who's raised up by vampires and the feeling of a vampire who live in eternal life.\n(from the cover)\nAlso contains two additional oneshots:\n1) Deep Throat (beware, this is also the name of the extra at the end of volume 1 of Pathos, but it's two different releases);\n2) EX.",
  "language": "English",
  "images": [
    "https://img-proxy.imgfo.com/?referer=https://manganelo.com&url=https://s41.mkklcdnv6temp.com/mangakakalot/p1/pathos/vol02_chapter_3_scene_6_testament/1.jpg",
    "https://img-proxy.imgfo.com/?referer=https://manganelo.com&url=https://s41.mkklcdnv6temp.com/mangakakalot/p1/pathos/vol02_chapter_3_scene_6_testament/2.jpg",
    "https://img-proxy.imgfo.com/?referer=https://manganelo.com&url=https://s41.mkklcdnv6temp.com/mangakakalot/p1/pathos/vol02_chapter_3_scene_6_testament/3.jpg",
    "https://img-proxy.imgfo.com/?referer=https://manganelo.com&url=https://s41.mkklcdnv6temp.com/mangakakalot/p1/pathos/vol02_chapter_3_scene_6_testament/4.jpg",
    "https://img-proxy.imgfo.com/?referer=https://manganelo.com&url=https://s41.mkklcdnv6temp.com/mangakakalot/p1/pathos/vol02_chapter_3_scene_6_testament/5.jpg",
    "https://img-proxy.imgfo.com/?referer=https://manganelo.com&url=https://s41.mkklcdnv6temp.com/mangakakalot/p1/pathos/vol02_chapter_3_scene_6_testament/6.jpg",
    "https://img-proxy.imgfo.com/?referer=https://manganelo.com&url=https://s41.mkklcdnv6temp.com/mangakakalot/p1/pathos/vol02_chapter_3_scene_6_testament/7.jpg",
    "https://img-proxy.imgfo.com/?referer=https://manganelo.com&url=https://s41.mkklcdnv6temp.com/mangakakalot/p1/pathos/vol02_chapter_3_scene_6_testament/8.jpg",
    "https://img-proxy.imgfo.com/?referer=https://manganelo.com&url=https://s41.mkklcdnv6temp.com/mangakakalot/p1/pathos/vol02_chapter_3_scene_6_testament/9.jpg",
    "https://img-proxy.imgfo.com/?referer=https://manganelo.com&url=https://s41.mkklcdnv6temp.com/mangakakalot/p1/pathos/vol02_chapter_3_scene_6_testament/10.jpg",
    "https://img-proxy.imgfo.com/?referer=https://manganelo.com&url=https://s41.mkklcdnv6temp.com/mangakakalot/p1/pathos/vol02_chapter_3_scene_6_testament/11.jpg",
    "https://img-proxy.imgfo.com/?referer=https://manganelo.com&url=https://s41.mkklcdnv6temp.com/mangakakalot/p1/pathos/vol02_chapter_3_scene_6_testament/12.jpg",
    "https://img-proxy.imgfo.com/?referer=https://manganelo.com&url=https://s41.mkklcdnv6temp.com/mangakakalot/p1/pathos/vol02_chapter_3_scene_6_testament/13.jpg",
    "https://img-proxy.imgfo.com/?referer=https://manganelo.com&url=https://s41.mkklcdnv6temp.com/mangakakalot/p1/pathos/vol02_chapter_3_scene_6_testament/14.jpg",
    "https://img-proxy.imgfo.com/?referer=https://manganelo.com&url=https://s41.mkklcdnv6temp.com/mangakakalot/p1/pathos/vol02_chapter_3_scene_6_testament/15.jpg",
    "https://img-proxy.imgfo.com/?referer=https://manganelo.com&url=https://s41.mkklcdnv6temp.com/mangakakalot/p1/pathos/vol02_chapter_3_scene_6_testament/16.jpg",
    "https://img-proxy.imgfo.com/?referer=https://manganelo.com&url=https://s41.mkklcdnv6temp.com/mangakakalot/p1/pathos/vol02_chapter_3_scene_6_testament/17.jpg",
    "https://img-proxy.imgfo.com/?referer=https://manganelo.com&url=https://s41.mkklcdnv6temp.com/mangakakalot/p1/pathos/vol02_chapter_3_scene_6_testament/18.jpg",
    "https://img-proxy.imgfo.com/?referer=https://manganelo.com&url=https://s41.mkklcdnv6temp.com/mangakakalot/p1/pathos/vol02_chapter_3_scene_6_testament/19.jpg",
    "https://img-proxy.imgfo.com/?referer=https://manganelo.com&url=https://s41.mkklcdnv6temp.com/mangakakalot/p1/pathos/vol02_chapter_3_scene_6_testament/20.jpg",
    "https://img-proxy.imgfo.com/?referer=https://manganelo.com&url=https://s41.mkklcdnv6temp.com/mangakakalot/p1/pathos/vol02_chapter_3_scene_6_testament/21.jpg",
    "https://img-proxy.imgfo.com/?referer=https://manganelo.com&url=https://s41.mkklcdnv6temp.com/mangakakalot/p1/pathos/vol02_chapter_3_scene_6_testament/22.jpg",
    "https://img-proxy.imgfo.com/?referer=https://manganelo.com&url=https://s41.mkklcdnv6temp.com/mangakakalot/p1/pathos/vol02_chapter_3_scene_6_testament/23.jpg",
    "https://img-proxy.imgfo.com/?referer=https://manganelo.com&url=https://s41.mkklcdnv6temp.com/mangakakalot/p1/pathos/vol02_chapter_3_scene_6_testament/24.jpg",
    "https://img-proxy.imgfo.com/?referer=https://manganelo.com&url=https://s41.mkklcdnv6temp.com/mangakakalot/p1/pathos/vol02_chapter_3_scene_6_testament/25.jpg",
    "https://img-proxy.imgfo.com/?referer=https://manganelo.com&url=https://s41.mkklcdnv6temp.com/mangakakalot/p1/pathos/vol02_chapter_3_scene_6_testament/26.jpg",
    "https://img-proxy.imgfo.com/?referer=https://manganelo.com&url=https://s41.mkklcdnv6temp.com/mangakakalot/p1/pathos/vol02_chapter_3_scene_6_testament/27.jpg",
    "https://img-proxy.imgfo.com/?referer=https://manganelo.com&url=https://s41.mkklcdnv6temp.com/mangakakalot/p1/pathos/vol02_chapter_3_scene_6_testament/28.jpg",
    "https://img-proxy.imgfo.com/?referer=https://manganelo.com&url=https://s41.mkklcdnv6temp.com/mangakakalot/p1/pathos/vol02_chapter_3_scene_6_testament/29.jpg",
    "https://img-proxy.imgfo.com/?referer=https://manganelo.com&url=https://s41.mkklcdnv6temp.com/mangakakalot/p1/pathos/vol02_chapter_3_scene_6_testament/30.jpg",
    "https://img-proxy.imgfo.com/?referer=https://manganelo.com&url=https://s41.mkklcdnv6temp.com/mangakakalot/p1/pathos/vol02_chapter_3_scene_6_testament/31.jpg",
    "https://img-proxy.imgfo.com/?referer=https://manganelo.com&url=https://s41.mkklcdnv6temp.com/mangakakalot/p1/pathos/vol02_chapter_3_scene_6_testament/32.jpg",
    "https://img-proxy.imgfo.com/?referer=https://manganelo.com&url=https://s41.mkklcdnv6temp.com/mangakakalot/p1/pathos/vol02_chapter_3_scene_6_testament/33.jpg",
    "https://img-proxy.imgfo.com/?referer=https://manganelo.com&url=https://s41.mkklcdnv6temp.com/mangakakalot/p1/pathos/vol02_chapter_3_scene_6_testament/34.jpg"
  ]
}