{
  "cover": "https://avt.mkklcdnv6.com/16/k/14-1583488343.jpg",
  "title": "Hinyari Rouka, Mangekyou",
  "original": "ひんやり廊下、万華鏡 ; Icy Corridor, Kaleidoscope",
  "genre": "School life, Smut, Yaoi, Manga",
  "author": "Ike Reibun",
  "status": "Completed",
  "backlink": "https://manganu.com/collections/ike-reibun/hinyari-rouka-mangekyou/",
  "description": "1) ) Icy Corridor, Kaleidoscope\nKousa is staying after school to help Nagai Sensei with some data entry. One thing leads to another, and data isn't the only thing being entered.\n2) The Two of Them At The End of The Corridor\nContinuation to the first story\n3) A Bewildered Space Date\nThird year student Endou started a dating club (for finding good places to go on dates), but because he's considered the \"Muddled Prince\" he gets Hayanari, a ladies man to work with him. But are both Endou and Hayanari being totally honest in their intentions?\n4)Total Reversal\nContinuation to the third story.\n5) Am I Not Good Enough?\nKuniharu's older brother Mitsu has just moved back home after breaking up with his live-in girlfriend. These boys have some unresolved issues to work out, but why bother talking about it when there are other ways to express your feelings...Incest warning!\n6)Sleeping With Tears of Joy\nContinuation to the fifth story\nPlus Afterword",
  "language": "English",
  "images": [
    "https://img-proxy.imgfo.com/?referer=https://manganelo.com&url=https://s7.mkklcdnv6temp.com/mangakakalot/h1/hinyari_rouka_mangekyou/vol1_chapter_6_sleeping_with_tears_of_joy_afterword/1.jpg",
    "https://img-proxy.imgfo.com/?referer=https://manganelo.com&url=https://s7.mkklcdnv6temp.com/mangakakalot/h1/hinyari_rouka_mangekyou/vol1_chapter_6_sleeping_with_tears_of_joy_afterword/2.jpg",
    "https://img-proxy.imgfo.com/?referer=https://manganelo.com&url=https://s7.mkklcdnv6temp.com/mangakakalot/h1/hinyari_rouka_mangekyou/vol1_chapter_6_sleeping_with_tears_of_joy_afterword/3.jpg",
    "https://img-proxy.imgfo.com/?referer=https://manganelo.com&url=https://s7.mkklcdnv6temp.com/mangakakalot/h1/hinyari_rouka_mangekyou/vol1_chapter_6_sleeping_with_tears_of_joy_afterword/4.jpg",
    "https://img-proxy.imgfo.com/?referer=https://manganelo.com&url=https://s7.mkklcdnv6temp.com/mangakakalot/h1/hinyari_rouka_mangekyou/vol1_chapter_6_sleeping_with_tears_of_joy_afterword/5.jpg",
    "https://img-proxy.imgfo.com/?referer=https://manganelo.com&url=https://s7.mkklcdnv6temp.com/mangakakalot/h1/hinyari_rouka_mangekyou/vol1_chapter_6_sleeping_with_tears_of_joy_afterword/6.jpg",
    "https://img-proxy.imgfo.com/?referer=https://manganelo.com&url=https://s7.mkklcdnv6temp.com/mangakakalot/h1/hinyari_rouka_mangekyou/vol1_chapter_6_sleeping_with_tears_of_joy_afterword/7.jpg",
    "https://img-proxy.imgfo.com/?referer=https://manganelo.com&url=https://s7.mkklcdnv6temp.com/mangakakalot/h1/hinyari_rouka_mangekyou/vol1_chapter_6_sleeping_with_tears_of_joy_afterword/8.jpg",
    "https://img-proxy.imgfo.com/?referer=https://manganelo.com&url=https://s7.mkklcdnv6temp.com/mangakakalot/h1/hinyari_rouka_mangekyou/vol1_chapter_6_sleeping_with_tears_of_joy_afterword/9.jpg",
    "https://img-proxy.imgfo.com/?referer=https://manganelo.com&url=https://s7.mkklcdnv6temp.com/mangakakalot/h1/hinyari_rouka_mangekyou/vol1_chapter_6_sleeping_with_tears_of_joy_afterword/10.jpg",
    "https://img-proxy.imgfo.com/?referer=https://manganelo.com&url=https://s7.mkklcdnv6temp.com/mangakakalot/h1/hinyari_rouka_mangekyou/vol1_chapter_6_sleeping_with_tears_of_joy_afterword/11.jpg",
    "https://img-proxy.imgfo.com/?referer=https://manganelo.com&url=https://s7.mkklcdnv6temp.com/mangakakalot/h1/hinyari_rouka_mangekyou/vol1_chapter_6_sleeping_with_tears_of_joy_afterword/12.jpg",
    "https://img-proxy.imgfo.com/?referer=https://manganelo.com&url=https://s7.mkklcdnv6temp.com/mangakakalot/h1/hinyari_rouka_mangekyou/vol1_chapter_6_sleeping_with_tears_of_joy_afterword/13.jpg",
    "https://img-proxy.imgfo.com/?referer=https://manganelo.com&url=https://s7.mkklcdnv6temp.com/mangakakalot/h1/hinyari_rouka_mangekyou/vol1_chapter_6_sleeping_with_tears_of_joy_afterword/14.jpg",
    "https://img-proxy.imgfo.com/?referer=https://manganelo.com&url=https://s7.mkklcdnv6temp.com/mangakakalot/h1/hinyari_rouka_mangekyou/vol1_chapter_6_sleeping_with_tears_of_joy_afterword/15.jpg"
  ]
}