{
  "cover": "https://avt.mkklcdnv6.com/48/j/10-1583483919.jpg",
  "title": "Kanojoiro No Kanojo",
  "original": "彼女色の彼女 ; 彼女色之彼女 ; 彼女色之彼女漫画 ; Každá jsme jiná ; Kojyo Iro no Kanojyo ; Unordinary Life",
  "genre": "Drama, Josei, Romance, Slice of life, Sports, Manga",
  "author": "Aoi",
  "status": "Completed",
  "backlink": "https://manganu.com/collections/aoi/kanojoiro-no-kanojo/",
  "description": "Mayu, a young stylist is dumped by her boyfriend, thus she needs to find a new home. She makes an aquaintance with his neighbor, Yuka Shimizu, a lonely girl with a very particular dream, to become a free-fight champion despite her small stature.",
  "language": "English",
  "images": [
    "https://img-proxy.imgfo.com/?referer=https://manganelo.com&url=https://s5.mkklcdnv6temp.com/mangakakalot/k1/kanojoiro_no_kanojo/vol3_chapter_18/1.jpg",
    "https://img-proxy.imgfo.com/?referer=https://manganelo.com&url=https://s5.mkklcdnv6temp.com/mangakakalot/k1/kanojoiro_no_kanojo/vol3_chapter_18/2.jpg",
    "https://img-proxy.imgfo.com/?referer=https://manganelo.com&url=https://s5.mkklcdnv6temp.com/mangakakalot/k1/kanojoiro_no_kanojo/vol3_chapter_18/3.jpg",
    "https://img-proxy.imgfo.com/?referer=https://manganelo.com&url=https://s5.mkklcdnv6temp.com/mangakakalot/k1/kanojoiro_no_kanojo/vol3_chapter_18/4.jpg",
    "https://img-proxy.imgfo.com/?referer=https://manganelo.com&url=https://s5.mkklcdnv6temp.com/mangakakalot/k1/kanojoiro_no_kanojo/vol3_chapter_18/5.jpg",
    "https://img-proxy.imgfo.com/?referer=https://manganelo.com&url=https://s5.mkklcdnv6temp.com/mangakakalot/k1/kanojoiro_no_kanojo/vol3_chapter_18/6.jpg",
    "https://img-proxy.imgfo.com/?referer=https://manganelo.com&url=https://s5.mkklcdnv6temp.com/mangakakalot/k1/kanojoiro_no_kanojo/vol3_chapter_18/7.jpg",
    "https://img-proxy.imgfo.com/?referer=https://manganelo.com&url=https://s5.mkklcdnv6temp.com/mangakakalot/k1/kanojoiro_no_kanojo/vol3_chapter_18/8.jpg",
    "https://img-proxy.imgfo.com/?referer=https://manganelo.com&url=https://s5.mkklcdnv6temp.com/mangakakalot/k1/kanojoiro_no_kanojo/vol3_chapter_18/9.jpg",
    "https://img-proxy.imgfo.com/?referer=https://manganelo.com&url=https://s5.mkklcdnv6temp.com/mangakakalot/k1/kanojoiro_no_kanojo/vol3_chapter_18/10.jpg",
    "https://img-proxy.imgfo.com/?referer=https://manganelo.com&url=https://s5.mkklcdnv6temp.com/mangakakalot/k1/kanojoiro_no_kanojo/vol3_chapter_18/11.jpg",
    "https://img-proxy.imgfo.com/?referer=https://manganelo.com&url=https://s5.mkklcdnv6temp.com/mangakakalot/k1/kanojoiro_no_kanojo/vol3_chapter_18/12.jpg",
    "https://img-proxy.imgfo.com/?referer=https://manganelo.com&url=https://s5.mkklcdnv6temp.com/mangakakalot/k1/kanojoiro_no_kanojo/vol3_chapter_18/13.jpg",
    "https://img-proxy.imgfo.com/?referer=https://manganelo.com&url=https://s5.mkklcdnv6temp.com/mangakakalot/k1/kanojoiro_no_kanojo/vol3_chapter_18/14.jpg",
    "https://img-proxy.imgfo.com/?referer=https://manganelo.com&url=https://s5.mkklcdnv6temp.com/mangakakalot/k1/kanojoiro_no_kanojo/vol3_chapter_18/15.jpg",
    "https://img-proxy.imgfo.com/?referer=https://manganelo.com&url=https://s5.mkklcdnv6temp.com/mangakakalot/k1/kanojoiro_no_kanojo/vol3_chapter_18/16.jpg",
    "https://img-proxy.imgfo.com/?referer=https://manganelo.com&url=https://s5.mkklcdnv6temp.com/mangakakalot/k1/kanojoiro_no_kanojo/vol3_chapter_18/17.jpg",
    "https://img-proxy.imgfo.com/?referer=https://manganelo.com&url=https://s5.mkklcdnv6temp.com/mangakakalot/k1/kanojoiro_no_kanojo/vol3_chapter_18/18.jpg",
    "https://img-proxy.imgfo.com/?referer=https://manganelo.com&url=https://s5.mkklcdnv6temp.com/mangakakalot/k1/kanojoiro_no_kanojo/vol3_chapter_18/19.jpg",
    "https://img-proxy.imgfo.com/?referer=https://manganelo.com&url=https://s5.mkklcdnv6temp.com/mangakakalot/k1/kanojoiro_no_kanojo/vol3_chapter_18/20.jpg",
    "https://img-proxy.imgfo.com/?referer=https://manganelo.com&url=https://s5.mkklcdnv6temp.com/mangakakalot/k1/kanojoiro_no_kanojo/vol3_chapter_18/21.jpg",
    "https://img-proxy.imgfo.com/?referer=https://manganelo.com&url=https://s5.mkklcdnv6temp.com/mangakakalot/k1/kanojoiro_no_kanojo/vol3_chapter_18/22.jpg",
    "https://img-proxy.imgfo.com/?referer=https://manganelo.com&url=https://s5.mkklcdnv6temp.com/mangakakalot/k1/kanojoiro_no_kanojo/vol3_chapter_18/23.jpg",
    "https://img-proxy.imgfo.com/?referer=https://manganelo.com&url=https://s5.mkklcdnv6temp.com/mangakakalot/k1/kanojoiro_no_kanojo/vol3_chapter_18/24.jpg",
    "https://img-proxy.imgfo.com/?referer=https://manganelo.com&url=https://s5.mkklcdnv6temp.com/mangakakalot/k1/kanojoiro_no_kanojo/vol3_chapter_18/25.jpg",
    "https://img-proxy.imgfo.com/?referer=https://manganelo.com&url=https://s5.mkklcdnv6temp.com/mangakakalot/k1/kanojoiro_no_kanojo/vol3_chapter_18/26.jpg",
    "https://img-proxy.imgfo.com/?referer=https://manganelo.com&url=https://s5.mkklcdnv6temp.com/mangakakalot/k1/kanojoiro_no_kanojo/vol3_chapter_18/27.jpg",
    "https://img-proxy.imgfo.com/?referer=https://manganelo.com&url=https://s5.mkklcdnv6temp.com/mangakakalot/k1/kanojoiro_no_kanojo/vol3_chapter_18/28.jpg",
    "https://img-proxy.imgfo.com/?referer=https://manganelo.com&url=https://s5.mkklcdnv6temp.com/mangakakalot/k1/kanojoiro_no_kanojo/vol3_chapter_18/29.jpg",
    "https://img-proxy.imgfo.com/?referer=https://manganelo.com&url=https://s5.mkklcdnv6temp.com/mangakakalot/k1/kanojoiro_no_kanojo/vol3_chapter_18/30.jpg",
    "https://img-proxy.imgfo.com/?referer=https://manganelo.com&url=https://s5.mkklcdnv6temp.com/mangakakalot/k1/kanojoiro_no_kanojo/vol3_chapter_18/31.jpg",
    "https://img-proxy.imgfo.com/?referer=https://manganelo.com&url=https://s5.mkklcdnv6temp.com/mangakakalot/k1/kanojoiro_no_kanojo/vol3_chapter_18/32.jpg",
    "https://img-proxy.imgfo.com/?referer=https://manganelo.com&url=https://s5.mkklcdnv6temp.com/mangakakalot/k1/kanojoiro_no_kanojo/vol3_chapter_18/33.jpg",
    "https://img-proxy.imgfo.com/?referer=https://manganelo.com&url=https://s5.mkklcdnv6temp.com/mangakakalot/k1/kanojoiro_no_kanojo/vol3_chapter_18/34.jpg",
    "https://img-proxy.imgfo.com/?referer=https://manganelo.com&url=https://s5.mkklcdnv6temp.com/mangakakalot/k1/kanojoiro_no_kanojo/vol3_chapter_18/35.jpg",
    "https://img-proxy.imgfo.com/?referer=https://manganelo.com&url=https://s5.mkklcdnv6temp.com/mangakakalot/k1/kanojoiro_no_kanojo/vol3_chapter_18/36.jpg",
    "https://img-proxy.imgfo.com/?referer=https://manganelo.com&url=https://s5.mkklcdnv6temp.com/mangakakalot/k1/kanojoiro_no_kanojo/vol3_chapter_18/37.jpg",
    "https://img-proxy.imgfo.com/?referer=https://manganelo.com&url=https://s5.mkklcdnv6temp.com/mangakakalot/k1/kanojoiro_no_kanojo/vol3_chapter_18/38.jpg",
    "https://img-proxy.imgfo.com/?referer=https://manganelo.com&url=https://s5.mkklcdnv6temp.com/mangakakalot/k1/kanojoiro_no_kanojo/vol3_chapter_18/39.jpg",
    "https://img-proxy.imgfo.com/?referer=https://manganelo.com&url=https://s5.mkklcdnv6temp.com/mangakakalot/k1/kanojoiro_no_kanojo/vol3_chapter_18/40.jpg",
    "https://img-proxy.imgfo.com/?referer=https://manganelo.com&url=https://s5.mkklcdnv6temp.com/mangakakalot/k1/kanojoiro_no_kanojo/vol3_chapter_18/41.jpg",
    "https://img-proxy.imgfo.com/?referer=https://manganelo.com&url=https://s5.mkklcdnv6temp.com/mangakakalot/k1/kanojoiro_no_kanojo/vol3_chapter_18/42.jpg",
    "https://img-proxy.imgfo.com/?referer=https://manganelo.com&url=https://s5.mkklcdnv6temp.com/mangakakalot/k1/kanojoiro_no_kanojo/vol3_chapter_18/43.jpg",
    "https://img-proxy.imgfo.com/?referer=https://manganelo.com&url=https://s5.mkklcdnv6temp.com/mangakakalot/k1/kanojoiro_no_kanojo/vol3_chapter_18/44.jpg",
    "https://img-proxy.imgfo.com/?referer=https://manganelo.com&url=https://s5.mkklcdnv6temp.com/mangakakalot/k1/kanojoiro_no_kanojo/vol3_chapter_18/45.jpg"
  ]
}