{
  "cover": "https://avt.mkklcdnv6.com/39/z/6-1583475787.jpg",
  "title": "Boku No Kawaii Hito",
  "original": "ぼくのかわいいひと",
  "genre": "School life, Yaoi, Manga",
  "author": "Hanada Maco",
  "status": "Completed",
  "backlink": "https://manganu.com/collections/hanada-maco/boku-no-kawaii-hito/",
  "description": "Collection of one shots",
  "language": "English",
  "images": [
    "https://img-proxy.imgfo.com/?referer=https://manganelo.com&url=https://s3.mkklcdnv6temp.com/mangakakalot/b2/boku_no_kawaii_hito/vol1_chapter_2_im_thinking_about/1.jpg",
    "https://img-proxy.imgfo.com/?referer=https://manganelo.com&url=https://s3.mkklcdnv6temp.com/mangakakalot/b2/boku_no_kawaii_hito/vol1_chapter_2_im_thinking_about/2.jpg",
    "https://img-proxy.imgfo.com/?referer=https://manganelo.com&url=https://s3.mkklcdnv6temp.com/mangakakalot/b2/boku_no_kawaii_hito/vol1_chapter_2_im_thinking_about/3.jpg",
    "https://img-proxy.imgfo.com/?referer=https://manganelo.com&url=https://s3.mkklcdnv6temp.com/mangakakalot/b2/boku_no_kawaii_hito/vol1_chapter_2_im_thinking_about/4.jpg",
    "https://img-proxy.imgfo.com/?referer=https://manganelo.com&url=https://s3.mkklcdnv6temp.com/mangakakalot/b2/boku_no_kawaii_hito/vol1_chapter_2_im_thinking_about/5.jpg",
    "https://img-proxy.imgfo.com/?referer=https://manganelo.com&url=https://s3.mkklcdnv6temp.com/mangakakalot/b2/boku_no_kawaii_hito/vol1_chapter_2_im_thinking_about/6.jpg",
    "https://img-proxy.imgfo.com/?referer=https://manganelo.com&url=https://s3.mkklcdnv6temp.com/mangakakalot/b2/boku_no_kawaii_hito/vol1_chapter_2_im_thinking_about/7.jpg",
    "https://img-proxy.imgfo.com/?referer=https://manganelo.com&url=https://s3.mkklcdnv6temp.com/mangakakalot/b2/boku_no_kawaii_hito/vol1_chapter_2_im_thinking_about/8.jpg",
    "https://img-proxy.imgfo.com/?referer=https://manganelo.com&url=https://s3.mkklcdnv6temp.com/mangakakalot/b2/boku_no_kawaii_hito/vol1_chapter_2_im_thinking_about/9.jpg",
    "https://img-proxy.imgfo.com/?referer=https://manganelo.com&url=https://s3.mkklcdnv6temp.com/mangakakalot/b2/boku_no_kawaii_hito/vol1_chapter_2_im_thinking_about/10.jpg",
    "https://img-proxy.imgfo.com/?referer=https://manganelo.com&url=https://s3.mkklcdnv6temp.com/mangakakalot/b2/boku_no_kawaii_hito/vol1_chapter_2_im_thinking_about/11.jpg",
    "https://img-proxy.imgfo.com/?referer=https://manganelo.com&url=https://s3.mkklcdnv6temp.com/mangakakalot/b2/boku_no_kawaii_hito/vol1_chapter_2_im_thinking_about/12.jpg",
    "https://img-proxy.imgfo.com/?referer=https://manganelo.com&url=https://s3.mkklcdnv6temp.com/mangakakalot/b2/boku_no_kawaii_hito/vol1_chapter_2_im_thinking_about/13.jpg",
    "https://img-proxy.imgfo.com/?referer=https://manganelo.com&url=https://s3.mkklcdnv6temp.com/mangakakalot/b2/boku_no_kawaii_hito/vol1_chapter_2_im_thinking_about/14.jpg",
    "https://img-proxy.imgfo.com/?referer=https://manganelo.com&url=https://s3.mkklcdnv6temp.com/mangakakalot/b2/boku_no_kawaii_hito/vol1_chapter_2_im_thinking_about/15.jpg",
    "https://img-proxy.imgfo.com/?referer=https://manganelo.com&url=https://s3.mkklcdnv6temp.com/mangakakalot/b2/boku_no_kawaii_hito/vol1_chapter_2_im_thinking_about/16.jpg",
    "https://img-proxy.imgfo.com/?referer=https://manganelo.com&url=https://s3.mkklcdnv6temp.com/mangakakalot/b2/boku_no_kawaii_hito/vol1_chapter_2_im_thinking_about/17.jpg",
    "https://img-proxy.imgfo.com/?referer=https://manganelo.com&url=https://s3.mkklcdnv6temp.com/mangakakalot/b2/boku_no_kawaii_hito/vol1_chapter_2_im_thinking_about/18.jpg",
    "https://img-proxy.imgfo.com/?referer=https://manganelo.com&url=https://s3.mkklcdnv6temp.com/mangakakalot/b2/boku_no_kawaii_hito/vol1_chapter_2_im_thinking_about/19.jpg",
    "https://img-proxy.imgfo.com/?referer=https://manganelo.com&url=https://s3.mkklcdnv6temp.com/mangakakalot/b2/boku_no_kawaii_hito/vol1_chapter_2_im_thinking_about/20.jpg",
    "https://img-proxy.imgfo.com/?referer=https://manganelo.com&url=https://s3.mkklcdnv6temp.com/mangakakalot/b2/boku_no_kawaii_hito/vol1_chapter_2_im_thinking_about/21.jpg"
  ]
}