{
  "cover": "https://avt.mkklcdnv6.com/7/i/13-1583488001.jpg",
  "title": "Kakene Nashi No Love Torihiki",
  "original": "掛け値ナシのLOVE取引 ; A Love Transaction without Overcharging",
  "genre": "Romance, Shoujo, Smut, Manga",
  "author": "Minami Kanan",
  "status": "Completed",
  "backlink": "https://manganu.com/collections/minami-kanan/kakene-nashi-no-love-torihiki/",
  "description": "Story 01) Kakene Nashi no LOVE Torihiki (A Love Transaction without Overcharging): Since Ami Kirisawa's father passed away, she's had to make it on her own. Now she's built a reputation as an enterprising young woman who will do anything for money. However, when Ruka Hakomori (of the Hakomori Financial empire) makes assumptions about how much of Ami his money can buy, Ami fearlessly proves him wrong. Ruka decides he wants her to help him get out of a marriage interview, but opposing Ruka's ruthless parents isn't going to be easy, no matter how fearless Ami is.\nStory 02) Kokoro Goku Ama-jitate (Very Sweetly Cut Heart): Suzuko runs into Riki-kun while shopping for Valentine Chocolate. When he learns that she doesn't have a boyfriend, he asks her to give him chocolate that day. The two become close but will Riki-kun's fanclub grows jealous and will do everything they can to separate them. Will they succeed or will love triumph?\nStory 03) Kyokou Shinwa ~Sekando Reipu~ (Made-up Myth ~Second Rape~): This is a serious story about the effects of rape. Wakana is a shy and unspectacular girl who has been text messaging the spectacular Taku for three months. Suddenly, Taku suggests that they meet, and when they do... he rapes her. Wakana goes to the police, only to go through \"second rape\" -- the doubts of others who think she brought it on herself.",
  "language": "English",
  "images": [
    "https://img-proxy.imgfo.com/?referer=https://manganelo.com&url=https://s7.mkklcdnv6temp.com/mangakakalot/k1/kakene_nashi_no_love_torihiki/vol1_chapter_4_kokoro_goku_amajitate_very_sweetly_cut_heart/1.jpg",
    "https://img-proxy.imgfo.com/?referer=https://manganelo.com&url=https://s7.mkklcdnv6temp.com/mangakakalot/k1/kakene_nashi_no_love_torihiki/vol1_chapter_4_kokoro_goku_amajitate_very_sweetly_cut_heart/2.jpg",
    "https://img-proxy.imgfo.com/?referer=https://manganelo.com&url=https://s7.mkklcdnv6temp.com/mangakakalot/k1/kakene_nashi_no_love_torihiki/vol1_chapter_4_kokoro_goku_amajitate_very_sweetly_cut_heart/3.jpg",
    "https://img-proxy.imgfo.com/?referer=https://manganelo.com&url=https://s7.mkklcdnv6temp.com/mangakakalot/k1/kakene_nashi_no_love_torihiki/vol1_chapter_4_kokoro_goku_amajitate_very_sweetly_cut_heart/4.jpg",
    "https://img-proxy.imgfo.com/?referer=https://manganelo.com&url=https://s7.mkklcdnv6temp.com/mangakakalot/k1/kakene_nashi_no_love_torihiki/vol1_chapter_4_kokoro_goku_amajitate_very_sweetly_cut_heart/5.jpg",
    "https://img-proxy.imgfo.com/?referer=https://manganelo.com&url=https://s7.mkklcdnv6temp.com/mangakakalot/k1/kakene_nashi_no_love_torihiki/vol1_chapter_4_kokoro_goku_amajitate_very_sweetly_cut_heart/6.jpg",
    "https://img-proxy.imgfo.com/?referer=https://manganelo.com&url=https://s7.mkklcdnv6temp.com/mangakakalot/k1/kakene_nashi_no_love_torihiki/vol1_chapter_4_kokoro_goku_amajitate_very_sweetly_cut_heart/7.jpg",
    "https://img-proxy.imgfo.com/?referer=https://manganelo.com&url=https://s7.mkklcdnv6temp.com/mangakakalot/k1/kakene_nashi_no_love_torihiki/vol1_chapter_4_kokoro_goku_amajitate_very_sweetly_cut_heart/8.jpg",
    "https://img-proxy.imgfo.com/?referer=https://manganelo.com&url=https://s7.mkklcdnv6temp.com/mangakakalot/k1/kakene_nashi_no_love_torihiki/vol1_chapter_4_kokoro_goku_amajitate_very_sweetly_cut_heart/9.jpg",
    "https://img-proxy.imgfo.com/?referer=https://manganelo.com&url=https://s7.mkklcdnv6temp.com/mangakakalot/k1/kakene_nashi_no_love_torihiki/vol1_chapter_4_kokoro_goku_amajitate_very_sweetly_cut_heart/10.jpg",
    "https://img-proxy.imgfo.com/?referer=https://manganelo.com&url=https://s7.mkklcdnv6temp.com/mangakakalot/k1/kakene_nashi_no_love_torihiki/vol1_chapter_4_kokoro_goku_amajitate_very_sweetly_cut_heart/11.jpg",
    "https://img-proxy.imgfo.com/?referer=https://manganelo.com&url=https://s7.mkklcdnv6temp.com/mangakakalot/k1/kakene_nashi_no_love_torihiki/vol1_chapter_4_kokoro_goku_amajitate_very_sweetly_cut_heart/12.jpg",
    "https://img-proxy.imgfo.com/?referer=https://manganelo.com&url=https://s7.mkklcdnv6temp.com/mangakakalot/k1/kakene_nashi_no_love_torihiki/vol1_chapter_4_kokoro_goku_amajitate_very_sweetly_cut_heart/13.jpg",
    "https://img-proxy.imgfo.com/?referer=https://manganelo.com&url=https://s7.mkklcdnv6temp.com/mangakakalot/k1/kakene_nashi_no_love_torihiki/vol1_chapter_4_kokoro_goku_amajitate_very_sweetly_cut_heart/14.jpg",
    "https://img-proxy.imgfo.com/?referer=https://manganelo.com&url=https://s7.mkklcdnv6temp.com/mangakakalot/k1/kakene_nashi_no_love_torihiki/vol1_chapter_4_kokoro_goku_amajitate_very_sweetly_cut_heart/15.jpg",
    "https://img-proxy.imgfo.com/?referer=https://manganelo.com&url=https://s7.mkklcdnv6temp.com/mangakakalot/k1/kakene_nashi_no_love_torihiki/vol1_chapter_4_kokoro_goku_amajitate_very_sweetly_cut_heart/16.jpg",
    "https://img-proxy.imgfo.com/?referer=https://manganelo.com&url=https://s7.mkklcdnv6temp.com/mangakakalot/k1/kakene_nashi_no_love_torihiki/vol1_chapter_4_kokoro_goku_amajitate_very_sweetly_cut_heart/17.jpg",
    "https://img-proxy.imgfo.com/?referer=https://manganelo.com&url=https://s7.mkklcdnv6temp.com/mangakakalot/k1/kakene_nashi_no_love_torihiki/vol1_chapter_4_kokoro_goku_amajitate_very_sweetly_cut_heart/18.jpg",
    "https://img-proxy.imgfo.com/?referer=https://manganelo.com&url=https://s7.mkklcdnv6temp.com/mangakakalot/k1/kakene_nashi_no_love_torihiki/vol1_chapter_4_kokoro_goku_amajitate_very_sweetly_cut_heart/19.jpg",
    "https://img-proxy.imgfo.com/?referer=https://manganelo.com&url=https://s7.mkklcdnv6temp.com/mangakakalot/k1/kakene_nashi_no_love_torihiki/vol1_chapter_4_kokoro_goku_amajitate_very_sweetly_cut_heart/20.jpg",
    "https://img-proxy.imgfo.com/?referer=https://manganelo.com&url=https://s7.mkklcdnv6temp.com/mangakakalot/k1/kakene_nashi_no_love_torihiki/vol1_chapter_4_kokoro_goku_amajitate_very_sweetly_cut_heart/21.jpg",
    "https://img-proxy.imgfo.com/?referer=https://manganelo.com&url=https://s7.mkklcdnv6temp.com/mangakakalot/k1/kakene_nashi_no_love_torihiki/vol1_chapter_4_kokoro_goku_amajitate_very_sweetly_cut_heart/22.jpg",
    "https://img-proxy.imgfo.com/?referer=https://manganelo.com&url=https://s7.mkklcdnv6temp.com/mangakakalot/k1/kakene_nashi_no_love_torihiki/vol1_chapter_4_kokoro_goku_amajitate_very_sweetly_cut_heart/23.jpg",
    "https://img-proxy.imgfo.com/?referer=https://manganelo.com&url=https://s7.mkklcdnv6temp.com/mangakakalot/k1/kakene_nashi_no_love_torihiki/vol1_chapter_4_kokoro_goku_amajitate_very_sweetly_cut_heart/24.jpg",
    "https://img-proxy.imgfo.com/?referer=https://manganelo.com&url=https://s7.mkklcdnv6temp.com/mangakakalot/k1/kakene_nashi_no_love_torihiki/vol1_chapter_4_kokoro_goku_amajitate_very_sweetly_cut_heart/25.jpg",
    "https://img-proxy.imgfo.com/?referer=https://manganelo.com&url=https://s7.mkklcdnv6temp.com/mangakakalot/k1/kakene_nashi_no_love_torihiki/vol1_chapter_4_kokoro_goku_amajitate_very_sweetly_cut_heart/26.jpg",
    "https://img-proxy.imgfo.com/?referer=https://manganelo.com&url=https://s7.mkklcdnv6temp.com/mangakakalot/k1/kakene_nashi_no_love_torihiki/vol1_chapter_4_kokoro_goku_amajitate_very_sweetly_cut_heart/27.jpg",
    "https://img-proxy.imgfo.com/?referer=https://manganelo.com&url=https://s7.mkklcdnv6temp.com/mangakakalot/k1/kakene_nashi_no_love_torihiki/vol1_chapter_4_kokoro_goku_amajitate_very_sweetly_cut_heart/28.jpg",
    "https://img-proxy.imgfo.com/?referer=https://manganelo.com&url=https://s7.mkklcdnv6temp.com/mangakakalot/k1/kakene_nashi_no_love_torihiki/vol1_chapter_4_kokoro_goku_amajitate_very_sweetly_cut_heart/29.jpg",
    "https://img-proxy.imgfo.com/?referer=https://manganelo.com&url=https://s7.mkklcdnv6temp.com/mangakakalot/k1/kakene_nashi_no_love_torihiki/vol1_chapter_4_kokoro_goku_amajitate_very_sweetly_cut_heart/30.jpg",
    "https://img-proxy.imgfo.com/?referer=https://manganelo.com&url=https://s7.mkklcdnv6temp.com/mangakakalot/k1/kakene_nashi_no_love_torihiki/vol1_chapter_4_kokoro_goku_amajitate_very_sweetly_cut_heart/31.jpg",
    "https://img-proxy.imgfo.com/?referer=https://manganelo.com&url=https://s7.mkklcdnv6temp.com/mangakakalot/k1/kakene_nashi_no_love_torihiki/vol1_chapter_4_kokoro_goku_amajitate_very_sweetly_cut_heart/32.jpg",
    "https://img-proxy.imgfo.com/?referer=https://manganelo.com&url=https://s7.mkklcdnv6temp.com/mangakakalot/k1/kakene_nashi_no_love_torihiki/vol1_chapter_4_kokoro_goku_amajitate_very_sweetly_cut_heart/33.jpg",
    "https://img-proxy.imgfo.com/?referer=https://manganelo.com&url=https://s7.mkklcdnv6temp.com/mangakakalot/k1/kakene_nashi_no_love_torihiki/vol1_chapter_4_kokoro_goku_amajitate_very_sweetly_cut_heart/34.jpg",
    "https://img-proxy.imgfo.com/?referer=https://manganelo.com&url=https://s7.mkklcdnv6temp.com/mangakakalot/k1/kakene_nashi_no_love_torihiki/vol1_chapter_4_kokoro_goku_amajitate_very_sweetly_cut_heart/35.jpg"
  ]
}