{
  "cover": "https://avt.mkklcdnv6.com/49/o/12-1583487699.jpg",
  "title": "Kodou No Yokan - Vital Zero",
  "original": "鼓動の予感～ヴァイタル・ゼロ～ ; Kodou no Yokan ; Kodou no Yokan ~Vital Zero~ ; Premonition Beat - Vital Zero -",
  "genre": "Adult, Drama, Smut, Yaoi, Manga",
  "author": "Oumi Shinano",
  "status": "Completed",
  "backlink": "https://manganu.com/collections/oumi-shinano/kodou-no-yokan-vital-zero/",
  "description": "From Fantasyshrine:\nAdvertisement designer, Agaki is completely unaware of his attractiveness to men. This is why he’s in bad terms with his colleague and nemesis, the ace designer Haruna, despite the fact Haruna has always come to his aid more than once. One day, Agaki stumbled across Haruna’s secret! Thinking he finally had the upper hand over his archenemy, Agaki let his guard down. Next thing he knew, he got drunk and ended up getting photographed in a compromising position. Now, Agaki has no choice but to obey Haruna’s sexual advances~\nSuper-S x clueless M coming together ?",
  "language": "English",
  "images": [
    "https://img-proxy.imgfo.com/?referer=https://manganelo.com&url=https://s7.mkklcdnv6temp.com/mangakakalot/k2/kodou_no_yokan_vital_zero/vol01_chapter_007/1.jpg",
    "https://img-proxy.imgfo.com/?referer=https://manganelo.com&url=https://s7.mkklcdnv6temp.com/mangakakalot/k2/kodou_no_yokan_vital_zero/vol01_chapter_007/2.jpg",
    "https://img-proxy.imgfo.com/?referer=https://manganelo.com&url=https://s7.mkklcdnv6temp.com/mangakakalot/k2/kodou_no_yokan_vital_zero/vol01_chapter_007/3.jpg",
    "https://img-proxy.imgfo.com/?referer=https://manganelo.com&url=https://s7.mkklcdnv6temp.com/mangakakalot/k2/kodou_no_yokan_vital_zero/vol01_chapter_007/4.jpg",
    "https://img-proxy.imgfo.com/?referer=https://manganelo.com&url=https://s7.mkklcdnv6temp.com/mangakakalot/k2/kodou_no_yokan_vital_zero/vol01_chapter_007/5.jpg",
    "https://img-proxy.imgfo.com/?referer=https://manganelo.com&url=https://s7.mkklcdnv6temp.com/mangakakalot/k2/kodou_no_yokan_vital_zero/vol01_chapter_007/6.jpg",
    "https://img-proxy.imgfo.com/?referer=https://manganelo.com&url=https://s7.mkklcdnv6temp.com/mangakakalot/k2/kodou_no_yokan_vital_zero/vol01_chapter_007/7.jpg",
    "https://img-proxy.imgfo.com/?referer=https://manganelo.com&url=https://s7.mkklcdnv6temp.com/mangakakalot/k2/kodou_no_yokan_vital_zero/vol01_chapter_007/8.jpg",
    "https://img-proxy.imgfo.com/?referer=https://manganelo.com&url=https://s7.mkklcdnv6temp.com/mangakakalot/k2/kodou_no_yokan_vital_zero/vol01_chapter_007/9.jpg",
    "https://img-proxy.imgfo.com/?referer=https://manganelo.com&url=https://s7.mkklcdnv6temp.com/mangakakalot/k2/kodou_no_yokan_vital_zero/vol01_chapter_007/10.jpg",
    "https://img-proxy.imgfo.com/?referer=https://manganelo.com&url=https://s7.mkklcdnv6temp.com/mangakakalot/k2/kodou_no_yokan_vital_zero/vol01_chapter_007/11.jpg",
    "https://img-proxy.imgfo.com/?referer=https://manganelo.com&url=https://s7.mkklcdnv6temp.com/mangakakalot/k2/kodou_no_yokan_vital_zero/vol01_chapter_007/12.jpg",
    "https://img-proxy.imgfo.com/?referer=https://manganelo.com&url=https://s7.mkklcdnv6temp.com/mangakakalot/k2/kodou_no_yokan_vital_zero/vol01_chapter_007/13.jpg",
    "https://img-proxy.imgfo.com/?referer=https://manganelo.com&url=https://s7.mkklcdnv6temp.com/mangakakalot/k2/kodou_no_yokan_vital_zero/vol01_chapter_007/14.jpg",
    "https://img-proxy.imgfo.com/?referer=https://manganelo.com&url=https://s7.mkklcdnv6temp.com/mangakakalot/k2/kodou_no_yokan_vital_zero/vol01_chapter_007/15.jpg",
    "https://img-proxy.imgfo.com/?referer=https://manganelo.com&url=https://s7.mkklcdnv6temp.com/mangakakalot/k2/kodou_no_yokan_vital_zero/vol01_chapter_007/16.jpg",
    "https://img-proxy.imgfo.com/?referer=https://manganelo.com&url=https://s7.mkklcdnv6temp.com/mangakakalot/k2/kodou_no_yokan_vital_zero/vol01_chapter_007/17.jpg",
    "https://img-proxy.imgfo.com/?referer=https://manganelo.com&url=https://s7.mkklcdnv6temp.com/mangakakalot/k2/kodou_no_yokan_vital_zero/vol01_chapter_007/18.jpg",
    "https://img-proxy.imgfo.com/?referer=https://manganelo.com&url=https://s7.mkklcdnv6temp.com/mangakakalot/k2/kodou_no_yokan_vital_zero/vol01_chapter_007/19.jpg",
    "https://img-proxy.imgfo.com/?referer=https://manganelo.com&url=https://s7.mkklcdnv6temp.com/mangakakalot/k2/kodou_no_yokan_vital_zero/vol01_chapter_007/20.jpg",
    "https://img-proxy.imgfo.com/?referer=https://manganelo.com&url=https://s7.mkklcdnv6temp.com/mangakakalot/k2/kodou_no_yokan_vital_zero/vol01_chapter_007/21.jpg",
    "https://img-proxy.imgfo.com/?referer=https://manganelo.com&url=https://s7.mkklcdnv6temp.com/mangakakalot/k2/kodou_no_yokan_vital_zero/vol01_chapter_007/22.jpg",
    "https://img-proxy.imgfo.com/?referer=https://manganelo.com&url=https://s7.mkklcdnv6temp.com/mangakakalot/k2/kodou_no_yokan_vital_zero/vol01_chapter_007/23.jpg",
    "https://img-proxy.imgfo.com/?referer=https://manganelo.com&url=https://s7.mkklcdnv6temp.com/mangakakalot/k2/kodou_no_yokan_vital_zero/vol01_chapter_007/24.jpg",
    "https://img-proxy.imgfo.com/?referer=https://manganelo.com&url=https://s7.mkklcdnv6temp.com/mangakakalot/k2/kodou_no_yokan_vital_zero/vol01_chapter_007/25.jpg",
    "https://img-proxy.imgfo.com/?referer=https://manganelo.com&url=https://s7.mkklcdnv6temp.com/mangakakalot/k2/kodou_no_yokan_vital_zero/vol01_chapter_007/26.jpg",
    "https://img-proxy.imgfo.com/?referer=https://manganelo.com&url=https://s7.mkklcdnv6temp.com/mangakakalot/k2/kodou_no_yokan_vital_zero/vol01_chapter_007/27.jpg",
    "https://img-proxy.imgfo.com/?referer=https://manganelo.com&url=https://s7.mkklcdnv6temp.com/mangakakalot/k2/kodou_no_yokan_vital_zero/vol01_chapter_007/28.jpg",
    "https://img-proxy.imgfo.com/?referer=https://manganelo.com&url=https://s7.mkklcdnv6temp.com/mangakakalot/k2/kodou_no_yokan_vital_zero/vol01_chapter_007/29.jpg",
    "https://img-proxy.imgfo.com/?referer=https://manganelo.com&url=https://s7.mkklcdnv6temp.com/mangakakalot/k2/kodou_no_yokan_vital_zero/vol01_chapter_007/30.jpg",
    "https://img-proxy.imgfo.com/?referer=https://manganelo.com&url=https://s7.mkklcdnv6temp.com/mangakakalot/k2/kodou_no_yokan_vital_zero/vol01_chapter_007/31.jpg"
  ]
}