{
  "cover": "https://avt.mkklcdnv6.com/26/g/3-1583468709.jpg",
  "title": "Barajou No Kiss",
  "original": "蔷薇公主的KISS ; 蔷薇千金之吻 ; 薔薇嬢のキス ; Kiss of Rose Princess ; Nụ hôn của công chúa tường vi ; El Beso de la Princesa de la Rosa (Spanish) ; Suudelma Ruusuprinsessalta (Finnish) ; Kyss av rose prinsessen (Norwegian) ; Kuss der Rosenprinzessin (German) ; Kyss av Rosprinsessan (swedish) ; Sărutul Prințesei Trandafir (Romanian)",
  "genre": "Comedy, Drama, Fantasy, Harem, Mystery, Romance, School life, Shoujo, Supernatural, Manga",
  "author": "Shouoto Aya",
  "status": "Completed",
  "backlink": "https://manganu.com/collections/shouoto-aya/barajou-no-kiss/",
  "description": "Most girls are crazy about jewelry, but not Anis Yamamoto. Not since her father gave her a rose choker as a child, claiming it was a protective amulet which would safeguard her from harm; however, if she ever took it off (a feat easier said than done!), she would be afflicted by a &ldquo;punishment&rdquo; of some sort. Not like it matters to her though, since the attention it attracts around school from faculty and students alike isn&rsquo;t something she&rsquo;s particularly fond of. But after a certain incident causes the choker to disappear, she realizes that this punishment her father spoke of might have been a bit more than she bargained for!",
  "language": "English",
  "images": [
    "https://img-proxy.imgfo.com/?referer=https://manganelo.com&url=https://s5.mkklcdnv6temp.com/mangakakalot/b1/barajou_no_kiss/vol7_chapter_40_farewell/1.jpg",
    "https://img-proxy.imgfo.com/?referer=https://manganelo.com&url=https://s5.mkklcdnv6temp.com/mangakakalot/b1/barajou_no_kiss/vol7_chapter_40_farewell/2.jpg",
    "https://img-proxy.imgfo.com/?referer=https://manganelo.com&url=https://s5.mkklcdnv6temp.com/mangakakalot/b1/barajou_no_kiss/vol7_chapter_40_farewell/3.jpg",
    "https://img-proxy.imgfo.com/?referer=https://manganelo.com&url=https://s5.mkklcdnv6temp.com/mangakakalot/b1/barajou_no_kiss/vol7_chapter_40_farewell/4.jpg",
    "https://img-proxy.imgfo.com/?referer=https://manganelo.com&url=https://s5.mkklcdnv6temp.com/mangakakalot/b1/barajou_no_kiss/vol7_chapter_40_farewell/5.jpg",
    "https://img-proxy.imgfo.com/?referer=https://manganelo.com&url=https://s5.mkklcdnv6temp.com/mangakakalot/b1/barajou_no_kiss/vol7_chapter_40_farewell/6.jpg",
    "https://img-proxy.imgfo.com/?referer=https://manganelo.com&url=https://s5.mkklcdnv6temp.com/mangakakalot/b1/barajou_no_kiss/vol7_chapter_40_farewell/7.jpg",
    "https://img-proxy.imgfo.com/?referer=https://manganelo.com&url=https://s5.mkklcdnv6temp.com/mangakakalot/b1/barajou_no_kiss/vol7_chapter_40_farewell/8.jpg",
    "https://img-proxy.imgfo.com/?referer=https://manganelo.com&url=https://s5.mkklcdnv6temp.com/mangakakalot/b1/barajou_no_kiss/vol7_chapter_40_farewell/9.jpg",
    "https://img-proxy.imgfo.com/?referer=https://manganelo.com&url=https://s5.mkklcdnv6temp.com/mangakakalot/b1/barajou_no_kiss/vol7_chapter_40_farewell/10.jpg",
    "https://img-proxy.imgfo.com/?referer=https://manganelo.com&url=https://s5.mkklcdnv6temp.com/mangakakalot/b1/barajou_no_kiss/vol7_chapter_40_farewell/11.jpg",
    "https://img-proxy.imgfo.com/?referer=https://manganelo.com&url=https://s5.mkklcdnv6temp.com/mangakakalot/b1/barajou_no_kiss/vol7_chapter_40_farewell/12.jpg",
    "https://img-proxy.imgfo.com/?referer=https://manganelo.com&url=https://s5.mkklcdnv6temp.com/mangakakalot/b1/barajou_no_kiss/vol7_chapter_40_farewell/13.jpg",
    "https://img-proxy.imgfo.com/?referer=https://manganelo.com&url=https://s5.mkklcdnv6temp.com/mangakakalot/b1/barajou_no_kiss/vol7_chapter_40_farewell/14.jpg",
    "https://img-proxy.imgfo.com/?referer=https://manganelo.com&url=https://s5.mkklcdnv6temp.com/mangakakalot/b1/barajou_no_kiss/vol7_chapter_40_farewell/15.jpg",
    "https://img-proxy.imgfo.com/?referer=https://manganelo.com&url=https://s5.mkklcdnv6temp.com/mangakakalot/b1/barajou_no_kiss/vol7_chapter_40_farewell/16.jpg",
    "https://img-proxy.imgfo.com/?referer=https://manganelo.com&url=https://s5.mkklcdnv6temp.com/mangakakalot/b1/barajou_no_kiss/vol7_chapter_40_farewell/17.jpg",
    "https://img-proxy.imgfo.com/?referer=https://manganelo.com&url=https://s5.mkklcdnv6temp.com/mangakakalot/b1/barajou_no_kiss/vol7_chapter_40_farewell/18.jpg",
    "https://img-proxy.imgfo.com/?referer=https://manganelo.com&url=https://s5.mkklcdnv6temp.com/mangakakalot/b1/barajou_no_kiss/vol7_chapter_40_farewell/19.jpg",
    "https://img-proxy.imgfo.com/?referer=https://manganelo.com&url=https://s5.mkklcdnv6temp.com/mangakakalot/b1/barajou_no_kiss/vol7_chapter_40_farewell/20.jpg",
    "https://img-proxy.imgfo.com/?referer=https://manganelo.com&url=https://s5.mkklcdnv6temp.com/mangakakalot/b1/barajou_no_kiss/vol7_chapter_40_farewell/21.jpg",
    "https://img-proxy.imgfo.com/?referer=https://manganelo.com&url=https://s5.mkklcdnv6temp.com/mangakakalot/b1/barajou_no_kiss/vol7_chapter_40_farewell/22.jpg",
    "https://img-proxy.imgfo.com/?referer=https://manganelo.com&url=https://s5.mkklcdnv6temp.com/mangakakalot/b1/barajou_no_kiss/vol7_chapter_40_farewell/23.jpg",
    "https://img-proxy.imgfo.com/?referer=https://manganelo.com&url=https://s5.mkklcdnv6temp.com/mangakakalot/b1/barajou_no_kiss/vol7_chapter_40_farewell/24.jpg",
    "https://img-proxy.imgfo.com/?referer=https://manganelo.com&url=https://s5.mkklcdnv6temp.com/mangakakalot/b1/barajou_no_kiss/vol7_chapter_40_farewell/25.jpg",
    "https://img-proxy.imgfo.com/?referer=https://manganelo.com&url=https://s5.mkklcdnv6temp.com/mangakakalot/b1/barajou_no_kiss/vol7_chapter_40_farewell/26.jpg",
    "https://img-proxy.imgfo.com/?referer=https://manganelo.com&url=https://s5.mkklcdnv6temp.com/mangakakalot/b1/barajou_no_kiss/vol7_chapter_40_farewell/27.jpg",
    "https://img-proxy.imgfo.com/?referer=https://manganelo.com&url=https://s5.mkklcdnv6temp.com/mangakakalot/b1/barajou_no_kiss/vol7_chapter_40_farewell/28.jpg",
    "https://img-proxy.imgfo.com/?referer=https://manganelo.com&url=https://s5.mkklcdnv6temp.com/mangakakalot/b1/barajou_no_kiss/vol7_chapter_40_farewell/29.jpg",
    "https://img-proxy.imgfo.com/?referer=https://manganelo.com&url=https://s5.mkklcdnv6temp.com/mangakakalot/b1/barajou_no_kiss/vol7_chapter_40_farewell/30.jpg",
    "https://img-proxy.imgfo.com/?referer=https://manganelo.com&url=https://s5.mkklcdnv6temp.com/mangakakalot/b1/barajou_no_kiss/vol7_chapter_40_farewell/31.jpg",
    "https://img-proxy.imgfo.com/?referer=https://manganelo.com&url=https://s5.mkklcdnv6temp.com/mangakakalot/b1/barajou_no_kiss/vol7_chapter_40_farewell/32.jpg",
    "https://img-proxy.imgfo.com/?referer=https://manganelo.com&url=https://s5.mkklcdnv6temp.com/mangakakalot/b1/barajou_no_kiss/vol7_chapter_40_farewell/33.jpg",
    "https://img-proxy.imgfo.com/?referer=https://manganelo.com&url=https://s5.mkklcdnv6temp.com/mangakakalot/b1/barajou_no_kiss/vol7_chapter_40_farewell/34.jpg",
    "https://img-proxy.imgfo.com/?referer=https://manganelo.com&url=https://s5.mkklcdnv6temp.com/mangakakalot/b1/barajou_no_kiss/vol7_chapter_40_farewell/35.jpg",
    "https://img-proxy.imgfo.com/?referer=https://manganelo.com&url=https://s5.mkklcdnv6temp.com/mangakakalot/b1/barajou_no_kiss/vol7_chapter_40_farewell/36.jpg",
    "https://img-proxy.imgfo.com/?referer=https://manganelo.com&url=https://s5.mkklcdnv6temp.com/mangakakalot/b1/barajou_no_kiss/vol7_chapter_40_farewell/37.jpg",
    "https://img-proxy.imgfo.com/?referer=https://manganelo.com&url=https://s5.mkklcdnv6temp.com/mangakakalot/b1/barajou_no_kiss/vol7_chapter_40_farewell/38.jpg",
    "https://img-proxy.imgfo.com/?referer=https://manganelo.com&url=https://s5.mkklcdnv6temp.com/mangakakalot/b1/barajou_no_kiss/vol7_chapter_40_farewell/39.jpg",
    "https://img-proxy.imgfo.com/?referer=https://manganelo.com&url=https://s5.mkklcdnv6temp.com/mangakakalot/b1/barajou_no_kiss/vol7_chapter_40_farewell/40.jpg",
    "https://img-proxy.imgfo.com/?referer=https://manganelo.com&url=https://s5.mkklcdnv6temp.com/mangakakalot/b1/barajou_no_kiss/vol7_chapter_40_farewell/41.jpg",
    "https://img-proxy.imgfo.com/?referer=https://manganelo.com&url=https://s5.mkklcdnv6temp.com/mangakakalot/b1/barajou_no_kiss/vol7_chapter_40_farewell/42.jpg",
    "https://img-proxy.imgfo.com/?referer=https://manganelo.com&url=https://s5.mkklcdnv6temp.com/mangakakalot/b1/barajou_no_kiss/vol7_chapter_40_farewell/43.jpg",
    "https://img-proxy.imgfo.com/?referer=https://manganelo.com&url=https://s5.mkklcdnv6temp.com/mangakakalot/b1/barajou_no_kiss/vol7_chapter_40_farewell/44.jpg",
    "https://img-proxy.imgfo.com/?referer=https://manganelo.com&url=https://s5.mkklcdnv6temp.com/mangakakalot/b1/barajou_no_kiss/vol7_chapter_40_farewell/45.jpg",
    "https://img-proxy.imgfo.com/?referer=https://manganelo.com&url=https://s5.mkklcdnv6temp.com/mangakakalot/b1/barajou_no_kiss/vol7_chapter_40_farewell/46.jpg",
    "https://img-proxy.imgfo.com/?referer=https://manganelo.com&url=https://s5.mkklcdnv6temp.com/mangakakalot/b1/barajou_no_kiss/vol7_chapter_40_farewell/47.jpg",
    "https://img-proxy.imgfo.com/?referer=https://manganelo.com&url=https://s5.mkklcdnv6temp.com/mangakakalot/b1/barajou_no_kiss/vol7_chapter_40_farewell/48.jpg",
    "https://img-proxy.imgfo.com/?referer=https://manganelo.com&url=https://s5.mkklcdnv6temp.com/mangakakalot/b1/barajou_no_kiss/vol7_chapter_40_farewell/49.jpg",
    "https://img-proxy.imgfo.com/?referer=https://manganelo.com&url=https://s5.mkklcdnv6temp.com/mangakakalot/b1/barajou_no_kiss/vol7_chapter_40_farewell/50.jpg",
    "https://img-proxy.imgfo.com/?referer=https://manganelo.com&url=https://s5.mkklcdnv6temp.com/mangakakalot/b1/barajou_no_kiss/vol7_chapter_40_farewell/51.jpg",
    "https://img-proxy.imgfo.com/?referer=https://manganelo.com&url=https://s5.mkklcdnv6temp.com/mangakakalot/b1/barajou_no_kiss/vol7_chapter_40_farewell/52.jpg"
  ]
}