{
  "cover": "https://avt.mkklcdnv6.com/30/z/7-1583477435.jpg",
  "title": "When A Man Loves A Man",
  "original": "イロコイ ; ウブ ; 男が男を愛する時 ; Irokoi ; Last Waltz (NITTA Youka) ; Nightcap ; Otoko ga Otoko wo Ai suru toki ; U:V",
  "genre": "Drama, Romance, Yaoi, Manga",
  "author": "Nitta Youka",
  "status": "Completed",
  "backlink": "https://manganu.com/collections/nitta-youka/when-a-man-loves-a-man/",
  "description": "When a Man Loves a Man series:\n1) When a Man Loves a Man (1 Volume)\nStory of several guys working in host clubs.\nProfessional rivalry, mistaken identities, unrequited love, and jealousy test Shinkawa's and Takaaki's friendship on a semi-regular basis. But when Iwaki Kyousuke, Takaaki's old flame and mentor, returns to seduce Shinkawa away to a new host club, will Takaaki be able to persuade Shinkawa to stay, or will his devotion to Iwaki cause him to lose Shinkawa's partnership?\n2) Last Waltz (2 Volumes)\nAt the end of When a Man Loves a Man, Shinkawa had rejected Iwaki's invitation to become the number one host at his new club. But now the rivalry between Schnapps and the Rusty Nail is heating up.\nSchnapps has hired a new host, Ishii, who is stealing all the other hosts' clients away. What could his motive be? Is Shinkawa right in suspecting that Ishii is somehow working for Iwaki? But when Shinkawa shares his suspicions with Takaaki, why is he so quick to defend Iwaki? How could he still love the guy that abandoned him to start his own club? How can Shinkawa make Takaaki look at him the way he looks at Iwaki?\n3) Nightcap (1 Volume)\nFlashback showing how Takaaki and Iwaki met and then why the cruel Iwaki abandoned the kid after let him become bisex.\nIwaki has been a gigolo for 8 years. When he meets Kato, a homeless kid sleeping against his car on the streets, his fancy is struck. When he finds that Kato is looking to become a gigolo, he gives him money to help him clean up to get the job, just because he's interested. Will he lose his love for women in exchange for his love for Kato?\n4) Irokoi (3 Volumes)\nFollows the star-crossed love relationships of four hosts, Takaaki, Iwaki, Shinkawa and Kenzaki. Interesting story and well-developed characters, but you should probably read the preceeding three When a Man Loves a Man series to understand the backstory.\n5) U:V (2 Volumes)\nThe final arc of the series on the four hosts and their relationship. Iwaki introduced his nephew, Ozaki Kazuomi, to both Takaaki and Shinkawa; Takaaki is to train Kazuomi before being passed over to Shinkawa. However, Shinkawa still has doubts about Takaaki's feelings for Iwaki; has Takaaki really put his feelings for Iwaki behind him? What about Kenzaki, who has such love and passion for Shinkawa that he's willing to do anything for him?",
  "language": "English",
  "images": [
    "https://img-proxy.imgfo.com/?referer=https://manganelo.com&url=https://s6.mkklcdnv6temp.com/mangakakalot/w1/when_a_man_loves_a_man/vol5_chapter_3_irokoi/1.jpg",
    "https://img-proxy.imgfo.com/?referer=https://manganelo.com&url=https://s6.mkklcdnv6temp.com/mangakakalot/w1/when_a_man_loves_a_man/vol5_chapter_3_irokoi/2.jpg",
    "https://img-proxy.imgfo.com/?referer=https://manganelo.com&url=https://s6.mkklcdnv6temp.com/mangakakalot/w1/when_a_man_loves_a_man/vol5_chapter_3_irokoi/3.jpg",
    "https://img-proxy.imgfo.com/?referer=https://manganelo.com&url=https://s6.mkklcdnv6temp.com/mangakakalot/w1/when_a_man_loves_a_man/vol5_chapter_3_irokoi/4.jpg",
    "https://img-proxy.imgfo.com/?referer=https://manganelo.com&url=https://s6.mkklcdnv6temp.com/mangakakalot/w1/when_a_man_loves_a_man/vol5_chapter_3_irokoi/5.jpg",
    "https://img-proxy.imgfo.com/?referer=https://manganelo.com&url=https://s6.mkklcdnv6temp.com/mangakakalot/w1/when_a_man_loves_a_man/vol5_chapter_3_irokoi/6.jpg",
    "https://img-proxy.imgfo.com/?referer=https://manganelo.com&url=https://s6.mkklcdnv6temp.com/mangakakalot/w1/when_a_man_loves_a_man/vol5_chapter_3_irokoi/7.jpg",
    "https://img-proxy.imgfo.com/?referer=https://manganelo.com&url=https://s6.mkklcdnv6temp.com/mangakakalot/w1/when_a_man_loves_a_man/vol5_chapter_3_irokoi/8.jpg",
    "https://img-proxy.imgfo.com/?referer=https://manganelo.com&url=https://s6.mkklcdnv6temp.com/mangakakalot/w1/when_a_man_loves_a_man/vol5_chapter_3_irokoi/9.jpg",
    "https://img-proxy.imgfo.com/?referer=https://manganelo.com&url=https://s6.mkklcdnv6temp.com/mangakakalot/w1/when_a_man_loves_a_man/vol5_chapter_3_irokoi/10.jpg",
    "https://img-proxy.imgfo.com/?referer=https://manganelo.com&url=https://s6.mkklcdnv6temp.com/mangakakalot/w1/when_a_man_loves_a_man/vol5_chapter_3_irokoi/11.jpg",
    "https://img-proxy.imgfo.com/?referer=https://manganelo.com&url=https://s6.mkklcdnv6temp.com/mangakakalot/w1/when_a_man_loves_a_man/vol5_chapter_3_irokoi/12.jpg",
    "https://img-proxy.imgfo.com/?referer=https://manganelo.com&url=https://s6.mkklcdnv6temp.com/mangakakalot/w1/when_a_man_loves_a_man/vol5_chapter_3_irokoi/13.jpg",
    "https://img-proxy.imgfo.com/?referer=https://manganelo.com&url=https://s6.mkklcdnv6temp.com/mangakakalot/w1/when_a_man_loves_a_man/vol5_chapter_3_irokoi/14.jpg",
    "https://img-proxy.imgfo.com/?referer=https://manganelo.com&url=https://s6.mkklcdnv6temp.com/mangakakalot/w1/when_a_man_loves_a_man/vol5_chapter_3_irokoi/15.jpg",
    "https://img-proxy.imgfo.com/?referer=https://manganelo.com&url=https://s6.mkklcdnv6temp.com/mangakakalot/w1/when_a_man_loves_a_man/vol5_chapter_3_irokoi/16.jpg",
    "https://img-proxy.imgfo.com/?referer=https://manganelo.com&url=https://s6.mkklcdnv6temp.com/mangakakalot/w1/when_a_man_loves_a_man/vol5_chapter_3_irokoi/17.jpg",
    "https://img-proxy.imgfo.com/?referer=https://manganelo.com&url=https://s6.mkklcdnv6temp.com/mangakakalot/w1/when_a_man_loves_a_man/vol5_chapter_3_irokoi/18.jpg",
    "https://img-proxy.imgfo.com/?referer=https://manganelo.com&url=https://s6.mkklcdnv6temp.com/mangakakalot/w1/when_a_man_loves_a_man/vol5_chapter_3_irokoi/19.jpg",
    "https://img-proxy.imgfo.com/?referer=https://manganelo.com&url=https://s6.mkklcdnv6temp.com/mangakakalot/w1/when_a_man_loves_a_man/vol5_chapter_3_irokoi/20.jpg",
    "https://img-proxy.imgfo.com/?referer=https://manganelo.com&url=https://s6.mkklcdnv6temp.com/mangakakalot/w1/when_a_man_loves_a_man/vol5_chapter_3_irokoi/21.jpg",
    "https://img-proxy.imgfo.com/?referer=https://manganelo.com&url=https://s6.mkklcdnv6temp.com/mangakakalot/w1/when_a_man_loves_a_man/vol5_chapter_3_irokoi/22.jpg",
    "https://img-proxy.imgfo.com/?referer=https://manganelo.com&url=https://s6.mkklcdnv6temp.com/mangakakalot/w1/when_a_man_loves_a_man/vol5_chapter_3_irokoi/23.jpg",
    "https://img-proxy.imgfo.com/?referer=https://manganelo.com&url=https://s6.mkklcdnv6temp.com/mangakakalot/w1/when_a_man_loves_a_man/vol5_chapter_3_irokoi/24.jpg",
    "https://img-proxy.imgfo.com/?referer=https://manganelo.com&url=https://s6.mkklcdnv6temp.com/mangakakalot/w1/when_a_man_loves_a_man/vol5_chapter_3_irokoi/25.jpg",
    "https://img-proxy.imgfo.com/?referer=https://manganelo.com&url=https://s6.mkklcdnv6temp.com/mangakakalot/w1/when_a_man_loves_a_man/vol5_chapter_3_irokoi/26.jpg",
    "https://img-proxy.imgfo.com/?referer=https://manganelo.com&url=https://s6.mkklcdnv6temp.com/mangakakalot/w1/when_a_man_loves_a_man/vol5_chapter_3_irokoi/27.jpg",
    "https://img-proxy.imgfo.com/?referer=https://manganelo.com&url=https://s6.mkklcdnv6temp.com/mangakakalot/w1/when_a_man_loves_a_man/vol5_chapter_3_irokoi/28.jpg",
    "https://img-proxy.imgfo.com/?referer=https://manganelo.com&url=https://s6.mkklcdnv6temp.com/mangakakalot/w1/when_a_man_loves_a_man/vol5_chapter_3_irokoi/29.jpg",
    "https://img-proxy.imgfo.com/?referer=https://manganelo.com&url=https://s6.mkklcdnv6temp.com/mangakakalot/w1/when_a_man_loves_a_man/vol5_chapter_3_irokoi/30.jpg",
    "https://img-proxy.imgfo.com/?referer=https://manganelo.com&url=https://s6.mkklcdnv6temp.com/mangakakalot/w1/when_a_man_loves_a_man/vol5_chapter_3_irokoi/31.jpg",
    "https://img-proxy.imgfo.com/?referer=https://manganelo.com&url=https://s6.mkklcdnv6temp.com/mangakakalot/w1/when_a_man_loves_a_man/vol5_chapter_3_irokoi/32.jpg"
  ]
}