{
  "cover": "https://avt.mkklcdnv6.com/46/m/4-1583471644.jpg",
  "title": "Open Sesame",
  "original": "恋爱新鲜人",
  "genre": "Comedy, Ecchi, Harem, Romance, School life, Shounen, Sports, Manga",
  "author": "Kawakata Kaoru",
  "status": "Completed",
  "backlink": "https://manganu.com/collections/kawakata-kaoru/open-sesame/",
  "description": "Danjou Yamato is a high school student who lives in the countryside and is the boxing champion of the region. However, when his family has to move out to live in Tokyo, he is transfered to a school in Tokyo that was previously an all-girls school. Girls have a lot of power and give the guys a hard time. But Yamato will not bow down to the power of the girls, and on his way to claim power for the guys in the school, he finds out something about his past...something that he had forgotten long ago...",
  "language": "English",
  "images": [
    "https://img-proxy.imgfo.com/?referer=https://manganelo.com&url=https://s6.mkklcdnv6temp.com/mangakakalot/o2/open_sesame/vol8_chapter_38_tomorrows_song_my_gift_to_you/1.jpg",
    "https://img-proxy.imgfo.com/?referer=https://manganelo.com&url=https://s6.mkklcdnv6temp.com/mangakakalot/o2/open_sesame/vol8_chapter_38_tomorrows_song_my_gift_to_you/2.jpg",
    "https://img-proxy.imgfo.com/?referer=https://manganelo.com&url=https://s6.mkklcdnv6temp.com/mangakakalot/o2/open_sesame/vol8_chapter_38_tomorrows_song_my_gift_to_you/3.jpg",
    "https://img-proxy.imgfo.com/?referer=https://manganelo.com&url=https://s6.mkklcdnv6temp.com/mangakakalot/o2/open_sesame/vol8_chapter_38_tomorrows_song_my_gift_to_you/4.jpg",
    "https://img-proxy.imgfo.com/?referer=https://manganelo.com&url=https://s6.mkklcdnv6temp.com/mangakakalot/o2/open_sesame/vol8_chapter_38_tomorrows_song_my_gift_to_you/5.jpg",
    "https://img-proxy.imgfo.com/?referer=https://manganelo.com&url=https://s6.mkklcdnv6temp.com/mangakakalot/o2/open_sesame/vol8_chapter_38_tomorrows_song_my_gift_to_you/6.jpg",
    "https://img-proxy.imgfo.com/?referer=https://manganelo.com&url=https://s6.mkklcdnv6temp.com/mangakakalot/o2/open_sesame/vol8_chapter_38_tomorrows_song_my_gift_to_you/7.jpg",
    "https://img-proxy.imgfo.com/?referer=https://manganelo.com&url=https://s6.mkklcdnv6temp.com/mangakakalot/o2/open_sesame/vol8_chapter_38_tomorrows_song_my_gift_to_you/8.jpg",
    "https://img-proxy.imgfo.com/?referer=https://manganelo.com&url=https://s6.mkklcdnv6temp.com/mangakakalot/o2/open_sesame/vol8_chapter_38_tomorrows_song_my_gift_to_you/9.jpg",
    "https://img-proxy.imgfo.com/?referer=https://manganelo.com&url=https://s6.mkklcdnv6temp.com/mangakakalot/o2/open_sesame/vol8_chapter_38_tomorrows_song_my_gift_to_you/10.jpg",
    "https://img-proxy.imgfo.com/?referer=https://manganelo.com&url=https://s6.mkklcdnv6temp.com/mangakakalot/o2/open_sesame/vol8_chapter_38_tomorrows_song_my_gift_to_you/11.jpg",
    "https://img-proxy.imgfo.com/?referer=https://manganelo.com&url=https://s6.mkklcdnv6temp.com/mangakakalot/o2/open_sesame/vol8_chapter_38_tomorrows_song_my_gift_to_you/12.jpg",
    "https://img-proxy.imgfo.com/?referer=https://manganelo.com&url=https://s6.mkklcdnv6temp.com/mangakakalot/o2/open_sesame/vol8_chapter_38_tomorrows_song_my_gift_to_you/13.jpg",
    "https://img-proxy.imgfo.com/?referer=https://manganelo.com&url=https://s6.mkklcdnv6temp.com/mangakakalot/o2/open_sesame/vol8_chapter_38_tomorrows_song_my_gift_to_you/14.jpg",
    "https://img-proxy.imgfo.com/?referer=https://manganelo.com&url=https://s6.mkklcdnv6temp.com/mangakakalot/o2/open_sesame/vol8_chapter_38_tomorrows_song_my_gift_to_you/15.jpg",
    "https://img-proxy.imgfo.com/?referer=https://manganelo.com&url=https://s6.mkklcdnv6temp.com/mangakakalot/o2/open_sesame/vol8_chapter_38_tomorrows_song_my_gift_to_you/16.jpg",
    "https://img-proxy.imgfo.com/?referer=https://manganelo.com&url=https://s6.mkklcdnv6temp.com/mangakakalot/o2/open_sesame/vol8_chapter_38_tomorrows_song_my_gift_to_you/17.jpg",
    "https://img-proxy.imgfo.com/?referer=https://manganelo.com&url=https://s6.mkklcdnv6temp.com/mangakakalot/o2/open_sesame/vol8_chapter_38_tomorrows_song_my_gift_to_you/18.jpg",
    "https://img-proxy.imgfo.com/?referer=https://manganelo.com&url=https://s6.mkklcdnv6temp.com/mangakakalot/o2/open_sesame/vol8_chapter_38_tomorrows_song_my_gift_to_you/19.jpg",
    "https://img-proxy.imgfo.com/?referer=https://manganelo.com&url=https://s6.mkklcdnv6temp.com/mangakakalot/o2/open_sesame/vol8_chapter_38_tomorrows_song_my_gift_to_you/20.jpg",
    "https://img-proxy.imgfo.com/?referer=https://manganelo.com&url=https://s6.mkklcdnv6temp.com/mangakakalot/o2/open_sesame/vol8_chapter_38_tomorrows_song_my_gift_to_you/21.jpg",
    "https://img-proxy.imgfo.com/?referer=https://manganelo.com&url=https://s6.mkklcdnv6temp.com/mangakakalot/o2/open_sesame/vol8_chapter_38_tomorrows_song_my_gift_to_you/22.jpg",
    "https://img-proxy.imgfo.com/?referer=https://manganelo.com&url=https://s6.mkklcdnv6temp.com/mangakakalot/o2/open_sesame/vol8_chapter_38_tomorrows_song_my_gift_to_you/23.jpg",
    "https://img-proxy.imgfo.com/?referer=https://manganelo.com&url=https://s6.mkklcdnv6temp.com/mangakakalot/o2/open_sesame/vol8_chapter_38_tomorrows_song_my_gift_to_you/24.jpg",
    "https://img-proxy.imgfo.com/?referer=https://manganelo.com&url=https://s6.mkklcdnv6temp.com/mangakakalot/o2/open_sesame/vol8_chapter_38_tomorrows_song_my_gift_to_you/25.jpg",
    "https://img-proxy.imgfo.com/?referer=https://manganelo.com&url=https://s6.mkklcdnv6temp.com/mangakakalot/o2/open_sesame/vol8_chapter_38_tomorrows_song_my_gift_to_you/26.jpg",
    "https://img-proxy.imgfo.com/?referer=https://manganelo.com&url=https://s6.mkklcdnv6temp.com/mangakakalot/o2/open_sesame/vol8_chapter_38_tomorrows_song_my_gift_to_you/27.jpg",
    "https://img-proxy.imgfo.com/?referer=https://manganelo.com&url=https://s6.mkklcdnv6temp.com/mangakakalot/o2/open_sesame/vol8_chapter_38_tomorrows_song_my_gift_to_you/28.jpg",
    "https://img-proxy.imgfo.com/?referer=https://manganelo.com&url=https://s6.mkklcdnv6temp.com/mangakakalot/o2/open_sesame/vol8_chapter_38_tomorrows_song_my_gift_to_you/29.jpg",
    "https://img-proxy.imgfo.com/?referer=https://manganelo.com&url=https://s6.mkklcdnv6temp.com/mangakakalot/o2/open_sesame/vol8_chapter_38_tomorrows_song_my_gift_to_you/30.jpg",
    "https://img-proxy.imgfo.com/?referer=https://manganelo.com&url=https://s6.mkklcdnv6temp.com/mangakakalot/o2/open_sesame/vol8_chapter_38_tomorrows_song_my_gift_to_you/31.jpg",
    "https://img-proxy.imgfo.com/?referer=https://manganelo.com&url=https://s6.mkklcdnv6temp.com/mangakakalot/o2/open_sesame/vol8_chapter_38_tomorrows_song_my_gift_to_you/32.jpg",
    "https://img-proxy.imgfo.com/?referer=https://manganelo.com&url=https://s6.mkklcdnv6temp.com/mangakakalot/o2/open_sesame/vol8_chapter_38_tomorrows_song_my_gift_to_you/33.jpg",
    "https://img-proxy.imgfo.com/?referer=https://manganelo.com&url=https://s6.mkklcdnv6temp.com/mangakakalot/o2/open_sesame/vol8_chapter_38_tomorrows_song_my_gift_to_you/34.jpg",
    "https://img-proxy.imgfo.com/?referer=https://manganelo.com&url=https://s6.mkklcdnv6temp.com/mangakakalot/o2/open_sesame/vol8_chapter_38_tomorrows_song_my_gift_to_you/35.jpg",
    "https://img-proxy.imgfo.com/?referer=https://manganelo.com&url=https://s6.mkklcdnv6temp.com/mangakakalot/o2/open_sesame/vol8_chapter_38_tomorrows_song_my_gift_to_you/36.jpg",
    "https://img-proxy.imgfo.com/?referer=https://manganelo.com&url=https://s6.mkklcdnv6temp.com/mangakakalot/o2/open_sesame/vol8_chapter_38_tomorrows_song_my_gift_to_you/37.jpg",
    "https://img-proxy.imgfo.com/?referer=https://manganelo.com&url=https://s6.mkklcdnv6temp.com/mangakakalot/o2/open_sesame/vol8_chapter_38_tomorrows_song_my_gift_to_you/38.jpg"
  ]
}