{
  "cover": "https://avt.mkklcdnv6.com/47/j/1-1583465572.jpg",
  "title": "He Is A High-School Girl",
  "original": " Él Es una Chica de Preparatoria, 그놈은 여고생",
  "genre": "Action, Adult, Adventure, Comedy, Gender bender, Shounen, Webtoons, Manhwa",
  "author": "Baek Young-Min",
  "status": "Completed",
  "backlink": "https://manganu.com/collections/baek-young-min/he-is-a-high-school-girl/",
  "description": "Choi Kang Bae is notorious for fighting. In fact, he&#39;s the head troublemaker in a school full of troublemakers. But after finding out that his beloved younger sister was being bullied at her school, he takes risk of becoming a high school girl in order to protect her.",
  "language": "English",
  "images": [
    "https://img-proxy.imgfo.com/?referer=https://manganelo.com&url=https://s3.mkklcdnv6temp.com/mangakakalot/j1/jndk13071560992567/vol1_chapter_8/1.jpg",
    "https://img-proxy.imgfo.com/?referer=https://manganelo.com&url=https://s3.mkklcdnv6temp.com/mangakakalot/j1/jndk13071560992567/vol1_chapter_8/2.jpg",
    "https://img-proxy.imgfo.com/?referer=https://manganelo.com&url=https://s3.mkklcdnv6temp.com/mangakakalot/j1/jndk13071560992567/vol1_chapter_8/3.jpg",
    "https://img-proxy.imgfo.com/?referer=https://manganelo.com&url=https://s3.mkklcdnv6temp.com/mangakakalot/j1/jndk13071560992567/vol1_chapter_8/4.jpg",
    "https://img-proxy.imgfo.com/?referer=https://manganelo.com&url=https://s3.mkklcdnv6temp.com/mangakakalot/j1/jndk13071560992567/vol1_chapter_8/5.jpg",
    "https://img-proxy.imgfo.com/?referer=https://manganelo.com&url=https://s3.mkklcdnv6temp.com/mangakakalot/j1/jndk13071560992567/vol1_chapter_8/6.jpg",
    "https://img-proxy.imgfo.com/?referer=https://manganelo.com&url=https://s3.mkklcdnv6temp.com/mangakakalot/j1/jndk13071560992567/vol1_chapter_8/7.jpg",
    "https://img-proxy.imgfo.com/?referer=https://manganelo.com&url=https://s3.mkklcdnv6temp.com/mangakakalot/j1/jndk13071560992567/vol1_chapter_8/8.jpg",
    "https://img-proxy.imgfo.com/?referer=https://manganelo.com&url=https://s3.mkklcdnv6temp.com/mangakakalot/j1/jndk13071560992567/vol1_chapter_8/9.jpg",
    "https://img-proxy.imgfo.com/?referer=https://manganelo.com&url=https://s3.mkklcdnv6temp.com/mangakakalot/j1/jndk13071560992567/vol1_chapter_8/10.jpg",
    "https://img-proxy.imgfo.com/?referer=https://manganelo.com&url=https://s3.mkklcdnv6temp.com/mangakakalot/j1/jndk13071560992567/vol1_chapter_8/11.jpg",
    "https://img-proxy.imgfo.com/?referer=https://manganelo.com&url=https://s3.mkklcdnv6temp.com/mangakakalot/j1/jndk13071560992567/vol1_chapter_8/12.jpg",
    "https://img-proxy.imgfo.com/?referer=https://manganelo.com&url=https://s3.mkklcdnv6temp.com/mangakakalot/j1/jndk13071560992567/vol1_chapter_8/13.jpg",
    "https://img-proxy.imgfo.com/?referer=https://manganelo.com&url=https://s3.mkklcdnv6temp.com/mangakakalot/j1/jndk13071560992567/vol1_chapter_8/14.jpg",
    "https://img-proxy.imgfo.com/?referer=https://manganelo.com&url=https://s3.mkklcdnv6temp.com/mangakakalot/j1/jndk13071560992567/vol1_chapter_8/15.jpg",
    "https://img-proxy.imgfo.com/?referer=https://manganelo.com&url=https://s3.mkklcdnv6temp.com/mangakakalot/j1/jndk13071560992567/vol1_chapter_8/16.jpg",
    "https://img-proxy.imgfo.com/?referer=https://manganelo.com&url=https://s3.mkklcdnv6temp.com/mangakakalot/j1/jndk13071560992567/vol1_chapter_8/17.jpg",
    "https://img-proxy.imgfo.com/?referer=https://manganelo.com&url=https://s3.mkklcdnv6temp.com/mangakakalot/j1/jndk13071560992567/vol1_chapter_8/18.jpg"
  ]
}