{
  "cover": "https://avt.mkklcdnv6.com/47/j/1-1583465572.jpg",
  "title": "He Is A High-School Girl",
  "original": " Él Es una Chica de Preparatoria, 그놈은 여고생",
  "genre": "Action, Adult, Adventure, Comedy, Gender bender, Shounen, Webtoons, Manhwa",
  "author": "Baek Young-Min",
  "status": "Completed",
  "backlink": "https://manganu.com/collections/baek-young-min/he-is-a-high-school-girl/",
  "description": "Choi Kang Bae is notorious for fighting. In fact, he&#39;s the head troublemaker in a school full of troublemakers. But after finding out that his beloved younger sister was being bullied at her school, he takes risk of becoming a high school girl in order to protect her.",
  "language": "English",
  "images": [
    "https://img-proxy.imgfo.com/?referer=https://manganelo.com&url=https://s3.mkklcdnv6temp.com/mangakakalot/j1/jndk13071560992567/vol1_chapter_16/1.jpg",
    "https://img-proxy.imgfo.com/?referer=https://manganelo.com&url=https://s3.mkklcdnv6temp.com/mangakakalot/j1/jndk13071560992567/vol1_chapter_16/2.jpg",
    "https://img-proxy.imgfo.com/?referer=https://manganelo.com&url=https://s3.mkklcdnv6temp.com/mangakakalot/j1/jndk13071560992567/vol1_chapter_16/3.jpg",
    "https://img-proxy.imgfo.com/?referer=https://manganelo.com&url=https://s3.mkklcdnv6temp.com/mangakakalot/j1/jndk13071560992567/vol1_chapter_16/4.jpg",
    "https://img-proxy.imgfo.com/?referer=https://manganelo.com&url=https://s3.mkklcdnv6temp.com/mangakakalot/j1/jndk13071560992567/vol1_chapter_16/5.jpg",
    "https://img-proxy.imgfo.com/?referer=https://manganelo.com&url=https://s3.mkklcdnv6temp.com/mangakakalot/j1/jndk13071560992567/vol1_chapter_16/6.jpg",
    "https://img-proxy.imgfo.com/?referer=https://manganelo.com&url=https://s3.mkklcdnv6temp.com/mangakakalot/j1/jndk13071560992567/vol1_chapter_16/7.jpg",
    "https://img-proxy.imgfo.com/?referer=https://manganelo.com&url=https://s3.mkklcdnv6temp.com/mangakakalot/j1/jndk13071560992567/vol1_chapter_16/8.jpg",
    "https://img-proxy.imgfo.com/?referer=https://manganelo.com&url=https://s3.mkklcdnv6temp.com/mangakakalot/j1/jndk13071560992567/vol1_chapter_16/9.jpg",
    "https://img-proxy.imgfo.com/?referer=https://manganelo.com&url=https://s3.mkklcdnv6temp.com/mangakakalot/j1/jndk13071560992567/vol1_chapter_16/10.jpg",
    "https://img-proxy.imgfo.com/?referer=https://manganelo.com&url=https://s3.mkklcdnv6temp.com/mangakakalot/j1/jndk13071560992567/vol1_chapter_16/11.jpg",
    "https://img-proxy.imgfo.com/?referer=https://manganelo.com&url=https://s3.mkklcdnv6temp.com/mangakakalot/j1/jndk13071560992567/vol1_chapter_16/12.jpg",
    "https://img-proxy.imgfo.com/?referer=https://manganelo.com&url=https://s3.mkklcdnv6temp.com/mangakakalot/j1/jndk13071560992567/vol1_chapter_16/13.jpg",
    "https://img-proxy.imgfo.com/?referer=https://manganelo.com&url=https://s3.mkklcdnv6temp.com/mangakakalot/j1/jndk13071560992567/vol1_chapter_16/14.jpg",
    "https://img-proxy.imgfo.com/?referer=https://manganelo.com&url=https://s3.mkklcdnv6temp.com/mangakakalot/j1/jndk13071560992567/vol1_chapter_16/15.jpg",
    "https://img-proxy.imgfo.com/?referer=https://manganelo.com&url=https://s3.mkklcdnv6temp.com/mangakakalot/j1/jndk13071560992567/vol1_chapter_16/16.jpg",
    "https://img-proxy.imgfo.com/?referer=https://manganelo.com&url=https://s3.mkklcdnv6temp.com/mangakakalot/j1/jndk13071560992567/vol1_chapter_16/17.jpg",
    "https://img-proxy.imgfo.com/?referer=https://manganelo.com&url=https://s3.mkklcdnv6temp.com/mangakakalot/j1/jndk13071560992567/vol1_chapter_16/18.jpg",
    "https://img-proxy.imgfo.com/?referer=https://manganelo.com&url=https://s3.mkklcdnv6temp.com/mangakakalot/j1/jndk13071560992567/vol1_chapter_16/19.jpg",
    "https://img-proxy.imgfo.com/?referer=https://manganelo.com&url=https://s3.mkklcdnv6temp.com/mangakakalot/j1/jndk13071560992567/vol1_chapter_16/20.jpg",
    "https://img-proxy.imgfo.com/?referer=https://manganelo.com&url=https://s3.mkklcdnv6temp.com/mangakakalot/j1/jndk13071560992567/vol1_chapter_16/21.jpg",
    "https://img-proxy.imgfo.com/?referer=https://manganelo.com&url=https://s3.mkklcdnv6temp.com/mangakakalot/j1/jndk13071560992567/vol1_chapter_16/22.jpg",
    "https://img-proxy.imgfo.com/?referer=https://manganelo.com&url=https://s3.mkklcdnv6temp.com/mangakakalot/j1/jndk13071560992567/vol1_chapter_16/23.jpg",
    "https://img-proxy.imgfo.com/?referer=https://manganelo.com&url=https://s3.mkklcdnv6temp.com/mangakakalot/j1/jndk13071560992567/vol1_chapter_16/24.jpg"
  ]
}