{
  "cover": "https://avt.mkklcdnv6.com/47/j/1-1583465572.jpg",
  "title": "He Is A High-School Girl",
  "original": " Él Es una Chica de Preparatoria, 그놈은 여고생",
  "genre": "Action, Adult, Adventure, Comedy, Gender bender, Shounen, Webtoons, Manhwa",
  "author": "Baek Young-Min",
  "status": "Completed",
  "backlink": "https://manganu.com/collections/baek-young-min/he-is-a-high-school-girl/",
  "description": "Choi Kang Bae is notorious for fighting. In fact, he&#39;s the head troublemaker in a school full of troublemakers. But after finding out that his beloved younger sister was being bullied at her school, he takes risk of becoming a high school girl in order to protect her.",
  "language": "English",
  "images": [
    "https://img-proxy.imgfo.com/?referer=https://manganelo.com&url=https://s3.mkklcdnv6temp.com/mangakakalot/j1/jndk13071560992567/vol1_chapter_17/1.jpg",
    "https://img-proxy.imgfo.com/?referer=https://manganelo.com&url=https://s3.mkklcdnv6temp.com/mangakakalot/j1/jndk13071560992567/vol1_chapter_17/2.jpg",
    "https://img-proxy.imgfo.com/?referer=https://manganelo.com&url=https://s3.mkklcdnv6temp.com/mangakakalot/j1/jndk13071560992567/vol1_chapter_17/3.jpg",
    "https://img-proxy.imgfo.com/?referer=https://manganelo.com&url=https://s3.mkklcdnv6temp.com/mangakakalot/j1/jndk13071560992567/vol1_chapter_17/4.jpg",
    "https://img-proxy.imgfo.com/?referer=https://manganelo.com&url=https://s3.mkklcdnv6temp.com/mangakakalot/j1/jndk13071560992567/vol1_chapter_17/5.jpg",
    "https://img-proxy.imgfo.com/?referer=https://manganelo.com&url=https://s3.mkklcdnv6temp.com/mangakakalot/j1/jndk13071560992567/vol1_chapter_17/6.jpg",
    "https://img-proxy.imgfo.com/?referer=https://manganelo.com&url=https://s3.mkklcdnv6temp.com/mangakakalot/j1/jndk13071560992567/vol1_chapter_17/7.jpg",
    "https://img-proxy.imgfo.com/?referer=https://manganelo.com&url=https://s3.mkklcdnv6temp.com/mangakakalot/j1/jndk13071560992567/vol1_chapter_17/8.jpg",
    "https://img-proxy.imgfo.com/?referer=https://manganelo.com&url=https://s3.mkklcdnv6temp.com/mangakakalot/j1/jndk13071560992567/vol1_chapter_17/9.jpg",
    "https://img-proxy.imgfo.com/?referer=https://manganelo.com&url=https://s3.mkklcdnv6temp.com/mangakakalot/j1/jndk13071560992567/vol1_chapter_17/10.jpg",
    "https://img-proxy.imgfo.com/?referer=https://manganelo.com&url=https://s3.mkklcdnv6temp.com/mangakakalot/j1/jndk13071560992567/vol1_chapter_17/11.jpg",
    "https://img-proxy.imgfo.com/?referer=https://manganelo.com&url=https://s3.mkklcdnv6temp.com/mangakakalot/j1/jndk13071560992567/vol1_chapter_17/12.jpg",
    "https://img-proxy.imgfo.com/?referer=https://manganelo.com&url=https://s3.mkklcdnv6temp.com/mangakakalot/j1/jndk13071560992567/vol1_chapter_17/13.jpg",
    "https://img-proxy.imgfo.com/?referer=https://manganelo.com&url=https://s3.mkklcdnv6temp.com/mangakakalot/j1/jndk13071560992567/vol1_chapter_17/14.jpg",
    "https://img-proxy.imgfo.com/?referer=https://manganelo.com&url=https://s3.mkklcdnv6temp.com/mangakakalot/j1/jndk13071560992567/vol1_chapter_17/15.jpg",
    "https://img-proxy.imgfo.com/?referer=https://manganelo.com&url=https://s3.mkklcdnv6temp.com/mangakakalot/j1/jndk13071560992567/vol1_chapter_17/16.jpg",
    "https://img-proxy.imgfo.com/?referer=https://manganelo.com&url=https://s3.mkklcdnv6temp.com/mangakakalot/j1/jndk13071560992567/vol1_chapter_17/17.jpg",
    "https://img-proxy.imgfo.com/?referer=https://manganelo.com&url=https://s3.mkklcdnv6temp.com/mangakakalot/j1/jndk13071560992567/vol1_chapter_17/18.jpg",
    "https://img-proxy.imgfo.com/?referer=https://manganelo.com&url=https://s3.mkklcdnv6temp.com/mangakakalot/j1/jndk13071560992567/vol1_chapter_17/19.jpg",
    "https://img-proxy.imgfo.com/?referer=https://manganelo.com&url=https://s3.mkklcdnv6temp.com/mangakakalot/j1/jndk13071560992567/vol1_chapter_17/20.jpg",
    "https://img-proxy.imgfo.com/?referer=https://manganelo.com&url=https://s3.mkklcdnv6temp.com/mangakakalot/j1/jndk13071560992567/vol1_chapter_17/21.jpg",
    "https://img-proxy.imgfo.com/?referer=https://manganelo.com&url=https://s3.mkklcdnv6temp.com/mangakakalot/j1/jndk13071560992567/vol1_chapter_17/22.jpg",
    "https://img-proxy.imgfo.com/?referer=https://manganelo.com&url=https://s3.mkklcdnv6temp.com/mangakakalot/j1/jndk13071560992567/vol1_chapter_17/23.jpg",
    "https://img-proxy.imgfo.com/?referer=https://manganelo.com&url=https://s3.mkklcdnv6temp.com/mangakakalot/j1/jndk13071560992567/vol1_chapter_17/24.jpg",
    "https://img-proxy.imgfo.com/?referer=https://manganelo.com&url=https://s3.mkklcdnv6temp.com/mangakakalot/j1/jndk13071560992567/vol1_chapter_17/25.jpg",
    "https://img-proxy.imgfo.com/?referer=https://manganelo.com&url=https://s3.mkklcdnv6temp.com/mangakakalot/j1/jndk13071560992567/vol1_chapter_17/26.jpg"
  ]
}