{
  "cover": "https://avt.mkklcdnv6.com/13/z/5-1583472391.jpg",
  "title": "Kongou Banchou",
  "original": "金剛番長 ; Kongo Bancho ; Kongoh Bancho ; Meet The Banchou",
  "genre": "Action, Adventure, Comedy, Shounen, Supernatural, Manga",
  "author": "Suzuki Nakaba",
  "status": "Completed",
  "backlink": "https://manganu.com/collections/suzuki-nakaba/kongou-banchou/",
  "description": "Akira Kongou is looking to take down the \"23 district project\" which involves \"banchou\" from 23 districts of Tokyo fighting for the right to control Japan. Without meaning to, he becomes a participant with the alias Kongou Banchou and must take down other banchou while searching for the leaders of the project.",
  "language": "English",
  "images": [
    "https://img-proxy.imgfo.com/?referer=https://manganelo.com&url=https://s41.mkklcdnv6temp.com/mangakakalot/k2/kongou_banchou/vol6_chapter_49_the_light_of_courage/1.jpg",
    "https://img-proxy.imgfo.com/?referer=https://manganelo.com&url=https://s41.mkklcdnv6temp.com/mangakakalot/k2/kongou_banchou/vol6_chapter_49_the_light_of_courage/2.jpg",
    "https://img-proxy.imgfo.com/?referer=https://manganelo.com&url=https://s41.mkklcdnv6temp.com/mangakakalot/k2/kongou_banchou/vol6_chapter_49_the_light_of_courage/3.jpg",
    "https://img-proxy.imgfo.com/?referer=https://manganelo.com&url=https://s41.mkklcdnv6temp.com/mangakakalot/k2/kongou_banchou/vol6_chapter_49_the_light_of_courage/4.jpg",
    "https://img-proxy.imgfo.com/?referer=https://manganelo.com&url=https://s41.mkklcdnv6temp.com/mangakakalot/k2/kongou_banchou/vol6_chapter_49_the_light_of_courage/5.jpg",
    "https://img-proxy.imgfo.com/?referer=https://manganelo.com&url=https://s41.mkklcdnv6temp.com/mangakakalot/k2/kongou_banchou/vol6_chapter_49_the_light_of_courage/6.jpg",
    "https://img-proxy.imgfo.com/?referer=https://manganelo.com&url=https://s41.mkklcdnv6temp.com/mangakakalot/k2/kongou_banchou/vol6_chapter_49_the_light_of_courage/7.jpg",
    "https://img-proxy.imgfo.com/?referer=https://manganelo.com&url=https://s41.mkklcdnv6temp.com/mangakakalot/k2/kongou_banchou/vol6_chapter_49_the_light_of_courage/8.jpg",
    "https://img-proxy.imgfo.com/?referer=https://manganelo.com&url=https://s41.mkklcdnv6temp.com/mangakakalot/k2/kongou_banchou/vol6_chapter_49_the_light_of_courage/9.jpg",
    "https://img-proxy.imgfo.com/?referer=https://manganelo.com&url=https://s41.mkklcdnv6temp.com/mangakakalot/k2/kongou_banchou/vol6_chapter_49_the_light_of_courage/10.jpg",
    "https://img-proxy.imgfo.com/?referer=https://manganelo.com&url=https://s41.mkklcdnv6temp.com/mangakakalot/k2/kongou_banchou/vol6_chapter_49_the_light_of_courage/11.jpg",
    "https://img-proxy.imgfo.com/?referer=https://manganelo.com&url=https://s41.mkklcdnv6temp.com/mangakakalot/k2/kongou_banchou/vol6_chapter_49_the_light_of_courage/12.jpg",
    "https://img-proxy.imgfo.com/?referer=https://manganelo.com&url=https://s41.mkklcdnv6temp.com/mangakakalot/k2/kongou_banchou/vol6_chapter_49_the_light_of_courage/13.jpg",
    "https://img-proxy.imgfo.com/?referer=https://manganelo.com&url=https://s41.mkklcdnv6temp.com/mangakakalot/k2/kongou_banchou/vol6_chapter_49_the_light_of_courage/14.jpg",
    "https://img-proxy.imgfo.com/?referer=https://manganelo.com&url=https://s41.mkklcdnv6temp.com/mangakakalot/k2/kongou_banchou/vol6_chapter_49_the_light_of_courage/15.jpg",
    "https://img-proxy.imgfo.com/?referer=https://manganelo.com&url=https://s41.mkklcdnv6temp.com/mangakakalot/k2/kongou_banchou/vol6_chapter_49_the_light_of_courage/16.jpg",
    "https://img-proxy.imgfo.com/?referer=https://manganelo.com&url=https://s41.mkklcdnv6temp.com/mangakakalot/k2/kongou_banchou/vol6_chapter_49_the_light_of_courage/17.jpg",
    "https://img-proxy.imgfo.com/?referer=https://manganelo.com&url=https://s41.mkklcdnv6temp.com/mangakakalot/k2/kongou_banchou/vol6_chapter_49_the_light_of_courage/18.jpg"
  ]
}