{
  "cover": "https://avt.mkklcdnv6.com/37/j/2-1583467135.jpg",
  "title": "Princess Lucia",
  "original": "プリンセス・ルシア ; 恶魔公主露茜娅 ; ลูเซียปีศาจสาวจอมป่วน ; 魔界公主 ; 프린세스 루시아 ; Puteri Lucia",
  "genre": "Comedy, Drama, Ecchi, Harem, Romance, Shounen, Supernatural, Manga",
  "author": "Seo Kouji",
  "status": "Completed",
  "backlink": "https://manganu.com/collections/seo-kouji/princess-lucia/",
  "description": "Koizumi Yuta is a 14 year old boy who has quite a bit of a problem. The demon princess of the magical world, Lucia, has to procreate with him. That child would have the ability to engulf the entire world for 7 whole days. Mikamoto El and Kasukabe Rie are the two angels assigned to make sure that doesn&#39;t happen. Kasukabe Rie happens to be the girl he likes. Just how is he going to survive this ordeal?",
  "language": "English",
  "images": [
    "https://img-proxy.imgfo.com/?referer=https://manganelo.com&url=https://s5.mkklcdnv6temp.com/mangakakalot/p2/princess_lucia/vol3_chapter_22_im_hot_like_my_bodys_burning/1.jpg",
    "https://img-proxy.imgfo.com/?referer=https://manganelo.com&url=https://s5.mkklcdnv6temp.com/mangakakalot/p2/princess_lucia/vol3_chapter_22_im_hot_like_my_bodys_burning/2.jpg",
    "https://img-proxy.imgfo.com/?referer=https://manganelo.com&url=https://s5.mkklcdnv6temp.com/mangakakalot/p2/princess_lucia/vol3_chapter_22_im_hot_like_my_bodys_burning/3.jpg",
    "https://img-proxy.imgfo.com/?referer=https://manganelo.com&url=https://s5.mkklcdnv6temp.com/mangakakalot/p2/princess_lucia/vol3_chapter_22_im_hot_like_my_bodys_burning/4.jpg",
    "https://img-proxy.imgfo.com/?referer=https://manganelo.com&url=https://s5.mkklcdnv6temp.com/mangakakalot/p2/princess_lucia/vol3_chapter_22_im_hot_like_my_bodys_burning/5.jpg",
    "https://img-proxy.imgfo.com/?referer=https://manganelo.com&url=https://s5.mkklcdnv6temp.com/mangakakalot/p2/princess_lucia/vol3_chapter_22_im_hot_like_my_bodys_burning/6.jpg",
    "https://img-proxy.imgfo.com/?referer=https://manganelo.com&url=https://s5.mkklcdnv6temp.com/mangakakalot/p2/princess_lucia/vol3_chapter_22_im_hot_like_my_bodys_burning/7.jpg",
    "https://img-proxy.imgfo.com/?referer=https://manganelo.com&url=https://s5.mkklcdnv6temp.com/mangakakalot/p2/princess_lucia/vol3_chapter_22_im_hot_like_my_bodys_burning/8.jpg",
    "https://img-proxy.imgfo.com/?referer=https://manganelo.com&url=https://s5.mkklcdnv6temp.com/mangakakalot/p2/princess_lucia/vol3_chapter_22_im_hot_like_my_bodys_burning/9.jpg",
    "https://img-proxy.imgfo.com/?referer=https://manganelo.com&url=https://s5.mkklcdnv6temp.com/mangakakalot/p2/princess_lucia/vol3_chapter_22_im_hot_like_my_bodys_burning/10.jpg",
    "https://img-proxy.imgfo.com/?referer=https://manganelo.com&url=https://s5.mkklcdnv6temp.com/mangakakalot/p2/princess_lucia/vol3_chapter_22_im_hot_like_my_bodys_burning/11.jpg",
    "https://img-proxy.imgfo.com/?referer=https://manganelo.com&url=https://s5.mkklcdnv6temp.com/mangakakalot/p2/princess_lucia/vol3_chapter_22_im_hot_like_my_bodys_burning/12.jpg",
    "https://img-proxy.imgfo.com/?referer=https://manganelo.com&url=https://s5.mkklcdnv6temp.com/mangakakalot/p2/princess_lucia/vol3_chapter_22_im_hot_like_my_bodys_burning/13.jpg",
    "https://img-proxy.imgfo.com/?referer=https://manganelo.com&url=https://s5.mkklcdnv6temp.com/mangakakalot/p2/princess_lucia/vol3_chapter_22_im_hot_like_my_bodys_burning/14.jpg",
    "https://img-proxy.imgfo.com/?referer=https://manganelo.com&url=https://s5.mkklcdnv6temp.com/mangakakalot/p2/princess_lucia/vol3_chapter_22_im_hot_like_my_bodys_burning/15.jpg",
    "https://img-proxy.imgfo.com/?referer=https://manganelo.com&url=https://s5.mkklcdnv6temp.com/mangakakalot/p2/princess_lucia/vol3_chapter_22_im_hot_like_my_bodys_burning/16.jpg",
    "https://img-proxy.imgfo.com/?referer=https://manganelo.com&url=https://s5.mkklcdnv6temp.com/mangakakalot/p2/princess_lucia/vol3_chapter_22_im_hot_like_my_bodys_burning/17.jpg",
    "https://img-proxy.imgfo.com/?referer=https://manganelo.com&url=https://s5.mkklcdnv6temp.com/mangakakalot/p2/princess_lucia/vol3_chapter_22_im_hot_like_my_bodys_burning/18.jpg",
    "https://img-proxy.imgfo.com/?referer=https://manganelo.com&url=https://s5.mkklcdnv6temp.com/mangakakalot/p2/princess_lucia/vol3_chapter_22_im_hot_like_my_bodys_burning/19.jpg"
  ]
}