{
  "cover": "https://avt.mkklcdnv6.com/4/a/10-1583482322.jpg",
  "title": "Yami No Koe",
  "original": "闇の声 ; Voices in the Dark",
  "genre": "Horror, Supernatural, Manga",
  "author": "Itou Junji",
  "status": "Completed",
  "backlink": "https://manganu.com/collections/itou-junji/yami-no-koe/",
  "description": "A compilation of Junji Ito&#39;s works. Story 1 - Blood-slurping Darkness A girl, after being dumped by her boyfriend, decides to loose weight to get her boyfriend back. In the end she becomes anorexic, and meets a boy who supposedly will not eat either until she does. But why is it he lost weight so fast after just introducing himself? Story 2 - The Ghost of Golden Time A boy who never laughs or smiles is invited to a comedy show by a friend. After a rather good comedy duo, still not getting a laugh out of the boy, a female duo called &quot;Twilight Pacific Peace&quot; comes on stage, whom the audience didn&#39;t really enjoy at first due to their rather poor and nonsensical jokes. But somehow, by the end of their routine, they manage to get the whole audience laughing. How is it that despite how bad they are at comedy they are capable of getting entire audiences to laugh to the point of hysterics? Story 3 - Roar Story 4 - Mystery of the Haunted House Story 5 - Glyceride Story 6 - The Earth-bound People Story 7 - The Call of the Condemned",
  "language": "English",
  "images": [
    "https://img-proxy.imgfo.com/?referer=https://manganelo.com&url=https://s7.mkklcdnv6temp.com/mangakakalot/y1/yami_no_koe/vol1_chapter_13_roar_of_ages/1.jpg",
    "https://img-proxy.imgfo.com/?referer=https://manganelo.com&url=https://s7.mkklcdnv6temp.com/mangakakalot/y1/yami_no_koe/vol1_chapter_13_roar_of_ages/2.jpg",
    "https://img-proxy.imgfo.com/?referer=https://manganelo.com&url=https://s7.mkklcdnv6temp.com/mangakakalot/y1/yami_no_koe/vol1_chapter_13_roar_of_ages/3.jpg",
    "https://img-proxy.imgfo.com/?referer=https://manganelo.com&url=https://s7.mkklcdnv6temp.com/mangakakalot/y1/yami_no_koe/vol1_chapter_13_roar_of_ages/4.jpg",
    "https://img-proxy.imgfo.com/?referer=https://manganelo.com&url=https://s7.mkklcdnv6temp.com/mangakakalot/y1/yami_no_koe/vol1_chapter_13_roar_of_ages/5.jpg",
    "https://img-proxy.imgfo.com/?referer=https://manganelo.com&url=https://s7.mkklcdnv6temp.com/mangakakalot/y1/yami_no_koe/vol1_chapter_13_roar_of_ages/6.jpg",
    "https://img-proxy.imgfo.com/?referer=https://manganelo.com&url=https://s7.mkklcdnv6temp.com/mangakakalot/y1/yami_no_koe/vol1_chapter_13_roar_of_ages/7.jpg",
    "https://img-proxy.imgfo.com/?referer=https://manganelo.com&url=https://s7.mkklcdnv6temp.com/mangakakalot/y1/yami_no_koe/vol1_chapter_13_roar_of_ages/8.jpg",
    "https://img-proxy.imgfo.com/?referer=https://manganelo.com&url=https://s7.mkklcdnv6temp.com/mangakakalot/y1/yami_no_koe/vol1_chapter_13_roar_of_ages/9.jpg",
    "https://img-proxy.imgfo.com/?referer=https://manganelo.com&url=https://s7.mkklcdnv6temp.com/mangakakalot/y1/yami_no_koe/vol1_chapter_13_roar_of_ages/10.jpg",
    "https://img-proxy.imgfo.com/?referer=https://manganelo.com&url=https://s7.mkklcdnv6temp.com/mangakakalot/y1/yami_no_koe/vol1_chapter_13_roar_of_ages/11.jpg",
    "https://img-proxy.imgfo.com/?referer=https://manganelo.com&url=https://s7.mkklcdnv6temp.com/mangakakalot/y1/yami_no_koe/vol1_chapter_13_roar_of_ages/12.jpg",
    "https://img-proxy.imgfo.com/?referer=https://manganelo.com&url=https://s7.mkklcdnv6temp.com/mangakakalot/y1/yami_no_koe/vol1_chapter_13_roar_of_ages/13.jpg",
    "https://img-proxy.imgfo.com/?referer=https://manganelo.com&url=https://s7.mkklcdnv6temp.com/mangakakalot/y1/yami_no_koe/vol1_chapter_13_roar_of_ages/14.jpg",
    "https://img-proxy.imgfo.com/?referer=https://manganelo.com&url=https://s7.mkklcdnv6temp.com/mangakakalot/y1/yami_no_koe/vol1_chapter_13_roar_of_ages/15.jpg",
    "https://img-proxy.imgfo.com/?referer=https://manganelo.com&url=https://s7.mkklcdnv6temp.com/mangakakalot/y1/yami_no_koe/vol1_chapter_13_roar_of_ages/16.jpg",
    "https://img-proxy.imgfo.com/?referer=https://manganelo.com&url=https://s7.mkklcdnv6temp.com/mangakakalot/y1/yami_no_koe/vol1_chapter_13_roar_of_ages/17.jpg",
    "https://img-proxy.imgfo.com/?referer=https://manganelo.com&url=https://s7.mkklcdnv6temp.com/mangakakalot/y1/yami_no_koe/vol1_chapter_13_roar_of_ages/18.jpg",
    "https://img-proxy.imgfo.com/?referer=https://manganelo.com&url=https://s7.mkklcdnv6temp.com/mangakakalot/y1/yami_no_koe/vol1_chapter_13_roar_of_ages/19.jpg",
    "https://img-proxy.imgfo.com/?referer=https://manganelo.com&url=https://s7.mkklcdnv6temp.com/mangakakalot/y1/yami_no_koe/vol1_chapter_13_roar_of_ages/20.jpg",
    "https://img-proxy.imgfo.com/?referer=https://manganelo.com&url=https://s7.mkklcdnv6temp.com/mangakakalot/y1/yami_no_koe/vol1_chapter_13_roar_of_ages/21.jpg",
    "https://img-proxy.imgfo.com/?referer=https://manganelo.com&url=https://s7.mkklcdnv6temp.com/mangakakalot/y1/yami_no_koe/vol1_chapter_13_roar_of_ages/22.jpg",
    "https://img-proxy.imgfo.com/?referer=https://manganelo.com&url=https://s7.mkklcdnv6temp.com/mangakakalot/y1/yami_no_koe/vol1_chapter_13_roar_of_ages/23.jpg",
    "https://img-proxy.imgfo.com/?referer=https://manganelo.com&url=https://s7.mkklcdnv6temp.com/mangakakalot/y1/yami_no_koe/vol1_chapter_13_roar_of_ages/24.jpg",
    "https://img-proxy.imgfo.com/?referer=https://manganelo.com&url=https://s7.mkklcdnv6temp.com/mangakakalot/y1/yami_no_koe/vol1_chapter_13_roar_of_ages/25.jpg",
    "https://img-proxy.imgfo.com/?referer=https://manganelo.com&url=https://s7.mkklcdnv6temp.com/mangakakalot/y1/yami_no_koe/vol1_chapter_13_roar_of_ages/26.jpg",
    "https://img-proxy.imgfo.com/?referer=https://manganelo.com&url=https://s7.mkklcdnv6temp.com/mangakakalot/y1/yami_no_koe/vol1_chapter_13_roar_of_ages/27.jpg",
    "https://img-proxy.imgfo.com/?referer=https://manganelo.com&url=https://s7.mkklcdnv6temp.com/mangakakalot/y1/yami_no_koe/vol1_chapter_13_roar_of_ages/28.jpg",
    "https://img-proxy.imgfo.com/?referer=https://manganelo.com&url=https://s7.mkklcdnv6temp.com/mangakakalot/y1/yami_no_koe/vol1_chapter_13_roar_of_ages/29.jpg",
    "https://img-proxy.imgfo.com/?referer=https://manganelo.com&url=https://s7.mkklcdnv6temp.com/mangakakalot/y1/yami_no_koe/vol1_chapter_13_roar_of_ages/30.jpg",
    "https://img-proxy.imgfo.com/?referer=https://manganelo.com&url=https://s7.mkklcdnv6temp.com/mangakakalot/y1/yami_no_koe/vol1_chapter_13_roar_of_ages/31.jpg",
    "https://img-proxy.imgfo.com/?referer=https://manganelo.com&url=https://s7.mkklcdnv6temp.com/mangakakalot/y1/yami_no_koe/vol1_chapter_13_roar_of_ages/32.jpg"
  ]
}