{
  "cover": "https://avt.mkklcdnv6.com/39/r/9-1583481718.jpg",
  "title": "Stay After Me",
  "original": "蒼のデラシネ ; 蒼(アオ)のデラシネ ; Ao no Derashine ; Blue Deracine",
  "genre": "Action, Romance, Seinen, Supernatural, Manga",
  "author": "Morita Kenji",
  "status": "Completed",
  "backlink": "https://manganu.com/collections/morita-kenji/stay-after-me/",
  "description": "Shiina Atsushi, a Japanese-American boy, lives in Japan during WWII. He comes across a Chinese girl, collapsed among the debris of a collapsed building, with a strange glowing symbol on her back. She claims she's from another world that has been destroyed. As she attempts to leave, the military arrive and demand she go with them. Who is this mysterious girl? What will young Atsushi do?\n-Please read at Entropy's website",
  "language": "English",
  "images": [
    "https://img-proxy.imgfo.com/?referer=https://manganelo.com&url=https://s41.mkklcdnv6temp.com/mangakakalot/s2/stay_after_me/vol3_chapter_23_blockhead/1.jpg",
    "https://img-proxy.imgfo.com/?referer=https://manganelo.com&url=https://s41.mkklcdnv6temp.com/mangakakalot/s2/stay_after_me/vol3_chapter_23_blockhead/2.jpg",
    "https://img-proxy.imgfo.com/?referer=https://manganelo.com&url=https://s41.mkklcdnv6temp.com/mangakakalot/s2/stay_after_me/vol3_chapter_23_blockhead/3.jpg",
    "https://img-proxy.imgfo.com/?referer=https://manganelo.com&url=https://s41.mkklcdnv6temp.com/mangakakalot/s2/stay_after_me/vol3_chapter_23_blockhead/4.jpg",
    "https://img-proxy.imgfo.com/?referer=https://manganelo.com&url=https://s41.mkklcdnv6temp.com/mangakakalot/s2/stay_after_me/vol3_chapter_23_blockhead/5.jpg",
    "https://img-proxy.imgfo.com/?referer=https://manganelo.com&url=https://s41.mkklcdnv6temp.com/mangakakalot/s2/stay_after_me/vol3_chapter_23_blockhead/6.jpg",
    "https://img-proxy.imgfo.com/?referer=https://manganelo.com&url=https://s41.mkklcdnv6temp.com/mangakakalot/s2/stay_after_me/vol3_chapter_23_blockhead/7.jpg",
    "https://img-proxy.imgfo.com/?referer=https://manganelo.com&url=https://s41.mkklcdnv6temp.com/mangakakalot/s2/stay_after_me/vol3_chapter_23_blockhead/8.jpg",
    "https://img-proxy.imgfo.com/?referer=https://manganelo.com&url=https://s41.mkklcdnv6temp.com/mangakakalot/s2/stay_after_me/vol3_chapter_23_blockhead/9.jpg",
    "https://img-proxy.imgfo.com/?referer=https://manganelo.com&url=https://s41.mkklcdnv6temp.com/mangakakalot/s2/stay_after_me/vol3_chapter_23_blockhead/10.jpg",
    "https://img-proxy.imgfo.com/?referer=https://manganelo.com&url=https://s41.mkklcdnv6temp.com/mangakakalot/s2/stay_after_me/vol3_chapter_23_blockhead/11.jpg",
    "https://img-proxy.imgfo.com/?referer=https://manganelo.com&url=https://s41.mkklcdnv6temp.com/mangakakalot/s2/stay_after_me/vol3_chapter_23_blockhead/12.jpg",
    "https://img-proxy.imgfo.com/?referer=https://manganelo.com&url=https://s41.mkklcdnv6temp.com/mangakakalot/s2/stay_after_me/vol3_chapter_23_blockhead/13.jpg",
    "https://img-proxy.imgfo.com/?referer=https://manganelo.com&url=https://s41.mkklcdnv6temp.com/mangakakalot/s2/stay_after_me/vol3_chapter_23_blockhead/14.jpg",
    "https://img-proxy.imgfo.com/?referer=https://manganelo.com&url=https://s41.mkklcdnv6temp.com/mangakakalot/s2/stay_after_me/vol3_chapter_23_blockhead/15.jpg",
    "https://img-proxy.imgfo.com/?referer=https://manganelo.com&url=https://s41.mkklcdnv6temp.com/mangakakalot/s2/stay_after_me/vol3_chapter_23_blockhead/16.jpg",
    "https://img-proxy.imgfo.com/?referer=https://manganelo.com&url=https://s41.mkklcdnv6temp.com/mangakakalot/s2/stay_after_me/vol3_chapter_23_blockhead/17.jpg",
    "https://img-proxy.imgfo.com/?referer=https://manganelo.com&url=https://s41.mkklcdnv6temp.com/mangakakalot/s2/stay_after_me/vol3_chapter_23_blockhead/18.jpg"
  ]
}