{
  "cover": "https://avt.mkklcdnv6.com/10/o/7-1583476690.jpg",
  "title": "1999 Shanghai",
  "original": "1999 年七の月～上海 ; 1999 July in Shanghai ; 1999 Nen no Shichigatsu ; 1999上海夜未眠 ; 1999-nen Shichi no Gatsu - Shanghai ; 1999nen 7 no Tsuki Shanghai ; July 1999 - Shanghai ; The Seventh Month in 1999 - Shanghai",
  "genre": "Action, Drama, Romance, Tragedy, Yaoi, Manga",
  "author": "Mizushiro Setona",
  "status": "Completed",
  "backlink": "https://manganu.com/collections/mizushiro-setona/1999-shanghai/",
  "description": "From Beautiful-Soup:\n\"1999\" is an angsty and widely varied series about a bunch of teenagers. One of them is the son of a drug lord and so as you can imagine, all sorts of shit goes down, surrounded by a backdrop of convoluted and fluctuating interpersonal relationships.\nThis a plot heavy manga with some mildly-explicit sexual activity.",
  "language": "English",
  "images": [
    "https://img-proxy.imgfo.com/?referer=https://manganelo.com&url=https://s6.mkklcdnv6temp.com/mangakakalot/02/1999_shanghai/vol2_chapter_2/1.jpg",
    "https://img-proxy.imgfo.com/?referer=https://manganelo.com&url=https://s6.mkklcdnv6temp.com/mangakakalot/02/1999_shanghai/vol2_chapter_2/2.jpg",
    "https://img-proxy.imgfo.com/?referer=https://manganelo.com&url=https://s6.mkklcdnv6temp.com/mangakakalot/02/1999_shanghai/vol2_chapter_2/3.jpg",
    "https://img-proxy.imgfo.com/?referer=https://manganelo.com&url=https://s6.mkklcdnv6temp.com/mangakakalot/02/1999_shanghai/vol2_chapter_2/4.jpg",
    "https://img-proxy.imgfo.com/?referer=https://manganelo.com&url=https://s6.mkklcdnv6temp.com/mangakakalot/02/1999_shanghai/vol2_chapter_2/5.jpg",
    "https://img-proxy.imgfo.com/?referer=https://manganelo.com&url=https://s6.mkklcdnv6temp.com/mangakakalot/02/1999_shanghai/vol2_chapter_2/6.jpg",
    "https://img-proxy.imgfo.com/?referer=https://manganelo.com&url=https://s6.mkklcdnv6temp.com/mangakakalot/02/1999_shanghai/vol2_chapter_2/7.jpg",
    "https://img-proxy.imgfo.com/?referer=https://manganelo.com&url=https://s6.mkklcdnv6temp.com/mangakakalot/02/1999_shanghai/vol2_chapter_2/8.jpg",
    "https://img-proxy.imgfo.com/?referer=https://manganelo.com&url=https://s6.mkklcdnv6temp.com/mangakakalot/02/1999_shanghai/vol2_chapter_2/9.jpg",
    "https://img-proxy.imgfo.com/?referer=https://manganelo.com&url=https://s6.mkklcdnv6temp.com/mangakakalot/02/1999_shanghai/vol2_chapter_2/10.jpg",
    "https://img-proxy.imgfo.com/?referer=https://manganelo.com&url=https://s6.mkklcdnv6temp.com/mangakakalot/02/1999_shanghai/vol2_chapter_2/11.jpg",
    "https://img-proxy.imgfo.com/?referer=https://manganelo.com&url=https://s6.mkklcdnv6temp.com/mangakakalot/02/1999_shanghai/vol2_chapter_2/12.jpg",
    "https://img-proxy.imgfo.com/?referer=https://manganelo.com&url=https://s6.mkklcdnv6temp.com/mangakakalot/02/1999_shanghai/vol2_chapter_2/13.jpg",
    "https://img-proxy.imgfo.com/?referer=https://manganelo.com&url=https://s6.mkklcdnv6temp.com/mangakakalot/02/1999_shanghai/vol2_chapter_2/14.jpg",
    "https://img-proxy.imgfo.com/?referer=https://manganelo.com&url=https://s6.mkklcdnv6temp.com/mangakakalot/02/1999_shanghai/vol2_chapter_2/15.jpg",
    "https://img-proxy.imgfo.com/?referer=https://manganelo.com&url=https://s6.mkklcdnv6temp.com/mangakakalot/02/1999_shanghai/vol2_chapter_2/16.jpg",
    "https://img-proxy.imgfo.com/?referer=https://manganelo.com&url=https://s6.mkklcdnv6temp.com/mangakakalot/02/1999_shanghai/vol2_chapter_2/17.jpg",
    "https://img-proxy.imgfo.com/?referer=https://manganelo.com&url=https://s6.mkklcdnv6temp.com/mangakakalot/02/1999_shanghai/vol2_chapter_2/18.jpg",
    "https://img-proxy.imgfo.com/?referer=https://manganelo.com&url=https://s6.mkklcdnv6temp.com/mangakakalot/02/1999_shanghai/vol2_chapter_2/19.jpg",
    "https://img-proxy.imgfo.com/?referer=https://manganelo.com&url=https://s6.mkklcdnv6temp.com/mangakakalot/02/1999_shanghai/vol2_chapter_2/20.jpg",
    "https://img-proxy.imgfo.com/?referer=https://manganelo.com&url=https://s6.mkklcdnv6temp.com/mangakakalot/02/1999_shanghai/vol2_chapter_2/21.jpg",
    "https://img-proxy.imgfo.com/?referer=https://manganelo.com&url=https://s6.mkklcdnv6temp.com/mangakakalot/02/1999_shanghai/vol2_chapter_2/22.jpg",
    "https://img-proxy.imgfo.com/?referer=https://manganelo.com&url=https://s6.mkklcdnv6temp.com/mangakakalot/02/1999_shanghai/vol2_chapter_2/23.jpg",
    "https://img-proxy.imgfo.com/?referer=https://manganelo.com&url=https://s6.mkklcdnv6temp.com/mangakakalot/02/1999_shanghai/vol2_chapter_2/24.jpg",
    "https://img-proxy.imgfo.com/?referer=https://manganelo.com&url=https://s6.mkklcdnv6temp.com/mangakakalot/02/1999_shanghai/vol2_chapter_2/25.jpg",
    "https://img-proxy.imgfo.com/?referer=https://manganelo.com&url=https://s6.mkklcdnv6temp.com/mangakakalot/02/1999_shanghai/vol2_chapter_2/26.jpg",
    "https://img-proxy.imgfo.com/?referer=https://manganelo.com&url=https://s6.mkklcdnv6temp.com/mangakakalot/02/1999_shanghai/vol2_chapter_2/27.jpg",
    "https://img-proxy.imgfo.com/?referer=https://manganelo.com&url=https://s6.mkklcdnv6temp.com/mangakakalot/02/1999_shanghai/vol2_chapter_2/28.jpg",
    "https://img-proxy.imgfo.com/?referer=https://manganelo.com&url=https://s6.mkklcdnv6temp.com/mangakakalot/02/1999_shanghai/vol2_chapter_2/29.jpg",
    "https://img-proxy.imgfo.com/?referer=https://manganelo.com&url=https://s6.mkklcdnv6temp.com/mangakakalot/02/1999_shanghai/vol2_chapter_2/30.jpg",
    "https://img-proxy.imgfo.com/?referer=https://manganelo.com&url=https://s6.mkklcdnv6temp.com/mangakakalot/02/1999_shanghai/vol2_chapter_2/31.jpg",
    "https://img-proxy.imgfo.com/?referer=https://manganelo.com&url=https://s6.mkklcdnv6temp.com/mangakakalot/02/1999_shanghai/vol2_chapter_2/32.jpg",
    "https://img-proxy.imgfo.com/?referer=https://manganelo.com&url=https://s6.mkklcdnv6temp.com/mangakakalot/02/1999_shanghai/vol2_chapter_2/33.jpg",
    "https://img-proxy.imgfo.com/?referer=https://manganelo.com&url=https://s6.mkklcdnv6temp.com/mangakakalot/02/1999_shanghai/vol2_chapter_2/34.jpg",
    "https://img-proxy.imgfo.com/?referer=https://manganelo.com&url=https://s6.mkklcdnv6temp.com/mangakakalot/02/1999_shanghai/vol2_chapter_2/35.jpg",
    "https://img-proxy.imgfo.com/?referer=https://manganelo.com&url=https://s6.mkklcdnv6temp.com/mangakakalot/02/1999_shanghai/vol2_chapter_2/36.jpg",
    "https://img-proxy.imgfo.com/?referer=https://manganelo.com&url=https://s6.mkklcdnv6temp.com/mangakakalot/02/1999_shanghai/vol2_chapter_2/37.jpg",
    "https://img-proxy.imgfo.com/?referer=https://manganelo.com&url=https://s6.mkklcdnv6temp.com/mangakakalot/02/1999_shanghai/vol2_chapter_2/38.jpg",
    "https://img-proxy.imgfo.com/?referer=https://manganelo.com&url=https://s6.mkklcdnv6temp.com/mangakakalot/02/1999_shanghai/vol2_chapter_2/39.jpg",
    "https://img-proxy.imgfo.com/?referer=https://manganelo.com&url=https://s6.mkklcdnv6temp.com/mangakakalot/02/1999_shanghai/vol2_chapter_2/40.jpg",
    "https://img-proxy.imgfo.com/?referer=https://manganelo.com&url=https://s6.mkklcdnv6temp.com/mangakakalot/02/1999_shanghai/vol2_chapter_2/41.jpg",
    "https://img-proxy.imgfo.com/?referer=https://manganelo.com&url=https://s6.mkklcdnv6temp.com/mangakakalot/02/1999_shanghai/vol2_chapter_2/42.jpg",
    "https://img-proxy.imgfo.com/?referer=https://manganelo.com&url=https://s6.mkklcdnv6temp.com/mangakakalot/02/1999_shanghai/vol2_chapter_2/43.jpg",
    "https://img-proxy.imgfo.com/?referer=https://manganelo.com&url=https://s6.mkklcdnv6temp.com/mangakakalot/02/1999_shanghai/vol2_chapter_2/44.jpg",
    "https://img-proxy.imgfo.com/?referer=https://manganelo.com&url=https://s6.mkklcdnv6temp.com/mangakakalot/02/1999_shanghai/vol2_chapter_2/45.jpg",
    "https://img-proxy.imgfo.com/?referer=https://manganelo.com&url=https://s6.mkklcdnv6temp.com/mangakakalot/02/1999_shanghai/vol2_chapter_2/46.jpg",
    "https://img-proxy.imgfo.com/?referer=https://manganelo.com&url=https://s6.mkklcdnv6temp.com/mangakakalot/02/1999_shanghai/vol2_chapter_2/47.jpg",
    "https://img-proxy.imgfo.com/?referer=https://manganelo.com&url=https://s6.mkklcdnv6temp.com/mangakakalot/02/1999_shanghai/vol2_chapter_2/48.jpg"
  ]
}