{
  "cover": "https://avt.mkklcdnv6.com/2/n/5-1583471923.jpg",
  "title": "Tsubame Syndrome",
  "original": "ツバメしんどろ〜む ; 心跳症候群 ; Tubame Syndrome ; สึบาเมะ ซินดรอม (Thai)",
  "genre": "Comedy, Ecchi, Harem, Romance, Sci fi, Shounen, Manga",
  "author": "Akane Kotetsu",
  "status": "Completed",
  "backlink": "https://manganu.com/collections/akane-kotetsu/tsubame-syndrome/",
  "description": "The story revolves around Taiga who doesn't have memories from more than two years ago after his parents died in an accident. He lives with his sister, Tsubame, who he finds out is from outer space with the job of protecting him as he posses the Origin Heart.",
  "language": "English",
  "images": [
    "https://img-proxy.imgfo.com/?referer=https://manganelo.com&url=https://s7.mkklcdnv6temp.com/mangakakalot/t2/tsubame_syndrome/vol6_chapter_23_desired_affection_disagreeing_people/1.jpg",
    "https://img-proxy.imgfo.com/?referer=https://manganelo.com&url=https://s7.mkklcdnv6temp.com/mangakakalot/t2/tsubame_syndrome/vol6_chapter_23_desired_affection_disagreeing_people/2.jpg",
    "https://img-proxy.imgfo.com/?referer=https://manganelo.com&url=https://s7.mkklcdnv6temp.com/mangakakalot/t2/tsubame_syndrome/vol6_chapter_23_desired_affection_disagreeing_people/3.jpg",
    "https://img-proxy.imgfo.com/?referer=https://manganelo.com&url=https://s7.mkklcdnv6temp.com/mangakakalot/t2/tsubame_syndrome/vol6_chapter_23_desired_affection_disagreeing_people/4.jpg",
    "https://img-proxy.imgfo.com/?referer=https://manganelo.com&url=https://s7.mkklcdnv6temp.com/mangakakalot/t2/tsubame_syndrome/vol6_chapter_23_desired_affection_disagreeing_people/5.jpg",
    "https://img-proxy.imgfo.com/?referer=https://manganelo.com&url=https://s7.mkklcdnv6temp.com/mangakakalot/t2/tsubame_syndrome/vol6_chapter_23_desired_affection_disagreeing_people/6.jpg",
    "https://img-proxy.imgfo.com/?referer=https://manganelo.com&url=https://s7.mkklcdnv6temp.com/mangakakalot/t2/tsubame_syndrome/vol6_chapter_23_desired_affection_disagreeing_people/7.jpg",
    "https://img-proxy.imgfo.com/?referer=https://manganelo.com&url=https://s7.mkklcdnv6temp.com/mangakakalot/t2/tsubame_syndrome/vol6_chapter_23_desired_affection_disagreeing_people/8.jpg",
    "https://img-proxy.imgfo.com/?referer=https://manganelo.com&url=https://s7.mkklcdnv6temp.com/mangakakalot/t2/tsubame_syndrome/vol6_chapter_23_desired_affection_disagreeing_people/9.jpg",
    "https://img-proxy.imgfo.com/?referer=https://manganelo.com&url=https://s7.mkklcdnv6temp.com/mangakakalot/t2/tsubame_syndrome/vol6_chapter_23_desired_affection_disagreeing_people/10.jpg",
    "https://img-proxy.imgfo.com/?referer=https://manganelo.com&url=https://s7.mkklcdnv6temp.com/mangakakalot/t2/tsubame_syndrome/vol6_chapter_23_desired_affection_disagreeing_people/11.jpg",
    "https://img-proxy.imgfo.com/?referer=https://manganelo.com&url=https://s7.mkklcdnv6temp.com/mangakakalot/t2/tsubame_syndrome/vol6_chapter_23_desired_affection_disagreeing_people/12.jpg",
    "https://img-proxy.imgfo.com/?referer=https://manganelo.com&url=https://s7.mkklcdnv6temp.com/mangakakalot/t2/tsubame_syndrome/vol6_chapter_23_desired_affection_disagreeing_people/13.jpg",
    "https://img-proxy.imgfo.com/?referer=https://manganelo.com&url=https://s7.mkklcdnv6temp.com/mangakakalot/t2/tsubame_syndrome/vol6_chapter_23_desired_affection_disagreeing_people/14.jpg",
    "https://img-proxy.imgfo.com/?referer=https://manganelo.com&url=https://s7.mkklcdnv6temp.com/mangakakalot/t2/tsubame_syndrome/vol6_chapter_23_desired_affection_disagreeing_people/15.jpg",
    "https://img-proxy.imgfo.com/?referer=https://manganelo.com&url=https://s7.mkklcdnv6temp.com/mangakakalot/t2/tsubame_syndrome/vol6_chapter_23_desired_affection_disagreeing_people/16.jpg",
    "https://img-proxy.imgfo.com/?referer=https://manganelo.com&url=https://s7.mkklcdnv6temp.com/mangakakalot/t2/tsubame_syndrome/vol6_chapter_23_desired_affection_disagreeing_people/17.jpg",
    "https://img-proxy.imgfo.com/?referer=https://manganelo.com&url=https://s7.mkklcdnv6temp.com/mangakakalot/t2/tsubame_syndrome/vol6_chapter_23_desired_affection_disagreeing_people/18.jpg",
    "https://img-proxy.imgfo.com/?referer=https://manganelo.com&url=https://s7.mkklcdnv6temp.com/mangakakalot/t2/tsubame_syndrome/vol6_chapter_23_desired_affection_disagreeing_people/19.jpg",
    "https://img-proxy.imgfo.com/?referer=https://manganelo.com&url=https://s7.mkklcdnv6temp.com/mangakakalot/t2/tsubame_syndrome/vol6_chapter_23_desired_affection_disagreeing_people/20.jpg",
    "https://img-proxy.imgfo.com/?referer=https://manganelo.com&url=https://s7.mkklcdnv6temp.com/mangakakalot/t2/tsubame_syndrome/vol6_chapter_23_desired_affection_disagreeing_people/21.jpg",
    "https://img-proxy.imgfo.com/?referer=https://manganelo.com&url=https://s7.mkklcdnv6temp.com/mangakakalot/t2/tsubame_syndrome/vol6_chapter_23_desired_affection_disagreeing_people/22.jpg",
    "https://img-proxy.imgfo.com/?referer=https://manganelo.com&url=https://s7.mkklcdnv6temp.com/mangakakalot/t2/tsubame_syndrome/vol6_chapter_23_desired_affection_disagreeing_people/23.jpg",
    "https://img-proxy.imgfo.com/?referer=https://manganelo.com&url=https://s7.mkklcdnv6temp.com/mangakakalot/t2/tsubame_syndrome/vol6_chapter_23_desired_affection_disagreeing_people/24.jpg",
    "https://img-proxy.imgfo.com/?referer=https://manganelo.com&url=https://s7.mkklcdnv6temp.com/mangakakalot/t2/tsubame_syndrome/vol6_chapter_23_desired_affection_disagreeing_people/25.jpg",
    "https://img-proxy.imgfo.com/?referer=https://manganelo.com&url=https://s7.mkklcdnv6temp.com/mangakakalot/t2/tsubame_syndrome/vol6_chapter_23_desired_affection_disagreeing_people/26.jpg",
    "https://img-proxy.imgfo.com/?referer=https://manganelo.com&url=https://s7.mkklcdnv6temp.com/mangakakalot/t2/tsubame_syndrome/vol6_chapter_23_desired_affection_disagreeing_people/27.jpg",
    "https://img-proxy.imgfo.com/?referer=https://manganelo.com&url=https://s7.mkklcdnv6temp.com/mangakakalot/t2/tsubame_syndrome/vol6_chapter_23_desired_affection_disagreeing_people/28.jpg",
    "https://img-proxy.imgfo.com/?referer=https://manganelo.com&url=https://s7.mkklcdnv6temp.com/mangakakalot/t2/tsubame_syndrome/vol6_chapter_23_desired_affection_disagreeing_people/29.jpg",
    "https://img-proxy.imgfo.com/?referer=https://manganelo.com&url=https://s7.mkklcdnv6temp.com/mangakakalot/t2/tsubame_syndrome/vol6_chapter_23_desired_affection_disagreeing_people/30.jpg"
  ]
}