{
  "cover": "https://avt.mkklcdnv6.com/1/r/9-1583482238.jpg",
  "title": "Yume No Soko",
  "original": "ゆめの底",
  "genre": "Drama, Seinen, Supernatural, Manga",
  "author": "Iwaoka Hisae",
  "status": "Completed",
  "backlink": "https://manganu.com/collections/iwaoka-hisae/yume-no-soko/",
  "description": "A girl falls into a coma and finds herself at an odd convenience store managed by a talking furry creature. In the land where dreams are made, on the brink of life and death, the girl watches and learns from the whimsical creatures she comes across.",
  "language": "English",
  "images": [
    "https://img-proxy.imgfo.com/?referer=https://manganelo.com&url=https://s3.mkklcdnv6temp.com/mangakakalot/y2/yume_no_soko/vol1_chapter_11_extra_afterword_end/1.jpg",
    "https://img-proxy.imgfo.com/?referer=https://manganelo.com&url=https://s3.mkklcdnv6temp.com/mangakakalot/y2/yume_no_soko/vol1_chapter_11_extra_afterword_end/2.jpg",
    "https://img-proxy.imgfo.com/?referer=https://manganelo.com&url=https://s3.mkklcdnv6temp.com/mangakakalot/y2/yume_no_soko/vol1_chapter_11_extra_afterword_end/3.jpg",
    "https://img-proxy.imgfo.com/?referer=https://manganelo.com&url=https://s3.mkklcdnv6temp.com/mangakakalot/y2/yume_no_soko/vol1_chapter_11_extra_afterword_end/4.jpg",
    "https://img-proxy.imgfo.com/?referer=https://manganelo.com&url=https://s3.mkklcdnv6temp.com/mangakakalot/y2/yume_no_soko/vol1_chapter_11_extra_afterword_end/5.jpg",
    "https://img-proxy.imgfo.com/?referer=https://manganelo.com&url=https://s3.mkklcdnv6temp.com/mangakakalot/y2/yume_no_soko/vol1_chapter_11_extra_afterword_end/6.jpg",
    "https://img-proxy.imgfo.com/?referer=https://manganelo.com&url=https://s3.mkklcdnv6temp.com/mangakakalot/y2/yume_no_soko/vol1_chapter_11_extra_afterword_end/7.jpg",
    "https://img-proxy.imgfo.com/?referer=https://manganelo.com&url=https://s3.mkklcdnv6temp.com/mangakakalot/y2/yume_no_soko/vol1_chapter_11_extra_afterword_end/8.jpg",
    "https://img-proxy.imgfo.com/?referer=https://manganelo.com&url=https://s3.mkklcdnv6temp.com/mangakakalot/y2/yume_no_soko/vol1_chapter_11_extra_afterword_end/9.jpg",
    "https://img-proxy.imgfo.com/?referer=https://manganelo.com&url=https://s3.mkklcdnv6temp.com/mangakakalot/y2/yume_no_soko/vol1_chapter_11_extra_afterword_end/10.jpg"
  ]
}