{
  "cover": "https://avt.mkklcdnv6.com/30/p/5-1583473042.jpg",
  "title": "Ragnarok: Into The Abyss",
  "original": "라그나로크 ; Ragnarök: Into the Abyss ; Ragnarok (LEE Myung-Jin)",
  "genre": "Action, Adventure, Comedy, Drama, Ecchi, Fantasy, Shounen, Supernatural, Manga",
  "author": "Lee Myung-Jin",
  "status": "Completed",
  "backlink": "https://manganu.com/collections/lee-myung-jin/ragnarok-into-the-abyss/",
  "description": "Based loosely on norse mythology, Ragnarök is the term for the \"Twilight of the Gods\" the final destruction of the world. Christian equivalence would be Final Judgment.\nAfter 1000 years of peace, the wolf god Fenris Fenrir has been reborn. She seeks to find the reincarnation of Balder, the most beloved God, as the land of Midgard sinks further into anarchy. They are both key players in the coming of Ragnarok, the time when fate and free-will shall come into conflict as the very nature of the universe is forever redefined.\nThe story begins with the reborn wolf god Fenris Fenrir in the form of a warlock. She is searching for the main character Chaos, a swordsman suffering from amnesia and possessing skills of a Dragon Knight who happens to be the incarnation of her love, Baldur. The story follows the journey of Fenris, Chaos, Iris (a cleric who is Chaos' friend), and Loki (one of the top assassins in Midgard), who are pursued by the Valkyries, lead by the war goddess, Freya.",
  "language": "English",
  "images": [
    "https://img-proxy.imgfo.com/?referer=https://manganelo.com&url=https://s7.mkklcdnv6temp.com/mangakakalot/r1/ragnarok_into_the_abyss/vol9_chapter_89/1.jpg",
    "https://img-proxy.imgfo.com/?referer=https://manganelo.com&url=https://s7.mkklcdnv6temp.com/mangakakalot/r1/ragnarok_into_the_abyss/vol9_chapter_89/2.jpg",
    "https://img-proxy.imgfo.com/?referer=https://manganelo.com&url=https://s7.mkklcdnv6temp.com/mangakakalot/r1/ragnarok_into_the_abyss/vol9_chapter_89/3.jpg",
    "https://img-proxy.imgfo.com/?referer=https://manganelo.com&url=https://s7.mkklcdnv6temp.com/mangakakalot/r1/ragnarok_into_the_abyss/vol9_chapter_89/4.jpg",
    "https://img-proxy.imgfo.com/?referer=https://manganelo.com&url=https://s7.mkklcdnv6temp.com/mangakakalot/r1/ragnarok_into_the_abyss/vol9_chapter_89/5.jpg",
    "https://img-proxy.imgfo.com/?referer=https://manganelo.com&url=https://s7.mkklcdnv6temp.com/mangakakalot/r1/ragnarok_into_the_abyss/vol9_chapter_89/6.jpg",
    "https://img-proxy.imgfo.com/?referer=https://manganelo.com&url=https://s7.mkklcdnv6temp.com/mangakakalot/r1/ragnarok_into_the_abyss/vol9_chapter_89/7.jpg",
    "https://img-proxy.imgfo.com/?referer=https://manganelo.com&url=https://s7.mkklcdnv6temp.com/mangakakalot/r1/ragnarok_into_the_abyss/vol9_chapter_89/8.jpg"
  ]
}