{
  "cover": "https://avt.mkklcdnv6.com/32/n/10-1583483345.jpg",
  "title": "Octave",
  "original": "オクターヴ ; 八度音",
  "genre": "Drama, Romance, Seinen, Slice of life, Yuri, Manga",
  "author": "Akiyama Haru",
  "status": "Completed",
  "backlink": "https://manganu.com/collections/akiyama-haru/octave/",
  "description": "“Ever since I was a little girl, I’ve been infatuated with the “other side”; the world of splendor. Yes, I wanted to become one of those glittering stars. And so, my dream has come true. But now…All I want is to be beloved by someone.”\nWhen she was young, Yukino Miyashita wanted, more than anything else, to become an idol. However, after accomplishing her dream, the idol group she was part of failed to sell, and she returned to school, facing alienation from her peers. Now, at age 18, Yukino is living alone in Tokyo, half-heartedly trying to start a new life as a talent manager, while not quite able to put her idol days behind her. She meets Setsuko, a songwriter who also once belonged to a failed idol group. The romance, sparked by her encounter with Setsuko, causes Yukino to re-evaluate her own life.\nFrom: Tranquil Spring",
  "language": "English",
  "images": [
    "https://img-proxy.imgfo.com/?referer=https://manganelo.com&url=https://s7.mkklcdnv6temp.com/mangakakalot/o1/octave/vol6_chapter_32_wave/1.jpg",
    "https://img-proxy.imgfo.com/?referer=https://manganelo.com&url=https://s7.mkklcdnv6temp.com/mangakakalot/o1/octave/vol6_chapter_32_wave/2.jpg",
    "https://img-proxy.imgfo.com/?referer=https://manganelo.com&url=https://s7.mkklcdnv6temp.com/mangakakalot/o1/octave/vol6_chapter_32_wave/3.jpg",
    "https://img-proxy.imgfo.com/?referer=https://manganelo.com&url=https://s7.mkklcdnv6temp.com/mangakakalot/o1/octave/vol6_chapter_32_wave/4.jpg",
    "https://img-proxy.imgfo.com/?referer=https://manganelo.com&url=https://s7.mkklcdnv6temp.com/mangakakalot/o1/octave/vol6_chapter_32_wave/5.jpg",
    "https://img-proxy.imgfo.com/?referer=https://manganelo.com&url=https://s7.mkklcdnv6temp.com/mangakakalot/o1/octave/vol6_chapter_32_wave/6.jpg",
    "https://img-proxy.imgfo.com/?referer=https://manganelo.com&url=https://s7.mkklcdnv6temp.com/mangakakalot/o1/octave/vol6_chapter_32_wave/7.jpg",
    "https://img-proxy.imgfo.com/?referer=https://manganelo.com&url=https://s7.mkklcdnv6temp.com/mangakakalot/o1/octave/vol6_chapter_32_wave/8.jpg",
    "https://img-proxy.imgfo.com/?referer=https://manganelo.com&url=https://s7.mkklcdnv6temp.com/mangakakalot/o1/octave/vol6_chapter_32_wave/9.jpg",
    "https://img-proxy.imgfo.com/?referer=https://manganelo.com&url=https://s7.mkklcdnv6temp.com/mangakakalot/o1/octave/vol6_chapter_32_wave/10.jpg",
    "https://img-proxy.imgfo.com/?referer=https://manganelo.com&url=https://s7.mkklcdnv6temp.com/mangakakalot/o1/octave/vol6_chapter_32_wave/11.jpg",
    "https://img-proxy.imgfo.com/?referer=https://manganelo.com&url=https://s7.mkklcdnv6temp.com/mangakakalot/o1/octave/vol6_chapter_32_wave/12.jpg",
    "https://img-proxy.imgfo.com/?referer=https://manganelo.com&url=https://s7.mkklcdnv6temp.com/mangakakalot/o1/octave/vol6_chapter_32_wave/13.jpg",
    "https://img-proxy.imgfo.com/?referer=https://manganelo.com&url=https://s7.mkklcdnv6temp.com/mangakakalot/o1/octave/vol6_chapter_32_wave/14.jpg",
    "https://img-proxy.imgfo.com/?referer=https://manganelo.com&url=https://s7.mkklcdnv6temp.com/mangakakalot/o1/octave/vol6_chapter_32_wave/15.jpg",
    "https://img-proxy.imgfo.com/?referer=https://manganelo.com&url=https://s7.mkklcdnv6temp.com/mangakakalot/o1/octave/vol6_chapter_32_wave/16.jpg",
    "https://img-proxy.imgfo.com/?referer=https://manganelo.com&url=https://s7.mkklcdnv6temp.com/mangakakalot/o1/octave/vol6_chapter_32_wave/17.jpg",
    "https://img-proxy.imgfo.com/?referer=https://manganelo.com&url=https://s7.mkklcdnv6temp.com/mangakakalot/o1/octave/vol6_chapter_32_wave/18.jpg",
    "https://img-proxy.imgfo.com/?referer=https://manganelo.com&url=https://s7.mkklcdnv6temp.com/mangakakalot/o1/octave/vol6_chapter_32_wave/19.jpg",
    "https://img-proxy.imgfo.com/?referer=https://manganelo.com&url=https://s7.mkklcdnv6temp.com/mangakakalot/o1/octave/vol6_chapter_32_wave/20.jpg",
    "https://img-proxy.imgfo.com/?referer=https://manganelo.com&url=https://s7.mkklcdnv6temp.com/mangakakalot/o1/octave/vol6_chapter_32_wave/21.jpg",
    "https://img-proxy.imgfo.com/?referer=https://manganelo.com&url=https://s7.mkklcdnv6temp.com/mangakakalot/o1/octave/vol6_chapter_32_wave/22.jpg",
    "https://img-proxy.imgfo.com/?referer=https://manganelo.com&url=https://s7.mkklcdnv6temp.com/mangakakalot/o1/octave/vol6_chapter_32_wave/23.jpg",
    "https://img-proxy.imgfo.com/?referer=https://manganelo.com&url=https://s7.mkklcdnv6temp.com/mangakakalot/o1/octave/vol6_chapter_32_wave/24.jpg",
    "https://img-proxy.imgfo.com/?referer=https://manganelo.com&url=https://s7.mkklcdnv6temp.com/mangakakalot/o1/octave/vol6_chapter_32_wave/25.jpg",
    "https://img-proxy.imgfo.com/?referer=https://manganelo.com&url=https://s7.mkklcdnv6temp.com/mangakakalot/o1/octave/vol6_chapter_32_wave/26.jpg",
    "https://img-proxy.imgfo.com/?referer=https://manganelo.com&url=https://s7.mkklcdnv6temp.com/mangakakalot/o1/octave/vol6_chapter_32_wave/27.jpg",
    "https://img-proxy.imgfo.com/?referer=https://manganelo.com&url=https://s7.mkklcdnv6temp.com/mangakakalot/o1/octave/vol6_chapter_32_wave/28.jpg",
    "https://img-proxy.imgfo.com/?referer=https://manganelo.com&url=https://s7.mkklcdnv6temp.com/mangakakalot/o1/octave/vol6_chapter_32_wave/29.jpg",
    "https://img-proxy.imgfo.com/?referer=https://manganelo.com&url=https://s7.mkklcdnv6temp.com/mangakakalot/o1/octave/vol6_chapter_32_wave/30.jpg",
    "https://img-proxy.imgfo.com/?referer=https://manganelo.com&url=https://s7.mkklcdnv6temp.com/mangakakalot/o1/octave/vol6_chapter_32_wave/31.jpg",
    "https://img-proxy.imgfo.com/?referer=https://manganelo.com&url=https://s7.mkklcdnv6temp.com/mangakakalot/o1/octave/vol6_chapter_32_wave/32.jpg",
    "https://img-proxy.imgfo.com/?referer=https://manganelo.com&url=https://s7.mkklcdnv6temp.com/mangakakalot/o1/octave/vol6_chapter_32_wave/33.jpg",
    "https://img-proxy.imgfo.com/?referer=https://manganelo.com&url=https://s7.mkklcdnv6temp.com/mangakakalot/o1/octave/vol6_chapter_32_wave/34.jpg",
    "https://img-proxy.imgfo.com/?referer=https://manganelo.com&url=https://s7.mkklcdnv6temp.com/mangakakalot/o1/octave/vol6_chapter_32_wave/35.jpg",
    "https://img-proxy.imgfo.com/?referer=https://manganelo.com&url=https://s7.mkklcdnv6temp.com/mangakakalot/o1/octave/vol6_chapter_32_wave/36.jpg",
    "https://img-proxy.imgfo.com/?referer=https://manganelo.com&url=https://s7.mkklcdnv6temp.com/mangakakalot/o1/octave/vol6_chapter_32_wave/37.jpg",
    "https://img-proxy.imgfo.com/?referer=https://manganelo.com&url=https://s7.mkklcdnv6temp.com/mangakakalot/o1/octave/vol6_chapter_32_wave/38.jpg",
    "https://img-proxy.imgfo.com/?referer=https://manganelo.com&url=https://s7.mkklcdnv6temp.com/mangakakalot/o1/octave/vol6_chapter_32_wave/39.jpg"
  ]
}