{
  "cover": "https://avt.mkklcdnv6.com/28/q/3-1583468805.jpg",
  "title": "Kingdom Hearts Ii",
  "original": "キングダムハーツⅡ; キングダムハーツ2 (Japanese); مملكة القلوب 2 (Arabic); 王国之心2 (Chinese); KH:2; Kingdom Hearts 2 (English)",
  "genre": "Action, Adventure, Comedy, Drama, Fantasy, Mystery, Shounen, Manga",
  "author": "Nomura Tetsuya",
  "status": "Completed",
  "backlink": "https://manganu.com/collections/nomura-tetsuya/kingdom-hearts-ii/",
  "description": "From Yen Press: A young boy named Roxas whiles away the last days of his summer vacation with his three best friends in their quiet little home of Twilight Town. But all is not as it should be in this hamlet nestled between night and day. Strange things keep happening around Roxas, which always seem to involve mysterious creatures and he is plagued by dreams of a boy named Sora, whom he has never met. Bewildered, Roxas searches for answers. Will they lead him to Sora, Donald and Goofy?",
  "language": "English",
  "images": [
    "https://img-proxy.imgfo.com/?referer=https://manganelo.com&url=https://s3.mkklcdnv6temp.com/mangakakalot/k1/kingdom_hearts_ii/vol6_chapter_40_space_paranoids/1.jpg",
    "https://img-proxy.imgfo.com/?referer=https://manganelo.com&url=https://s3.mkklcdnv6temp.com/mangakakalot/k1/kingdom_hearts_ii/vol6_chapter_40_space_paranoids/2.jpg",
    "https://img-proxy.imgfo.com/?referer=https://manganelo.com&url=https://s3.mkklcdnv6temp.com/mangakakalot/k1/kingdom_hearts_ii/vol6_chapter_40_space_paranoids/3.jpg",
    "https://img-proxy.imgfo.com/?referer=https://manganelo.com&url=https://s3.mkklcdnv6temp.com/mangakakalot/k1/kingdom_hearts_ii/vol6_chapter_40_space_paranoids/4.jpg",
    "https://img-proxy.imgfo.com/?referer=https://manganelo.com&url=https://s3.mkklcdnv6temp.com/mangakakalot/k1/kingdom_hearts_ii/vol6_chapter_40_space_paranoids/5.jpg",
    "https://img-proxy.imgfo.com/?referer=https://manganelo.com&url=https://s3.mkklcdnv6temp.com/mangakakalot/k1/kingdom_hearts_ii/vol6_chapter_40_space_paranoids/6.jpg",
    "https://img-proxy.imgfo.com/?referer=https://manganelo.com&url=https://s3.mkklcdnv6temp.com/mangakakalot/k1/kingdom_hearts_ii/vol6_chapter_40_space_paranoids/7.jpg",
    "https://img-proxy.imgfo.com/?referer=https://manganelo.com&url=https://s3.mkklcdnv6temp.com/mangakakalot/k1/kingdom_hearts_ii/vol6_chapter_40_space_paranoids/8.jpg",
    "https://img-proxy.imgfo.com/?referer=https://manganelo.com&url=https://s3.mkklcdnv6temp.com/mangakakalot/k1/kingdom_hearts_ii/vol6_chapter_40_space_paranoids/9.jpg",
    "https://img-proxy.imgfo.com/?referer=https://manganelo.com&url=https://s3.mkklcdnv6temp.com/mangakakalot/k1/kingdom_hearts_ii/vol6_chapter_40_space_paranoids/10.jpg",
    "https://img-proxy.imgfo.com/?referer=https://manganelo.com&url=https://s3.mkklcdnv6temp.com/mangakakalot/k1/kingdom_hearts_ii/vol6_chapter_40_space_paranoids/11.jpg",
    "https://img-proxy.imgfo.com/?referer=https://manganelo.com&url=https://s3.mkklcdnv6temp.com/mangakakalot/k1/kingdom_hearts_ii/vol6_chapter_40_space_paranoids/12.jpg",
    "https://img-proxy.imgfo.com/?referer=https://manganelo.com&url=https://s3.mkklcdnv6temp.com/mangakakalot/k1/kingdom_hearts_ii/vol6_chapter_40_space_paranoids/13.jpg",
    "https://img-proxy.imgfo.com/?referer=https://manganelo.com&url=https://s3.mkklcdnv6temp.com/mangakakalot/k1/kingdom_hearts_ii/vol6_chapter_40_space_paranoids/14.jpg",
    "https://img-proxy.imgfo.com/?referer=https://manganelo.com&url=https://s3.mkklcdnv6temp.com/mangakakalot/k1/kingdom_hearts_ii/vol6_chapter_40_space_paranoids/15.jpg",
    "https://img-proxy.imgfo.com/?referer=https://manganelo.com&url=https://s3.mkklcdnv6temp.com/mangakakalot/k1/kingdom_hearts_ii/vol6_chapter_40_space_paranoids/16.jpg",
    "https://img-proxy.imgfo.com/?referer=https://manganelo.com&url=https://s3.mkklcdnv6temp.com/mangakakalot/k1/kingdom_hearts_ii/vol6_chapter_40_space_paranoids/17.jpg",
    "https://img-proxy.imgfo.com/?referer=https://manganelo.com&url=https://s3.mkklcdnv6temp.com/mangakakalot/k1/kingdom_hearts_ii/vol6_chapter_40_space_paranoids/18.jpg",
    "https://img-proxy.imgfo.com/?referer=https://manganelo.com&url=https://s3.mkklcdnv6temp.com/mangakakalot/k1/kingdom_hearts_ii/vol6_chapter_40_space_paranoids/19.jpg",
    "https://img-proxy.imgfo.com/?referer=https://manganelo.com&url=https://s3.mkklcdnv6temp.com/mangakakalot/k1/kingdom_hearts_ii/vol6_chapter_40_space_paranoids/20.jpg",
    "https://img-proxy.imgfo.com/?referer=https://manganelo.com&url=https://s3.mkklcdnv6temp.com/mangakakalot/k1/kingdom_hearts_ii/vol6_chapter_40_space_paranoids/21.jpg",
    "https://img-proxy.imgfo.com/?referer=https://manganelo.com&url=https://s3.mkklcdnv6temp.com/mangakakalot/k1/kingdom_hearts_ii/vol6_chapter_40_space_paranoids/22.jpg",
    "https://img-proxy.imgfo.com/?referer=https://manganelo.com&url=https://s3.mkklcdnv6temp.com/mangakakalot/k1/kingdom_hearts_ii/vol6_chapter_40_space_paranoids/23.jpg",
    "https://img-proxy.imgfo.com/?referer=https://manganelo.com&url=https://s3.mkklcdnv6temp.com/mangakakalot/k1/kingdom_hearts_ii/vol6_chapter_40_space_paranoids/24.jpg",
    "https://img-proxy.imgfo.com/?referer=https://manganelo.com&url=https://s3.mkklcdnv6temp.com/mangakakalot/k1/kingdom_hearts_ii/vol6_chapter_40_space_paranoids/25.jpg",
    "https://img-proxy.imgfo.com/?referer=https://manganelo.com&url=https://s3.mkklcdnv6temp.com/mangakakalot/k1/kingdom_hearts_ii/vol6_chapter_40_space_paranoids/26.jpg",
    "https://img-proxy.imgfo.com/?referer=https://manganelo.com&url=https://s3.mkklcdnv6temp.com/mangakakalot/k1/kingdom_hearts_ii/vol6_chapter_40_space_paranoids/27.jpg",
    "https://img-proxy.imgfo.com/?referer=https://manganelo.com&url=https://s3.mkklcdnv6temp.com/mangakakalot/k1/kingdom_hearts_ii/vol6_chapter_40_space_paranoids/28.jpg",
    "https://img-proxy.imgfo.com/?referer=https://manganelo.com&url=https://s3.mkklcdnv6temp.com/mangakakalot/k1/kingdom_hearts_ii/vol6_chapter_40_space_paranoids/29.jpg",
    "https://img-proxy.imgfo.com/?referer=https://manganelo.com&url=https://s3.mkklcdnv6temp.com/mangakakalot/k1/kingdom_hearts_ii/vol6_chapter_40_space_paranoids/30.jpg",
    "https://img-proxy.imgfo.com/?referer=https://manganelo.com&url=https://s3.mkklcdnv6temp.com/mangakakalot/k1/kingdom_hearts_ii/vol6_chapter_40_space_paranoids/31.jpg",
    "https://img-proxy.imgfo.com/?referer=https://manganelo.com&url=https://s3.mkklcdnv6temp.com/mangakakalot/k1/kingdom_hearts_ii/vol6_chapter_40_space_paranoids/32.jpg",
    "https://img-proxy.imgfo.com/?referer=https://manganelo.com&url=https://s3.mkklcdnv6temp.com/mangakakalot/k1/kingdom_hearts_ii/vol6_chapter_40_space_paranoids/33.jpg",
    "https://img-proxy.imgfo.com/?referer=https://manganelo.com&url=https://s3.mkklcdnv6temp.com/mangakakalot/k1/kingdom_hearts_ii/vol6_chapter_40_space_paranoids/34.jpg",
    "https://img-proxy.imgfo.com/?referer=https://manganelo.com&url=https://s3.mkklcdnv6temp.com/mangakakalot/k1/kingdom_hearts_ii/vol6_chapter_40_space_paranoids/35.jpg",
    "https://img-proxy.imgfo.com/?referer=https://manganelo.com&url=https://s3.mkklcdnv6temp.com/mangakakalot/k1/kingdom_hearts_ii/vol6_chapter_40_space_paranoids/36.jpg",
    "https://img-proxy.imgfo.com/?referer=https://manganelo.com&url=https://s3.mkklcdnv6temp.com/mangakakalot/k1/kingdom_hearts_ii/vol6_chapter_40_space_paranoids/37.jpg",
    "https://img-proxy.imgfo.com/?referer=https://manganelo.com&url=https://s3.mkklcdnv6temp.com/mangakakalot/k1/kingdom_hearts_ii/vol6_chapter_40_space_paranoids/38.jpg",
    "https://img-proxy.imgfo.com/?referer=https://manganelo.com&url=https://s3.mkklcdnv6temp.com/mangakakalot/k1/kingdom_hearts_ii/vol6_chapter_40_space_paranoids/39.jpg",
    "https://img-proxy.imgfo.com/?referer=https://manganelo.com&url=https://s3.mkklcdnv6temp.com/mangakakalot/k1/kingdom_hearts_ii/vol6_chapter_40_space_paranoids/40.jpg",
    "https://img-proxy.imgfo.com/?referer=https://manganelo.com&url=https://s3.mkklcdnv6temp.com/mangakakalot/k1/kingdom_hearts_ii/vol6_chapter_40_space_paranoids/41.jpg",
    "https://img-proxy.imgfo.com/?referer=https://manganelo.com&url=https://s3.mkklcdnv6temp.com/mangakakalot/k1/kingdom_hearts_ii/vol6_chapter_40_space_paranoids/42.jpg",
    "https://img-proxy.imgfo.com/?referer=https://manganelo.com&url=https://s3.mkklcdnv6temp.com/mangakakalot/k1/kingdom_hearts_ii/vol6_chapter_40_space_paranoids/43.jpg",
    "https://img-proxy.imgfo.com/?referer=https://manganelo.com&url=https://s3.mkklcdnv6temp.com/mangakakalot/k1/kingdom_hearts_ii/vol6_chapter_40_space_paranoids/44.jpg",
    "https://img-proxy.imgfo.com/?referer=https://manganelo.com&url=https://s3.mkklcdnv6temp.com/mangakakalot/k1/kingdom_hearts_ii/vol6_chapter_40_space_paranoids/45.jpg"
  ]
}