{
  "cover": "https://avt.mkklcdnv6.com/28/q/3-1583468805.jpg",
  "title": "Kingdom Hearts Ii",
  "original": "キングダムハーツⅡ; キングダムハーツ2 (Japanese); مملكة القلوب 2 (Arabic); 王国之心2 (Chinese); KH:2; Kingdom Hearts 2 (English)",
  "genre": "Action, Adventure, Comedy, Drama, Fantasy, Mystery, Shounen, Manga",
  "author": "Nomura Tetsuya",
  "status": "Completed",
  "backlink": "https://manganu.com/collections/nomura-tetsuya/kingdom-hearts-ii/",
  "description": "From Yen Press: A young boy named Roxas whiles away the last days of his summer vacation with his three best friends in their quiet little home of Twilight Town. But all is not as it should be in this hamlet nestled between night and day. Strange things keep happening around Roxas, which always seem to involve mysterious creatures and he is plagued by dreams of a boy named Sora, whom he has never met. Bewildered, Roxas searches for answers. Will they lead him to Sora, Donald and Goofy?",
  "language": "English",
  "images": [
    "https://img-proxy.imgfo.com/?referer=https://manganelo.com&url=https://s3.mkklcdnv6temp.com/mangakakalot/k1/kingdom_hearts_ii/vol8_chapter_51_proof_of_friendship/1.jpg",
    "https://img-proxy.imgfo.com/?referer=https://manganelo.com&url=https://s3.mkklcdnv6temp.com/mangakakalot/k1/kingdom_hearts_ii/vol8_chapter_51_proof_of_friendship/2.jpg",
    "https://img-proxy.imgfo.com/?referer=https://manganelo.com&url=https://s3.mkklcdnv6temp.com/mangakakalot/k1/kingdom_hearts_ii/vol8_chapter_51_proof_of_friendship/3.jpg",
    "https://img-proxy.imgfo.com/?referer=https://manganelo.com&url=https://s3.mkklcdnv6temp.com/mangakakalot/k1/kingdom_hearts_ii/vol8_chapter_51_proof_of_friendship/4.jpg",
    "https://img-proxy.imgfo.com/?referer=https://manganelo.com&url=https://s3.mkklcdnv6temp.com/mangakakalot/k1/kingdom_hearts_ii/vol8_chapter_51_proof_of_friendship/5.jpg",
    "https://img-proxy.imgfo.com/?referer=https://manganelo.com&url=https://s3.mkklcdnv6temp.com/mangakakalot/k1/kingdom_hearts_ii/vol8_chapter_51_proof_of_friendship/6.jpg",
    "https://img-proxy.imgfo.com/?referer=https://manganelo.com&url=https://s3.mkklcdnv6temp.com/mangakakalot/k1/kingdom_hearts_ii/vol8_chapter_51_proof_of_friendship/7.jpg",
    "https://img-proxy.imgfo.com/?referer=https://manganelo.com&url=https://s3.mkklcdnv6temp.com/mangakakalot/k1/kingdom_hearts_ii/vol8_chapter_51_proof_of_friendship/8.jpg",
    "https://img-proxy.imgfo.com/?referer=https://manganelo.com&url=https://s3.mkklcdnv6temp.com/mangakakalot/k1/kingdom_hearts_ii/vol8_chapter_51_proof_of_friendship/9.jpg",
    "https://img-proxy.imgfo.com/?referer=https://manganelo.com&url=https://s3.mkklcdnv6temp.com/mangakakalot/k1/kingdom_hearts_ii/vol8_chapter_51_proof_of_friendship/10.jpg",
    "https://img-proxy.imgfo.com/?referer=https://manganelo.com&url=https://s3.mkklcdnv6temp.com/mangakakalot/k1/kingdom_hearts_ii/vol8_chapter_51_proof_of_friendship/11.jpg",
    "https://img-proxy.imgfo.com/?referer=https://manganelo.com&url=https://s3.mkklcdnv6temp.com/mangakakalot/k1/kingdom_hearts_ii/vol8_chapter_51_proof_of_friendship/12.jpg",
    "https://img-proxy.imgfo.com/?referer=https://manganelo.com&url=https://s3.mkklcdnv6temp.com/mangakakalot/k1/kingdom_hearts_ii/vol8_chapter_51_proof_of_friendship/13.jpg",
    "https://img-proxy.imgfo.com/?referer=https://manganelo.com&url=https://s3.mkklcdnv6temp.com/mangakakalot/k1/kingdom_hearts_ii/vol8_chapter_51_proof_of_friendship/14.jpg",
    "https://img-proxy.imgfo.com/?referer=https://manganelo.com&url=https://s3.mkklcdnv6temp.com/mangakakalot/k1/kingdom_hearts_ii/vol8_chapter_51_proof_of_friendship/15.jpg",
    "https://img-proxy.imgfo.com/?referer=https://manganelo.com&url=https://s3.mkklcdnv6temp.com/mangakakalot/k1/kingdom_hearts_ii/vol8_chapter_51_proof_of_friendship/16.jpg",
    "https://img-proxy.imgfo.com/?referer=https://manganelo.com&url=https://s3.mkklcdnv6temp.com/mangakakalot/k1/kingdom_hearts_ii/vol8_chapter_51_proof_of_friendship/17.jpg",
    "https://img-proxy.imgfo.com/?referer=https://manganelo.com&url=https://s3.mkklcdnv6temp.com/mangakakalot/k1/kingdom_hearts_ii/vol8_chapter_51_proof_of_friendship/18.jpg",
    "https://img-proxy.imgfo.com/?referer=https://manganelo.com&url=https://s3.mkklcdnv6temp.com/mangakakalot/k1/kingdom_hearts_ii/vol8_chapter_51_proof_of_friendship/19.jpg",
    "https://img-proxy.imgfo.com/?referer=https://manganelo.com&url=https://s3.mkklcdnv6temp.com/mangakakalot/k1/kingdom_hearts_ii/vol8_chapter_51_proof_of_friendship/20.jpg",
    "https://img-proxy.imgfo.com/?referer=https://manganelo.com&url=https://s3.mkklcdnv6temp.com/mangakakalot/k1/kingdom_hearts_ii/vol8_chapter_51_proof_of_friendship/21.jpg",
    "https://img-proxy.imgfo.com/?referer=https://manganelo.com&url=https://s3.mkklcdnv6temp.com/mangakakalot/k1/kingdom_hearts_ii/vol8_chapter_51_proof_of_friendship/22.jpg"
  ]
}