{
  "cover": "https://avt.mkklcdnv6.com/43/b/5-1583473581.jpg",
  "title": "Immortal Rain",
  "original": "メテオ・メトセラ ; Meteor Methuselah ; Meteo Metosera ; Sao Băng (Vietnamese) ; Безсмъртният Рейн (Bulgarian) ; odödligt regn(swedish)",
  "genre": "Action, Adventure, Comedy, Drama, Romance, Sci fi, Shoujo, Supernatural, Tragedy, Manga",
  "author": "Ozaki Kaori",
  "status": "Completed",
  "backlink": "https://manganu.com/collections/ozaki-kaori/immortal-rain/",
  "description": "From Tokyopop:\nRain Jewlitt, known as the Methuselah, is a spaced-out, immortal, 624-year-old man dressed in priest's clothes. He's got eternal youth and a large price on his head ... put there by those questing after the secret of his immortality.\nMachika Balfaltin is a tomboyish, energetic 14-year-old girl who, upon the death of her grandfather, sets out to kill Methuselah, the one bounty her assassin grandfather, Zol the Grim Reaper, couldn't kill. Instead, however, Machika ends up being saved by Rain again and again from other aspiring bounty hunters attacking them both.\nSound like the beginnings of an odd relationship? You won't believe where their journey takes them ...",
  "language": "English",
  "images": [
    "https://img-proxy.imgfo.com/?referer=https://manganelo.com&url=https://s41.mkklcdnv6temp.com/mangakakalot/i1/immortal_rain/vol10_chapter_51/1.jpg",
    "https://img-proxy.imgfo.com/?referer=https://manganelo.com&url=https://s41.mkklcdnv6temp.com/mangakakalot/i1/immortal_rain/vol10_chapter_51/2.jpg",
    "https://img-proxy.imgfo.com/?referer=https://manganelo.com&url=https://s41.mkklcdnv6temp.com/mangakakalot/i1/immortal_rain/vol10_chapter_51/3.jpg",
    "https://img-proxy.imgfo.com/?referer=https://manganelo.com&url=https://s41.mkklcdnv6temp.com/mangakakalot/i1/immortal_rain/vol10_chapter_51/4.jpg",
    "https://img-proxy.imgfo.com/?referer=https://manganelo.com&url=https://s41.mkklcdnv6temp.com/mangakakalot/i1/immortal_rain/vol10_chapter_51/5.jpg",
    "https://img-proxy.imgfo.com/?referer=https://manganelo.com&url=https://s41.mkklcdnv6temp.com/mangakakalot/i1/immortal_rain/vol10_chapter_51/6.jpg",
    "https://img-proxy.imgfo.com/?referer=https://manganelo.com&url=https://s41.mkklcdnv6temp.com/mangakakalot/i1/immortal_rain/vol10_chapter_51/7.jpg",
    "https://img-proxy.imgfo.com/?referer=https://manganelo.com&url=https://s41.mkklcdnv6temp.com/mangakakalot/i1/immortal_rain/vol10_chapter_51/8.jpg",
    "https://img-proxy.imgfo.com/?referer=https://manganelo.com&url=https://s41.mkklcdnv6temp.com/mangakakalot/i1/immortal_rain/vol10_chapter_51/9.jpg",
    "https://img-proxy.imgfo.com/?referer=https://manganelo.com&url=https://s41.mkklcdnv6temp.com/mangakakalot/i1/immortal_rain/vol10_chapter_51/10.jpg",
    "https://img-proxy.imgfo.com/?referer=https://manganelo.com&url=https://s41.mkklcdnv6temp.com/mangakakalot/i1/immortal_rain/vol10_chapter_51/11.jpg",
    "https://img-proxy.imgfo.com/?referer=https://manganelo.com&url=https://s41.mkklcdnv6temp.com/mangakakalot/i1/immortal_rain/vol10_chapter_51/12.jpg",
    "https://img-proxy.imgfo.com/?referer=https://manganelo.com&url=https://s41.mkklcdnv6temp.com/mangakakalot/i1/immortal_rain/vol10_chapter_51/13.jpg",
    "https://img-proxy.imgfo.com/?referer=https://manganelo.com&url=https://s41.mkklcdnv6temp.com/mangakakalot/i1/immortal_rain/vol10_chapter_51/14.jpg",
    "https://img-proxy.imgfo.com/?referer=https://manganelo.com&url=https://s41.mkklcdnv6temp.com/mangakakalot/i1/immortal_rain/vol10_chapter_51/15.jpg",
    "https://img-proxy.imgfo.com/?referer=https://manganelo.com&url=https://s41.mkklcdnv6temp.com/mangakakalot/i1/immortal_rain/vol10_chapter_51/16.jpg",
    "https://img-proxy.imgfo.com/?referer=https://manganelo.com&url=https://s41.mkklcdnv6temp.com/mangakakalot/i1/immortal_rain/vol10_chapter_51/17.jpg",
    "https://img-proxy.imgfo.com/?referer=https://manganelo.com&url=https://s41.mkklcdnv6temp.com/mangakakalot/i1/immortal_rain/vol10_chapter_51/18.jpg",
    "https://img-proxy.imgfo.com/?referer=https://manganelo.com&url=https://s41.mkklcdnv6temp.com/mangakakalot/i1/immortal_rain/vol10_chapter_51/19.jpg",
    "https://img-proxy.imgfo.com/?referer=https://manganelo.com&url=https://s41.mkklcdnv6temp.com/mangakakalot/i1/immortal_rain/vol10_chapter_51/20.jpg",
    "https://img-proxy.imgfo.com/?referer=https://manganelo.com&url=https://s41.mkklcdnv6temp.com/mangakakalot/i1/immortal_rain/vol10_chapter_51/21.jpg",
    "https://img-proxy.imgfo.com/?referer=https://manganelo.com&url=https://s41.mkklcdnv6temp.com/mangakakalot/i1/immortal_rain/vol10_chapter_51/22.jpg",
    "https://img-proxy.imgfo.com/?referer=https://manganelo.com&url=https://s41.mkklcdnv6temp.com/mangakakalot/i1/immortal_rain/vol10_chapter_51/23.jpg",
    "https://img-proxy.imgfo.com/?referer=https://manganelo.com&url=https://s41.mkklcdnv6temp.com/mangakakalot/i1/immortal_rain/vol10_chapter_51/24.jpg",
    "https://img-proxy.imgfo.com/?referer=https://manganelo.com&url=https://s41.mkklcdnv6temp.com/mangakakalot/i1/immortal_rain/vol10_chapter_51/25.jpg",
    "https://img-proxy.imgfo.com/?referer=https://manganelo.com&url=https://s41.mkklcdnv6temp.com/mangakakalot/i1/immortal_rain/vol10_chapter_51/26.jpg",
    "https://img-proxy.imgfo.com/?referer=https://manganelo.com&url=https://s41.mkklcdnv6temp.com/mangakakalot/i1/immortal_rain/vol10_chapter_51/27.jpg",
    "https://img-proxy.imgfo.com/?referer=https://manganelo.com&url=https://s41.mkklcdnv6temp.com/mangakakalot/i1/immortal_rain/vol10_chapter_51/28.jpg"
  ]
}