{
  "cover": "https://avt.mkklcdnv6.com/8/u/1-1583464013.jpg",
  "title": "Himegoto - Juukyuusai No Seifuku",
  "original": "ヒメゴト ～十九歳の制服～ (Japanese); Himegoto - 19sai no Seifuku; Secrets - Uniforms at the age of nineteen; Himegoto - Uniforms at the age of nineteen (English); Đồng Phục Tuổi 19; Đồng Phục Tuổi Mười Chín (Vietnamese - Tiếng Việt - TV)",
  "genre": "Adult, Drama, Gender bender, Romance, School life, Seinen, Manga",
  "author": "Minenami Ryo",
  "status": "Completed",
  "backlink": "https://manganu.com/collections/minenami-ryo/himegoto-juukyuusai-no-seifuku/",
  "description": "This is a story of a group of college-age people who struggle with gender and sexual identity. Yuki (nicknamed Yoshiki) is a girl, but she is terrible at &#39;being feminine.&#39; She mostly dresses like a boy and is often mistaken as one. However, she has to wear a skirt and imagine being dominated by a guy in order to masturbate. Nagao Mikako seems young and innocent, and she uses that apparent innocence to sell her body as a fake 15-year-old. She knows her youthfulness can&#39;t last forever, but she enjoys tricking the men. Her friends have no idea of her sexual habits and believe her to be sweet and sheltered. Aiba Kaito is a pretty good-looking guy, but he wants to be Nagao Mikako. He often dresses as a girl, picking out clothes that mimic Mikako&#39;s style. Though he&#39;s into cross-dressing, he is still attracted to women. Will these young adults and their friends be able to handle their &#39;guilty secrets&#39; and muddle their way through this confusing period of their lives?",
  "language": "English",
  "images": [
    "https://img-proxy.imgfo.com/?referer=https://manganelo.com&url=https://s3.mkklcdnv6temp.com/mangakakalot/h1/himegoto_juukyuusai_no_seifuku/vol1_chapter_10_thunder/1.jpg",
    "https://img-proxy.imgfo.com/?referer=https://manganelo.com&url=https://s3.mkklcdnv6temp.com/mangakakalot/h1/himegoto_juukyuusai_no_seifuku/vol1_chapter_10_thunder/2.jpg",
    "https://img-proxy.imgfo.com/?referer=https://manganelo.com&url=https://s3.mkklcdnv6temp.com/mangakakalot/h1/himegoto_juukyuusai_no_seifuku/vol1_chapter_10_thunder/3.jpg",
    "https://img-proxy.imgfo.com/?referer=https://manganelo.com&url=https://s3.mkklcdnv6temp.com/mangakakalot/h1/himegoto_juukyuusai_no_seifuku/vol1_chapter_10_thunder/4.jpg",
    "https://img-proxy.imgfo.com/?referer=https://manganelo.com&url=https://s3.mkklcdnv6temp.com/mangakakalot/h1/himegoto_juukyuusai_no_seifuku/vol1_chapter_10_thunder/5.jpg",
    "https://img-proxy.imgfo.com/?referer=https://manganelo.com&url=https://s3.mkklcdnv6temp.com/mangakakalot/h1/himegoto_juukyuusai_no_seifuku/vol1_chapter_10_thunder/6.jpg",
    "https://img-proxy.imgfo.com/?referer=https://manganelo.com&url=https://s3.mkklcdnv6temp.com/mangakakalot/h1/himegoto_juukyuusai_no_seifuku/vol1_chapter_10_thunder/7.jpg",
    "https://img-proxy.imgfo.com/?referer=https://manganelo.com&url=https://s3.mkklcdnv6temp.com/mangakakalot/h1/himegoto_juukyuusai_no_seifuku/vol1_chapter_10_thunder/8.jpg",
    "https://img-proxy.imgfo.com/?referer=https://manganelo.com&url=https://s3.mkklcdnv6temp.com/mangakakalot/h1/himegoto_juukyuusai_no_seifuku/vol1_chapter_10_thunder/9.jpg",
    "https://img-proxy.imgfo.com/?referer=https://manganelo.com&url=https://s3.mkklcdnv6temp.com/mangakakalot/h1/himegoto_juukyuusai_no_seifuku/vol1_chapter_10_thunder/10.jpg",
    "https://img-proxy.imgfo.com/?referer=https://manganelo.com&url=https://s3.mkklcdnv6temp.com/mangakakalot/h1/himegoto_juukyuusai_no_seifuku/vol1_chapter_10_thunder/11.jpg",
    "https://img-proxy.imgfo.com/?referer=https://manganelo.com&url=https://s3.mkklcdnv6temp.com/mangakakalot/h1/himegoto_juukyuusai_no_seifuku/vol1_chapter_10_thunder/12.jpg",
    "https://img-proxy.imgfo.com/?referer=https://manganelo.com&url=https://s3.mkklcdnv6temp.com/mangakakalot/h1/himegoto_juukyuusai_no_seifuku/vol1_chapter_10_thunder/13.jpg",
    "https://img-proxy.imgfo.com/?referer=https://manganelo.com&url=https://s3.mkklcdnv6temp.com/mangakakalot/h1/himegoto_juukyuusai_no_seifuku/vol1_chapter_10_thunder/14.jpg",
    "https://img-proxy.imgfo.com/?referer=https://manganelo.com&url=https://s3.mkklcdnv6temp.com/mangakakalot/h1/himegoto_juukyuusai_no_seifuku/vol1_chapter_10_thunder/15.jpg",
    "https://img-proxy.imgfo.com/?referer=https://manganelo.com&url=https://s3.mkklcdnv6temp.com/mangakakalot/h1/himegoto_juukyuusai_no_seifuku/vol1_chapter_10_thunder/16.jpg",
    "https://img-proxy.imgfo.com/?referer=https://manganelo.com&url=https://s3.mkklcdnv6temp.com/mangakakalot/h1/himegoto_juukyuusai_no_seifuku/vol1_chapter_10_thunder/17.jpg"
  ]
}