{
  "cover": "https://avt.mkklcdnv6.com/8/v/16-1583493787.jpg",
  "title": "Lady Snowblood",
  "original": "修羅雪姫 ; Princess Snowblood ; Shura Yukihime",
  "genre": "Action, Drama, Historical, Josei, Mature, Yuri, Manga",
  "author": "Koike Kazuo",
  "status": "Completed",
  "backlink": "https://manganu.com/collections/koike-kazuo/lady-snowblood/",
  "description": "What is Lady Snowblood about? Vengeance. Pure and simple, this is a revenge story.\nYuki was named as a child of hell by her mother. Yuki's father was killed by a group of men who conspired to use him to start an uprising; they then brutalized her mother. Her mother subsequently killed one of her attackers and ended up in jail, where Yuki is born. Yuki's mother was serving a life sentence; there was no way she could escape and continue her revenge. Consequently, she concocted a plan which included seducing the guards in order to produce a child who could pass beyond the prison walls.\nDying in childbirth, Yuki's mother impresses upon a friend the importance of imparting to her infant daughter the necessity of her revenge--the grudge that she could no longer carry, but which she passed to her daughter. The friend agrees to do so, and Yuki (\"snow,\" so named for her snow-white skin) is trained to become the instrument of her mother's vengenace.\nTwenty years later, Yuki is a skilled assassin. For the price of 1,000 yen she will perform murderous miracles, often proceeding through trickery, deceit, and the assumption that as a woman she poses as little threat to the criminals she is often dispatching.",
  "language": "English",
  "images": [
    "https://img-proxy.imgfo.com/?referer=https://manganelo.com&url=https://s6.mkklcdnv6temp.com/mangakakalot/l1/lady_snowblood/vol04_chapter_014_an_account_of_how_gishiro_strikes_back/1.jpg",
    "https://img-proxy.imgfo.com/?referer=https://manganelo.com&url=https://s6.mkklcdnv6temp.com/mangakakalot/l1/lady_snowblood/vol04_chapter_014_an_account_of_how_gishiro_strikes_back/2.jpg",
    "https://img-proxy.imgfo.com/?referer=https://manganelo.com&url=https://s6.mkklcdnv6temp.com/mangakakalot/l1/lady_snowblood/vol04_chapter_014_an_account_of_how_gishiro_strikes_back/3.jpg",
    "https://img-proxy.imgfo.com/?referer=https://manganelo.com&url=https://s6.mkklcdnv6temp.com/mangakakalot/l1/lady_snowblood/vol04_chapter_014_an_account_of_how_gishiro_strikes_back/4.jpg",
    "https://img-proxy.imgfo.com/?referer=https://manganelo.com&url=https://s6.mkklcdnv6temp.com/mangakakalot/l1/lady_snowblood/vol04_chapter_014_an_account_of_how_gishiro_strikes_back/5.jpg",
    "https://img-proxy.imgfo.com/?referer=https://manganelo.com&url=https://s6.mkklcdnv6temp.com/mangakakalot/l1/lady_snowblood/vol04_chapter_014_an_account_of_how_gishiro_strikes_back/6.jpg",
    "https://img-proxy.imgfo.com/?referer=https://manganelo.com&url=https://s6.mkklcdnv6temp.com/mangakakalot/l1/lady_snowblood/vol04_chapter_014_an_account_of_how_gishiro_strikes_back/7.jpg",
    "https://img-proxy.imgfo.com/?referer=https://manganelo.com&url=https://s6.mkklcdnv6temp.com/mangakakalot/l1/lady_snowblood/vol04_chapter_014_an_account_of_how_gishiro_strikes_back/8.jpg",
    "https://img-proxy.imgfo.com/?referer=https://manganelo.com&url=https://s6.mkklcdnv6temp.com/mangakakalot/l1/lady_snowblood/vol04_chapter_014_an_account_of_how_gishiro_strikes_back/9.jpg",
    "https://img-proxy.imgfo.com/?referer=https://manganelo.com&url=https://s6.mkklcdnv6temp.com/mangakakalot/l1/lady_snowblood/vol04_chapter_014_an_account_of_how_gishiro_strikes_back/10.jpg",
    "https://img-proxy.imgfo.com/?referer=https://manganelo.com&url=https://s6.mkklcdnv6temp.com/mangakakalot/l1/lady_snowblood/vol04_chapter_014_an_account_of_how_gishiro_strikes_back/11.jpg",
    "https://img-proxy.imgfo.com/?referer=https://manganelo.com&url=https://s6.mkklcdnv6temp.com/mangakakalot/l1/lady_snowblood/vol04_chapter_014_an_account_of_how_gishiro_strikes_back/12.jpg",
    "https://img-proxy.imgfo.com/?referer=https://manganelo.com&url=https://s6.mkklcdnv6temp.com/mangakakalot/l1/lady_snowblood/vol04_chapter_014_an_account_of_how_gishiro_strikes_back/13.jpg",
    "https://img-proxy.imgfo.com/?referer=https://manganelo.com&url=https://s6.mkklcdnv6temp.com/mangakakalot/l1/lady_snowblood/vol04_chapter_014_an_account_of_how_gishiro_strikes_back/14.jpg",
    "https://img-proxy.imgfo.com/?referer=https://manganelo.com&url=https://s6.mkklcdnv6temp.com/mangakakalot/l1/lady_snowblood/vol04_chapter_014_an_account_of_how_gishiro_strikes_back/15.jpg",
    "https://img-proxy.imgfo.com/?referer=https://manganelo.com&url=https://s6.mkklcdnv6temp.com/mangakakalot/l1/lady_snowblood/vol04_chapter_014_an_account_of_how_gishiro_strikes_back/16.jpg",
    "https://img-proxy.imgfo.com/?referer=https://manganelo.com&url=https://s6.mkklcdnv6temp.com/mangakakalot/l1/lady_snowblood/vol04_chapter_014_an_account_of_how_gishiro_strikes_back/17.jpg",
    "https://img-proxy.imgfo.com/?referer=https://manganelo.com&url=https://s6.mkklcdnv6temp.com/mangakakalot/l1/lady_snowblood/vol04_chapter_014_an_account_of_how_gishiro_strikes_back/18.jpg",
    "https://img-proxy.imgfo.com/?referer=https://manganelo.com&url=https://s6.mkklcdnv6temp.com/mangakakalot/l1/lady_snowblood/vol04_chapter_014_an_account_of_how_gishiro_strikes_back/19.jpg",
    "https://img-proxy.imgfo.com/?referer=https://manganelo.com&url=https://s6.mkklcdnv6temp.com/mangakakalot/l1/lady_snowblood/vol04_chapter_014_an_account_of_how_gishiro_strikes_back/20.jpg",
    "https://img-proxy.imgfo.com/?referer=https://manganelo.com&url=https://s6.mkklcdnv6temp.com/mangakakalot/l1/lady_snowblood/vol04_chapter_014_an_account_of_how_gishiro_strikes_back/21.jpg",
    "https://img-proxy.imgfo.com/?referer=https://manganelo.com&url=https://s6.mkklcdnv6temp.com/mangakakalot/l1/lady_snowblood/vol04_chapter_014_an_account_of_how_gishiro_strikes_back/22.jpg",
    "https://img-proxy.imgfo.com/?referer=https://manganelo.com&url=https://s6.mkklcdnv6temp.com/mangakakalot/l1/lady_snowblood/vol04_chapter_014_an_account_of_how_gishiro_strikes_back/23.jpg",
    "https://img-proxy.imgfo.com/?referer=https://manganelo.com&url=https://s6.mkklcdnv6temp.com/mangakakalot/l1/lady_snowblood/vol04_chapter_014_an_account_of_how_gishiro_strikes_back/24.jpg",
    "https://img-proxy.imgfo.com/?referer=https://manganelo.com&url=https://s6.mkklcdnv6temp.com/mangakakalot/l1/lady_snowblood/vol04_chapter_014_an_account_of_how_gishiro_strikes_back/25.jpg",
    "https://img-proxy.imgfo.com/?referer=https://manganelo.com&url=https://s6.mkklcdnv6temp.com/mangakakalot/l1/lady_snowblood/vol04_chapter_014_an_account_of_how_gishiro_strikes_back/26.jpg",
    "https://img-proxy.imgfo.com/?referer=https://manganelo.com&url=https://s6.mkklcdnv6temp.com/mangakakalot/l1/lady_snowblood/vol04_chapter_014_an_account_of_how_gishiro_strikes_back/27.jpg",
    "https://img-proxy.imgfo.com/?referer=https://manganelo.com&url=https://s6.mkklcdnv6temp.com/mangakakalot/l1/lady_snowblood/vol04_chapter_014_an_account_of_how_gishiro_strikes_back/28.jpg",
    "https://img-proxy.imgfo.com/?referer=https://manganelo.com&url=https://s6.mkklcdnv6temp.com/mangakakalot/l1/lady_snowblood/vol04_chapter_014_an_account_of_how_gishiro_strikes_back/29.jpg",
    "https://img-proxy.imgfo.com/?referer=https://manganelo.com&url=https://s6.mkklcdnv6temp.com/mangakakalot/l1/lady_snowblood/vol04_chapter_014_an_account_of_how_gishiro_strikes_back/30.jpg",
    "https://img-proxy.imgfo.com/?referer=https://manganelo.com&url=https://s6.mkklcdnv6temp.com/mangakakalot/l1/lady_snowblood/vol04_chapter_014_an_account_of_how_gishiro_strikes_back/31.jpg",
    "https://img-proxy.imgfo.com/?referer=https://manganelo.com&url=https://s6.mkklcdnv6temp.com/mangakakalot/l1/lady_snowblood/vol04_chapter_014_an_account_of_how_gishiro_strikes_back/32.jpg",
    "https://img-proxy.imgfo.com/?referer=https://manganelo.com&url=https://s6.mkklcdnv6temp.com/mangakakalot/l1/lady_snowblood/vol04_chapter_014_an_account_of_how_gishiro_strikes_back/33.jpg",
    "https://img-proxy.imgfo.com/?referer=https://manganelo.com&url=https://s6.mkklcdnv6temp.com/mangakakalot/l1/lady_snowblood/vol04_chapter_014_an_account_of_how_gishiro_strikes_back/34.jpg",
    "https://img-proxy.imgfo.com/?referer=https://manganelo.com&url=https://s6.mkklcdnv6temp.com/mangakakalot/l1/lady_snowblood/vol04_chapter_014_an_account_of_how_gishiro_strikes_back/35.jpg",
    "https://img-proxy.imgfo.com/?referer=https://manganelo.com&url=https://s6.mkklcdnv6temp.com/mangakakalot/l1/lady_snowblood/vol04_chapter_014_an_account_of_how_gishiro_strikes_back/36.jpg",
    "https://img-proxy.imgfo.com/?referer=https://manganelo.com&url=https://s6.mkklcdnv6temp.com/mangakakalot/l1/lady_snowblood/vol04_chapter_014_an_account_of_how_gishiro_strikes_back/37.jpg",
    "https://img-proxy.imgfo.com/?referer=https://manganelo.com&url=https://s6.mkklcdnv6temp.com/mangakakalot/l1/lady_snowblood/vol04_chapter_014_an_account_of_how_gishiro_strikes_back/38.jpg",
    "https://img-proxy.imgfo.com/?referer=https://manganelo.com&url=https://s6.mkklcdnv6temp.com/mangakakalot/l1/lady_snowblood/vol04_chapter_014_an_account_of_how_gishiro_strikes_back/39.jpg",
    "https://img-proxy.imgfo.com/?referer=https://manganelo.com&url=https://s6.mkklcdnv6temp.com/mangakakalot/l1/lady_snowblood/vol04_chapter_014_an_account_of_how_gishiro_strikes_back/40.jpg",
    "https://img-proxy.imgfo.com/?referer=https://manganelo.com&url=https://s6.mkklcdnv6temp.com/mangakakalot/l1/lady_snowblood/vol04_chapter_014_an_account_of_how_gishiro_strikes_back/41.jpg",
    "https://img-proxy.imgfo.com/?referer=https://manganelo.com&url=https://s6.mkklcdnv6temp.com/mangakakalot/l1/lady_snowblood/vol04_chapter_014_an_account_of_how_gishiro_strikes_back/42.jpg",
    "https://img-proxy.imgfo.com/?referer=https://manganelo.com&url=https://s6.mkklcdnv6temp.com/mangakakalot/l1/lady_snowblood/vol04_chapter_014_an_account_of_how_gishiro_strikes_back/43.jpg",
    "https://img-proxy.imgfo.com/?referer=https://manganelo.com&url=https://s6.mkklcdnv6temp.com/mangakakalot/l1/lady_snowblood/vol04_chapter_014_an_account_of_how_gishiro_strikes_back/44.jpg",
    "https://img-proxy.imgfo.com/?referer=https://manganelo.com&url=https://s6.mkklcdnv6temp.com/mangakakalot/l1/lady_snowblood/vol04_chapter_014_an_account_of_how_gishiro_strikes_back/45.jpg",
    "https://img-proxy.imgfo.com/?referer=https://manganelo.com&url=https://s6.mkklcdnv6temp.com/mangakakalot/l1/lady_snowblood/vol04_chapter_014_an_account_of_how_gishiro_strikes_back/46.jpg",
    "https://img-proxy.imgfo.com/?referer=https://manganelo.com&url=https://s6.mkklcdnv6temp.com/mangakakalot/l1/lady_snowblood/vol04_chapter_014_an_account_of_how_gishiro_strikes_back/47.jpg",
    "https://img-proxy.imgfo.com/?referer=https://manganelo.com&url=https://s6.mkklcdnv6temp.com/mangakakalot/l1/lady_snowblood/vol04_chapter_014_an_account_of_how_gishiro_strikes_back/48.jpg",
    "https://img-proxy.imgfo.com/?referer=https://manganelo.com&url=https://s6.mkklcdnv6temp.com/mangakakalot/l1/lady_snowblood/vol04_chapter_014_an_account_of_how_gishiro_strikes_back/49.jpg",
    "https://img-proxy.imgfo.com/?referer=https://manganelo.com&url=https://s6.mkklcdnv6temp.com/mangakakalot/l1/lady_snowblood/vol04_chapter_014_an_account_of_how_gishiro_strikes_back/50.jpg",
    "https://img-proxy.imgfo.com/?referer=https://manganelo.com&url=https://s6.mkklcdnv6temp.com/mangakakalot/l1/lady_snowblood/vol04_chapter_014_an_account_of_how_gishiro_strikes_back/51.jpg",
    "https://img-proxy.imgfo.com/?referer=https://manganelo.com&url=https://s6.mkklcdnv6temp.com/mangakakalot/l1/lady_snowblood/vol04_chapter_014_an_account_of_how_gishiro_strikes_back/52.jpg",
    "https://img-proxy.imgfo.com/?referer=https://manganelo.com&url=https://s6.mkklcdnv6temp.com/mangakakalot/l1/lady_snowblood/vol04_chapter_014_an_account_of_how_gishiro_strikes_back/53.jpg",
    "https://img-proxy.imgfo.com/?referer=https://manganelo.com&url=https://s6.mkklcdnv6temp.com/mangakakalot/l1/lady_snowblood/vol04_chapter_014_an_account_of_how_gishiro_strikes_back/54.jpg",
    "https://img-proxy.imgfo.com/?referer=https://manganelo.com&url=https://s6.mkklcdnv6temp.com/mangakakalot/l1/lady_snowblood/vol04_chapter_014_an_account_of_how_gishiro_strikes_back/55.jpg",
    "https://img-proxy.imgfo.com/?referer=https://manganelo.com&url=https://s6.mkklcdnv6temp.com/mangakakalot/l1/lady_snowblood/vol04_chapter_014_an_account_of_how_gishiro_strikes_back/56.jpg",
    "https://img-proxy.imgfo.com/?referer=https://manganelo.com&url=https://s6.mkklcdnv6temp.com/mangakakalot/l1/lady_snowblood/vol04_chapter_014_an_account_of_how_gishiro_strikes_back/57.jpg",
    "https://img-proxy.imgfo.com/?referer=https://manganelo.com&url=https://s6.mkklcdnv6temp.com/mangakakalot/l1/lady_snowblood/vol04_chapter_014_an_account_of_how_gishiro_strikes_back/58.jpg",
    "https://img-proxy.imgfo.com/?referer=https://manganelo.com&url=https://s6.mkklcdnv6temp.com/mangakakalot/l1/lady_snowblood/vol04_chapter_014_an_account_of_how_gishiro_strikes_back/59.jpg",
    "https://img-proxy.imgfo.com/?referer=https://manganelo.com&url=https://s6.mkklcdnv6temp.com/mangakakalot/l1/lady_snowblood/vol04_chapter_014_an_account_of_how_gishiro_strikes_back/60.jpg",
    "https://img-proxy.imgfo.com/?referer=https://manganelo.com&url=https://s6.mkklcdnv6temp.com/mangakakalot/l1/lady_snowblood/vol04_chapter_014_an_account_of_how_gishiro_strikes_back/61.jpg",
    "https://img-proxy.imgfo.com/?referer=https://manganelo.com&url=https://s6.mkklcdnv6temp.com/mangakakalot/l1/lady_snowblood/vol04_chapter_014_an_account_of_how_gishiro_strikes_back/62.jpg",
    "https://img-proxy.imgfo.com/?referer=https://manganelo.com&url=https://s6.mkklcdnv6temp.com/mangakakalot/l1/lady_snowblood/vol04_chapter_014_an_account_of_how_gishiro_strikes_back/63.jpg",
    "https://img-proxy.imgfo.com/?referer=https://manganelo.com&url=https://s6.mkklcdnv6temp.com/mangakakalot/l1/lady_snowblood/vol04_chapter_014_an_account_of_how_gishiro_strikes_back/64.jpg",
    "https://img-proxy.imgfo.com/?referer=https://manganelo.com&url=https://s6.mkklcdnv6temp.com/mangakakalot/l1/lady_snowblood/vol04_chapter_014_an_account_of_how_gishiro_strikes_back/65.jpg",
    "https://img-proxy.imgfo.com/?referer=https://manganelo.com&url=https://s6.mkklcdnv6temp.com/mangakakalot/l1/lady_snowblood/vol04_chapter_014_an_account_of_how_gishiro_strikes_back/66.jpg",
    "https://img-proxy.imgfo.com/?referer=https://manganelo.com&url=https://s6.mkklcdnv6temp.com/mangakakalot/l1/lady_snowblood/vol04_chapter_014_an_account_of_how_gishiro_strikes_back/67.jpg",
    "https://img-proxy.imgfo.com/?referer=https://manganelo.com&url=https://s6.mkklcdnv6temp.com/mangakakalot/l1/lady_snowblood/vol04_chapter_014_an_account_of_how_gishiro_strikes_back/68.jpg",
    "https://img-proxy.imgfo.com/?referer=https://manganelo.com&url=https://s6.mkklcdnv6temp.com/mangakakalot/l1/lady_snowblood/vol04_chapter_014_an_account_of_how_gishiro_strikes_back/69.jpg",
    "https://img-proxy.imgfo.com/?referer=https://manganelo.com&url=https://s6.mkklcdnv6temp.com/mangakakalot/l1/lady_snowblood/vol04_chapter_014_an_account_of_how_gishiro_strikes_back/70.jpg",
    "https://img-proxy.imgfo.com/?referer=https://manganelo.com&url=https://s6.mkklcdnv6temp.com/mangakakalot/l1/lady_snowblood/vol04_chapter_014_an_account_of_how_gishiro_strikes_back/71.jpg",
    "https://img-proxy.imgfo.com/?referer=https://manganelo.com&url=https://s6.mkklcdnv6temp.com/mangakakalot/l1/lady_snowblood/vol04_chapter_014_an_account_of_how_gishiro_strikes_back/72.jpg",
    "https://img-proxy.imgfo.com/?referer=https://manganelo.com&url=https://s6.mkklcdnv6temp.com/mangakakalot/l1/lady_snowblood/vol04_chapter_014_an_account_of_how_gishiro_strikes_back/73.jpg",
    "https://img-proxy.imgfo.com/?referer=https://manganelo.com&url=https://s6.mkklcdnv6temp.com/mangakakalot/l1/lady_snowblood/vol04_chapter_014_an_account_of_how_gishiro_strikes_back/74.jpg",
    "https://img-proxy.imgfo.com/?referer=https://manganelo.com&url=https://s6.mkklcdnv6temp.com/mangakakalot/l1/lady_snowblood/vol04_chapter_014_an_account_of_how_gishiro_strikes_back/75.jpg",
    "https://img-proxy.imgfo.com/?referer=https://manganelo.com&url=https://s6.mkklcdnv6temp.com/mangakakalot/l1/lady_snowblood/vol04_chapter_014_an_account_of_how_gishiro_strikes_back/76.jpg",
    "https://img-proxy.imgfo.com/?referer=https://manganelo.com&url=https://s6.mkklcdnv6temp.com/mangakakalot/l1/lady_snowblood/vol04_chapter_014_an_account_of_how_gishiro_strikes_back/77.jpg",
    "https://img-proxy.imgfo.com/?referer=https://manganelo.com&url=https://s6.mkklcdnv6temp.com/mangakakalot/l1/lady_snowblood/vol04_chapter_014_an_account_of_how_gishiro_strikes_back/78.jpg"
  ]
}