{
  "cover": "https://avt.mkklcdnv6.com/42/x/9-1583481896.jpg",
  "title": "Oishii Kankei",
  "original": "おいしい関係 ; 美味的關係 ; 맛있는 관계 ; A Delicious Relationship ; Delicious Relationship ; Tasty Affinity",
  "genre": "Drama, Josei, Romance, Manga",
  "author": "Makimura Satoru",
  "status": "Completed",
  "backlink": "https://manganu.com/collections/makimura-satoru/oishii-kankei/",
  "description": "Fujiwara Momoe, a girl who loves to eat, was raised by her rich parents eating only the best. When her father dies from heart disease and Momoe has to support her and her mother, she can't stand the food that she makes(she never cooked before). One day, she walks into a little French restaurant and recognizes the food from its taste. She had eaten it several years earlier when celebrating her birthday at a 5-star restaurant with her parents. She asks to work there as a cook under the head chef, Oda-san. She falls in love with Oda, but he doesn't notice her feelings and only considers her an annoying apprentice. This series goes through joy and heartbreak, as experienced by Momoe. How does the situation end?\nNote: Was also made into an 11-part Jdrama, and a 20-part Taiwanese drama",
  "language": "English",
  "images": [
    "https://img-proxy.imgfo.com/?referer=https://manganelo.com&url=https://s5.mkklcdnv6temp.com/mangakakalot/o1/oishii_kankei/vol6_chapter_34/1.jpg",
    "https://img-proxy.imgfo.com/?referer=https://manganelo.com&url=https://s5.mkklcdnv6temp.com/mangakakalot/o1/oishii_kankei/vol6_chapter_34/2.jpg",
    "https://img-proxy.imgfo.com/?referer=https://manganelo.com&url=https://s5.mkklcdnv6temp.com/mangakakalot/o1/oishii_kankei/vol6_chapter_34/3.jpg",
    "https://img-proxy.imgfo.com/?referer=https://manganelo.com&url=https://s5.mkklcdnv6temp.com/mangakakalot/o1/oishii_kankei/vol6_chapter_34/4.jpg",
    "https://img-proxy.imgfo.com/?referer=https://manganelo.com&url=https://s5.mkklcdnv6temp.com/mangakakalot/o1/oishii_kankei/vol6_chapter_34/5.jpg",
    "https://img-proxy.imgfo.com/?referer=https://manganelo.com&url=https://s5.mkklcdnv6temp.com/mangakakalot/o1/oishii_kankei/vol6_chapter_34/6.jpg",
    "https://img-proxy.imgfo.com/?referer=https://manganelo.com&url=https://s5.mkklcdnv6temp.com/mangakakalot/o1/oishii_kankei/vol6_chapter_34/7.jpg",
    "https://img-proxy.imgfo.com/?referer=https://manganelo.com&url=https://s5.mkklcdnv6temp.com/mangakakalot/o1/oishii_kankei/vol6_chapter_34/8.jpg",
    "https://img-proxy.imgfo.com/?referer=https://manganelo.com&url=https://s5.mkklcdnv6temp.com/mangakakalot/o1/oishii_kankei/vol6_chapter_34/9.jpg",
    "https://img-proxy.imgfo.com/?referer=https://manganelo.com&url=https://s5.mkklcdnv6temp.com/mangakakalot/o1/oishii_kankei/vol6_chapter_34/10.jpg",
    "https://img-proxy.imgfo.com/?referer=https://manganelo.com&url=https://s5.mkklcdnv6temp.com/mangakakalot/o1/oishii_kankei/vol6_chapter_34/11.jpg",
    "https://img-proxy.imgfo.com/?referer=https://manganelo.com&url=https://s5.mkklcdnv6temp.com/mangakakalot/o1/oishii_kankei/vol6_chapter_34/12.jpg",
    "https://img-proxy.imgfo.com/?referer=https://manganelo.com&url=https://s5.mkklcdnv6temp.com/mangakakalot/o1/oishii_kankei/vol6_chapter_34/13.jpg",
    "https://img-proxy.imgfo.com/?referer=https://manganelo.com&url=https://s5.mkklcdnv6temp.com/mangakakalot/o1/oishii_kankei/vol6_chapter_34/14.jpg",
    "https://img-proxy.imgfo.com/?referer=https://manganelo.com&url=https://s5.mkklcdnv6temp.com/mangakakalot/o1/oishii_kankei/vol6_chapter_34/15.jpg",
    "https://img-proxy.imgfo.com/?referer=https://manganelo.com&url=https://s5.mkklcdnv6temp.com/mangakakalot/o1/oishii_kankei/vol6_chapter_34/16.jpg",
    "https://img-proxy.imgfo.com/?referer=https://manganelo.com&url=https://s5.mkklcdnv6temp.com/mangakakalot/o1/oishii_kankei/vol6_chapter_34/17.jpg",
    "https://img-proxy.imgfo.com/?referer=https://manganelo.com&url=https://s5.mkklcdnv6temp.com/mangakakalot/o1/oishii_kankei/vol6_chapter_34/18.jpg",
    "https://img-proxy.imgfo.com/?referer=https://manganelo.com&url=https://s5.mkklcdnv6temp.com/mangakakalot/o1/oishii_kankei/vol6_chapter_34/19.jpg",
    "https://img-proxy.imgfo.com/?referer=https://manganelo.com&url=https://s5.mkklcdnv6temp.com/mangakakalot/o1/oishii_kankei/vol6_chapter_34/20.jpg",
    "https://img-proxy.imgfo.com/?referer=https://manganelo.com&url=https://s5.mkklcdnv6temp.com/mangakakalot/o1/oishii_kankei/vol6_chapter_34/21.jpg",
    "https://img-proxy.imgfo.com/?referer=https://manganelo.com&url=https://s5.mkklcdnv6temp.com/mangakakalot/o1/oishii_kankei/vol6_chapter_34/22.jpg",
    "https://img-proxy.imgfo.com/?referer=https://manganelo.com&url=https://s5.mkklcdnv6temp.com/mangakakalot/o1/oishii_kankei/vol6_chapter_34/23.jpg",
    "https://img-proxy.imgfo.com/?referer=https://manganelo.com&url=https://s5.mkklcdnv6temp.com/mangakakalot/o1/oishii_kankei/vol6_chapter_34/24.jpg",
    "https://img-proxy.imgfo.com/?referer=https://manganelo.com&url=https://s5.mkklcdnv6temp.com/mangakakalot/o1/oishii_kankei/vol6_chapter_34/25.jpg",
    "https://img-proxy.imgfo.com/?referer=https://manganelo.com&url=https://s5.mkklcdnv6temp.com/mangakakalot/o1/oishii_kankei/vol6_chapter_34/26.jpg",
    "https://img-proxy.imgfo.com/?referer=https://manganelo.com&url=https://s5.mkklcdnv6temp.com/mangakakalot/o1/oishii_kankei/vol6_chapter_34/27.jpg",
    "https://img-proxy.imgfo.com/?referer=https://manganelo.com&url=https://s5.mkklcdnv6temp.com/mangakakalot/o1/oishii_kankei/vol6_chapter_34/28.jpg",
    "https://img-proxy.imgfo.com/?referer=https://manganelo.com&url=https://s5.mkklcdnv6temp.com/mangakakalot/o1/oishii_kankei/vol6_chapter_34/29.jpg",
    "https://img-proxy.imgfo.com/?referer=https://manganelo.com&url=https://s5.mkklcdnv6temp.com/mangakakalot/o1/oishii_kankei/vol6_chapter_34/30.jpg",
    "https://img-proxy.imgfo.com/?referer=https://manganelo.com&url=https://s5.mkklcdnv6temp.com/mangakakalot/o1/oishii_kankei/vol6_chapter_34/31.jpg",
    "https://img-proxy.imgfo.com/?referer=https://manganelo.com&url=https://s5.mkklcdnv6temp.com/mangakakalot/o1/oishii_kankei/vol6_chapter_34/32.jpg",
    "https://img-proxy.imgfo.com/?referer=https://manganelo.com&url=https://s5.mkklcdnv6temp.com/mangakakalot/o1/oishii_kankei/vol6_chapter_34/33.jpg",
    "https://img-proxy.imgfo.com/?referer=https://manganelo.com&url=https://s5.mkklcdnv6temp.com/mangakakalot/o1/oishii_kankei/vol6_chapter_34/34.jpg",
    "https://img-proxy.imgfo.com/?referer=https://manganelo.com&url=https://s5.mkklcdnv6temp.com/mangakakalot/o1/oishii_kankei/vol6_chapter_34/35.jpg",
    "https://img-proxy.imgfo.com/?referer=https://manganelo.com&url=https://s5.mkklcdnv6temp.com/mangakakalot/o1/oishii_kankei/vol6_chapter_34/36.jpg",
    "https://img-proxy.imgfo.com/?referer=https://manganelo.com&url=https://s5.mkklcdnv6temp.com/mangakakalot/o1/oishii_kankei/vol6_chapter_34/37.jpg",
    "https://img-proxy.imgfo.com/?referer=https://manganelo.com&url=https://s5.mkklcdnv6temp.com/mangakakalot/o1/oishii_kankei/vol6_chapter_34/38.jpg",
    "https://img-proxy.imgfo.com/?referer=https://manganelo.com&url=https://s5.mkklcdnv6temp.com/mangakakalot/o1/oishii_kankei/vol6_chapter_34/39.jpg",
    "https://img-proxy.imgfo.com/?referer=https://manganelo.com&url=https://s5.mkklcdnv6temp.com/mangakakalot/o1/oishii_kankei/vol6_chapter_34/40.jpg",
    "https://img-proxy.imgfo.com/?referer=https://manganelo.com&url=https://s5.mkklcdnv6temp.com/mangakakalot/o1/oishii_kankei/vol6_chapter_34/41.jpg",
    "https://img-proxy.imgfo.com/?referer=https://manganelo.com&url=https://s5.mkklcdnv6temp.com/mangakakalot/o1/oishii_kankei/vol6_chapter_34/42.jpg",
    "https://img-proxy.imgfo.com/?referer=https://manganelo.com&url=https://s5.mkklcdnv6temp.com/mangakakalot/o1/oishii_kankei/vol6_chapter_34/43.jpg"
  ]
}