{
  "cover": "https://avt.mkklcdnv6.com/5/j/4-1583469874.jpg",
  "title": "Change Guy",
  "original": "체인지가이 ; Quantum Mistake",
  "genre": "Action, Comedy, Martial arts, Romance, School life, Shounen, Manhwa",
  "author": "Eun Ho Son",
  "status": "Completed",
  "backlink": "https://manganu.com/collections/eun-ho-son/change-guy/",
  "description": "It's nature vs. nurture when a nerd swaps bodies with the toughest guy in school! Kang Too-Jee and Woo Soo-Choi have swapped...their bodies! After becoming the subjects of a mad scientist's experiment with her latest invention - the quantum teleporter - their bodies are switched, leaving only their minds and spirits intact. Woo Soo-Choi, who was once a model student, must face the life of Kang Too-Jee, a teenage menace. Never having an enemy in his life, he now has to deal with the handful of Kang Too-Jee's list, but will his kinder, gentler demeanor ward off his rivals? Or will survival determine his future? Will he become the hardened fighter that matches his new exterior?",
  "language": "English",
  "images": [
    "https://img-proxy.imgfo.com/?referer=https://manganelo.com&url=https://s5.mkklcdnv6temp.com/mangakakalot/c1/change_guy/vol21_chapter_230_the_start_of_war/1.jpg",
    "https://img-proxy.imgfo.com/?referer=https://manganelo.com&url=https://s5.mkklcdnv6temp.com/mangakakalot/c1/change_guy/vol21_chapter_230_the_start_of_war/2.jpg",
    "https://img-proxy.imgfo.com/?referer=https://manganelo.com&url=https://s5.mkklcdnv6temp.com/mangakakalot/c1/change_guy/vol21_chapter_230_the_start_of_war/3.jpg",
    "https://img-proxy.imgfo.com/?referer=https://manganelo.com&url=https://s5.mkklcdnv6temp.com/mangakakalot/c1/change_guy/vol21_chapter_230_the_start_of_war/4.jpg",
    "https://img-proxy.imgfo.com/?referer=https://manganelo.com&url=https://s5.mkklcdnv6temp.com/mangakakalot/c1/change_guy/vol21_chapter_230_the_start_of_war/5.jpg",
    "https://img-proxy.imgfo.com/?referer=https://manganelo.com&url=https://s5.mkklcdnv6temp.com/mangakakalot/c1/change_guy/vol21_chapter_230_the_start_of_war/6.jpg",
    "https://img-proxy.imgfo.com/?referer=https://manganelo.com&url=https://s5.mkklcdnv6temp.com/mangakakalot/c1/change_guy/vol21_chapter_230_the_start_of_war/7.jpg",
    "https://img-proxy.imgfo.com/?referer=https://manganelo.com&url=https://s5.mkklcdnv6temp.com/mangakakalot/c1/change_guy/vol21_chapter_230_the_start_of_war/8.jpg",
    "https://img-proxy.imgfo.com/?referer=https://manganelo.com&url=https://s5.mkklcdnv6temp.com/mangakakalot/c1/change_guy/vol21_chapter_230_the_start_of_war/9.jpg",
    "https://img-proxy.imgfo.com/?referer=https://manganelo.com&url=https://s5.mkklcdnv6temp.com/mangakakalot/c1/change_guy/vol21_chapter_230_the_start_of_war/10.jpg",
    "https://img-proxy.imgfo.com/?referer=https://manganelo.com&url=https://s5.mkklcdnv6temp.com/mangakakalot/c1/change_guy/vol21_chapter_230_the_start_of_war/11.jpg",
    "https://img-proxy.imgfo.com/?referer=https://manganelo.com&url=https://s5.mkklcdnv6temp.com/mangakakalot/c1/change_guy/vol21_chapter_230_the_start_of_war/12.jpg",
    "https://img-proxy.imgfo.com/?referer=https://manganelo.com&url=https://s5.mkklcdnv6temp.com/mangakakalot/c1/change_guy/vol21_chapter_230_the_start_of_war/13.jpg",
    "https://img-proxy.imgfo.com/?referer=https://manganelo.com&url=https://s5.mkklcdnv6temp.com/mangakakalot/c1/change_guy/vol21_chapter_230_the_start_of_war/14.jpg",
    "https://img-proxy.imgfo.com/?referer=https://manganelo.com&url=https://s5.mkklcdnv6temp.com/mangakakalot/c1/change_guy/vol21_chapter_230_the_start_of_war/15.jpg"
  ]
}