{
  "cover": "https://avt.mkklcdnv6.com/28/i/7-1583477335.jpg",
  "title": "Happy!",
  "original": "ハッピー! ; 网坛小魔女",
  "genre": "Drama, Mature, Romance, Seinen, Slice of life, Sports, Manga",
  "author": "Urasawa Naoki",
  "status": "Completed",
  "backlink": "https://manganu.com/collections/urasawa-naoki/happy/",
  "description": "Miyuki Umino was a senior in high-school. Although Miyuki, her two younger brothers and her younger sister were poor, they were happy living together. But, one day all of a sudden her older brother's debt of 250 million yen fell upon them. To pay back the debt Miyuki quit school. What was the incredible choice she took to do this?",
  "language": "English",
  "images": [
    "https://img-proxy.imgfo.com/?referer=https://manganelo.com&url=https://s7.mkklcdnv6temp.com/mangakakalot/h1/happy/vol19_chapter_197/1.jpg",
    "https://img-proxy.imgfo.com/?referer=https://manganelo.com&url=https://s7.mkklcdnv6temp.com/mangakakalot/h1/happy/vol19_chapter_197/2.jpg",
    "https://img-proxy.imgfo.com/?referer=https://manganelo.com&url=https://s7.mkklcdnv6temp.com/mangakakalot/h1/happy/vol19_chapter_197/3.jpg",
    "https://img-proxy.imgfo.com/?referer=https://manganelo.com&url=https://s7.mkklcdnv6temp.com/mangakakalot/h1/happy/vol19_chapter_197/4.jpg",
    "https://img-proxy.imgfo.com/?referer=https://manganelo.com&url=https://s7.mkklcdnv6temp.com/mangakakalot/h1/happy/vol19_chapter_197/5.jpg",
    "https://img-proxy.imgfo.com/?referer=https://manganelo.com&url=https://s7.mkklcdnv6temp.com/mangakakalot/h1/happy/vol19_chapter_197/6.jpg",
    "https://img-proxy.imgfo.com/?referer=https://manganelo.com&url=https://s7.mkklcdnv6temp.com/mangakakalot/h1/happy/vol19_chapter_197/7.jpg",
    "https://img-proxy.imgfo.com/?referer=https://manganelo.com&url=https://s7.mkklcdnv6temp.com/mangakakalot/h1/happy/vol19_chapter_197/8.jpg",
    "https://img-proxy.imgfo.com/?referer=https://manganelo.com&url=https://s7.mkklcdnv6temp.com/mangakakalot/h1/happy/vol19_chapter_197/9.jpg",
    "https://img-proxy.imgfo.com/?referer=https://manganelo.com&url=https://s7.mkklcdnv6temp.com/mangakakalot/h1/happy/vol19_chapter_197/10.jpg",
    "https://img-proxy.imgfo.com/?referer=https://manganelo.com&url=https://s7.mkklcdnv6temp.com/mangakakalot/h1/happy/vol19_chapter_197/11.jpg",
    "https://img-proxy.imgfo.com/?referer=https://manganelo.com&url=https://s7.mkklcdnv6temp.com/mangakakalot/h1/happy/vol19_chapter_197/12.jpg",
    "https://img-proxy.imgfo.com/?referer=https://manganelo.com&url=https://s7.mkklcdnv6temp.com/mangakakalot/h1/happy/vol19_chapter_197/13.jpg",
    "https://img-proxy.imgfo.com/?referer=https://manganelo.com&url=https://s7.mkklcdnv6temp.com/mangakakalot/h1/happy/vol19_chapter_197/14.jpg"
  ]
}