{
  "cover": "https://avt.mkklcdnv6.com/18/p/3-1583468393.jpg",
  "title": "Motto Mayonaka No Jewel",
  "original": "もっと・真夜中のジュエル ; 午夜的宝石怪盗II",
  "genre": "Drama, Mystery, Romance, Shoujo, Smut, Manga",
  "author": "Asami Miyabi",
  "status": "Completed",
  "backlink": "https://manganu.com/collections/asami-miyabi/motto-mayonaka-no-jewel/",
  "description": "From Shoujo Manga Maniac:\nRuri is desperate to see the mysterious jewel thief Kaitou Crow. If she becomes a jewelry model, will she be able to see him again when he robs her?",
  "language": "English",
  "images": [
    "https://img-proxy.imgfo.com/?referer=https://manganelo.com&url=https://s7.mkklcdnv6temp.com/mangakakalot/m2/motto_mayonaka_no_jewel/vol1_chapter_1_false_jewel/1.jpg",
    "https://img-proxy.imgfo.com/?referer=https://manganelo.com&url=https://s7.mkklcdnv6temp.com/mangakakalot/m2/motto_mayonaka_no_jewel/vol1_chapter_1_false_jewel/2.jpg",
    "https://img-proxy.imgfo.com/?referer=https://manganelo.com&url=https://s7.mkklcdnv6temp.com/mangakakalot/m2/motto_mayonaka_no_jewel/vol1_chapter_1_false_jewel/3.jpg",
    "https://img-proxy.imgfo.com/?referer=https://manganelo.com&url=https://s7.mkklcdnv6temp.com/mangakakalot/m2/motto_mayonaka_no_jewel/vol1_chapter_1_false_jewel/4.jpg",
    "https://img-proxy.imgfo.com/?referer=https://manganelo.com&url=https://s7.mkklcdnv6temp.com/mangakakalot/m2/motto_mayonaka_no_jewel/vol1_chapter_1_false_jewel/5.jpg",
    "https://img-proxy.imgfo.com/?referer=https://manganelo.com&url=https://s7.mkklcdnv6temp.com/mangakakalot/m2/motto_mayonaka_no_jewel/vol1_chapter_1_false_jewel/6.jpg",
    "https://img-proxy.imgfo.com/?referer=https://manganelo.com&url=https://s7.mkklcdnv6temp.com/mangakakalot/m2/motto_mayonaka_no_jewel/vol1_chapter_1_false_jewel/7.jpg",
    "https://img-proxy.imgfo.com/?referer=https://manganelo.com&url=https://s7.mkklcdnv6temp.com/mangakakalot/m2/motto_mayonaka_no_jewel/vol1_chapter_1_false_jewel/8.jpg",
    "https://img-proxy.imgfo.com/?referer=https://manganelo.com&url=https://s7.mkklcdnv6temp.com/mangakakalot/m2/motto_mayonaka_no_jewel/vol1_chapter_1_false_jewel/9.jpg",
    "https://img-proxy.imgfo.com/?referer=https://manganelo.com&url=https://s7.mkklcdnv6temp.com/mangakakalot/m2/motto_mayonaka_no_jewel/vol1_chapter_1_false_jewel/10.jpg",
    "https://img-proxy.imgfo.com/?referer=https://manganelo.com&url=https://s7.mkklcdnv6temp.com/mangakakalot/m2/motto_mayonaka_no_jewel/vol1_chapter_1_false_jewel/11.jpg",
    "https://img-proxy.imgfo.com/?referer=https://manganelo.com&url=https://s7.mkklcdnv6temp.com/mangakakalot/m2/motto_mayonaka_no_jewel/vol1_chapter_1_false_jewel/12.jpg",
    "https://img-proxy.imgfo.com/?referer=https://manganelo.com&url=https://s7.mkklcdnv6temp.com/mangakakalot/m2/motto_mayonaka_no_jewel/vol1_chapter_1_false_jewel/13.jpg",
    "https://img-proxy.imgfo.com/?referer=https://manganelo.com&url=https://s7.mkklcdnv6temp.com/mangakakalot/m2/motto_mayonaka_no_jewel/vol1_chapter_1_false_jewel/14.jpg",
    "https://img-proxy.imgfo.com/?referer=https://manganelo.com&url=https://s7.mkklcdnv6temp.com/mangakakalot/m2/motto_mayonaka_no_jewel/vol1_chapter_1_false_jewel/15.jpg",
    "https://img-proxy.imgfo.com/?referer=https://manganelo.com&url=https://s7.mkklcdnv6temp.com/mangakakalot/m2/motto_mayonaka_no_jewel/vol1_chapter_1_false_jewel/16.jpg",
    "https://img-proxy.imgfo.com/?referer=https://manganelo.com&url=https://s7.mkklcdnv6temp.com/mangakakalot/m2/motto_mayonaka_no_jewel/vol1_chapter_1_false_jewel/17.jpg",
    "https://img-proxy.imgfo.com/?referer=https://manganelo.com&url=https://s7.mkklcdnv6temp.com/mangakakalot/m2/motto_mayonaka_no_jewel/vol1_chapter_1_false_jewel/18.jpg",
    "https://img-proxy.imgfo.com/?referer=https://manganelo.com&url=https://s7.mkklcdnv6temp.com/mangakakalot/m2/motto_mayonaka_no_jewel/vol1_chapter_1_false_jewel/19.jpg",
    "https://img-proxy.imgfo.com/?referer=https://manganelo.com&url=https://s7.mkklcdnv6temp.com/mangakakalot/m2/motto_mayonaka_no_jewel/vol1_chapter_1_false_jewel/20.jpg",
    "https://img-proxy.imgfo.com/?referer=https://manganelo.com&url=https://s7.mkklcdnv6temp.com/mangakakalot/m2/motto_mayonaka_no_jewel/vol1_chapter_1_false_jewel/21.jpg",
    "https://img-proxy.imgfo.com/?referer=https://manganelo.com&url=https://s7.mkklcdnv6temp.com/mangakakalot/m2/motto_mayonaka_no_jewel/vol1_chapter_1_false_jewel/22.jpg",
    "https://img-proxy.imgfo.com/?referer=https://manganelo.com&url=https://s7.mkklcdnv6temp.com/mangakakalot/m2/motto_mayonaka_no_jewel/vol1_chapter_1_false_jewel/23.jpg",
    "https://img-proxy.imgfo.com/?referer=https://manganelo.com&url=https://s7.mkklcdnv6temp.com/mangakakalot/m2/motto_mayonaka_no_jewel/vol1_chapter_1_false_jewel/24.jpg",
    "https://img-proxy.imgfo.com/?referer=https://manganelo.com&url=https://s7.mkklcdnv6temp.com/mangakakalot/m2/motto_mayonaka_no_jewel/vol1_chapter_1_false_jewel/25.jpg",
    "https://img-proxy.imgfo.com/?referer=https://manganelo.com&url=https://s7.mkklcdnv6temp.com/mangakakalot/m2/motto_mayonaka_no_jewel/vol1_chapter_1_false_jewel/26.jpg",
    "https://img-proxy.imgfo.com/?referer=https://manganelo.com&url=https://s7.mkklcdnv6temp.com/mangakakalot/m2/motto_mayonaka_no_jewel/vol1_chapter_1_false_jewel/27.jpg",
    "https://img-proxy.imgfo.com/?referer=https://manganelo.com&url=https://s7.mkklcdnv6temp.com/mangakakalot/m2/motto_mayonaka_no_jewel/vol1_chapter_1_false_jewel/28.jpg",
    "https://img-proxy.imgfo.com/?referer=https://manganelo.com&url=https://s7.mkklcdnv6temp.com/mangakakalot/m2/motto_mayonaka_no_jewel/vol1_chapter_1_false_jewel/29.jpg",
    "https://img-proxy.imgfo.com/?referer=https://manganelo.com&url=https://s7.mkklcdnv6temp.com/mangakakalot/m2/motto_mayonaka_no_jewel/vol1_chapter_1_false_jewel/30.jpg",
    "https://img-proxy.imgfo.com/?referer=https://manganelo.com&url=https://s7.mkklcdnv6temp.com/mangakakalot/m2/motto_mayonaka_no_jewel/vol1_chapter_1_false_jewel/31.jpg",
    "https://img-proxy.imgfo.com/?referer=https://manganelo.com&url=https://s7.mkklcdnv6temp.com/mangakakalot/m2/motto_mayonaka_no_jewel/vol1_chapter_1_false_jewel/32.jpg",
    "https://img-proxy.imgfo.com/?referer=https://manganelo.com&url=https://s7.mkklcdnv6temp.com/mangakakalot/m2/motto_mayonaka_no_jewel/vol1_chapter_1_false_jewel/33.jpg",
    "https://img-proxy.imgfo.com/?referer=https://manganelo.com&url=https://s7.mkklcdnv6temp.com/mangakakalot/m2/motto_mayonaka_no_jewel/vol1_chapter_1_false_jewel/34.jpg",
    "https://img-proxy.imgfo.com/?referer=https://manganelo.com&url=https://s7.mkklcdnv6temp.com/mangakakalot/m2/motto_mayonaka_no_jewel/vol1_chapter_1_false_jewel/35.jpg",
    "https://img-proxy.imgfo.com/?referer=https://manganelo.com&url=https://s7.mkklcdnv6temp.com/mangakakalot/m2/motto_mayonaka_no_jewel/vol1_chapter_1_false_jewel/36.jpg",
    "https://img-proxy.imgfo.com/?referer=https://manganelo.com&url=https://s7.mkklcdnv6temp.com/mangakakalot/m2/motto_mayonaka_no_jewel/vol1_chapter_1_false_jewel/37.jpg",
    "https://img-proxy.imgfo.com/?referer=https://manganelo.com&url=https://s7.mkklcdnv6temp.com/mangakakalot/m2/motto_mayonaka_no_jewel/vol1_chapter_1_false_jewel/38.jpg",
    "https://img-proxy.imgfo.com/?referer=https://manganelo.com&url=https://s7.mkklcdnv6temp.com/mangakakalot/m2/motto_mayonaka_no_jewel/vol1_chapter_1_false_jewel/39.jpg",
    "https://img-proxy.imgfo.com/?referer=https://manganelo.com&url=https://s7.mkklcdnv6temp.com/mangakakalot/m2/motto_mayonaka_no_jewel/vol1_chapter_1_false_jewel/40.jpg",
    "https://img-proxy.imgfo.com/?referer=https://manganelo.com&url=https://s7.mkklcdnv6temp.com/mangakakalot/m2/motto_mayonaka_no_jewel/vol1_chapter_1_false_jewel/41.jpg",
    "https://img-proxy.imgfo.com/?referer=https://manganelo.com&url=https://s7.mkklcdnv6temp.com/mangakakalot/m2/motto_mayonaka_no_jewel/vol1_chapter_1_false_jewel/42.jpg",
    "https://img-proxy.imgfo.com/?referer=https://manganelo.com&url=https://s7.mkklcdnv6temp.com/mangakakalot/m2/motto_mayonaka_no_jewel/vol1_chapter_1_false_jewel/43.jpg",
    "https://img-proxy.imgfo.com/?referer=https://manganelo.com&url=https://s7.mkklcdnv6temp.com/mangakakalot/m2/motto_mayonaka_no_jewel/vol1_chapter_1_false_jewel/44.jpg"
  ]
}