{
  "cover": "https://avt.mkklcdnv6.com/10/o/4-1583470098.jpg",
  "title": "Asobi Ja Nai No",
  "original": "遊びじゃないの ; Asobi ja Naino ; Asobi janai no ; Asobi jya Naino ; This was supposed to be fun !",
  "genre": "Comedy, School life, Yaoi, Manga",
  "author": "Sakuraga Mei",
  "status": "Completed",
  "backlink": "https://manganu.com/collections/sakuraga-mei/asobi-ja-nai-no/",
  "description": "(1-2) Kagami and Fukamachi are two friends who both secretly love each other, but the other doesn't know it. Then one day, Kagami tells Fukamachi that he's in love with his sister- in which Fukamachi then reluctantly decides to introduce his sister to Kagami. Now Kagami is faced with showing Fukamachi how he feels before he's forced to go out with a girl he doesn't love...\n(3) Kyouya, a socially awkward college student has trouble smiling and gets bullied at school. What happens when he stumbles into Akira (a high school student) when he's out drinking?\n(4) Kyouya (not from chapter 3) is in love with Shirou, his business partner, but Shirou already has a lover?!\n~Mangaupdates.com",
  "language": "English",
  "images": [
    "https://img-proxy.imgfo.com/?referer=https://manganelo.com&url=https://s6.mkklcdnv6temp.com/mangakakalot/a2/asobi_ja_nai_no/vol1_chapter_1_love_range_1/1.jpg",
    "https://img-proxy.imgfo.com/?referer=https://manganelo.com&url=https://s6.mkklcdnv6temp.com/mangakakalot/a2/asobi_ja_nai_no/vol1_chapter_1_love_range_1/2.jpg",
    "https://img-proxy.imgfo.com/?referer=https://manganelo.com&url=https://s6.mkklcdnv6temp.com/mangakakalot/a2/asobi_ja_nai_no/vol1_chapter_1_love_range_1/3.jpg",
    "https://img-proxy.imgfo.com/?referer=https://manganelo.com&url=https://s6.mkklcdnv6temp.com/mangakakalot/a2/asobi_ja_nai_no/vol1_chapter_1_love_range_1/4.jpg",
    "https://img-proxy.imgfo.com/?referer=https://manganelo.com&url=https://s6.mkklcdnv6temp.com/mangakakalot/a2/asobi_ja_nai_no/vol1_chapter_1_love_range_1/5.jpg",
    "https://img-proxy.imgfo.com/?referer=https://manganelo.com&url=https://s6.mkklcdnv6temp.com/mangakakalot/a2/asobi_ja_nai_no/vol1_chapter_1_love_range_1/6.jpg",
    "https://img-proxy.imgfo.com/?referer=https://manganelo.com&url=https://s6.mkklcdnv6temp.com/mangakakalot/a2/asobi_ja_nai_no/vol1_chapter_1_love_range_1/7.jpg",
    "https://img-proxy.imgfo.com/?referer=https://manganelo.com&url=https://s6.mkklcdnv6temp.com/mangakakalot/a2/asobi_ja_nai_no/vol1_chapter_1_love_range_1/8.jpg",
    "https://img-proxy.imgfo.com/?referer=https://manganelo.com&url=https://s6.mkklcdnv6temp.com/mangakakalot/a2/asobi_ja_nai_no/vol1_chapter_1_love_range_1/9.jpg",
    "https://img-proxy.imgfo.com/?referer=https://manganelo.com&url=https://s6.mkklcdnv6temp.com/mangakakalot/a2/asobi_ja_nai_no/vol1_chapter_1_love_range_1/10.jpg",
    "https://img-proxy.imgfo.com/?referer=https://manganelo.com&url=https://s6.mkklcdnv6temp.com/mangakakalot/a2/asobi_ja_nai_no/vol1_chapter_1_love_range_1/11.jpg",
    "https://img-proxy.imgfo.com/?referer=https://manganelo.com&url=https://s6.mkklcdnv6temp.com/mangakakalot/a2/asobi_ja_nai_no/vol1_chapter_1_love_range_1/12.jpg",
    "https://img-proxy.imgfo.com/?referer=https://manganelo.com&url=https://s6.mkklcdnv6temp.com/mangakakalot/a2/asobi_ja_nai_no/vol1_chapter_1_love_range_1/13.jpg",
    "https://img-proxy.imgfo.com/?referer=https://manganelo.com&url=https://s6.mkklcdnv6temp.com/mangakakalot/a2/asobi_ja_nai_no/vol1_chapter_1_love_range_1/14.jpg",
    "https://img-proxy.imgfo.com/?referer=https://manganelo.com&url=https://s6.mkklcdnv6temp.com/mangakakalot/a2/asobi_ja_nai_no/vol1_chapter_1_love_range_1/15.jpg",
    "https://img-proxy.imgfo.com/?referer=https://manganelo.com&url=https://s6.mkklcdnv6temp.com/mangakakalot/a2/asobi_ja_nai_no/vol1_chapter_1_love_range_1/16.jpg",
    "https://img-proxy.imgfo.com/?referer=https://manganelo.com&url=https://s6.mkklcdnv6temp.com/mangakakalot/a2/asobi_ja_nai_no/vol1_chapter_1_love_range_1/17.jpg",
    "https://img-proxy.imgfo.com/?referer=https://manganelo.com&url=https://s6.mkklcdnv6temp.com/mangakakalot/a2/asobi_ja_nai_no/vol1_chapter_1_love_range_1/18.jpg",
    "https://img-proxy.imgfo.com/?referer=https://manganelo.com&url=https://s6.mkklcdnv6temp.com/mangakakalot/a2/asobi_ja_nai_no/vol1_chapter_1_love_range_1/19.jpg",
    "https://img-proxy.imgfo.com/?referer=https://manganelo.com&url=https://s6.mkklcdnv6temp.com/mangakakalot/a2/asobi_ja_nai_no/vol1_chapter_1_love_range_1/20.jpg",
    "https://img-proxy.imgfo.com/?referer=https://manganelo.com&url=https://s6.mkklcdnv6temp.com/mangakakalot/a2/asobi_ja_nai_no/vol1_chapter_1_love_range_1/21.jpg",
    "https://img-proxy.imgfo.com/?referer=https://manganelo.com&url=https://s6.mkklcdnv6temp.com/mangakakalot/a2/asobi_ja_nai_no/vol1_chapter_1_love_range_1/22.jpg",
    "https://img-proxy.imgfo.com/?referer=https://manganelo.com&url=https://s6.mkklcdnv6temp.com/mangakakalot/a2/asobi_ja_nai_no/vol1_chapter_1_love_range_1/23.jpg",
    "https://img-proxy.imgfo.com/?referer=https://manganelo.com&url=https://s6.mkklcdnv6temp.com/mangakakalot/a2/asobi_ja_nai_no/vol1_chapter_1_love_range_1/24.jpg",
    "https://img-proxy.imgfo.com/?referer=https://manganelo.com&url=https://s6.mkklcdnv6temp.com/mangakakalot/a2/asobi_ja_nai_no/vol1_chapter_1_love_range_1/25.jpg",
    "https://img-proxy.imgfo.com/?referer=https://manganelo.com&url=https://s6.mkklcdnv6temp.com/mangakakalot/a2/asobi_ja_nai_no/vol1_chapter_1_love_range_1/26.jpg",
    "https://img-proxy.imgfo.com/?referer=https://manganelo.com&url=https://s6.mkklcdnv6temp.com/mangakakalot/a2/asobi_ja_nai_no/vol1_chapter_1_love_range_1/27.jpg",
    "https://img-proxy.imgfo.com/?referer=https://manganelo.com&url=https://s6.mkklcdnv6temp.com/mangakakalot/a2/asobi_ja_nai_no/vol1_chapter_1_love_range_1/28.jpg",
    "https://img-proxy.imgfo.com/?referer=https://manganelo.com&url=https://s6.mkklcdnv6temp.com/mangakakalot/a2/asobi_ja_nai_no/vol1_chapter_1_love_range_1/29.jpg",
    "https://img-proxy.imgfo.com/?referer=https://manganelo.com&url=https://s6.mkklcdnv6temp.com/mangakakalot/a2/asobi_ja_nai_no/vol1_chapter_1_love_range_1/30.jpg",
    "https://img-proxy.imgfo.com/?referer=https://manganelo.com&url=https://s6.mkklcdnv6temp.com/mangakakalot/a2/asobi_ja_nai_no/vol1_chapter_1_love_range_1/31.jpg",
    "https://img-proxy.imgfo.com/?referer=https://manganelo.com&url=https://s6.mkklcdnv6temp.com/mangakakalot/a2/asobi_ja_nai_no/vol1_chapter_1_love_range_1/32.jpg",
    "https://img-proxy.imgfo.com/?referer=https://manganelo.com&url=https://s6.mkklcdnv6temp.com/mangakakalot/a2/asobi_ja_nai_no/vol1_chapter_1_love_range_1/33.jpg",
    "https://img-proxy.imgfo.com/?referer=https://manganelo.com&url=https://s6.mkklcdnv6temp.com/mangakakalot/a2/asobi_ja_nai_no/vol1_chapter_1_love_range_1/34.jpg",
    "https://img-proxy.imgfo.com/?referer=https://manganelo.com&url=https://s6.mkklcdnv6temp.com/mangakakalot/a2/asobi_ja_nai_no/vol1_chapter_1_love_range_1/35.jpg",
    "https://img-proxy.imgfo.com/?referer=https://manganelo.com&url=https://s6.mkklcdnv6temp.com/mangakakalot/a2/asobi_ja_nai_no/vol1_chapter_1_love_range_1/36.jpg",
    "https://img-proxy.imgfo.com/?referer=https://manganelo.com&url=https://s6.mkklcdnv6temp.com/mangakakalot/a2/asobi_ja_nai_no/vol1_chapter_1_love_range_1/37.jpg"
  ]
}