{
  "cover": "https://avt.mkklcdnv6.com/16/k/5-1583470337.jpg",
  "title": "Asatte Dance",
  "original": "あさってＤａｎｃｅ ; Dance Till Tomorrow",
  "genre": "Adult, Comedy, Drama, Ecchi, Romance, Seinen, Manga",
  "author": "Yamamoto Naoki",
  "status": "Completed",
  "backlink": "https://manganu.com/collections/yamamoto-naoki/asatte-dance/",
  "description": "Erotic college comedy. Suekichi goes to university and has, as any Japanese university student, time for hobbies. Things change when he attends his great grandfather's funeral and wakes the next morning in his room with a very sexy girl besides him. His great grandfather has left him a *little* inheritance but there are some conditions. Meanwhile, sexy Aya keeps hanging around and refuses to go away. The beginning of a strange relationship which revolves around suspicions and desire. Remark that \"asatte\" actually means \"the day after tomorrow\".",
  "language": "English",
  "images": [
    "https://img-proxy.imgfo.com/?referer=https://manganelo.com&url=https://s41.mkklcdnv6temp.com/mangakakalot/a2/asatte_dance/vol04_chapter_7/1.jpg",
    "https://img-proxy.imgfo.com/?referer=https://manganelo.com&url=https://s41.mkklcdnv6temp.com/mangakakalot/a2/asatte_dance/vol04_chapter_7/2.jpg",
    "https://img-proxy.imgfo.com/?referer=https://manganelo.com&url=https://s41.mkklcdnv6temp.com/mangakakalot/a2/asatte_dance/vol04_chapter_7/3.jpg",
    "https://img-proxy.imgfo.com/?referer=https://manganelo.com&url=https://s41.mkklcdnv6temp.com/mangakakalot/a2/asatte_dance/vol04_chapter_7/4.jpg",
    "https://img-proxy.imgfo.com/?referer=https://manganelo.com&url=https://s41.mkklcdnv6temp.com/mangakakalot/a2/asatte_dance/vol04_chapter_7/5.jpg",
    "https://img-proxy.imgfo.com/?referer=https://manganelo.com&url=https://s41.mkklcdnv6temp.com/mangakakalot/a2/asatte_dance/vol04_chapter_7/6.jpg",
    "https://img-proxy.imgfo.com/?referer=https://manganelo.com&url=https://s41.mkklcdnv6temp.com/mangakakalot/a2/asatte_dance/vol04_chapter_7/7.jpg",
    "https://img-proxy.imgfo.com/?referer=https://manganelo.com&url=https://s41.mkklcdnv6temp.com/mangakakalot/a2/asatte_dance/vol04_chapter_7/8.jpg",
    "https://img-proxy.imgfo.com/?referer=https://manganelo.com&url=https://s41.mkklcdnv6temp.com/mangakakalot/a2/asatte_dance/vol04_chapter_7/9.jpg",
    "https://img-proxy.imgfo.com/?referer=https://manganelo.com&url=https://s41.mkklcdnv6temp.com/mangakakalot/a2/asatte_dance/vol04_chapter_7/10.jpg",
    "https://img-proxy.imgfo.com/?referer=https://manganelo.com&url=https://s41.mkklcdnv6temp.com/mangakakalot/a2/asatte_dance/vol04_chapter_7/11.jpg",
    "https://img-proxy.imgfo.com/?referer=https://manganelo.com&url=https://s41.mkklcdnv6temp.com/mangakakalot/a2/asatte_dance/vol04_chapter_7/12.jpg",
    "https://img-proxy.imgfo.com/?referer=https://manganelo.com&url=https://s41.mkklcdnv6temp.com/mangakakalot/a2/asatte_dance/vol04_chapter_7/13.jpg",
    "https://img-proxy.imgfo.com/?referer=https://manganelo.com&url=https://s41.mkklcdnv6temp.com/mangakakalot/a2/asatte_dance/vol04_chapter_7/14.jpg",
    "https://img-proxy.imgfo.com/?referer=https://manganelo.com&url=https://s41.mkklcdnv6temp.com/mangakakalot/a2/asatte_dance/vol04_chapter_7/15.jpg",
    "https://img-proxy.imgfo.com/?referer=https://manganelo.com&url=https://s41.mkklcdnv6temp.com/mangakakalot/a2/asatte_dance/vol04_chapter_7/16.jpg"
  ]
}