{
  "cover": "https://avt.mkklcdnv6.com/15/t/5-1583472460.jpg",
  "title": "Kaede Typhoon",
  "original": "かえで台風",
  "genre": "Action, Comedy, Martial arts, Romance, Shoujo, Manga",
  "author": "Mizuki Kawashita (Mikan Momokuri)",
  "status": "Completed",
  "backlink": "https://manganu.com/collections/mizuki-kawashita-mikan-momokuri/kaede-typhoon/",
  "description": "[From Solaris-SVU]:\nKaede, the heiress of the Kisaragi ninja clan has decided to run out on her arranged marriage, and take matters into her own hands. Searching for a companion on her own, she meets the most unlikeliest of guys; a total weakling. However she is soon intrigued by his courage, and chivalry. Can love blossom between these two kids from completely different worlds?",
  "language": "English",
  "images": [
    "https://img-proxy.imgfo.com/?referer=https://manganelo.com&url=https://s5.mkklcdnv6temp.com/mangakakalot/k1/kaede_typhoon/vol1_chapter_31/1.jpg",
    "https://img-proxy.imgfo.com/?referer=https://manganelo.com&url=https://s5.mkklcdnv6temp.com/mangakakalot/k1/kaede_typhoon/vol1_chapter_31/2.jpg",
    "https://img-proxy.imgfo.com/?referer=https://manganelo.com&url=https://s5.mkklcdnv6temp.com/mangakakalot/k1/kaede_typhoon/vol1_chapter_31/3.jpg",
    "https://img-proxy.imgfo.com/?referer=https://manganelo.com&url=https://s5.mkklcdnv6temp.com/mangakakalot/k1/kaede_typhoon/vol1_chapter_31/4.jpg",
    "https://img-proxy.imgfo.com/?referer=https://manganelo.com&url=https://s5.mkklcdnv6temp.com/mangakakalot/k1/kaede_typhoon/vol1_chapter_31/5.jpg",
    "https://img-proxy.imgfo.com/?referer=https://manganelo.com&url=https://s5.mkklcdnv6temp.com/mangakakalot/k1/kaede_typhoon/vol1_chapter_31/6.jpg",
    "https://img-proxy.imgfo.com/?referer=https://manganelo.com&url=https://s5.mkklcdnv6temp.com/mangakakalot/k1/kaede_typhoon/vol1_chapter_31/7.jpg",
    "https://img-proxy.imgfo.com/?referer=https://manganelo.com&url=https://s5.mkklcdnv6temp.com/mangakakalot/k1/kaede_typhoon/vol1_chapter_31/8.jpg",
    "https://img-proxy.imgfo.com/?referer=https://manganelo.com&url=https://s5.mkklcdnv6temp.com/mangakakalot/k1/kaede_typhoon/vol1_chapter_31/9.jpg",
    "https://img-proxy.imgfo.com/?referer=https://manganelo.com&url=https://s5.mkklcdnv6temp.com/mangakakalot/k1/kaede_typhoon/vol1_chapter_31/10.jpg",
    "https://img-proxy.imgfo.com/?referer=https://manganelo.com&url=https://s5.mkklcdnv6temp.com/mangakakalot/k1/kaede_typhoon/vol1_chapter_31/11.jpg"
  ]
}