{
  "cover": "https://avt.mkklcdnv6.com/10/s/5-1583472277.jpg",
  "title": "My Lovable Fatty",
  "original": "내게 너무 사랑스러운 뚱땡이 (Korean) ; Fatty that I Love ; 我最爱的肥女 ; 我最爱的胖女 ; phép màu (vietnamese) ; Grasuța pe care o iubesc(Romană) ; Mitt underbara fetto (Swedish) ; Minu armastusväärne paksuke (Estonian) ; Moja Kochana grubaska (Polish)",
  "genre": "Comedy, Fantasy, Romance, School life, Shoujo, Slice of life, Manhwa",
  "author": "Lee Hee Jeong",
  "status": "Completed",
  "backlink": "https://manganu.com/collections/lee-hee-jeong/my-lovable-fatty/",
  "description": "From Sarang Syrup:\nA high school girl named Shin Dong Sun comes back from America to Korea, and she is short, fat, and ugly. She gets picked on by her fellow classmates, gets rejected from her love, and is even picked on by her childhood friend, Jeh Suh. Tired of her intolerable life, she attempts to hang herself, but fails because the rope could not handle her weight. After the fall, she discovers a box filled with medicine, and one particular bottle says that if she takes it she can become and look however she likes...",
  "language": "English",
  "images": [
    "https://img-proxy.imgfo.com/?referer=https://manganelo.com&url=https://s7.mkklcdnv6temp.com/mangakakalot/m2/my_lovable_fatty/vol6_chapter_23_take_the_medicine_and_leave/1.jpg",
    "https://img-proxy.imgfo.com/?referer=https://manganelo.com&url=https://s7.mkklcdnv6temp.com/mangakakalot/m2/my_lovable_fatty/vol6_chapter_23_take_the_medicine_and_leave/2.jpg",
    "https://img-proxy.imgfo.com/?referer=https://manganelo.com&url=https://s7.mkklcdnv6temp.com/mangakakalot/m2/my_lovable_fatty/vol6_chapter_23_take_the_medicine_and_leave/3.jpg",
    "https://img-proxy.imgfo.com/?referer=https://manganelo.com&url=https://s7.mkklcdnv6temp.com/mangakakalot/m2/my_lovable_fatty/vol6_chapter_23_take_the_medicine_and_leave/4.jpg",
    "https://img-proxy.imgfo.com/?referer=https://manganelo.com&url=https://s7.mkklcdnv6temp.com/mangakakalot/m2/my_lovable_fatty/vol6_chapter_23_take_the_medicine_and_leave/5.jpg",
    "https://img-proxy.imgfo.com/?referer=https://manganelo.com&url=https://s7.mkklcdnv6temp.com/mangakakalot/m2/my_lovable_fatty/vol6_chapter_23_take_the_medicine_and_leave/6.jpg",
    "https://img-proxy.imgfo.com/?referer=https://manganelo.com&url=https://s7.mkklcdnv6temp.com/mangakakalot/m2/my_lovable_fatty/vol6_chapter_23_take_the_medicine_and_leave/7.jpg",
    "https://img-proxy.imgfo.com/?referer=https://manganelo.com&url=https://s7.mkklcdnv6temp.com/mangakakalot/m2/my_lovable_fatty/vol6_chapter_23_take_the_medicine_and_leave/8.jpg",
    "https://img-proxy.imgfo.com/?referer=https://manganelo.com&url=https://s7.mkklcdnv6temp.com/mangakakalot/m2/my_lovable_fatty/vol6_chapter_23_take_the_medicine_and_leave/9.jpg",
    "https://img-proxy.imgfo.com/?referer=https://manganelo.com&url=https://s7.mkklcdnv6temp.com/mangakakalot/m2/my_lovable_fatty/vol6_chapter_23_take_the_medicine_and_leave/10.jpg",
    "https://img-proxy.imgfo.com/?referer=https://manganelo.com&url=https://s7.mkklcdnv6temp.com/mangakakalot/m2/my_lovable_fatty/vol6_chapter_23_take_the_medicine_and_leave/11.jpg",
    "https://img-proxy.imgfo.com/?referer=https://manganelo.com&url=https://s7.mkklcdnv6temp.com/mangakakalot/m2/my_lovable_fatty/vol6_chapter_23_take_the_medicine_and_leave/12.jpg",
    "https://img-proxy.imgfo.com/?referer=https://manganelo.com&url=https://s7.mkklcdnv6temp.com/mangakakalot/m2/my_lovable_fatty/vol6_chapter_23_take_the_medicine_and_leave/13.jpg",
    "https://img-proxy.imgfo.com/?referer=https://manganelo.com&url=https://s7.mkklcdnv6temp.com/mangakakalot/m2/my_lovable_fatty/vol6_chapter_23_take_the_medicine_and_leave/14.jpg",
    "https://img-proxy.imgfo.com/?referer=https://manganelo.com&url=https://s7.mkklcdnv6temp.com/mangakakalot/m2/my_lovable_fatty/vol6_chapter_23_take_the_medicine_and_leave/15.jpg",
    "https://img-proxy.imgfo.com/?referer=https://manganelo.com&url=https://s7.mkklcdnv6temp.com/mangakakalot/m2/my_lovable_fatty/vol6_chapter_23_take_the_medicine_and_leave/16.jpg",
    "https://img-proxy.imgfo.com/?referer=https://manganelo.com&url=https://s7.mkklcdnv6temp.com/mangakakalot/m2/my_lovable_fatty/vol6_chapter_23_take_the_medicine_and_leave/17.jpg",
    "https://img-proxy.imgfo.com/?referer=https://manganelo.com&url=https://s7.mkklcdnv6temp.com/mangakakalot/m2/my_lovable_fatty/vol6_chapter_23_take_the_medicine_and_leave/18.jpg",
    "https://img-proxy.imgfo.com/?referer=https://manganelo.com&url=https://s7.mkklcdnv6temp.com/mangakakalot/m2/my_lovable_fatty/vol6_chapter_23_take_the_medicine_and_leave/19.jpg",
    "https://img-proxy.imgfo.com/?referer=https://manganelo.com&url=https://s7.mkklcdnv6temp.com/mangakakalot/m2/my_lovable_fatty/vol6_chapter_23_take_the_medicine_and_leave/20.jpg",
    "https://img-proxy.imgfo.com/?referer=https://manganelo.com&url=https://s7.mkklcdnv6temp.com/mangakakalot/m2/my_lovable_fatty/vol6_chapter_23_take_the_medicine_and_leave/21.jpg",
    "https://img-proxy.imgfo.com/?referer=https://manganelo.com&url=https://s7.mkklcdnv6temp.com/mangakakalot/m2/my_lovable_fatty/vol6_chapter_23_take_the_medicine_and_leave/22.jpg",
    "https://img-proxy.imgfo.com/?referer=https://manganelo.com&url=https://s7.mkklcdnv6temp.com/mangakakalot/m2/my_lovable_fatty/vol6_chapter_23_take_the_medicine_and_leave/23.jpg",
    "https://img-proxy.imgfo.com/?referer=https://manganelo.com&url=https://s7.mkklcdnv6temp.com/mangakakalot/m2/my_lovable_fatty/vol6_chapter_23_take_the_medicine_and_leave/24.jpg",
    "https://img-proxy.imgfo.com/?referer=https://manganelo.com&url=https://s7.mkklcdnv6temp.com/mangakakalot/m2/my_lovable_fatty/vol6_chapter_23_take_the_medicine_and_leave/25.jpg",
    "https://img-proxy.imgfo.com/?referer=https://manganelo.com&url=https://s7.mkklcdnv6temp.com/mangakakalot/m2/my_lovable_fatty/vol6_chapter_23_take_the_medicine_and_leave/26.jpg",
    "https://img-proxy.imgfo.com/?referer=https://manganelo.com&url=https://s7.mkklcdnv6temp.com/mangakakalot/m2/my_lovable_fatty/vol6_chapter_23_take_the_medicine_and_leave/27.jpg",
    "https://img-proxy.imgfo.com/?referer=https://manganelo.com&url=https://s7.mkklcdnv6temp.com/mangakakalot/m2/my_lovable_fatty/vol6_chapter_23_take_the_medicine_and_leave/28.jpg",
    "https://img-proxy.imgfo.com/?referer=https://manganelo.com&url=https://s7.mkklcdnv6temp.com/mangakakalot/m2/my_lovable_fatty/vol6_chapter_23_take_the_medicine_and_leave/29.jpg",
    "https://img-proxy.imgfo.com/?referer=https://manganelo.com&url=https://s7.mkklcdnv6temp.com/mangakakalot/m2/my_lovable_fatty/vol6_chapter_23_take_the_medicine_and_leave/30.jpg",
    "https://img-proxy.imgfo.com/?referer=https://manganelo.com&url=https://s7.mkklcdnv6temp.com/mangakakalot/m2/my_lovable_fatty/vol6_chapter_23_take_the_medicine_and_leave/31.jpg",
    "https://img-proxy.imgfo.com/?referer=https://manganelo.com&url=https://s7.mkklcdnv6temp.com/mangakakalot/m2/my_lovable_fatty/vol6_chapter_23_take_the_medicine_and_leave/32.jpg",
    "https://img-proxy.imgfo.com/?referer=https://manganelo.com&url=https://s7.mkklcdnv6temp.com/mangakakalot/m2/my_lovable_fatty/vol6_chapter_23_take_the_medicine_and_leave/33.jpg",
    "https://img-proxy.imgfo.com/?referer=https://manganelo.com&url=https://s7.mkklcdnv6temp.com/mangakakalot/m2/my_lovable_fatty/vol6_chapter_23_take_the_medicine_and_leave/34.jpg",
    "https://img-proxy.imgfo.com/?referer=https://manganelo.com&url=https://s7.mkklcdnv6temp.com/mangakakalot/m2/my_lovable_fatty/vol6_chapter_23_take_the_medicine_and_leave/35.jpg",
    "https://img-proxy.imgfo.com/?referer=https://manganelo.com&url=https://s7.mkklcdnv6temp.com/mangakakalot/m2/my_lovable_fatty/vol6_chapter_23_take_the_medicine_and_leave/36.jpg",
    "https://img-proxy.imgfo.com/?referer=https://manganelo.com&url=https://s7.mkklcdnv6temp.com/mangakakalot/m2/my_lovable_fatty/vol6_chapter_23_take_the_medicine_and_leave/37.jpg",
    "https://img-proxy.imgfo.com/?referer=https://manganelo.com&url=https://s7.mkklcdnv6temp.com/mangakakalot/m2/my_lovable_fatty/vol6_chapter_23_take_the_medicine_and_leave/38.jpg",
    "https://img-proxy.imgfo.com/?referer=https://manganelo.com&url=https://s7.mkklcdnv6temp.com/mangakakalot/m2/my_lovable_fatty/vol6_chapter_23_take_the_medicine_and_leave/39.jpg",
    "https://img-proxy.imgfo.com/?referer=https://manganelo.com&url=https://s7.mkklcdnv6temp.com/mangakakalot/m2/my_lovable_fatty/vol6_chapter_23_take_the_medicine_and_leave/40.jpg",
    "https://img-proxy.imgfo.com/?referer=https://manganelo.com&url=https://s7.mkklcdnv6temp.com/mangakakalot/m2/my_lovable_fatty/vol6_chapter_23_take_the_medicine_and_leave/41.jpg",
    "https://img-proxy.imgfo.com/?referer=https://manganelo.com&url=https://s7.mkklcdnv6temp.com/mangakakalot/m2/my_lovable_fatty/vol6_chapter_23_take_the_medicine_and_leave/42.jpg",
    "https://img-proxy.imgfo.com/?referer=https://manganelo.com&url=https://s7.mkklcdnv6temp.com/mangakakalot/m2/my_lovable_fatty/vol6_chapter_23_take_the_medicine_and_leave/43.jpg",
    "https://img-proxy.imgfo.com/?referer=https://manganelo.com&url=https://s7.mkklcdnv6temp.com/mangakakalot/m2/my_lovable_fatty/vol6_chapter_23_take_the_medicine_and_leave/44.jpg",
    "https://img-proxy.imgfo.com/?referer=https://manganelo.com&url=https://s7.mkklcdnv6temp.com/mangakakalot/m2/my_lovable_fatty/vol6_chapter_23_take_the_medicine_and_leave/45.jpg",
    "https://img-proxy.imgfo.com/?referer=https://manganelo.com&url=https://s7.mkklcdnv6temp.com/mangakakalot/m2/my_lovable_fatty/vol6_chapter_23_take_the_medicine_and_leave/46.jpg",
    "https://img-proxy.imgfo.com/?referer=https://manganelo.com&url=https://s7.mkklcdnv6temp.com/mangakakalot/m2/my_lovable_fatty/vol6_chapter_23_take_the_medicine_and_leave/47.jpg",
    "https://img-proxy.imgfo.com/?referer=https://manganelo.com&url=https://s7.mkklcdnv6temp.com/mangakakalot/m2/my_lovable_fatty/vol6_chapter_23_take_the_medicine_and_leave/48.jpg",
    "https://img-proxy.imgfo.com/?referer=https://manganelo.com&url=https://s7.mkklcdnv6temp.com/mangakakalot/m2/my_lovable_fatty/vol6_chapter_23_take_the_medicine_and_leave/49.jpg",
    "https://img-proxy.imgfo.com/?referer=https://manganelo.com&url=https://s7.mkklcdnv6temp.com/mangakakalot/m2/my_lovable_fatty/vol6_chapter_23_take_the_medicine_and_leave/50.jpg",
    "https://img-proxy.imgfo.com/?referer=https://manganelo.com&url=https://s7.mkklcdnv6temp.com/mangakakalot/m2/my_lovable_fatty/vol6_chapter_23_take_the_medicine_and_leave/51.jpg"
  ]
}