{
  "cover": "https://avt.mkklcdnv6.com/38/u/1-1583465220.jpg",
  "title": "Until Death Do Us Part",
  "original": "死がふたりを分かつまで (Japanese); Докато смъртта ни раздели (Bulgarian); Пока смерть не разлучит нас (Russian); 直至死亡将我们分开; 直至死亡將我們分開; 終極感應 (Chinese); เนตรปริศนาล่าทรชน (Thai); Jusqu'à ce que la mort nous sépare (French); Shi ga Futari wo Wakatsu Made; UDDUP; Until Death Do Us Part (English); حتى يفرقنا الموت (Arabic); Tills döden skiljer oss åt (Swedish); Póki śmierć nas nie rozłączy (Polish)",
  "genre": "Action, Drama, Martial arts, Mature, Romance, Sci fi, Seinen, Manga",
  "author": "Takashige Hiroshi",
  "status": "Completed",
  "backlink": "https://manganu.com/collections/takashige-hiroshi/until-death-do-us-part/",
  "description": "From Yen Press: Haruka Tooyama is a twelve-year-old girl with incredible precognitive abilities. But her accuracy in predicting the future has made her a target for any number of greedy corporations that would use her power for their own profit. When she is kidnapped, Haruka uses her gift to seek out someone who can help her escape and fixes upon a blind man making his way through the busy streets of Tokyo. Though it may seem an odd choice, Haruka&#39;s powers have not led her wrong. Despite his inability to see, her chosen protector&rsquo;s fighting skills become apparent when he draws a sword from his walking stick and deftly takes out her captors. Knowing she will always be pursued for her gift, Haruka begs the mystery swordsman to keep her safe... &quot;Until Death Do Us Part&quot;.",
  "language": "English",
  "images": [
    "https://img-proxy.imgfo.com/?referer=https://manganelo.com&url=https://s3.mkklcdnv6temp.com/mangakakalot/u1/until_death_do_us_part/vol26_chapter_206_future_4/1.jpg",
    "https://img-proxy.imgfo.com/?referer=https://manganelo.com&url=https://s3.mkklcdnv6temp.com/mangakakalot/u1/until_death_do_us_part/vol26_chapter_206_future_4/2.jpg",
    "https://img-proxy.imgfo.com/?referer=https://manganelo.com&url=https://s3.mkklcdnv6temp.com/mangakakalot/u1/until_death_do_us_part/vol26_chapter_206_future_4/3.jpg",
    "https://img-proxy.imgfo.com/?referer=https://manganelo.com&url=https://s3.mkklcdnv6temp.com/mangakakalot/u1/until_death_do_us_part/vol26_chapter_206_future_4/4.jpg",
    "https://img-proxy.imgfo.com/?referer=https://manganelo.com&url=https://s3.mkklcdnv6temp.com/mangakakalot/u1/until_death_do_us_part/vol26_chapter_206_future_4/5.jpg",
    "https://img-proxy.imgfo.com/?referer=https://manganelo.com&url=https://s3.mkklcdnv6temp.com/mangakakalot/u1/until_death_do_us_part/vol26_chapter_206_future_4/6.jpg",
    "https://img-proxy.imgfo.com/?referer=https://manganelo.com&url=https://s3.mkklcdnv6temp.com/mangakakalot/u1/until_death_do_us_part/vol26_chapter_206_future_4/7.jpg",
    "https://img-proxy.imgfo.com/?referer=https://manganelo.com&url=https://s3.mkklcdnv6temp.com/mangakakalot/u1/until_death_do_us_part/vol26_chapter_206_future_4/8.jpg",
    "https://img-proxy.imgfo.com/?referer=https://manganelo.com&url=https://s3.mkklcdnv6temp.com/mangakakalot/u1/until_death_do_us_part/vol26_chapter_206_future_4/9.jpg",
    "https://img-proxy.imgfo.com/?referer=https://manganelo.com&url=https://s3.mkklcdnv6temp.com/mangakakalot/u1/until_death_do_us_part/vol26_chapter_206_future_4/10.jpg",
    "https://img-proxy.imgfo.com/?referer=https://manganelo.com&url=https://s3.mkklcdnv6temp.com/mangakakalot/u1/until_death_do_us_part/vol26_chapter_206_future_4/11.jpg",
    "https://img-proxy.imgfo.com/?referer=https://manganelo.com&url=https://s3.mkklcdnv6temp.com/mangakakalot/u1/until_death_do_us_part/vol26_chapter_206_future_4/12.jpg",
    "https://img-proxy.imgfo.com/?referer=https://manganelo.com&url=https://s3.mkklcdnv6temp.com/mangakakalot/u1/until_death_do_us_part/vol26_chapter_206_future_4/13.jpg",
    "https://img-proxy.imgfo.com/?referer=https://manganelo.com&url=https://s3.mkklcdnv6temp.com/mangakakalot/u1/until_death_do_us_part/vol26_chapter_206_future_4/14.jpg",
    "https://img-proxy.imgfo.com/?referer=https://manganelo.com&url=https://s3.mkklcdnv6temp.com/mangakakalot/u1/until_death_do_us_part/vol26_chapter_206_future_4/15.jpg",
    "https://img-proxy.imgfo.com/?referer=https://manganelo.com&url=https://s3.mkklcdnv6temp.com/mangakakalot/u1/until_death_do_us_part/vol26_chapter_206_future_4/16.jpg",
    "https://img-proxy.imgfo.com/?referer=https://manganelo.com&url=https://s3.mkklcdnv6temp.com/mangakakalot/u1/until_death_do_us_part/vol26_chapter_206_future_4/17.jpg",
    "https://img-proxy.imgfo.com/?referer=https://manganelo.com&url=https://s3.mkklcdnv6temp.com/mangakakalot/u1/until_death_do_us_part/vol26_chapter_206_future_4/18.jpg",
    "https://img-proxy.imgfo.com/?referer=https://manganelo.com&url=https://s3.mkklcdnv6temp.com/mangakakalot/u1/until_death_do_us_part/vol26_chapter_206_future_4/19.jpg",
    "https://img-proxy.imgfo.com/?referer=https://manganelo.com&url=https://s3.mkklcdnv6temp.com/mangakakalot/u1/until_death_do_us_part/vol26_chapter_206_future_4/20.jpg",
    "https://img-proxy.imgfo.com/?referer=https://manganelo.com&url=https://s3.mkklcdnv6temp.com/mangakakalot/u1/until_death_do_us_part/vol26_chapter_206_future_4/21.jpg",
    "https://img-proxy.imgfo.com/?referer=https://manganelo.com&url=https://s3.mkklcdnv6temp.com/mangakakalot/u1/until_death_do_us_part/vol26_chapter_206_future_4/22.jpg",
    "https://img-proxy.imgfo.com/?referer=https://manganelo.com&url=https://s3.mkklcdnv6temp.com/mangakakalot/u1/until_death_do_us_part/vol26_chapter_206_future_4/23.jpg",
    "https://img-proxy.imgfo.com/?referer=https://manganelo.com&url=https://s3.mkklcdnv6temp.com/mangakakalot/u1/until_death_do_us_part/vol26_chapter_206_future_4/24.jpg",
    "https://img-proxy.imgfo.com/?referer=https://manganelo.com&url=https://s3.mkklcdnv6temp.com/mangakakalot/u1/until_death_do_us_part/vol26_chapter_206_future_4/25.jpg"
  ]
}