{
  "cover": "https://avt.mkklcdnv6.com/47/x/3-1583469564.jpg",
  "title": "Full House",
  "original": "풀하우스 (Korean) ; 浪漫满屋 ; Ngôi nhà hạnh phúc (Vietnamese) ; Punong Bahay (Tagalog)",
  "genre": "Comedy, Josei, Romance, Manga",
  "author": "Woon Soo-Yeon",
  "status": "Completed",
  "backlink": "https://manganu.com/collections/woon-soo-yeon/full-house/",
  "description": "From CPM: Elle lives in &quot;Full House,&quot; the house that her architect father built before passing away a few years ago. She loves the place, but one day people come to kick her out, claiming that the place now belongs to the famous actor Ryder Baye. (The Korean drama Fullhouse was based on this manhwa) ~ read from left to right ~ Please address this work as Manhwa (Korean word for cartoons)",
  "language": "English",
  "images": [
    "https://img-proxy.imgfo.com/?referer=https://manganelo.com&url=https://s41.mkklcdnv6temp.com/mangakakalot/f2/full_house/vol09_chapter_69/1.jpg",
    "https://img-proxy.imgfo.com/?referer=https://manganelo.com&url=https://s41.mkklcdnv6temp.com/mangakakalot/f2/full_house/vol09_chapter_69/2.jpg",
    "https://img-proxy.imgfo.com/?referer=https://manganelo.com&url=https://s41.mkklcdnv6temp.com/mangakakalot/f2/full_house/vol09_chapter_69/3.jpg",
    "https://img-proxy.imgfo.com/?referer=https://manganelo.com&url=https://s41.mkklcdnv6temp.com/mangakakalot/f2/full_house/vol09_chapter_69/4.jpg",
    "https://img-proxy.imgfo.com/?referer=https://manganelo.com&url=https://s41.mkklcdnv6temp.com/mangakakalot/f2/full_house/vol09_chapter_69/5.jpg",
    "https://img-proxy.imgfo.com/?referer=https://manganelo.com&url=https://s41.mkklcdnv6temp.com/mangakakalot/f2/full_house/vol09_chapter_69/6.jpg",
    "https://img-proxy.imgfo.com/?referer=https://manganelo.com&url=https://s41.mkklcdnv6temp.com/mangakakalot/f2/full_house/vol09_chapter_69/7.jpg",
    "https://img-proxy.imgfo.com/?referer=https://manganelo.com&url=https://s41.mkklcdnv6temp.com/mangakakalot/f2/full_house/vol09_chapter_69/8.jpg",
    "https://img-proxy.imgfo.com/?referer=https://manganelo.com&url=https://s41.mkklcdnv6temp.com/mangakakalot/f2/full_house/vol09_chapter_69/9.jpg",
    "https://img-proxy.imgfo.com/?referer=https://manganelo.com&url=https://s41.mkklcdnv6temp.com/mangakakalot/f2/full_house/vol09_chapter_69/10.jpg",
    "https://img-proxy.imgfo.com/?referer=https://manganelo.com&url=https://s41.mkklcdnv6temp.com/mangakakalot/f2/full_house/vol09_chapter_69/11.jpg",
    "https://img-proxy.imgfo.com/?referer=https://manganelo.com&url=https://s41.mkklcdnv6temp.com/mangakakalot/f2/full_house/vol09_chapter_69/12.jpg",
    "https://img-proxy.imgfo.com/?referer=https://manganelo.com&url=https://s41.mkklcdnv6temp.com/mangakakalot/f2/full_house/vol09_chapter_69/13.jpg",
    "https://img-proxy.imgfo.com/?referer=https://manganelo.com&url=https://s41.mkklcdnv6temp.com/mangakakalot/f2/full_house/vol09_chapter_69/14.jpg",
    "https://img-proxy.imgfo.com/?referer=https://manganelo.com&url=https://s41.mkklcdnv6temp.com/mangakakalot/f2/full_house/vol09_chapter_69/15.jpg",
    "https://img-proxy.imgfo.com/?referer=https://manganelo.com&url=https://s41.mkklcdnv6temp.com/mangakakalot/f2/full_house/vol09_chapter_69/16.jpg",
    "https://img-proxy.imgfo.com/?referer=https://manganelo.com&url=https://s41.mkklcdnv6temp.com/mangakakalot/f2/full_house/vol09_chapter_69/17.jpg",
    "https://img-proxy.imgfo.com/?referer=https://manganelo.com&url=https://s41.mkklcdnv6temp.com/mangakakalot/f2/full_house/vol09_chapter_69/18.jpg",
    "https://img-proxy.imgfo.com/?referer=https://manganelo.com&url=https://s41.mkklcdnv6temp.com/mangakakalot/f2/full_house/vol09_chapter_69/19.jpg",
    "https://img-proxy.imgfo.com/?referer=https://manganelo.com&url=https://s41.mkklcdnv6temp.com/mangakakalot/f2/full_house/vol09_chapter_69/20.jpg",
    "https://img-proxy.imgfo.com/?referer=https://manganelo.com&url=https://s41.mkklcdnv6temp.com/mangakakalot/f2/full_house/vol09_chapter_69/21.jpg",
    "https://img-proxy.imgfo.com/?referer=https://manganelo.com&url=https://s41.mkklcdnv6temp.com/mangakakalot/f2/full_house/vol09_chapter_69/22.jpg",
    "https://img-proxy.imgfo.com/?referer=https://manganelo.com&url=https://s41.mkklcdnv6temp.com/mangakakalot/f2/full_house/vol09_chapter_69/23.jpg",
    "https://img-proxy.imgfo.com/?referer=https://manganelo.com&url=https://s41.mkklcdnv6temp.com/mangakakalot/f2/full_house/vol09_chapter_69/24.jpg",
    "https://img-proxy.imgfo.com/?referer=https://manganelo.com&url=https://s41.mkklcdnv6temp.com/mangakakalot/f2/full_house/vol09_chapter_69/25.jpg"
  ]
}