{
  "cover": "https://avt.mkklcdnv6.com/47/x/3-1583469564.jpg",
  "title": "Full House",
  "original": "풀하우스 (Korean) ; 浪漫满屋 ; Ngôi nhà hạnh phúc (Vietnamese) ; Punong Bahay (Tagalog)",
  "genre": "Comedy, Josei, Romance, Manga",
  "author": "Woon Soo-Yeon",
  "status": "Completed",
  "backlink": "https://manganu.com/collections/woon-soo-yeon/full-house/",
  "description": "From CPM: Elle lives in &quot;Full House,&quot; the house that her architect father built before passing away a few years ago. She loves the place, but one day people come to kick her out, claiming that the place now belongs to the famous actor Ryder Baye. (The Korean drama Fullhouse was based on this manhwa) ~ read from left to right ~ Please address this work as Manhwa (Korean word for cartoons)",
  "language": "English",
  "images": [
    "https://img-proxy.imgfo.com/?referer=https://manganelo.com&url=https://s41.mkklcdnv6temp.com/mangakakalot/f2/full_house/vol11_chapter_79/1.jpg",
    "https://img-proxy.imgfo.com/?referer=https://manganelo.com&url=https://s41.mkklcdnv6temp.com/mangakakalot/f2/full_house/vol11_chapter_79/2.jpg",
    "https://img-proxy.imgfo.com/?referer=https://manganelo.com&url=https://s41.mkklcdnv6temp.com/mangakakalot/f2/full_house/vol11_chapter_79/3.jpg",
    "https://img-proxy.imgfo.com/?referer=https://manganelo.com&url=https://s41.mkklcdnv6temp.com/mangakakalot/f2/full_house/vol11_chapter_79/4.jpg",
    "https://img-proxy.imgfo.com/?referer=https://manganelo.com&url=https://s41.mkklcdnv6temp.com/mangakakalot/f2/full_house/vol11_chapter_79/5.jpg",
    "https://img-proxy.imgfo.com/?referer=https://manganelo.com&url=https://s41.mkklcdnv6temp.com/mangakakalot/f2/full_house/vol11_chapter_79/6.jpg",
    "https://img-proxy.imgfo.com/?referer=https://manganelo.com&url=https://s41.mkklcdnv6temp.com/mangakakalot/f2/full_house/vol11_chapter_79/7.jpg",
    "https://img-proxy.imgfo.com/?referer=https://manganelo.com&url=https://s41.mkklcdnv6temp.com/mangakakalot/f2/full_house/vol11_chapter_79/8.jpg",
    "https://img-proxy.imgfo.com/?referer=https://manganelo.com&url=https://s41.mkklcdnv6temp.com/mangakakalot/f2/full_house/vol11_chapter_79/9.jpg",
    "https://img-proxy.imgfo.com/?referer=https://manganelo.com&url=https://s41.mkklcdnv6temp.com/mangakakalot/f2/full_house/vol11_chapter_79/10.jpg",
    "https://img-proxy.imgfo.com/?referer=https://manganelo.com&url=https://s41.mkklcdnv6temp.com/mangakakalot/f2/full_house/vol11_chapter_79/11.jpg",
    "https://img-proxy.imgfo.com/?referer=https://manganelo.com&url=https://s41.mkklcdnv6temp.com/mangakakalot/f2/full_house/vol11_chapter_79/12.jpg",
    "https://img-proxy.imgfo.com/?referer=https://manganelo.com&url=https://s41.mkklcdnv6temp.com/mangakakalot/f2/full_house/vol11_chapter_79/13.jpg",
    "https://img-proxy.imgfo.com/?referer=https://manganelo.com&url=https://s41.mkklcdnv6temp.com/mangakakalot/f2/full_house/vol11_chapter_79/14.jpg",
    "https://img-proxy.imgfo.com/?referer=https://manganelo.com&url=https://s41.mkklcdnv6temp.com/mangakakalot/f2/full_house/vol11_chapter_79/15.jpg",
    "https://img-proxy.imgfo.com/?referer=https://manganelo.com&url=https://s41.mkklcdnv6temp.com/mangakakalot/f2/full_house/vol11_chapter_79/16.jpg",
    "https://img-proxy.imgfo.com/?referer=https://manganelo.com&url=https://s41.mkklcdnv6temp.com/mangakakalot/f2/full_house/vol11_chapter_79/17.jpg",
    "https://img-proxy.imgfo.com/?referer=https://manganelo.com&url=https://s41.mkklcdnv6temp.com/mangakakalot/f2/full_house/vol11_chapter_79/18.jpg",
    "https://img-proxy.imgfo.com/?referer=https://manganelo.com&url=https://s41.mkklcdnv6temp.com/mangakakalot/f2/full_house/vol11_chapter_79/19.jpg",
    "https://img-proxy.imgfo.com/?referer=https://manganelo.com&url=https://s41.mkklcdnv6temp.com/mangakakalot/f2/full_house/vol11_chapter_79/20.jpg",
    "https://img-proxy.imgfo.com/?referer=https://manganelo.com&url=https://s41.mkklcdnv6temp.com/mangakakalot/f2/full_house/vol11_chapter_79/21.jpg",
    "https://img-proxy.imgfo.com/?referer=https://manganelo.com&url=https://s41.mkklcdnv6temp.com/mangakakalot/f2/full_house/vol11_chapter_79/22.jpg",
    "https://img-proxy.imgfo.com/?referer=https://manganelo.com&url=https://s41.mkklcdnv6temp.com/mangakakalot/f2/full_house/vol11_chapter_79/23.jpg",
    "https://img-proxy.imgfo.com/?referer=https://manganelo.com&url=https://s41.mkklcdnv6temp.com/mangakakalot/f2/full_house/vol11_chapter_79/24.jpg",
    "https://img-proxy.imgfo.com/?referer=https://manganelo.com&url=https://s41.mkklcdnv6temp.com/mangakakalot/f2/full_house/vol11_chapter_79/25.jpg",
    "https://img-proxy.imgfo.com/?referer=https://manganelo.com&url=https://s41.mkklcdnv6temp.com/mangakakalot/f2/full_house/vol11_chapter_79/26.jpg"
  ]
}