{
  "cover": "https://avt.mkklcdnv6.com/37/x/6-1583475684.jpg",
  "title": "Breath Of Fire - Ryuu No Senshi",
  "original": "ブレス・オブ・ファイア ; ブレス・オブ・ファイア 竜の戦士 ; Breath of Fire - The Dragon Warrior",
  "genre": "Action, Adventure, Fantasy, Shounen, Manga",
  "author": "Yakumo Hiroshi",
  "status": "Completed",
  "backlink": "https://manganu.com/collections/yakumo-hiroshi/breath-of-fire-ryuu-no-senshi/",
  "description": "Long ago there was a huge war between dragons which almost destroyed the world. The war was stopped in time, but the dragons noticed the impact their power had on the planet, and thus the light dragons sealed it for the sake of the land.\nSeveral centuries have passed. Now the dark dragons have risen!\nWith the help of a mysterious goddess, they have recovered their ancient powers and aim for world domination. But before that they destroy Dragnier, home of the light dragons. The whole village is engulfed in flames but the townspeople survives thanks to Sara, a dragon maiden who temporarily petrifies everyone in order to protect them from the blazing fire, and went alone to battle the army.\nAfter the battle is over everyone recovers, only to see that their village is in ruins and Sara has dissapeared. Ryu, her young brother then decides to put an end to the dark dragons' scheme and also look for his missing sister. Thus the journey that will forge a new dragon warrior begins...\nFrom Baka-Updates:\nIn the years following a great civil war between the Light and Dark Dragon clans. The Light Dragons are dwindling, reduced to hiding in small villages. The protagonist is Ryu, a young Light Dragon who awakens one night to find his home set on fire by Dark Dragons. After his sister is captured in the attack, Ryu sets off to rescue her. In the process, he joins a race to uncover seven mystical keys, before the Dark Dragons can use them to unlock a goddess of destruction.",
  "language": "English",
  "images": [
    "https://img-proxy.imgfo.com/?referer=https://manganelo.com&url=https://s5.mkklcdnv6temp.com/mangakakalot/b2/breath_of_fire_ryuu_no_senshi/vol2_chapter_4_dream_encounter/1.jpg",
    "https://img-proxy.imgfo.com/?referer=https://manganelo.com&url=https://s5.mkklcdnv6temp.com/mangakakalot/b2/breath_of_fire_ryuu_no_senshi/vol2_chapter_4_dream_encounter/2.jpg",
    "https://img-proxy.imgfo.com/?referer=https://manganelo.com&url=https://s5.mkklcdnv6temp.com/mangakakalot/b2/breath_of_fire_ryuu_no_senshi/vol2_chapter_4_dream_encounter/3.jpg",
    "https://img-proxy.imgfo.com/?referer=https://manganelo.com&url=https://s5.mkklcdnv6temp.com/mangakakalot/b2/breath_of_fire_ryuu_no_senshi/vol2_chapter_4_dream_encounter/4.jpg",
    "https://img-proxy.imgfo.com/?referer=https://manganelo.com&url=https://s5.mkklcdnv6temp.com/mangakakalot/b2/breath_of_fire_ryuu_no_senshi/vol2_chapter_4_dream_encounter/5.jpg",
    "https://img-proxy.imgfo.com/?referer=https://manganelo.com&url=https://s5.mkklcdnv6temp.com/mangakakalot/b2/breath_of_fire_ryuu_no_senshi/vol2_chapter_4_dream_encounter/6.jpg",
    "https://img-proxy.imgfo.com/?referer=https://manganelo.com&url=https://s5.mkklcdnv6temp.com/mangakakalot/b2/breath_of_fire_ryuu_no_senshi/vol2_chapter_4_dream_encounter/7.jpg",
    "https://img-proxy.imgfo.com/?referer=https://manganelo.com&url=https://s5.mkklcdnv6temp.com/mangakakalot/b2/breath_of_fire_ryuu_no_senshi/vol2_chapter_4_dream_encounter/8.jpg",
    "https://img-proxy.imgfo.com/?referer=https://manganelo.com&url=https://s5.mkklcdnv6temp.com/mangakakalot/b2/breath_of_fire_ryuu_no_senshi/vol2_chapter_4_dream_encounter/9.jpg",
    "https://img-proxy.imgfo.com/?referer=https://manganelo.com&url=https://s5.mkklcdnv6temp.com/mangakakalot/b2/breath_of_fire_ryuu_no_senshi/vol2_chapter_4_dream_encounter/10.jpg",
    "https://img-proxy.imgfo.com/?referer=https://manganelo.com&url=https://s5.mkklcdnv6temp.com/mangakakalot/b2/breath_of_fire_ryuu_no_senshi/vol2_chapter_4_dream_encounter/11.jpg",
    "https://img-proxy.imgfo.com/?referer=https://manganelo.com&url=https://s5.mkklcdnv6temp.com/mangakakalot/b2/breath_of_fire_ryuu_no_senshi/vol2_chapter_4_dream_encounter/12.jpg",
    "https://img-proxy.imgfo.com/?referer=https://manganelo.com&url=https://s5.mkklcdnv6temp.com/mangakakalot/b2/breath_of_fire_ryuu_no_senshi/vol2_chapter_4_dream_encounter/13.jpg",
    "https://img-proxy.imgfo.com/?referer=https://manganelo.com&url=https://s5.mkklcdnv6temp.com/mangakakalot/b2/breath_of_fire_ryuu_no_senshi/vol2_chapter_4_dream_encounter/14.jpg",
    "https://img-proxy.imgfo.com/?referer=https://manganelo.com&url=https://s5.mkklcdnv6temp.com/mangakakalot/b2/breath_of_fire_ryuu_no_senshi/vol2_chapter_4_dream_encounter/15.jpg",
    "https://img-proxy.imgfo.com/?referer=https://manganelo.com&url=https://s5.mkklcdnv6temp.com/mangakakalot/b2/breath_of_fire_ryuu_no_senshi/vol2_chapter_4_dream_encounter/16.jpg",
    "https://img-proxy.imgfo.com/?referer=https://manganelo.com&url=https://s5.mkklcdnv6temp.com/mangakakalot/b2/breath_of_fire_ryuu_no_senshi/vol2_chapter_4_dream_encounter/17.jpg",
    "https://img-proxy.imgfo.com/?referer=https://manganelo.com&url=https://s5.mkklcdnv6temp.com/mangakakalot/b2/breath_of_fire_ryuu_no_senshi/vol2_chapter_4_dream_encounter/18.jpg",
    "https://img-proxy.imgfo.com/?referer=https://manganelo.com&url=https://s5.mkklcdnv6temp.com/mangakakalot/b2/breath_of_fire_ryuu_no_senshi/vol2_chapter_4_dream_encounter/19.jpg",
    "https://img-proxy.imgfo.com/?referer=https://manganelo.com&url=https://s5.mkklcdnv6temp.com/mangakakalot/b2/breath_of_fire_ryuu_no_senshi/vol2_chapter_4_dream_encounter/20.jpg",
    "https://img-proxy.imgfo.com/?referer=https://manganelo.com&url=https://s5.mkklcdnv6temp.com/mangakakalot/b2/breath_of_fire_ryuu_no_senshi/vol2_chapter_4_dream_encounter/21.jpg",
    "https://img-proxy.imgfo.com/?referer=https://manganelo.com&url=https://s5.mkklcdnv6temp.com/mangakakalot/b2/breath_of_fire_ryuu_no_senshi/vol2_chapter_4_dream_encounter/22.jpg",
    "https://img-proxy.imgfo.com/?referer=https://manganelo.com&url=https://s5.mkklcdnv6temp.com/mangakakalot/b2/breath_of_fire_ryuu_no_senshi/vol2_chapter_4_dream_encounter/23.jpg",
    "https://img-proxy.imgfo.com/?referer=https://manganelo.com&url=https://s5.mkklcdnv6temp.com/mangakakalot/b2/breath_of_fire_ryuu_no_senshi/vol2_chapter_4_dream_encounter/24.jpg",
    "https://img-proxy.imgfo.com/?referer=https://manganelo.com&url=https://s5.mkklcdnv6temp.com/mangakakalot/b2/breath_of_fire_ryuu_no_senshi/vol2_chapter_4_dream_encounter/25.jpg",
    "https://img-proxy.imgfo.com/?referer=https://manganelo.com&url=https://s5.mkklcdnv6temp.com/mangakakalot/b2/breath_of_fire_ryuu_no_senshi/vol2_chapter_4_dream_encounter/26.jpg",
    "https://img-proxy.imgfo.com/?referer=https://manganelo.com&url=https://s5.mkklcdnv6temp.com/mangakakalot/b2/breath_of_fire_ryuu_no_senshi/vol2_chapter_4_dream_encounter/27.jpg",
    "https://img-proxy.imgfo.com/?referer=https://manganelo.com&url=https://s5.mkklcdnv6temp.com/mangakakalot/b2/breath_of_fire_ryuu_no_senshi/vol2_chapter_4_dream_encounter/28.jpg",
    "https://img-proxy.imgfo.com/?referer=https://manganelo.com&url=https://s5.mkklcdnv6temp.com/mangakakalot/b2/breath_of_fire_ryuu_no_senshi/vol2_chapter_4_dream_encounter/29.jpg",
    "https://img-proxy.imgfo.com/?referer=https://manganelo.com&url=https://s5.mkklcdnv6temp.com/mangakakalot/b2/breath_of_fire_ryuu_no_senshi/vol2_chapter_4_dream_encounter/30.jpg",
    "https://img-proxy.imgfo.com/?referer=https://manganelo.com&url=https://s5.mkklcdnv6temp.com/mangakakalot/b2/breath_of_fire_ryuu_no_senshi/vol2_chapter_4_dream_encounter/31.jpg",
    "https://img-proxy.imgfo.com/?referer=https://manganelo.com&url=https://s5.mkklcdnv6temp.com/mangakakalot/b2/breath_of_fire_ryuu_no_senshi/vol2_chapter_4_dream_encounter/32.jpg",
    "https://img-proxy.imgfo.com/?referer=https://manganelo.com&url=https://s5.mkklcdnv6temp.com/mangakakalot/b2/breath_of_fire_ryuu_no_senshi/vol2_chapter_4_dream_encounter/33.jpg",
    "https://img-proxy.imgfo.com/?referer=https://manganelo.com&url=https://s5.mkklcdnv6temp.com/mangakakalot/b2/breath_of_fire_ryuu_no_senshi/vol2_chapter_4_dream_encounter/34.jpg",
    "https://img-proxy.imgfo.com/?referer=https://manganelo.com&url=https://s5.mkklcdnv6temp.com/mangakakalot/b2/breath_of_fire_ryuu_no_senshi/vol2_chapter_4_dream_encounter/35.jpg",
    "https://img-proxy.imgfo.com/?referer=https://manganelo.com&url=https://s5.mkklcdnv6temp.com/mangakakalot/b2/breath_of_fire_ryuu_no_senshi/vol2_chapter_4_dream_encounter/36.jpg",
    "https://img-proxy.imgfo.com/?referer=https://manganelo.com&url=https://s5.mkklcdnv6temp.com/mangakakalot/b2/breath_of_fire_ryuu_no_senshi/vol2_chapter_4_dream_encounter/37.jpg",
    "https://img-proxy.imgfo.com/?referer=https://manganelo.com&url=https://s5.mkklcdnv6temp.com/mangakakalot/b2/breath_of_fire_ryuu_no_senshi/vol2_chapter_4_dream_encounter/38.jpg",
    "https://img-proxy.imgfo.com/?referer=https://manganelo.com&url=https://s5.mkklcdnv6temp.com/mangakakalot/b2/breath_of_fire_ryuu_no_senshi/vol2_chapter_4_dream_encounter/39.jpg",
    "https://img-proxy.imgfo.com/?referer=https://manganelo.com&url=https://s5.mkklcdnv6temp.com/mangakakalot/b2/breath_of_fire_ryuu_no_senshi/vol2_chapter_4_dream_encounter/40.jpg",
    "https://img-proxy.imgfo.com/?referer=https://manganelo.com&url=https://s5.mkklcdnv6temp.com/mangakakalot/b2/breath_of_fire_ryuu_no_senshi/vol2_chapter_4_dream_encounter/41.jpg",
    "https://img-proxy.imgfo.com/?referer=https://manganelo.com&url=https://s5.mkklcdnv6temp.com/mangakakalot/b2/breath_of_fire_ryuu_no_senshi/vol2_chapter_4_dream_encounter/42.jpg",
    "https://img-proxy.imgfo.com/?referer=https://manganelo.com&url=https://s5.mkklcdnv6temp.com/mangakakalot/b2/breath_of_fire_ryuu_no_senshi/vol2_chapter_4_dream_encounter/43.jpg",
    "https://img-proxy.imgfo.com/?referer=https://manganelo.com&url=https://s5.mkklcdnv6temp.com/mangakakalot/b2/breath_of_fire_ryuu_no_senshi/vol2_chapter_4_dream_encounter/44.jpg",
    "https://img-proxy.imgfo.com/?referer=https://manganelo.com&url=https://s5.mkklcdnv6temp.com/mangakakalot/b2/breath_of_fire_ryuu_no_senshi/vol2_chapter_4_dream_encounter/45.jpg",
    "https://img-proxy.imgfo.com/?referer=https://manganelo.com&url=https://s5.mkklcdnv6temp.com/mangakakalot/b2/breath_of_fire_ryuu_no_senshi/vol2_chapter_4_dream_encounter/46.jpg",
    "https://img-proxy.imgfo.com/?referer=https://manganelo.com&url=https://s5.mkklcdnv6temp.com/mangakakalot/b2/breath_of_fire_ryuu_no_senshi/vol2_chapter_4_dream_encounter/47.jpg",
    "https://img-proxy.imgfo.com/?referer=https://manganelo.com&url=https://s5.mkklcdnv6temp.com/mangakakalot/b2/breath_of_fire_ryuu_no_senshi/vol2_chapter_4_dream_encounter/48.jpg",
    "https://img-proxy.imgfo.com/?referer=https://manganelo.com&url=https://s5.mkklcdnv6temp.com/mangakakalot/b2/breath_of_fire_ryuu_no_senshi/vol2_chapter_4_dream_encounter/49.jpg",
    "https://img-proxy.imgfo.com/?referer=https://manganelo.com&url=https://s5.mkklcdnv6temp.com/mangakakalot/b2/breath_of_fire_ryuu_no_senshi/vol2_chapter_4_dream_encounter/50.jpg",
    "https://img-proxy.imgfo.com/?referer=https://manganelo.com&url=https://s5.mkklcdnv6temp.com/mangakakalot/b2/breath_of_fire_ryuu_no_senshi/vol2_chapter_4_dream_encounter/51.jpg"
  ]
}