{
  "cover": "https://avt.mkklcdnv6.com/46/f/3-1583469494.jpg",
  "title": "Soul Eater",
  "original": "Пожиратель душ ; ソウルイーター ; 噬魂师 ; Soul Eater manga",
  "genre": "Action, Adult, Adventure, Comedy, Drama, Ecchi, Fantasy, Horror, School life, Shounen, Supernatural, Manga",
  "author": "Ohkubo Atsushi",
  "status": "Completed",
  "backlink": "https://manganu.com/collections/ohkubo-atsushi/soul-eater/",
  "description": "Read Soul Eater Manga\nSoul Eater Manga is a Japanese manga series illustrated and written by Atsushi Okubo. Looking to create the latter a &quot;death scythe&quot; and therefore fit for use by the school&#39;s headmaster Shinigami, the personification of departure, they need to gather the souls of 99 wicked people and one witch, in that sequence; otherwise, they&#39;re going to have to begin all over again.\n\nSoul Eater Manga is placed at Death Weapon Meister Academy --&quot;DWMA&quot; for short--situated in the fictional Death City in Nevada, United States. The institution is run as a training facility for the wielders of these weapons, named meisters, in addition to individuals together with the capacity to transform into weapons, also called Death, by Shinigami.\n\nMedusa and her cohorts assault DWMA together with the aim of restoring the first kishin who almost plunged the world into insanity before being secured beneath DWMA by Shinigami, Asura. Even with the combined efforts of Death the Kid, Black Star, and Maka, Asura, who leaves to spread mayhem all over the world following a short conflict with Shinigami is successfully revived by the group of Medusa. Nevertheless, Medusa befriend Maka and is apparently killed by meister and DWMA teacher Franken Stein in the act, while Crona surrenders to the DWMA and goes to register there.\n\n\nCharacters in Soul Eater Manga\n\nAs an outcome of Asura&#39;s distributing insanity, the older sister Arachne of Medusa comes out of hiding after 800 years. Arachne reforms her organization Arachnophobia, which poses itself as a critical danger to DWMA. Shinigami calls all over the world to assist in the struggle against Arachnophobia from in passing scythes. In now, Medusa forms truce, and reappears along with her soul within the body of a woman so they could annihilate the risk of Arachnophobia collectively. The DWMA pupils and brainwash Crona into rejoining her, possess Arachne&#39;s body, and the entourage of Medusa infiltrate the headquarters where Maka gets the better of Arachne, just for Medusa to betray DWMA of Arachnophobia. Meanwhile, Noah, an artificial concept created in the Book of Eibon&#39;s Tables of Contents captures Death the Kid. Following this, Maka eventually succeeds in turning Soul Eater into a passing scythe.\n\nCrona resurfaces in a city in Russia, destroying it and killing the departure scythe stationed there, eventually being chosen by madness after killing Medusa while DWMA hunts for Asura&#39;s location. Shinigami orders Maka to hunt down Crona, and she accidentally finds Asura&#39;s place on the moon, while hunting for Crona with her powers. An assault is launched by the DWMA on the moon to take Asura down, only to be repelled by his militaries that are Clown. Maka as well as the others find a way to choose the upper hand helped by the witches after Death the Kid successfully convinces them to set up a short-term alliance, but the situation gets a lot more chaotic using the hindrance of Crona, who consumes Asura&#39;s body before being overtaken by him.\n\nThe manga was released as three different one and is published by Square Enix -shots serialized in one Gangan Wing and two Gangan Powered special versions in 2003. Yen Press has licensed for distribution in North America the manga. A manga series that runs alongside the primary collection, named Soul Eater Not!, started serialization on January 12, 2011 in Monthly Shonen Gangan.\n\n\n&nbsp;\nPrincipal Characters in Soul Eater manga\nMaka Albam\nMaka Albarn is among the primary protagonists of Soul Eater Manga. She&#39;s a young but committed pupil who takes another prodigious meister, after her mom. Nevertheless, her relationship with her dad Spirit is strained due to his continuous flirtations with girls, leading her parents. Therefore, Maka is obsessed with turning her weapon partner, Soul Eater, into a passing scythe which will surpass her dad.[ch. 0a] She collaborates well with Soul in conflict, but occasionally gets frustrated at him when he does something silly. When in risk, yet, Maka does everything she can to keep Soul out of harm&#39;s way.[ch. 4]\n\nSoul Eater\nSoul Evans,nicknamed Soul Eater, is the partner of Maka Albarn as well as a devil scythe, as well as the principal male protagonist. His weapon form includes a reddish- and-black blade.\n\n+ Skip Beat manga\n+&nbsp;Monster Musume no Iru Nichijou Manga",
  "language": "English",
  "images": [
    "https://img-proxy.imgfo.com/?referer=https://manganelo.com&url=https://s3.mkklcdnv6temp.com/mangakakalot/r1/read_soul_eater_manga/vol22_chapter_95_the_battle_on_the_moon_part_five/1.jpg",
    "https://img-proxy.imgfo.com/?referer=https://manganelo.com&url=https://s3.mkklcdnv6temp.com/mangakakalot/r1/read_soul_eater_manga/vol22_chapter_95_the_battle_on_the_moon_part_five/2.jpg",
    "https://img-proxy.imgfo.com/?referer=https://manganelo.com&url=https://s3.mkklcdnv6temp.com/mangakakalot/r1/read_soul_eater_manga/vol22_chapter_95_the_battle_on_the_moon_part_five/3.jpg",
    "https://img-proxy.imgfo.com/?referer=https://manganelo.com&url=https://s3.mkklcdnv6temp.com/mangakakalot/r1/read_soul_eater_manga/vol22_chapter_95_the_battle_on_the_moon_part_five/4.jpg",
    "https://img-proxy.imgfo.com/?referer=https://manganelo.com&url=https://s3.mkklcdnv6temp.com/mangakakalot/r1/read_soul_eater_manga/vol22_chapter_95_the_battle_on_the_moon_part_five/5.jpg",
    "https://img-proxy.imgfo.com/?referer=https://manganelo.com&url=https://s3.mkklcdnv6temp.com/mangakakalot/r1/read_soul_eater_manga/vol22_chapter_95_the_battle_on_the_moon_part_five/6.jpg",
    "https://img-proxy.imgfo.com/?referer=https://manganelo.com&url=https://s3.mkklcdnv6temp.com/mangakakalot/r1/read_soul_eater_manga/vol22_chapter_95_the_battle_on_the_moon_part_five/7.jpg",
    "https://img-proxy.imgfo.com/?referer=https://manganelo.com&url=https://s3.mkklcdnv6temp.com/mangakakalot/r1/read_soul_eater_manga/vol22_chapter_95_the_battle_on_the_moon_part_five/8.jpg",
    "https://img-proxy.imgfo.com/?referer=https://manganelo.com&url=https://s3.mkklcdnv6temp.com/mangakakalot/r1/read_soul_eater_manga/vol22_chapter_95_the_battle_on_the_moon_part_five/9.jpg",
    "https://img-proxy.imgfo.com/?referer=https://manganelo.com&url=https://s3.mkklcdnv6temp.com/mangakakalot/r1/read_soul_eater_manga/vol22_chapter_95_the_battle_on_the_moon_part_five/10.jpg",
    "https://img-proxy.imgfo.com/?referer=https://manganelo.com&url=https://s3.mkklcdnv6temp.com/mangakakalot/r1/read_soul_eater_manga/vol22_chapter_95_the_battle_on_the_moon_part_five/11.jpg",
    "https://img-proxy.imgfo.com/?referer=https://manganelo.com&url=https://s3.mkklcdnv6temp.com/mangakakalot/r1/read_soul_eater_manga/vol22_chapter_95_the_battle_on_the_moon_part_five/12.jpg",
    "https://img-proxy.imgfo.com/?referer=https://manganelo.com&url=https://s3.mkklcdnv6temp.com/mangakakalot/r1/read_soul_eater_manga/vol22_chapter_95_the_battle_on_the_moon_part_five/13.jpg",
    "https://img-proxy.imgfo.com/?referer=https://manganelo.com&url=https://s3.mkklcdnv6temp.com/mangakakalot/r1/read_soul_eater_manga/vol22_chapter_95_the_battle_on_the_moon_part_five/14.jpg",
    "https://img-proxy.imgfo.com/?referer=https://manganelo.com&url=https://s3.mkklcdnv6temp.com/mangakakalot/r1/read_soul_eater_manga/vol22_chapter_95_the_battle_on_the_moon_part_five/15.jpg",
    "https://img-proxy.imgfo.com/?referer=https://manganelo.com&url=https://s3.mkklcdnv6temp.com/mangakakalot/r1/read_soul_eater_manga/vol22_chapter_95_the_battle_on_the_moon_part_five/16.jpg",
    "https://img-proxy.imgfo.com/?referer=https://manganelo.com&url=https://s3.mkklcdnv6temp.com/mangakakalot/r1/read_soul_eater_manga/vol22_chapter_95_the_battle_on_the_moon_part_five/17.jpg",
    "https://img-proxy.imgfo.com/?referer=https://manganelo.com&url=https://s3.mkklcdnv6temp.com/mangakakalot/r1/read_soul_eater_manga/vol22_chapter_95_the_battle_on_the_moon_part_five/18.jpg",
    "https://img-proxy.imgfo.com/?referer=https://manganelo.com&url=https://s3.mkklcdnv6temp.com/mangakakalot/r1/read_soul_eater_manga/vol22_chapter_95_the_battle_on_the_moon_part_five/19.jpg",
    "https://img-proxy.imgfo.com/?referer=https://manganelo.com&url=https://s3.mkklcdnv6temp.com/mangakakalot/r1/read_soul_eater_manga/vol22_chapter_95_the_battle_on_the_moon_part_five/20.jpg",
    "https://img-proxy.imgfo.com/?referer=https://manganelo.com&url=https://s3.mkklcdnv6temp.com/mangakakalot/r1/read_soul_eater_manga/vol22_chapter_95_the_battle_on_the_moon_part_five/21.jpg",
    "https://img-proxy.imgfo.com/?referer=https://manganelo.com&url=https://s3.mkklcdnv6temp.com/mangakakalot/r1/read_soul_eater_manga/vol22_chapter_95_the_battle_on_the_moon_part_five/22.jpg",
    "https://img-proxy.imgfo.com/?referer=https://manganelo.com&url=https://s3.mkklcdnv6temp.com/mangakakalot/r1/read_soul_eater_manga/vol22_chapter_95_the_battle_on_the_moon_part_five/23.jpg",
    "https://img-proxy.imgfo.com/?referer=https://manganelo.com&url=https://s3.mkklcdnv6temp.com/mangakakalot/r1/read_soul_eater_manga/vol22_chapter_95_the_battle_on_the_moon_part_five/24.jpg",
    "https://img-proxy.imgfo.com/?referer=https://manganelo.com&url=https://s3.mkklcdnv6temp.com/mangakakalot/r1/read_soul_eater_manga/vol22_chapter_95_the_battle_on_the_moon_part_five/25.jpg",
    "https://img-proxy.imgfo.com/?referer=https://manganelo.com&url=https://s3.mkklcdnv6temp.com/mangakakalot/r1/read_soul_eater_manga/vol22_chapter_95_the_battle_on_the_moon_part_five/26.jpg",
    "https://img-proxy.imgfo.com/?referer=https://manganelo.com&url=https://s3.mkklcdnv6temp.com/mangakakalot/r1/read_soul_eater_manga/vol22_chapter_95_the_battle_on_the_moon_part_five/27.jpg",
    "https://img-proxy.imgfo.com/?referer=https://manganelo.com&url=https://s3.mkklcdnv6temp.com/mangakakalot/r1/read_soul_eater_manga/vol22_chapter_95_the_battle_on_the_moon_part_five/28.jpg",
    "https://img-proxy.imgfo.com/?referer=https://manganelo.com&url=https://s3.mkklcdnv6temp.com/mangakakalot/r1/read_soul_eater_manga/vol22_chapter_95_the_battle_on_the_moon_part_five/29.jpg",
    "https://img-proxy.imgfo.com/?referer=https://manganelo.com&url=https://s3.mkklcdnv6temp.com/mangakakalot/r1/read_soul_eater_manga/vol22_chapter_95_the_battle_on_the_moon_part_five/30.jpg",
    "https://img-proxy.imgfo.com/?referer=https://manganelo.com&url=https://s3.mkklcdnv6temp.com/mangakakalot/r1/read_soul_eater_manga/vol22_chapter_95_the_battle_on_the_moon_part_five/31.jpg",
    "https://img-proxy.imgfo.com/?referer=https://manganelo.com&url=https://s3.mkklcdnv6temp.com/mangakakalot/r1/read_soul_eater_manga/vol22_chapter_95_the_battle_on_the_moon_part_five/32.jpg",
    "https://img-proxy.imgfo.com/?referer=https://manganelo.com&url=https://s3.mkklcdnv6temp.com/mangakakalot/r1/read_soul_eater_manga/vol22_chapter_95_the_battle_on_the_moon_part_five/33.jpg",
    "https://img-proxy.imgfo.com/?referer=https://manganelo.com&url=https://s3.mkklcdnv6temp.com/mangakakalot/r1/read_soul_eater_manga/vol22_chapter_95_the_battle_on_the_moon_part_five/34.jpg"
  ]
}