{
  "cover": "https://avt.mkklcdnv6.com/6/h/4-1583469921.jpg",
  "title": "Breakfast Club",
  "original": "ドアトゥドア ; ピロー・トーク ; ブレックファースト・クラブ ; ブレックファースト・クラブシリーズ ; ベッド・タイム ; ルームメイト ; 秘密午夜時光 ; 秘密室友 ; 秘密早安情人 ; 秘密早餐俱樂部 ; 秘密枕邊情人 ; Aishiteru Aishitenai (TAKAIDO Akemi) ; Bed Time ; BFC俱樂部 ; Breakfast Club Series ; Door to Door ; Lesson 1 ; Pillow Talk ; Room Mate (TAKAIDO Akemi)",
  "genre": "Comedy, Drama, Romance, School life, Yaoi, Manga",
  "author": "Takaido Akemi",
  "status": "Completed",
  "backlink": "https://manganu.com/collections/takaido-akemi/breakfast-club/",
  "description": "Yaoi series of stories about life in a boy's dorm at a high school. The main couple in the first volume is Masamoto and Izuka, who are roommates. Masamoto saves Izuka from prostitution. There is also Hiroki who is sleeping with his teacher the dorm manager.\nVol. 1 Breakfast Club\nVol. 2 Room Mate\nVol. 3 Bed Time\nVol. 4 Pillow Talk\nVol. 5 Door to Door",
  "language": "English",
  "images": [
    "https://img-proxy.imgfo.com/?referer=https://manganelo.com&url=https://s3.mkklcdnv6temp.com/mangakakalot/b2/breakfast_club/vol02_chapter_5_aishiteru_aishitenai_one_shot/1.jpg",
    "https://img-proxy.imgfo.com/?referer=https://manganelo.com&url=https://s3.mkklcdnv6temp.com/mangakakalot/b2/breakfast_club/vol02_chapter_5_aishiteru_aishitenai_one_shot/2.jpg",
    "https://img-proxy.imgfo.com/?referer=https://manganelo.com&url=https://s3.mkklcdnv6temp.com/mangakakalot/b2/breakfast_club/vol02_chapter_5_aishiteru_aishitenai_one_shot/3.jpg",
    "https://img-proxy.imgfo.com/?referer=https://manganelo.com&url=https://s3.mkklcdnv6temp.com/mangakakalot/b2/breakfast_club/vol02_chapter_5_aishiteru_aishitenai_one_shot/4.jpg",
    "https://img-proxy.imgfo.com/?referer=https://manganelo.com&url=https://s3.mkklcdnv6temp.com/mangakakalot/b2/breakfast_club/vol02_chapter_5_aishiteru_aishitenai_one_shot/5.jpg",
    "https://img-proxy.imgfo.com/?referer=https://manganelo.com&url=https://s3.mkklcdnv6temp.com/mangakakalot/b2/breakfast_club/vol02_chapter_5_aishiteru_aishitenai_one_shot/6.jpg",
    "https://img-proxy.imgfo.com/?referer=https://manganelo.com&url=https://s3.mkklcdnv6temp.com/mangakakalot/b2/breakfast_club/vol02_chapter_5_aishiteru_aishitenai_one_shot/7.jpg",
    "https://img-proxy.imgfo.com/?referer=https://manganelo.com&url=https://s3.mkklcdnv6temp.com/mangakakalot/b2/breakfast_club/vol02_chapter_5_aishiteru_aishitenai_one_shot/8.jpg",
    "https://img-proxy.imgfo.com/?referer=https://manganelo.com&url=https://s3.mkklcdnv6temp.com/mangakakalot/b2/breakfast_club/vol02_chapter_5_aishiteru_aishitenai_one_shot/9.jpg",
    "https://img-proxy.imgfo.com/?referer=https://manganelo.com&url=https://s3.mkklcdnv6temp.com/mangakakalot/b2/breakfast_club/vol02_chapter_5_aishiteru_aishitenai_one_shot/10.jpg",
    "https://img-proxy.imgfo.com/?referer=https://manganelo.com&url=https://s3.mkklcdnv6temp.com/mangakakalot/b2/breakfast_club/vol02_chapter_5_aishiteru_aishitenai_one_shot/11.jpg",
    "https://img-proxy.imgfo.com/?referer=https://manganelo.com&url=https://s3.mkklcdnv6temp.com/mangakakalot/b2/breakfast_club/vol02_chapter_5_aishiteru_aishitenai_one_shot/12.jpg",
    "https://img-proxy.imgfo.com/?referer=https://manganelo.com&url=https://s3.mkklcdnv6temp.com/mangakakalot/b2/breakfast_club/vol02_chapter_5_aishiteru_aishitenai_one_shot/13.jpg",
    "https://img-proxy.imgfo.com/?referer=https://manganelo.com&url=https://s3.mkklcdnv6temp.com/mangakakalot/b2/breakfast_club/vol02_chapter_5_aishiteru_aishitenai_one_shot/14.jpg",
    "https://img-proxy.imgfo.com/?referer=https://manganelo.com&url=https://s3.mkklcdnv6temp.com/mangakakalot/b2/breakfast_club/vol02_chapter_5_aishiteru_aishitenai_one_shot/15.jpg",
    "https://img-proxy.imgfo.com/?referer=https://manganelo.com&url=https://s3.mkklcdnv6temp.com/mangakakalot/b2/breakfast_club/vol02_chapter_5_aishiteru_aishitenai_one_shot/16.jpg",
    "https://img-proxy.imgfo.com/?referer=https://manganelo.com&url=https://s3.mkklcdnv6temp.com/mangakakalot/b2/breakfast_club/vol02_chapter_5_aishiteru_aishitenai_one_shot/17.jpg",
    "https://img-proxy.imgfo.com/?referer=https://manganelo.com&url=https://s3.mkklcdnv6temp.com/mangakakalot/b2/breakfast_club/vol02_chapter_5_aishiteru_aishitenai_one_shot/18.jpg",
    "https://img-proxy.imgfo.com/?referer=https://manganelo.com&url=https://s3.mkklcdnv6temp.com/mangakakalot/b2/breakfast_club/vol02_chapter_5_aishiteru_aishitenai_one_shot/19.jpg",
    "https://img-proxy.imgfo.com/?referer=https://manganelo.com&url=https://s3.mkklcdnv6temp.com/mangakakalot/b2/breakfast_club/vol02_chapter_5_aishiteru_aishitenai_one_shot/20.jpg",
    "https://img-proxy.imgfo.com/?referer=https://manganelo.com&url=https://s3.mkklcdnv6temp.com/mangakakalot/b2/breakfast_club/vol02_chapter_5_aishiteru_aishitenai_one_shot/21.jpg",
    "https://img-proxy.imgfo.com/?referer=https://manganelo.com&url=https://s3.mkklcdnv6temp.com/mangakakalot/b2/breakfast_club/vol02_chapter_5_aishiteru_aishitenai_one_shot/22.jpg",
    "https://img-proxy.imgfo.com/?referer=https://manganelo.com&url=https://s3.mkklcdnv6temp.com/mangakakalot/b2/breakfast_club/vol02_chapter_5_aishiteru_aishitenai_one_shot/23.jpg",
    "https://img-proxy.imgfo.com/?referer=https://manganelo.com&url=https://s3.mkklcdnv6temp.com/mangakakalot/b2/breakfast_club/vol02_chapter_5_aishiteru_aishitenai_one_shot/24.jpg",
    "https://img-proxy.imgfo.com/?referer=https://manganelo.com&url=https://s3.mkklcdnv6temp.com/mangakakalot/b2/breakfast_club/vol02_chapter_5_aishiteru_aishitenai_one_shot/25.jpg",
    "https://img-proxy.imgfo.com/?referer=https://manganelo.com&url=https://s3.mkklcdnv6temp.com/mangakakalot/b2/breakfast_club/vol02_chapter_5_aishiteru_aishitenai_one_shot/26.jpg",
    "https://img-proxy.imgfo.com/?referer=https://manganelo.com&url=https://s3.mkklcdnv6temp.com/mangakakalot/b2/breakfast_club/vol02_chapter_5_aishiteru_aishitenai_one_shot/27.jpg",
    "https://img-proxy.imgfo.com/?referer=https://manganelo.com&url=https://s3.mkklcdnv6temp.com/mangakakalot/b2/breakfast_club/vol02_chapter_5_aishiteru_aishitenai_one_shot/28.jpg",
    "https://img-proxy.imgfo.com/?referer=https://manganelo.com&url=https://s3.mkklcdnv6temp.com/mangakakalot/b2/breakfast_club/vol02_chapter_5_aishiteru_aishitenai_one_shot/29.jpg",
    "https://img-proxy.imgfo.com/?referer=https://manganelo.com&url=https://s3.mkklcdnv6temp.com/mangakakalot/b2/breakfast_club/vol02_chapter_5_aishiteru_aishitenai_one_shot/30.jpg",
    "https://img-proxy.imgfo.com/?referer=https://manganelo.com&url=https://s3.mkklcdnv6temp.com/mangakakalot/b2/breakfast_club/vol02_chapter_5_aishiteru_aishitenai_one_shot/31.jpg",
    "https://img-proxy.imgfo.com/?referer=https://manganelo.com&url=https://s3.mkklcdnv6temp.com/mangakakalot/b2/breakfast_club/vol02_chapter_5_aishiteru_aishitenai_one_shot/32.jpg",
    "https://img-proxy.imgfo.com/?referer=https://manganelo.com&url=https://s3.mkklcdnv6temp.com/mangakakalot/b2/breakfast_club/vol02_chapter_5_aishiteru_aishitenai_one_shot/33.jpg",
    "https://img-proxy.imgfo.com/?referer=https://manganelo.com&url=https://s3.mkklcdnv6temp.com/mangakakalot/b2/breakfast_club/vol02_chapter_5_aishiteru_aishitenai_one_shot/34.jpg",
    "https://img-proxy.imgfo.com/?referer=https://manganelo.com&url=https://s3.mkklcdnv6temp.com/mangakakalot/b2/breakfast_club/vol02_chapter_5_aishiteru_aishitenai_one_shot/35.jpg"
  ]
}