{
  "cover": "https://avt.mkklcdnv6.com/33/h/6-1583475471.jpg",
  "title": "Chiki Chiki Banana",
  "original": "チキチキバナナ ; 处女辣妹 ; 處女辣妹",
  "genre": "Romance, Shoujo, Smut, Manga",
  "author": "Yokoyama Mayumi",
  "status": "Completed",
  "backlink": "https://manganu.com/collections/yokoyama-mayumi/chiki-chiki-banana/",
  "description": "From ShoujoMagic:\nTwo bold and daring high school girls, Naomi and Jennifer have no enemies! They must certainly have many perverted stories to tell...or so you'd think. But they are actually pure virgins! The two finally get boyfriends, and their hearts beat fast as they look forward to their first sexual experiences, but!? A must read for beginners of love! // Stories included: Chiki Chiki Banana, Dok!n, Wild Card, Red Hot & Muki Muki Banana.",
  "language": "English",
  "images": [
    "https://img-proxy.imgfo.com/?referer=https://manganelo.com&url=https://s6.mkklcdnv6temp.com/mangakakalot/c1/chiki_chiki_banana/vol1_chapter_5_muki_muki_banana/1.jpg",
    "https://img-proxy.imgfo.com/?referer=https://manganelo.com&url=https://s6.mkklcdnv6temp.com/mangakakalot/c1/chiki_chiki_banana/vol1_chapter_5_muki_muki_banana/2.jpg",
    "https://img-proxy.imgfo.com/?referer=https://manganelo.com&url=https://s6.mkklcdnv6temp.com/mangakakalot/c1/chiki_chiki_banana/vol1_chapter_5_muki_muki_banana/3.jpg",
    "https://img-proxy.imgfo.com/?referer=https://manganelo.com&url=https://s6.mkklcdnv6temp.com/mangakakalot/c1/chiki_chiki_banana/vol1_chapter_5_muki_muki_banana/4.jpg",
    "https://img-proxy.imgfo.com/?referer=https://manganelo.com&url=https://s6.mkklcdnv6temp.com/mangakakalot/c1/chiki_chiki_banana/vol1_chapter_5_muki_muki_banana/5.jpg",
    "https://img-proxy.imgfo.com/?referer=https://manganelo.com&url=https://s6.mkklcdnv6temp.com/mangakakalot/c1/chiki_chiki_banana/vol1_chapter_5_muki_muki_banana/6.jpg",
    "https://img-proxy.imgfo.com/?referer=https://manganelo.com&url=https://s6.mkklcdnv6temp.com/mangakakalot/c1/chiki_chiki_banana/vol1_chapter_5_muki_muki_banana/7.jpg",
    "https://img-proxy.imgfo.com/?referer=https://manganelo.com&url=https://s6.mkklcdnv6temp.com/mangakakalot/c1/chiki_chiki_banana/vol1_chapter_5_muki_muki_banana/8.jpg",
    "https://img-proxy.imgfo.com/?referer=https://manganelo.com&url=https://s6.mkklcdnv6temp.com/mangakakalot/c1/chiki_chiki_banana/vol1_chapter_5_muki_muki_banana/9.jpg",
    "https://img-proxy.imgfo.com/?referer=https://manganelo.com&url=https://s6.mkklcdnv6temp.com/mangakakalot/c1/chiki_chiki_banana/vol1_chapter_5_muki_muki_banana/10.jpg"
  ]
}