{
  "cover": "https://avt.mkklcdnv6.com/33/c/4-1583471044.jpg",
  "title": "Warui Yatsu Demo Ii",
  "original": "ワルイ男でもイイ ; 坏男人也没关系 ; 壞男人也沒關系 ; 恶作剧系列A3 ; 惡作劇系列A3 ; 愛上壞壞的傢伙 ; 爱上坏坏的家伙 ; Es incluso un chico malo, bueno? (Spanish) ; Is even a bad boy, good? ; Tendre Voyou 4 (French) ; Warui Otoko Demo ii?",
  "genre": "Comedy, Drama, Mature, Romance, School life, Yaoi, Manga",
  "author": "Sakuraga Mei",
  "status": "Completed",
  "backlink": "https://manganu.com/collections/sakuraga-mei/warui-yatsu-demo-ii/",
  "description": "Despite the content of their relationship, the delinquent Towa Aikawa is still a \"friend\" of the Student Council President, Mikado Shirahane. But today, Towa gets to sleep-in at Mikado's house for the very first time! Could their relationship advance into \"lovers\" now...!?\nList of Warui Series:\nVol 1 Warui Koto Shitai [1-1]\nVol 2 Waruiko Demo Ii? [1-2]\nVol 3 Kirai ja nai Kedo [2-1]\nVol 4 Koi Ja nai Kedo [2-2]\n--- Warui Koto Bakkashite Gomennasai [1-3 &/ 2-3]\nVol 5 Warui Yatsu Demo Ii [1-4]\nVol 6 Mujihi na Otoko [3-1]\nVol 7 Warui Koibito ja Dame? [1-5]\nVol 8 Kare ja nai kedo [2-4]\nVol 9 Mujihi na Anata [3-2]\nVol 10 Sunao ja nai Kedo [2-5]",
  "language": "English",
  "images": [
    "https://img-proxy.imgfo.com/?referer=https://manganelo.com&url=https://s41.mkklcdnv6temp.com/mangakakalot/w1/warui_yatsu_demo_ii/vol1_chapter_3/1.jpg",
    "https://img-proxy.imgfo.com/?referer=https://manganelo.com&url=https://s41.mkklcdnv6temp.com/mangakakalot/w1/warui_yatsu_demo_ii/vol1_chapter_3/2.jpg",
    "https://img-proxy.imgfo.com/?referer=https://manganelo.com&url=https://s41.mkklcdnv6temp.com/mangakakalot/w1/warui_yatsu_demo_ii/vol1_chapter_3/3.jpg",
    "https://img-proxy.imgfo.com/?referer=https://manganelo.com&url=https://s41.mkklcdnv6temp.com/mangakakalot/w1/warui_yatsu_demo_ii/vol1_chapter_3/4.jpg",
    "https://img-proxy.imgfo.com/?referer=https://manganelo.com&url=https://s41.mkklcdnv6temp.com/mangakakalot/w1/warui_yatsu_demo_ii/vol1_chapter_3/5.jpg",
    "https://img-proxy.imgfo.com/?referer=https://manganelo.com&url=https://s41.mkklcdnv6temp.com/mangakakalot/w1/warui_yatsu_demo_ii/vol1_chapter_3/6.jpg",
    "https://img-proxy.imgfo.com/?referer=https://manganelo.com&url=https://s41.mkklcdnv6temp.com/mangakakalot/w1/warui_yatsu_demo_ii/vol1_chapter_3/7.jpg",
    "https://img-proxy.imgfo.com/?referer=https://manganelo.com&url=https://s41.mkklcdnv6temp.com/mangakakalot/w1/warui_yatsu_demo_ii/vol1_chapter_3/8.jpg",
    "https://img-proxy.imgfo.com/?referer=https://manganelo.com&url=https://s41.mkklcdnv6temp.com/mangakakalot/w1/warui_yatsu_demo_ii/vol1_chapter_3/9.jpg",
    "https://img-proxy.imgfo.com/?referer=https://manganelo.com&url=https://s41.mkklcdnv6temp.com/mangakakalot/w1/warui_yatsu_demo_ii/vol1_chapter_3/10.jpg",
    "https://img-proxy.imgfo.com/?referer=https://manganelo.com&url=https://s41.mkklcdnv6temp.com/mangakakalot/w1/warui_yatsu_demo_ii/vol1_chapter_3/11.jpg",
    "https://img-proxy.imgfo.com/?referer=https://manganelo.com&url=https://s41.mkklcdnv6temp.com/mangakakalot/w1/warui_yatsu_demo_ii/vol1_chapter_3/12.jpg",
    "https://img-proxy.imgfo.com/?referer=https://manganelo.com&url=https://s41.mkklcdnv6temp.com/mangakakalot/w1/warui_yatsu_demo_ii/vol1_chapter_3/13.jpg",
    "https://img-proxy.imgfo.com/?referer=https://manganelo.com&url=https://s41.mkklcdnv6temp.com/mangakakalot/w1/warui_yatsu_demo_ii/vol1_chapter_3/14.jpg",
    "https://img-proxy.imgfo.com/?referer=https://manganelo.com&url=https://s41.mkklcdnv6temp.com/mangakakalot/w1/warui_yatsu_demo_ii/vol1_chapter_3/15.jpg",
    "https://img-proxy.imgfo.com/?referer=https://manganelo.com&url=https://s41.mkklcdnv6temp.com/mangakakalot/w1/warui_yatsu_demo_ii/vol1_chapter_3/16.jpg",
    "https://img-proxy.imgfo.com/?referer=https://manganelo.com&url=https://s41.mkklcdnv6temp.com/mangakakalot/w1/warui_yatsu_demo_ii/vol1_chapter_3/17.jpg",
    "https://img-proxy.imgfo.com/?referer=https://manganelo.com&url=https://s41.mkklcdnv6temp.com/mangakakalot/w1/warui_yatsu_demo_ii/vol1_chapter_3/18.jpg",
    "https://img-proxy.imgfo.com/?referer=https://manganelo.com&url=https://s41.mkklcdnv6temp.com/mangakakalot/w1/warui_yatsu_demo_ii/vol1_chapter_3/19.jpg",
    "https://img-proxy.imgfo.com/?referer=https://manganelo.com&url=https://s41.mkklcdnv6temp.com/mangakakalot/w1/warui_yatsu_demo_ii/vol1_chapter_3/20.jpg",
    "https://img-proxy.imgfo.com/?referer=https://manganelo.com&url=https://s41.mkklcdnv6temp.com/mangakakalot/w1/warui_yatsu_demo_ii/vol1_chapter_3/21.jpg",
    "https://img-proxy.imgfo.com/?referer=https://manganelo.com&url=https://s41.mkklcdnv6temp.com/mangakakalot/w1/warui_yatsu_demo_ii/vol1_chapter_3/22.jpg",
    "https://img-proxy.imgfo.com/?referer=https://manganelo.com&url=https://s41.mkklcdnv6temp.com/mangakakalot/w1/warui_yatsu_demo_ii/vol1_chapter_3/23.jpg",
    "https://img-proxy.imgfo.com/?referer=https://manganelo.com&url=https://s41.mkklcdnv6temp.com/mangakakalot/w1/warui_yatsu_demo_ii/vol1_chapter_3/24.jpg",
    "https://img-proxy.imgfo.com/?referer=https://manganelo.com&url=https://s41.mkklcdnv6temp.com/mangakakalot/w1/warui_yatsu_demo_ii/vol1_chapter_3/25.jpg",
    "https://img-proxy.imgfo.com/?referer=https://manganelo.com&url=https://s41.mkklcdnv6temp.com/mangakakalot/w1/warui_yatsu_demo_ii/vol1_chapter_3/26.jpg",
    "https://img-proxy.imgfo.com/?referer=https://manganelo.com&url=https://s41.mkklcdnv6temp.com/mangakakalot/w1/warui_yatsu_demo_ii/vol1_chapter_3/27.jpg",
    "https://img-proxy.imgfo.com/?referer=https://manganelo.com&url=https://s41.mkklcdnv6temp.com/mangakakalot/w1/warui_yatsu_demo_ii/vol1_chapter_3/28.jpg",
    "https://img-proxy.imgfo.com/?referer=https://manganelo.com&url=https://s41.mkklcdnv6temp.com/mangakakalot/w1/warui_yatsu_demo_ii/vol1_chapter_3/29.jpg",
    "https://img-proxy.imgfo.com/?referer=https://manganelo.com&url=https://s41.mkklcdnv6temp.com/mangakakalot/w1/warui_yatsu_demo_ii/vol1_chapter_3/30.jpg",
    "https://img-proxy.imgfo.com/?referer=https://manganelo.com&url=https://s41.mkklcdnv6temp.com/mangakakalot/w1/warui_yatsu_demo_ii/vol1_chapter_3/31.jpg",
    "https://img-proxy.imgfo.com/?referer=https://manganelo.com&url=https://s41.mkklcdnv6temp.com/mangakakalot/w1/warui_yatsu_demo_ii/vol1_chapter_3/32.jpg",
    "https://img-proxy.imgfo.com/?referer=https://manganelo.com&url=https://s41.mkklcdnv6temp.com/mangakakalot/w1/warui_yatsu_demo_ii/vol1_chapter_3/33.jpg",
    "https://img-proxy.imgfo.com/?referer=https://manganelo.com&url=https://s41.mkklcdnv6temp.com/mangakakalot/w1/warui_yatsu_demo_ii/vol1_chapter_3/34.jpg",
    "https://img-proxy.imgfo.com/?referer=https://manganelo.com&url=https://s41.mkklcdnv6temp.com/mangakakalot/w1/warui_yatsu_demo_ii/vol1_chapter_3/35.jpg",
    "https://img-proxy.imgfo.com/?referer=https://manganelo.com&url=https://s41.mkklcdnv6temp.com/mangakakalot/w1/warui_yatsu_demo_ii/vol1_chapter_3/36.jpg"
  ]
}