{
  "cover": "https://avt.mkklcdnv6.com/10/a/5-1583472249.jpg",
  "title": "Nineteen, Twenty-One",
  "original": "十九歲二十一歲 (Chinese) ; 열아홉스물하나 (Korean) ; 19-21 ; Nineteen Twenty One ; Nineteen, Twenty One ; Nineteen, TwentyOne (English) ; Девятнадцать, Двадцать один (Russian) ; Nếu Ta Ngoảnh Lại Nhìn Nhau (Vietnamese - Tiếng Việt) ; Dix-Huit et Vingt Ans (French) ; Neunzehn, einundzwanzig (German)",
  "genre": "Comedy, Drama, Josei, Psychological, Romance, Slice of life, Manhwa",
  "author": "Yohan",
  "status": "Completed",
  "backlink": "https://manganu.com/collections/yohan/nineteen-twenty-one/",
  "description": "From Easy Going Scans: Yun-lee is a girl who is carrying a huge emotional scar in her heart. Due to an accident, she lost 2 precious years of her life, the time period between 19 and 21 years old. Her life is empty. She is miserable, but still attending a preparatory school in an attempt to catch up with all the time she has lost. Suddenly, one day on her way to feed some stray cats, she comes across a young man who seems to have what she has lost... the period between 19 and 21 years old. Please address this work as a Manhwa (Korean word for cartoons) Webtoon from Naver",
  "language": "English",
  "images": [
    "https://img-proxy.imgfo.com/?referer=https://manganelo.com&url=https://s6.mkklcdnv6temp.com/mangakakalot/n1/nineteen_twentyone/vol1_chapter_17_gentiana/1.jpg",
    "https://img-proxy.imgfo.com/?referer=https://manganelo.com&url=https://s6.mkklcdnv6temp.com/mangakakalot/n1/nineteen_twentyone/vol1_chapter_17_gentiana/2.jpg",
    "https://img-proxy.imgfo.com/?referer=https://manganelo.com&url=https://s6.mkklcdnv6temp.com/mangakakalot/n1/nineteen_twentyone/vol1_chapter_17_gentiana/3.jpg",
    "https://img-proxy.imgfo.com/?referer=https://manganelo.com&url=https://s6.mkklcdnv6temp.com/mangakakalot/n1/nineteen_twentyone/vol1_chapter_17_gentiana/4.jpg",
    "https://img-proxy.imgfo.com/?referer=https://manganelo.com&url=https://s6.mkklcdnv6temp.com/mangakakalot/n1/nineteen_twentyone/vol1_chapter_17_gentiana/5.jpg",
    "https://img-proxy.imgfo.com/?referer=https://manganelo.com&url=https://s6.mkklcdnv6temp.com/mangakakalot/n1/nineteen_twentyone/vol1_chapter_17_gentiana/6.jpg",
    "https://img-proxy.imgfo.com/?referer=https://manganelo.com&url=https://s6.mkklcdnv6temp.com/mangakakalot/n1/nineteen_twentyone/vol1_chapter_17_gentiana/7.jpg",
    "https://img-proxy.imgfo.com/?referer=https://manganelo.com&url=https://s6.mkklcdnv6temp.com/mangakakalot/n1/nineteen_twentyone/vol1_chapter_17_gentiana/8.jpg",
    "https://img-proxy.imgfo.com/?referer=https://manganelo.com&url=https://s6.mkklcdnv6temp.com/mangakakalot/n1/nineteen_twentyone/vol1_chapter_17_gentiana/9.jpg",
    "https://img-proxy.imgfo.com/?referer=https://manganelo.com&url=https://s6.mkklcdnv6temp.com/mangakakalot/n1/nineteen_twentyone/vol1_chapter_17_gentiana/10.jpg",
    "https://img-proxy.imgfo.com/?referer=https://manganelo.com&url=https://s6.mkklcdnv6temp.com/mangakakalot/n1/nineteen_twentyone/vol1_chapter_17_gentiana/11.jpg",
    "https://img-proxy.imgfo.com/?referer=https://manganelo.com&url=https://s6.mkklcdnv6temp.com/mangakakalot/n1/nineteen_twentyone/vol1_chapter_17_gentiana/12.jpg",
    "https://img-proxy.imgfo.com/?referer=https://manganelo.com&url=https://s6.mkklcdnv6temp.com/mangakakalot/n1/nineteen_twentyone/vol1_chapter_17_gentiana/13.jpg",
    "https://img-proxy.imgfo.com/?referer=https://manganelo.com&url=https://s6.mkklcdnv6temp.com/mangakakalot/n1/nineteen_twentyone/vol1_chapter_17_gentiana/14.jpg",
    "https://img-proxy.imgfo.com/?referer=https://manganelo.com&url=https://s6.mkklcdnv6temp.com/mangakakalot/n1/nineteen_twentyone/vol1_chapter_17_gentiana/15.jpg",
    "https://img-proxy.imgfo.com/?referer=https://manganelo.com&url=https://s6.mkklcdnv6temp.com/mangakakalot/n1/nineteen_twentyone/vol1_chapter_17_gentiana/16.jpg",
    "https://img-proxy.imgfo.com/?referer=https://manganelo.com&url=https://s6.mkklcdnv6temp.com/mangakakalot/n1/nineteen_twentyone/vol1_chapter_17_gentiana/17.jpg",
    "https://img-proxy.imgfo.com/?referer=https://manganelo.com&url=https://s6.mkklcdnv6temp.com/mangakakalot/n1/nineteen_twentyone/vol1_chapter_17_gentiana/18.jpg",
    "https://img-proxy.imgfo.com/?referer=https://manganelo.com&url=https://s6.mkklcdnv6temp.com/mangakakalot/n1/nineteen_twentyone/vol1_chapter_17_gentiana/19.jpg",
    "https://img-proxy.imgfo.com/?referer=https://manganelo.com&url=https://s6.mkklcdnv6temp.com/mangakakalot/n1/nineteen_twentyone/vol1_chapter_17_gentiana/20.jpg",
    "https://img-proxy.imgfo.com/?referer=https://manganelo.com&url=https://s6.mkklcdnv6temp.com/mangakakalot/n1/nineteen_twentyone/vol1_chapter_17_gentiana/21.jpg"
  ]
}