{
  "cover": "https://avt.mkklcdnv6.com/20/t/5-1583472651.jpg",
  "title": "Yuri Pop",
  "genre": "Comedy, Oneshot, Romance, School life, Shoujo ai, Manga",
  "author": "Mizuki Maya",
  "status": "Completed",
  "backlink": "https://manganu.com/collections/mizuki-maya/yuri-pop/",
  "description": "1. Hime-chan wa Tereya-san (Bashful Little Hime-chan)\nTsukiko goes after Hime-chan but she got rejected in comedic ways.\n2. Senpai wa Tokubetsu desu (Senpai Is Special)\n3. Kanojo wa Imouto (My Girlfriend Is My Little Sister)\nSentani Miharu, an upperclassman, and Kaburagi Yuyu, an underclassman, have decided to go out with each other. Coincidentally enough, Miharu's and Yuyu's parents got married after that event. Now Miharu tries to fight off the invitations of lust with her new little sister.\n4. Tsukiko wa Bakakawa (Tsukiko Is Stupidly Cute)\n5. Hakushaku no Okiniiri (The Count's Interest)\nWhen the mysterious \"Count\" takes interest in a 1st year student she instantly takes possession of her by stealing her first kiss! The 1st year is outraged that the Count would such a thing a tries to avoid her but the Count will not give up on winning her over!\n6. Oneechan wa Kanojo (My Sister Is My Girlfriend)\nThe sequel story to Kanojo wa Imouto.\n7. Mikadzuki-san wa Amanojaku (Contradictory Mikadzuki-san)\nMaya Mikadzuki-san always says \"I hate\" to things she actually likes. This confuses Usami-san to no end but she doesn't give-up in befriending Mikadzuki-san!\n8. The Ever Bashful Hime-chan\nSequel to Hime-chan wa Tereya-san, Sukiko asks Hime-chan out on a date which involve funny situations.\n9. Bashful Little Hime-chan's Summer\n10. Bashful Little Hime-can's Winter",
  "language": "English",
  "images": [
    "https://img-proxy.imgfo.com/?referer=https://manganelo.com&url=https://s3.mkklcdnv6temp.com/mangakakalot/y2/yuri_pop/vol1_chapter_1_bashful_little_himechan/1.jpg",
    "https://img-proxy.imgfo.com/?referer=https://manganelo.com&url=https://s3.mkklcdnv6temp.com/mangakakalot/y2/yuri_pop/vol1_chapter_1_bashful_little_himechan/2.jpg",
    "https://img-proxy.imgfo.com/?referer=https://manganelo.com&url=https://s3.mkklcdnv6temp.com/mangakakalot/y2/yuri_pop/vol1_chapter_1_bashful_little_himechan/3.jpg",
    "https://img-proxy.imgfo.com/?referer=https://manganelo.com&url=https://s3.mkklcdnv6temp.com/mangakakalot/y2/yuri_pop/vol1_chapter_1_bashful_little_himechan/4.jpg",
    "https://img-proxy.imgfo.com/?referer=https://manganelo.com&url=https://s3.mkklcdnv6temp.com/mangakakalot/y2/yuri_pop/vol1_chapter_1_bashful_little_himechan/5.jpg",
    "https://img-proxy.imgfo.com/?referer=https://manganelo.com&url=https://s3.mkklcdnv6temp.com/mangakakalot/y2/yuri_pop/vol1_chapter_1_bashful_little_himechan/6.jpg",
    "https://img-proxy.imgfo.com/?referer=https://manganelo.com&url=https://s3.mkklcdnv6temp.com/mangakakalot/y2/yuri_pop/vol1_chapter_1_bashful_little_himechan/7.jpg",
    "https://img-proxy.imgfo.com/?referer=https://manganelo.com&url=https://s3.mkklcdnv6temp.com/mangakakalot/y2/yuri_pop/vol1_chapter_1_bashful_little_himechan/8.jpg",
    "https://img-proxy.imgfo.com/?referer=https://manganelo.com&url=https://s3.mkklcdnv6temp.com/mangakakalot/y2/yuri_pop/vol1_chapter_1_bashful_little_himechan/9.jpg",
    "https://img-proxy.imgfo.com/?referer=https://manganelo.com&url=https://s3.mkklcdnv6temp.com/mangakakalot/y2/yuri_pop/vol1_chapter_1_bashful_little_himechan/10.jpg",
    "https://img-proxy.imgfo.com/?referer=https://manganelo.com&url=https://s3.mkklcdnv6temp.com/mangakakalot/y2/yuri_pop/vol1_chapter_1_bashful_little_himechan/11.jpg",
    "https://img-proxy.imgfo.com/?referer=https://manganelo.com&url=https://s3.mkklcdnv6temp.com/mangakakalot/y2/yuri_pop/vol1_chapter_1_bashful_little_himechan/12.jpg",
    "https://img-proxy.imgfo.com/?referer=https://manganelo.com&url=https://s3.mkklcdnv6temp.com/mangakakalot/y2/yuri_pop/vol1_chapter_1_bashful_little_himechan/13.jpg",
    "https://img-proxy.imgfo.com/?referer=https://manganelo.com&url=https://s3.mkklcdnv6temp.com/mangakakalot/y2/yuri_pop/vol1_chapter_1_bashful_little_himechan/14.jpg"
  ]
}