{
  "cover": "https://avt.mkklcdnv6.com/19/b/6-1583474914.jpg",
  "title": "Eight",
  "original": "エイト ; ８－エイト－ ; 8 -Eight- ; 8",
  "genre": "Psychological, Seinen, Supernatural, Manga",
  "author": "Kamijo Atsushi",
  "status": "Completed",
  "backlink": "https://manganu.com/collections/kamijo-atsushi/eight/",
  "description": "Tokyo in the 90s, the city center has been suffering from a continuing depopulation. Also affected is the Udagawa Junior High School where only six people are left, as their class leader, protector and very good friend Masato just died in an illegal skateboarding race. Five months later Eito Hachiya, nickname: Eight or \"8\" enrolls in school and wants to find out what happened. He even just looks like Masato! But mysteries surround him: Why does he know all the other six? Why can’t they remember him?\nWas canceled after ~25% of volume 4, the epilogue consists of an alternative ending for Eight.",
  "language": "English",
  "images": [
    "https://img-proxy.imgfo.com/?referer=https://manganelo.com&url=https://s41.mkklcdnv6temp.com/mangakakalot/e1/eight/vol1_chapter_6_the_show_must_go_on/1.jpg",
    "https://img-proxy.imgfo.com/?referer=https://manganelo.com&url=https://s41.mkklcdnv6temp.com/mangakakalot/e1/eight/vol1_chapter_6_the_show_must_go_on/2.jpg",
    "https://img-proxy.imgfo.com/?referer=https://manganelo.com&url=https://s41.mkklcdnv6temp.com/mangakakalot/e1/eight/vol1_chapter_6_the_show_must_go_on/3.jpg",
    "https://img-proxy.imgfo.com/?referer=https://manganelo.com&url=https://s41.mkklcdnv6temp.com/mangakakalot/e1/eight/vol1_chapter_6_the_show_must_go_on/4.jpg",
    "https://img-proxy.imgfo.com/?referer=https://manganelo.com&url=https://s41.mkklcdnv6temp.com/mangakakalot/e1/eight/vol1_chapter_6_the_show_must_go_on/5.jpg",
    "https://img-proxy.imgfo.com/?referer=https://manganelo.com&url=https://s41.mkklcdnv6temp.com/mangakakalot/e1/eight/vol1_chapter_6_the_show_must_go_on/6.jpg",
    "https://img-proxy.imgfo.com/?referer=https://manganelo.com&url=https://s41.mkklcdnv6temp.com/mangakakalot/e1/eight/vol1_chapter_6_the_show_must_go_on/7.jpg",
    "https://img-proxy.imgfo.com/?referer=https://manganelo.com&url=https://s41.mkklcdnv6temp.com/mangakakalot/e1/eight/vol1_chapter_6_the_show_must_go_on/8.jpg",
    "https://img-proxy.imgfo.com/?referer=https://manganelo.com&url=https://s41.mkklcdnv6temp.com/mangakakalot/e1/eight/vol1_chapter_6_the_show_must_go_on/9.jpg",
    "https://img-proxy.imgfo.com/?referer=https://manganelo.com&url=https://s41.mkklcdnv6temp.com/mangakakalot/e1/eight/vol1_chapter_6_the_show_must_go_on/10.jpg",
    "https://img-proxy.imgfo.com/?referer=https://manganelo.com&url=https://s41.mkklcdnv6temp.com/mangakakalot/e1/eight/vol1_chapter_6_the_show_must_go_on/11.jpg",
    "https://img-proxy.imgfo.com/?referer=https://manganelo.com&url=https://s41.mkklcdnv6temp.com/mangakakalot/e1/eight/vol1_chapter_6_the_show_must_go_on/12.jpg",
    "https://img-proxy.imgfo.com/?referer=https://manganelo.com&url=https://s41.mkklcdnv6temp.com/mangakakalot/e1/eight/vol1_chapter_6_the_show_must_go_on/13.jpg",
    "https://img-proxy.imgfo.com/?referer=https://manganelo.com&url=https://s41.mkklcdnv6temp.com/mangakakalot/e1/eight/vol1_chapter_6_the_show_must_go_on/14.jpg",
    "https://img-proxy.imgfo.com/?referer=https://manganelo.com&url=https://s41.mkklcdnv6temp.com/mangakakalot/e1/eight/vol1_chapter_6_the_show_must_go_on/15.jpg",
    "https://img-proxy.imgfo.com/?referer=https://manganelo.com&url=https://s41.mkklcdnv6temp.com/mangakakalot/e1/eight/vol1_chapter_6_the_show_must_go_on/16.jpg"
  ]
}