{
  "cover": "http://ww1.heaventoon.com/content/upload/images/images/baki.jpg",
  "title": "Baki",
  "genre": "Action, Manga, Martial Arts, Mature, Shounen, Sports",
  "author": "Itagaki Keisuke",
  "status": "Completed",
  "backlink": "https://manganu.com/collections/itagaki-keisuke/baki/",
  "description": "There are three series of Baki, this one is Baki, the 2nd one. 1-Baki the Grappler(1991-1999) 42 volumes 2-New Grappler Baki(1999-2005) 31 volumes 3-Hanma Baki: Son of Ogre (2005-12-05) ? volumes Baki Hanma is a generally happy student with a rather odd hobby; he likes fighting. Specifically, he likes fighting in a secret martial arts tournament that gathers the greatest fighters of the world and pits them against each other in really nasty combat. New Grappler Baki takes off where the original series leaves off. As the new Tournament champion, hes generally taken it easy until he recieves the news of five deadly, murderous, martial artist who have escaped their prisons and are now headed to Japan. Baki and his friends must deal with them before they are killed themselves. New Grappler Baki introduces new characters, new techniques, and begins to resolve the conflict between Baki and his father.",
  "language": "English",
  "images": [
    "http://2.bp.blogspot.com/-3Hl787EcwNM/VmKqHvTWJ9I/AAAAAAAHFh8/_6_BlpBTg_8/w1900/1.jpg",
    "http://3.bp.blogspot.com/-urqcdmIl3dY/VmKqIf6tIzI/AAAAAAAHFiU/DM6XjBMS97U/w1900/2.jpg",
    "http://4.bp.blogspot.com/-0izT3CIuRlQ/VmKqJGezb3I/AAAAAAAHFiw/rG6g_P-PZoY/w1900/3.jpg",
    "http://1.bp.blogspot.com/-no6gyUNSxAw/VmKqJxqWg_I/AAAAAAAHFjE/hh3HdKQ0Oms/w1900/4.jpg",
    "http://2.bp.blogspot.com/-vwGY1rAzJhw/VmKqKT8iGzI/AAAAAAAHFjQ/AHA40iTuMZA/w1900/5.jpg",
    "http://3.bp.blogspot.com/-HxQc7FxV4XU/VmKqK3uUY8I/AAAAAAAHFj8/J0VMN_6l8bg/w1900/6.jpg",
    "http://4.bp.blogspot.com/-ULl5opKoKOY/VmKqMNqJlsI/AAAAAAAHFkQ/4Ml02SP0BdE/w1900/7.jpg",
    "http://1.bp.blogspot.com/-kn2lDZItpDU/VmKqMoc299I/AAAAAAAHFkg/j2njyJzx9lY/w1900/8.jpg",
    "http://2.bp.blogspot.com/-1t-IuYALQ08/VmKqOUSAEHI/AAAAAAAHFlk/gVh1bc3ewks/w1900/9.jpg",
    "http://3.bp.blogspot.com/-OTIhaa9Rbgc/VmKqPtB8xpI/AAAAAAAHFl4/92fqZV1BwfQ/w1900/10.jpg",
    "http://4.bp.blogspot.com/-j7XshCcbJA0/VmKqQL_MM0I/AAAAAAAHFmM/cmaQKxEhR0Y/w1900/11.jpg",
    "http://1.bp.blogspot.com/-nQxa8oDG4x8/VmKqQoMG6SI/AAAAAAAHFmg/JpcqlSsOA10/w1900/12.jpg",
    "http://2.bp.blogspot.com/-AyofCUUESd8/VmKqRrOCw3I/AAAAAAAHFm0/t1c0kuXAEeI/w1900/13.jpg",
    "http://3.bp.blogspot.com/-6s5bgYDu4SY/VmKqSDMiERI/AAAAAAAHFnE/UHiYBy61xLw/w1900/14.jpg",
    "http://4.bp.blogspot.com/-7ad6gN0S13M/VmKqSi29pxI/AAAAAAAHFnw/9BdoJ_7LD24/w1900/15.jpg",
    "http://1.bp.blogspot.com/-rqcy2BOHkYc/VmKqUagAalI/AAAAAAAHFoM/LVyx-tWC1e8/w1900/16.jpg",
    "http://2.bp.blogspot.com/-i3meb_blgo4/VmKqVQUkoGI/AAAAAAAHFoc/fxtwbPyguHM/w1900/17.jpg",
    "http://3.bp.blogspot.com/-LNKvOxtLeOU/VmKqV9xnWNI/AAAAAAAHFow/3-7gcasw2tM/w1900/18.jpg",
    "http://4.bp.blogspot.com/-DXiz5uM-VrQ/VmKqWVGAiSI/AAAAAAAHFo8/pvLdTN7gILU/w1900/19.jpg"
  ]
}