{
  "cover": "https://avt.mkklcdnv6.com/42/d/10-1583483691.jpg",
  "title": "Legend Of Lemnear",
  "original": "レジェンドオブレムネア ; レジェンド・オブ・レムネア",
  "genre": "Action, Adult, Ecchi, Fantasy, Mature, Shounen, Manga",
  "author": "Yoshimoto Kinji",
  "status": "Completed",
  "backlink": "https://manganu.com/collections/yoshimoto-kinji/legend-of-lemnear/",
  "description": "Lemnear is a female warrior who is out to slay the evil sorcerer Gardein. Gardein massacred Lemnear's family and practically everyone in her hometown several years back, and Lemnear is determined not to let him get away with it. Lemnear is no ordinary girl however, for she is the legendary Champion of Silver... destined to end the reign of darkness and chaos.",
  "language": "English",
  "images": [
    "https://img-proxy.imgfo.com/?referer=https://manganelo.com&url=https://s6.mkklcdnv6temp.com/mangakakalot/l1/legend_of_lemnear/vol1_chapter_5/1.jpg",
    "https://img-proxy.imgfo.com/?referer=https://manganelo.com&url=https://s6.mkklcdnv6temp.com/mangakakalot/l1/legend_of_lemnear/vol1_chapter_5/2.jpg",
    "https://img-proxy.imgfo.com/?referer=https://manganelo.com&url=https://s6.mkklcdnv6temp.com/mangakakalot/l1/legend_of_lemnear/vol1_chapter_5/3.jpg",
    "https://img-proxy.imgfo.com/?referer=https://manganelo.com&url=https://s6.mkklcdnv6temp.com/mangakakalot/l1/legend_of_lemnear/vol1_chapter_5/4.jpg",
    "https://img-proxy.imgfo.com/?referer=https://manganelo.com&url=https://s6.mkklcdnv6temp.com/mangakakalot/l1/legend_of_lemnear/vol1_chapter_5/5.jpg",
    "https://img-proxy.imgfo.com/?referer=https://manganelo.com&url=https://s6.mkklcdnv6temp.com/mangakakalot/l1/legend_of_lemnear/vol1_chapter_5/6.jpg",
    "https://img-proxy.imgfo.com/?referer=https://manganelo.com&url=https://s6.mkklcdnv6temp.com/mangakakalot/l1/legend_of_lemnear/vol1_chapter_5/7.jpg",
    "https://img-proxy.imgfo.com/?referer=https://manganelo.com&url=https://s6.mkklcdnv6temp.com/mangakakalot/l1/legend_of_lemnear/vol1_chapter_5/8.jpg",
    "https://img-proxy.imgfo.com/?referer=https://manganelo.com&url=https://s6.mkklcdnv6temp.com/mangakakalot/l1/legend_of_lemnear/vol1_chapter_5/9.jpg",
    "https://img-proxy.imgfo.com/?referer=https://manganelo.com&url=https://s6.mkklcdnv6temp.com/mangakakalot/l1/legend_of_lemnear/vol1_chapter_5/10.jpg",
    "https://img-proxy.imgfo.com/?referer=https://manganelo.com&url=https://s6.mkklcdnv6temp.com/mangakakalot/l1/legend_of_lemnear/vol1_chapter_5/11.jpg",
    "https://img-proxy.imgfo.com/?referer=https://manganelo.com&url=https://s6.mkklcdnv6temp.com/mangakakalot/l1/legend_of_lemnear/vol1_chapter_5/12.jpg",
    "https://img-proxy.imgfo.com/?referer=https://manganelo.com&url=https://s6.mkklcdnv6temp.com/mangakakalot/l1/legend_of_lemnear/vol1_chapter_5/13.jpg",
    "https://img-proxy.imgfo.com/?referer=https://manganelo.com&url=https://s6.mkklcdnv6temp.com/mangakakalot/l1/legend_of_lemnear/vol1_chapter_5/14.jpg",
    "https://img-proxy.imgfo.com/?referer=https://manganelo.com&url=https://s6.mkklcdnv6temp.com/mangakakalot/l1/legend_of_lemnear/vol1_chapter_5/15.jpg",
    "https://img-proxy.imgfo.com/?referer=https://manganelo.com&url=https://s6.mkklcdnv6temp.com/mangakakalot/l1/legend_of_lemnear/vol1_chapter_5/16.jpg",
    "https://img-proxy.imgfo.com/?referer=https://manganelo.com&url=https://s6.mkklcdnv6temp.com/mangakakalot/l1/legend_of_lemnear/vol1_chapter_5/17.jpg",
    "https://img-proxy.imgfo.com/?referer=https://manganelo.com&url=https://s6.mkklcdnv6temp.com/mangakakalot/l1/legend_of_lemnear/vol1_chapter_5/18.jpg",
    "https://img-proxy.imgfo.com/?referer=https://manganelo.com&url=https://s6.mkklcdnv6temp.com/mangakakalot/l1/legend_of_lemnear/vol1_chapter_5/19.jpg",
    "https://img-proxy.imgfo.com/?referer=https://manganelo.com&url=https://s6.mkklcdnv6temp.com/mangakakalot/l1/legend_of_lemnear/vol1_chapter_5/20.jpg",
    "https://img-proxy.imgfo.com/?referer=https://manganelo.com&url=https://s6.mkklcdnv6temp.com/mangakakalot/l1/legend_of_lemnear/vol1_chapter_5/21.jpg",
    "https://img-proxy.imgfo.com/?referer=https://manganelo.com&url=https://s6.mkklcdnv6temp.com/mangakakalot/l1/legend_of_lemnear/vol1_chapter_5/22.jpg",
    "https://img-proxy.imgfo.com/?referer=https://manganelo.com&url=https://s6.mkklcdnv6temp.com/mangakakalot/l1/legend_of_lemnear/vol1_chapter_5/23.jpg",
    "https://img-proxy.imgfo.com/?referer=https://manganelo.com&url=https://s6.mkklcdnv6temp.com/mangakakalot/l1/legend_of_lemnear/vol1_chapter_5/24.jpg",
    "https://img-proxy.imgfo.com/?referer=https://manganelo.com&url=https://s6.mkklcdnv6temp.com/mangakakalot/l1/legend_of_lemnear/vol1_chapter_5/25.jpg",
    "https://img-proxy.imgfo.com/?referer=https://manganelo.com&url=https://s6.mkklcdnv6temp.com/mangakakalot/l1/legend_of_lemnear/vol1_chapter_5/26.jpg"
  ]
}