{
  "cover": "https://avt.mkklcdnv6.com/29/l/13-1583488793.jpg",
  "title": "Chimamire Sukeban Chainsaw",
  "original": "血まみれスケバンチェーンソー (Japanese); Bloody Delinquent Chainsaw; Bloody Delinquent Girl Chainsaw; The Bloody Sukeban Chainsaw (English)",
  "genre": "Action, Comedy, Drama, Ecchi, Horror, Mature, School life, Seinen, Supernatural, Manga",
  "author": "Mikamoto Rei",
  "status": "Completed",
  "backlink": "https://manganu.com/collections/mikamoto-rei/chimamire-sukeban-chainsaw/",
  "description": "Geeko&#39;s weird, creepy, friendless classmate Nero has destroyed all of their mutual classmates, perverting them into her grotesque, monstrous minions. Now she&#39;s sending them after Geeko, the only survivor. However, Geeko is setting out, dressed in her skimpy school uniform and armed with a big chainsaw, to end Nero&#39;s mad science, no matter how many undead former friends she has to saw down on the way.",
  "language": "English",
  "images": [
    "https://img-proxy.imgfo.com/?referer=https://manganelo.com&url=https://s3.mkklcdnv6temp.com/mangakakalot/c1/chimamire_sukeban_chainsaw/vol5_chapter_31/1.jpg",
    "https://img-proxy.imgfo.com/?referer=https://manganelo.com&url=https://s3.mkklcdnv6temp.com/mangakakalot/c1/chimamire_sukeban_chainsaw/vol5_chapter_31/2.jpg",
    "https://img-proxy.imgfo.com/?referer=https://manganelo.com&url=https://s3.mkklcdnv6temp.com/mangakakalot/c1/chimamire_sukeban_chainsaw/vol5_chapter_31/3.jpg",
    "https://img-proxy.imgfo.com/?referer=https://manganelo.com&url=https://s3.mkklcdnv6temp.com/mangakakalot/c1/chimamire_sukeban_chainsaw/vol5_chapter_31/4.jpg",
    "https://img-proxy.imgfo.com/?referer=https://manganelo.com&url=https://s3.mkklcdnv6temp.com/mangakakalot/c1/chimamire_sukeban_chainsaw/vol5_chapter_31/5.jpg",
    "https://img-proxy.imgfo.com/?referer=https://manganelo.com&url=https://s3.mkklcdnv6temp.com/mangakakalot/c1/chimamire_sukeban_chainsaw/vol5_chapter_31/6.jpg",
    "https://img-proxy.imgfo.com/?referer=https://manganelo.com&url=https://s3.mkklcdnv6temp.com/mangakakalot/c1/chimamire_sukeban_chainsaw/vol5_chapter_31/7.jpg",
    "https://img-proxy.imgfo.com/?referer=https://manganelo.com&url=https://s3.mkklcdnv6temp.com/mangakakalot/c1/chimamire_sukeban_chainsaw/vol5_chapter_31/8.jpg",
    "https://img-proxy.imgfo.com/?referer=https://manganelo.com&url=https://s3.mkklcdnv6temp.com/mangakakalot/c1/chimamire_sukeban_chainsaw/vol5_chapter_31/9.jpg",
    "https://img-proxy.imgfo.com/?referer=https://manganelo.com&url=https://s3.mkklcdnv6temp.com/mangakakalot/c1/chimamire_sukeban_chainsaw/vol5_chapter_31/10.jpg",
    "https://img-proxy.imgfo.com/?referer=https://manganelo.com&url=https://s3.mkklcdnv6temp.com/mangakakalot/c1/chimamire_sukeban_chainsaw/vol5_chapter_31/11.jpg",
    "https://img-proxy.imgfo.com/?referer=https://manganelo.com&url=https://s3.mkklcdnv6temp.com/mangakakalot/c1/chimamire_sukeban_chainsaw/vol5_chapter_31/12.jpg",
    "https://img-proxy.imgfo.com/?referer=https://manganelo.com&url=https://s3.mkklcdnv6temp.com/mangakakalot/c1/chimamire_sukeban_chainsaw/vol5_chapter_31/13.jpg",
    "https://img-proxy.imgfo.com/?referer=https://manganelo.com&url=https://s3.mkklcdnv6temp.com/mangakakalot/c1/chimamire_sukeban_chainsaw/vol5_chapter_31/14.jpg",
    "https://img-proxy.imgfo.com/?referer=https://manganelo.com&url=https://s3.mkklcdnv6temp.com/mangakakalot/c1/chimamire_sukeban_chainsaw/vol5_chapter_31/15.jpg",
    "https://img-proxy.imgfo.com/?referer=https://manganelo.com&url=https://s3.mkklcdnv6temp.com/mangakakalot/c1/chimamire_sukeban_chainsaw/vol5_chapter_31/16.jpg",
    "https://img-proxy.imgfo.com/?referer=https://manganelo.com&url=https://s3.mkklcdnv6temp.com/mangakakalot/c1/chimamire_sukeban_chainsaw/vol5_chapter_31/17.jpg",
    "https://img-proxy.imgfo.com/?referer=https://manganelo.com&url=https://s3.mkklcdnv6temp.com/mangakakalot/c1/chimamire_sukeban_chainsaw/vol5_chapter_31/18.jpg",
    "https://img-proxy.imgfo.com/?referer=https://manganelo.com&url=https://s3.mkklcdnv6temp.com/mangakakalot/c1/chimamire_sukeban_chainsaw/vol5_chapter_31/19.jpg",
    "https://img-proxy.imgfo.com/?referer=https://manganelo.com&url=https://s3.mkklcdnv6temp.com/mangakakalot/c1/chimamire_sukeban_chainsaw/vol5_chapter_31/20.jpg",
    "https://img-proxy.imgfo.com/?referer=https://manganelo.com&url=https://s3.mkklcdnv6temp.com/mangakakalot/c1/chimamire_sukeban_chainsaw/vol5_chapter_31/21.jpg",
    "https://img-proxy.imgfo.com/?referer=https://manganelo.com&url=https://s3.mkklcdnv6temp.com/mangakakalot/c1/chimamire_sukeban_chainsaw/vol5_chapter_31/22.jpg",
    "https://img-proxy.imgfo.com/?referer=https://manganelo.com&url=https://s3.mkklcdnv6temp.com/mangakakalot/c1/chimamire_sukeban_chainsaw/vol5_chapter_31/23.jpg",
    "https://img-proxy.imgfo.com/?referer=https://manganelo.com&url=https://s3.mkklcdnv6temp.com/mangakakalot/c1/chimamire_sukeban_chainsaw/vol5_chapter_31/24.jpg"
  ]
}