{
  "cover": "https://avt.mkklcdnv6.com/46/a/3-1583469487.jpg",
  "title": "Kaze No Yukue",
  "original": "未来の記憶 風の行方 ; 風の行方 ; Where the Wind Goes ; Future Lovers II",
  "genre": "Comedy, Drama, Slice of life, Yaoi, Manga",
  "author": "Kunieda Saika",
  "status": "Completed",
  "backlink": "https://manganu.com/collections/kunieda-saika/kaze-no-yukue/",
  "description": "Sequel to Memory of the Future (Mirai no Kioku)\nKento is mild-mannered, straightforward and quite honestly, a bit boring. At 26 he's landed his first full-time position teaching at high school and does everything he can to make his grandparents, who took him in to raise after his parents' tragic death, proud of him. Unfortunately Kento is gay... and they ~don't~ approve.\nEnter Akira, a ticking-time bomb with a perpetual evil smirk, a ridiculously flamboyant wardrobe and a tendency to hit on anything that moves. Akira's everything Kento isn't... including drop-dead gorgeous and mindbendingly annoying. It's almost a miracle that the two of them have been dating for over a year!!\nBut after all that time, Akira's still keeping some secrets... secrets that aren't going to reflect well on Kento's choice in a partner. Would Kento's grandparents ever survive the shock of their son dating the child of a sex-worker and an alien? Or will they, as Akira puts it, \"cough up their pacemakers\"?! Does Kento care more about his family's opinion of him, or his high-maitanance lover's deep-seated social inferiority complex?\nAn extremely sweet (and funny) story of two people who couldn't be more different, or more perfect for each other. (from doki doki)",
  "language": "English",
  "images": [
    "https://img-proxy.imgfo.com/?referer=https://manganelo.com&url=https://s6.mkklcdnv6temp.com/mangakakalot/k1/kaze_no_yukue/vol1_chapter_2_summer_foxfire/1.jpg",
    "https://img-proxy.imgfo.com/?referer=https://manganelo.com&url=https://s6.mkklcdnv6temp.com/mangakakalot/k1/kaze_no_yukue/vol1_chapter_2_summer_foxfire/2.jpg",
    "https://img-proxy.imgfo.com/?referer=https://manganelo.com&url=https://s6.mkklcdnv6temp.com/mangakakalot/k1/kaze_no_yukue/vol1_chapter_2_summer_foxfire/3.jpg",
    "https://img-proxy.imgfo.com/?referer=https://manganelo.com&url=https://s6.mkklcdnv6temp.com/mangakakalot/k1/kaze_no_yukue/vol1_chapter_2_summer_foxfire/4.jpg",
    "https://img-proxy.imgfo.com/?referer=https://manganelo.com&url=https://s6.mkklcdnv6temp.com/mangakakalot/k1/kaze_no_yukue/vol1_chapter_2_summer_foxfire/5.jpg",
    "https://img-proxy.imgfo.com/?referer=https://manganelo.com&url=https://s6.mkklcdnv6temp.com/mangakakalot/k1/kaze_no_yukue/vol1_chapter_2_summer_foxfire/6.jpg",
    "https://img-proxy.imgfo.com/?referer=https://manganelo.com&url=https://s6.mkklcdnv6temp.com/mangakakalot/k1/kaze_no_yukue/vol1_chapter_2_summer_foxfire/7.jpg",
    "https://img-proxy.imgfo.com/?referer=https://manganelo.com&url=https://s6.mkklcdnv6temp.com/mangakakalot/k1/kaze_no_yukue/vol1_chapter_2_summer_foxfire/8.jpg",
    "https://img-proxy.imgfo.com/?referer=https://manganelo.com&url=https://s6.mkklcdnv6temp.com/mangakakalot/k1/kaze_no_yukue/vol1_chapter_2_summer_foxfire/9.jpg",
    "https://img-proxy.imgfo.com/?referer=https://manganelo.com&url=https://s6.mkklcdnv6temp.com/mangakakalot/k1/kaze_no_yukue/vol1_chapter_2_summer_foxfire/10.jpg",
    "https://img-proxy.imgfo.com/?referer=https://manganelo.com&url=https://s6.mkklcdnv6temp.com/mangakakalot/k1/kaze_no_yukue/vol1_chapter_2_summer_foxfire/11.jpg",
    "https://img-proxy.imgfo.com/?referer=https://manganelo.com&url=https://s6.mkklcdnv6temp.com/mangakakalot/k1/kaze_no_yukue/vol1_chapter_2_summer_foxfire/12.jpg",
    "https://img-proxy.imgfo.com/?referer=https://manganelo.com&url=https://s6.mkklcdnv6temp.com/mangakakalot/k1/kaze_no_yukue/vol1_chapter_2_summer_foxfire/13.jpg",
    "https://img-proxy.imgfo.com/?referer=https://manganelo.com&url=https://s6.mkklcdnv6temp.com/mangakakalot/k1/kaze_no_yukue/vol1_chapter_2_summer_foxfire/14.jpg",
    "https://img-proxy.imgfo.com/?referer=https://manganelo.com&url=https://s6.mkklcdnv6temp.com/mangakakalot/k1/kaze_no_yukue/vol1_chapter_2_summer_foxfire/15.jpg",
    "https://img-proxy.imgfo.com/?referer=https://manganelo.com&url=https://s6.mkklcdnv6temp.com/mangakakalot/k1/kaze_no_yukue/vol1_chapter_2_summer_foxfire/16.jpg",
    "https://img-proxy.imgfo.com/?referer=https://manganelo.com&url=https://s6.mkklcdnv6temp.com/mangakakalot/k1/kaze_no_yukue/vol1_chapter_2_summer_foxfire/17.jpg"
  ]
}