{
  "cover": "https://avt.mkklcdnv6.com/34/m/7-1583477573.jpg",
  "title": "Mayu-Tan No Tokimeki Note #3 - Kokoro Wo Hadaka Ni Shite",
  "original": "Bare the Heart - Mayu-tan's ThrobbingNote #3 ; Kokoro wo Hadaka ni Shite",
  "genre": "Drama, Oneshot, Romance, Shoujo, Smut, Manga",
  "author": "Shinjo Mayu",
  "status": "Completed",
  "backlink": "https://manganu.com/collections/shinjo-mayu/mayu-tan-no-tokimeki-note-3-kokoro-wo-hadaka-ni-shite/",
  "description": "[Taken from ShoujoMagic] :\nA collection of Shinjo Mayu's earlier (and less smutty) short romance stories.\n1) Bare the Heart (Kokoro wo Hadaka ni Shite). Mina is a high school freshman with a crush on her math teacher...who also happens to be her cousin Yukiya! Mina has always been very precious to Yukiya, and at times it seems like he can see straight through to her heart, but can he ever see her as a woman and not just his cute little cousin? How long can Mina's flirtations go unnoticed by Yukiya (or by the sadistic and lascivious chemistry teacher, for that matter)?\n2) A Vampire at My Neck (Kubisuji ni Banpaia). Be careful when you go groping in the dark...you might just find a vampire! That's what happens to Hitomi. Now she's attracted to Kairi despite what he is. Or is it because of what he is? Kairi has a powerful charm...but is he too charming? Dangerously charming?\n3) Hold Me, Melt Me (Dakishimete Tokashite) Ryou is a high school sprinter who's racing for a different kind of goal--his pretty track manager, Airi! He says he wants chocolate from her on Valentine's Day, but...is that a delicious metaphor for something sweeter? Whatever the case, it melts in the mouth!\n4) Examine Me Gently (Yasashiku Mite ne). Sanae just had her appendix removed. But while she waits in post-op for her surgery wound to heal, she starts to develop another malady--love sickness! And her handsome new attending physician, Dr. Touya, is the cause! What can cure Sanae's ailment? ...A sponge bath, maybe?\nOmake: If you have ever wondered why Shinjo Mayu's female characters have such big breasts and why her heroines seem so young...then you must read this omake! It is a great insight into the mind of Shinjo Mayu!",
  "language": "English",
  "images": [
    "https://img-proxy.imgfo.com/?referer=https://manganelo.com&url=https://s3.mkklcdnv6temp.com/mangakakalot/m1/mayutan_no_tokimeki_note_3_kokoro_wo_hadaka_ni_shite/vol1_chapter_41_omake/1.jpg",
    "https://img-proxy.imgfo.com/?referer=https://manganelo.com&url=https://s3.mkklcdnv6temp.com/mangakakalot/m1/mayutan_no_tokimeki_note_3_kokoro_wo_hadaka_ni_shite/vol1_chapter_41_omake/2.jpg",
    "https://img-proxy.imgfo.com/?referer=https://manganelo.com&url=https://s3.mkklcdnv6temp.com/mangakakalot/m1/mayutan_no_tokimeki_note_3_kokoro_wo_hadaka_ni_shite/vol1_chapter_41_omake/3.jpg",
    "https://img-proxy.imgfo.com/?referer=https://manganelo.com&url=https://s3.mkklcdnv6temp.com/mangakakalot/m1/mayutan_no_tokimeki_note_3_kokoro_wo_hadaka_ni_shite/vol1_chapter_41_omake/4.jpg",
    "https://img-proxy.imgfo.com/?referer=https://manganelo.com&url=https://s3.mkklcdnv6temp.com/mangakakalot/m1/mayutan_no_tokimeki_note_3_kokoro_wo_hadaka_ni_shite/vol1_chapter_41_omake/5.jpg",
    "https://img-proxy.imgfo.com/?referer=https://manganelo.com&url=https://s3.mkklcdnv6temp.com/mangakakalot/m1/mayutan_no_tokimeki_note_3_kokoro_wo_hadaka_ni_shite/vol1_chapter_41_omake/6.jpg",
    "https://img-proxy.imgfo.com/?referer=https://manganelo.com&url=https://s3.mkklcdnv6temp.com/mangakakalot/m1/mayutan_no_tokimeki_note_3_kokoro_wo_hadaka_ni_shite/vol1_chapter_41_omake/7.jpg",
    "https://img-proxy.imgfo.com/?referer=https://manganelo.com&url=https://s3.mkklcdnv6temp.com/mangakakalot/m1/mayutan_no_tokimeki_note_3_kokoro_wo_hadaka_ni_shite/vol1_chapter_41_omake/8.jpg"
  ]
}