{
  "cover": "https://avt.mkklcdnv6.com/24/l/4-1583470690.jpg",
  "title": "Sweet Magic Syndrome",
  "original": "スイート マジック シンドローム",
  "genre": "Action, Adult, Comedy, Fantasy, Seinen, Slice of life, Manga",
  "author": "Cuteg",
  "status": "Completed",
  "backlink": "https://manganu.com/collections/cuteg/sweet-magic-syndrome/",
  "description": "From MangaHelpers: Amako is a young girl who has a great love of sweets. Due to her father&#39;s job, she had to move many times during her childhood, which prevented her from making close friends. Now she&#39;s 15 and starting high school, and it looks like she&#39;ll finally be able to have a normal school life! She intends to join the tea ceremony club, but it&#39;s going to be abolished this year, due to the lack of members. All seems lost, when a strange young girl named Pudding appears out of a pudding cup! She says she&#39;s run away from her home, in the Kingdom of Sweets, and she agrees to be in Amako&#39;s club in exchange for a place to stay. Soon, Pudding&#39;s sisters, Cream and Chocolate, arrive to bring her home, but they find that Pudding&#39;s way home is lost! Will Pudding be stuck in Amako&#39;s world permanently? This 4-koma features Pudding, Amako, and other visitors from the Kingdom of Sweets, as they enjoy school life and tasty snacks together. [tethysdust]",
  "language": "English",
  "images": [
    "https://img-proxy.imgfo.com/?referer=https://manganelo.com&url=https://s5.mkklcdnv6temp.com/mangakakalot/r1/read_sweet_magic_syndrome/vol3_chapter_27/1.jpg",
    "https://img-proxy.imgfo.com/?referer=https://manganelo.com&url=https://s5.mkklcdnv6temp.com/mangakakalot/r1/read_sweet_magic_syndrome/vol3_chapter_27/2.jpg",
    "https://img-proxy.imgfo.com/?referer=https://manganelo.com&url=https://s5.mkklcdnv6temp.com/mangakakalot/r1/read_sweet_magic_syndrome/vol3_chapter_27/3.jpg",
    "https://img-proxy.imgfo.com/?referer=https://manganelo.com&url=https://s5.mkklcdnv6temp.com/mangakakalot/r1/read_sweet_magic_syndrome/vol3_chapter_27/4.jpg",
    "https://img-proxy.imgfo.com/?referer=https://manganelo.com&url=https://s5.mkklcdnv6temp.com/mangakakalot/r1/read_sweet_magic_syndrome/vol3_chapter_27/5.jpg",
    "https://img-proxy.imgfo.com/?referer=https://manganelo.com&url=https://s5.mkklcdnv6temp.com/mangakakalot/r1/read_sweet_magic_syndrome/vol3_chapter_27/6.jpg",
    "https://img-proxy.imgfo.com/?referer=https://manganelo.com&url=https://s5.mkklcdnv6temp.com/mangakakalot/r1/read_sweet_magic_syndrome/vol3_chapter_27/7.jpg",
    "https://img-proxy.imgfo.com/?referer=https://manganelo.com&url=https://s5.mkklcdnv6temp.com/mangakakalot/r1/read_sweet_magic_syndrome/vol3_chapter_27/8.jpg",
    "https://img-proxy.imgfo.com/?referer=https://manganelo.com&url=https://s5.mkklcdnv6temp.com/mangakakalot/r1/read_sweet_magic_syndrome/vol3_chapter_27/9.jpg"
  ]
}