{
  "cover": "https://avt.mkklcdnv6.com/11/g/5-1583472296.jpg",
  "title": "Mizuho Ambivalent",
  "original": "みずほアンビバレンツ ; 瑞穂ambivalent",
  "genre": "Comedy, Gender bender, Romance, Seinen, Manga",
  "author": "Koizumi Mari",
  "status": "Completed",
  "backlink": "https://manganu.com/collections/koizumi-mari/mizuho-ambivalent/",
  "description": "From Hells_Castle:\nTashiro Mizuho is your typical middle school teen... except for the fact that he is a cross-dresser! When an upper-classman's sister transfers into his class after living abroad, he begins to develop feelings for her and even considers returning to being a male. What awaits Mizuho in the future?",
  "language": "English",
  "images": [
    "https://img-proxy.imgfo.com/?referer=https://manganelo.com&url=https://s5.mkklcdnv6temp.com/mangakakalot/m1/mizuho_ambivalent/vol1_chapter_11/1.jpg",
    "https://img-proxy.imgfo.com/?referer=https://manganelo.com&url=https://s5.mkklcdnv6temp.com/mangakakalot/m1/mizuho_ambivalent/vol1_chapter_11/2.jpg",
    "https://img-proxy.imgfo.com/?referer=https://manganelo.com&url=https://s5.mkklcdnv6temp.com/mangakakalot/m1/mizuho_ambivalent/vol1_chapter_11/3.jpg",
    "https://img-proxy.imgfo.com/?referer=https://manganelo.com&url=https://s5.mkklcdnv6temp.com/mangakakalot/m1/mizuho_ambivalent/vol1_chapter_11/4.jpg",
    "https://img-proxy.imgfo.com/?referer=https://manganelo.com&url=https://s5.mkklcdnv6temp.com/mangakakalot/m1/mizuho_ambivalent/vol1_chapter_11/5.jpg",
    "https://img-proxy.imgfo.com/?referer=https://manganelo.com&url=https://s5.mkklcdnv6temp.com/mangakakalot/m1/mizuho_ambivalent/vol1_chapter_11/6.jpg",
    "https://img-proxy.imgfo.com/?referer=https://manganelo.com&url=https://s5.mkklcdnv6temp.com/mangakakalot/m1/mizuho_ambivalent/vol1_chapter_11/7.jpg",
    "https://img-proxy.imgfo.com/?referer=https://manganelo.com&url=https://s5.mkklcdnv6temp.com/mangakakalot/m1/mizuho_ambivalent/vol1_chapter_11/8.jpg",
    "https://img-proxy.imgfo.com/?referer=https://manganelo.com&url=https://s5.mkklcdnv6temp.com/mangakakalot/m1/mizuho_ambivalent/vol1_chapter_11/9.jpg",
    "https://img-proxy.imgfo.com/?referer=https://manganelo.com&url=https://s5.mkklcdnv6temp.com/mangakakalot/m1/mizuho_ambivalent/vol1_chapter_11/10.jpg",
    "https://img-proxy.imgfo.com/?referer=https://manganelo.com&url=https://s5.mkklcdnv6temp.com/mangakakalot/m1/mizuho_ambivalent/vol1_chapter_11/11.jpg",
    "https://img-proxy.imgfo.com/?referer=https://manganelo.com&url=https://s5.mkklcdnv6temp.com/mangakakalot/m1/mizuho_ambivalent/vol1_chapter_11/12.jpg",
    "https://img-proxy.imgfo.com/?referer=https://manganelo.com&url=https://s5.mkklcdnv6temp.com/mangakakalot/m1/mizuho_ambivalent/vol1_chapter_11/13.jpg",
    "https://img-proxy.imgfo.com/?referer=https://manganelo.com&url=https://s5.mkklcdnv6temp.com/mangakakalot/m1/mizuho_ambivalent/vol1_chapter_11/14.jpg",
    "https://img-proxy.imgfo.com/?referer=https://manganelo.com&url=https://s5.mkklcdnv6temp.com/mangakakalot/m1/mizuho_ambivalent/vol1_chapter_11/15.jpg",
    "https://img-proxy.imgfo.com/?referer=https://manganelo.com&url=https://s5.mkklcdnv6temp.com/mangakakalot/m1/mizuho_ambivalent/vol1_chapter_11/16.jpg",
    "https://img-proxy.imgfo.com/?referer=https://manganelo.com&url=https://s5.mkklcdnv6temp.com/mangakakalot/m1/mizuho_ambivalent/vol1_chapter_11/17.jpg",
    "https://img-proxy.imgfo.com/?referer=https://manganelo.com&url=https://s5.mkklcdnv6temp.com/mangakakalot/m1/mizuho_ambivalent/vol1_chapter_11/18.jpg",
    "https://img-proxy.imgfo.com/?referer=https://manganelo.com&url=https://s5.mkklcdnv6temp.com/mangakakalot/m1/mizuho_ambivalent/vol1_chapter_11/19.jpg",
    "https://img-proxy.imgfo.com/?referer=https://manganelo.com&url=https://s5.mkklcdnv6temp.com/mangakakalot/m1/mizuho_ambivalent/vol1_chapter_11/20.jpg",
    "https://img-proxy.imgfo.com/?referer=https://manganelo.com&url=https://s5.mkklcdnv6temp.com/mangakakalot/m1/mizuho_ambivalent/vol1_chapter_11/21.jpg",
    "https://img-proxy.imgfo.com/?referer=https://manganelo.com&url=https://s5.mkklcdnv6temp.com/mangakakalot/m1/mizuho_ambivalent/vol1_chapter_11/22.jpg"
  ]
}