{
  "cover": "https://avt.mkklcdnv6.com/22/s/5-1583472721.jpg",
  "title": "Violinist Of Hameln",
  "original": "ハーメルンのバイオリン弾き ; Cây đàn kì diệu ; Hamelin No Violin Hiki ; Hameln ; The Violinist of Hamelin ; The Violinist of Hameln ; ฮาเมรุน แห่งบทเพลงกำราบมาร (Thai)",
  "genre": "Action, Adventure, Comedy, Drama, Fantasy, Romance, Shounen, Manga",
  "author": "Watanabe Michiaki",
  "status": "Completed",
  "backlink": "https://manganu.com/collections/watanabe-michiaki/violinist-of-hameln/",
  "description": "Pandora's Box was a cursed existence. Through the curiosity of a woman, evil was unleashed and very nearly covered the world in darkness. Miraculously, humanity managed to seal Maou Kestra back into the box but with immense sacrifices. Even without their lord, the demons are still a formidable force that has only grown stronger with time, locked in the abandoned capital of the north, Hameln. 15 years have passed since that fateful battle...\nEnter Hamel, a travelling minstrel who is so self-centered that he'd sooner cook his guardian crow (and family friend), Oboe, than go hungry for even a minute. Welcome to the world of music and hilarious insanity that is the Violinist of Hameln. Watch as Hamel takes cheap shots at his opponents or how he bashes pigeons with his giant violin and turn them into dinner.\nHow WILL the world be saved from Maou Kestra (it's a pun for Orchestra if you haven't noticed) with a hero such as this?",
  "language": "English",
  "images": [
    "https://img-proxy.imgfo.com/?referer=https://manganelo.com&url=https://s3.mkklcdnv6temp.com/mangakakalot/v1/violinist_of_hameln/vol20_chapter_83/1.jpg",
    "https://img-proxy.imgfo.com/?referer=https://manganelo.com&url=https://s3.mkklcdnv6temp.com/mangakakalot/v1/violinist_of_hameln/vol20_chapter_83/2.jpg",
    "https://img-proxy.imgfo.com/?referer=https://manganelo.com&url=https://s3.mkklcdnv6temp.com/mangakakalot/v1/violinist_of_hameln/vol20_chapter_83/3.jpg",
    "https://img-proxy.imgfo.com/?referer=https://manganelo.com&url=https://s3.mkklcdnv6temp.com/mangakakalot/v1/violinist_of_hameln/vol20_chapter_83/4.jpg",
    "https://img-proxy.imgfo.com/?referer=https://manganelo.com&url=https://s3.mkklcdnv6temp.com/mangakakalot/v1/violinist_of_hameln/vol20_chapter_83/5.jpg",
    "https://img-proxy.imgfo.com/?referer=https://manganelo.com&url=https://s3.mkklcdnv6temp.com/mangakakalot/v1/violinist_of_hameln/vol20_chapter_83/6.jpg",
    "https://img-proxy.imgfo.com/?referer=https://manganelo.com&url=https://s3.mkklcdnv6temp.com/mangakakalot/v1/violinist_of_hameln/vol20_chapter_83/7.jpg",
    "https://img-proxy.imgfo.com/?referer=https://manganelo.com&url=https://s3.mkklcdnv6temp.com/mangakakalot/v1/violinist_of_hameln/vol20_chapter_83/8.jpg",
    "https://img-proxy.imgfo.com/?referer=https://manganelo.com&url=https://s3.mkklcdnv6temp.com/mangakakalot/v1/violinist_of_hameln/vol20_chapter_83/9.jpg",
    "https://img-proxy.imgfo.com/?referer=https://manganelo.com&url=https://s3.mkklcdnv6temp.com/mangakakalot/v1/violinist_of_hameln/vol20_chapter_83/10.jpg",
    "https://img-proxy.imgfo.com/?referer=https://manganelo.com&url=https://s3.mkklcdnv6temp.com/mangakakalot/v1/violinist_of_hameln/vol20_chapter_83/11.jpg",
    "https://img-proxy.imgfo.com/?referer=https://manganelo.com&url=https://s3.mkklcdnv6temp.com/mangakakalot/v1/violinist_of_hameln/vol20_chapter_83/12.jpg",
    "https://img-proxy.imgfo.com/?referer=https://manganelo.com&url=https://s3.mkklcdnv6temp.com/mangakakalot/v1/violinist_of_hameln/vol20_chapter_83/13.jpg",
    "https://img-proxy.imgfo.com/?referer=https://manganelo.com&url=https://s3.mkklcdnv6temp.com/mangakakalot/v1/violinist_of_hameln/vol20_chapter_83/14.jpg",
    "https://img-proxy.imgfo.com/?referer=https://manganelo.com&url=https://s3.mkklcdnv6temp.com/mangakakalot/v1/violinist_of_hameln/vol20_chapter_83/15.jpg",
    "https://img-proxy.imgfo.com/?referer=https://manganelo.com&url=https://s3.mkklcdnv6temp.com/mangakakalot/v1/violinist_of_hameln/vol20_chapter_83/16.jpg",
    "https://img-proxy.imgfo.com/?referer=https://manganelo.com&url=https://s3.mkklcdnv6temp.com/mangakakalot/v1/violinist_of_hameln/vol20_chapter_83/17.jpg",
    "https://img-proxy.imgfo.com/?referer=https://manganelo.com&url=https://s3.mkklcdnv6temp.com/mangakakalot/v1/violinist_of_hameln/vol20_chapter_83/18.jpg",
    "https://img-proxy.imgfo.com/?referer=https://manganelo.com&url=https://s3.mkklcdnv6temp.com/mangakakalot/v1/violinist_of_hameln/vol20_chapter_83/19.jpg",
    "https://img-proxy.imgfo.com/?referer=https://manganelo.com&url=https://s3.mkklcdnv6temp.com/mangakakalot/v1/violinist_of_hameln/vol20_chapter_83/20.jpg",
    "https://img-proxy.imgfo.com/?referer=https://manganelo.com&url=https://s3.mkklcdnv6temp.com/mangakakalot/v1/violinist_of_hameln/vol20_chapter_83/21.jpg",
    "https://img-proxy.imgfo.com/?referer=https://manganelo.com&url=https://s3.mkklcdnv6temp.com/mangakakalot/v1/violinist_of_hameln/vol20_chapter_83/22.jpg",
    "https://img-proxy.imgfo.com/?referer=https://manganelo.com&url=https://s3.mkklcdnv6temp.com/mangakakalot/v1/violinist_of_hameln/vol20_chapter_83/23.jpg",
    "https://img-proxy.imgfo.com/?referer=https://manganelo.com&url=https://s3.mkklcdnv6temp.com/mangakakalot/v1/violinist_of_hameln/vol20_chapter_83/24.jpg",
    "https://img-proxy.imgfo.com/?referer=https://manganelo.com&url=https://s3.mkklcdnv6temp.com/mangakakalot/v1/violinist_of_hameln/vol20_chapter_83/25.jpg",
    "https://img-proxy.imgfo.com/?referer=https://manganelo.com&url=https://s3.mkklcdnv6temp.com/mangakakalot/v1/violinist_of_hameln/vol20_chapter_83/26.jpg",
    "https://img-proxy.imgfo.com/?referer=https://manganelo.com&url=https://s3.mkklcdnv6temp.com/mangakakalot/v1/violinist_of_hameln/vol20_chapter_83/27.jpg",
    "https://img-proxy.imgfo.com/?referer=https://manganelo.com&url=https://s3.mkklcdnv6temp.com/mangakakalot/v1/violinist_of_hameln/vol20_chapter_83/28.jpg",
    "https://img-proxy.imgfo.com/?referer=https://manganelo.com&url=https://s3.mkklcdnv6temp.com/mangakakalot/v1/violinist_of_hameln/vol20_chapter_83/29.jpg",
    "https://img-proxy.imgfo.com/?referer=https://manganelo.com&url=https://s3.mkklcdnv6temp.com/mangakakalot/v1/violinist_of_hameln/vol20_chapter_83/30.jpg",
    "https://img-proxy.imgfo.com/?referer=https://manganelo.com&url=https://s3.mkklcdnv6temp.com/mangakakalot/v1/violinist_of_hameln/vol20_chapter_83/31.jpg",
    "https://img-proxy.imgfo.com/?referer=https://manganelo.com&url=https://s3.mkklcdnv6temp.com/mangakakalot/v1/violinist_of_hameln/vol20_chapter_83/32.jpg",
    "https://img-proxy.imgfo.com/?referer=https://manganelo.com&url=https://s3.mkklcdnv6temp.com/mangakakalot/v1/violinist_of_hameln/vol20_chapter_83/33.jpg",
    "https://img-proxy.imgfo.com/?referer=https://manganelo.com&url=https://s3.mkklcdnv6temp.com/mangakakalot/v1/violinist_of_hameln/vol20_chapter_83/34.jpg",
    "https://img-proxy.imgfo.com/?referer=https://manganelo.com&url=https://s3.mkklcdnv6temp.com/mangakakalot/v1/violinist_of_hameln/vol20_chapter_83/35.jpg",
    "https://img-proxy.imgfo.com/?referer=https://manganelo.com&url=https://s3.mkklcdnv6temp.com/mangakakalot/v1/violinist_of_hameln/vol20_chapter_83/36.jpg",
    "https://img-proxy.imgfo.com/?referer=https://manganelo.com&url=https://s3.mkklcdnv6temp.com/mangakakalot/v1/violinist_of_hameln/vol20_chapter_83/37.jpg",
    "https://img-proxy.imgfo.com/?referer=https://manganelo.com&url=https://s3.mkklcdnv6temp.com/mangakakalot/v1/violinist_of_hameln/vol20_chapter_83/38.jpg"
  ]
}