{
  "cover": "https://avt.mkklcdnv6.com/21/n/5-1583472678.jpg",
  "title": "Yarisugi Companion To Atashi Monogatari",
  "original": "やりすぎコンパニオンとアタシ物語 ; The Story of Me and the Overboard Companion ; The Story of Yarisugi-Companion and Atashi",
  "genre": "Comedy, Ecchi, Mature, Seinen, Manga",
  "author": "Hiramoto Akira",
  "status": "Completed",
  "backlink": "https://manganu.com/collections/hiramoto-akira/yarisugi-companion-to-atashi-monogatari/",
  "description": "This is the story of Shizuka, a beautiful young lady, and Yarisu, her overboard companion. The two of them get hired to work as hot spring companions, entertaining customers and keeping them company, with absolutely no sex involved. Or almost.",
  "language": "English",
  "images": [
    "https://img-proxy.imgfo.com/?referer=https://manganelo.com&url=https://s3.mkklcdnv6temp.com/mangakakalot/y1/yarisugi_companion_to_atashi_monogatari/vol1_chapter_7_invasion_companion/1.jpg",
    "https://img-proxy.imgfo.com/?referer=https://manganelo.com&url=https://s3.mkklcdnv6temp.com/mangakakalot/y1/yarisugi_companion_to_atashi_monogatari/vol1_chapter_7_invasion_companion/2.jpg",
    "https://img-proxy.imgfo.com/?referer=https://manganelo.com&url=https://s3.mkklcdnv6temp.com/mangakakalot/y1/yarisugi_companion_to_atashi_monogatari/vol1_chapter_7_invasion_companion/3.jpg",
    "https://img-proxy.imgfo.com/?referer=https://manganelo.com&url=https://s3.mkklcdnv6temp.com/mangakakalot/y1/yarisugi_companion_to_atashi_monogatari/vol1_chapter_7_invasion_companion/4.jpg",
    "https://img-proxy.imgfo.com/?referer=https://manganelo.com&url=https://s3.mkklcdnv6temp.com/mangakakalot/y1/yarisugi_companion_to_atashi_monogatari/vol1_chapter_7_invasion_companion/5.jpg",
    "https://img-proxy.imgfo.com/?referer=https://manganelo.com&url=https://s3.mkklcdnv6temp.com/mangakakalot/y1/yarisugi_companion_to_atashi_monogatari/vol1_chapter_7_invasion_companion/6.jpg",
    "https://img-proxy.imgfo.com/?referer=https://manganelo.com&url=https://s3.mkklcdnv6temp.com/mangakakalot/y1/yarisugi_companion_to_atashi_monogatari/vol1_chapter_7_invasion_companion/7.jpg",
    "https://img-proxy.imgfo.com/?referer=https://manganelo.com&url=https://s3.mkklcdnv6temp.com/mangakakalot/y1/yarisugi_companion_to_atashi_monogatari/vol1_chapter_7_invasion_companion/8.jpg",
    "https://img-proxy.imgfo.com/?referer=https://manganelo.com&url=https://s3.mkklcdnv6temp.com/mangakakalot/y1/yarisugi_companion_to_atashi_monogatari/vol1_chapter_7_invasion_companion/9.jpg",
    "https://img-proxy.imgfo.com/?referer=https://manganelo.com&url=https://s3.mkklcdnv6temp.com/mangakakalot/y1/yarisugi_companion_to_atashi_monogatari/vol1_chapter_7_invasion_companion/10.jpg",
    "https://img-proxy.imgfo.com/?referer=https://manganelo.com&url=https://s3.mkklcdnv6temp.com/mangakakalot/y1/yarisugi_companion_to_atashi_monogatari/vol1_chapter_7_invasion_companion/11.jpg",
    "https://img-proxy.imgfo.com/?referer=https://manganelo.com&url=https://s3.mkklcdnv6temp.com/mangakakalot/y1/yarisugi_companion_to_atashi_monogatari/vol1_chapter_7_invasion_companion/12.jpg",
    "https://img-proxy.imgfo.com/?referer=https://manganelo.com&url=https://s3.mkklcdnv6temp.com/mangakakalot/y1/yarisugi_companion_to_atashi_monogatari/vol1_chapter_7_invasion_companion/13.jpg",
    "https://img-proxy.imgfo.com/?referer=https://manganelo.com&url=https://s3.mkklcdnv6temp.com/mangakakalot/y1/yarisugi_companion_to_atashi_monogatari/vol1_chapter_7_invasion_companion/14.jpg",
    "https://img-proxy.imgfo.com/?referer=https://manganelo.com&url=https://s3.mkklcdnv6temp.com/mangakakalot/y1/yarisugi_companion_to_atashi_monogatari/vol1_chapter_7_invasion_companion/15.jpg",
    "https://img-proxy.imgfo.com/?referer=https://manganelo.com&url=https://s3.mkklcdnv6temp.com/mangakakalot/y1/yarisugi_companion_to_atashi_monogatari/vol1_chapter_7_invasion_companion/16.jpg",
    "https://img-proxy.imgfo.com/?referer=https://manganelo.com&url=https://s3.mkklcdnv6temp.com/mangakakalot/y1/yarisugi_companion_to_atashi_monogatari/vol1_chapter_7_invasion_companion/17.jpg",
    "https://img-proxy.imgfo.com/?referer=https://manganelo.com&url=https://s3.mkklcdnv6temp.com/mangakakalot/y1/yarisugi_companion_to_atashi_monogatari/vol1_chapter_7_invasion_companion/18.jpg"
  ]
}