{
  "cover": "https://avt.mkklcdnv6.com/46/a/9-1583482033.jpg",
  "title": "Kyousou No Simulacra",
  "original": "狂想のシミュラクラ ; 狂想的幻影 ; Simulacra of the Crazy Idea",
  "genre": "Action, Adventure, Sci fi, Shounen, Supernatural, Manga",
  "author": "Yoshimura Hideaki",
  "status": "Completed",
  "backlink": "https://manganu.com/collections/yoshimura-hideaki/kyousou-no-simulacra/",
  "description": "Teenager Kurikura Kansuke lives in a small village with his family but tragedy strikes one day when his younger sister, Ayame, is brutally murdered. Six years later, Kansuke, in his search for his missing older brother, finds multiple women who all call themselves Kurikura Ayame. Kansuke learns that out of grief for Ayame, his brother created dolls, each with a part of her corpse and enhanced for combat. Kansuke vows to find his brother and stop the mindless violence.",
  "language": "English",
  "images": [
    "https://img-proxy.imgfo.com/?referer=https://manganelo.com&url=https://s41.mkklcdnv6temp.com/mangakakalot/k2/kyousou_no_simulacra/vol2_chapter_8_night_before_the_duel_2/1.jpg",
    "https://img-proxy.imgfo.com/?referer=https://manganelo.com&url=https://s41.mkklcdnv6temp.com/mangakakalot/k2/kyousou_no_simulacra/vol2_chapter_8_night_before_the_duel_2/2.jpg",
    "https://img-proxy.imgfo.com/?referer=https://manganelo.com&url=https://s41.mkklcdnv6temp.com/mangakakalot/k2/kyousou_no_simulacra/vol2_chapter_8_night_before_the_duel_2/3.jpg",
    "https://img-proxy.imgfo.com/?referer=https://manganelo.com&url=https://s41.mkklcdnv6temp.com/mangakakalot/k2/kyousou_no_simulacra/vol2_chapter_8_night_before_the_duel_2/4.jpg",
    "https://img-proxy.imgfo.com/?referer=https://manganelo.com&url=https://s41.mkklcdnv6temp.com/mangakakalot/k2/kyousou_no_simulacra/vol2_chapter_8_night_before_the_duel_2/5.jpg",
    "https://img-proxy.imgfo.com/?referer=https://manganelo.com&url=https://s41.mkklcdnv6temp.com/mangakakalot/k2/kyousou_no_simulacra/vol2_chapter_8_night_before_the_duel_2/6.jpg",
    "https://img-proxy.imgfo.com/?referer=https://manganelo.com&url=https://s41.mkklcdnv6temp.com/mangakakalot/k2/kyousou_no_simulacra/vol2_chapter_8_night_before_the_duel_2/7.jpg",
    "https://img-proxy.imgfo.com/?referer=https://manganelo.com&url=https://s41.mkklcdnv6temp.com/mangakakalot/k2/kyousou_no_simulacra/vol2_chapter_8_night_before_the_duel_2/8.jpg",
    "https://img-proxy.imgfo.com/?referer=https://manganelo.com&url=https://s41.mkklcdnv6temp.com/mangakakalot/k2/kyousou_no_simulacra/vol2_chapter_8_night_before_the_duel_2/9.jpg",
    "https://img-proxy.imgfo.com/?referer=https://manganelo.com&url=https://s41.mkklcdnv6temp.com/mangakakalot/k2/kyousou_no_simulacra/vol2_chapter_8_night_before_the_duel_2/10.jpg",
    "https://img-proxy.imgfo.com/?referer=https://manganelo.com&url=https://s41.mkklcdnv6temp.com/mangakakalot/k2/kyousou_no_simulacra/vol2_chapter_8_night_before_the_duel_2/11.jpg",
    "https://img-proxy.imgfo.com/?referer=https://manganelo.com&url=https://s41.mkklcdnv6temp.com/mangakakalot/k2/kyousou_no_simulacra/vol2_chapter_8_night_before_the_duel_2/12.jpg",
    "https://img-proxy.imgfo.com/?referer=https://manganelo.com&url=https://s41.mkklcdnv6temp.com/mangakakalot/k2/kyousou_no_simulacra/vol2_chapter_8_night_before_the_duel_2/13.jpg",
    "https://img-proxy.imgfo.com/?referer=https://manganelo.com&url=https://s41.mkklcdnv6temp.com/mangakakalot/k2/kyousou_no_simulacra/vol2_chapter_8_night_before_the_duel_2/14.jpg",
    "https://img-proxy.imgfo.com/?referer=https://manganelo.com&url=https://s41.mkklcdnv6temp.com/mangakakalot/k2/kyousou_no_simulacra/vol2_chapter_8_night_before_the_duel_2/15.jpg",
    "https://img-proxy.imgfo.com/?referer=https://manganelo.com&url=https://s41.mkklcdnv6temp.com/mangakakalot/k2/kyousou_no_simulacra/vol2_chapter_8_night_before_the_duel_2/16.jpg",
    "https://img-proxy.imgfo.com/?referer=https://manganelo.com&url=https://s41.mkklcdnv6temp.com/mangakakalot/k2/kyousou_no_simulacra/vol2_chapter_8_night_before_the_duel_2/17.jpg",
    "https://img-proxy.imgfo.com/?referer=https://manganelo.com&url=https://s41.mkklcdnv6temp.com/mangakakalot/k2/kyousou_no_simulacra/vol2_chapter_8_night_before_the_duel_2/18.jpg",
    "https://img-proxy.imgfo.com/?referer=https://manganelo.com&url=https://s41.mkklcdnv6temp.com/mangakakalot/k2/kyousou_no_simulacra/vol2_chapter_8_night_before_the_duel_2/19.jpg",
    "https://img-proxy.imgfo.com/?referer=https://manganelo.com&url=https://s41.mkklcdnv6temp.com/mangakakalot/k2/kyousou_no_simulacra/vol2_chapter_8_night_before_the_duel_2/20.jpg",
    "https://img-proxy.imgfo.com/?referer=https://manganelo.com&url=https://s41.mkklcdnv6temp.com/mangakakalot/k2/kyousou_no_simulacra/vol2_chapter_8_night_before_the_duel_2/21.jpg",
    "https://img-proxy.imgfo.com/?referer=https://manganelo.com&url=https://s41.mkklcdnv6temp.com/mangakakalot/k2/kyousou_no_simulacra/vol2_chapter_8_night_before_the_duel_2/22.jpg",
    "https://img-proxy.imgfo.com/?referer=https://manganelo.com&url=https://s41.mkklcdnv6temp.com/mangakakalot/k2/kyousou_no_simulacra/vol2_chapter_8_night_before_the_duel_2/23.jpg",
    "https://img-proxy.imgfo.com/?referer=https://manganelo.com&url=https://s41.mkklcdnv6temp.com/mangakakalot/k2/kyousou_no_simulacra/vol2_chapter_8_night_before_the_duel_2/24.jpg",
    "https://img-proxy.imgfo.com/?referer=https://manganelo.com&url=https://s41.mkklcdnv6temp.com/mangakakalot/k2/kyousou_no_simulacra/vol2_chapter_8_night_before_the_duel_2/25.jpg",
    "https://img-proxy.imgfo.com/?referer=https://manganelo.com&url=https://s41.mkklcdnv6temp.com/mangakakalot/k2/kyousou_no_simulacra/vol2_chapter_8_night_before_the_duel_2/26.jpg",
    "https://img-proxy.imgfo.com/?referer=https://manganelo.com&url=https://s41.mkklcdnv6temp.com/mangakakalot/k2/kyousou_no_simulacra/vol2_chapter_8_night_before_the_duel_2/27.jpg",
    "https://img-proxy.imgfo.com/?referer=https://manganelo.com&url=https://s41.mkklcdnv6temp.com/mangakakalot/k2/kyousou_no_simulacra/vol2_chapter_8_night_before_the_duel_2/28.jpg",
    "https://img-proxy.imgfo.com/?referer=https://manganelo.com&url=https://s41.mkklcdnv6temp.com/mangakakalot/k2/kyousou_no_simulacra/vol2_chapter_8_night_before_the_duel_2/29.jpg",
    "https://img-proxy.imgfo.com/?referer=https://manganelo.com&url=https://s41.mkklcdnv6temp.com/mangakakalot/k2/kyousou_no_simulacra/vol2_chapter_8_night_before_the_duel_2/30.jpg",
    "https://img-proxy.imgfo.com/?referer=https://manganelo.com&url=https://s41.mkklcdnv6temp.com/mangakakalot/k2/kyousou_no_simulacra/vol2_chapter_8_night_before_the_duel_2/31.jpg",
    "https://img-proxy.imgfo.com/?referer=https://manganelo.com&url=https://s41.mkklcdnv6temp.com/mangakakalot/k2/kyousou_no_simulacra/vol2_chapter_8_night_before_the_duel_2/32.jpg",
    "https://img-proxy.imgfo.com/?referer=https://manganelo.com&url=https://s41.mkklcdnv6temp.com/mangakakalot/k2/kyousou_no_simulacra/vol2_chapter_8_night_before_the_duel_2/33.jpg",
    "https://img-proxy.imgfo.com/?referer=https://manganelo.com&url=https://s41.mkklcdnv6temp.com/mangakakalot/k2/kyousou_no_simulacra/vol2_chapter_8_night_before_the_duel_2/34.jpg",
    "https://img-proxy.imgfo.com/?referer=https://manganelo.com&url=https://s41.mkklcdnv6temp.com/mangakakalot/k2/kyousou_no_simulacra/vol2_chapter_8_night_before_the_duel_2/35.jpg",
    "https://img-proxy.imgfo.com/?referer=https://manganelo.com&url=https://s41.mkklcdnv6temp.com/mangakakalot/k2/kyousou_no_simulacra/vol2_chapter_8_night_before_the_duel_2/36.jpg"
  ]
}