{
  "cover": "https://avt.mkklcdnv6.com/46/a/9-1583482033.jpg",
  "title": "Kyousou No Simulacra",
  "original": "狂想のシミュラクラ ; 狂想的幻影 ; Simulacra of the Crazy Idea",
  "genre": "Action, Adventure, Sci fi, Shounen, Supernatural, Manga",
  "author": "Yoshimura Hideaki",
  "status": "Completed",
  "backlink": "https://manganu.com/collections/yoshimura-hideaki/kyousou-no-simulacra/",
  "description": "Teenager Kurikura Kansuke lives in a small village with his family but tragedy strikes one day when his younger sister, Ayame, is brutally murdered. Six years later, Kansuke, in his search for his missing older brother, finds multiple women who all call themselves Kurikura Ayame. Kansuke learns that out of grief for Ayame, his brother created dolls, each with a part of her corpse and enhanced for combat. Kansuke vows to find his brother and stop the mindless violence.",
  "language": "English",
  "images": [
    "https://img-proxy.imgfo.com/?referer=https://manganelo.com&url=https://s41.mkklcdnv6temp.com/mangakakalot/k2/kyousou_no_simulacra/vol3_chapter_14_siblings/1.jpg",
    "https://img-proxy.imgfo.com/?referer=https://manganelo.com&url=https://s41.mkklcdnv6temp.com/mangakakalot/k2/kyousou_no_simulacra/vol3_chapter_14_siblings/2.jpg",
    "https://img-proxy.imgfo.com/?referer=https://manganelo.com&url=https://s41.mkklcdnv6temp.com/mangakakalot/k2/kyousou_no_simulacra/vol3_chapter_14_siblings/3.jpg",
    "https://img-proxy.imgfo.com/?referer=https://manganelo.com&url=https://s41.mkklcdnv6temp.com/mangakakalot/k2/kyousou_no_simulacra/vol3_chapter_14_siblings/4.jpg",
    "https://img-proxy.imgfo.com/?referer=https://manganelo.com&url=https://s41.mkklcdnv6temp.com/mangakakalot/k2/kyousou_no_simulacra/vol3_chapter_14_siblings/5.jpg",
    "https://img-proxy.imgfo.com/?referer=https://manganelo.com&url=https://s41.mkklcdnv6temp.com/mangakakalot/k2/kyousou_no_simulacra/vol3_chapter_14_siblings/6.jpg",
    "https://img-proxy.imgfo.com/?referer=https://manganelo.com&url=https://s41.mkklcdnv6temp.com/mangakakalot/k2/kyousou_no_simulacra/vol3_chapter_14_siblings/7.jpg",
    "https://img-proxy.imgfo.com/?referer=https://manganelo.com&url=https://s41.mkklcdnv6temp.com/mangakakalot/k2/kyousou_no_simulacra/vol3_chapter_14_siblings/8.jpg",
    "https://img-proxy.imgfo.com/?referer=https://manganelo.com&url=https://s41.mkklcdnv6temp.com/mangakakalot/k2/kyousou_no_simulacra/vol3_chapter_14_siblings/9.jpg",
    "https://img-proxy.imgfo.com/?referer=https://manganelo.com&url=https://s41.mkklcdnv6temp.com/mangakakalot/k2/kyousou_no_simulacra/vol3_chapter_14_siblings/10.jpg",
    "https://img-proxy.imgfo.com/?referer=https://manganelo.com&url=https://s41.mkklcdnv6temp.com/mangakakalot/k2/kyousou_no_simulacra/vol3_chapter_14_siblings/11.jpg",
    "https://img-proxy.imgfo.com/?referer=https://manganelo.com&url=https://s41.mkklcdnv6temp.com/mangakakalot/k2/kyousou_no_simulacra/vol3_chapter_14_siblings/12.jpg",
    "https://img-proxy.imgfo.com/?referer=https://manganelo.com&url=https://s41.mkklcdnv6temp.com/mangakakalot/k2/kyousou_no_simulacra/vol3_chapter_14_siblings/13.jpg",
    "https://img-proxy.imgfo.com/?referer=https://manganelo.com&url=https://s41.mkklcdnv6temp.com/mangakakalot/k2/kyousou_no_simulacra/vol3_chapter_14_siblings/14.jpg",
    "https://img-proxy.imgfo.com/?referer=https://manganelo.com&url=https://s41.mkklcdnv6temp.com/mangakakalot/k2/kyousou_no_simulacra/vol3_chapter_14_siblings/15.jpg",
    "https://img-proxy.imgfo.com/?referer=https://manganelo.com&url=https://s41.mkklcdnv6temp.com/mangakakalot/k2/kyousou_no_simulacra/vol3_chapter_14_siblings/16.jpg",
    "https://img-proxy.imgfo.com/?referer=https://manganelo.com&url=https://s41.mkklcdnv6temp.com/mangakakalot/k2/kyousou_no_simulacra/vol3_chapter_14_siblings/17.jpg",
    "https://img-proxy.imgfo.com/?referer=https://manganelo.com&url=https://s41.mkklcdnv6temp.com/mangakakalot/k2/kyousou_no_simulacra/vol3_chapter_14_siblings/18.jpg",
    "https://img-proxy.imgfo.com/?referer=https://manganelo.com&url=https://s41.mkklcdnv6temp.com/mangakakalot/k2/kyousou_no_simulacra/vol3_chapter_14_siblings/19.jpg",
    "https://img-proxy.imgfo.com/?referer=https://manganelo.com&url=https://s41.mkklcdnv6temp.com/mangakakalot/k2/kyousou_no_simulacra/vol3_chapter_14_siblings/20.jpg",
    "https://img-proxy.imgfo.com/?referer=https://manganelo.com&url=https://s41.mkklcdnv6temp.com/mangakakalot/k2/kyousou_no_simulacra/vol3_chapter_14_siblings/21.jpg",
    "https://img-proxy.imgfo.com/?referer=https://manganelo.com&url=https://s41.mkklcdnv6temp.com/mangakakalot/k2/kyousou_no_simulacra/vol3_chapter_14_siblings/22.jpg",
    "https://img-proxy.imgfo.com/?referer=https://manganelo.com&url=https://s41.mkklcdnv6temp.com/mangakakalot/k2/kyousou_no_simulacra/vol3_chapter_14_siblings/23.jpg",
    "https://img-proxy.imgfo.com/?referer=https://manganelo.com&url=https://s41.mkklcdnv6temp.com/mangakakalot/k2/kyousou_no_simulacra/vol3_chapter_14_siblings/24.jpg",
    "https://img-proxy.imgfo.com/?referer=https://manganelo.com&url=https://s41.mkklcdnv6temp.com/mangakakalot/k2/kyousou_no_simulacra/vol3_chapter_14_siblings/25.jpg",
    "https://img-proxy.imgfo.com/?referer=https://manganelo.com&url=https://s41.mkklcdnv6temp.com/mangakakalot/k2/kyousou_no_simulacra/vol3_chapter_14_siblings/26.jpg",
    "https://img-proxy.imgfo.com/?referer=https://manganelo.com&url=https://s41.mkklcdnv6temp.com/mangakakalot/k2/kyousou_no_simulacra/vol3_chapter_14_siblings/27.jpg",
    "https://img-proxy.imgfo.com/?referer=https://manganelo.com&url=https://s41.mkklcdnv6temp.com/mangakakalot/k2/kyousou_no_simulacra/vol3_chapter_14_siblings/28.jpg",
    "https://img-proxy.imgfo.com/?referer=https://manganelo.com&url=https://s41.mkklcdnv6temp.com/mangakakalot/k2/kyousou_no_simulacra/vol3_chapter_14_siblings/29.jpg",
    "https://img-proxy.imgfo.com/?referer=https://manganelo.com&url=https://s41.mkklcdnv6temp.com/mangakakalot/k2/kyousou_no_simulacra/vol3_chapter_14_siblings/30.jpg",
    "https://img-proxy.imgfo.com/?referer=https://manganelo.com&url=https://s41.mkklcdnv6temp.com/mangakakalot/k2/kyousou_no_simulacra/vol3_chapter_14_siblings/31.jpg",
    "https://img-proxy.imgfo.com/?referer=https://manganelo.com&url=https://s41.mkklcdnv6temp.com/mangakakalot/k2/kyousou_no_simulacra/vol3_chapter_14_siblings/32.jpg",
    "https://img-proxy.imgfo.com/?referer=https://manganelo.com&url=https://s41.mkklcdnv6temp.com/mangakakalot/k2/kyousou_no_simulacra/vol3_chapter_14_siblings/33.jpg",
    "https://img-proxy.imgfo.com/?referer=https://manganelo.com&url=https://s41.mkklcdnv6temp.com/mangakakalot/k2/kyousou_no_simulacra/vol3_chapter_14_siblings/34.jpg",
    "https://img-proxy.imgfo.com/?referer=https://manganelo.com&url=https://s41.mkklcdnv6temp.com/mangakakalot/k2/kyousou_no_simulacra/vol3_chapter_14_siblings/35.jpg",
    "https://img-proxy.imgfo.com/?referer=https://manganelo.com&url=https://s41.mkklcdnv6temp.com/mangakakalot/k2/kyousou_no_simulacra/vol3_chapter_14_siblings/36.jpg",
    "https://img-proxy.imgfo.com/?referer=https://manganelo.com&url=https://s41.mkklcdnv6temp.com/mangakakalot/k2/kyousou_no_simulacra/vol3_chapter_14_siblings/37.jpg",
    "https://img-proxy.imgfo.com/?referer=https://manganelo.com&url=https://s41.mkklcdnv6temp.com/mangakakalot/k2/kyousou_no_simulacra/vol3_chapter_14_siblings/38.jpg",
    "https://img-proxy.imgfo.com/?referer=https://manganelo.com&url=https://s41.mkklcdnv6temp.com/mangakakalot/k2/kyousou_no_simulacra/vol3_chapter_14_siblings/39.jpg",
    "https://img-proxy.imgfo.com/?referer=https://manganelo.com&url=https://s41.mkklcdnv6temp.com/mangakakalot/k2/kyousou_no_simulacra/vol3_chapter_14_siblings/40.jpg"
  ]
}