{
  "cover": "https://avt.mkklcdnv6.com/9/s/5-1583472239.jpg",
  "title": "Non-Non-Non",
  "genre": "Comedy, School life, Shounen ai, Yaoi, Manga",
  "author": "Nakamura Asumiko",
  "status": "Completed",
  "backlink": "https://manganu.com/collections/nakamura-asumiko/non-non-non/",
  "description": "Final chapter of the terribly cute Non-non story",
  "language": "English",
  "images": [
    "https://img-proxy.imgfo.com/?referer=https://manganelo.com&url=https://s5.mkklcdnv6temp.com/mangakakalot/n2/nonnonnon/vol1_chapter_3_nonnon/1.jpg",
    "https://img-proxy.imgfo.com/?referer=https://manganelo.com&url=https://s5.mkklcdnv6temp.com/mangakakalot/n2/nonnonnon/vol1_chapter_3_nonnon/2.jpg",
    "https://img-proxy.imgfo.com/?referer=https://manganelo.com&url=https://s5.mkklcdnv6temp.com/mangakakalot/n2/nonnonnon/vol1_chapter_3_nonnon/3.jpg",
    "https://img-proxy.imgfo.com/?referer=https://manganelo.com&url=https://s5.mkklcdnv6temp.com/mangakakalot/n2/nonnonnon/vol1_chapter_3_nonnon/4.jpg",
    "https://img-proxy.imgfo.com/?referer=https://manganelo.com&url=https://s5.mkklcdnv6temp.com/mangakakalot/n2/nonnonnon/vol1_chapter_3_nonnon/5.jpg",
    "https://img-proxy.imgfo.com/?referer=https://manganelo.com&url=https://s5.mkklcdnv6temp.com/mangakakalot/n2/nonnonnon/vol1_chapter_3_nonnon/6.jpg",
    "https://img-proxy.imgfo.com/?referer=https://manganelo.com&url=https://s5.mkklcdnv6temp.com/mangakakalot/n2/nonnonnon/vol1_chapter_3_nonnon/7.jpg",
    "https://img-proxy.imgfo.com/?referer=https://manganelo.com&url=https://s5.mkklcdnv6temp.com/mangakakalot/n2/nonnonnon/vol1_chapter_3_nonnon/8.jpg",
    "https://img-proxy.imgfo.com/?referer=https://manganelo.com&url=https://s5.mkklcdnv6temp.com/mangakakalot/n2/nonnonnon/vol1_chapter_3_nonnon/9.jpg",
    "https://img-proxy.imgfo.com/?referer=https://manganelo.com&url=https://s5.mkklcdnv6temp.com/mangakakalot/n2/nonnonnon/vol1_chapter_3_nonnon/10.jpg",
    "https://img-proxy.imgfo.com/?referer=https://manganelo.com&url=https://s5.mkklcdnv6temp.com/mangakakalot/n2/nonnonnon/vol1_chapter_3_nonnon/11.jpg",
    "https://img-proxy.imgfo.com/?referer=https://manganelo.com&url=https://s5.mkklcdnv6temp.com/mangakakalot/n2/nonnonnon/vol1_chapter_3_nonnon/12.jpg",
    "https://img-proxy.imgfo.com/?referer=https://manganelo.com&url=https://s5.mkklcdnv6temp.com/mangakakalot/n2/nonnonnon/vol1_chapter_3_nonnon/13.jpg",
    "https://img-proxy.imgfo.com/?referer=https://manganelo.com&url=https://s5.mkklcdnv6temp.com/mangakakalot/n2/nonnonnon/vol1_chapter_3_nonnon/14.jpg",
    "https://img-proxy.imgfo.com/?referer=https://manganelo.com&url=https://s5.mkklcdnv6temp.com/mangakakalot/n2/nonnonnon/vol1_chapter_3_nonnon/15.jpg",
    "https://img-proxy.imgfo.com/?referer=https://manganelo.com&url=https://s5.mkklcdnv6temp.com/mangakakalot/n2/nonnonnon/vol1_chapter_3_nonnon/16.jpg",
    "https://img-proxy.imgfo.com/?referer=https://manganelo.com&url=https://s5.mkklcdnv6temp.com/mangakakalot/n2/nonnonnon/vol1_chapter_3_nonnon/17.jpg",
    "https://img-proxy.imgfo.com/?referer=https://manganelo.com&url=https://s5.mkklcdnv6temp.com/mangakakalot/n2/nonnonnon/vol1_chapter_3_nonnon/18.jpg",
    "https://img-proxy.imgfo.com/?referer=https://manganelo.com&url=https://s5.mkklcdnv6temp.com/mangakakalot/n2/nonnonnon/vol1_chapter_3_nonnon/19.jpg",
    "https://img-proxy.imgfo.com/?referer=https://manganelo.com&url=https://s5.mkklcdnv6temp.com/mangakakalot/n2/nonnonnon/vol1_chapter_3_nonnon/20.jpg",
    "https://img-proxy.imgfo.com/?referer=https://manganelo.com&url=https://s5.mkklcdnv6temp.com/mangakakalot/n2/nonnonnon/vol1_chapter_3_nonnon/21.jpg",
    "https://img-proxy.imgfo.com/?referer=https://manganelo.com&url=https://s5.mkklcdnv6temp.com/mangakakalot/n2/nonnonnon/vol1_chapter_3_nonnon/22.jpg",
    "https://img-proxy.imgfo.com/?referer=https://manganelo.com&url=https://s5.mkklcdnv6temp.com/mangakakalot/n2/nonnonnon/vol1_chapter_3_nonnon/23.jpg",
    "https://img-proxy.imgfo.com/?referer=https://manganelo.com&url=https://s5.mkklcdnv6temp.com/mangakakalot/n2/nonnonnon/vol1_chapter_3_nonnon/24.jpg",
    "https://img-proxy.imgfo.com/?referer=https://manganelo.com&url=https://s5.mkklcdnv6temp.com/mangakakalot/n2/nonnonnon/vol1_chapter_3_nonnon/25.jpg",
    "https://img-proxy.imgfo.com/?referer=https://manganelo.com&url=https://s5.mkklcdnv6temp.com/mangakakalot/n2/nonnonnon/vol1_chapter_3_nonnon/26.jpg"
  ]
}