{
  "cover": "https://avt.mkklcdnv6.com/43/v/9-1583481939.jpg",
  "title": "Mr. Morning",
  "original": "ＭＲ．ＭＯＲＮＩＮＧ",
  "genre": "Adventure, Shounen, Manga",
  "author": "Takayama Shinobu",
  "status": "Completed",
  "backlink": "https://manganu.com/collections/takayama-shinobu/mr-morning/",
  "description": "From the mangaka of Amatsuki:\nThe Rainbow Stone Train crosses straight through a vast continent.\nNewbie train crew member Toy is posted to work in Morning, the train carriage which charges the cheapest ticket prices!\"\nTorquay Toy (the nephew of the head-conductor of Morning) wants to work on a train powered by rainbow stone, but ends up working on the \"Morning\" section, which is reserved for the lowest class passengers.",
  "language": "English",
  "images": [
    "https://img-proxy.imgfo.com/?referer=https://manganelo.com&url=https://s3.mkklcdnv6temp.com/mangakakalot/m2/mr_morning/vol2_chapter_95/1.jpg",
    "https://img-proxy.imgfo.com/?referer=https://manganelo.com&url=https://s3.mkklcdnv6temp.com/mangakakalot/m2/mr_morning/vol2_chapter_95/2.jpg",
    "https://img-proxy.imgfo.com/?referer=https://manganelo.com&url=https://s3.mkklcdnv6temp.com/mangakakalot/m2/mr_morning/vol2_chapter_95/3.jpg",
    "https://img-proxy.imgfo.com/?referer=https://manganelo.com&url=https://s3.mkklcdnv6temp.com/mangakakalot/m2/mr_morning/vol2_chapter_95/4.jpg",
    "https://img-proxy.imgfo.com/?referer=https://manganelo.com&url=https://s3.mkklcdnv6temp.com/mangakakalot/m2/mr_morning/vol2_chapter_95/5.jpg",
    "https://img-proxy.imgfo.com/?referer=https://manganelo.com&url=https://s3.mkklcdnv6temp.com/mangakakalot/m2/mr_morning/vol2_chapter_95/6.jpg",
    "https://img-proxy.imgfo.com/?referer=https://manganelo.com&url=https://s3.mkklcdnv6temp.com/mangakakalot/m2/mr_morning/vol2_chapter_95/7.jpg",
    "https://img-proxy.imgfo.com/?referer=https://manganelo.com&url=https://s3.mkklcdnv6temp.com/mangakakalot/m2/mr_morning/vol2_chapter_95/8.jpg",
    "https://img-proxy.imgfo.com/?referer=https://manganelo.com&url=https://s3.mkklcdnv6temp.com/mangakakalot/m2/mr_morning/vol2_chapter_95/9.jpg"
  ]
}