{
  "cover": "https://avt.mkklcdnv6.com/23/n/4-1583470647.jpg",
  "title": "Sakigake!! Otokojuku",
  "original": "魁!!男塾 ; Sakigake!! Otoko Juku",
  "genre": "Action, Comedy, Martial arts, School life, Shounen, Manga",
  "author": "Miyashita Akira",
  "status": "Completed",
  "backlink": "https://manganu.com/collections/miyashita-akira/sakigake-otokojuku/",
  "description": "Otokojuku - a private school for juvenile delinquents that were previously expelled from normal schools. At this school, Japanese chivalry is taught through feudal and military fundamentals. Similar to an action film, the classes are overwhelmed by violence. Only those who survive it become true men.\nSource - ANN",
  "language": "English",
  "images": [
    "https://img-proxy.imgfo.com/?referer=https://manganelo.com&url=https://s41.mkklcdnv6temp.com/mangakakalot/s1/sakigake_otokojuku/vol17_chapter_155_the_governor_of_time/1.jpg",
    "https://img-proxy.imgfo.com/?referer=https://manganelo.com&url=https://s41.mkklcdnv6temp.com/mangakakalot/s1/sakigake_otokojuku/vol17_chapter_155_the_governor_of_time/2.jpg",
    "https://img-proxy.imgfo.com/?referer=https://manganelo.com&url=https://s41.mkklcdnv6temp.com/mangakakalot/s1/sakigake_otokojuku/vol17_chapter_155_the_governor_of_time/3.jpg",
    "https://img-proxy.imgfo.com/?referer=https://manganelo.com&url=https://s41.mkklcdnv6temp.com/mangakakalot/s1/sakigake_otokojuku/vol17_chapter_155_the_governor_of_time/4.jpg",
    "https://img-proxy.imgfo.com/?referer=https://manganelo.com&url=https://s41.mkklcdnv6temp.com/mangakakalot/s1/sakigake_otokojuku/vol17_chapter_155_the_governor_of_time/5.jpg",
    "https://img-proxy.imgfo.com/?referer=https://manganelo.com&url=https://s41.mkklcdnv6temp.com/mangakakalot/s1/sakigake_otokojuku/vol17_chapter_155_the_governor_of_time/6.jpg",
    "https://img-proxy.imgfo.com/?referer=https://manganelo.com&url=https://s41.mkklcdnv6temp.com/mangakakalot/s1/sakigake_otokojuku/vol17_chapter_155_the_governor_of_time/7.jpg",
    "https://img-proxy.imgfo.com/?referer=https://manganelo.com&url=https://s41.mkklcdnv6temp.com/mangakakalot/s1/sakigake_otokojuku/vol17_chapter_155_the_governor_of_time/8.jpg",
    "https://img-proxy.imgfo.com/?referer=https://manganelo.com&url=https://s41.mkklcdnv6temp.com/mangakakalot/s1/sakigake_otokojuku/vol17_chapter_155_the_governor_of_time/9.jpg",
    "https://img-proxy.imgfo.com/?referer=https://manganelo.com&url=https://s41.mkklcdnv6temp.com/mangakakalot/s1/sakigake_otokojuku/vol17_chapter_155_the_governor_of_time/10.jpg",
    "https://img-proxy.imgfo.com/?referer=https://manganelo.com&url=https://s41.mkklcdnv6temp.com/mangakakalot/s1/sakigake_otokojuku/vol17_chapter_155_the_governor_of_time/11.jpg",
    "https://img-proxy.imgfo.com/?referer=https://manganelo.com&url=https://s41.mkklcdnv6temp.com/mangakakalot/s1/sakigake_otokojuku/vol17_chapter_155_the_governor_of_time/12.jpg",
    "https://img-proxy.imgfo.com/?referer=https://manganelo.com&url=https://s41.mkklcdnv6temp.com/mangakakalot/s1/sakigake_otokojuku/vol17_chapter_155_the_governor_of_time/13.jpg",
    "https://img-proxy.imgfo.com/?referer=https://manganelo.com&url=https://s41.mkklcdnv6temp.com/mangakakalot/s1/sakigake_otokojuku/vol17_chapter_155_the_governor_of_time/14.jpg",
    "https://img-proxy.imgfo.com/?referer=https://manganelo.com&url=https://s41.mkklcdnv6temp.com/mangakakalot/s1/sakigake_otokojuku/vol17_chapter_155_the_governor_of_time/15.jpg",
    "https://img-proxy.imgfo.com/?referer=https://manganelo.com&url=https://s41.mkklcdnv6temp.com/mangakakalot/s1/sakigake_otokojuku/vol17_chapter_155_the_governor_of_time/16.jpg",
    "https://img-proxy.imgfo.com/?referer=https://manganelo.com&url=https://s41.mkklcdnv6temp.com/mangakakalot/s1/sakigake_otokojuku/vol17_chapter_155_the_governor_of_time/17.jpg",
    "https://img-proxy.imgfo.com/?referer=https://manganelo.com&url=https://s41.mkklcdnv6temp.com/mangakakalot/s1/sakigake_otokojuku/vol17_chapter_155_the_governor_of_time/18.jpg",
    "https://img-proxy.imgfo.com/?referer=https://manganelo.com&url=https://s41.mkklcdnv6temp.com/mangakakalot/s1/sakigake_otokojuku/vol17_chapter_155_the_governor_of_time/19.jpg",
    "https://img-proxy.imgfo.com/?referer=https://manganelo.com&url=https://s41.mkklcdnv6temp.com/mangakakalot/s1/sakigake_otokojuku/vol17_chapter_155_the_governor_of_time/20.jpg",
    "https://img-proxy.imgfo.com/?referer=https://manganelo.com&url=https://s41.mkklcdnv6temp.com/mangakakalot/s1/sakigake_otokojuku/vol17_chapter_155_the_governor_of_time/21.jpg",
    "https://img-proxy.imgfo.com/?referer=https://manganelo.com&url=https://s41.mkklcdnv6temp.com/mangakakalot/s1/sakigake_otokojuku/vol17_chapter_155_the_governor_of_time/22.jpg"
  ]
}