{
  "cover": "https://avt.mkklcdnv6.com/23/n/4-1583470647.jpg",
  "title": "Sakigake!! Otokojuku",
  "original": "魁!!男塾 ; Sakigake!! Otoko Juku",
  "genre": "Action, Comedy, Martial arts, School life, Shounen, Manga",
  "author": "Miyashita Akira",
  "status": "Completed",
  "backlink": "https://manganu.com/collections/miyashita-akira/sakigake-otokojuku/",
  "description": "Otokojuku - a private school for juvenile delinquents that were previously expelled from normal schools. At this school, Japanese chivalry is taught through feudal and military fundamentals. Similar to an action film, the classes are overwhelmed by violence. Only those who survive it become true men.\nSource - ANN",
  "language": "English",
  "images": [
    "https://img-proxy.imgfo.com/?referer=https://manganelo.com&url=https://s41.mkklcdnv6temp.com/mangakakalot/s1/sakigake_otokojuku/vol32_chapter_288_the_final_ougi_bakushou_keihan/1.jpg",
    "https://img-proxy.imgfo.com/?referer=https://manganelo.com&url=https://s41.mkklcdnv6temp.com/mangakakalot/s1/sakigake_otokojuku/vol32_chapter_288_the_final_ougi_bakushou_keihan/2.jpg",
    "https://img-proxy.imgfo.com/?referer=https://manganelo.com&url=https://s41.mkklcdnv6temp.com/mangakakalot/s1/sakigake_otokojuku/vol32_chapter_288_the_final_ougi_bakushou_keihan/3.jpg",
    "https://img-proxy.imgfo.com/?referer=https://manganelo.com&url=https://s41.mkklcdnv6temp.com/mangakakalot/s1/sakigake_otokojuku/vol32_chapter_288_the_final_ougi_bakushou_keihan/4.jpg",
    "https://img-proxy.imgfo.com/?referer=https://manganelo.com&url=https://s41.mkklcdnv6temp.com/mangakakalot/s1/sakigake_otokojuku/vol32_chapter_288_the_final_ougi_bakushou_keihan/5.jpg",
    "https://img-proxy.imgfo.com/?referer=https://manganelo.com&url=https://s41.mkklcdnv6temp.com/mangakakalot/s1/sakigake_otokojuku/vol32_chapter_288_the_final_ougi_bakushou_keihan/6.jpg",
    "https://img-proxy.imgfo.com/?referer=https://manganelo.com&url=https://s41.mkklcdnv6temp.com/mangakakalot/s1/sakigake_otokojuku/vol32_chapter_288_the_final_ougi_bakushou_keihan/7.jpg",
    "https://img-proxy.imgfo.com/?referer=https://manganelo.com&url=https://s41.mkklcdnv6temp.com/mangakakalot/s1/sakigake_otokojuku/vol32_chapter_288_the_final_ougi_bakushou_keihan/8.jpg",
    "https://img-proxy.imgfo.com/?referer=https://manganelo.com&url=https://s41.mkklcdnv6temp.com/mangakakalot/s1/sakigake_otokojuku/vol32_chapter_288_the_final_ougi_bakushou_keihan/9.jpg",
    "https://img-proxy.imgfo.com/?referer=https://manganelo.com&url=https://s41.mkklcdnv6temp.com/mangakakalot/s1/sakigake_otokojuku/vol32_chapter_288_the_final_ougi_bakushou_keihan/10.jpg",
    "https://img-proxy.imgfo.com/?referer=https://manganelo.com&url=https://s41.mkklcdnv6temp.com/mangakakalot/s1/sakigake_otokojuku/vol32_chapter_288_the_final_ougi_bakushou_keihan/11.jpg",
    "https://img-proxy.imgfo.com/?referer=https://manganelo.com&url=https://s41.mkklcdnv6temp.com/mangakakalot/s1/sakigake_otokojuku/vol32_chapter_288_the_final_ougi_bakushou_keihan/12.jpg",
    "https://img-proxy.imgfo.com/?referer=https://manganelo.com&url=https://s41.mkklcdnv6temp.com/mangakakalot/s1/sakigake_otokojuku/vol32_chapter_288_the_final_ougi_bakushou_keihan/13.jpg",
    "https://img-proxy.imgfo.com/?referer=https://manganelo.com&url=https://s41.mkklcdnv6temp.com/mangakakalot/s1/sakigake_otokojuku/vol32_chapter_288_the_final_ougi_bakushou_keihan/14.jpg",
    "https://img-proxy.imgfo.com/?referer=https://manganelo.com&url=https://s41.mkklcdnv6temp.com/mangakakalot/s1/sakigake_otokojuku/vol32_chapter_288_the_final_ougi_bakushou_keihan/15.jpg",
    "https://img-proxy.imgfo.com/?referer=https://manganelo.com&url=https://s41.mkklcdnv6temp.com/mangakakalot/s1/sakigake_otokojuku/vol32_chapter_288_the_final_ougi_bakushou_keihan/16.jpg",
    "https://img-proxy.imgfo.com/?referer=https://manganelo.com&url=https://s41.mkklcdnv6temp.com/mangakakalot/s1/sakigake_otokojuku/vol32_chapter_288_the_final_ougi_bakushou_keihan/17.jpg",
    "https://img-proxy.imgfo.com/?referer=https://manganelo.com&url=https://s41.mkklcdnv6temp.com/mangakakalot/s1/sakigake_otokojuku/vol32_chapter_288_the_final_ougi_bakushou_keihan/18.jpg",
    "https://img-proxy.imgfo.com/?referer=https://manganelo.com&url=https://s41.mkklcdnv6temp.com/mangakakalot/s1/sakigake_otokojuku/vol32_chapter_288_the_final_ougi_bakushou_keihan/19.jpg",
    "https://img-proxy.imgfo.com/?referer=https://manganelo.com&url=https://s41.mkklcdnv6temp.com/mangakakalot/s1/sakigake_otokojuku/vol32_chapter_288_the_final_ougi_bakushou_keihan/20.jpg",
    "https://img-proxy.imgfo.com/?referer=https://manganelo.com&url=https://s41.mkklcdnv6temp.com/mangakakalot/s1/sakigake_otokojuku/vol32_chapter_288_the_final_ougi_bakushou_keihan/21.jpg",
    "https://img-proxy.imgfo.com/?referer=https://manganelo.com&url=https://s41.mkklcdnv6temp.com/mangakakalot/s1/sakigake_otokojuku/vol32_chapter_288_the_final_ougi_bakushou_keihan/22.jpg",
    "https://img-proxy.imgfo.com/?referer=https://manganelo.com&url=https://s41.mkklcdnv6temp.com/mangakakalot/s1/sakigake_otokojuku/vol32_chapter_288_the_final_ougi_bakushou_keihan/23.jpg",
    "https://img-proxy.imgfo.com/?referer=https://manganelo.com&url=https://s41.mkklcdnv6temp.com/mangakakalot/s1/sakigake_otokojuku/vol32_chapter_288_the_final_ougi_bakushou_keihan/24.jpg",
    "https://img-proxy.imgfo.com/?referer=https://manganelo.com&url=https://s41.mkklcdnv6temp.com/mangakakalot/s1/sakigake_otokojuku/vol32_chapter_288_the_final_ougi_bakushou_keihan/25.jpg",
    "https://img-proxy.imgfo.com/?referer=https://manganelo.com&url=https://s41.mkklcdnv6temp.com/mangakakalot/s1/sakigake_otokojuku/vol32_chapter_288_the_final_ougi_bakushou_keihan/26.jpg"
  ]
}