{
  "cover": "https://avt.mkklcdnv6.com/23/n/4-1583470647.jpg",
  "title": "Sakigake!! Otokojuku",
  "original": "魁!!男塾 ; Sakigake!! Otoko Juku",
  "genre": "Action, Comedy, Martial arts, School life, Shounen, Manga",
  "author": "Miyashita Akira",
  "status": "Completed",
  "backlink": "https://manganu.com/collections/miyashita-akira/sakigake-otokojuku/",
  "description": "Otokojuku - a private school for juvenile delinquents that were previously expelled from normal schools. At this school, Japanese chivalry is taught through feudal and military fundamentals. Similar to an action film, the classes are overwhelmed by violence. Only those who survive it become true men.\nSource - ANN",
  "language": "English",
  "images": [
    "https://img-proxy.imgfo.com/?referer=https://manganelo.com&url=https://s41.mkklcdnv6temp.com/mangakakalot/s1/sakigake_otokojuku/vol8_chapter_71_rikuke_ougi_has_no_blind_spot/1.jpg",
    "https://img-proxy.imgfo.com/?referer=https://manganelo.com&url=https://s41.mkklcdnv6temp.com/mangakakalot/s1/sakigake_otokojuku/vol8_chapter_71_rikuke_ougi_has_no_blind_spot/2.jpg",
    "https://img-proxy.imgfo.com/?referer=https://manganelo.com&url=https://s41.mkklcdnv6temp.com/mangakakalot/s1/sakigake_otokojuku/vol8_chapter_71_rikuke_ougi_has_no_blind_spot/3.jpg",
    "https://img-proxy.imgfo.com/?referer=https://manganelo.com&url=https://s41.mkklcdnv6temp.com/mangakakalot/s1/sakigake_otokojuku/vol8_chapter_71_rikuke_ougi_has_no_blind_spot/4.jpg",
    "https://img-proxy.imgfo.com/?referer=https://manganelo.com&url=https://s41.mkklcdnv6temp.com/mangakakalot/s1/sakigake_otokojuku/vol8_chapter_71_rikuke_ougi_has_no_blind_spot/5.jpg",
    "https://img-proxy.imgfo.com/?referer=https://manganelo.com&url=https://s41.mkklcdnv6temp.com/mangakakalot/s1/sakigake_otokojuku/vol8_chapter_71_rikuke_ougi_has_no_blind_spot/6.jpg",
    "https://img-proxy.imgfo.com/?referer=https://manganelo.com&url=https://s41.mkklcdnv6temp.com/mangakakalot/s1/sakigake_otokojuku/vol8_chapter_71_rikuke_ougi_has_no_blind_spot/7.jpg",
    "https://img-proxy.imgfo.com/?referer=https://manganelo.com&url=https://s41.mkklcdnv6temp.com/mangakakalot/s1/sakigake_otokojuku/vol8_chapter_71_rikuke_ougi_has_no_blind_spot/8.jpg",
    "https://img-proxy.imgfo.com/?referer=https://manganelo.com&url=https://s41.mkklcdnv6temp.com/mangakakalot/s1/sakigake_otokojuku/vol8_chapter_71_rikuke_ougi_has_no_blind_spot/9.jpg",
    "https://img-proxy.imgfo.com/?referer=https://manganelo.com&url=https://s41.mkklcdnv6temp.com/mangakakalot/s1/sakigake_otokojuku/vol8_chapter_71_rikuke_ougi_has_no_blind_spot/10.jpg",
    "https://img-proxy.imgfo.com/?referer=https://manganelo.com&url=https://s41.mkklcdnv6temp.com/mangakakalot/s1/sakigake_otokojuku/vol8_chapter_71_rikuke_ougi_has_no_blind_spot/11.jpg",
    "https://img-proxy.imgfo.com/?referer=https://manganelo.com&url=https://s41.mkklcdnv6temp.com/mangakakalot/s1/sakigake_otokojuku/vol8_chapter_71_rikuke_ougi_has_no_blind_spot/12.jpg",
    "https://img-proxy.imgfo.com/?referer=https://manganelo.com&url=https://s41.mkklcdnv6temp.com/mangakakalot/s1/sakigake_otokojuku/vol8_chapter_71_rikuke_ougi_has_no_blind_spot/13.jpg",
    "https://img-proxy.imgfo.com/?referer=https://manganelo.com&url=https://s41.mkklcdnv6temp.com/mangakakalot/s1/sakigake_otokojuku/vol8_chapter_71_rikuke_ougi_has_no_blind_spot/14.jpg",
    "https://img-proxy.imgfo.com/?referer=https://manganelo.com&url=https://s41.mkklcdnv6temp.com/mangakakalot/s1/sakigake_otokojuku/vol8_chapter_71_rikuke_ougi_has_no_blind_spot/15.jpg",
    "https://img-proxy.imgfo.com/?referer=https://manganelo.com&url=https://s41.mkklcdnv6temp.com/mangakakalot/s1/sakigake_otokojuku/vol8_chapter_71_rikuke_ougi_has_no_blind_spot/16.jpg",
    "https://img-proxy.imgfo.com/?referer=https://manganelo.com&url=https://s41.mkklcdnv6temp.com/mangakakalot/s1/sakigake_otokojuku/vol8_chapter_71_rikuke_ougi_has_no_blind_spot/17.jpg",
    "https://img-proxy.imgfo.com/?referer=https://manganelo.com&url=https://s41.mkklcdnv6temp.com/mangakakalot/s1/sakigake_otokojuku/vol8_chapter_71_rikuke_ougi_has_no_blind_spot/18.jpg",
    "https://img-proxy.imgfo.com/?referer=https://manganelo.com&url=https://s41.mkklcdnv6temp.com/mangakakalot/s1/sakigake_otokojuku/vol8_chapter_71_rikuke_ougi_has_no_blind_spot/19.jpg"
  ]
}