{
  "cover": "https://avt.mkklcdnv6.com/23/n/4-1583470647.jpg",
  "title": "Sakigake!! Otokojuku",
  "original": "魁!!男塾 ; Sakigake!! Otoko Juku",
  "genre": "Action, Comedy, Martial arts, School life, Shounen, Manga",
  "author": "Miyashita Akira",
  "status": "Completed",
  "backlink": "https://manganu.com/collections/miyashita-akira/sakigake-otokojuku/",
  "description": "Otokojuku - a private school for juvenile delinquents that were previously expelled from normal schools. At this school, Japanese chivalry is taught through feudal and military fundamentals. Similar to an action film, the classes are overwhelmed by violence. Only those who survive it become true men.\nSource - ANN",
  "language": "English",
  "images": [
    "https://img-proxy.imgfo.com/?referer=https://manganelo.com&url=https://s41.mkklcdnv6temp.com/mangakakalot/s1/sakigake_otokojuku/vol21_chapter_196_the_great_inheritance/1.jpg",
    "https://img-proxy.imgfo.com/?referer=https://manganelo.com&url=https://s41.mkklcdnv6temp.com/mangakakalot/s1/sakigake_otokojuku/vol21_chapter_196_the_great_inheritance/2.jpg",
    "https://img-proxy.imgfo.com/?referer=https://manganelo.com&url=https://s41.mkklcdnv6temp.com/mangakakalot/s1/sakigake_otokojuku/vol21_chapter_196_the_great_inheritance/3.jpg",
    "https://img-proxy.imgfo.com/?referer=https://manganelo.com&url=https://s41.mkklcdnv6temp.com/mangakakalot/s1/sakigake_otokojuku/vol21_chapter_196_the_great_inheritance/4.jpg",
    "https://img-proxy.imgfo.com/?referer=https://manganelo.com&url=https://s41.mkklcdnv6temp.com/mangakakalot/s1/sakigake_otokojuku/vol21_chapter_196_the_great_inheritance/5.jpg",
    "https://img-proxy.imgfo.com/?referer=https://manganelo.com&url=https://s41.mkklcdnv6temp.com/mangakakalot/s1/sakigake_otokojuku/vol21_chapter_196_the_great_inheritance/6.jpg",
    "https://img-proxy.imgfo.com/?referer=https://manganelo.com&url=https://s41.mkklcdnv6temp.com/mangakakalot/s1/sakigake_otokojuku/vol21_chapter_196_the_great_inheritance/7.jpg",
    "https://img-proxy.imgfo.com/?referer=https://manganelo.com&url=https://s41.mkklcdnv6temp.com/mangakakalot/s1/sakigake_otokojuku/vol21_chapter_196_the_great_inheritance/8.jpg",
    "https://img-proxy.imgfo.com/?referer=https://manganelo.com&url=https://s41.mkklcdnv6temp.com/mangakakalot/s1/sakigake_otokojuku/vol21_chapter_196_the_great_inheritance/9.jpg",
    "https://img-proxy.imgfo.com/?referer=https://manganelo.com&url=https://s41.mkklcdnv6temp.com/mangakakalot/s1/sakigake_otokojuku/vol21_chapter_196_the_great_inheritance/10.jpg",
    "https://img-proxy.imgfo.com/?referer=https://manganelo.com&url=https://s41.mkklcdnv6temp.com/mangakakalot/s1/sakigake_otokojuku/vol21_chapter_196_the_great_inheritance/11.jpg",
    "https://img-proxy.imgfo.com/?referer=https://manganelo.com&url=https://s41.mkklcdnv6temp.com/mangakakalot/s1/sakigake_otokojuku/vol21_chapter_196_the_great_inheritance/12.jpg",
    "https://img-proxy.imgfo.com/?referer=https://manganelo.com&url=https://s41.mkklcdnv6temp.com/mangakakalot/s1/sakigake_otokojuku/vol21_chapter_196_the_great_inheritance/13.jpg",
    "https://img-proxy.imgfo.com/?referer=https://manganelo.com&url=https://s41.mkklcdnv6temp.com/mangakakalot/s1/sakigake_otokojuku/vol21_chapter_196_the_great_inheritance/14.jpg",
    "https://img-proxy.imgfo.com/?referer=https://manganelo.com&url=https://s41.mkklcdnv6temp.com/mangakakalot/s1/sakigake_otokojuku/vol21_chapter_196_the_great_inheritance/15.jpg",
    "https://img-proxy.imgfo.com/?referer=https://manganelo.com&url=https://s41.mkklcdnv6temp.com/mangakakalot/s1/sakigake_otokojuku/vol21_chapter_196_the_great_inheritance/16.jpg",
    "https://img-proxy.imgfo.com/?referer=https://manganelo.com&url=https://s41.mkklcdnv6temp.com/mangakakalot/s1/sakigake_otokojuku/vol21_chapter_196_the_great_inheritance/17.jpg",
    "https://img-proxy.imgfo.com/?referer=https://manganelo.com&url=https://s41.mkklcdnv6temp.com/mangakakalot/s1/sakigake_otokojuku/vol21_chapter_196_the_great_inheritance/18.jpg",
    "https://img-proxy.imgfo.com/?referer=https://manganelo.com&url=https://s41.mkklcdnv6temp.com/mangakakalot/s1/sakigake_otokojuku/vol21_chapter_196_the_great_inheritance/19.jpg",
    "https://img-proxy.imgfo.com/?referer=https://manganelo.com&url=https://s41.mkklcdnv6temp.com/mangakakalot/s1/sakigake_otokojuku/vol21_chapter_196_the_great_inheritance/20.jpg",
    "https://img-proxy.imgfo.com/?referer=https://manganelo.com&url=https://s41.mkklcdnv6temp.com/mangakakalot/s1/sakigake_otokojuku/vol21_chapter_196_the_great_inheritance/21.jpg",
    "https://img-proxy.imgfo.com/?referer=https://manganelo.com&url=https://s41.mkklcdnv6temp.com/mangakakalot/s1/sakigake_otokojuku/vol21_chapter_196_the_great_inheritance/22.jpg",
    "https://img-proxy.imgfo.com/?referer=https://manganelo.com&url=https://s41.mkklcdnv6temp.com/mangakakalot/s1/sakigake_otokojuku/vol21_chapter_196_the_great_inheritance/23.jpg"
  ]
}