{
  "cover": "https://avt.mkklcdnv6.com/7/l/10-1583482442.jpg",
  "title": "Veritas",
  "original": "베리타스 (Korean) ; Истина (Bulgarian) ; אמת (Hebrew) ; Truth (English)",
  "genre": "Action, Fantasy, Martial arts, Shounen, Supernatural, Manhwa",
  "author": "Yoon Joon Sik",
  "status": "Completed",
  "backlink": "https://manganu.com/collections/yoon-joon-sik/veritas/",
  "description": "Gangryong is a high schooler; unlike others, he has always had a dream of being the strongest. One day he meets Youcheon, who teaches him a powerful skill. One year later, people come to see him and announce that his \"master\" is dead. Because he was his only student, Gangryong has to follow them and go to a school where everybody has supernatural powers.\nThis series is read from left to right as it is a Korean Manhwa.",
  "language": "English",
  "images": [
    "https://img-proxy.imgfo.com/?referer=https://manganelo.com&url=https://s6.mkklcdnv6temp.com/mangakakalot/v1/veritas/vol7_chapter_44_madoka_and_chun_guesongs_fight_4/1.jpg",
    "https://img-proxy.imgfo.com/?referer=https://manganelo.com&url=https://s6.mkklcdnv6temp.com/mangakakalot/v1/veritas/vol7_chapter_44_madoka_and_chun_guesongs_fight_4/2.jpg",
    "https://img-proxy.imgfo.com/?referer=https://manganelo.com&url=https://s6.mkklcdnv6temp.com/mangakakalot/v1/veritas/vol7_chapter_44_madoka_and_chun_guesongs_fight_4/3.jpg",
    "https://img-proxy.imgfo.com/?referer=https://manganelo.com&url=https://s6.mkklcdnv6temp.com/mangakakalot/v1/veritas/vol7_chapter_44_madoka_and_chun_guesongs_fight_4/4.jpg",
    "https://img-proxy.imgfo.com/?referer=https://manganelo.com&url=https://s6.mkklcdnv6temp.com/mangakakalot/v1/veritas/vol7_chapter_44_madoka_and_chun_guesongs_fight_4/5.jpg",
    "https://img-proxy.imgfo.com/?referer=https://manganelo.com&url=https://s6.mkklcdnv6temp.com/mangakakalot/v1/veritas/vol7_chapter_44_madoka_and_chun_guesongs_fight_4/6.jpg",
    "https://img-proxy.imgfo.com/?referer=https://manganelo.com&url=https://s6.mkklcdnv6temp.com/mangakakalot/v1/veritas/vol7_chapter_44_madoka_and_chun_guesongs_fight_4/7.jpg",
    "https://img-proxy.imgfo.com/?referer=https://manganelo.com&url=https://s6.mkklcdnv6temp.com/mangakakalot/v1/veritas/vol7_chapter_44_madoka_and_chun_guesongs_fight_4/8.jpg",
    "https://img-proxy.imgfo.com/?referer=https://manganelo.com&url=https://s6.mkklcdnv6temp.com/mangakakalot/v1/veritas/vol7_chapter_44_madoka_and_chun_guesongs_fight_4/9.jpg",
    "https://img-proxy.imgfo.com/?referer=https://manganelo.com&url=https://s6.mkklcdnv6temp.com/mangakakalot/v1/veritas/vol7_chapter_44_madoka_and_chun_guesongs_fight_4/10.jpg",
    "https://img-proxy.imgfo.com/?referer=https://manganelo.com&url=https://s6.mkklcdnv6temp.com/mangakakalot/v1/veritas/vol7_chapter_44_madoka_and_chun_guesongs_fight_4/11.jpg",
    "https://img-proxy.imgfo.com/?referer=https://manganelo.com&url=https://s6.mkklcdnv6temp.com/mangakakalot/v1/veritas/vol7_chapter_44_madoka_and_chun_guesongs_fight_4/12.jpg",
    "https://img-proxy.imgfo.com/?referer=https://manganelo.com&url=https://s6.mkklcdnv6temp.com/mangakakalot/v1/veritas/vol7_chapter_44_madoka_and_chun_guesongs_fight_4/13.jpg",
    "https://img-proxy.imgfo.com/?referer=https://manganelo.com&url=https://s6.mkklcdnv6temp.com/mangakakalot/v1/veritas/vol7_chapter_44_madoka_and_chun_guesongs_fight_4/14.jpg",
    "https://img-proxy.imgfo.com/?referer=https://manganelo.com&url=https://s6.mkklcdnv6temp.com/mangakakalot/v1/veritas/vol7_chapter_44_madoka_and_chun_guesongs_fight_4/15.jpg",
    "https://img-proxy.imgfo.com/?referer=https://manganelo.com&url=https://s6.mkklcdnv6temp.com/mangakakalot/v1/veritas/vol7_chapter_44_madoka_and_chun_guesongs_fight_4/16.jpg",
    "https://img-proxy.imgfo.com/?referer=https://manganelo.com&url=https://s6.mkklcdnv6temp.com/mangakakalot/v1/veritas/vol7_chapter_44_madoka_and_chun_guesongs_fight_4/17.jpg",
    "https://img-proxy.imgfo.com/?referer=https://manganelo.com&url=https://s6.mkklcdnv6temp.com/mangakakalot/v1/veritas/vol7_chapter_44_madoka_and_chun_guesongs_fight_4/18.jpg",
    "https://img-proxy.imgfo.com/?referer=https://manganelo.com&url=https://s6.mkklcdnv6temp.com/mangakakalot/v1/veritas/vol7_chapter_44_madoka_and_chun_guesongs_fight_4/19.jpg",
    "https://img-proxy.imgfo.com/?referer=https://manganelo.com&url=https://s6.mkklcdnv6temp.com/mangakakalot/v1/veritas/vol7_chapter_44_madoka_and_chun_guesongs_fight_4/20.jpg",
    "https://img-proxy.imgfo.com/?referer=https://manganelo.com&url=https://s6.mkklcdnv6temp.com/mangakakalot/v1/veritas/vol7_chapter_44_madoka_and_chun_guesongs_fight_4/21.jpg",
    "https://img-proxy.imgfo.com/?referer=https://manganelo.com&url=https://s6.mkklcdnv6temp.com/mangakakalot/v1/veritas/vol7_chapter_44_madoka_and_chun_guesongs_fight_4/22.jpg",
    "https://img-proxy.imgfo.com/?referer=https://manganelo.com&url=https://s6.mkklcdnv6temp.com/mangakakalot/v1/veritas/vol7_chapter_44_madoka_and_chun_guesongs_fight_4/23.jpg",
    "https://img-proxy.imgfo.com/?referer=https://manganelo.com&url=https://s6.mkklcdnv6temp.com/mangakakalot/v1/veritas/vol7_chapter_44_madoka_and_chun_guesongs_fight_4/24.jpg",
    "https://img-proxy.imgfo.com/?referer=https://manganelo.com&url=https://s6.mkklcdnv6temp.com/mangakakalot/v1/veritas/vol7_chapter_44_madoka_and_chun_guesongs_fight_4/25.jpg"
  ]
}