{
  "cover": "https://avt.mkklcdnv6.com/7/l/10-1583482442.jpg",
  "title": "Veritas",
  "original": "베리타스 (Korean) ; Истина (Bulgarian) ; אמת (Hebrew) ; Truth (English)",
  "genre": "Action, Fantasy, Martial arts, Shounen, Supernatural, Manhwa",
  "author": "Yoon Joon Sik",
  "status": "Completed",
  "backlink": "https://manganu.com/collections/yoon-joon-sik/veritas/",
  "description": "Gangryong is a high schooler; unlike others, he has always had a dream of being the strongest. One day he meets Youcheon, who teaches him a powerful skill. One year later, people come to see him and announce that his \"master\" is dead. Because he was his only student, Gangryong has to follow them and go to a school where everybody has supernatural powers.\nThis series is read from left to right as it is a Korean Manhwa.",
  "language": "English",
  "images": [
    "https://img-proxy.imgfo.com/?referer=https://manganelo.com&url=https://s6.mkklcdnv6temp.com/mangakakalot/v1/veritas/vol9_chapter_65_confused_fight/1.jpg",
    "https://img-proxy.imgfo.com/?referer=https://manganelo.com&url=https://s6.mkklcdnv6temp.com/mangakakalot/v1/veritas/vol9_chapter_65_confused_fight/2.jpg",
    "https://img-proxy.imgfo.com/?referer=https://manganelo.com&url=https://s6.mkklcdnv6temp.com/mangakakalot/v1/veritas/vol9_chapter_65_confused_fight/3.jpg",
    "https://img-proxy.imgfo.com/?referer=https://manganelo.com&url=https://s6.mkklcdnv6temp.com/mangakakalot/v1/veritas/vol9_chapter_65_confused_fight/4.jpg",
    "https://img-proxy.imgfo.com/?referer=https://manganelo.com&url=https://s6.mkklcdnv6temp.com/mangakakalot/v1/veritas/vol9_chapter_65_confused_fight/5.jpg",
    "https://img-proxy.imgfo.com/?referer=https://manganelo.com&url=https://s6.mkklcdnv6temp.com/mangakakalot/v1/veritas/vol9_chapter_65_confused_fight/6.jpg",
    "https://img-proxy.imgfo.com/?referer=https://manganelo.com&url=https://s6.mkklcdnv6temp.com/mangakakalot/v1/veritas/vol9_chapter_65_confused_fight/7.jpg",
    "https://img-proxy.imgfo.com/?referer=https://manganelo.com&url=https://s6.mkklcdnv6temp.com/mangakakalot/v1/veritas/vol9_chapter_65_confused_fight/8.jpg",
    "https://img-proxy.imgfo.com/?referer=https://manganelo.com&url=https://s6.mkklcdnv6temp.com/mangakakalot/v1/veritas/vol9_chapter_65_confused_fight/9.jpg",
    "https://img-proxy.imgfo.com/?referer=https://manganelo.com&url=https://s6.mkklcdnv6temp.com/mangakakalot/v1/veritas/vol9_chapter_65_confused_fight/10.jpg",
    "https://img-proxy.imgfo.com/?referer=https://manganelo.com&url=https://s6.mkklcdnv6temp.com/mangakakalot/v1/veritas/vol9_chapter_65_confused_fight/11.jpg",
    "https://img-proxy.imgfo.com/?referer=https://manganelo.com&url=https://s6.mkklcdnv6temp.com/mangakakalot/v1/veritas/vol9_chapter_65_confused_fight/12.jpg",
    "https://img-proxy.imgfo.com/?referer=https://manganelo.com&url=https://s6.mkklcdnv6temp.com/mangakakalot/v1/veritas/vol9_chapter_65_confused_fight/13.jpg",
    "https://img-proxy.imgfo.com/?referer=https://manganelo.com&url=https://s6.mkklcdnv6temp.com/mangakakalot/v1/veritas/vol9_chapter_65_confused_fight/14.jpg",
    "https://img-proxy.imgfo.com/?referer=https://manganelo.com&url=https://s6.mkklcdnv6temp.com/mangakakalot/v1/veritas/vol9_chapter_65_confused_fight/15.jpg",
    "https://img-proxy.imgfo.com/?referer=https://manganelo.com&url=https://s6.mkklcdnv6temp.com/mangakakalot/v1/veritas/vol9_chapter_65_confused_fight/16.jpg"
  ]
}