{
  "cover": "https://avt.mkklcdnv6.com/14/n/5-1583472410.jpg",
  "title": "Koakuma Lion",
  "original": "小悪魔らいおん ; ถึงจะแสบแต่ก็รัก ; Life+B ; SWEET SPICY",
  "genre": "Comedy, Romance, School life, Shoujo, Manga",
  "author": "Ichikawa Shou",
  "status": "Completed",
  "backlink": "https://manganu.com/collections/ichikawa-shou/koakuma-lion/",
  "description": "From Intercross:\n1-3) Koakuma Lion\nUno and Reo are neighboring childhood friends. One day, a friend tells Reo that he should become a model. Now, they are high school students, and Reo has become an extremely popular model... yet he acts like a spoiled child around Uno!\n4) Renai@Home\nRen and Ai are childhood friends as well as neighbors. Will their relationship change when a young girl claiming that she's from the future show up begins calling them Papa and Mama?\n5) LIFE+B\nSonoda Mio has always been such a tomboy at school but when at home, she works in her family's flower shop. Her family's VERY GIRLY flower shop. Mio doesn't want anyone at school to see her all girly, so when someone walks in, wearing the school uniform, she goes and hunts him down the next day. But when she tells him not to tell anyone, he....!!?!",
  "language": "English",
  "images": [
    "https://img-proxy.imgfo.com/?referer=https://manganelo.com&url=https://s7.mkklcdnv6temp.com/mangakakalot/k2/koakuma_lion/vol01_chapter_000_oneshot/1.jpg",
    "https://img-proxy.imgfo.com/?referer=https://manganelo.com&url=https://s7.mkklcdnv6temp.com/mangakakalot/k2/koakuma_lion/vol01_chapter_000_oneshot/2.jpg",
    "https://img-proxy.imgfo.com/?referer=https://manganelo.com&url=https://s7.mkklcdnv6temp.com/mangakakalot/k2/koakuma_lion/vol01_chapter_000_oneshot/3.jpg",
    "https://img-proxy.imgfo.com/?referer=https://manganelo.com&url=https://s7.mkklcdnv6temp.com/mangakakalot/k2/koakuma_lion/vol01_chapter_000_oneshot/4.jpg",
    "https://img-proxy.imgfo.com/?referer=https://manganelo.com&url=https://s7.mkklcdnv6temp.com/mangakakalot/k2/koakuma_lion/vol01_chapter_000_oneshot/5.jpg",
    "https://img-proxy.imgfo.com/?referer=https://manganelo.com&url=https://s7.mkklcdnv6temp.com/mangakakalot/k2/koakuma_lion/vol01_chapter_000_oneshot/6.jpg",
    "https://img-proxy.imgfo.com/?referer=https://manganelo.com&url=https://s7.mkklcdnv6temp.com/mangakakalot/k2/koakuma_lion/vol01_chapter_000_oneshot/7.jpg",
    "https://img-proxy.imgfo.com/?referer=https://manganelo.com&url=https://s7.mkklcdnv6temp.com/mangakakalot/k2/koakuma_lion/vol01_chapter_000_oneshot/8.jpg",
    "https://img-proxy.imgfo.com/?referer=https://manganelo.com&url=https://s7.mkklcdnv6temp.com/mangakakalot/k2/koakuma_lion/vol01_chapter_000_oneshot/9.jpg",
    "https://img-proxy.imgfo.com/?referer=https://manganelo.com&url=https://s7.mkklcdnv6temp.com/mangakakalot/k2/koakuma_lion/vol01_chapter_000_oneshot/10.jpg",
    "https://img-proxy.imgfo.com/?referer=https://manganelo.com&url=https://s7.mkklcdnv6temp.com/mangakakalot/k2/koakuma_lion/vol01_chapter_000_oneshot/11.jpg",
    "https://img-proxy.imgfo.com/?referer=https://manganelo.com&url=https://s7.mkklcdnv6temp.com/mangakakalot/k2/koakuma_lion/vol01_chapter_000_oneshot/12.jpg",
    "https://img-proxy.imgfo.com/?referer=https://manganelo.com&url=https://s7.mkklcdnv6temp.com/mangakakalot/k2/koakuma_lion/vol01_chapter_000_oneshot/13.jpg",
    "https://img-proxy.imgfo.com/?referer=https://manganelo.com&url=https://s7.mkklcdnv6temp.com/mangakakalot/k2/koakuma_lion/vol01_chapter_000_oneshot/14.jpg",
    "https://img-proxy.imgfo.com/?referer=https://manganelo.com&url=https://s7.mkklcdnv6temp.com/mangakakalot/k2/koakuma_lion/vol01_chapter_000_oneshot/15.jpg",
    "https://img-proxy.imgfo.com/?referer=https://manganelo.com&url=https://s7.mkklcdnv6temp.com/mangakakalot/k2/koakuma_lion/vol01_chapter_000_oneshot/16.jpg",
    "https://img-proxy.imgfo.com/?referer=https://manganelo.com&url=https://s7.mkklcdnv6temp.com/mangakakalot/k2/koakuma_lion/vol01_chapter_000_oneshot/17.jpg",
    "https://img-proxy.imgfo.com/?referer=https://manganelo.com&url=https://s7.mkklcdnv6temp.com/mangakakalot/k2/koakuma_lion/vol01_chapter_000_oneshot/18.jpg",
    "https://img-proxy.imgfo.com/?referer=https://manganelo.com&url=https://s7.mkklcdnv6temp.com/mangakakalot/k2/koakuma_lion/vol01_chapter_000_oneshot/19.jpg",
    "https://img-proxy.imgfo.com/?referer=https://manganelo.com&url=https://s7.mkklcdnv6temp.com/mangakakalot/k2/koakuma_lion/vol01_chapter_000_oneshot/20.jpg",
    "https://img-proxy.imgfo.com/?referer=https://manganelo.com&url=https://s7.mkklcdnv6temp.com/mangakakalot/k2/koakuma_lion/vol01_chapter_000_oneshot/21.jpg",
    "https://img-proxy.imgfo.com/?referer=https://manganelo.com&url=https://s7.mkklcdnv6temp.com/mangakakalot/k2/koakuma_lion/vol01_chapter_000_oneshot/22.jpg",
    "https://img-proxy.imgfo.com/?referer=https://manganelo.com&url=https://s7.mkklcdnv6temp.com/mangakakalot/k2/koakuma_lion/vol01_chapter_000_oneshot/23.jpg",
    "https://img-proxy.imgfo.com/?referer=https://manganelo.com&url=https://s7.mkklcdnv6temp.com/mangakakalot/k2/koakuma_lion/vol01_chapter_000_oneshot/24.jpg",
    "https://img-proxy.imgfo.com/?referer=https://manganelo.com&url=https://s7.mkklcdnv6temp.com/mangakakalot/k2/koakuma_lion/vol01_chapter_000_oneshot/25.jpg",
    "https://img-proxy.imgfo.com/?referer=https://manganelo.com&url=https://s7.mkklcdnv6temp.com/mangakakalot/k2/koakuma_lion/vol01_chapter_000_oneshot/26.jpg",
    "https://img-proxy.imgfo.com/?referer=https://manganelo.com&url=https://s7.mkklcdnv6temp.com/mangakakalot/k2/koakuma_lion/vol01_chapter_000_oneshot/27.jpg",
    "https://img-proxy.imgfo.com/?referer=https://manganelo.com&url=https://s7.mkklcdnv6temp.com/mangakakalot/k2/koakuma_lion/vol01_chapter_000_oneshot/28.jpg",
    "https://img-proxy.imgfo.com/?referer=https://manganelo.com&url=https://s7.mkklcdnv6temp.com/mangakakalot/k2/koakuma_lion/vol01_chapter_000_oneshot/29.jpg",
    "https://img-proxy.imgfo.com/?referer=https://manganelo.com&url=https://s7.mkklcdnv6temp.com/mangakakalot/k2/koakuma_lion/vol01_chapter_000_oneshot/30.jpg",
    "https://img-proxy.imgfo.com/?referer=https://manganelo.com&url=https://s7.mkklcdnv6temp.com/mangakakalot/k2/koakuma_lion/vol01_chapter_000_oneshot/31.jpg",
    "https://img-proxy.imgfo.com/?referer=https://manganelo.com&url=https://s7.mkklcdnv6temp.com/mangakakalot/k2/koakuma_lion/vol01_chapter_000_oneshot/32.jpg",
    "https://img-proxy.imgfo.com/?referer=https://manganelo.com&url=https://s7.mkklcdnv6temp.com/mangakakalot/k2/koakuma_lion/vol01_chapter_000_oneshot/33.jpg",
    "https://img-proxy.imgfo.com/?referer=https://manganelo.com&url=https://s7.mkklcdnv6temp.com/mangakakalot/k2/koakuma_lion/vol01_chapter_000_oneshot/34.jpg",
    "https://img-proxy.imgfo.com/?referer=https://manganelo.com&url=https://s7.mkklcdnv6temp.com/mangakakalot/k2/koakuma_lion/vol01_chapter_000_oneshot/35.jpg",
    "https://img-proxy.imgfo.com/?referer=https://manganelo.com&url=https://s7.mkklcdnv6temp.com/mangakakalot/k2/koakuma_lion/vol01_chapter_000_oneshot/36.jpg",
    "https://img-proxy.imgfo.com/?referer=https://manganelo.com&url=https://s7.mkklcdnv6temp.com/mangakakalot/k2/koakuma_lion/vol01_chapter_000_oneshot/37.jpg",
    "https://img-proxy.imgfo.com/?referer=https://manganelo.com&url=https://s7.mkklcdnv6temp.com/mangakakalot/k2/koakuma_lion/vol01_chapter_000_oneshot/38.jpg",
    "https://img-proxy.imgfo.com/?referer=https://manganelo.com&url=https://s7.mkklcdnv6temp.com/mangakakalot/k2/koakuma_lion/vol01_chapter_000_oneshot/39.jpg",
    "https://img-proxy.imgfo.com/?referer=https://manganelo.com&url=https://s7.mkklcdnv6temp.com/mangakakalot/k2/koakuma_lion/vol01_chapter_000_oneshot/40.jpg",
    "https://img-proxy.imgfo.com/?referer=https://manganelo.com&url=https://s7.mkklcdnv6temp.com/mangakakalot/k2/koakuma_lion/vol01_chapter_000_oneshot/41.jpg",
    "https://img-proxy.imgfo.com/?referer=https://manganelo.com&url=https://s7.mkklcdnv6temp.com/mangakakalot/k2/koakuma_lion/vol01_chapter_000_oneshot/42.jpg",
    "https://img-proxy.imgfo.com/?referer=https://manganelo.com&url=https://s7.mkklcdnv6temp.com/mangakakalot/k2/koakuma_lion/vol01_chapter_000_oneshot/43.jpg",
    "https://img-proxy.imgfo.com/?referer=https://manganelo.com&url=https://s7.mkklcdnv6temp.com/mangakakalot/k2/koakuma_lion/vol01_chapter_000_oneshot/44.jpg"
  ]
}