{
  "cover": "https://avt.mkklcdnv6.com/6/r/4-1583469939.jpg",
  "title": "Bokutachi Otokonoko",
  "original": "ぼくたち男の子 (Japanese); Bokutachi Otoko no Ko; We Boys (English)",
  "genre": "Comedy, School life, Shoujo, Shounen ai, Slice of life, Manga",
  "author": "Konami Shouko",
  "status": "Completed",
  "backlink": "https://manganu.com/collections/konami-shouko/bokutachi-otokonoko/",
  "description": "It&#39;s about two best friends, Tamio and Takashi. The development of a friendship to something more as they grow up. Living his life in rural Japan, Tamio is immediately intrigued by Takashi, the blond haired city boy who transfers into his elementary school. But Takashi is actually half Japanese, and despite his appearance he doesn&#39;t even know English and loves eating Japanese food even Tamio can&#39;t abide. Tamio and Takashi become friends, and despite his perplexity with Takashi&#39;s foreign appearance, Tamio quickly develops a strong attachment to the other boy. Tamio earnestly hopes that he and Takashi can stay friends forever. But Takashi remains dissatisfied with life out in the boonies, insisting that someday he&#39;s going to leave all this behind. Yet Tamio continues to hope and to do anything he can to ensure that Takashi will stay with him--or take him along--no matter where he goes in life, with an intense, endearing, wistful sincerity perhaps telling of sentiments more complicated than Tamio might think.",
  "language": "English",
  "images": [
    "https://img-proxy.imgfo.com/?referer=https://manganelo.com&url=https://s3.mkklcdnv6temp.com/mangakakalot/b2/bokutachi_otokonoko/vol6_chapter_24_24_no_chapter_name_the_textbook_of_love_southward_final/1.jpg",
    "https://img-proxy.imgfo.com/?referer=https://manganelo.com&url=https://s3.mkklcdnv6temp.com/mangakakalot/b2/bokutachi_otokonoko/vol6_chapter_24_24_no_chapter_name_the_textbook_of_love_southward_final/2.jpg",
    "https://img-proxy.imgfo.com/?referer=https://manganelo.com&url=https://s3.mkklcdnv6temp.com/mangakakalot/b2/bokutachi_otokonoko/vol6_chapter_24_24_no_chapter_name_the_textbook_of_love_southward_final/3.jpg",
    "https://img-proxy.imgfo.com/?referer=https://manganelo.com&url=https://s3.mkklcdnv6temp.com/mangakakalot/b2/bokutachi_otokonoko/vol6_chapter_24_24_no_chapter_name_the_textbook_of_love_southward_final/4.jpg",
    "https://img-proxy.imgfo.com/?referer=https://manganelo.com&url=https://s3.mkklcdnv6temp.com/mangakakalot/b2/bokutachi_otokonoko/vol6_chapter_24_24_no_chapter_name_the_textbook_of_love_southward_final/5.jpg",
    "https://img-proxy.imgfo.com/?referer=https://manganelo.com&url=https://s3.mkklcdnv6temp.com/mangakakalot/b2/bokutachi_otokonoko/vol6_chapter_24_24_no_chapter_name_the_textbook_of_love_southward_final/6.jpg",
    "https://img-proxy.imgfo.com/?referer=https://manganelo.com&url=https://s3.mkklcdnv6temp.com/mangakakalot/b2/bokutachi_otokonoko/vol6_chapter_24_24_no_chapter_name_the_textbook_of_love_southward_final/7.jpg",
    "https://img-proxy.imgfo.com/?referer=https://manganelo.com&url=https://s3.mkklcdnv6temp.com/mangakakalot/b2/bokutachi_otokonoko/vol6_chapter_24_24_no_chapter_name_the_textbook_of_love_southward_final/8.jpg",
    "https://img-proxy.imgfo.com/?referer=https://manganelo.com&url=https://s3.mkklcdnv6temp.com/mangakakalot/b2/bokutachi_otokonoko/vol6_chapter_24_24_no_chapter_name_the_textbook_of_love_southward_final/9.jpg",
    "https://img-proxy.imgfo.com/?referer=https://manganelo.com&url=https://s3.mkklcdnv6temp.com/mangakakalot/b2/bokutachi_otokonoko/vol6_chapter_24_24_no_chapter_name_the_textbook_of_love_southward_final/10.jpg",
    "https://img-proxy.imgfo.com/?referer=https://manganelo.com&url=https://s3.mkklcdnv6temp.com/mangakakalot/b2/bokutachi_otokonoko/vol6_chapter_24_24_no_chapter_name_the_textbook_of_love_southward_final/11.jpg",
    "https://img-proxy.imgfo.com/?referer=https://manganelo.com&url=https://s3.mkklcdnv6temp.com/mangakakalot/b2/bokutachi_otokonoko/vol6_chapter_24_24_no_chapter_name_the_textbook_of_love_southward_final/12.jpg",
    "https://img-proxy.imgfo.com/?referer=https://manganelo.com&url=https://s3.mkklcdnv6temp.com/mangakakalot/b2/bokutachi_otokonoko/vol6_chapter_24_24_no_chapter_name_the_textbook_of_love_southward_final/13.jpg",
    "https://img-proxy.imgfo.com/?referer=https://manganelo.com&url=https://s3.mkklcdnv6temp.com/mangakakalot/b2/bokutachi_otokonoko/vol6_chapter_24_24_no_chapter_name_the_textbook_of_love_southward_final/14.jpg",
    "https://img-proxy.imgfo.com/?referer=https://manganelo.com&url=https://s3.mkklcdnv6temp.com/mangakakalot/b2/bokutachi_otokonoko/vol6_chapter_24_24_no_chapter_name_the_textbook_of_love_southward_final/15.jpg",
    "https://img-proxy.imgfo.com/?referer=https://manganelo.com&url=https://s3.mkklcdnv6temp.com/mangakakalot/b2/bokutachi_otokonoko/vol6_chapter_24_24_no_chapter_name_the_textbook_of_love_southward_final/16.jpg",
    "https://img-proxy.imgfo.com/?referer=https://manganelo.com&url=https://s3.mkklcdnv6temp.com/mangakakalot/b2/bokutachi_otokonoko/vol6_chapter_24_24_no_chapter_name_the_textbook_of_love_southward_final/17.jpg",
    "https://img-proxy.imgfo.com/?referer=https://manganelo.com&url=https://s3.mkklcdnv6temp.com/mangakakalot/b2/bokutachi_otokonoko/vol6_chapter_24_24_no_chapter_name_the_textbook_of_love_southward_final/18.jpg",
    "https://img-proxy.imgfo.com/?referer=https://manganelo.com&url=https://s3.mkklcdnv6temp.com/mangakakalot/b2/bokutachi_otokonoko/vol6_chapter_24_24_no_chapter_name_the_textbook_of_love_southward_final/19.jpg",
    "https://img-proxy.imgfo.com/?referer=https://manganelo.com&url=https://s3.mkklcdnv6temp.com/mangakakalot/b2/bokutachi_otokonoko/vol6_chapter_24_24_no_chapter_name_the_textbook_of_love_southward_final/20.jpg",
    "https://img-proxy.imgfo.com/?referer=https://manganelo.com&url=https://s3.mkklcdnv6temp.com/mangakakalot/b2/bokutachi_otokonoko/vol6_chapter_24_24_no_chapter_name_the_textbook_of_love_southward_final/21.jpg",
    "https://img-proxy.imgfo.com/?referer=https://manganelo.com&url=https://s3.mkklcdnv6temp.com/mangakakalot/b2/bokutachi_otokonoko/vol6_chapter_24_24_no_chapter_name_the_textbook_of_love_southward_final/22.jpg",
    "https://img-proxy.imgfo.com/?referer=https://manganelo.com&url=https://s3.mkklcdnv6temp.com/mangakakalot/b2/bokutachi_otokonoko/vol6_chapter_24_24_no_chapter_name_the_textbook_of_love_southward_final/23.jpg",
    "https://img-proxy.imgfo.com/?referer=https://manganelo.com&url=https://s3.mkklcdnv6temp.com/mangakakalot/b2/bokutachi_otokonoko/vol6_chapter_24_24_no_chapter_name_the_textbook_of_love_southward_final/24.jpg",
    "https://img-proxy.imgfo.com/?referer=https://manganelo.com&url=https://s3.mkklcdnv6temp.com/mangakakalot/b2/bokutachi_otokonoko/vol6_chapter_24_24_no_chapter_name_the_textbook_of_love_southward_final/25.jpg",
    "https://img-proxy.imgfo.com/?referer=https://manganelo.com&url=https://s3.mkklcdnv6temp.com/mangakakalot/b2/bokutachi_otokonoko/vol6_chapter_24_24_no_chapter_name_the_textbook_of_love_southward_final/26.jpg",
    "https://img-proxy.imgfo.com/?referer=https://manganelo.com&url=https://s3.mkklcdnv6temp.com/mangakakalot/b2/bokutachi_otokonoko/vol6_chapter_24_24_no_chapter_name_the_textbook_of_love_southward_final/27.jpg",
    "https://img-proxy.imgfo.com/?referer=https://manganelo.com&url=https://s3.mkklcdnv6temp.com/mangakakalot/b2/bokutachi_otokonoko/vol6_chapter_24_24_no_chapter_name_the_textbook_of_love_southward_final/28.jpg",
    "https://img-proxy.imgfo.com/?referer=https://manganelo.com&url=https://s3.mkklcdnv6temp.com/mangakakalot/b2/bokutachi_otokonoko/vol6_chapter_24_24_no_chapter_name_the_textbook_of_love_southward_final/29.jpg",
    "https://img-proxy.imgfo.com/?referer=https://manganelo.com&url=https://s3.mkklcdnv6temp.com/mangakakalot/b2/bokutachi_otokonoko/vol6_chapter_24_24_no_chapter_name_the_textbook_of_love_southward_final/30.jpg",
    "https://img-proxy.imgfo.com/?referer=https://manganelo.com&url=https://s3.mkklcdnv6temp.com/mangakakalot/b2/bokutachi_otokonoko/vol6_chapter_24_24_no_chapter_name_the_textbook_of_love_southward_final/31.jpg",
    "https://img-proxy.imgfo.com/?referer=https://manganelo.com&url=https://s3.mkklcdnv6temp.com/mangakakalot/b2/bokutachi_otokonoko/vol6_chapter_24_24_no_chapter_name_the_textbook_of_love_southward_final/32.jpg",
    "https://img-proxy.imgfo.com/?referer=https://manganelo.com&url=https://s3.mkklcdnv6temp.com/mangakakalot/b2/bokutachi_otokonoko/vol6_chapter_24_24_no_chapter_name_the_textbook_of_love_southward_final/33.jpg",
    "https://img-proxy.imgfo.com/?referer=https://manganelo.com&url=https://s3.mkklcdnv6temp.com/mangakakalot/b2/bokutachi_otokonoko/vol6_chapter_24_24_no_chapter_name_the_textbook_of_love_southward_final/34.jpg",
    "https://img-proxy.imgfo.com/?referer=https://manganelo.com&url=https://s3.mkklcdnv6temp.com/mangakakalot/b2/bokutachi_otokonoko/vol6_chapter_24_24_no_chapter_name_the_textbook_of_love_southward_final/35.jpg",
    "https://img-proxy.imgfo.com/?referer=https://manganelo.com&url=https://s3.mkklcdnv6temp.com/mangakakalot/b2/bokutachi_otokonoko/vol6_chapter_24_24_no_chapter_name_the_textbook_of_love_southward_final/36.jpg",
    "https://img-proxy.imgfo.com/?referer=https://manganelo.com&url=https://s3.mkklcdnv6temp.com/mangakakalot/b2/bokutachi_otokonoko/vol6_chapter_24_24_no_chapter_name_the_textbook_of_love_southward_final/37.jpg",
    "https://img-proxy.imgfo.com/?referer=https://manganelo.com&url=https://s3.mkklcdnv6temp.com/mangakakalot/b2/bokutachi_otokonoko/vol6_chapter_24_24_no_chapter_name_the_textbook_of_love_southward_final/38.jpg",
    "https://img-proxy.imgfo.com/?referer=https://manganelo.com&url=https://s3.mkklcdnv6temp.com/mangakakalot/b2/bokutachi_otokonoko/vol6_chapter_24_24_no_chapter_name_the_textbook_of_love_southward_final/39.jpg",
    "https://img-proxy.imgfo.com/?referer=https://manganelo.com&url=https://s3.mkklcdnv6temp.com/mangakakalot/b2/bokutachi_otokonoko/vol6_chapter_24_24_no_chapter_name_the_textbook_of_love_southward_final/40.jpg",
    "https://img-proxy.imgfo.com/?referer=https://manganelo.com&url=https://s3.mkklcdnv6temp.com/mangakakalot/b2/bokutachi_otokonoko/vol6_chapter_24_24_no_chapter_name_the_textbook_of_love_southward_final/41.jpg",
    "https://img-proxy.imgfo.com/?referer=https://manganelo.com&url=https://s3.mkklcdnv6temp.com/mangakakalot/b2/bokutachi_otokonoko/vol6_chapter_24_24_no_chapter_name_the_textbook_of_love_southward_final/42.jpg",
    "https://img-proxy.imgfo.com/?referer=https://manganelo.com&url=https://s3.mkklcdnv6temp.com/mangakakalot/b2/bokutachi_otokonoko/vol6_chapter_24_24_no_chapter_name_the_textbook_of_love_southward_final/43.jpg",
    "https://img-proxy.imgfo.com/?referer=https://manganelo.com&url=https://s3.mkklcdnv6temp.com/mangakakalot/b2/bokutachi_otokonoko/vol6_chapter_24_24_no_chapter_name_the_textbook_of_love_southward_final/44.jpg",
    "https://img-proxy.imgfo.com/?referer=https://manganelo.com&url=https://s3.mkklcdnv6temp.com/mangakakalot/b2/bokutachi_otokonoko/vol6_chapter_24_24_no_chapter_name_the_textbook_of_love_southward_final/45.jpg",
    "https://img-proxy.imgfo.com/?referer=https://manganelo.com&url=https://s3.mkklcdnv6temp.com/mangakakalot/b2/bokutachi_otokonoko/vol6_chapter_24_24_no_chapter_name_the_textbook_of_love_southward_final/46.jpg",
    "https://img-proxy.imgfo.com/?referer=https://manganelo.com&url=https://s3.mkklcdnv6temp.com/mangakakalot/b2/bokutachi_otokonoko/vol6_chapter_24_24_no_chapter_name_the_textbook_of_love_southward_final/47.jpg",
    "https://img-proxy.imgfo.com/?referer=https://manganelo.com&url=https://s3.mkklcdnv6temp.com/mangakakalot/b2/bokutachi_otokonoko/vol6_chapter_24_24_no_chapter_name_the_textbook_of_love_southward_final/48.jpg",
    "https://img-proxy.imgfo.com/?referer=https://manganelo.com&url=https://s3.mkklcdnv6temp.com/mangakakalot/b2/bokutachi_otokonoko/vol6_chapter_24_24_no_chapter_name_the_textbook_of_love_southward_final/49.jpg",
    "https://img-proxy.imgfo.com/?referer=https://manganelo.com&url=https://s3.mkklcdnv6temp.com/mangakakalot/b2/bokutachi_otokonoko/vol6_chapter_24_24_no_chapter_name_the_textbook_of_love_southward_final/50.jpg",
    "https://img-proxy.imgfo.com/?referer=https://manganelo.com&url=https://s3.mkklcdnv6temp.com/mangakakalot/b2/bokutachi_otokonoko/vol6_chapter_24_24_no_chapter_name_the_textbook_of_love_southward_final/51.jpg",
    "https://img-proxy.imgfo.com/?referer=https://manganelo.com&url=https://s3.mkklcdnv6temp.com/mangakakalot/b2/bokutachi_otokonoko/vol6_chapter_24_24_no_chapter_name_the_textbook_of_love_southward_final/52.jpg",
    "https://img-proxy.imgfo.com/?referer=https://manganelo.com&url=https://s3.mkklcdnv6temp.com/mangakakalot/b2/bokutachi_otokonoko/vol6_chapter_24_24_no_chapter_name_the_textbook_of_love_southward_final/53.jpg",
    "https://img-proxy.imgfo.com/?referer=https://manganelo.com&url=https://s3.mkklcdnv6temp.com/mangakakalot/b2/bokutachi_otokonoko/vol6_chapter_24_24_no_chapter_name_the_textbook_of_love_southward_final/54.jpg",
    "https://img-proxy.imgfo.com/?referer=https://manganelo.com&url=https://s3.mkklcdnv6temp.com/mangakakalot/b2/bokutachi_otokonoko/vol6_chapter_24_24_no_chapter_name_the_textbook_of_love_southward_final/55.jpg",
    "https://img-proxy.imgfo.com/?referer=https://manganelo.com&url=https://s3.mkklcdnv6temp.com/mangakakalot/b2/bokutachi_otokonoko/vol6_chapter_24_24_no_chapter_name_the_textbook_of_love_southward_final/56.jpg"
  ]
}