{
  "cover": "https://avt.mkklcdnv6.com/9/o/11-1583484353.jpg",
  "title": "Glamorous (Nylon)",
  "original": "グラマラス",
  "genre": "Ecchi, Romance, School life, Seinen, Supernatural, Manga",
  "author": "Nylon",
  "status": "Completed",
  "backlink": "https://manganu.com/collections/nylon/glamorous-nylon/",
  "description": "Ogawa Tomoo, a high-school boy, who can't figure out why his classmate, Oomori Yuka, likes him so much. Unlike him, she's friendly, upbeat, excels at sports and is one of the most popular students in the school. Tomoo doesn't understand why someone so attractive would be interested in someone like himself. He decides to push Yuka away for her own good but her persistence eventually pays off and he can not help but be attracted to her.",
  "language": "English",
  "images": [
    "https://img-proxy.imgfo.com/?referer=https://manganelo.com&url=https://s6.mkklcdnv6temp.com/mangakakalot/g1/glamorous_nylon/vol1_chapter_4/1.jpg",
    "https://img-proxy.imgfo.com/?referer=https://manganelo.com&url=https://s6.mkklcdnv6temp.com/mangakakalot/g1/glamorous_nylon/vol1_chapter_4/2.jpg",
    "https://img-proxy.imgfo.com/?referer=https://manganelo.com&url=https://s6.mkklcdnv6temp.com/mangakakalot/g1/glamorous_nylon/vol1_chapter_4/3.jpg",
    "https://img-proxy.imgfo.com/?referer=https://manganelo.com&url=https://s6.mkklcdnv6temp.com/mangakakalot/g1/glamorous_nylon/vol1_chapter_4/4.jpg",
    "https://img-proxy.imgfo.com/?referer=https://manganelo.com&url=https://s6.mkklcdnv6temp.com/mangakakalot/g1/glamorous_nylon/vol1_chapter_4/5.jpg",
    "https://img-proxy.imgfo.com/?referer=https://manganelo.com&url=https://s6.mkklcdnv6temp.com/mangakakalot/g1/glamorous_nylon/vol1_chapter_4/6.jpg",
    "https://img-proxy.imgfo.com/?referer=https://manganelo.com&url=https://s6.mkklcdnv6temp.com/mangakakalot/g1/glamorous_nylon/vol1_chapter_4/7.jpg",
    "https://img-proxy.imgfo.com/?referer=https://manganelo.com&url=https://s6.mkklcdnv6temp.com/mangakakalot/g1/glamorous_nylon/vol1_chapter_4/8.jpg",
    "https://img-proxy.imgfo.com/?referer=https://manganelo.com&url=https://s6.mkklcdnv6temp.com/mangakakalot/g1/glamorous_nylon/vol1_chapter_4/9.jpg",
    "https://img-proxy.imgfo.com/?referer=https://manganelo.com&url=https://s6.mkklcdnv6temp.com/mangakakalot/g1/glamorous_nylon/vol1_chapter_4/10.jpg",
    "https://img-proxy.imgfo.com/?referer=https://manganelo.com&url=https://s6.mkklcdnv6temp.com/mangakakalot/g1/glamorous_nylon/vol1_chapter_4/11.jpg",
    "https://img-proxy.imgfo.com/?referer=https://manganelo.com&url=https://s6.mkklcdnv6temp.com/mangakakalot/g1/glamorous_nylon/vol1_chapter_4/12.jpg",
    "https://img-proxy.imgfo.com/?referer=https://manganelo.com&url=https://s6.mkklcdnv6temp.com/mangakakalot/g1/glamorous_nylon/vol1_chapter_4/13.jpg",
    "https://img-proxy.imgfo.com/?referer=https://manganelo.com&url=https://s6.mkklcdnv6temp.com/mangakakalot/g1/glamorous_nylon/vol1_chapter_4/14.jpg"
  ]
}