{
  "cover": "http://ww1.heaventoon.com/content/upload/images/8804-the_doraemons_doraemon_game_comic.jpg",
  "title": "The Doraemons - Doraemon Game Comic",
  "genre": "Comedy, Doraemon, Manga, Shounen",
  "author": "Fujiko F. Fujio",
  "status": "Ongoing",
  "backlink": "https://manganu.com/collections/fujiko-f-fujio/the-doraemons-doraemon-game-comic/",
  "description": "The main series of The Doraemons telling about the advantures of thee Doraemons.",
  "language": "English",
  "images": [
    "http://2.bp.blogspot.com/-OnMh6CdYr7w/WBQKYYrifRI/AAAAAAEUsT0/LDksBQ84TFs/w1900/MR-25682-452526-1.jpg",
    "http://3.bp.blogspot.com/-YX5z4_-2VO8/WBQKXsawPmI/AAAAAAEUsTQ/Q9EMFrhpzCw/w1900/MR-25682-452526-2.jpg",
    "http://4.bp.blogspot.com/-3CDfmLft6LE/WBQKXOn-52I/AAAAAAEUsS0/GOLg61YhpL4/w1900/MR-25682-452526-3.jpg",
    "http://1.bp.blogspot.com/-YcQTt5id4Ho/WBQKWm0iloI/AAAAAAEUsSU/10Fsdmldsis/w1900/MR-25682-452526-4.jpg",
    "http://2.bp.blogspot.com/-yAmn9oMUf54/WBQITzJYHLI/AAAAAAEUqms/SRkjPDWSu7w/w1900/MR-25682-452526-5.jpg",
    "http://3.bp.blogspot.com/-4driiZfJzO0/WBQITAiabxI/AAAAAAEUqmQ/T-TtUiZPNFs/w1900/MR-25682-452526-6.jpg",
    "http://4.bp.blogspot.com/-rELJHPSZ6Ng/WBQISmr5BmI/AAAAAAEUqls/uFbi_SlFiLY/w1900/MR-25682-452526-7.jpg",
    "http://1.bp.blogspot.com/-s10bwzICtM0/WBQISG2vf8I/AAAAAAEUqlQ/d1YvR4etuY8/w1900/MR-25682-452526-8.jpg",
    "http://2.bp.blogspot.com/-Yfi083bLNIc/WBQIRq1HoaI/AAAAAAEUqk0/z3cm09z_suA/w1900/MR-25682-452526-9.jpg",
    "http://3.bp.blogspot.com/-8BbZv9XaxPI/WBQIRPgFnBI/AAAAAAEUqkU/po6M5m_lgPI/w1900/MR-25682-452526-10.jpg",
    "http://4.bp.blogspot.com/-sGNeQD-NXAo/WBQIQaja-gI/AAAAAAEUqj0/5VodUSGMN-g/w1900/MR-25682-452526-11.jpg",
    "http://1.bp.blogspot.com/-kybx1yJ4IdM/WBQIP8WSqXI/AAAAAAEUqjU/sU3mo8xuOEk/w1900/MR-25682-452526-12.jpg",
    "http://2.bp.blogspot.com/-PmlTx1XtHp0/WBQIPR37_kI/AAAAAAEUqi0/AEtpTRvUc0o/w1900/MR-25682-452526-13.jpg",
    "http://3.bp.blogspot.com/-UNt4ZD8bySs/WBQIOofBHeI/AAAAAAEUqiM/K502znn1W7Y/w1900/MR-25682-452526-14.jpg",
    "http://4.bp.blogspot.com/-zG0dW-ldNJ0/WBQINzT3FPI/AAAAAAEUqhs/6_AJO-SJHz0/w1900/MR-25682-452526-15.jpg",
    "http://1.bp.blogspot.com/-ccYI1lRyjSs/WBQINcEvhbI/AAAAAAEUqhQ/h039nM5yAh4/w1900/MR-25682-452526-16.jpg",
    "http://2.bp.blogspot.com/-Q8qM_74Syfw/WBQIM24dhGI/AAAAAAEUqg4/olRd55t1M0Y/w1900/MR-25682-452526-17.jpg",
    "http://3.bp.blogspot.com/-83JxHdg-nrg/WBQIMT_hO4I/AAAAAAEUqgY/M40qFDQxjuw/w1900/MR-25682-452526-18.jpg",
    "http://4.bp.blogspot.com/-rsLr7nonRWU/WBQIL-1DoHI/AAAAAAEUqf4/ARxGaiwZAJM/w1900/MR-25682-452526-19.jpg",
    "http://1.bp.blogspot.com/-abvDyiUrDWU/WBQILQa1BfI/AAAAAAEUqfY/2lvcj_b5GNc/w1900/MR-25682-452526-20.jpg",
    "http://2.bp.blogspot.com/-uX-HI0Q_0O4/WBQIK224rCI/AAAAAAEUqfA/0UQGcA4NeDc/w1900/MR-25682-452526-21.jpg",
    "http://3.bp.blogspot.com/-rfwy9K4Kq3A/WBQIKcplPEI/AAAAAAEUqek/bAKk1NVzogQ/w1900/MR-25682-452526-22.jpg",
    "http://4.bp.blogspot.com/-HbJ-txnlg0U/WBQIJuGdRRI/AAAAAAEUqeE/dMZioSnjNLM/w1900/MR-25682-452526-23.jpg",
    "http://1.bp.blogspot.com/-8oAp6kqKT0Q/WBQIJLU2G4I/AAAAAAEUqdk/442ykSQt9nc/w1900/MR-25682-452526-24.jpg"
  ]
}