{
  "cover": "https://avt.mkklcdnv6.com/14/x/13-1583488283.jpg",
  "title": "Honki Ja Neekara",
  "original": "本気じゃねえから ; 真情假爱 (FUJIYAMA Hyouta) ; Honki Ja Nee Kara ; Seriousness Well Empty",
  "genre": "Romance, Slice of life, Yaoi, Manga",
  "author": "Fujiyama Hyouta",
  "status": "Completed",
  "backlink": "https://manganu.com/collections/fujiyama-hyouta/honki-ja-neekara/",
  "description": "1) Phase 1\nPhotographer assistant Kurejima Eiji has just been dumped by his girlfriend when he meets high school student Suginoi Hiroto, who is cold and is trying to warm himself on the roof of Eiji's car. Eiji brings Hiroto back to his apartment, where he discovers that Hiroto is gay and also broken hearted.\n2) Phase 2\nIt has been two months since they have gotten to know each other and Hiroto is getting more and more attached to Eiji.\n3) Phase 3\nThings are still the same between Eiji and Hiroto even after the disastrous night, except that Hiroto no longer stays over.\n4) Phase 4\nAfter the photography session with Yuriko, Eiji's ex-girlfriend and Hiroto, Eiji realises something is changing within himself.\n5) What's Wrong With Being Honest\nIt has been 2 months and Hiroto still can't manage to say those magic words.\n6) 15 Minutes Ago\nDetails of what happened before Eiji came along in chapter 1.",
  "language": "English",
  "images": [
    "https://img-proxy.imgfo.com/?referer=https://manganelo.com&url=https://s5.mkklcdnv6temp.com/mangakakalot/h2/honki_ja_neekara/vol1_chapter_5_5_whats_wrong_with_being_honest_15_minutes_ago/1.jpg",
    "https://img-proxy.imgfo.com/?referer=https://manganelo.com&url=https://s5.mkklcdnv6temp.com/mangakakalot/h2/honki_ja_neekara/vol1_chapter_5_5_whats_wrong_with_being_honest_15_minutes_ago/2.jpg",
    "https://img-proxy.imgfo.com/?referer=https://manganelo.com&url=https://s5.mkklcdnv6temp.com/mangakakalot/h2/honki_ja_neekara/vol1_chapter_5_5_whats_wrong_with_being_honest_15_minutes_ago/3.jpg",
    "https://img-proxy.imgfo.com/?referer=https://manganelo.com&url=https://s5.mkklcdnv6temp.com/mangakakalot/h2/honki_ja_neekara/vol1_chapter_5_5_whats_wrong_with_being_honest_15_minutes_ago/4.jpg",
    "https://img-proxy.imgfo.com/?referer=https://manganelo.com&url=https://s5.mkklcdnv6temp.com/mangakakalot/h2/honki_ja_neekara/vol1_chapter_5_5_whats_wrong_with_being_honest_15_minutes_ago/5.jpg",
    "https://img-proxy.imgfo.com/?referer=https://manganelo.com&url=https://s5.mkklcdnv6temp.com/mangakakalot/h2/honki_ja_neekara/vol1_chapter_5_5_whats_wrong_with_being_honest_15_minutes_ago/6.jpg",
    "https://img-proxy.imgfo.com/?referer=https://manganelo.com&url=https://s5.mkklcdnv6temp.com/mangakakalot/h2/honki_ja_neekara/vol1_chapter_5_5_whats_wrong_with_being_honest_15_minutes_ago/7.jpg",
    "https://img-proxy.imgfo.com/?referer=https://manganelo.com&url=https://s5.mkklcdnv6temp.com/mangakakalot/h2/honki_ja_neekara/vol1_chapter_5_5_whats_wrong_with_being_honest_15_minutes_ago/8.jpg",
    "https://img-proxy.imgfo.com/?referer=https://manganelo.com&url=https://s5.mkklcdnv6temp.com/mangakakalot/h2/honki_ja_neekara/vol1_chapter_5_5_whats_wrong_with_being_honest_15_minutes_ago/9.jpg",
    "https://img-proxy.imgfo.com/?referer=https://manganelo.com&url=https://s5.mkklcdnv6temp.com/mangakakalot/h2/honki_ja_neekara/vol1_chapter_5_5_whats_wrong_with_being_honest_15_minutes_ago/10.jpg",
    "https://img-proxy.imgfo.com/?referer=https://manganelo.com&url=https://s5.mkklcdnv6temp.com/mangakakalot/h2/honki_ja_neekara/vol1_chapter_5_5_whats_wrong_with_being_honest_15_minutes_ago/11.jpg",
    "https://img-proxy.imgfo.com/?referer=https://manganelo.com&url=https://s5.mkklcdnv6temp.com/mangakakalot/h2/honki_ja_neekara/vol1_chapter_5_5_whats_wrong_with_being_honest_15_minutes_ago/12.jpg",
    "https://img-proxy.imgfo.com/?referer=https://manganelo.com&url=https://s5.mkklcdnv6temp.com/mangakakalot/h2/honki_ja_neekara/vol1_chapter_5_5_whats_wrong_with_being_honest_15_minutes_ago/13.jpg",
    "https://img-proxy.imgfo.com/?referer=https://manganelo.com&url=https://s5.mkklcdnv6temp.com/mangakakalot/h2/honki_ja_neekara/vol1_chapter_5_5_whats_wrong_with_being_honest_15_minutes_ago/14.jpg",
    "https://img-proxy.imgfo.com/?referer=https://manganelo.com&url=https://s5.mkklcdnv6temp.com/mangakakalot/h2/honki_ja_neekara/vol1_chapter_5_5_whats_wrong_with_being_honest_15_minutes_ago/15.jpg",
    "https://img-proxy.imgfo.com/?referer=https://manganelo.com&url=https://s5.mkklcdnv6temp.com/mangakakalot/h2/honki_ja_neekara/vol1_chapter_5_5_whats_wrong_with_being_honest_15_minutes_ago/16.jpg",
    "https://img-proxy.imgfo.com/?referer=https://manganelo.com&url=https://s5.mkklcdnv6temp.com/mangakakalot/h2/honki_ja_neekara/vol1_chapter_5_5_whats_wrong_with_being_honest_15_minutes_ago/17.jpg",
    "https://img-proxy.imgfo.com/?referer=https://manganelo.com&url=https://s5.mkklcdnv6temp.com/mangakakalot/h2/honki_ja_neekara/vol1_chapter_5_5_whats_wrong_with_being_honest_15_minutes_ago/18.jpg",
    "https://img-proxy.imgfo.com/?referer=https://manganelo.com&url=https://s5.mkklcdnv6temp.com/mangakakalot/h2/honki_ja_neekara/vol1_chapter_5_5_whats_wrong_with_being_honest_15_minutes_ago/19.jpg",
    "https://img-proxy.imgfo.com/?referer=https://manganelo.com&url=https://s5.mkklcdnv6temp.com/mangakakalot/h2/honki_ja_neekara/vol1_chapter_5_5_whats_wrong_with_being_honest_15_minutes_ago/20.jpg",
    "https://img-proxy.imgfo.com/?referer=https://manganelo.com&url=https://s5.mkklcdnv6temp.com/mangakakalot/h2/honki_ja_neekara/vol1_chapter_5_5_whats_wrong_with_being_honest_15_minutes_ago/21.jpg",
    "https://img-proxy.imgfo.com/?referer=https://manganelo.com&url=https://s5.mkklcdnv6temp.com/mangakakalot/h2/honki_ja_neekara/vol1_chapter_5_5_whats_wrong_with_being_honest_15_minutes_ago/22.jpg",
    "https://img-proxy.imgfo.com/?referer=https://manganelo.com&url=https://s5.mkklcdnv6temp.com/mangakakalot/h2/honki_ja_neekara/vol1_chapter_5_5_whats_wrong_with_being_honest_15_minutes_ago/23.jpg",
    "https://img-proxy.imgfo.com/?referer=https://manganelo.com&url=https://s5.mkklcdnv6temp.com/mangakakalot/h2/honki_ja_neekara/vol1_chapter_5_5_whats_wrong_with_being_honest_15_minutes_ago/24.jpg"
  ]
}