{
  "cover": "https://avt.mkklcdnv6.com/3/b/15-1583491579.jpg",
  "title": "Toukyou Tarareba Musume",
  "original": "東京タラレバ娘 ; What If\" ; Woman ; Tokyo Daydreamer Girl ; Tokyo Tarareba Musume",
  "genre": "Comedy, Drama, Josei, Romance, Slice of life, Manga",
  "author": "Higashimura Akiko",
  "status": "Completed",
  "backlink": "https://manganu.com/collections/higashimura-akiko/toukyou-tarareba-musume/",
  "description": "&quot;I always just worried about what could have been, and I&#39;m already this age!&quot; That isn&#39;t how it&#39;s supposed to go, but somehow I&#39;m already thirty-ish! That&#39;s how it is for Rinko. It&#39;s six years until the 2020 Tokyo Olympics and she&#39;s been thinking about marriage but... Note: Nominated for the 9th Manga Taisho Award and the 40th Kodansha Manga Awards in 2016.",
  "language": "English",
  "images": [
    "https://img-proxy.imgfo.com/?referer=https://manganelo.com&url=https://s7.mkklcdnv6temp.com/mangakakalot/t2/toukyou_tarareba_musume/vol1_act_3_honey_toast_woman/1.jpg",
    "https://img-proxy.imgfo.com/?referer=https://manganelo.com&url=https://s7.mkklcdnv6temp.com/mangakakalot/t2/toukyou_tarareba_musume/vol1_act_3_honey_toast_woman/2.jpg",
    "https://img-proxy.imgfo.com/?referer=https://manganelo.com&url=https://s7.mkklcdnv6temp.com/mangakakalot/t2/toukyou_tarareba_musume/vol1_act_3_honey_toast_woman/3.jpg",
    "https://img-proxy.imgfo.com/?referer=https://manganelo.com&url=https://s7.mkklcdnv6temp.com/mangakakalot/t2/toukyou_tarareba_musume/vol1_act_3_honey_toast_woman/4.jpg",
    "https://img-proxy.imgfo.com/?referer=https://manganelo.com&url=https://s7.mkklcdnv6temp.com/mangakakalot/t2/toukyou_tarareba_musume/vol1_act_3_honey_toast_woman/5.jpg",
    "https://img-proxy.imgfo.com/?referer=https://manganelo.com&url=https://s7.mkklcdnv6temp.com/mangakakalot/t2/toukyou_tarareba_musume/vol1_act_3_honey_toast_woman/6.jpg",
    "https://img-proxy.imgfo.com/?referer=https://manganelo.com&url=https://s7.mkklcdnv6temp.com/mangakakalot/t2/toukyou_tarareba_musume/vol1_act_3_honey_toast_woman/7.jpg",
    "https://img-proxy.imgfo.com/?referer=https://manganelo.com&url=https://s7.mkklcdnv6temp.com/mangakakalot/t2/toukyou_tarareba_musume/vol1_act_3_honey_toast_woman/8.jpg",
    "https://img-proxy.imgfo.com/?referer=https://manganelo.com&url=https://s7.mkklcdnv6temp.com/mangakakalot/t2/toukyou_tarareba_musume/vol1_act_3_honey_toast_woman/9.jpg",
    "https://img-proxy.imgfo.com/?referer=https://manganelo.com&url=https://s7.mkklcdnv6temp.com/mangakakalot/t2/toukyou_tarareba_musume/vol1_act_3_honey_toast_woman/10.jpg",
    "https://img-proxy.imgfo.com/?referer=https://manganelo.com&url=https://s7.mkklcdnv6temp.com/mangakakalot/t2/toukyou_tarareba_musume/vol1_act_3_honey_toast_woman/11.jpg",
    "https://img-proxy.imgfo.com/?referer=https://manganelo.com&url=https://s7.mkklcdnv6temp.com/mangakakalot/t2/toukyou_tarareba_musume/vol1_act_3_honey_toast_woman/12.jpg",
    "https://img-proxy.imgfo.com/?referer=https://manganelo.com&url=https://s7.mkklcdnv6temp.com/mangakakalot/t2/toukyou_tarareba_musume/vol1_act_3_honey_toast_woman/13.jpg",
    "https://img-proxy.imgfo.com/?referer=https://manganelo.com&url=https://s7.mkklcdnv6temp.com/mangakakalot/t2/toukyou_tarareba_musume/vol1_act_3_honey_toast_woman/14.jpg",
    "https://img-proxy.imgfo.com/?referer=https://manganelo.com&url=https://s7.mkklcdnv6temp.com/mangakakalot/t2/toukyou_tarareba_musume/vol1_act_3_honey_toast_woman/15.jpg",
    "https://img-proxy.imgfo.com/?referer=https://manganelo.com&url=https://s7.mkklcdnv6temp.com/mangakakalot/t2/toukyou_tarareba_musume/vol1_act_3_honey_toast_woman/16.jpg",
    "https://img-proxy.imgfo.com/?referer=https://manganelo.com&url=https://s7.mkklcdnv6temp.com/mangakakalot/t2/toukyou_tarareba_musume/vol1_act_3_honey_toast_woman/17.jpg",
    "https://img-proxy.imgfo.com/?referer=https://manganelo.com&url=https://s7.mkklcdnv6temp.com/mangakakalot/t2/toukyou_tarareba_musume/vol1_act_3_honey_toast_woman/18.jpg",
    "https://img-proxy.imgfo.com/?referer=https://manganelo.com&url=https://s7.mkklcdnv6temp.com/mangakakalot/t2/toukyou_tarareba_musume/vol1_act_3_honey_toast_woman/19.jpg",
    "https://img-proxy.imgfo.com/?referer=https://manganelo.com&url=https://s7.mkklcdnv6temp.com/mangakakalot/t2/toukyou_tarareba_musume/vol1_act_3_honey_toast_woman/20.jpg",
    "https://img-proxy.imgfo.com/?referer=https://manganelo.com&url=https://s7.mkklcdnv6temp.com/mangakakalot/t2/toukyou_tarareba_musume/vol1_act_3_honey_toast_woman/21.jpg",
    "https://img-proxy.imgfo.com/?referer=https://manganelo.com&url=https://s7.mkklcdnv6temp.com/mangakakalot/t2/toukyou_tarareba_musume/vol1_act_3_honey_toast_woman/22.jpg",
    "https://img-proxy.imgfo.com/?referer=https://manganelo.com&url=https://s7.mkklcdnv6temp.com/mangakakalot/t2/toukyou_tarareba_musume/vol1_act_3_honey_toast_woman/23.jpg",
    "https://img-proxy.imgfo.com/?referer=https://manganelo.com&url=https://s7.mkklcdnv6temp.com/mangakakalot/t2/toukyou_tarareba_musume/vol1_act_3_honey_toast_woman/24.jpg",
    "https://img-proxy.imgfo.com/?referer=https://manganelo.com&url=https://s7.mkklcdnv6temp.com/mangakakalot/t2/toukyou_tarareba_musume/vol1_act_3_honey_toast_woman/25.jpg",
    "https://img-proxy.imgfo.com/?referer=https://manganelo.com&url=https://s7.mkklcdnv6temp.com/mangakakalot/t2/toukyou_tarareba_musume/vol1_act_3_honey_toast_woman/26.jpg",
    "https://img-proxy.imgfo.com/?referer=https://manganelo.com&url=https://s7.mkklcdnv6temp.com/mangakakalot/t2/toukyou_tarareba_musume/vol1_act_3_honey_toast_woman/27.jpg",
    "https://img-proxy.imgfo.com/?referer=https://manganelo.com&url=https://s7.mkklcdnv6temp.com/mangakakalot/t2/toukyou_tarareba_musume/vol1_act_3_honey_toast_woman/28.jpg",
    "https://img-proxy.imgfo.com/?referer=https://manganelo.com&url=https://s7.mkklcdnv6temp.com/mangakakalot/t2/toukyou_tarareba_musume/vol1_act_3_honey_toast_woman/29.jpg",
    "https://img-proxy.imgfo.com/?referer=https://manganelo.com&url=https://s7.mkklcdnv6temp.com/mangakakalot/t2/toukyou_tarareba_musume/vol1_act_3_honey_toast_woman/30.jpg",
    "https://img-proxy.imgfo.com/?referer=https://manganelo.com&url=https://s7.mkklcdnv6temp.com/mangakakalot/t2/toukyou_tarareba_musume/vol1_act_3_honey_toast_woman/31.jpg",
    "https://img-proxy.imgfo.com/?referer=https://manganelo.com&url=https://s7.mkklcdnv6temp.com/mangakakalot/t2/toukyou_tarareba_musume/vol1_act_3_honey_toast_woman/32.jpg",
    "https://img-proxy.imgfo.com/?referer=https://manganelo.com&url=https://s7.mkklcdnv6temp.com/mangakakalot/t2/toukyou_tarareba_musume/vol1_act_3_honey_toast_woman/33.jpg",
    "https://img-proxy.imgfo.com/?referer=https://manganelo.com&url=https://s7.mkklcdnv6temp.com/mangakakalot/t2/toukyou_tarareba_musume/vol1_act_3_honey_toast_woman/34.jpg",
    "https://img-proxy.imgfo.com/?referer=https://manganelo.com&url=https://s7.mkklcdnv6temp.com/mangakakalot/t2/toukyou_tarareba_musume/vol1_act_3_honey_toast_woman/35.jpg",
    "https://img-proxy.imgfo.com/?referer=https://manganelo.com&url=https://s7.mkklcdnv6temp.com/mangakakalot/t2/toukyou_tarareba_musume/vol1_act_3_honey_toast_woman/36.jpg",
    "https://img-proxy.imgfo.com/?referer=https://manganelo.com&url=https://s7.mkklcdnv6temp.com/mangakakalot/t2/toukyou_tarareba_musume/vol1_act_3_honey_toast_woman/37.jpg",
    "https://img-proxy.imgfo.com/?referer=https://manganelo.com&url=https://s7.mkklcdnv6temp.com/mangakakalot/t2/toukyou_tarareba_musume/vol1_act_3_honey_toast_woman/38.jpg",
    "https://img-proxy.imgfo.com/?referer=https://manganelo.com&url=https://s7.mkklcdnv6temp.com/mangakakalot/t2/toukyou_tarareba_musume/vol1_act_3_honey_toast_woman/39.jpg",
    "https://img-proxy.imgfo.com/?referer=https://manganelo.com&url=https://s7.mkklcdnv6temp.com/mangakakalot/t2/toukyou_tarareba_musume/vol1_act_3_honey_toast_woman/40.jpg",
    "https://img-proxy.imgfo.com/?referer=https://manganelo.com&url=https://s7.mkklcdnv6temp.com/mangakakalot/t2/toukyou_tarareba_musume/vol1_act_3_honey_toast_woman/41.jpg",
    "https://img-proxy.imgfo.com/?referer=https://manganelo.com&url=https://s7.mkklcdnv6temp.com/mangakakalot/t2/toukyou_tarareba_musume/vol1_act_3_honey_toast_woman/42.jpg"
  ]
}