{
  "cover": "https://avt.mkklcdnv6.com/3/b/15-1583491579.jpg",
  "title": "Toukyou Tarareba Musume",
  "original": "東京タラレバ娘 ; What If\" ; Woman ; Tokyo Daydreamer Girl ; Tokyo Tarareba Musume",
  "genre": "Comedy, Drama, Josei, Romance, Slice of life, Manga",
  "author": "Higashimura Akiko",
  "status": "Completed",
  "backlink": "https://manganu.com/collections/higashimura-akiko/toukyou-tarareba-musume/",
  "description": "&quot;I always just worried about what could have been, and I&#39;m already this age!&quot; That isn&#39;t how it&#39;s supposed to go, but somehow I&#39;m already thirty-ish! That&#39;s how it is for Rinko. It&#39;s six years until the 2020 Tokyo Olympics and she&#39;s been thinking about marriage but... Note: Nominated for the 9th Manga Taisho Award and the 40th Kodansha Manga Awards in 2016.",
  "language": "English",
  "images": [
    "https://img-proxy.imgfo.com/?referer=https://manganelo.com&url=https://s7.mkklcdnv6temp.com/mangakakalot/t2/toukyou_tarareba_musume/vol4_act_ex_bonus_story/1.jpg",
    "https://img-proxy.imgfo.com/?referer=https://manganelo.com&url=https://s7.mkklcdnv6temp.com/mangakakalot/t2/toukyou_tarareba_musume/vol4_act_ex_bonus_story/2.jpg",
    "https://img-proxy.imgfo.com/?referer=https://manganelo.com&url=https://s7.mkklcdnv6temp.com/mangakakalot/t2/toukyou_tarareba_musume/vol4_act_ex_bonus_story/3.jpg",
    "https://img-proxy.imgfo.com/?referer=https://manganelo.com&url=https://s7.mkklcdnv6temp.com/mangakakalot/t2/toukyou_tarareba_musume/vol4_act_ex_bonus_story/4.jpg",
    "https://img-proxy.imgfo.com/?referer=https://manganelo.com&url=https://s7.mkklcdnv6temp.com/mangakakalot/t2/toukyou_tarareba_musume/vol4_act_ex_bonus_story/5.jpg"
  ]
}