{
  "cover": "https://avt.mkklcdnv6.com/43/k/3-1583469380.jpg",
  "title": "Franken Fran",
  "original": "フランケン・ふらん ; 疯狂怪医芙兰 ; 科学怪人少女 ; Franken Furan ; Franken-Furan",
  "genre": "Comedy, Horror, Mature, Psychological, Sci fi, Shounen, Supernatural, Manga",
  "author": "Kigitsu Katsuhisa",
  "status": "Completed",
  "backlink": "https://manganu.com/collections/kigitsu-katsuhisa/franken-fran/",
  "description": "Fran can make anyone into anything, raise the dead, switch heads and bodies, and give you those eyes that you've always wanted. But do you actually want them? Is it a good thing to raise the dead? Do the ends justify the means? And does Fran care?",
  "language": "English",
  "images": [
    "https://img-proxy.imgfo.com/?referer=https://manganelo.com&url=https://s7.mkklcdnv6temp.com/mangakakalot/f2/franken_fran/vol3_chapter_225_memento/1.jpg",
    "https://img-proxy.imgfo.com/?referer=https://manganelo.com&url=https://s7.mkklcdnv6temp.com/mangakakalot/f2/franken_fran/vol3_chapter_225_memento/2.jpg",
    "https://img-proxy.imgfo.com/?referer=https://manganelo.com&url=https://s7.mkklcdnv6temp.com/mangakakalot/f2/franken_fran/vol3_chapter_225_memento/3.jpg",
    "https://img-proxy.imgfo.com/?referer=https://manganelo.com&url=https://s7.mkklcdnv6temp.com/mangakakalot/f2/franken_fran/vol3_chapter_225_memento/4.jpg",
    "https://img-proxy.imgfo.com/?referer=https://manganelo.com&url=https://s7.mkklcdnv6temp.com/mangakakalot/f2/franken_fran/vol3_chapter_225_memento/5.jpg",
    "https://img-proxy.imgfo.com/?referer=https://manganelo.com&url=https://s7.mkklcdnv6temp.com/mangakakalot/f2/franken_fran/vol3_chapter_225_memento/6.jpg",
    "https://img-proxy.imgfo.com/?referer=https://manganelo.com&url=https://s7.mkklcdnv6temp.com/mangakakalot/f2/franken_fran/vol3_chapter_225_memento/7.jpg",
    "https://img-proxy.imgfo.com/?referer=https://manganelo.com&url=https://s7.mkklcdnv6temp.com/mangakakalot/f2/franken_fran/vol3_chapter_225_memento/8.jpg",
    "https://img-proxy.imgfo.com/?referer=https://manganelo.com&url=https://s7.mkklcdnv6temp.com/mangakakalot/f2/franken_fran/vol3_chapter_225_memento/9.jpg",
    "https://img-proxy.imgfo.com/?referer=https://manganelo.com&url=https://s7.mkklcdnv6temp.com/mangakakalot/f2/franken_fran/vol3_chapter_225_memento/10.jpg",
    "https://img-proxy.imgfo.com/?referer=https://manganelo.com&url=https://s7.mkklcdnv6temp.com/mangakakalot/f2/franken_fran/vol3_chapter_225_memento/11.jpg",
    "https://img-proxy.imgfo.com/?referer=https://manganelo.com&url=https://s7.mkklcdnv6temp.com/mangakakalot/f2/franken_fran/vol3_chapter_225_memento/12.jpg"
  ]
}