{
  "cover": "https://avt.mkklcdnv6.com/43/k/3-1583469380.jpg",
  "title": "Franken Fran",
  "original": "フランケン・ふらん ; 疯狂怪医芙兰 ; 科学怪人少女 ; Franken Furan ; Franken-Furan",
  "genre": "Comedy, Horror, Mature, Psychological, Sci fi, Shounen, Supernatural, Manga",
  "author": "Kigitsu Katsuhisa",
  "status": "Completed",
  "backlink": "https://manganu.com/collections/kigitsu-katsuhisa/franken-fran/",
  "description": "Fran can make anyone into anything, raise the dead, switch heads and bodies, and give you those eyes that you've always wanted. But do you actually want them? Is it a good thing to raise the dead? Do the ends justify the means? And does Fran care?",
  "language": "English",
  "images": [
    "https://img-proxy.imgfo.com/?referer=https://manganelo.com&url=https://s7.mkklcdnv6temp.com/mangakakalot/f2/franken_fran/vol7_chapter_56_rolling_world_2/1.jpg",
    "https://img-proxy.imgfo.com/?referer=https://manganelo.com&url=https://s7.mkklcdnv6temp.com/mangakakalot/f2/franken_fran/vol7_chapter_56_rolling_world_2/2.jpg",
    "https://img-proxy.imgfo.com/?referer=https://manganelo.com&url=https://s7.mkklcdnv6temp.com/mangakakalot/f2/franken_fran/vol7_chapter_56_rolling_world_2/3.jpg",
    "https://img-proxy.imgfo.com/?referer=https://manganelo.com&url=https://s7.mkklcdnv6temp.com/mangakakalot/f2/franken_fran/vol7_chapter_56_rolling_world_2/4.jpg",
    "https://img-proxy.imgfo.com/?referer=https://manganelo.com&url=https://s7.mkklcdnv6temp.com/mangakakalot/f2/franken_fran/vol7_chapter_56_rolling_world_2/5.jpg",
    "https://img-proxy.imgfo.com/?referer=https://manganelo.com&url=https://s7.mkklcdnv6temp.com/mangakakalot/f2/franken_fran/vol7_chapter_56_rolling_world_2/6.jpg",
    "https://img-proxy.imgfo.com/?referer=https://manganelo.com&url=https://s7.mkklcdnv6temp.com/mangakakalot/f2/franken_fran/vol7_chapter_56_rolling_world_2/7.jpg",
    "https://img-proxy.imgfo.com/?referer=https://manganelo.com&url=https://s7.mkklcdnv6temp.com/mangakakalot/f2/franken_fran/vol7_chapter_56_rolling_world_2/8.jpg",
    "https://img-proxy.imgfo.com/?referer=https://manganelo.com&url=https://s7.mkklcdnv6temp.com/mangakakalot/f2/franken_fran/vol7_chapter_56_rolling_world_2/9.jpg",
    "https://img-proxy.imgfo.com/?referer=https://manganelo.com&url=https://s7.mkklcdnv6temp.com/mangakakalot/f2/franken_fran/vol7_chapter_56_rolling_world_2/10.jpg",
    "https://img-proxy.imgfo.com/?referer=https://manganelo.com&url=https://s7.mkklcdnv6temp.com/mangakakalot/f2/franken_fran/vol7_chapter_56_rolling_world_2/11.jpg",
    "https://img-proxy.imgfo.com/?referer=https://manganelo.com&url=https://s7.mkklcdnv6temp.com/mangakakalot/f2/franken_fran/vol7_chapter_56_rolling_world_2/12.jpg",
    "https://img-proxy.imgfo.com/?referer=https://manganelo.com&url=https://s7.mkklcdnv6temp.com/mangakakalot/f2/franken_fran/vol7_chapter_56_rolling_world_2/13.jpg",
    "https://img-proxy.imgfo.com/?referer=https://manganelo.com&url=https://s7.mkklcdnv6temp.com/mangakakalot/f2/franken_fran/vol7_chapter_56_rolling_world_2/14.jpg",
    "https://img-proxy.imgfo.com/?referer=https://manganelo.com&url=https://s7.mkklcdnv6temp.com/mangakakalot/f2/franken_fran/vol7_chapter_56_rolling_world_2/15.jpg",
    "https://img-proxy.imgfo.com/?referer=https://manganelo.com&url=https://s7.mkklcdnv6temp.com/mangakakalot/f2/franken_fran/vol7_chapter_56_rolling_world_2/16.jpg",
    "https://img-proxy.imgfo.com/?referer=https://manganelo.com&url=https://s7.mkklcdnv6temp.com/mangakakalot/f2/franken_fran/vol7_chapter_56_rolling_world_2/17.jpg",
    "https://img-proxy.imgfo.com/?referer=https://manganelo.com&url=https://s7.mkklcdnv6temp.com/mangakakalot/f2/franken_fran/vol7_chapter_56_rolling_world_2/18.jpg",
    "https://img-proxy.imgfo.com/?referer=https://manganelo.com&url=https://s7.mkklcdnv6temp.com/mangakakalot/f2/franken_fran/vol7_chapter_56_rolling_world_2/19.jpg",
    "https://img-proxy.imgfo.com/?referer=https://manganelo.com&url=https://s7.mkklcdnv6temp.com/mangakakalot/f2/franken_fran/vol7_chapter_56_rolling_world_2/20.jpg",
    "https://img-proxy.imgfo.com/?referer=https://manganelo.com&url=https://s7.mkklcdnv6temp.com/mangakakalot/f2/franken_fran/vol7_chapter_56_rolling_world_2/21.jpg",
    "https://img-proxy.imgfo.com/?referer=https://manganelo.com&url=https://s7.mkklcdnv6temp.com/mangakakalot/f2/franken_fran/vol7_chapter_56_rolling_world_2/22.jpg",
    "https://img-proxy.imgfo.com/?referer=https://manganelo.com&url=https://s7.mkklcdnv6temp.com/mangakakalot/f2/franken_fran/vol7_chapter_56_rolling_world_2/23.jpg"
  ]
}