{
  "cover": "https://avt.mkklcdnv6.com/40/h/5-1583473476.jpg",
  "title": "Kimi To Scandal!",
  "original": "君とスキャンダル！ ; 我的明星同居情人 ; Kimi to Scandal",
  "genre": "Comedy, Romance, Shoujo, Manga",
  "author": "Furumiya Kazuko",
  "status": "Completed",
  "backlink": "https://manganu.com/collections/furumiya-kazuko/kimi-to-scandal/",
  "description": "Shiho is a big fan of Eiji, a very cool and charismatic singer. One day, he shows up at her door, with an announcement that he'll be living with them from now on... As her brother (Eiji, being the son of Shiho's father's girlfriend before his marriage)... Her dreams are rather shattered by the reality that Eiji really isn't as cool as he seems to be. When he has his glasses on, he's very huggy and cuddly and she doesn't like it at all. Eventually she starts to fall for this side as well, although it just kills his image.",
  "language": "English",
  "images": [
    "https://img-proxy.imgfo.com/?referer=https://manganelo.com&url=https://s6.mkklcdnv6temp.com/mangakakalot/k1/kimi_to_scandal/vol1_chapter_3/1.jpg",
    "https://img-proxy.imgfo.com/?referer=https://manganelo.com&url=https://s6.mkklcdnv6temp.com/mangakakalot/k1/kimi_to_scandal/vol1_chapter_3/2.jpg",
    "https://img-proxy.imgfo.com/?referer=https://manganelo.com&url=https://s6.mkklcdnv6temp.com/mangakakalot/k1/kimi_to_scandal/vol1_chapter_3/3.jpg",
    "https://img-proxy.imgfo.com/?referer=https://manganelo.com&url=https://s6.mkklcdnv6temp.com/mangakakalot/k1/kimi_to_scandal/vol1_chapter_3/4.jpg",
    "https://img-proxy.imgfo.com/?referer=https://manganelo.com&url=https://s6.mkklcdnv6temp.com/mangakakalot/k1/kimi_to_scandal/vol1_chapter_3/5.jpg",
    "https://img-proxy.imgfo.com/?referer=https://manganelo.com&url=https://s6.mkklcdnv6temp.com/mangakakalot/k1/kimi_to_scandal/vol1_chapter_3/6.jpg",
    "https://img-proxy.imgfo.com/?referer=https://manganelo.com&url=https://s6.mkklcdnv6temp.com/mangakakalot/k1/kimi_to_scandal/vol1_chapter_3/7.jpg",
    "https://img-proxy.imgfo.com/?referer=https://manganelo.com&url=https://s6.mkklcdnv6temp.com/mangakakalot/k1/kimi_to_scandal/vol1_chapter_3/8.jpg",
    "https://img-proxy.imgfo.com/?referer=https://manganelo.com&url=https://s6.mkklcdnv6temp.com/mangakakalot/k1/kimi_to_scandal/vol1_chapter_3/9.jpg",
    "https://img-proxy.imgfo.com/?referer=https://manganelo.com&url=https://s6.mkklcdnv6temp.com/mangakakalot/k1/kimi_to_scandal/vol1_chapter_3/10.jpg",
    "https://img-proxy.imgfo.com/?referer=https://manganelo.com&url=https://s6.mkklcdnv6temp.com/mangakakalot/k1/kimi_to_scandal/vol1_chapter_3/11.jpg",
    "https://img-proxy.imgfo.com/?referer=https://manganelo.com&url=https://s6.mkklcdnv6temp.com/mangakakalot/k1/kimi_to_scandal/vol1_chapter_3/12.jpg",
    "https://img-proxy.imgfo.com/?referer=https://manganelo.com&url=https://s6.mkklcdnv6temp.com/mangakakalot/k1/kimi_to_scandal/vol1_chapter_3/13.jpg",
    "https://img-proxy.imgfo.com/?referer=https://manganelo.com&url=https://s6.mkklcdnv6temp.com/mangakakalot/k1/kimi_to_scandal/vol1_chapter_3/14.jpg",
    "https://img-proxy.imgfo.com/?referer=https://manganelo.com&url=https://s6.mkklcdnv6temp.com/mangakakalot/k1/kimi_to_scandal/vol1_chapter_3/15.jpg",
    "https://img-proxy.imgfo.com/?referer=https://manganelo.com&url=https://s6.mkklcdnv6temp.com/mangakakalot/k1/kimi_to_scandal/vol1_chapter_3/16.jpg",
    "https://img-proxy.imgfo.com/?referer=https://manganelo.com&url=https://s6.mkklcdnv6temp.com/mangakakalot/k1/kimi_to_scandal/vol1_chapter_3/17.jpg",
    "https://img-proxy.imgfo.com/?referer=https://manganelo.com&url=https://s6.mkklcdnv6temp.com/mangakakalot/k1/kimi_to_scandal/vol1_chapter_3/18.jpg",
    "https://img-proxy.imgfo.com/?referer=https://manganelo.com&url=https://s6.mkklcdnv6temp.com/mangakakalot/k1/kimi_to_scandal/vol1_chapter_3/19.jpg",
    "https://img-proxy.imgfo.com/?referer=https://manganelo.com&url=https://s6.mkklcdnv6temp.com/mangakakalot/k1/kimi_to_scandal/vol1_chapter_3/20.jpg",
    "https://img-proxy.imgfo.com/?referer=https://manganelo.com&url=https://s6.mkklcdnv6temp.com/mangakakalot/k1/kimi_to_scandal/vol1_chapter_3/21.jpg",
    "https://img-proxy.imgfo.com/?referer=https://manganelo.com&url=https://s6.mkklcdnv6temp.com/mangakakalot/k1/kimi_to_scandal/vol1_chapter_3/22.jpg",
    "https://img-proxy.imgfo.com/?referer=https://manganelo.com&url=https://s6.mkklcdnv6temp.com/mangakakalot/k1/kimi_to_scandal/vol1_chapter_3/23.jpg",
    "https://img-proxy.imgfo.com/?referer=https://manganelo.com&url=https://s6.mkklcdnv6temp.com/mangakakalot/k1/kimi_to_scandal/vol1_chapter_3/24.jpg",
    "https://img-proxy.imgfo.com/?referer=https://manganelo.com&url=https://s6.mkklcdnv6temp.com/mangakakalot/k1/kimi_to_scandal/vol1_chapter_3/25.jpg",
    "https://img-proxy.imgfo.com/?referer=https://manganelo.com&url=https://s6.mkklcdnv6temp.com/mangakakalot/k1/kimi_to_scandal/vol1_chapter_3/26.jpg",
    "https://img-proxy.imgfo.com/?referer=https://manganelo.com&url=https://s6.mkklcdnv6temp.com/mangakakalot/k1/kimi_to_scandal/vol1_chapter_3/27.jpg",
    "https://img-proxy.imgfo.com/?referer=https://manganelo.com&url=https://s6.mkklcdnv6temp.com/mangakakalot/k1/kimi_to_scandal/vol1_chapter_3/28.jpg",
    "https://img-proxy.imgfo.com/?referer=https://manganelo.com&url=https://s6.mkklcdnv6temp.com/mangakakalot/k1/kimi_to_scandal/vol1_chapter_3/29.jpg",
    "https://img-proxy.imgfo.com/?referer=https://manganelo.com&url=https://s6.mkklcdnv6temp.com/mangakakalot/k1/kimi_to_scandal/vol1_chapter_3/30.jpg",
    "https://img-proxy.imgfo.com/?referer=https://manganelo.com&url=https://s6.mkklcdnv6temp.com/mangakakalot/k1/kimi_to_scandal/vol1_chapter_3/31.jpg",
    "https://img-proxy.imgfo.com/?referer=https://manganelo.com&url=https://s6.mkklcdnv6temp.com/mangakakalot/k1/kimi_to_scandal/vol1_chapter_3/32.jpg",
    "https://img-proxy.imgfo.com/?referer=https://manganelo.com&url=https://s6.mkklcdnv6temp.com/mangakakalot/k1/kimi_to_scandal/vol1_chapter_3/33.jpg",
    "https://img-proxy.imgfo.com/?referer=https://manganelo.com&url=https://s6.mkklcdnv6temp.com/mangakakalot/k1/kimi_to_scandal/vol1_chapter_3/34.jpg",
    "https://img-proxy.imgfo.com/?referer=https://manganelo.com&url=https://s6.mkklcdnv6temp.com/mangakakalot/k1/kimi_to_scandal/vol1_chapter_3/35.jpg",
    "https://img-proxy.imgfo.com/?referer=https://manganelo.com&url=https://s6.mkklcdnv6temp.com/mangakakalot/k1/kimi_to_scandal/vol1_chapter_3/36.jpg",
    "https://img-proxy.imgfo.com/?referer=https://manganelo.com&url=https://s6.mkklcdnv6temp.com/mangakakalot/k1/kimi_to_scandal/vol1_chapter_3/37.jpg",
    "https://img-proxy.imgfo.com/?referer=https://manganelo.com&url=https://s6.mkklcdnv6temp.com/mangakakalot/k1/kimi_to_scandal/vol1_chapter_3/38.jpg",
    "https://img-proxy.imgfo.com/?referer=https://manganelo.com&url=https://s6.mkklcdnv6temp.com/mangakakalot/k1/kimi_to_scandal/vol1_chapter_3/39.jpg",
    "https://img-proxy.imgfo.com/?referer=https://manganelo.com&url=https://s6.mkklcdnv6temp.com/mangakakalot/k1/kimi_to_scandal/vol1_chapter_3/40.jpg"
  ]
}