{
  "cover": "https://avt.mkklcdnv6.com/50/q/6-1583476300.jpg",
  "title": "Anorexia - Shikabane Hanako Wa Kyoshokushou",
  "original": "アノレクシア~しかばね華子は拒食症~ ; Anorexia - Shikabane Hanako Is Anorexia",
  "genre": "Drama, Horror, Mature, Psychological, Seinen, Manga",
  "author": "Akira",
  "status": "Completed",
  "backlink": "https://manganu.com/collections/akira/anorexia-shikabane-hanako-wa-kyoshokushou/",
  "description": "From AQUA Scans:\n\"In an accident at the meat factory, the heiress was heavily injured. Guiltily, I agreed to her request, but this very same request have let me enter into a wonderful life...\"",
  "language": "English",
  "images": [
    "https://img-proxy.imgfo.com/?referer=https://manganelo.com&url=https://s7.mkklcdnv6temp.com/mangakakalot/a1/anorexia_shikabane_hanako_wa_kyoshokushou/vol2_chapter_9_liberation/1.jpg",
    "https://img-proxy.imgfo.com/?referer=https://manganelo.com&url=https://s7.mkklcdnv6temp.com/mangakakalot/a1/anorexia_shikabane_hanako_wa_kyoshokushou/vol2_chapter_9_liberation/2.jpg",
    "https://img-proxy.imgfo.com/?referer=https://manganelo.com&url=https://s7.mkklcdnv6temp.com/mangakakalot/a1/anorexia_shikabane_hanako_wa_kyoshokushou/vol2_chapter_9_liberation/3.jpg",
    "https://img-proxy.imgfo.com/?referer=https://manganelo.com&url=https://s7.mkklcdnv6temp.com/mangakakalot/a1/anorexia_shikabane_hanako_wa_kyoshokushou/vol2_chapter_9_liberation/4.jpg",
    "https://img-proxy.imgfo.com/?referer=https://manganelo.com&url=https://s7.mkklcdnv6temp.com/mangakakalot/a1/anorexia_shikabane_hanako_wa_kyoshokushou/vol2_chapter_9_liberation/5.jpg",
    "https://img-proxy.imgfo.com/?referer=https://manganelo.com&url=https://s7.mkklcdnv6temp.com/mangakakalot/a1/anorexia_shikabane_hanako_wa_kyoshokushou/vol2_chapter_9_liberation/6.jpg",
    "https://img-proxy.imgfo.com/?referer=https://manganelo.com&url=https://s7.mkklcdnv6temp.com/mangakakalot/a1/anorexia_shikabane_hanako_wa_kyoshokushou/vol2_chapter_9_liberation/7.jpg",
    "https://img-proxy.imgfo.com/?referer=https://manganelo.com&url=https://s7.mkklcdnv6temp.com/mangakakalot/a1/anorexia_shikabane_hanako_wa_kyoshokushou/vol2_chapter_9_liberation/8.jpg",
    "https://img-proxy.imgfo.com/?referer=https://manganelo.com&url=https://s7.mkklcdnv6temp.com/mangakakalot/a1/anorexia_shikabane_hanako_wa_kyoshokushou/vol2_chapter_9_liberation/9.jpg",
    "https://img-proxy.imgfo.com/?referer=https://manganelo.com&url=https://s7.mkklcdnv6temp.com/mangakakalot/a1/anorexia_shikabane_hanako_wa_kyoshokushou/vol2_chapter_9_liberation/10.jpg",
    "https://img-proxy.imgfo.com/?referer=https://manganelo.com&url=https://s7.mkklcdnv6temp.com/mangakakalot/a1/anorexia_shikabane_hanako_wa_kyoshokushou/vol2_chapter_9_liberation/11.jpg",
    "https://img-proxy.imgfo.com/?referer=https://manganelo.com&url=https://s7.mkklcdnv6temp.com/mangakakalot/a1/anorexia_shikabane_hanako_wa_kyoshokushou/vol2_chapter_9_liberation/12.jpg",
    "https://img-proxy.imgfo.com/?referer=https://manganelo.com&url=https://s7.mkklcdnv6temp.com/mangakakalot/a1/anorexia_shikabane_hanako_wa_kyoshokushou/vol2_chapter_9_liberation/13.jpg",
    "https://img-proxy.imgfo.com/?referer=https://manganelo.com&url=https://s7.mkklcdnv6temp.com/mangakakalot/a1/anorexia_shikabane_hanako_wa_kyoshokushou/vol2_chapter_9_liberation/14.jpg",
    "https://img-proxy.imgfo.com/?referer=https://manganelo.com&url=https://s7.mkklcdnv6temp.com/mangakakalot/a1/anorexia_shikabane_hanako_wa_kyoshokushou/vol2_chapter_9_liberation/15.jpg",
    "https://img-proxy.imgfo.com/?referer=https://manganelo.com&url=https://s7.mkklcdnv6temp.com/mangakakalot/a1/anorexia_shikabane_hanako_wa_kyoshokushou/vol2_chapter_9_liberation/16.jpg",
    "https://img-proxy.imgfo.com/?referer=https://manganelo.com&url=https://s7.mkklcdnv6temp.com/mangakakalot/a1/anorexia_shikabane_hanako_wa_kyoshokushou/vol2_chapter_9_liberation/17.jpg",
    "https://img-proxy.imgfo.com/?referer=https://manganelo.com&url=https://s7.mkklcdnv6temp.com/mangakakalot/a1/anorexia_shikabane_hanako_wa_kyoshokushou/vol2_chapter_9_liberation/18.jpg",
    "https://img-proxy.imgfo.com/?referer=https://manganelo.com&url=https://s7.mkklcdnv6temp.com/mangakakalot/a1/anorexia_shikabane_hanako_wa_kyoshokushou/vol2_chapter_9_liberation/19.jpg",
    "https://img-proxy.imgfo.com/?referer=https://manganelo.com&url=https://s7.mkklcdnv6temp.com/mangakakalot/a1/anorexia_shikabane_hanako_wa_kyoshokushou/vol2_chapter_9_liberation/20.jpg",
    "https://img-proxy.imgfo.com/?referer=https://manganelo.com&url=https://s7.mkklcdnv6temp.com/mangakakalot/a1/anorexia_shikabane_hanako_wa_kyoshokushou/vol2_chapter_9_liberation/21.jpg",
    "https://img-proxy.imgfo.com/?referer=https://manganelo.com&url=https://s7.mkklcdnv6temp.com/mangakakalot/a1/anorexia_shikabane_hanako_wa_kyoshokushou/vol2_chapter_9_liberation/22.jpg",
    "https://img-proxy.imgfo.com/?referer=https://manganelo.com&url=https://s7.mkklcdnv6temp.com/mangakakalot/a1/anorexia_shikabane_hanako_wa_kyoshokushou/vol2_chapter_9_liberation/23.jpg",
    "https://img-proxy.imgfo.com/?referer=https://manganelo.com&url=https://s7.mkklcdnv6temp.com/mangakakalot/a1/anorexia_shikabane_hanako_wa_kyoshokushou/vol2_chapter_9_liberation/24.jpg",
    "https://img-proxy.imgfo.com/?referer=https://manganelo.com&url=https://s7.mkklcdnv6temp.com/mangakakalot/a1/anorexia_shikabane_hanako_wa_kyoshokushou/vol2_chapter_9_liberation/25.jpg",
    "https://img-proxy.imgfo.com/?referer=https://manganelo.com&url=https://s7.mkklcdnv6temp.com/mangakakalot/a1/anorexia_shikabane_hanako_wa_kyoshokushou/vol2_chapter_9_liberation/26.jpg",
    "https://img-proxy.imgfo.com/?referer=https://manganelo.com&url=https://s7.mkklcdnv6temp.com/mangakakalot/a1/anorexia_shikabane_hanako_wa_kyoshokushou/vol2_chapter_9_liberation/27.jpg",
    "https://img-proxy.imgfo.com/?referer=https://manganelo.com&url=https://s7.mkklcdnv6temp.com/mangakakalot/a1/anorexia_shikabane_hanako_wa_kyoshokushou/vol2_chapter_9_liberation/28.jpg",
    "https://img-proxy.imgfo.com/?referer=https://manganelo.com&url=https://s7.mkklcdnv6temp.com/mangakakalot/a1/anorexia_shikabane_hanako_wa_kyoshokushou/vol2_chapter_9_liberation/29.jpg",
    "https://img-proxy.imgfo.com/?referer=https://manganelo.com&url=https://s7.mkklcdnv6temp.com/mangakakalot/a1/anorexia_shikabane_hanako_wa_kyoshokushou/vol2_chapter_9_liberation/30.jpg",
    "https://img-proxy.imgfo.com/?referer=https://manganelo.com&url=https://s7.mkklcdnv6temp.com/mangakakalot/a1/anorexia_shikabane_hanako_wa_kyoshokushou/vol2_chapter_9_liberation/31.jpg",
    "https://img-proxy.imgfo.com/?referer=https://manganelo.com&url=https://s7.mkklcdnv6temp.com/mangakakalot/a1/anorexia_shikabane_hanako_wa_kyoshokushou/vol2_chapter_9_liberation/32.jpg",
    "https://img-proxy.imgfo.com/?referer=https://manganelo.com&url=https://s7.mkklcdnv6temp.com/mangakakalot/a1/anorexia_shikabane_hanako_wa_kyoshokushou/vol2_chapter_9_liberation/33.jpg",
    "https://img-proxy.imgfo.com/?referer=https://manganelo.com&url=https://s7.mkklcdnv6temp.com/mangakakalot/a1/anorexia_shikabane_hanako_wa_kyoshokushou/vol2_chapter_9_liberation/34.jpg",
    "https://img-proxy.imgfo.com/?referer=https://manganelo.com&url=https://s7.mkklcdnv6temp.com/mangakakalot/a1/anorexia_shikabane_hanako_wa_kyoshokushou/vol2_chapter_9_liberation/35.jpg",
    "https://img-proxy.imgfo.com/?referer=https://manganelo.com&url=https://s7.mkklcdnv6temp.com/mangakakalot/a1/anorexia_shikabane_hanako_wa_kyoshokushou/vol2_chapter_9_liberation/36.jpg",
    "https://img-proxy.imgfo.com/?referer=https://manganelo.com&url=https://s7.mkklcdnv6temp.com/mangakakalot/a1/anorexia_shikabane_hanako_wa_kyoshokushou/vol2_chapter_9_liberation/37.jpg",
    "https://img-proxy.imgfo.com/?referer=https://manganelo.com&url=https://s7.mkklcdnv6temp.com/mangakakalot/a1/anorexia_shikabane_hanako_wa_kyoshokushou/vol2_chapter_9_liberation/38.jpg",
    "https://img-proxy.imgfo.com/?referer=https://manganelo.com&url=https://s7.mkklcdnv6temp.com/mangakakalot/a1/anorexia_shikabane_hanako_wa_kyoshokushou/vol2_chapter_9_liberation/39.jpg",
    "https://img-proxy.imgfo.com/?referer=https://manganelo.com&url=https://s7.mkklcdnv6temp.com/mangakakalot/a1/anorexia_shikabane_hanako_wa_kyoshokushou/vol2_chapter_9_liberation/40.jpg"
  ]
}