{
  "cover": "https://avt.mkklcdnv6.com/7/g/9-1583480376.jpg",
  "title": "Kuro Hakubutsukan Springald",
  "original": "黒博物館スプリンガルド ; Black Museum Springald ; The Black Museum: Springald",
  "genre": "Historical, Horror, Mystery, Seinen, Manga",
  "author": "Fujita Kazuhiro",
  "status": "Completed",
  "backlink": "https://manganu.com/collections/fujita-kazuhiro/kuro-hakubutsukan-springald/",
  "description": "From MangaHelpers:\nThe Black Museum holds criminal memorabilia from the many cases that have been investigated by Scotland Yard. In this fictional re-imagining of the popular legend, a visitor comes to see a piece of particular interest, the leg of Spring-Heeled Jack. When the curator guides him to the piece, he begins to tell his story of the case of Spring-Heeled Jack, which began in the late 1830s.\nThe earlier adventures of Spring-Heeled Jack involved an eccentric nobleman named Walter, who used his specially made suit to harass women. After an encounter with a very strong-willed woman named Margaret, Walter hung up his Spring-Heeled suit for good. Three years later, Spring-Heeled Jack returns, this time with a penchant for murder. Detective James Rockenfield first suspects Walter, but soon it begins to seem that someone else has taken up the mantle... [tethysdust]",
  "language": "English",
  "images": [
    "https://img-proxy.imgfo.com/?referer=https://manganelo.com&url=https://s7.mkklcdnv6temp.com/mangakakalot/k2/kuro_hakubutsukan_springald/vol3_chapter_20_the_ghost_strikes_a_blow_and_the_lady_is_deeply_wounded/1.jpg",
    "https://img-proxy.imgfo.com/?referer=https://manganelo.com&url=https://s7.mkklcdnv6temp.com/mangakakalot/k2/kuro_hakubutsukan_springald/vol3_chapter_20_the_ghost_strikes_a_blow_and_the_lady_is_deeply_wounded/2.jpg",
    "https://img-proxy.imgfo.com/?referer=https://manganelo.com&url=https://s7.mkklcdnv6temp.com/mangakakalot/k2/kuro_hakubutsukan_springald/vol3_chapter_20_the_ghost_strikes_a_blow_and_the_lady_is_deeply_wounded/3.jpg",
    "https://img-proxy.imgfo.com/?referer=https://manganelo.com&url=https://s7.mkklcdnv6temp.com/mangakakalot/k2/kuro_hakubutsukan_springald/vol3_chapter_20_the_ghost_strikes_a_blow_and_the_lady_is_deeply_wounded/4.jpg",
    "https://img-proxy.imgfo.com/?referer=https://manganelo.com&url=https://s7.mkklcdnv6temp.com/mangakakalot/k2/kuro_hakubutsukan_springald/vol3_chapter_20_the_ghost_strikes_a_blow_and_the_lady_is_deeply_wounded/5.jpg",
    "https://img-proxy.imgfo.com/?referer=https://manganelo.com&url=https://s7.mkklcdnv6temp.com/mangakakalot/k2/kuro_hakubutsukan_springald/vol3_chapter_20_the_ghost_strikes_a_blow_and_the_lady_is_deeply_wounded/6.jpg",
    "https://img-proxy.imgfo.com/?referer=https://manganelo.com&url=https://s7.mkklcdnv6temp.com/mangakakalot/k2/kuro_hakubutsukan_springald/vol3_chapter_20_the_ghost_strikes_a_blow_and_the_lady_is_deeply_wounded/7.jpg",
    "https://img-proxy.imgfo.com/?referer=https://manganelo.com&url=https://s7.mkklcdnv6temp.com/mangakakalot/k2/kuro_hakubutsukan_springald/vol3_chapter_20_the_ghost_strikes_a_blow_and_the_lady_is_deeply_wounded/8.jpg",
    "https://img-proxy.imgfo.com/?referer=https://manganelo.com&url=https://s7.mkklcdnv6temp.com/mangakakalot/k2/kuro_hakubutsukan_springald/vol3_chapter_20_the_ghost_strikes_a_blow_and_the_lady_is_deeply_wounded/9.jpg",
    "https://img-proxy.imgfo.com/?referer=https://manganelo.com&url=https://s7.mkklcdnv6temp.com/mangakakalot/k2/kuro_hakubutsukan_springald/vol3_chapter_20_the_ghost_strikes_a_blow_and_the_lady_is_deeply_wounded/10.jpg",
    "https://img-proxy.imgfo.com/?referer=https://manganelo.com&url=https://s7.mkklcdnv6temp.com/mangakakalot/k2/kuro_hakubutsukan_springald/vol3_chapter_20_the_ghost_strikes_a_blow_and_the_lady_is_deeply_wounded/11.jpg",
    "https://img-proxy.imgfo.com/?referer=https://manganelo.com&url=https://s7.mkklcdnv6temp.com/mangakakalot/k2/kuro_hakubutsukan_springald/vol3_chapter_20_the_ghost_strikes_a_blow_and_the_lady_is_deeply_wounded/12.jpg",
    "https://img-proxy.imgfo.com/?referer=https://manganelo.com&url=https://s7.mkklcdnv6temp.com/mangakakalot/k2/kuro_hakubutsukan_springald/vol3_chapter_20_the_ghost_strikes_a_blow_and_the_lady_is_deeply_wounded/13.jpg",
    "https://img-proxy.imgfo.com/?referer=https://manganelo.com&url=https://s7.mkklcdnv6temp.com/mangakakalot/k2/kuro_hakubutsukan_springald/vol3_chapter_20_the_ghost_strikes_a_blow_and_the_lady_is_deeply_wounded/14.jpg",
    "https://img-proxy.imgfo.com/?referer=https://manganelo.com&url=https://s7.mkklcdnv6temp.com/mangakakalot/k2/kuro_hakubutsukan_springald/vol3_chapter_20_the_ghost_strikes_a_blow_and_the_lady_is_deeply_wounded/15.jpg",
    "https://img-proxy.imgfo.com/?referer=https://manganelo.com&url=https://s7.mkklcdnv6temp.com/mangakakalot/k2/kuro_hakubutsukan_springald/vol3_chapter_20_the_ghost_strikes_a_blow_and_the_lady_is_deeply_wounded/16.jpg"
  ]
}