{
  "cover": "https://avt.mkklcdnv6.com/40/k/9-1583481749.jpg",
  "title": "Shiroi Kumo",
  "original": "しろいくも ; Hoppie's Bear ; White Clouds",
  "genre": "Drama, Fantasy, Seinen, Slice of life, Manga",
  "author": "Iwaoka Hisae",
  "status": "Completed",
  "backlink": "https://manganu.com/collections/iwaoka-hisae/shiroi-kumo/",
  "description": "Includes the following short stories:\n1. Once Upon a Time\nA lost little girl wants to find her way home...\n2. See You Next Time\nA girl calmly reminisces about her dead friend.\n3. Imp in the Night\nA little imp wonders why he's afraid of the night.\n4. Sakura Antique Store\nThe story of an old watch sitting in the window display of the Sakura Antique Store.\n5. Shiroi Kumo\nA beautiful and touching story about life, death, and the heartening belief that we will all arrive at the same place when our time has come.\n6. Molehill\nThe story of a young mole who decides to become human so that he can see his girlfriend's face...\n7. The Lands of Dreams\nA girl is trapped in an endless dream...\n8. Grape Picking\nTwo teachers discuss the godliness of children.\n9. Let's Go Home\n10. The Story of the Flower\n11. The Road Where Flowers Bloom\n12. Egg Water\n13. Hoppie's Bear\nOne day, office worker Kurata encounters a strange girl in the city. The girl, who wears a bear “head mask” all the time, moonlights at her dad’s restaurant. Thus begins an unusual friendship between the lovelorn man and the mature girl…\n14. \"To a Certain Place\"",
  "language": "English",
  "images": [
    "https://img-proxy.imgfo.com/?referer=https://manganelo.com&url=https://s41.mkklcdnv6temp.com/mangakakalot/s1/shiroi_kumo/vol1_chapter_7_the_land_of_dreams/1.jpg",
    "https://img-proxy.imgfo.com/?referer=https://manganelo.com&url=https://s41.mkklcdnv6temp.com/mangakakalot/s1/shiroi_kumo/vol1_chapter_7_the_land_of_dreams/2.jpg",
    "https://img-proxy.imgfo.com/?referer=https://manganelo.com&url=https://s41.mkklcdnv6temp.com/mangakakalot/s1/shiroi_kumo/vol1_chapter_7_the_land_of_dreams/3.jpg",
    "https://img-proxy.imgfo.com/?referer=https://manganelo.com&url=https://s41.mkklcdnv6temp.com/mangakakalot/s1/shiroi_kumo/vol1_chapter_7_the_land_of_dreams/4.jpg",
    "https://img-proxy.imgfo.com/?referer=https://manganelo.com&url=https://s41.mkklcdnv6temp.com/mangakakalot/s1/shiroi_kumo/vol1_chapter_7_the_land_of_dreams/5.jpg",
    "https://img-proxy.imgfo.com/?referer=https://manganelo.com&url=https://s41.mkklcdnv6temp.com/mangakakalot/s1/shiroi_kumo/vol1_chapter_7_the_land_of_dreams/6.jpg",
    "https://img-proxy.imgfo.com/?referer=https://manganelo.com&url=https://s41.mkklcdnv6temp.com/mangakakalot/s1/shiroi_kumo/vol1_chapter_7_the_land_of_dreams/7.jpg"
  ]
}