{
  "cover": "https://avt.mkklcdnv6.com/2/j/7-1583476361.jpg",
  "title": "Anata Nanka Iranai",
  "original": "あんたなんかいらない ; Anta Nanka Iranai ; I Don't Need You",
  "genre": "Romance, Shoujo, Manga",
  "author": "Mimori Ao",
  "status": "Completed",
  "backlink": "https://manganu.com/collections/mimori-ao/anata-nanka-iranai/",
  "description": "1) I'm Running Towards You\nSayurin and Araki have been going out for a while when Araki asked her to be the manager of his volleyball team. But once Sayurin joined she liked Araki's best friend?! What will happen to their relationship?\n2) I Don't Need You\nMadoka loves Wakui, but two weeks since she kissed him, she suddenly learns he has a girlfriend! How will she cross this obstacle to true love?\n3) Come On!\nEna has cared for Keita Gotou ever since the first day of school, but currently he is going out with her best friend Reiko. One night while walking home, Keita wants Ena to stay over?! What is going to happen to Ena's relationship with Reiko?\n4) I Still Love You\nOn the day he met Ekko, Kazumi knew that she would be his girlfriend, so they began to date. Kazumi begins to notice that Etsuko likes his friend. What will happen with them?",
  "language": "English",
  "images": [
    "https://img-proxy.imgfo.com/?referer=https://manganelo.com&url=https://s41.mkklcdnv6temp.com/mangakakalot/a1/anata_nanka_iranai/vol1_chapter_4_i_still_love_you/1.jpg",
    "https://img-proxy.imgfo.com/?referer=https://manganelo.com&url=https://s41.mkklcdnv6temp.com/mangakakalot/a1/anata_nanka_iranai/vol1_chapter_4_i_still_love_you/2.jpg",
    "https://img-proxy.imgfo.com/?referer=https://manganelo.com&url=https://s41.mkklcdnv6temp.com/mangakakalot/a1/anata_nanka_iranai/vol1_chapter_4_i_still_love_you/3.jpg",
    "https://img-proxy.imgfo.com/?referer=https://manganelo.com&url=https://s41.mkklcdnv6temp.com/mangakakalot/a1/anata_nanka_iranai/vol1_chapter_4_i_still_love_you/4.jpg",
    "https://img-proxy.imgfo.com/?referer=https://manganelo.com&url=https://s41.mkklcdnv6temp.com/mangakakalot/a1/anata_nanka_iranai/vol1_chapter_4_i_still_love_you/5.jpg",
    "https://img-proxy.imgfo.com/?referer=https://manganelo.com&url=https://s41.mkklcdnv6temp.com/mangakakalot/a1/anata_nanka_iranai/vol1_chapter_4_i_still_love_you/6.jpg",
    "https://img-proxy.imgfo.com/?referer=https://manganelo.com&url=https://s41.mkklcdnv6temp.com/mangakakalot/a1/anata_nanka_iranai/vol1_chapter_4_i_still_love_you/7.jpg",
    "https://img-proxy.imgfo.com/?referer=https://manganelo.com&url=https://s41.mkklcdnv6temp.com/mangakakalot/a1/anata_nanka_iranai/vol1_chapter_4_i_still_love_you/8.jpg",
    "https://img-proxy.imgfo.com/?referer=https://manganelo.com&url=https://s41.mkklcdnv6temp.com/mangakakalot/a1/anata_nanka_iranai/vol1_chapter_4_i_still_love_you/9.jpg",
    "https://img-proxy.imgfo.com/?referer=https://manganelo.com&url=https://s41.mkklcdnv6temp.com/mangakakalot/a1/anata_nanka_iranai/vol1_chapter_4_i_still_love_you/10.jpg",
    "https://img-proxy.imgfo.com/?referer=https://manganelo.com&url=https://s41.mkklcdnv6temp.com/mangakakalot/a1/anata_nanka_iranai/vol1_chapter_4_i_still_love_you/11.jpg",
    "https://img-proxy.imgfo.com/?referer=https://manganelo.com&url=https://s41.mkklcdnv6temp.com/mangakakalot/a1/anata_nanka_iranai/vol1_chapter_4_i_still_love_you/12.jpg",
    "https://img-proxy.imgfo.com/?referer=https://manganelo.com&url=https://s41.mkklcdnv6temp.com/mangakakalot/a1/anata_nanka_iranai/vol1_chapter_4_i_still_love_you/13.jpg",
    "https://img-proxy.imgfo.com/?referer=https://manganelo.com&url=https://s41.mkklcdnv6temp.com/mangakakalot/a1/anata_nanka_iranai/vol1_chapter_4_i_still_love_you/14.jpg",
    "https://img-proxy.imgfo.com/?referer=https://manganelo.com&url=https://s41.mkklcdnv6temp.com/mangakakalot/a1/anata_nanka_iranai/vol1_chapter_4_i_still_love_you/15.jpg",
    "https://img-proxy.imgfo.com/?referer=https://manganelo.com&url=https://s41.mkklcdnv6temp.com/mangakakalot/a1/anata_nanka_iranai/vol1_chapter_4_i_still_love_you/16.jpg",
    "https://img-proxy.imgfo.com/?referer=https://manganelo.com&url=https://s41.mkklcdnv6temp.com/mangakakalot/a1/anata_nanka_iranai/vol1_chapter_4_i_still_love_you/17.jpg",
    "https://img-proxy.imgfo.com/?referer=https://manganelo.com&url=https://s41.mkklcdnv6temp.com/mangakakalot/a1/anata_nanka_iranai/vol1_chapter_4_i_still_love_you/18.jpg",
    "https://img-proxy.imgfo.com/?referer=https://manganelo.com&url=https://s41.mkklcdnv6temp.com/mangakakalot/a1/anata_nanka_iranai/vol1_chapter_4_i_still_love_you/19.jpg",
    "https://img-proxy.imgfo.com/?referer=https://manganelo.com&url=https://s41.mkklcdnv6temp.com/mangakakalot/a1/anata_nanka_iranai/vol1_chapter_4_i_still_love_you/20.jpg",
    "https://img-proxy.imgfo.com/?referer=https://manganelo.com&url=https://s41.mkklcdnv6temp.com/mangakakalot/a1/anata_nanka_iranai/vol1_chapter_4_i_still_love_you/21.jpg",
    "https://img-proxy.imgfo.com/?referer=https://manganelo.com&url=https://s41.mkklcdnv6temp.com/mangakakalot/a1/anata_nanka_iranai/vol1_chapter_4_i_still_love_you/22.jpg",
    "https://img-proxy.imgfo.com/?referer=https://manganelo.com&url=https://s41.mkklcdnv6temp.com/mangakakalot/a1/anata_nanka_iranai/vol1_chapter_4_i_still_love_you/23.jpg",
    "https://img-proxy.imgfo.com/?referer=https://manganelo.com&url=https://s41.mkklcdnv6temp.com/mangakakalot/a1/anata_nanka_iranai/vol1_chapter_4_i_still_love_you/24.jpg",
    "https://img-proxy.imgfo.com/?referer=https://manganelo.com&url=https://s41.mkklcdnv6temp.com/mangakakalot/a1/anata_nanka_iranai/vol1_chapter_4_i_still_love_you/25.jpg",
    "https://img-proxy.imgfo.com/?referer=https://manganelo.com&url=https://s41.mkklcdnv6temp.com/mangakakalot/a1/anata_nanka_iranai/vol1_chapter_4_i_still_love_you/26.jpg",
    "https://img-proxy.imgfo.com/?referer=https://manganelo.com&url=https://s41.mkklcdnv6temp.com/mangakakalot/a1/anata_nanka_iranai/vol1_chapter_4_i_still_love_you/27.jpg",
    "https://img-proxy.imgfo.com/?referer=https://manganelo.com&url=https://s41.mkklcdnv6temp.com/mangakakalot/a1/anata_nanka_iranai/vol1_chapter_4_i_still_love_you/28.jpg",
    "https://img-proxy.imgfo.com/?referer=https://manganelo.com&url=https://s41.mkklcdnv6temp.com/mangakakalot/a1/anata_nanka_iranai/vol1_chapter_4_i_still_love_you/29.jpg",
    "https://img-proxy.imgfo.com/?referer=https://manganelo.com&url=https://s41.mkklcdnv6temp.com/mangakakalot/a1/anata_nanka_iranai/vol1_chapter_4_i_still_love_you/30.jpg",
    "https://img-proxy.imgfo.com/?referer=https://manganelo.com&url=https://s41.mkklcdnv6temp.com/mangakakalot/a1/anata_nanka_iranai/vol1_chapter_4_i_still_love_you/31.jpg",
    "https://img-proxy.imgfo.com/?referer=https://manganelo.com&url=https://s41.mkklcdnv6temp.com/mangakakalot/a1/anata_nanka_iranai/vol1_chapter_4_i_still_love_you/32.jpg"
  ]
}