{
  "cover": "https://avt.mkklcdnv6.com/9/d/6-1583474475.jpg",
  "title": "Vampire Juuji Kai - Fallen Vampire",
  "original": "Запись падшего вампира ; ヴァンパイア十字界 ; 吸血十字界 ; 뱀파이어 십자계 ; Record of Fallen Vampire ; The Record of a Fallen Vampire ; Vampire Chronicles (French) ; Vampire Juuji Kai",
  "genre": "Action, Adult, Cooking, Drama, Fantasy, Romance, Shounen, Supernatural, Manga",
  "author": "Shirodaira Kyou",
  "status": "Completed",
  "backlink": "https://manganu.com/collections/shirodaira-kyou/vampire-juuji-kai-fallen-vampire/",
  "description": "Thousands of years ago, Vampire King Akabara &quot;Red Rose&quot; Strauss lost both his kingdom and his queen. Since humans were unable to kill the queen, they sealed her away, erecting thousands of fake seals so that the king would never find her true location. Despite being pursued by relentless dhampires, Akabara continues to search for his queen to this day... Akabara&#39;s quest takes a sinister turn when an entity called the Black Swan appears. The Black Swan inhabits the body of a young human girl every 50 years, giving her the power to destroy the Vampire King and his queen. With each incarnation the Black Swan grows stronger--will the 49th Black Swan mean the end of Akabara?",
  "language": "English",
  "images": [
    "https://img-proxy.imgfo.com/?referer=https://manganelo.com&url=https://s7.mkklcdnv6temp.com/mangakakalot/v1/vampire_juuji_kai_fallen_vampire/vol1_chapter_22_wings_of_the_town/1.jpg",
    "https://img-proxy.imgfo.com/?referer=https://manganelo.com&url=https://s7.mkklcdnv6temp.com/mangakakalot/v1/vampire_juuji_kai_fallen_vampire/vol1_chapter_22_wings_of_the_town/2.jpg",
    "https://img-proxy.imgfo.com/?referer=https://manganelo.com&url=https://s7.mkklcdnv6temp.com/mangakakalot/v1/vampire_juuji_kai_fallen_vampire/vol1_chapter_22_wings_of_the_town/3.jpg",
    "https://img-proxy.imgfo.com/?referer=https://manganelo.com&url=https://s7.mkklcdnv6temp.com/mangakakalot/v1/vampire_juuji_kai_fallen_vampire/vol1_chapter_22_wings_of_the_town/4.jpg",
    "https://img-proxy.imgfo.com/?referer=https://manganelo.com&url=https://s7.mkklcdnv6temp.com/mangakakalot/v1/vampire_juuji_kai_fallen_vampire/vol1_chapter_22_wings_of_the_town/5.jpg",
    "https://img-proxy.imgfo.com/?referer=https://manganelo.com&url=https://s7.mkklcdnv6temp.com/mangakakalot/v1/vampire_juuji_kai_fallen_vampire/vol1_chapter_22_wings_of_the_town/6.jpg",
    "https://img-proxy.imgfo.com/?referer=https://manganelo.com&url=https://s7.mkklcdnv6temp.com/mangakakalot/v1/vampire_juuji_kai_fallen_vampire/vol1_chapter_22_wings_of_the_town/7.jpg",
    "https://img-proxy.imgfo.com/?referer=https://manganelo.com&url=https://s7.mkklcdnv6temp.com/mangakakalot/v1/vampire_juuji_kai_fallen_vampire/vol1_chapter_22_wings_of_the_town/8.jpg",
    "https://img-proxy.imgfo.com/?referer=https://manganelo.com&url=https://s7.mkklcdnv6temp.com/mangakakalot/v1/vampire_juuji_kai_fallen_vampire/vol1_chapter_22_wings_of_the_town/9.jpg",
    "https://img-proxy.imgfo.com/?referer=https://manganelo.com&url=https://s7.mkklcdnv6temp.com/mangakakalot/v1/vampire_juuji_kai_fallen_vampire/vol1_chapter_22_wings_of_the_town/10.jpg",
    "https://img-proxy.imgfo.com/?referer=https://manganelo.com&url=https://s7.mkklcdnv6temp.com/mangakakalot/v1/vampire_juuji_kai_fallen_vampire/vol1_chapter_22_wings_of_the_town/11.jpg",
    "https://img-proxy.imgfo.com/?referer=https://manganelo.com&url=https://s7.mkklcdnv6temp.com/mangakakalot/v1/vampire_juuji_kai_fallen_vampire/vol1_chapter_22_wings_of_the_town/12.jpg",
    "https://img-proxy.imgfo.com/?referer=https://manganelo.com&url=https://s7.mkklcdnv6temp.com/mangakakalot/v1/vampire_juuji_kai_fallen_vampire/vol1_chapter_22_wings_of_the_town/13.jpg",
    "https://img-proxy.imgfo.com/?referer=https://manganelo.com&url=https://s7.mkklcdnv6temp.com/mangakakalot/v1/vampire_juuji_kai_fallen_vampire/vol1_chapter_22_wings_of_the_town/14.jpg",
    "https://img-proxy.imgfo.com/?referer=https://manganelo.com&url=https://s7.mkklcdnv6temp.com/mangakakalot/v1/vampire_juuji_kai_fallen_vampire/vol1_chapter_22_wings_of_the_town/15.jpg",
    "https://img-proxy.imgfo.com/?referer=https://manganelo.com&url=https://s7.mkklcdnv6temp.com/mangakakalot/v1/vampire_juuji_kai_fallen_vampire/vol1_chapter_22_wings_of_the_town/16.jpg",
    "https://img-proxy.imgfo.com/?referer=https://manganelo.com&url=https://s7.mkklcdnv6temp.com/mangakakalot/v1/vampire_juuji_kai_fallen_vampire/vol1_chapter_22_wings_of_the_town/17.jpg",
    "https://img-proxy.imgfo.com/?referer=https://manganelo.com&url=https://s7.mkklcdnv6temp.com/mangakakalot/v1/vampire_juuji_kai_fallen_vampire/vol1_chapter_22_wings_of_the_town/18.jpg",
    "https://img-proxy.imgfo.com/?referer=https://manganelo.com&url=https://s7.mkklcdnv6temp.com/mangakakalot/v1/vampire_juuji_kai_fallen_vampire/vol1_chapter_22_wings_of_the_town/19.jpg",
    "https://img-proxy.imgfo.com/?referer=https://manganelo.com&url=https://s7.mkklcdnv6temp.com/mangakakalot/v1/vampire_juuji_kai_fallen_vampire/vol1_chapter_22_wings_of_the_town/20.jpg",
    "https://img-proxy.imgfo.com/?referer=https://manganelo.com&url=https://s7.mkklcdnv6temp.com/mangakakalot/v1/vampire_juuji_kai_fallen_vampire/vol1_chapter_22_wings_of_the_town/21.jpg",
    "https://img-proxy.imgfo.com/?referer=https://manganelo.com&url=https://s7.mkklcdnv6temp.com/mangakakalot/v1/vampire_juuji_kai_fallen_vampire/vol1_chapter_22_wings_of_the_town/22.jpg",
    "https://img-proxy.imgfo.com/?referer=https://manganelo.com&url=https://s7.mkklcdnv6temp.com/mangakakalot/v1/vampire_juuji_kai_fallen_vampire/vol1_chapter_22_wings_of_the_town/23.jpg",
    "https://img-proxy.imgfo.com/?referer=https://manganelo.com&url=https://s7.mkklcdnv6temp.com/mangakakalot/v1/vampire_juuji_kai_fallen_vampire/vol1_chapter_22_wings_of_the_town/24.jpg",
    "https://img-proxy.imgfo.com/?referer=https://manganelo.com&url=https://s7.mkklcdnv6temp.com/mangakakalot/v1/vampire_juuji_kai_fallen_vampire/vol1_chapter_22_wings_of_the_town/25.jpg",
    "https://img-proxy.imgfo.com/?referer=https://manganelo.com&url=https://s7.mkklcdnv6temp.com/mangakakalot/v1/vampire_juuji_kai_fallen_vampire/vol1_chapter_22_wings_of_the_town/26.jpg",
    "https://img-proxy.imgfo.com/?referer=https://manganelo.com&url=https://s7.mkklcdnv6temp.com/mangakakalot/v1/vampire_juuji_kai_fallen_vampire/vol1_chapter_22_wings_of_the_town/27.jpg"
  ]
}