{
  "cover": "https://avt.mkklcdnv6.com/9/d/6-1583474475.jpg",
  "title": "Vampire Juuji Kai - Fallen Vampire",
  "original": "Запись падшего вампира ; ヴァンパイア十字界 ; 吸血十字界 ; 뱀파이어 십자계 ; Record of Fallen Vampire ; The Record of a Fallen Vampire ; Vampire Chronicles (French) ; Vampire Juuji Kai",
  "genre": "Action, Adult, Cooking, Drama, Fantasy, Romance, Shounen, Supernatural, Manga",
  "author": "Shirodaira Kyou",
  "status": "Completed",
  "backlink": "https://manganu.com/collections/shirodaira-kyou/vampire-juuji-kai-fallen-vampire/",
  "description": "Thousands of years ago, Vampire King Akabara &quot;Red Rose&quot; Strauss lost both his kingdom and his queen. Since humans were unable to kill the queen, they sealed her away, erecting thousands of fake seals so that the king would never find her true location. Despite being pursued by relentless dhampires, Akabara continues to search for his queen to this day... Akabara&#39;s quest takes a sinister turn when an entity called the Black Swan appears. The Black Swan inhabits the body of a young human girl every 50 years, giving her the power to destroy the Vampire King and his queen. With each incarnation the Black Swan grows stronger--will the 49th Black Swan mean the end of Akabara?",
  "language": "English",
  "images": [
    "https://img-proxy.imgfo.com/?referer=https://manganelo.com&url=https://s7.mkklcdnv6temp.com/mangakakalot/v1/vampire_juuji_kai_fallen_vampire/vol2_chapter_4_magical_hour/1.jpg",
    "https://img-proxy.imgfo.com/?referer=https://manganelo.com&url=https://s7.mkklcdnv6temp.com/mangakakalot/v1/vampire_juuji_kai_fallen_vampire/vol2_chapter_4_magical_hour/2.jpg",
    "https://img-proxy.imgfo.com/?referer=https://manganelo.com&url=https://s7.mkklcdnv6temp.com/mangakakalot/v1/vampire_juuji_kai_fallen_vampire/vol2_chapter_4_magical_hour/3.jpg",
    "https://img-proxy.imgfo.com/?referer=https://manganelo.com&url=https://s7.mkklcdnv6temp.com/mangakakalot/v1/vampire_juuji_kai_fallen_vampire/vol2_chapter_4_magical_hour/4.jpg",
    "https://img-proxy.imgfo.com/?referer=https://manganelo.com&url=https://s7.mkklcdnv6temp.com/mangakakalot/v1/vampire_juuji_kai_fallen_vampire/vol2_chapter_4_magical_hour/5.jpg",
    "https://img-proxy.imgfo.com/?referer=https://manganelo.com&url=https://s7.mkklcdnv6temp.com/mangakakalot/v1/vampire_juuji_kai_fallen_vampire/vol2_chapter_4_magical_hour/6.jpg",
    "https://img-proxy.imgfo.com/?referer=https://manganelo.com&url=https://s7.mkklcdnv6temp.com/mangakakalot/v1/vampire_juuji_kai_fallen_vampire/vol2_chapter_4_magical_hour/7.jpg",
    "https://img-proxy.imgfo.com/?referer=https://manganelo.com&url=https://s7.mkklcdnv6temp.com/mangakakalot/v1/vampire_juuji_kai_fallen_vampire/vol2_chapter_4_magical_hour/8.jpg",
    "https://img-proxy.imgfo.com/?referer=https://manganelo.com&url=https://s7.mkklcdnv6temp.com/mangakakalot/v1/vampire_juuji_kai_fallen_vampire/vol2_chapter_4_magical_hour/9.jpg",
    "https://img-proxy.imgfo.com/?referer=https://manganelo.com&url=https://s7.mkklcdnv6temp.com/mangakakalot/v1/vampire_juuji_kai_fallen_vampire/vol2_chapter_4_magical_hour/10.jpg",
    "https://img-proxy.imgfo.com/?referer=https://manganelo.com&url=https://s7.mkklcdnv6temp.com/mangakakalot/v1/vampire_juuji_kai_fallen_vampire/vol2_chapter_4_magical_hour/11.jpg",
    "https://img-proxy.imgfo.com/?referer=https://manganelo.com&url=https://s7.mkklcdnv6temp.com/mangakakalot/v1/vampire_juuji_kai_fallen_vampire/vol2_chapter_4_magical_hour/12.jpg",
    "https://img-proxy.imgfo.com/?referer=https://manganelo.com&url=https://s7.mkklcdnv6temp.com/mangakakalot/v1/vampire_juuji_kai_fallen_vampire/vol2_chapter_4_magical_hour/13.jpg",
    "https://img-proxy.imgfo.com/?referer=https://manganelo.com&url=https://s7.mkklcdnv6temp.com/mangakakalot/v1/vampire_juuji_kai_fallen_vampire/vol2_chapter_4_magical_hour/14.jpg",
    "https://img-proxy.imgfo.com/?referer=https://manganelo.com&url=https://s7.mkklcdnv6temp.com/mangakakalot/v1/vampire_juuji_kai_fallen_vampire/vol2_chapter_4_magical_hour/15.jpg",
    "https://img-proxy.imgfo.com/?referer=https://manganelo.com&url=https://s7.mkklcdnv6temp.com/mangakakalot/v1/vampire_juuji_kai_fallen_vampire/vol2_chapter_4_magical_hour/16.jpg",
    "https://img-proxy.imgfo.com/?referer=https://manganelo.com&url=https://s7.mkklcdnv6temp.com/mangakakalot/v1/vampire_juuji_kai_fallen_vampire/vol2_chapter_4_magical_hour/17.jpg",
    "https://img-proxy.imgfo.com/?referer=https://manganelo.com&url=https://s7.mkklcdnv6temp.com/mangakakalot/v1/vampire_juuji_kai_fallen_vampire/vol2_chapter_4_magical_hour/18.jpg",
    "https://img-proxy.imgfo.com/?referer=https://manganelo.com&url=https://s7.mkklcdnv6temp.com/mangakakalot/v1/vampire_juuji_kai_fallen_vampire/vol2_chapter_4_magical_hour/19.jpg",
    "https://img-proxy.imgfo.com/?referer=https://manganelo.com&url=https://s7.mkklcdnv6temp.com/mangakakalot/v1/vampire_juuji_kai_fallen_vampire/vol2_chapter_4_magical_hour/20.jpg",
    "https://img-proxy.imgfo.com/?referer=https://manganelo.com&url=https://s7.mkklcdnv6temp.com/mangakakalot/v1/vampire_juuji_kai_fallen_vampire/vol2_chapter_4_magical_hour/21.jpg",
    "https://img-proxy.imgfo.com/?referer=https://manganelo.com&url=https://s7.mkklcdnv6temp.com/mangakakalot/v1/vampire_juuji_kai_fallen_vampire/vol2_chapter_4_magical_hour/22.jpg",
    "https://img-proxy.imgfo.com/?referer=https://manganelo.com&url=https://s7.mkklcdnv6temp.com/mangakakalot/v1/vampire_juuji_kai_fallen_vampire/vol2_chapter_4_magical_hour/23.jpg",
    "https://img-proxy.imgfo.com/?referer=https://manganelo.com&url=https://s7.mkklcdnv6temp.com/mangakakalot/v1/vampire_juuji_kai_fallen_vampire/vol2_chapter_4_magical_hour/24.jpg",
    "https://img-proxy.imgfo.com/?referer=https://manganelo.com&url=https://s7.mkklcdnv6temp.com/mangakakalot/v1/vampire_juuji_kai_fallen_vampire/vol2_chapter_4_magical_hour/25.jpg",
    "https://img-proxy.imgfo.com/?referer=https://manganelo.com&url=https://s7.mkklcdnv6temp.com/mangakakalot/v1/vampire_juuji_kai_fallen_vampire/vol2_chapter_4_magical_hour/26.jpg",
    "https://img-proxy.imgfo.com/?referer=https://manganelo.com&url=https://s7.mkklcdnv6temp.com/mangakakalot/v1/vampire_juuji_kai_fallen_vampire/vol2_chapter_4_magical_hour/27.jpg",
    "https://img-proxy.imgfo.com/?referer=https://manganelo.com&url=https://s7.mkklcdnv6temp.com/mangakakalot/v1/vampire_juuji_kai_fallen_vampire/vol2_chapter_4_magical_hour/28.jpg",
    "https://img-proxy.imgfo.com/?referer=https://manganelo.com&url=https://s7.mkklcdnv6temp.com/mangakakalot/v1/vampire_juuji_kai_fallen_vampire/vol2_chapter_4_magical_hour/29.jpg",
    "https://img-proxy.imgfo.com/?referer=https://manganelo.com&url=https://s7.mkklcdnv6temp.com/mangakakalot/v1/vampire_juuji_kai_fallen_vampire/vol2_chapter_4_magical_hour/30.jpg",
    "https://img-proxy.imgfo.com/?referer=https://manganelo.com&url=https://s7.mkklcdnv6temp.com/mangakakalot/v1/vampire_juuji_kai_fallen_vampire/vol2_chapter_4_magical_hour/31.jpg",
    "https://img-proxy.imgfo.com/?referer=https://manganelo.com&url=https://s7.mkklcdnv6temp.com/mangakakalot/v1/vampire_juuji_kai_fallen_vampire/vol2_chapter_4_magical_hour/32.jpg",
    "https://img-proxy.imgfo.com/?referer=https://manganelo.com&url=https://s7.mkklcdnv6temp.com/mangakakalot/v1/vampire_juuji_kai_fallen_vampire/vol2_chapter_4_magical_hour/33.jpg",
    "https://img-proxy.imgfo.com/?referer=https://manganelo.com&url=https://s7.mkklcdnv6temp.com/mangakakalot/v1/vampire_juuji_kai_fallen_vampire/vol2_chapter_4_magical_hour/34.jpg",
    "https://img-proxy.imgfo.com/?referer=https://manganelo.com&url=https://s7.mkklcdnv6temp.com/mangakakalot/v1/vampire_juuji_kai_fallen_vampire/vol2_chapter_4_magical_hour/35.jpg",
    "https://img-proxy.imgfo.com/?referer=https://manganelo.com&url=https://s7.mkklcdnv6temp.com/mangakakalot/v1/vampire_juuji_kai_fallen_vampire/vol2_chapter_4_magical_hour/36.jpg",
    "https://img-proxy.imgfo.com/?referer=https://manganelo.com&url=https://s7.mkklcdnv6temp.com/mangakakalot/v1/vampire_juuji_kai_fallen_vampire/vol2_chapter_4_magical_hour/37.jpg",
    "https://img-proxy.imgfo.com/?referer=https://manganelo.com&url=https://s7.mkklcdnv6temp.com/mangakakalot/v1/vampire_juuji_kai_fallen_vampire/vol2_chapter_4_magical_hour/38.jpg",
    "https://img-proxy.imgfo.com/?referer=https://manganelo.com&url=https://s7.mkklcdnv6temp.com/mangakakalot/v1/vampire_juuji_kai_fallen_vampire/vol2_chapter_4_magical_hour/39.jpg",
    "https://img-proxy.imgfo.com/?referer=https://manganelo.com&url=https://s7.mkklcdnv6temp.com/mangakakalot/v1/vampire_juuji_kai_fallen_vampire/vol2_chapter_4_magical_hour/40.jpg",
    "https://img-proxy.imgfo.com/?referer=https://manganelo.com&url=https://s7.mkklcdnv6temp.com/mangakakalot/v1/vampire_juuji_kai_fallen_vampire/vol2_chapter_4_magical_hour/41.jpg",
    "https://img-proxy.imgfo.com/?referer=https://manganelo.com&url=https://s7.mkklcdnv6temp.com/mangakakalot/v1/vampire_juuji_kai_fallen_vampire/vol2_chapter_4_magical_hour/42.jpg",
    "https://img-proxy.imgfo.com/?referer=https://manganelo.com&url=https://s7.mkklcdnv6temp.com/mangakakalot/v1/vampire_juuji_kai_fallen_vampire/vol2_chapter_4_magical_hour/43.jpg",
    "https://img-proxy.imgfo.com/?referer=https://manganelo.com&url=https://s7.mkklcdnv6temp.com/mangakakalot/v1/vampire_juuji_kai_fallen_vampire/vol2_chapter_4_magical_hour/44.jpg"
  ]
}