{
  "cover": "https://avt.mkklcdnv6.com/40/m/5-1583473482.jpg",
  "title": "Kimi Ni Sachi Are!",
  "original": "キミに幸あれ！ ; Kimi ni Sachi Are ; You pray happiness!",
  "genre": "Comedy, Romance, School life, Slice of life, Yaoi, Manga",
  "author": "Kusaka Takaaki",
  "status": "Completed",
  "backlink": "https://manganu.com/collections/kusaka-takaaki/kimi-ni-sachi-are/",
  "description": "[From Attractive Fascinante]:\nNaruse Sachi left his student ID at Happy Villa. His kouhai, Kunisaki picked it up and wants to return it. But does Kunisaki expect any favor in return? Sachi-chan kawai-ness is making Kunisaki all nervous and excited. Will Sachi accept being pursued by this first love of his life, his kouhai, and a guy on top of that?\nSequel: Naturalist no Kare",
  "language": "English",
  "images": [
    "https://img-proxy.imgfo.com/?referer=https://manganelo.com&url=https://s7.mkklcdnv6temp.com/mangakakalot/k1/kimi_ni_sachi_are/vol1_chapter_4_initial_stage/1.jpg",
    "https://img-proxy.imgfo.com/?referer=https://manganelo.com&url=https://s7.mkklcdnv6temp.com/mangakakalot/k1/kimi_ni_sachi_are/vol1_chapter_4_initial_stage/2.jpg",
    "https://img-proxy.imgfo.com/?referer=https://manganelo.com&url=https://s7.mkklcdnv6temp.com/mangakakalot/k1/kimi_ni_sachi_are/vol1_chapter_4_initial_stage/3.jpg",
    "https://img-proxy.imgfo.com/?referer=https://manganelo.com&url=https://s7.mkklcdnv6temp.com/mangakakalot/k1/kimi_ni_sachi_are/vol1_chapter_4_initial_stage/4.jpg",
    "https://img-proxy.imgfo.com/?referer=https://manganelo.com&url=https://s7.mkklcdnv6temp.com/mangakakalot/k1/kimi_ni_sachi_are/vol1_chapter_4_initial_stage/5.jpg",
    "https://img-proxy.imgfo.com/?referer=https://manganelo.com&url=https://s7.mkklcdnv6temp.com/mangakakalot/k1/kimi_ni_sachi_are/vol1_chapter_4_initial_stage/6.jpg",
    "https://img-proxy.imgfo.com/?referer=https://manganelo.com&url=https://s7.mkklcdnv6temp.com/mangakakalot/k1/kimi_ni_sachi_are/vol1_chapter_4_initial_stage/7.jpg",
    "https://img-proxy.imgfo.com/?referer=https://manganelo.com&url=https://s7.mkklcdnv6temp.com/mangakakalot/k1/kimi_ni_sachi_are/vol1_chapter_4_initial_stage/8.jpg",
    "https://img-proxy.imgfo.com/?referer=https://manganelo.com&url=https://s7.mkklcdnv6temp.com/mangakakalot/k1/kimi_ni_sachi_are/vol1_chapter_4_initial_stage/9.jpg",
    "https://img-proxy.imgfo.com/?referer=https://manganelo.com&url=https://s7.mkklcdnv6temp.com/mangakakalot/k1/kimi_ni_sachi_are/vol1_chapter_4_initial_stage/10.jpg",
    "https://img-proxy.imgfo.com/?referer=https://manganelo.com&url=https://s7.mkklcdnv6temp.com/mangakakalot/k1/kimi_ni_sachi_are/vol1_chapter_4_initial_stage/11.jpg",
    "https://img-proxy.imgfo.com/?referer=https://manganelo.com&url=https://s7.mkklcdnv6temp.com/mangakakalot/k1/kimi_ni_sachi_are/vol1_chapter_4_initial_stage/12.jpg",
    "https://img-proxy.imgfo.com/?referer=https://manganelo.com&url=https://s7.mkklcdnv6temp.com/mangakakalot/k1/kimi_ni_sachi_are/vol1_chapter_4_initial_stage/13.jpg",
    "https://img-proxy.imgfo.com/?referer=https://manganelo.com&url=https://s7.mkklcdnv6temp.com/mangakakalot/k1/kimi_ni_sachi_are/vol1_chapter_4_initial_stage/14.jpg",
    "https://img-proxy.imgfo.com/?referer=https://manganelo.com&url=https://s7.mkklcdnv6temp.com/mangakakalot/k1/kimi_ni_sachi_are/vol1_chapter_4_initial_stage/15.jpg",
    "https://img-proxy.imgfo.com/?referer=https://manganelo.com&url=https://s7.mkklcdnv6temp.com/mangakakalot/k1/kimi_ni_sachi_are/vol1_chapter_4_initial_stage/16.jpg",
    "https://img-proxy.imgfo.com/?referer=https://manganelo.com&url=https://s7.mkklcdnv6temp.com/mangakakalot/k1/kimi_ni_sachi_are/vol1_chapter_4_initial_stage/17.jpg",
    "https://img-proxy.imgfo.com/?referer=https://manganelo.com&url=https://s7.mkklcdnv6temp.com/mangakakalot/k1/kimi_ni_sachi_are/vol1_chapter_4_initial_stage/18.jpg",
    "https://img-proxy.imgfo.com/?referer=https://manganelo.com&url=https://s7.mkklcdnv6temp.com/mangakakalot/k1/kimi_ni_sachi_are/vol1_chapter_4_initial_stage/19.jpg",
    "https://img-proxy.imgfo.com/?referer=https://manganelo.com&url=https://s7.mkklcdnv6temp.com/mangakakalot/k1/kimi_ni_sachi_are/vol1_chapter_4_initial_stage/20.jpg",
    "https://img-proxy.imgfo.com/?referer=https://manganelo.com&url=https://s7.mkklcdnv6temp.com/mangakakalot/k1/kimi_ni_sachi_are/vol1_chapter_4_initial_stage/21.jpg",
    "https://img-proxy.imgfo.com/?referer=https://manganelo.com&url=https://s7.mkklcdnv6temp.com/mangakakalot/k1/kimi_ni_sachi_are/vol1_chapter_4_initial_stage/22.jpg",
    "https://img-proxy.imgfo.com/?referer=https://manganelo.com&url=https://s7.mkklcdnv6temp.com/mangakakalot/k1/kimi_ni_sachi_are/vol1_chapter_4_initial_stage/23.jpg",
    "https://img-proxy.imgfo.com/?referer=https://manganelo.com&url=https://s7.mkklcdnv6temp.com/mangakakalot/k1/kimi_ni_sachi_are/vol1_chapter_4_initial_stage/24.jpg",
    "https://img-proxy.imgfo.com/?referer=https://manganelo.com&url=https://s7.mkklcdnv6temp.com/mangakakalot/k1/kimi_ni_sachi_are/vol1_chapter_4_initial_stage/25.jpg",
    "https://img-proxy.imgfo.com/?referer=https://manganelo.com&url=https://s7.mkklcdnv6temp.com/mangakakalot/k1/kimi_ni_sachi_are/vol1_chapter_4_initial_stage/26.jpg",
    "https://img-proxy.imgfo.com/?referer=https://manganelo.com&url=https://s7.mkklcdnv6temp.com/mangakakalot/k1/kimi_ni_sachi_are/vol1_chapter_4_initial_stage/27.jpg",
    "https://img-proxy.imgfo.com/?referer=https://manganelo.com&url=https://s7.mkklcdnv6temp.com/mangakakalot/k1/kimi_ni_sachi_are/vol1_chapter_4_initial_stage/28.jpg",
    "https://img-proxy.imgfo.com/?referer=https://manganelo.com&url=https://s7.mkklcdnv6temp.com/mangakakalot/k1/kimi_ni_sachi_are/vol1_chapter_4_initial_stage/29.jpg",
    "https://img-proxy.imgfo.com/?referer=https://manganelo.com&url=https://s7.mkklcdnv6temp.com/mangakakalot/k1/kimi_ni_sachi_are/vol1_chapter_4_initial_stage/30.jpg",
    "https://img-proxy.imgfo.com/?referer=https://manganelo.com&url=https://s7.mkklcdnv6temp.com/mangakakalot/k1/kimi_ni_sachi_are/vol1_chapter_4_initial_stage/31.jpg",
    "https://img-proxy.imgfo.com/?referer=https://manganelo.com&url=https://s7.mkklcdnv6temp.com/mangakakalot/k1/kimi_ni_sachi_are/vol1_chapter_4_initial_stage/32.jpg",
    "https://img-proxy.imgfo.com/?referer=https://manganelo.com&url=https://s7.mkklcdnv6temp.com/mangakakalot/k1/kimi_ni_sachi_are/vol1_chapter_4_initial_stage/33.jpg",
    "https://img-proxy.imgfo.com/?referer=https://manganelo.com&url=https://s7.mkklcdnv6temp.com/mangakakalot/k1/kimi_ni_sachi_are/vol1_chapter_4_initial_stage/34.jpg",
    "https://img-proxy.imgfo.com/?referer=https://manganelo.com&url=https://s7.mkklcdnv6temp.com/mangakakalot/k1/kimi_ni_sachi_are/vol1_chapter_4_initial_stage/35.jpg",
    "https://img-proxy.imgfo.com/?referer=https://manganelo.com&url=https://s7.mkklcdnv6temp.com/mangakakalot/k1/kimi_ni_sachi_are/vol1_chapter_4_initial_stage/36.jpg",
    "https://img-proxy.imgfo.com/?referer=https://manganelo.com&url=https://s7.mkklcdnv6temp.com/mangakakalot/k1/kimi_ni_sachi_are/vol1_chapter_4_initial_stage/37.jpg",
    "https://img-proxy.imgfo.com/?referer=https://manganelo.com&url=https://s7.mkklcdnv6temp.com/mangakakalot/k1/kimi_ni_sachi_are/vol1_chapter_4_initial_stage/38.jpg",
    "https://img-proxy.imgfo.com/?referer=https://manganelo.com&url=https://s7.mkklcdnv6temp.com/mangakakalot/k1/kimi_ni_sachi_are/vol1_chapter_4_initial_stage/39.jpg"
  ]
}