{
  "cover": "https://avt.mkklcdnv6.com/15/q/6-1583474778.jpg",
  "title": "Fist Of The North Star",
  "original": "北斗の拳 ; 北斗神拳 ; Bắc Đẩu Thần Quyền ; Hokuto no Ken ; Ken il guerriero ; Ken le Survivant",
  "genre": "Action, Drama, Martial arts, Mature, Sci fi, Shounen, Manga",
  "author": "Buronson",
  "status": "Completed",
  "backlink": "https://manganu.com/collections/buronson/fist-of-the-north-star/",
  "description": "199X, nuclear war has ravaged the planet. From the ashes, gangs have risen to take all the power from world governments. Justice has ceased to exist in this now lawless world. From the ashes of a desert a man appears. His name is Kenshiro, and he is the sucessor to the most powerful martial art in the world, Hokuto Shinken. This art attacks the foes insides, and makes him explode internally, dying in often brutal ways. Kenshiro&#39;s goal is to kill the man who kidnapped his fiance, Yuria. A man that he once called friend, but whom betrayed him and left him for dead. Along the way he makes friends and enemies alike, while protecting those who cannot protect themselves.",
  "language": "English",
  "images": [
    "https://img-proxy.imgfo.com/?referer=https://manganelo.com&url=https://s3v3.mkklcdnv6temp.com/mangakakalot/f1/fist_of_the_north_star/vol26_chapter_233_becoming_a_god_without_mercy/1.jpg",
    "https://img-proxy.imgfo.com/?referer=https://manganelo.com&url=https://s3v3.mkklcdnv6temp.com/mangakakalot/f1/fist_of_the_north_star/vol26_chapter_233_becoming_a_god_without_mercy/2.jpg",
    "https://img-proxy.imgfo.com/?referer=https://manganelo.com&url=https://s3v3.mkklcdnv6temp.com/mangakakalot/f1/fist_of_the_north_star/vol26_chapter_233_becoming_a_god_without_mercy/3.jpg",
    "https://img-proxy.imgfo.com/?referer=https://manganelo.com&url=https://s3v3.mkklcdnv6temp.com/mangakakalot/f1/fist_of_the_north_star/vol26_chapter_233_becoming_a_god_without_mercy/4.jpg",
    "https://img-proxy.imgfo.com/?referer=https://manganelo.com&url=https://s3v3.mkklcdnv6temp.com/mangakakalot/f1/fist_of_the_north_star/vol26_chapter_233_becoming_a_god_without_mercy/5.jpg",
    "https://img-proxy.imgfo.com/?referer=https://manganelo.com&url=https://s3v3.mkklcdnv6temp.com/mangakakalot/f1/fist_of_the_north_star/vol26_chapter_233_becoming_a_god_without_mercy/6.jpg",
    "https://img-proxy.imgfo.com/?referer=https://manganelo.com&url=https://s3v3.mkklcdnv6temp.com/mangakakalot/f1/fist_of_the_north_star/vol26_chapter_233_becoming_a_god_without_mercy/7.jpg",
    "https://img-proxy.imgfo.com/?referer=https://manganelo.com&url=https://s3v3.mkklcdnv6temp.com/mangakakalot/f1/fist_of_the_north_star/vol26_chapter_233_becoming_a_god_without_mercy/8.jpg",
    "https://img-proxy.imgfo.com/?referer=https://manganelo.com&url=https://s3v3.mkklcdnv6temp.com/mangakakalot/f1/fist_of_the_north_star/vol26_chapter_233_becoming_a_god_without_mercy/9.jpg",
    "https://img-proxy.imgfo.com/?referer=https://manganelo.com&url=https://s3v3.mkklcdnv6temp.com/mangakakalot/f1/fist_of_the_north_star/vol26_chapter_233_becoming_a_god_without_mercy/10.jpg",
    "https://img-proxy.imgfo.com/?referer=https://manganelo.com&url=https://s3v3.mkklcdnv6temp.com/mangakakalot/f1/fist_of_the_north_star/vol26_chapter_233_becoming_a_god_without_mercy/11.jpg",
    "https://img-proxy.imgfo.com/?referer=https://manganelo.com&url=https://s3v3.mkklcdnv6temp.com/mangakakalot/f1/fist_of_the_north_star/vol26_chapter_233_becoming_a_god_without_mercy/12.jpg",
    "https://img-proxy.imgfo.com/?referer=https://manganelo.com&url=https://s3v3.mkklcdnv6temp.com/mangakakalot/f1/fist_of_the_north_star/vol26_chapter_233_becoming_a_god_without_mercy/13.jpg",
    "https://img-proxy.imgfo.com/?referer=https://manganelo.com&url=https://s3v3.mkklcdnv6temp.com/mangakakalot/f1/fist_of_the_north_star/vol26_chapter_233_becoming_a_god_without_mercy/14.jpg",
    "https://img-proxy.imgfo.com/?referer=https://manganelo.com&url=https://s3v3.mkklcdnv6temp.com/mangakakalot/f1/fist_of_the_north_star/vol26_chapter_233_becoming_a_god_without_mercy/15.jpg",
    "https://img-proxy.imgfo.com/?referer=https://manganelo.com&url=https://s3v3.mkklcdnv6temp.com/mangakakalot/f1/fist_of_the_north_star/vol26_chapter_233_becoming_a_god_without_mercy/16.jpg",
    "https://img-proxy.imgfo.com/?referer=https://manganelo.com&url=https://s3v3.mkklcdnv6temp.com/mangakakalot/f1/fist_of_the_north_star/vol26_chapter_233_becoming_a_god_without_mercy/17.jpg",
    "https://img-proxy.imgfo.com/?referer=https://manganelo.com&url=https://s3v3.mkklcdnv6temp.com/mangakakalot/f1/fist_of_the_north_star/vol26_chapter_233_becoming_a_god_without_mercy/18.jpg",
    "https://img-proxy.imgfo.com/?referer=https://manganelo.com&url=https://s3v3.mkklcdnv6temp.com/mangakakalot/f1/fist_of_the_north_star/vol26_chapter_233_becoming_a_god_without_mercy/19.jpg",
    "https://img-proxy.imgfo.com/?referer=https://manganelo.com&url=https://s3v3.mkklcdnv6temp.com/mangakakalot/f1/fist_of_the_north_star/vol26_chapter_233_becoming_a_god_without_mercy/20.jpg"
  ]
}