{
  "cover": "https://avt.mkklcdnv6.com/11/t/6-1583474582.jpg",
  "title": "Drifting Classroom",
  "original": "漂流教室 ; Hyōryū Kyōshitsu ; Hyouryuu Kyoushitsu ; The Drifting Classroom",
  "genre": "Action, Adult, Adventure, Comedy, Doujinshi, Horror, Mystery, Psychological, Sci fi, Shounen, Supernatural, Manga",
  "author": "Umezu Kazuo",
  "status": "Completed",
  "backlink": "https://manganu.com/collections/umezu-kazuo/drifting-classroom/",
  "description": "From Viz: Out of nowhere, a Japanese elementary school is transported out of the world they know, and into a nightmarish wasteland. Have they gone to another planet, or is this toxic world actually a vision of Earth&#39;s future? Soon, the students and teachers must struggle to survive in impossible conditions, besieged by terrifying creatures and beset by madness. Part Lord of the Flies, part post-apocalyptic science fiction, The Drifting Classroom (1972-1974) is a classic can&#39;t-put-down manga series. It was adapted into a Japanese live-action movie (1987).",
  "language": "English",
  "images": [
    "https://img-proxy.imgfo.com/?referer=https://manganelo.com&url=https://s7.mkklcdnv6temp.com/mangakakalot/d2/drifting_classroom/vol1_about_the_artist_kazuo_umezu/1.jpg",
    "https://img-proxy.imgfo.com/?referer=https://manganelo.com&url=https://s7.mkklcdnv6temp.com/mangakakalot/d2/drifting_classroom/vol1_about_the_artist_kazuo_umezu/2.jpg",
    "https://img-proxy.imgfo.com/?referer=https://manganelo.com&url=https://s7.mkklcdnv6temp.com/mangakakalot/d2/drifting_classroom/vol1_about_the_artist_kazuo_umezu/3.jpg",
    "https://img-proxy.imgfo.com/?referer=https://manganelo.com&url=https://s7.mkklcdnv6temp.com/mangakakalot/d2/drifting_classroom/vol1_about_the_artist_kazuo_umezu/4.jpg",
    "https://img-proxy.imgfo.com/?referer=https://manganelo.com&url=https://s7.mkklcdnv6temp.com/mangakakalot/d2/drifting_classroom/vol1_about_the_artist_kazuo_umezu/5.jpg",
    "https://img-proxy.imgfo.com/?referer=https://manganelo.com&url=https://s7.mkklcdnv6temp.com/mangakakalot/d2/drifting_classroom/vol1_about_the_artist_kazuo_umezu/6.jpg",
    "https://img-proxy.imgfo.com/?referer=https://manganelo.com&url=https://s7.mkklcdnv6temp.com/mangakakalot/d2/drifting_classroom/vol1_about_the_artist_kazuo_umezu/7.jpg",
    "https://img-proxy.imgfo.com/?referer=https://manganelo.com&url=https://s7.mkklcdnv6temp.com/mangakakalot/d2/drifting_classroom/vol1_about_the_artist_kazuo_umezu/8.jpg",
    "https://img-proxy.imgfo.com/?referer=https://manganelo.com&url=https://s7.mkklcdnv6temp.com/mangakakalot/d2/drifting_classroom/vol1_about_the_artist_kazuo_umezu/9.jpg",
    "https://img-proxy.imgfo.com/?referer=https://manganelo.com&url=https://s7.mkklcdnv6temp.com/mangakakalot/d2/drifting_classroom/vol1_about_the_artist_kazuo_umezu/10.jpg",
    "https://img-proxy.imgfo.com/?referer=https://manganelo.com&url=https://s7.mkklcdnv6temp.com/mangakakalot/d2/drifting_classroom/vol1_about_the_artist_kazuo_umezu/11.jpg",
    "https://img-proxy.imgfo.com/?referer=https://manganelo.com&url=https://s7.mkklcdnv6temp.com/mangakakalot/d2/drifting_classroom/vol1_about_the_artist_kazuo_umezu/12.jpg"
  ]
}