{
  "cover": "https://avt.mkklcdnv6.com/8/e/5-1583472186.jpg",
  "title": "Saikyou Densetsu Kurosawa",
  "original": "最強伝説黒沢 ; Legend of the Strongest Man, Kurosawa ; Strongest Man Kurosawa ; The Legend of the Strongest Man",
  "genre": "Comedy, Drama, Seinen, Slice of life, Manga",
  "author": "Fukumoto Nobuyuki",
  "status": "Completed",
  "backlink": "https://manganu.com/collections/fukumoto-nobuyuki/saikyou-densetsu-kurosawa/",
  "description": "44 years old, single, working in a construction company for his entire life. All Kurosawa wants is a little respect from his co-workers. And a little popularity won't hurt. Unfortunately Kurosawa's plans fail miserably from time to time and one day, he finds himself right in the middle of a fight against...delinquent middle schoolers?",
  "language": "English",
  "images": [
    "https://img-proxy.imgfo.com/?referer=https://manganelo.com&url=https://s7.mkklcdnv6temp.com/mangakakalot/s1/saikyou_densetsu_kurosawa/vol8_chapter_64_suppression/1.jpg",
    "https://img-proxy.imgfo.com/?referer=https://manganelo.com&url=https://s7.mkklcdnv6temp.com/mangakakalot/s1/saikyou_densetsu_kurosawa/vol8_chapter_64_suppression/2.jpg",
    "https://img-proxy.imgfo.com/?referer=https://manganelo.com&url=https://s7.mkklcdnv6temp.com/mangakakalot/s1/saikyou_densetsu_kurosawa/vol8_chapter_64_suppression/3.jpg",
    "https://img-proxy.imgfo.com/?referer=https://manganelo.com&url=https://s7.mkklcdnv6temp.com/mangakakalot/s1/saikyou_densetsu_kurosawa/vol8_chapter_64_suppression/4.jpg",
    "https://img-proxy.imgfo.com/?referer=https://manganelo.com&url=https://s7.mkklcdnv6temp.com/mangakakalot/s1/saikyou_densetsu_kurosawa/vol8_chapter_64_suppression/5.jpg",
    "https://img-proxy.imgfo.com/?referer=https://manganelo.com&url=https://s7.mkklcdnv6temp.com/mangakakalot/s1/saikyou_densetsu_kurosawa/vol8_chapter_64_suppression/6.jpg",
    "https://img-proxy.imgfo.com/?referer=https://manganelo.com&url=https://s7.mkklcdnv6temp.com/mangakakalot/s1/saikyou_densetsu_kurosawa/vol8_chapter_64_suppression/7.jpg",
    "https://img-proxy.imgfo.com/?referer=https://manganelo.com&url=https://s7.mkklcdnv6temp.com/mangakakalot/s1/saikyou_densetsu_kurosawa/vol8_chapter_64_suppression/8.jpg",
    "https://img-proxy.imgfo.com/?referer=https://manganelo.com&url=https://s7.mkklcdnv6temp.com/mangakakalot/s1/saikyou_densetsu_kurosawa/vol8_chapter_64_suppression/9.jpg",
    "https://img-proxy.imgfo.com/?referer=https://manganelo.com&url=https://s7.mkklcdnv6temp.com/mangakakalot/s1/saikyou_densetsu_kurosawa/vol8_chapter_64_suppression/10.jpg",
    "https://img-proxy.imgfo.com/?referer=https://manganelo.com&url=https://s7.mkklcdnv6temp.com/mangakakalot/s1/saikyou_densetsu_kurosawa/vol8_chapter_64_suppression/11.jpg",
    "https://img-proxy.imgfo.com/?referer=https://manganelo.com&url=https://s7.mkklcdnv6temp.com/mangakakalot/s1/saikyou_densetsu_kurosawa/vol8_chapter_64_suppression/12.jpg",
    "https://img-proxy.imgfo.com/?referer=https://manganelo.com&url=https://s7.mkklcdnv6temp.com/mangakakalot/s1/saikyou_densetsu_kurosawa/vol8_chapter_64_suppression/13.jpg",
    "https://img-proxy.imgfo.com/?referer=https://manganelo.com&url=https://s7.mkklcdnv6temp.com/mangakakalot/s1/saikyou_densetsu_kurosawa/vol8_chapter_64_suppression/14.jpg",
    "https://img-proxy.imgfo.com/?referer=https://manganelo.com&url=https://s7.mkklcdnv6temp.com/mangakakalot/s1/saikyou_densetsu_kurosawa/vol8_chapter_64_suppression/15.jpg",
    "https://img-proxy.imgfo.com/?referer=https://manganelo.com&url=https://s7.mkklcdnv6temp.com/mangakakalot/s1/saikyou_densetsu_kurosawa/vol8_chapter_64_suppression/16.jpg",
    "https://img-proxy.imgfo.com/?referer=https://manganelo.com&url=https://s7.mkklcdnv6temp.com/mangakakalot/s1/saikyou_densetsu_kurosawa/vol8_chapter_64_suppression/17.jpg",
    "https://img-proxy.imgfo.com/?referer=https://manganelo.com&url=https://s7.mkklcdnv6temp.com/mangakakalot/s1/saikyou_densetsu_kurosawa/vol8_chapter_64_suppression/18.jpg",
    "https://img-proxy.imgfo.com/?referer=https://manganelo.com&url=https://s7.mkklcdnv6temp.com/mangakakalot/s1/saikyou_densetsu_kurosawa/vol8_chapter_64_suppression/19.jpg",
    "https://img-proxy.imgfo.com/?referer=https://manganelo.com&url=https://s7.mkklcdnv6temp.com/mangakakalot/s1/saikyou_densetsu_kurosawa/vol8_chapter_64_suppression/20.jpg",
    "https://img-proxy.imgfo.com/?referer=https://manganelo.com&url=https://s7.mkklcdnv6temp.com/mangakakalot/s1/saikyou_densetsu_kurosawa/vol8_chapter_64_suppression/21.jpg",
    "https://img-proxy.imgfo.com/?referer=https://manganelo.com&url=https://s7.mkklcdnv6temp.com/mangakakalot/s1/saikyou_densetsu_kurosawa/vol8_chapter_64_suppression/22.jpg",
    "https://img-proxy.imgfo.com/?referer=https://manganelo.com&url=https://s7.mkklcdnv6temp.com/mangakakalot/s1/saikyou_densetsu_kurosawa/vol8_chapter_64_suppression/23.jpg",
    "https://img-proxy.imgfo.com/?referer=https://manganelo.com&url=https://s7.mkklcdnv6temp.com/mangakakalot/s1/saikyou_densetsu_kurosawa/vol8_chapter_64_suppression/24.jpg",
    "https://img-proxy.imgfo.com/?referer=https://manganelo.com&url=https://s7.mkklcdnv6temp.com/mangakakalot/s1/saikyou_densetsu_kurosawa/vol8_chapter_64_suppression/25.jpg"
  ]
}