{
  "cover": "https://avt.mkklcdnv6.com/12/x/4-1583470192.jpg",
  "title": "Akuma Jiten",
  "original": "あくまじてん ; 恶魔事典 ; Demon Encyclopedia ; Devil Encyclopedia",
  "genre": "Comedy, Harem, Romance, Shounen, Supernatural, Manga",
  "author": "Suyama Shinya",
  "status": "Completed",
  "backlink": "https://manganu.com/collections/suyama-shinya/akuma-jiten/",
  "description": "Hiroyuki is a 16 year-old boy who is just starting a life of living on his own. He finds a great deal on a huge house for only 10,000 yen a month in rent. Sure the house is a little run down and perhaps even downright spooky, but it's better than nothing...until he meets Milky Way! Milky Way is a Demoness and she has her eyes set on making Hiroyuki her servant!",
  "language": "English",
  "images": [
    "https://img-proxy.imgfo.com/?referer=https://manganelo.com&url=https://s5.mkklcdnv6temp.com/mangakakalot/a1/akuma_jiten/vol1_chapter_1_living_with_a_demon/1.jpg",
    "https://img-proxy.imgfo.com/?referer=https://manganelo.com&url=https://s5.mkklcdnv6temp.com/mangakakalot/a1/akuma_jiten/vol1_chapter_1_living_with_a_demon/2.jpg",
    "https://img-proxy.imgfo.com/?referer=https://manganelo.com&url=https://s5.mkklcdnv6temp.com/mangakakalot/a1/akuma_jiten/vol1_chapter_1_living_with_a_demon/3.jpg",
    "https://img-proxy.imgfo.com/?referer=https://manganelo.com&url=https://s5.mkklcdnv6temp.com/mangakakalot/a1/akuma_jiten/vol1_chapter_1_living_with_a_demon/4.jpg",
    "https://img-proxy.imgfo.com/?referer=https://manganelo.com&url=https://s5.mkklcdnv6temp.com/mangakakalot/a1/akuma_jiten/vol1_chapter_1_living_with_a_demon/5.jpg",
    "https://img-proxy.imgfo.com/?referer=https://manganelo.com&url=https://s5.mkklcdnv6temp.com/mangakakalot/a1/akuma_jiten/vol1_chapter_1_living_with_a_demon/6.jpg",
    "https://img-proxy.imgfo.com/?referer=https://manganelo.com&url=https://s5.mkklcdnv6temp.com/mangakakalot/a1/akuma_jiten/vol1_chapter_1_living_with_a_demon/7.jpg",
    "https://img-proxy.imgfo.com/?referer=https://manganelo.com&url=https://s5.mkklcdnv6temp.com/mangakakalot/a1/akuma_jiten/vol1_chapter_1_living_with_a_demon/8.jpg",
    "https://img-proxy.imgfo.com/?referer=https://manganelo.com&url=https://s5.mkklcdnv6temp.com/mangakakalot/a1/akuma_jiten/vol1_chapter_1_living_with_a_demon/9.jpg",
    "https://img-proxy.imgfo.com/?referer=https://manganelo.com&url=https://s5.mkklcdnv6temp.com/mangakakalot/a1/akuma_jiten/vol1_chapter_1_living_with_a_demon/10.jpg",
    "https://img-proxy.imgfo.com/?referer=https://manganelo.com&url=https://s5.mkklcdnv6temp.com/mangakakalot/a1/akuma_jiten/vol1_chapter_1_living_with_a_demon/11.jpg",
    "https://img-proxy.imgfo.com/?referer=https://manganelo.com&url=https://s5.mkklcdnv6temp.com/mangakakalot/a1/akuma_jiten/vol1_chapter_1_living_with_a_demon/12.jpg",
    "https://img-proxy.imgfo.com/?referer=https://manganelo.com&url=https://s5.mkklcdnv6temp.com/mangakakalot/a1/akuma_jiten/vol1_chapter_1_living_with_a_demon/13.jpg",
    "https://img-proxy.imgfo.com/?referer=https://manganelo.com&url=https://s5.mkklcdnv6temp.com/mangakakalot/a1/akuma_jiten/vol1_chapter_1_living_with_a_demon/14.jpg",
    "https://img-proxy.imgfo.com/?referer=https://manganelo.com&url=https://s5.mkklcdnv6temp.com/mangakakalot/a1/akuma_jiten/vol1_chapter_1_living_with_a_demon/15.jpg",
    "https://img-proxy.imgfo.com/?referer=https://manganelo.com&url=https://s5.mkklcdnv6temp.com/mangakakalot/a1/akuma_jiten/vol1_chapter_1_living_with_a_demon/16.jpg",
    "https://img-proxy.imgfo.com/?referer=https://manganelo.com&url=https://s5.mkklcdnv6temp.com/mangakakalot/a1/akuma_jiten/vol1_chapter_1_living_with_a_demon/17.jpg",
    "https://img-proxy.imgfo.com/?referer=https://manganelo.com&url=https://s5.mkklcdnv6temp.com/mangakakalot/a1/akuma_jiten/vol1_chapter_1_living_with_a_demon/18.jpg",
    "https://img-proxy.imgfo.com/?referer=https://manganelo.com&url=https://s5.mkklcdnv6temp.com/mangakakalot/a1/akuma_jiten/vol1_chapter_1_living_with_a_demon/19.jpg",
    "https://img-proxy.imgfo.com/?referer=https://manganelo.com&url=https://s5.mkklcdnv6temp.com/mangakakalot/a1/akuma_jiten/vol1_chapter_1_living_with_a_demon/20.jpg",
    "https://img-proxy.imgfo.com/?referer=https://manganelo.com&url=https://s5.mkklcdnv6temp.com/mangakakalot/a1/akuma_jiten/vol1_chapter_1_living_with_a_demon/21.jpg",
    "https://img-proxy.imgfo.com/?referer=https://manganelo.com&url=https://s5.mkklcdnv6temp.com/mangakakalot/a1/akuma_jiten/vol1_chapter_1_living_with_a_demon/22.jpg",
    "https://img-proxy.imgfo.com/?referer=https://manganelo.com&url=https://s5.mkklcdnv6temp.com/mangakakalot/a1/akuma_jiten/vol1_chapter_1_living_with_a_demon/23.jpg",
    "https://img-proxy.imgfo.com/?referer=https://manganelo.com&url=https://s5.mkklcdnv6temp.com/mangakakalot/a1/akuma_jiten/vol1_chapter_1_living_with_a_demon/24.jpg",
    "https://img-proxy.imgfo.com/?referer=https://manganelo.com&url=https://s5.mkklcdnv6temp.com/mangakakalot/a1/akuma_jiten/vol1_chapter_1_living_with_a_demon/25.jpg",
    "https://img-proxy.imgfo.com/?referer=https://manganelo.com&url=https://s5.mkklcdnv6temp.com/mangakakalot/a1/akuma_jiten/vol1_chapter_1_living_with_a_demon/26.jpg",
    "https://img-proxy.imgfo.com/?referer=https://manganelo.com&url=https://s5.mkklcdnv6temp.com/mangakakalot/a1/akuma_jiten/vol1_chapter_1_living_with_a_demon/27.jpg",
    "https://img-proxy.imgfo.com/?referer=https://manganelo.com&url=https://s5.mkklcdnv6temp.com/mangakakalot/a1/akuma_jiten/vol1_chapter_1_living_with_a_demon/28.jpg",
    "https://img-proxy.imgfo.com/?referer=https://manganelo.com&url=https://s5.mkklcdnv6temp.com/mangakakalot/a1/akuma_jiten/vol1_chapter_1_living_with_a_demon/29.jpg"
  ]
}