{
  "cover": "https://avt.mkklcdnv6.com/12/x/4-1583470192.jpg",
  "title": "Akuma Jiten",
  "original": "あくまじてん ; 恶魔事典 ; Demon Encyclopedia ; Devil Encyclopedia",
  "genre": "Comedy, Harem, Romance, Shounen, Supernatural, Manga",
  "author": "Suyama Shinya",
  "status": "Completed",
  "backlink": "https://manganu.com/collections/suyama-shinya/akuma-jiten/",
  "description": "Hiroyuki is a 16 year-old boy who is just starting a life of living on his own. He finds a great deal on a huge house for only 10,000 yen a month in rent. Sure the house is a little run down and perhaps even downright spooky, but it's better than nothing...until he meets Milky Way! Milky Way is a Demoness and she has her eyes set on making Hiroyuki her servant!",
  "language": "English",
  "images": [
    "https://img-proxy.imgfo.com/?referer=https://manganelo.com&url=https://s5.mkklcdnv6temp.com/mangakakalot/a1/akuma_jiten/vol5_chapter_28_mini_mini_milky/1.jpg",
    "https://img-proxy.imgfo.com/?referer=https://manganelo.com&url=https://s5.mkklcdnv6temp.com/mangakakalot/a1/akuma_jiten/vol5_chapter_28_mini_mini_milky/2.jpg",
    "https://img-proxy.imgfo.com/?referer=https://manganelo.com&url=https://s5.mkklcdnv6temp.com/mangakakalot/a1/akuma_jiten/vol5_chapter_28_mini_mini_milky/3.jpg",
    "https://img-proxy.imgfo.com/?referer=https://manganelo.com&url=https://s5.mkklcdnv6temp.com/mangakakalot/a1/akuma_jiten/vol5_chapter_28_mini_mini_milky/4.jpg",
    "https://img-proxy.imgfo.com/?referer=https://manganelo.com&url=https://s5.mkklcdnv6temp.com/mangakakalot/a1/akuma_jiten/vol5_chapter_28_mini_mini_milky/5.jpg",
    "https://img-proxy.imgfo.com/?referer=https://manganelo.com&url=https://s5.mkklcdnv6temp.com/mangakakalot/a1/akuma_jiten/vol5_chapter_28_mini_mini_milky/6.jpg",
    "https://img-proxy.imgfo.com/?referer=https://manganelo.com&url=https://s5.mkklcdnv6temp.com/mangakakalot/a1/akuma_jiten/vol5_chapter_28_mini_mini_milky/7.jpg",
    "https://img-proxy.imgfo.com/?referer=https://manganelo.com&url=https://s5.mkklcdnv6temp.com/mangakakalot/a1/akuma_jiten/vol5_chapter_28_mini_mini_milky/8.jpg",
    "https://img-proxy.imgfo.com/?referer=https://manganelo.com&url=https://s5.mkklcdnv6temp.com/mangakakalot/a1/akuma_jiten/vol5_chapter_28_mini_mini_milky/9.jpg",
    "https://img-proxy.imgfo.com/?referer=https://manganelo.com&url=https://s5.mkklcdnv6temp.com/mangakakalot/a1/akuma_jiten/vol5_chapter_28_mini_mini_milky/10.jpg",
    "https://img-proxy.imgfo.com/?referer=https://manganelo.com&url=https://s5.mkklcdnv6temp.com/mangakakalot/a1/akuma_jiten/vol5_chapter_28_mini_mini_milky/11.jpg",
    "https://img-proxy.imgfo.com/?referer=https://manganelo.com&url=https://s5.mkklcdnv6temp.com/mangakakalot/a1/akuma_jiten/vol5_chapter_28_mini_mini_milky/12.jpg",
    "https://img-proxy.imgfo.com/?referer=https://manganelo.com&url=https://s5.mkklcdnv6temp.com/mangakakalot/a1/akuma_jiten/vol5_chapter_28_mini_mini_milky/13.jpg",
    "https://img-proxy.imgfo.com/?referer=https://manganelo.com&url=https://s5.mkklcdnv6temp.com/mangakakalot/a1/akuma_jiten/vol5_chapter_28_mini_mini_milky/14.jpg",
    "https://img-proxy.imgfo.com/?referer=https://manganelo.com&url=https://s5.mkklcdnv6temp.com/mangakakalot/a1/akuma_jiten/vol5_chapter_28_mini_mini_milky/15.jpg",
    "https://img-proxy.imgfo.com/?referer=https://manganelo.com&url=https://s5.mkklcdnv6temp.com/mangakakalot/a1/akuma_jiten/vol5_chapter_28_mini_mini_milky/16.jpg",
    "https://img-proxy.imgfo.com/?referer=https://manganelo.com&url=https://s5.mkklcdnv6temp.com/mangakakalot/a1/akuma_jiten/vol5_chapter_28_mini_mini_milky/17.jpg",
    "https://img-proxy.imgfo.com/?referer=https://manganelo.com&url=https://s5.mkklcdnv6temp.com/mangakakalot/a1/akuma_jiten/vol5_chapter_28_mini_mini_milky/18.jpg",
    "https://img-proxy.imgfo.com/?referer=https://manganelo.com&url=https://s5.mkklcdnv6temp.com/mangakakalot/a1/akuma_jiten/vol5_chapter_28_mini_mini_milky/19.jpg",
    "https://img-proxy.imgfo.com/?referer=https://manganelo.com&url=https://s5.mkklcdnv6temp.com/mangakakalot/a1/akuma_jiten/vol5_chapter_28_mini_mini_milky/20.jpg",
    "https://img-proxy.imgfo.com/?referer=https://manganelo.com&url=https://s5.mkklcdnv6temp.com/mangakakalot/a1/akuma_jiten/vol5_chapter_28_mini_mini_milky/21.jpg",
    "https://img-proxy.imgfo.com/?referer=https://manganelo.com&url=https://s5.mkklcdnv6temp.com/mangakakalot/a1/akuma_jiten/vol5_chapter_28_mini_mini_milky/22.jpg",
    "https://img-proxy.imgfo.com/?referer=https://manganelo.com&url=https://s5.mkklcdnv6temp.com/mangakakalot/a1/akuma_jiten/vol5_chapter_28_mini_mini_milky/23.jpg",
    "https://img-proxy.imgfo.com/?referer=https://manganelo.com&url=https://s5.mkklcdnv6temp.com/mangakakalot/a1/akuma_jiten/vol5_chapter_28_mini_mini_milky/24.jpg",
    "https://img-proxy.imgfo.com/?referer=https://manganelo.com&url=https://s5.mkklcdnv6temp.com/mangakakalot/a1/akuma_jiten/vol5_chapter_28_mini_mini_milky/25.jpg",
    "https://img-proxy.imgfo.com/?referer=https://manganelo.com&url=https://s5.mkklcdnv6temp.com/mangakakalot/a1/akuma_jiten/vol5_chapter_28_mini_mini_milky/26.jpg",
    "https://img-proxy.imgfo.com/?referer=https://manganelo.com&url=https://s5.mkklcdnv6temp.com/mangakakalot/a1/akuma_jiten/vol5_chapter_28_mini_mini_milky/27.jpg",
    "https://img-proxy.imgfo.com/?referer=https://manganelo.com&url=https://s5.mkklcdnv6temp.com/mangakakalot/a1/akuma_jiten/vol5_chapter_28_mini_mini_milky/28.jpg",
    "https://img-proxy.imgfo.com/?referer=https://manganelo.com&url=https://s5.mkklcdnv6temp.com/mangakakalot/a1/akuma_jiten/vol5_chapter_28_mini_mini_milky/29.jpg",
    "https://img-proxy.imgfo.com/?referer=https://manganelo.com&url=https://s5.mkklcdnv6temp.com/mangakakalot/a1/akuma_jiten/vol5_chapter_28_mini_mini_milky/30.jpg"
  ]
}