{
  "cover": "https://avt.mkklcdnv6.com/10/f/16-1583493843.jpg",
  "title": "Koi Wa Itsumo Arashi No Youni",
  "original": "Love Is Always Like A Storm ; Love Is Like A Hurricane",
  "genre": "Comedy, Romance, School life, Yaoi, Manga",
  "author": "Shimazaki Tokiya",
  "status": "Completed",
  "backlink": "https://manganu.com/collections/shimazaki-tokiya/koi-wa-itsumo-arashi-no-youni/",
  "description": "From 801 Media:\nMizuki gets molested on a train bound for school, and the perpetrator is none other than the school president, Azuma! Mizuki gets called to the student council room, where Azuma confesses his love for him. So begins the tale of this wacky school story.\nPoor Mizuki has the worst luck. Gifted with beauty that rivals most females, he finds himself defending his honor in more ways than one. When he gets molested on board a train for school one day, he starts to think things can't get any worse. That is until he is called into the student council office by the president, Azuma. Turns out the perpetrator of that morning's foray is none other than the student council president himself! Azuma is not one for one night stands and begins his campaign to make Mizuki his own.",
  "language": "English",
  "images": [
    "https://img-proxy.imgfo.com/?referer=https://manganelo.com&url=https://s3.mkklcdnv6temp.com/mangakakalot/k2/koi_wa_itsumo_arashi_no_youni/vol02_chapter_5/1.jpg",
    "https://img-proxy.imgfo.com/?referer=https://manganelo.com&url=https://s3.mkklcdnv6temp.com/mangakakalot/k2/koi_wa_itsumo_arashi_no_youni/vol02_chapter_5/2.jpg",
    "https://img-proxy.imgfo.com/?referer=https://manganelo.com&url=https://s3.mkklcdnv6temp.com/mangakakalot/k2/koi_wa_itsumo_arashi_no_youni/vol02_chapter_5/3.jpg",
    "https://img-proxy.imgfo.com/?referer=https://manganelo.com&url=https://s3.mkklcdnv6temp.com/mangakakalot/k2/koi_wa_itsumo_arashi_no_youni/vol02_chapter_5/4.jpg",
    "https://img-proxy.imgfo.com/?referer=https://manganelo.com&url=https://s3.mkklcdnv6temp.com/mangakakalot/k2/koi_wa_itsumo_arashi_no_youni/vol02_chapter_5/5.jpg",
    "https://img-proxy.imgfo.com/?referer=https://manganelo.com&url=https://s3.mkklcdnv6temp.com/mangakakalot/k2/koi_wa_itsumo_arashi_no_youni/vol02_chapter_5/6.jpg",
    "https://img-proxy.imgfo.com/?referer=https://manganelo.com&url=https://s3.mkklcdnv6temp.com/mangakakalot/k2/koi_wa_itsumo_arashi_no_youni/vol02_chapter_5/7.jpg",
    "https://img-proxy.imgfo.com/?referer=https://manganelo.com&url=https://s3.mkklcdnv6temp.com/mangakakalot/k2/koi_wa_itsumo_arashi_no_youni/vol02_chapter_5/8.jpg",
    "https://img-proxy.imgfo.com/?referer=https://manganelo.com&url=https://s3.mkklcdnv6temp.com/mangakakalot/k2/koi_wa_itsumo_arashi_no_youni/vol02_chapter_5/9.jpg",
    "https://img-proxy.imgfo.com/?referer=https://manganelo.com&url=https://s3.mkklcdnv6temp.com/mangakakalot/k2/koi_wa_itsumo_arashi_no_youni/vol02_chapter_5/10.jpg",
    "https://img-proxy.imgfo.com/?referer=https://manganelo.com&url=https://s3.mkklcdnv6temp.com/mangakakalot/k2/koi_wa_itsumo_arashi_no_youni/vol02_chapter_5/11.jpg",
    "https://img-proxy.imgfo.com/?referer=https://manganelo.com&url=https://s3.mkklcdnv6temp.com/mangakakalot/k2/koi_wa_itsumo_arashi_no_youni/vol02_chapter_5/12.jpg",
    "https://img-proxy.imgfo.com/?referer=https://manganelo.com&url=https://s3.mkklcdnv6temp.com/mangakakalot/k2/koi_wa_itsumo_arashi_no_youni/vol02_chapter_5/13.jpg",
    "https://img-proxy.imgfo.com/?referer=https://manganelo.com&url=https://s3.mkklcdnv6temp.com/mangakakalot/k2/koi_wa_itsumo_arashi_no_youni/vol02_chapter_5/14.jpg",
    "https://img-proxy.imgfo.com/?referer=https://manganelo.com&url=https://s3.mkklcdnv6temp.com/mangakakalot/k2/koi_wa_itsumo_arashi_no_youni/vol02_chapter_5/15.jpg",
    "https://img-proxy.imgfo.com/?referer=https://manganelo.com&url=https://s3.mkklcdnv6temp.com/mangakakalot/k2/koi_wa_itsumo_arashi_no_youni/vol02_chapter_5/16.jpg",
    "https://img-proxy.imgfo.com/?referer=https://manganelo.com&url=https://s3.mkklcdnv6temp.com/mangakakalot/k2/koi_wa_itsumo_arashi_no_youni/vol02_chapter_5/17.jpg",
    "https://img-proxy.imgfo.com/?referer=https://manganelo.com&url=https://s3.mkklcdnv6temp.com/mangakakalot/k2/koi_wa_itsumo_arashi_no_youni/vol02_chapter_5/18.jpg",
    "https://img-proxy.imgfo.com/?referer=https://manganelo.com&url=https://s3.mkklcdnv6temp.com/mangakakalot/k2/koi_wa_itsumo_arashi_no_youni/vol02_chapter_5/19.jpg",
    "https://img-proxy.imgfo.com/?referer=https://manganelo.com&url=https://s3.mkklcdnv6temp.com/mangakakalot/k2/koi_wa_itsumo_arashi_no_youni/vol02_chapter_5/20.jpg",
    "https://img-proxy.imgfo.com/?referer=https://manganelo.com&url=https://s3.mkklcdnv6temp.com/mangakakalot/k2/koi_wa_itsumo_arashi_no_youni/vol02_chapter_5/21.jpg",
    "https://img-proxy.imgfo.com/?referer=https://manganelo.com&url=https://s3.mkklcdnv6temp.com/mangakakalot/k2/koi_wa_itsumo_arashi_no_youni/vol02_chapter_5/22.jpg",
    "https://img-proxy.imgfo.com/?referer=https://manganelo.com&url=https://s3.mkklcdnv6temp.com/mangakakalot/k2/koi_wa_itsumo_arashi_no_youni/vol02_chapter_5/23.jpg",
    "https://img-proxy.imgfo.com/?referer=https://manganelo.com&url=https://s3.mkklcdnv6temp.com/mangakakalot/k2/koi_wa_itsumo_arashi_no_youni/vol02_chapter_5/24.jpg",
    "https://img-proxy.imgfo.com/?referer=https://manganelo.com&url=https://s3.mkklcdnv6temp.com/mangakakalot/k2/koi_wa_itsumo_arashi_no_youni/vol02_chapter_5/25.jpg",
    "https://img-proxy.imgfo.com/?referer=https://manganelo.com&url=https://s3.mkklcdnv6temp.com/mangakakalot/k2/koi_wa_itsumo_arashi_no_youni/vol02_chapter_5/26.jpg",
    "https://img-proxy.imgfo.com/?referer=https://manganelo.com&url=https://s3.mkklcdnv6temp.com/mangakakalot/k2/koi_wa_itsumo_arashi_no_youni/vol02_chapter_5/27.jpg",
    "https://img-proxy.imgfo.com/?referer=https://manganelo.com&url=https://s3.mkklcdnv6temp.com/mangakakalot/k2/koi_wa_itsumo_arashi_no_youni/vol02_chapter_5/28.jpg",
    "https://img-proxy.imgfo.com/?referer=https://manganelo.com&url=https://s3.mkklcdnv6temp.com/mangakakalot/k2/koi_wa_itsumo_arashi_no_youni/vol02_chapter_5/29.jpg",
    "https://img-proxy.imgfo.com/?referer=https://manganelo.com&url=https://s3.mkklcdnv6temp.com/mangakakalot/k2/koi_wa_itsumo_arashi_no_youni/vol02_chapter_5/30.jpg",
    "https://img-proxy.imgfo.com/?referer=https://manganelo.com&url=https://s3.mkklcdnv6temp.com/mangakakalot/k2/koi_wa_itsumo_arashi_no_youni/vol02_chapter_5/31.jpg",
    "https://img-proxy.imgfo.com/?referer=https://manganelo.com&url=https://s3.mkklcdnv6temp.com/mangakakalot/k2/koi_wa_itsumo_arashi_no_youni/vol02_chapter_5/32.jpg",
    "https://img-proxy.imgfo.com/?referer=https://manganelo.com&url=https://s3.mkklcdnv6temp.com/mangakakalot/k2/koi_wa_itsumo_arashi_no_youni/vol02_chapter_5/33.jpg",
    "https://img-proxy.imgfo.com/?referer=https://manganelo.com&url=https://s3.mkklcdnv6temp.com/mangakakalot/k2/koi_wa_itsumo_arashi_no_youni/vol02_chapter_5/34.jpg",
    "https://img-proxy.imgfo.com/?referer=https://manganelo.com&url=https://s3.mkklcdnv6temp.com/mangakakalot/k2/koi_wa_itsumo_arashi_no_youni/vol02_chapter_5/35.jpg",
    "https://img-proxy.imgfo.com/?referer=https://manganelo.com&url=https://s3.mkklcdnv6temp.com/mangakakalot/k2/koi_wa_itsumo_arashi_no_youni/vol02_chapter_5/36.jpg",
    "https://img-proxy.imgfo.com/?referer=https://manganelo.com&url=https://s3.mkklcdnv6temp.com/mangakakalot/k2/koi_wa_itsumo_arashi_no_youni/vol02_chapter_5/37.jpg"
  ]
}