{
  "cover": "https://avt.mkklcdnv6.com/5/d/5-1583472045.jpg",
  "title": "Sono Kuchibiru, Itadakimasu",
  "original": "その唇、いただきマス ; Sono Kuchibiru, Itadaki Masu ; Sono Kuchibiru, Itadaki-Masu ; Esos Labios me los como Yo (Español)",
  "genre": "Comedy, Oneshot, Romance, School life, Shoujo, Manga",
  "author": "Shiraishi Yuki",
  "status": "Completed",
  "backlink": "https://manganu.com/collections/shiraishi-yuki/sono-kuchibiru-itadakimasu/",
  "description": "Description From Intercross:\nWhat the poor Sana is aiming for is the boy who has a mysterious mole on his lip: Aki. You won't be troubled over eating with a mole on your lip, so if she gets Aki, she won't be troubled over money... or so she thinks, but Aki is also poor?! With their Culture Festival's Best Couple Contest prize as \"A year's worth of free school lunches\", what willl happen when the two join forces?!\nIncludes 3 other oneshots:\n- Sukitte Iccha XX Nandesu!\nKurashima Touko has been working up the nerve to finally call out the President of the Disciplinary Committee. However, she accidentally sends it to the wrong person, Takimoto Chikage! He is a delinquent that is totally opposite of her ideal man, however, Takimoto likes Kurashima!\n- Narabuna Kiken!!\nMiku and Natsume have always been fighting with each other until Natsume suddenly asks Miku to pretend to be his girlfriend!!! At first, Miku is quite opposed to the idea, but slowly…\n- Koi ni Nante Naranai!\nSakashita Yue is known for being fierce, violent, and abnormally strong. After being dumped by her boyfriend, rumors spread that she beat him up. When she confronts her ex, Ogata Touma helps her. Immediately afterward, he confesses and asks her out.",
  "language": "English",
  "images": [
    "https://img-proxy.imgfo.com/?referer=https://manganelo.com&url=https://s6.mkklcdnv6temp.com/mangakakalot/s2/sono_kuchibiru_itadakimasu/vol1_chapter_3_narabuna_kiken_the_danger_of_lining_up/1.jpg",
    "https://img-proxy.imgfo.com/?referer=https://manganelo.com&url=https://s6.mkklcdnv6temp.com/mangakakalot/s2/sono_kuchibiru_itadakimasu/vol1_chapter_3_narabuna_kiken_the_danger_of_lining_up/2.jpg",
    "https://img-proxy.imgfo.com/?referer=https://manganelo.com&url=https://s6.mkklcdnv6temp.com/mangakakalot/s2/sono_kuchibiru_itadakimasu/vol1_chapter_3_narabuna_kiken_the_danger_of_lining_up/3.jpg",
    "https://img-proxy.imgfo.com/?referer=https://manganelo.com&url=https://s6.mkklcdnv6temp.com/mangakakalot/s2/sono_kuchibiru_itadakimasu/vol1_chapter_3_narabuna_kiken_the_danger_of_lining_up/4.jpg",
    "https://img-proxy.imgfo.com/?referer=https://manganelo.com&url=https://s6.mkklcdnv6temp.com/mangakakalot/s2/sono_kuchibiru_itadakimasu/vol1_chapter_3_narabuna_kiken_the_danger_of_lining_up/5.jpg",
    "https://img-proxy.imgfo.com/?referer=https://manganelo.com&url=https://s6.mkklcdnv6temp.com/mangakakalot/s2/sono_kuchibiru_itadakimasu/vol1_chapter_3_narabuna_kiken_the_danger_of_lining_up/6.jpg",
    "https://img-proxy.imgfo.com/?referer=https://manganelo.com&url=https://s6.mkklcdnv6temp.com/mangakakalot/s2/sono_kuchibiru_itadakimasu/vol1_chapter_3_narabuna_kiken_the_danger_of_lining_up/7.jpg",
    "https://img-proxy.imgfo.com/?referer=https://manganelo.com&url=https://s6.mkklcdnv6temp.com/mangakakalot/s2/sono_kuchibiru_itadakimasu/vol1_chapter_3_narabuna_kiken_the_danger_of_lining_up/8.jpg",
    "https://img-proxy.imgfo.com/?referer=https://manganelo.com&url=https://s6.mkklcdnv6temp.com/mangakakalot/s2/sono_kuchibiru_itadakimasu/vol1_chapter_3_narabuna_kiken_the_danger_of_lining_up/9.jpg",
    "https://img-proxy.imgfo.com/?referer=https://manganelo.com&url=https://s6.mkklcdnv6temp.com/mangakakalot/s2/sono_kuchibiru_itadakimasu/vol1_chapter_3_narabuna_kiken_the_danger_of_lining_up/10.jpg",
    "https://img-proxy.imgfo.com/?referer=https://manganelo.com&url=https://s6.mkklcdnv6temp.com/mangakakalot/s2/sono_kuchibiru_itadakimasu/vol1_chapter_3_narabuna_kiken_the_danger_of_lining_up/11.jpg",
    "https://img-proxy.imgfo.com/?referer=https://manganelo.com&url=https://s6.mkklcdnv6temp.com/mangakakalot/s2/sono_kuchibiru_itadakimasu/vol1_chapter_3_narabuna_kiken_the_danger_of_lining_up/12.jpg",
    "https://img-proxy.imgfo.com/?referer=https://manganelo.com&url=https://s6.mkklcdnv6temp.com/mangakakalot/s2/sono_kuchibiru_itadakimasu/vol1_chapter_3_narabuna_kiken_the_danger_of_lining_up/13.jpg",
    "https://img-proxy.imgfo.com/?referer=https://manganelo.com&url=https://s6.mkklcdnv6temp.com/mangakakalot/s2/sono_kuchibiru_itadakimasu/vol1_chapter_3_narabuna_kiken_the_danger_of_lining_up/14.jpg",
    "https://img-proxy.imgfo.com/?referer=https://manganelo.com&url=https://s6.mkklcdnv6temp.com/mangakakalot/s2/sono_kuchibiru_itadakimasu/vol1_chapter_3_narabuna_kiken_the_danger_of_lining_up/15.jpg",
    "https://img-proxy.imgfo.com/?referer=https://manganelo.com&url=https://s6.mkklcdnv6temp.com/mangakakalot/s2/sono_kuchibiru_itadakimasu/vol1_chapter_3_narabuna_kiken_the_danger_of_lining_up/16.jpg",
    "https://img-proxy.imgfo.com/?referer=https://manganelo.com&url=https://s6.mkklcdnv6temp.com/mangakakalot/s2/sono_kuchibiru_itadakimasu/vol1_chapter_3_narabuna_kiken_the_danger_of_lining_up/17.jpg",
    "https://img-proxy.imgfo.com/?referer=https://manganelo.com&url=https://s6.mkklcdnv6temp.com/mangakakalot/s2/sono_kuchibiru_itadakimasu/vol1_chapter_3_narabuna_kiken_the_danger_of_lining_up/18.jpg",
    "https://img-proxy.imgfo.com/?referer=https://manganelo.com&url=https://s6.mkklcdnv6temp.com/mangakakalot/s2/sono_kuchibiru_itadakimasu/vol1_chapter_3_narabuna_kiken_the_danger_of_lining_up/19.jpg",
    "https://img-proxy.imgfo.com/?referer=https://manganelo.com&url=https://s6.mkklcdnv6temp.com/mangakakalot/s2/sono_kuchibiru_itadakimasu/vol1_chapter_3_narabuna_kiken_the_danger_of_lining_up/20.jpg",
    "https://img-proxy.imgfo.com/?referer=https://manganelo.com&url=https://s6.mkklcdnv6temp.com/mangakakalot/s2/sono_kuchibiru_itadakimasu/vol1_chapter_3_narabuna_kiken_the_danger_of_lining_up/21.jpg",
    "https://img-proxy.imgfo.com/?referer=https://manganelo.com&url=https://s6.mkklcdnv6temp.com/mangakakalot/s2/sono_kuchibiru_itadakimasu/vol1_chapter_3_narabuna_kiken_the_danger_of_lining_up/22.jpg",
    "https://img-proxy.imgfo.com/?referer=https://manganelo.com&url=https://s6.mkklcdnv6temp.com/mangakakalot/s2/sono_kuchibiru_itadakimasu/vol1_chapter_3_narabuna_kiken_the_danger_of_lining_up/23.jpg",
    "https://img-proxy.imgfo.com/?referer=https://manganelo.com&url=https://s6.mkklcdnv6temp.com/mangakakalot/s2/sono_kuchibiru_itadakimasu/vol1_chapter_3_narabuna_kiken_the_danger_of_lining_up/24.jpg",
    "https://img-proxy.imgfo.com/?referer=https://manganelo.com&url=https://s6.mkklcdnv6temp.com/mangakakalot/s2/sono_kuchibiru_itadakimasu/vol1_chapter_3_narabuna_kiken_the_danger_of_lining_up/25.jpg",
    "https://img-proxy.imgfo.com/?referer=https://manganelo.com&url=https://s6.mkklcdnv6temp.com/mangakakalot/s2/sono_kuchibiru_itadakimasu/vol1_chapter_3_narabuna_kiken_the_danger_of_lining_up/26.jpg",
    "https://img-proxy.imgfo.com/?referer=https://manganelo.com&url=https://s6.mkklcdnv6temp.com/mangakakalot/s2/sono_kuchibiru_itadakimasu/vol1_chapter_3_narabuna_kiken_the_danger_of_lining_up/27.jpg",
    "https://img-proxy.imgfo.com/?referer=https://manganelo.com&url=https://s6.mkklcdnv6temp.com/mangakakalot/s2/sono_kuchibiru_itadakimasu/vol1_chapter_3_narabuna_kiken_the_danger_of_lining_up/28.jpg",
    "https://img-proxy.imgfo.com/?referer=https://manganelo.com&url=https://s6.mkklcdnv6temp.com/mangakakalot/s2/sono_kuchibiru_itadakimasu/vol1_chapter_3_narabuna_kiken_the_danger_of_lining_up/29.jpg",
    "https://img-proxy.imgfo.com/?referer=https://manganelo.com&url=https://s6.mkklcdnv6temp.com/mangakakalot/s2/sono_kuchibiru_itadakimasu/vol1_chapter_3_narabuna_kiken_the_danger_of_lining_up/30.jpg",
    "https://img-proxy.imgfo.com/?referer=https://manganelo.com&url=https://s6.mkklcdnv6temp.com/mangakakalot/s2/sono_kuchibiru_itadakimasu/vol1_chapter_3_narabuna_kiken_the_danger_of_lining_up/31.jpg",
    "https://img-proxy.imgfo.com/?referer=https://manganelo.com&url=https://s6.mkklcdnv6temp.com/mangakakalot/s2/sono_kuchibiru_itadakimasu/vol1_chapter_3_narabuna_kiken_the_danger_of_lining_up/32.jpg",
    "https://img-proxy.imgfo.com/?referer=https://manganelo.com&url=https://s6.mkklcdnv6temp.com/mangakakalot/s2/sono_kuchibiru_itadakimasu/vol1_chapter_3_narabuna_kiken_the_danger_of_lining_up/33.jpg",
    "https://img-proxy.imgfo.com/?referer=https://manganelo.com&url=https://s6.mkklcdnv6temp.com/mangakakalot/s2/sono_kuchibiru_itadakimasu/vol1_chapter_3_narabuna_kiken_the_danger_of_lining_up/34.jpg",
    "https://img-proxy.imgfo.com/?referer=https://manganelo.com&url=https://s6.mkklcdnv6temp.com/mangakakalot/s2/sono_kuchibiru_itadakimasu/vol1_chapter_3_narabuna_kiken_the_danger_of_lining_up/35.jpg",
    "https://img-proxy.imgfo.com/?referer=https://manganelo.com&url=https://s6.mkklcdnv6temp.com/mangakakalot/s2/sono_kuchibiru_itadakimasu/vol1_chapter_3_narabuna_kiken_the_danger_of_lining_up/36.jpg",
    "https://img-proxy.imgfo.com/?referer=https://manganelo.com&url=https://s6.mkklcdnv6temp.com/mangakakalot/s2/sono_kuchibiru_itadakimasu/vol1_chapter_3_narabuna_kiken_the_danger_of_lining_up/37.jpg",
    "https://img-proxy.imgfo.com/?referer=https://manganelo.com&url=https://s6.mkklcdnv6temp.com/mangakakalot/s2/sono_kuchibiru_itadakimasu/vol1_chapter_3_narabuna_kiken_the_danger_of_lining_up/38.jpg",
    "https://img-proxy.imgfo.com/?referer=https://manganelo.com&url=https://s6.mkklcdnv6temp.com/mangakakalot/s2/sono_kuchibiru_itadakimasu/vol1_chapter_3_narabuna_kiken_the_danger_of_lining_up/39.jpg",
    "https://img-proxy.imgfo.com/?referer=https://manganelo.com&url=https://s6.mkklcdnv6temp.com/mangakakalot/s2/sono_kuchibiru_itadakimasu/vol1_chapter_3_narabuna_kiken_the_danger_of_lining_up/40.jpg",
    "https://img-proxy.imgfo.com/?referer=https://manganelo.com&url=https://s6.mkklcdnv6temp.com/mangakakalot/s2/sono_kuchibiru_itadakimasu/vol1_chapter_3_narabuna_kiken_the_danger_of_lining_up/41.jpg",
    "https://img-proxy.imgfo.com/?referer=https://manganelo.com&url=https://s6.mkklcdnv6temp.com/mangakakalot/s2/sono_kuchibiru_itadakimasu/vol1_chapter_3_narabuna_kiken_the_danger_of_lining_up/42.jpg",
    "https://img-proxy.imgfo.com/?referer=https://manganelo.com&url=https://s6.mkklcdnv6temp.com/mangakakalot/s2/sono_kuchibiru_itadakimasu/vol1_chapter_3_narabuna_kiken_the_danger_of_lining_up/43.jpg",
    "https://img-proxy.imgfo.com/?referer=https://manganelo.com&url=https://s6.mkklcdnv6temp.com/mangakakalot/s2/sono_kuchibiru_itadakimasu/vol1_chapter_3_narabuna_kiken_the_danger_of_lining_up/44.jpg",
    "https://img-proxy.imgfo.com/?referer=https://manganelo.com&url=https://s6.mkklcdnv6temp.com/mangakakalot/s2/sono_kuchibiru_itadakimasu/vol1_chapter_3_narabuna_kiken_the_danger_of_lining_up/45.jpg",
    "https://img-proxy.imgfo.com/?referer=https://manganelo.com&url=https://s6.mkklcdnv6temp.com/mangakakalot/s2/sono_kuchibiru_itadakimasu/vol1_chapter_3_narabuna_kiken_the_danger_of_lining_up/46.jpg",
    "https://img-proxy.imgfo.com/?referer=https://manganelo.com&url=https://s6.mkklcdnv6temp.com/mangakakalot/s2/sono_kuchibiru_itadakimasu/vol1_chapter_3_narabuna_kiken_the_danger_of_lining_up/47.jpg",
    "https://img-proxy.imgfo.com/?referer=https://manganelo.com&url=https://s6.mkklcdnv6temp.com/mangakakalot/s2/sono_kuchibiru_itadakimasu/vol1_chapter_3_narabuna_kiken_the_danger_of_lining_up/48.jpg",
    "https://img-proxy.imgfo.com/?referer=https://manganelo.com&url=https://s6.mkklcdnv6temp.com/mangakakalot/s2/sono_kuchibiru_itadakimasu/vol1_chapter_3_narabuna_kiken_the_danger_of_lining_up/49.jpg",
    "https://img-proxy.imgfo.com/?referer=https://manganelo.com&url=https://s6.mkklcdnv6temp.com/mangakakalot/s2/sono_kuchibiru_itadakimasu/vol1_chapter_3_narabuna_kiken_the_danger_of_lining_up/50.jpg",
    "https://img-proxy.imgfo.com/?referer=https://manganelo.com&url=https://s6.mkklcdnv6temp.com/mangakakalot/s2/sono_kuchibiru_itadakimasu/vol1_chapter_3_narabuna_kiken_the_danger_of_lining_up/51.jpg",
    "https://img-proxy.imgfo.com/?referer=https://manganelo.com&url=https://s6.mkklcdnv6temp.com/mangakakalot/s2/sono_kuchibiru_itadakimasu/vol1_chapter_3_narabuna_kiken_the_danger_of_lining_up/52.jpg",
    "https://img-proxy.imgfo.com/?referer=https://manganelo.com&url=https://s6.mkklcdnv6temp.com/mangakakalot/s2/sono_kuchibiru_itadakimasu/vol1_chapter_3_narabuna_kiken_the_danger_of_lining_up/53.jpg",
    "https://img-proxy.imgfo.com/?referer=https://manganelo.com&url=https://s6.mkklcdnv6temp.com/mangakakalot/s2/sono_kuchibiru_itadakimasu/vol1_chapter_3_narabuna_kiken_the_danger_of_lining_up/54.jpg",
    "https://img-proxy.imgfo.com/?referer=https://manganelo.com&url=https://s6.mkklcdnv6temp.com/mangakakalot/s2/sono_kuchibiru_itadakimasu/vol1_chapter_3_narabuna_kiken_the_danger_of_lining_up/55.jpg",
    "https://img-proxy.imgfo.com/?referer=https://manganelo.com&url=https://s6.mkklcdnv6temp.com/mangakakalot/s2/sono_kuchibiru_itadakimasu/vol1_chapter_3_narabuna_kiken_the_danger_of_lining_up/56.jpg",
    "https://img-proxy.imgfo.com/?referer=https://manganelo.com&url=https://s6.mkklcdnv6temp.com/mangakakalot/s2/sono_kuchibiru_itadakimasu/vol1_chapter_3_narabuna_kiken_the_danger_of_lining_up/57.jpg",
    "https://img-proxy.imgfo.com/?referer=https://manganelo.com&url=https://s6.mkklcdnv6temp.com/mangakakalot/s2/sono_kuchibiru_itadakimasu/vol1_chapter_3_narabuna_kiken_the_danger_of_lining_up/58.jpg",
    "https://img-proxy.imgfo.com/?referer=https://manganelo.com&url=https://s6.mkklcdnv6temp.com/mangakakalot/s2/sono_kuchibiru_itadakimasu/vol1_chapter_3_narabuna_kiken_the_danger_of_lining_up/59.jpg",
    "https://img-proxy.imgfo.com/?referer=https://manganelo.com&url=https://s6.mkklcdnv6temp.com/mangakakalot/s2/sono_kuchibiru_itadakimasu/vol1_chapter_3_narabuna_kiken_the_danger_of_lining_up/60.jpg",
    "https://img-proxy.imgfo.com/?referer=https://manganelo.com&url=https://s6.mkklcdnv6temp.com/mangakakalot/s2/sono_kuchibiru_itadakimasu/vol1_chapter_3_narabuna_kiken_the_danger_of_lining_up/61.jpg",
    "https://img-proxy.imgfo.com/?referer=https://manganelo.com&url=https://s6.mkklcdnv6temp.com/mangakakalot/s2/sono_kuchibiru_itadakimasu/vol1_chapter_3_narabuna_kiken_the_danger_of_lining_up/62.jpg",
    "https://img-proxy.imgfo.com/?referer=https://manganelo.com&url=https://s6.mkklcdnv6temp.com/mangakakalot/s2/sono_kuchibiru_itadakimasu/vol1_chapter_3_narabuna_kiken_the_danger_of_lining_up/63.jpg",
    "https://img-proxy.imgfo.com/?referer=https://manganelo.com&url=https://s6.mkklcdnv6temp.com/mangakakalot/s2/sono_kuchibiru_itadakimasu/vol1_chapter_3_narabuna_kiken_the_danger_of_lining_up/64.jpg",
    "https://img-proxy.imgfo.com/?referer=https://manganelo.com&url=https://s6.mkklcdnv6temp.com/mangakakalot/s2/sono_kuchibiru_itadakimasu/vol1_chapter_3_narabuna_kiken_the_danger_of_lining_up/65.jpg"
  ]
}