{
  "cover": "https://avt.mkklcdnv6.com/15/h/5-1583472442.jpg",
  "title": "Kekkon Shiyou Yo",
  "original": "甜姐新嫁娘 ; 結婚しようよ (水上航) ; Kekkon Shiyouyo ; Kekkon Shou! ; Let's Get Married ; Let's Get Married!",
  "genre": "Comedy, Romance, School life, Shoujo, Manga",
  "author": "Mizukami Wataru",
  "status": "Completed",
  "backlink": "https://manganu.com/collections/mizukami-wataru/kekkon-shiyou-yo/",
  "description": "From Manga Art:\nTouko has always heard stories about her dead grandfather and his lover and wishes to one day find a love like theirs. However, this dream is suddenly crushed as her grandfather's lover appears and forces Touko to take on her two grandsons as fiancés!",
  "language": "English",
  "images": [
    "https://img-proxy.imgfo.com/?referer=https://manganelo.com&url=https://s6.mkklcdnv6temp.com/mangakakalot/k1/kekkon_shiyou_yo/vol3_chapter_12/1.jpg",
    "https://img-proxy.imgfo.com/?referer=https://manganelo.com&url=https://s6.mkklcdnv6temp.com/mangakakalot/k1/kekkon_shiyou_yo/vol3_chapter_12/2.jpg",
    "https://img-proxy.imgfo.com/?referer=https://manganelo.com&url=https://s6.mkklcdnv6temp.com/mangakakalot/k1/kekkon_shiyou_yo/vol3_chapter_12/3.jpg",
    "https://img-proxy.imgfo.com/?referer=https://manganelo.com&url=https://s6.mkklcdnv6temp.com/mangakakalot/k1/kekkon_shiyou_yo/vol3_chapter_12/4.jpg",
    "https://img-proxy.imgfo.com/?referer=https://manganelo.com&url=https://s6.mkklcdnv6temp.com/mangakakalot/k1/kekkon_shiyou_yo/vol3_chapter_12/5.jpg",
    "https://img-proxy.imgfo.com/?referer=https://manganelo.com&url=https://s6.mkklcdnv6temp.com/mangakakalot/k1/kekkon_shiyou_yo/vol3_chapter_12/6.jpg",
    "https://img-proxy.imgfo.com/?referer=https://manganelo.com&url=https://s6.mkklcdnv6temp.com/mangakakalot/k1/kekkon_shiyou_yo/vol3_chapter_12/7.jpg",
    "https://img-proxy.imgfo.com/?referer=https://manganelo.com&url=https://s6.mkklcdnv6temp.com/mangakakalot/k1/kekkon_shiyou_yo/vol3_chapter_12/8.jpg",
    "https://img-proxy.imgfo.com/?referer=https://manganelo.com&url=https://s6.mkklcdnv6temp.com/mangakakalot/k1/kekkon_shiyou_yo/vol3_chapter_12/9.jpg",
    "https://img-proxy.imgfo.com/?referer=https://manganelo.com&url=https://s6.mkklcdnv6temp.com/mangakakalot/k1/kekkon_shiyou_yo/vol3_chapter_12/10.jpg",
    "https://img-proxy.imgfo.com/?referer=https://manganelo.com&url=https://s6.mkklcdnv6temp.com/mangakakalot/k1/kekkon_shiyou_yo/vol3_chapter_12/11.jpg",
    "https://img-proxy.imgfo.com/?referer=https://manganelo.com&url=https://s6.mkklcdnv6temp.com/mangakakalot/k1/kekkon_shiyou_yo/vol3_chapter_12/12.jpg",
    "https://img-proxy.imgfo.com/?referer=https://manganelo.com&url=https://s6.mkklcdnv6temp.com/mangakakalot/k1/kekkon_shiyou_yo/vol3_chapter_12/13.jpg",
    "https://img-proxy.imgfo.com/?referer=https://manganelo.com&url=https://s6.mkklcdnv6temp.com/mangakakalot/k1/kekkon_shiyou_yo/vol3_chapter_12/14.jpg",
    "https://img-proxy.imgfo.com/?referer=https://manganelo.com&url=https://s6.mkklcdnv6temp.com/mangakakalot/k1/kekkon_shiyou_yo/vol3_chapter_12/15.jpg",
    "https://img-proxy.imgfo.com/?referer=https://manganelo.com&url=https://s6.mkklcdnv6temp.com/mangakakalot/k1/kekkon_shiyou_yo/vol3_chapter_12/16.jpg",
    "https://img-proxy.imgfo.com/?referer=https://manganelo.com&url=https://s6.mkklcdnv6temp.com/mangakakalot/k1/kekkon_shiyou_yo/vol3_chapter_12/17.jpg",
    "https://img-proxy.imgfo.com/?referer=https://manganelo.com&url=https://s6.mkklcdnv6temp.com/mangakakalot/k1/kekkon_shiyou_yo/vol3_chapter_12/18.jpg",
    "https://img-proxy.imgfo.com/?referer=https://manganelo.com&url=https://s6.mkklcdnv6temp.com/mangakakalot/k1/kekkon_shiyou_yo/vol3_chapter_12/19.jpg",
    "https://img-proxy.imgfo.com/?referer=https://manganelo.com&url=https://s6.mkklcdnv6temp.com/mangakakalot/k1/kekkon_shiyou_yo/vol3_chapter_12/20.jpg",
    "https://img-proxy.imgfo.com/?referer=https://manganelo.com&url=https://s6.mkklcdnv6temp.com/mangakakalot/k1/kekkon_shiyou_yo/vol3_chapter_12/21.jpg",
    "https://img-proxy.imgfo.com/?referer=https://manganelo.com&url=https://s6.mkklcdnv6temp.com/mangakakalot/k1/kekkon_shiyou_yo/vol3_chapter_12/22.jpg",
    "https://img-proxy.imgfo.com/?referer=https://manganelo.com&url=https://s6.mkklcdnv6temp.com/mangakakalot/k1/kekkon_shiyou_yo/vol3_chapter_12/23.jpg",
    "https://img-proxy.imgfo.com/?referer=https://manganelo.com&url=https://s6.mkklcdnv6temp.com/mangakakalot/k1/kekkon_shiyou_yo/vol3_chapter_12/24.jpg",
    "https://img-proxy.imgfo.com/?referer=https://manganelo.com&url=https://s6.mkklcdnv6temp.com/mangakakalot/k1/kekkon_shiyou_yo/vol3_chapter_12/25.jpg",
    "https://img-proxy.imgfo.com/?referer=https://manganelo.com&url=https://s6.mkklcdnv6temp.com/mangakakalot/k1/kekkon_shiyou_yo/vol3_chapter_12/26.jpg",
    "https://img-proxy.imgfo.com/?referer=https://manganelo.com&url=https://s6.mkklcdnv6temp.com/mangakakalot/k1/kekkon_shiyou_yo/vol3_chapter_12/27.jpg",
    "https://img-proxy.imgfo.com/?referer=https://manganelo.com&url=https://s6.mkklcdnv6temp.com/mangakakalot/k1/kekkon_shiyou_yo/vol3_chapter_12/28.jpg",
    "https://img-proxy.imgfo.com/?referer=https://manganelo.com&url=https://s6.mkklcdnv6temp.com/mangakakalot/k1/kekkon_shiyou_yo/vol3_chapter_12/29.jpg",
    "https://img-proxy.imgfo.com/?referer=https://manganelo.com&url=https://s6.mkklcdnv6temp.com/mangakakalot/k1/kekkon_shiyou_yo/vol3_chapter_12/30.jpg",
    "https://img-proxy.imgfo.com/?referer=https://manganelo.com&url=https://s6.mkklcdnv6temp.com/mangakakalot/k1/kekkon_shiyou_yo/vol3_chapter_12/31.jpg",
    "https://img-proxy.imgfo.com/?referer=https://manganelo.com&url=https://s6.mkklcdnv6temp.com/mangakakalot/k1/kekkon_shiyou_yo/vol3_chapter_12/32.jpg",
    "https://img-proxy.imgfo.com/?referer=https://manganelo.com&url=https://s6.mkklcdnv6temp.com/mangakakalot/k1/kekkon_shiyou_yo/vol3_chapter_12/33.jpg",
    "https://img-proxy.imgfo.com/?referer=https://manganelo.com&url=https://s6.mkklcdnv6temp.com/mangakakalot/k1/kekkon_shiyou_yo/vol3_chapter_12/34.jpg"
  ]
}