{
  "cover": "https://avt.mkklcdnv6.com/36/c/4-1583471170.jpg",
  "title": "Oyasumi Punpun",
  "original": "おやすみプンプン ; طابت ليلتك پُنپُن (Arabic) ; 晚安布布 ; 잘자 뿡뿡 ; Boa noite, Punpun (Portuguese) ; Bona nit, Punpun (Catalan) ; Bonne nuit Punpun! (French) ; Buenas noches, Punpun (Spanish) ; Good Night Pung Pung ; Goodnight Punpun ; Gute Nacht, Punpun (German) ; Oyasumi Pung Pung ; Selamat Malam Punpun (Malay)",
  "genre": "Action, Adult, Comedy, Drama, Psychological, Seinen, Slice of life, Manga",
  "author": "Asano Inio",
  "status": "Completed",
  "backlink": "https://manganu.com/collections/asano-inio/oyasumi-punpun/",
  "description": "Witness the titular Punpun - who is depicted as a tiny, caricatured bird in an otherwise normal human setting - as he copes with his dysfunctional family and friends, his love interest, his oncoming adolescence and his hyperactive mind.",
  "language": "English",
  "images": [
    "https://img-proxy.imgfo.com/?referer=https://manganelo.com&url=https://s5.mkklcdnv6temp.com/mangakakalot/o2/oyasumi_punpun/vol11_chapter_112/1.jpg",
    "https://img-proxy.imgfo.com/?referer=https://manganelo.com&url=https://s5.mkklcdnv6temp.com/mangakakalot/o2/oyasumi_punpun/vol11_chapter_112/2.jpg",
    "https://img-proxy.imgfo.com/?referer=https://manganelo.com&url=https://s5.mkklcdnv6temp.com/mangakakalot/o2/oyasumi_punpun/vol11_chapter_112/3.jpg",
    "https://img-proxy.imgfo.com/?referer=https://manganelo.com&url=https://s5.mkklcdnv6temp.com/mangakakalot/o2/oyasumi_punpun/vol11_chapter_112/4.jpg",
    "https://img-proxy.imgfo.com/?referer=https://manganelo.com&url=https://s5.mkklcdnv6temp.com/mangakakalot/o2/oyasumi_punpun/vol11_chapter_112/5.jpg",
    "https://img-proxy.imgfo.com/?referer=https://manganelo.com&url=https://s5.mkklcdnv6temp.com/mangakakalot/o2/oyasumi_punpun/vol11_chapter_112/6.jpg",
    "https://img-proxy.imgfo.com/?referer=https://manganelo.com&url=https://s5.mkklcdnv6temp.com/mangakakalot/o2/oyasumi_punpun/vol11_chapter_112/7.jpg",
    "https://img-proxy.imgfo.com/?referer=https://manganelo.com&url=https://s5.mkklcdnv6temp.com/mangakakalot/o2/oyasumi_punpun/vol11_chapter_112/8.jpg",
    "https://img-proxy.imgfo.com/?referer=https://manganelo.com&url=https://s5.mkklcdnv6temp.com/mangakakalot/o2/oyasumi_punpun/vol11_chapter_112/9.jpg",
    "https://img-proxy.imgfo.com/?referer=https://manganelo.com&url=https://s5.mkklcdnv6temp.com/mangakakalot/o2/oyasumi_punpun/vol11_chapter_112/10.jpg",
    "https://img-proxy.imgfo.com/?referer=https://manganelo.com&url=https://s5.mkklcdnv6temp.com/mangakakalot/o2/oyasumi_punpun/vol11_chapter_112/11.jpg",
    "https://img-proxy.imgfo.com/?referer=https://manganelo.com&url=https://s5.mkklcdnv6temp.com/mangakakalot/o2/oyasumi_punpun/vol11_chapter_112/12.jpg",
    "https://img-proxy.imgfo.com/?referer=https://manganelo.com&url=https://s5.mkklcdnv6temp.com/mangakakalot/o2/oyasumi_punpun/vol11_chapter_112/13.jpg",
    "https://img-proxy.imgfo.com/?referer=https://manganelo.com&url=https://s5.mkklcdnv6temp.com/mangakakalot/o2/oyasumi_punpun/vol11_chapter_112/14.jpg",
    "https://img-proxy.imgfo.com/?referer=https://manganelo.com&url=https://s5.mkklcdnv6temp.com/mangakakalot/o2/oyasumi_punpun/vol11_chapter_112/15.jpg",
    "https://img-proxy.imgfo.com/?referer=https://manganelo.com&url=https://s5.mkklcdnv6temp.com/mangakakalot/o2/oyasumi_punpun/vol11_chapter_112/16.jpg",
    "https://img-proxy.imgfo.com/?referer=https://manganelo.com&url=https://s5.mkklcdnv6temp.com/mangakakalot/o2/oyasumi_punpun/vol11_chapter_112/17.jpg",
    "https://img-proxy.imgfo.com/?referer=https://manganelo.com&url=https://s5.mkklcdnv6temp.com/mangakakalot/o2/oyasumi_punpun/vol11_chapter_112/18.jpg"
  ]
}