{
  "cover": "https://avt.mkklcdnv6.com/39/d/10-1583483587.jpg",
  "title": "Makimodoshi No Koi No Uta",
  "original": "まきもどしの恋の詩 ; 爱情倒带 ; Maki Modoshi no Koi no Uta ; Puisi Cinta Lalu",
  "genre": "Drama, Romance, School life, Shoujo, Manga",
  "author": "Nanajima Kana",
  "status": "Completed",
  "backlink": "https://manganu.com/collections/nanajima-kana/makimodoshi-no-koi-no-uta/",
  "description": "Fateful Encounters:\nMinoru is Riko's first boyfriend and first love, but to Minoru, Riko is his second girlfriend. Even worse, it seems that Minoru still cares an awful lot about his ex, whose sister actually goes to the same school as Riko and Minoru. Then one day the pretty boy of the school, Sakashita, shows he's interested in Riko by kissing her on the lips! Can things get any more complicated?",
  "language": "English",
  "images": [
    "https://img-proxy.imgfo.com/?referer=https://manganelo.com&url=https://s3.mkklcdnv6temp.com/mangakakalot/m1/makimodoshi_no_koi_no_uta/vol1_chapter_5_the_spinning_of_love_the_conference_room_for_the_date/1.jpg",
    "https://img-proxy.imgfo.com/?referer=https://manganelo.com&url=https://s3.mkklcdnv6temp.com/mangakakalot/m1/makimodoshi_no_koi_no_uta/vol1_chapter_5_the_spinning_of_love_the_conference_room_for_the_date/2.jpg",
    "https://img-proxy.imgfo.com/?referer=https://manganelo.com&url=https://s3.mkklcdnv6temp.com/mangakakalot/m1/makimodoshi_no_koi_no_uta/vol1_chapter_5_the_spinning_of_love_the_conference_room_for_the_date/3.jpg",
    "https://img-proxy.imgfo.com/?referer=https://manganelo.com&url=https://s3.mkklcdnv6temp.com/mangakakalot/m1/makimodoshi_no_koi_no_uta/vol1_chapter_5_the_spinning_of_love_the_conference_room_for_the_date/4.jpg",
    "https://img-proxy.imgfo.com/?referer=https://manganelo.com&url=https://s3.mkklcdnv6temp.com/mangakakalot/m1/makimodoshi_no_koi_no_uta/vol1_chapter_5_the_spinning_of_love_the_conference_room_for_the_date/5.jpg",
    "https://img-proxy.imgfo.com/?referer=https://manganelo.com&url=https://s3.mkklcdnv6temp.com/mangakakalot/m1/makimodoshi_no_koi_no_uta/vol1_chapter_5_the_spinning_of_love_the_conference_room_for_the_date/6.jpg",
    "https://img-proxy.imgfo.com/?referer=https://manganelo.com&url=https://s3.mkklcdnv6temp.com/mangakakalot/m1/makimodoshi_no_koi_no_uta/vol1_chapter_5_the_spinning_of_love_the_conference_room_for_the_date/7.jpg",
    "https://img-proxy.imgfo.com/?referer=https://manganelo.com&url=https://s3.mkklcdnv6temp.com/mangakakalot/m1/makimodoshi_no_koi_no_uta/vol1_chapter_5_the_spinning_of_love_the_conference_room_for_the_date/8.jpg",
    "https://img-proxy.imgfo.com/?referer=https://manganelo.com&url=https://s3.mkklcdnv6temp.com/mangakakalot/m1/makimodoshi_no_koi_no_uta/vol1_chapter_5_the_spinning_of_love_the_conference_room_for_the_date/9.jpg",
    "https://img-proxy.imgfo.com/?referer=https://manganelo.com&url=https://s3.mkklcdnv6temp.com/mangakakalot/m1/makimodoshi_no_koi_no_uta/vol1_chapter_5_the_spinning_of_love_the_conference_room_for_the_date/10.jpg",
    "https://img-proxy.imgfo.com/?referer=https://manganelo.com&url=https://s3.mkklcdnv6temp.com/mangakakalot/m1/makimodoshi_no_koi_no_uta/vol1_chapter_5_the_spinning_of_love_the_conference_room_for_the_date/11.jpg",
    "https://img-proxy.imgfo.com/?referer=https://manganelo.com&url=https://s3.mkklcdnv6temp.com/mangakakalot/m1/makimodoshi_no_koi_no_uta/vol1_chapter_5_the_spinning_of_love_the_conference_room_for_the_date/12.jpg",
    "https://img-proxy.imgfo.com/?referer=https://manganelo.com&url=https://s3.mkklcdnv6temp.com/mangakakalot/m1/makimodoshi_no_koi_no_uta/vol1_chapter_5_the_spinning_of_love_the_conference_room_for_the_date/13.jpg",
    "https://img-proxy.imgfo.com/?referer=https://manganelo.com&url=https://s3.mkklcdnv6temp.com/mangakakalot/m1/makimodoshi_no_koi_no_uta/vol1_chapter_5_the_spinning_of_love_the_conference_room_for_the_date/14.jpg",
    "https://img-proxy.imgfo.com/?referer=https://manganelo.com&url=https://s3.mkklcdnv6temp.com/mangakakalot/m1/makimodoshi_no_koi_no_uta/vol1_chapter_5_the_spinning_of_love_the_conference_room_for_the_date/15.jpg",
    "https://img-proxy.imgfo.com/?referer=https://manganelo.com&url=https://s3.mkklcdnv6temp.com/mangakakalot/m1/makimodoshi_no_koi_no_uta/vol1_chapter_5_the_spinning_of_love_the_conference_room_for_the_date/16.jpg",
    "https://img-proxy.imgfo.com/?referer=https://manganelo.com&url=https://s3.mkklcdnv6temp.com/mangakakalot/m1/makimodoshi_no_koi_no_uta/vol1_chapter_5_the_spinning_of_love_the_conference_room_for_the_date/17.jpg"
  ]
}