{
  "cover": "https://avt.mkklcdnv6.com/4/e/6-1583474257.jpg",
  "title": "Senpai To Douseichuu",
  "original": "先輩と同棲中 ; Senpai to Dousei Chuu",
  "genre": "Oneshot, Romance, Shoujo, Manga",
  "author": "Asano Minako",
  "status": "Completed",
  "backlink": "https://manganu.com/collections/asano-minako/senpai-to-douseichuu/",
  "description": "A story about a girl that's living with the guy of her dreams, clichéd manga",
  "language": "English",
  "images": [
    "https://img-proxy.imgfo.com/?referer=https://manganelo.com&url=https://s41.mkklcdnv6temp.com/mangakakalot/s1/senpai_to_douseichuu/vol01_chapter_4_vol_01/1.jpg",
    "https://img-proxy.imgfo.com/?referer=https://manganelo.com&url=https://s41.mkklcdnv6temp.com/mangakakalot/s1/senpai_to_douseichuu/vol01_chapter_4_vol_01/2.jpg",
    "https://img-proxy.imgfo.com/?referer=https://manganelo.com&url=https://s41.mkklcdnv6temp.com/mangakakalot/s1/senpai_to_douseichuu/vol01_chapter_4_vol_01/3.jpg",
    "https://img-proxy.imgfo.com/?referer=https://manganelo.com&url=https://s41.mkklcdnv6temp.com/mangakakalot/s1/senpai_to_douseichuu/vol01_chapter_4_vol_01/4.jpg",
    "https://img-proxy.imgfo.com/?referer=https://manganelo.com&url=https://s41.mkklcdnv6temp.com/mangakakalot/s1/senpai_to_douseichuu/vol01_chapter_4_vol_01/5.jpg",
    "https://img-proxy.imgfo.com/?referer=https://manganelo.com&url=https://s41.mkklcdnv6temp.com/mangakakalot/s1/senpai_to_douseichuu/vol01_chapter_4_vol_01/6.jpg",
    "https://img-proxy.imgfo.com/?referer=https://manganelo.com&url=https://s41.mkklcdnv6temp.com/mangakakalot/s1/senpai_to_douseichuu/vol01_chapter_4_vol_01/7.jpg",
    "https://img-proxy.imgfo.com/?referer=https://manganelo.com&url=https://s41.mkklcdnv6temp.com/mangakakalot/s1/senpai_to_douseichuu/vol01_chapter_4_vol_01/8.jpg",
    "https://img-proxy.imgfo.com/?referer=https://manganelo.com&url=https://s41.mkklcdnv6temp.com/mangakakalot/s1/senpai_to_douseichuu/vol01_chapter_4_vol_01/9.jpg",
    "https://img-proxy.imgfo.com/?referer=https://manganelo.com&url=https://s41.mkklcdnv6temp.com/mangakakalot/s1/senpai_to_douseichuu/vol01_chapter_4_vol_01/10.jpg",
    "https://img-proxy.imgfo.com/?referer=https://manganelo.com&url=https://s41.mkklcdnv6temp.com/mangakakalot/s1/senpai_to_douseichuu/vol01_chapter_4_vol_01/11.jpg",
    "https://img-proxy.imgfo.com/?referer=https://manganelo.com&url=https://s41.mkklcdnv6temp.com/mangakakalot/s1/senpai_to_douseichuu/vol01_chapter_4_vol_01/12.jpg",
    "https://img-proxy.imgfo.com/?referer=https://manganelo.com&url=https://s41.mkklcdnv6temp.com/mangakakalot/s1/senpai_to_douseichuu/vol01_chapter_4_vol_01/13.jpg",
    "https://img-proxy.imgfo.com/?referer=https://manganelo.com&url=https://s41.mkklcdnv6temp.com/mangakakalot/s1/senpai_to_douseichuu/vol01_chapter_4_vol_01/14.jpg",
    "https://img-proxy.imgfo.com/?referer=https://manganelo.com&url=https://s41.mkklcdnv6temp.com/mangakakalot/s1/senpai_to_douseichuu/vol01_chapter_4_vol_01/15.jpg",
    "https://img-proxy.imgfo.com/?referer=https://manganelo.com&url=https://s41.mkklcdnv6temp.com/mangakakalot/s1/senpai_to_douseichuu/vol01_chapter_4_vol_01/16.jpg",
    "https://img-proxy.imgfo.com/?referer=https://manganelo.com&url=https://s41.mkklcdnv6temp.com/mangakakalot/s1/senpai_to_douseichuu/vol01_chapter_4_vol_01/17.jpg"
  ]
}