{
  "cover": "https://avt.mkklcdnv6.com/35/z/8-1583479547.jpg",
  "title": "Suzuka",
  "original": "與す (Japanese); 凉风; 涼風 (Chinese); 러브 메이트 (Korean);Love Mate (English); Suzukaze; ลุ้นรักตามสายลม (Thai)",
  "genre": "Comedy, Drama, Ecchi, Romance, School life, Shounen, Sports, Manga",
  "author": "Seo Kouji",
  "status": "Completed",
  "backlink": "https://manganu.com/collections/seo-kouji/suzuka/",
  "description": "From Del Rey: Yamato is ready for a fresh start. So when his aunt invites him to stay rent-free in her big-city boarding house in hustling, bustling Tokyo, Yamato jumps at the chance. There&#39;s just one teensy-weensy catch: It&#39;s an all-girl housing complex and spa! Things get even more nerve-racking when Yamato meets his neighbor Suzuka, a beautiful track-and-field star. She&#39;s not just the cutest girl Yamato&#39;s ever met, she&#39;s also the coolest, the smartest, and the most intimidating. Can an ordinary guy like Yamato ever hope to win over a girl like Suzuka?",
  "language": "English",
  "images": [
    "https://img-proxy.imgfo.com/?referer=https://manganelo.com&url=https://s7.mkklcdnv6temp.com/mangakakalot/s2/suzuka/vol17_chapter_150_planning/1.jpg",
    "https://img-proxy.imgfo.com/?referer=https://manganelo.com&url=https://s7.mkklcdnv6temp.com/mangakakalot/s2/suzuka/vol17_chapter_150_planning/2.jpg",
    "https://img-proxy.imgfo.com/?referer=https://manganelo.com&url=https://s7.mkklcdnv6temp.com/mangakakalot/s2/suzuka/vol17_chapter_150_planning/3.jpg",
    "https://img-proxy.imgfo.com/?referer=https://manganelo.com&url=https://s7.mkklcdnv6temp.com/mangakakalot/s2/suzuka/vol17_chapter_150_planning/4.jpg",
    "https://img-proxy.imgfo.com/?referer=https://manganelo.com&url=https://s7.mkklcdnv6temp.com/mangakakalot/s2/suzuka/vol17_chapter_150_planning/5.jpg",
    "https://img-proxy.imgfo.com/?referer=https://manganelo.com&url=https://s7.mkklcdnv6temp.com/mangakakalot/s2/suzuka/vol17_chapter_150_planning/6.jpg",
    "https://img-proxy.imgfo.com/?referer=https://manganelo.com&url=https://s7.mkklcdnv6temp.com/mangakakalot/s2/suzuka/vol17_chapter_150_planning/7.jpg",
    "https://img-proxy.imgfo.com/?referer=https://manganelo.com&url=https://s7.mkklcdnv6temp.com/mangakakalot/s2/suzuka/vol17_chapter_150_planning/8.jpg",
    "https://img-proxy.imgfo.com/?referer=https://manganelo.com&url=https://s7.mkklcdnv6temp.com/mangakakalot/s2/suzuka/vol17_chapter_150_planning/9.jpg",
    "https://img-proxy.imgfo.com/?referer=https://manganelo.com&url=https://s7.mkklcdnv6temp.com/mangakakalot/s2/suzuka/vol17_chapter_150_planning/10.jpg",
    "https://img-proxy.imgfo.com/?referer=https://manganelo.com&url=https://s7.mkklcdnv6temp.com/mangakakalot/s2/suzuka/vol17_chapter_150_planning/11.jpg",
    "https://img-proxy.imgfo.com/?referer=https://manganelo.com&url=https://s7.mkklcdnv6temp.com/mangakakalot/s2/suzuka/vol17_chapter_150_planning/12.jpg",
    "https://img-proxy.imgfo.com/?referer=https://manganelo.com&url=https://s7.mkklcdnv6temp.com/mangakakalot/s2/suzuka/vol17_chapter_150_planning/13.jpg",
    "https://img-proxy.imgfo.com/?referer=https://manganelo.com&url=https://s7.mkklcdnv6temp.com/mangakakalot/s2/suzuka/vol17_chapter_150_planning/14.jpg",
    "https://img-proxy.imgfo.com/?referer=https://manganelo.com&url=https://s7.mkklcdnv6temp.com/mangakakalot/s2/suzuka/vol17_chapter_150_planning/15.jpg",
    "https://img-proxy.imgfo.com/?referer=https://manganelo.com&url=https://s7.mkklcdnv6temp.com/mangakakalot/s2/suzuka/vol17_chapter_150_planning/16.jpg",
    "https://img-proxy.imgfo.com/?referer=https://manganelo.com&url=https://s7.mkklcdnv6temp.com/mangakakalot/s2/suzuka/vol17_chapter_150_planning/17.jpg",
    "https://img-proxy.imgfo.com/?referer=https://manganelo.com&url=https://s7.mkklcdnv6temp.com/mangakakalot/s2/suzuka/vol17_chapter_150_planning/18.jpg",
    "https://img-proxy.imgfo.com/?referer=https://manganelo.com&url=https://s7.mkklcdnv6temp.com/mangakakalot/s2/suzuka/vol17_chapter_150_planning/19.jpg",
    "https://img-proxy.imgfo.com/?referer=https://manganelo.com&url=https://s7.mkklcdnv6temp.com/mangakakalot/s2/suzuka/vol17_chapter_150_planning/20.jpg",
    "https://img-proxy.imgfo.com/?referer=https://manganelo.com&url=https://s7.mkklcdnv6temp.com/mangakakalot/s2/suzuka/vol17_chapter_150_planning/21.jpg",
    "https://img-proxy.imgfo.com/?referer=https://manganelo.com&url=https://s7.mkklcdnv6temp.com/mangakakalot/s2/suzuka/vol17_chapter_150_planning/22.jpg"
  ]
}