{
  "cover": "https://avt.mkklcdnv6.com/28/o/10-1583483201.jpg",
  "title": "Phantom Wizard",
  "original": "ファントムウィザード",
  "genre": "Action, Adventure, Fantasy, Shounen, Tragedy, Manga",
  "author": "Ohmori Aoi",
  "status": "Completed",
  "backlink": "https://manganu.com/collections/ohmori-aoi/phantom-wizard/",
  "description": "In an age of chaos, the four governing spirits of wind, water, fire, and earth reigned. There were those who could harness that power to cast spells, and there were a few who were blessed with the ability to hear the spirits’ voices, and those people were endowed with the ability to control the “Darkness Rage”, “Luciffis” . . .\nTwins, Rudius and Mattie, are on the run, trying to escape the Spell-Caster Monks, who are trying to capture them to take the Luciffis. When the two are separated, Mattie turns to a fortune teller named Kishiru Mishuru to enlist her help in locating her missing brother, and that’s where the story begins . . .",
  "language": "English",
  "images": [
    "https://img-proxy.imgfo.com/?referer=https://manganelo.com&url=https://s41.mkklcdnv6temp.com/mangakakalot/p1/phantom_wizard/vol3_chapter_15_go_to_the_battlefield/1.jpg",
    "https://img-proxy.imgfo.com/?referer=https://manganelo.com&url=https://s41.mkklcdnv6temp.com/mangakakalot/p1/phantom_wizard/vol3_chapter_15_go_to_the_battlefield/2.jpg",
    "https://img-proxy.imgfo.com/?referer=https://manganelo.com&url=https://s41.mkklcdnv6temp.com/mangakakalot/p1/phantom_wizard/vol3_chapter_15_go_to_the_battlefield/3.jpg",
    "https://img-proxy.imgfo.com/?referer=https://manganelo.com&url=https://s41.mkklcdnv6temp.com/mangakakalot/p1/phantom_wizard/vol3_chapter_15_go_to_the_battlefield/4.jpg",
    "https://img-proxy.imgfo.com/?referer=https://manganelo.com&url=https://s41.mkklcdnv6temp.com/mangakakalot/p1/phantom_wizard/vol3_chapter_15_go_to_the_battlefield/5.jpg",
    "https://img-proxy.imgfo.com/?referer=https://manganelo.com&url=https://s41.mkklcdnv6temp.com/mangakakalot/p1/phantom_wizard/vol3_chapter_15_go_to_the_battlefield/6.jpg",
    "https://img-proxy.imgfo.com/?referer=https://manganelo.com&url=https://s41.mkklcdnv6temp.com/mangakakalot/p1/phantom_wizard/vol3_chapter_15_go_to_the_battlefield/7.jpg",
    "https://img-proxy.imgfo.com/?referer=https://manganelo.com&url=https://s41.mkklcdnv6temp.com/mangakakalot/p1/phantom_wizard/vol3_chapter_15_go_to_the_battlefield/8.jpg",
    "https://img-proxy.imgfo.com/?referer=https://manganelo.com&url=https://s41.mkklcdnv6temp.com/mangakakalot/p1/phantom_wizard/vol3_chapter_15_go_to_the_battlefield/9.jpg",
    "https://img-proxy.imgfo.com/?referer=https://manganelo.com&url=https://s41.mkklcdnv6temp.com/mangakakalot/p1/phantom_wizard/vol3_chapter_15_go_to_the_battlefield/10.jpg",
    "https://img-proxy.imgfo.com/?referer=https://manganelo.com&url=https://s41.mkklcdnv6temp.com/mangakakalot/p1/phantom_wizard/vol3_chapter_15_go_to_the_battlefield/11.jpg",
    "https://img-proxy.imgfo.com/?referer=https://manganelo.com&url=https://s41.mkklcdnv6temp.com/mangakakalot/p1/phantom_wizard/vol3_chapter_15_go_to_the_battlefield/12.jpg",
    "https://img-proxy.imgfo.com/?referer=https://manganelo.com&url=https://s41.mkklcdnv6temp.com/mangakakalot/p1/phantom_wizard/vol3_chapter_15_go_to_the_battlefield/13.jpg",
    "https://img-proxy.imgfo.com/?referer=https://manganelo.com&url=https://s41.mkklcdnv6temp.com/mangakakalot/p1/phantom_wizard/vol3_chapter_15_go_to_the_battlefield/14.jpg",
    "https://img-proxy.imgfo.com/?referer=https://manganelo.com&url=https://s41.mkklcdnv6temp.com/mangakakalot/p1/phantom_wizard/vol3_chapter_15_go_to_the_battlefield/15.jpg",
    "https://img-proxy.imgfo.com/?referer=https://manganelo.com&url=https://s41.mkklcdnv6temp.com/mangakakalot/p1/phantom_wizard/vol3_chapter_15_go_to_the_battlefield/16.jpg",
    "https://img-proxy.imgfo.com/?referer=https://manganelo.com&url=https://s41.mkklcdnv6temp.com/mangakakalot/p1/phantom_wizard/vol3_chapter_15_go_to_the_battlefield/17.jpg",
    "https://img-proxy.imgfo.com/?referer=https://manganelo.com&url=https://s41.mkklcdnv6temp.com/mangakakalot/p1/phantom_wizard/vol3_chapter_15_go_to_the_battlefield/18.jpg",
    "https://img-proxy.imgfo.com/?referer=https://manganelo.com&url=https://s41.mkklcdnv6temp.com/mangakakalot/p1/phantom_wizard/vol3_chapter_15_go_to_the_battlefield/19.jpg"
  ]
}