{
  "cover": "https://avt.mkklcdnv6.com/43/x/3-1583469398.jpg",
  "title": "Fukurou-Kun To Kare",
  "original": "ふくろうくんとカレ ; Fukuro-kun to Kare ; Fukuroh-kun to Kare ; Mr. Fukuro and his boyfriend.",
  "genre": "Comedy, Sports, Yaoi, Manga",
  "author": "Yamamoto Kotetsuko",
  "status": "Completed",
  "backlink": "https://manganu.com/collections/yamamoto-kotetsuko/fukurou-kun-to-kare/",
  "description": "This spring, Tokyo TV’s newly employed announcer Fukuro was given the task to gather information & do a close report on the infamous hunk of the professional baseball world; Shiratori Reiichi. Given this important opportunity Fukuro is determined to do his best! However, the following morning he wakes up to a stark naked Shiratori sleeping beside him, trouble ensues!\nThe demanding and selfish Shiratori with the hard working and Timid Fukuro! Watch as their love story unfolds.",
  "language": "English",
  "images": [
    "https://img-proxy.imgfo.com/?referer=https://manganelo.com&url=https://s5.mkklcdnv6temp.com/mangakakalot/f2/fukuroukun_to_kare/vol1_chapter_1_the_man_called_shiratori_reiichi/1.jpg",
    "https://img-proxy.imgfo.com/?referer=https://manganelo.com&url=https://s5.mkklcdnv6temp.com/mangakakalot/f2/fukuroukun_to_kare/vol1_chapter_1_the_man_called_shiratori_reiichi/2.jpg",
    "https://img-proxy.imgfo.com/?referer=https://manganelo.com&url=https://s5.mkklcdnv6temp.com/mangakakalot/f2/fukuroukun_to_kare/vol1_chapter_1_the_man_called_shiratori_reiichi/3.jpg",
    "https://img-proxy.imgfo.com/?referer=https://manganelo.com&url=https://s5.mkklcdnv6temp.com/mangakakalot/f2/fukuroukun_to_kare/vol1_chapter_1_the_man_called_shiratori_reiichi/4.jpg",
    "https://img-proxy.imgfo.com/?referer=https://manganelo.com&url=https://s5.mkklcdnv6temp.com/mangakakalot/f2/fukuroukun_to_kare/vol1_chapter_1_the_man_called_shiratori_reiichi/5.jpg",
    "https://img-proxy.imgfo.com/?referer=https://manganelo.com&url=https://s5.mkklcdnv6temp.com/mangakakalot/f2/fukuroukun_to_kare/vol1_chapter_1_the_man_called_shiratori_reiichi/6.jpg",
    "https://img-proxy.imgfo.com/?referer=https://manganelo.com&url=https://s5.mkklcdnv6temp.com/mangakakalot/f2/fukuroukun_to_kare/vol1_chapter_1_the_man_called_shiratori_reiichi/7.jpg",
    "https://img-proxy.imgfo.com/?referer=https://manganelo.com&url=https://s5.mkklcdnv6temp.com/mangakakalot/f2/fukuroukun_to_kare/vol1_chapter_1_the_man_called_shiratori_reiichi/8.jpg",
    "https://img-proxy.imgfo.com/?referer=https://manganelo.com&url=https://s5.mkklcdnv6temp.com/mangakakalot/f2/fukuroukun_to_kare/vol1_chapter_1_the_man_called_shiratori_reiichi/9.jpg",
    "https://img-proxy.imgfo.com/?referer=https://manganelo.com&url=https://s5.mkklcdnv6temp.com/mangakakalot/f2/fukuroukun_to_kare/vol1_chapter_1_the_man_called_shiratori_reiichi/10.jpg",
    "https://img-proxy.imgfo.com/?referer=https://manganelo.com&url=https://s5.mkklcdnv6temp.com/mangakakalot/f2/fukuroukun_to_kare/vol1_chapter_1_the_man_called_shiratori_reiichi/11.jpg",
    "https://img-proxy.imgfo.com/?referer=https://manganelo.com&url=https://s5.mkklcdnv6temp.com/mangakakalot/f2/fukuroukun_to_kare/vol1_chapter_1_the_man_called_shiratori_reiichi/12.jpg",
    "https://img-proxy.imgfo.com/?referer=https://manganelo.com&url=https://s5.mkklcdnv6temp.com/mangakakalot/f2/fukuroukun_to_kare/vol1_chapter_1_the_man_called_shiratori_reiichi/13.jpg",
    "https://img-proxy.imgfo.com/?referer=https://manganelo.com&url=https://s5.mkklcdnv6temp.com/mangakakalot/f2/fukuroukun_to_kare/vol1_chapter_1_the_man_called_shiratori_reiichi/14.jpg",
    "https://img-proxy.imgfo.com/?referer=https://manganelo.com&url=https://s5.mkklcdnv6temp.com/mangakakalot/f2/fukuroukun_to_kare/vol1_chapter_1_the_man_called_shiratori_reiichi/15.jpg",
    "https://img-proxy.imgfo.com/?referer=https://manganelo.com&url=https://s5.mkklcdnv6temp.com/mangakakalot/f2/fukuroukun_to_kare/vol1_chapter_1_the_man_called_shiratori_reiichi/16.jpg",
    "https://img-proxy.imgfo.com/?referer=https://manganelo.com&url=https://s5.mkklcdnv6temp.com/mangakakalot/f2/fukuroukun_to_kare/vol1_chapter_1_the_man_called_shiratori_reiichi/17.jpg",
    "https://img-proxy.imgfo.com/?referer=https://manganelo.com&url=https://s5.mkklcdnv6temp.com/mangakakalot/f2/fukuroukun_to_kare/vol1_chapter_1_the_man_called_shiratori_reiichi/18.jpg",
    "https://img-proxy.imgfo.com/?referer=https://manganelo.com&url=https://s5.mkklcdnv6temp.com/mangakakalot/f2/fukuroukun_to_kare/vol1_chapter_1_the_man_called_shiratori_reiichi/19.jpg",
    "https://img-proxy.imgfo.com/?referer=https://manganelo.com&url=https://s5.mkklcdnv6temp.com/mangakakalot/f2/fukuroukun_to_kare/vol1_chapter_1_the_man_called_shiratori_reiichi/20.jpg",
    "https://img-proxy.imgfo.com/?referer=https://manganelo.com&url=https://s5.mkklcdnv6temp.com/mangakakalot/f2/fukuroukun_to_kare/vol1_chapter_1_the_man_called_shiratori_reiichi/21.jpg",
    "https://img-proxy.imgfo.com/?referer=https://manganelo.com&url=https://s5.mkklcdnv6temp.com/mangakakalot/f2/fukuroukun_to_kare/vol1_chapter_1_the_man_called_shiratori_reiichi/22.jpg",
    "https://img-proxy.imgfo.com/?referer=https://manganelo.com&url=https://s5.mkklcdnv6temp.com/mangakakalot/f2/fukuroukun_to_kare/vol1_chapter_1_the_man_called_shiratori_reiichi/23.jpg",
    "https://img-proxy.imgfo.com/?referer=https://manganelo.com&url=https://s5.mkklcdnv6temp.com/mangakakalot/f2/fukuroukun_to_kare/vol1_chapter_1_the_man_called_shiratori_reiichi/24.jpg",
    "https://img-proxy.imgfo.com/?referer=https://manganelo.com&url=https://s5.mkklcdnv6temp.com/mangakakalot/f2/fukuroukun_to_kare/vol1_chapter_1_the_man_called_shiratori_reiichi/25.jpg",
    "https://img-proxy.imgfo.com/?referer=https://manganelo.com&url=https://s5.mkklcdnv6temp.com/mangakakalot/f2/fukuroukun_to_kare/vol1_chapter_1_the_man_called_shiratori_reiichi/26.jpg",
    "https://img-proxy.imgfo.com/?referer=https://manganelo.com&url=https://s5.mkklcdnv6temp.com/mangakakalot/f2/fukuroukun_to_kare/vol1_chapter_1_the_man_called_shiratori_reiichi/27.jpg",
    "https://img-proxy.imgfo.com/?referer=https://manganelo.com&url=https://s5.mkklcdnv6temp.com/mangakakalot/f2/fukuroukun_to_kare/vol1_chapter_1_the_man_called_shiratori_reiichi/28.jpg",
    "https://img-proxy.imgfo.com/?referer=https://manganelo.com&url=https://s5.mkklcdnv6temp.com/mangakakalot/f2/fukuroukun_to_kare/vol1_chapter_1_the_man_called_shiratori_reiichi/29.jpg",
    "https://img-proxy.imgfo.com/?referer=https://manganelo.com&url=https://s5.mkklcdnv6temp.com/mangakakalot/f2/fukuroukun_to_kare/vol1_chapter_1_the_man_called_shiratori_reiichi/30.jpg"
  ]
}