{
  "cover": "https://avt.mkklcdnv6.com/34/j/7-1583477569.jpg",
  "title": "Ikoku Meiro No Crois&eacute;e",
  "original": "异国迷宫的十字路口 ; 異国迷路のクロワーゼ ; Crossroads of the Foreign Labyrinth ; Ikoku Meiro no Croisee ; La Croisée dans un labyrinthe étranger",
  "genre": "Historical, Romance, Shounen, Slice of life, Manga",
  "author": "Takeda Hinata",
  "status": "Completed",
  "backlink": "https://manganu.com/collections/takeda-hinata/ikoku-meiro-no-croisandeacutee/",
  "description": "From Fate:\nDuring the second half of the 19th century, Europe became intrigued by the Japanese culture. A Japanese girl named Yune travels to France, where she started working in the lower parts of a town in Paris at a craft store called Enseignes du Roy. She and the store owner named Claude communicate with each other in order to get over their cultural differences. This is the story of Yune's stay in Paris.",
  "language": "English",
  "images": [
    "https://img-proxy.imgfo.com/?referer=https://manganelo.com&url=https://s41.mkklcdnv6temp.com/mangakakalot/i1/ikoku_meiro_no_croiseacutee/vol4_chapter_112_to_the_countryside/1.jpg",
    "https://img-proxy.imgfo.com/?referer=https://manganelo.com&url=https://s41.mkklcdnv6temp.com/mangakakalot/i1/ikoku_meiro_no_croiseacutee/vol4_chapter_112_to_the_countryside/2.jpg",
    "https://img-proxy.imgfo.com/?referer=https://manganelo.com&url=https://s41.mkklcdnv6temp.com/mangakakalot/i1/ikoku_meiro_no_croiseacutee/vol4_chapter_112_to_the_countryside/3.jpg",
    "https://img-proxy.imgfo.com/?referer=https://manganelo.com&url=https://s41.mkklcdnv6temp.com/mangakakalot/i1/ikoku_meiro_no_croiseacutee/vol4_chapter_112_to_the_countryside/4.jpg",
    "https://img-proxy.imgfo.com/?referer=https://manganelo.com&url=https://s41.mkklcdnv6temp.com/mangakakalot/i1/ikoku_meiro_no_croiseacutee/vol4_chapter_112_to_the_countryside/5.jpg",
    "https://img-proxy.imgfo.com/?referer=https://manganelo.com&url=https://s41.mkklcdnv6temp.com/mangakakalot/i1/ikoku_meiro_no_croiseacutee/vol4_chapter_112_to_the_countryside/6.jpg",
    "https://img-proxy.imgfo.com/?referer=https://manganelo.com&url=https://s41.mkklcdnv6temp.com/mangakakalot/i1/ikoku_meiro_no_croiseacutee/vol4_chapter_112_to_the_countryside/7.jpg",
    "https://img-proxy.imgfo.com/?referer=https://manganelo.com&url=https://s41.mkklcdnv6temp.com/mangakakalot/i1/ikoku_meiro_no_croiseacutee/vol4_chapter_112_to_the_countryside/8.jpg",
    "https://img-proxy.imgfo.com/?referer=https://manganelo.com&url=https://s41.mkklcdnv6temp.com/mangakakalot/i1/ikoku_meiro_no_croiseacutee/vol4_chapter_112_to_the_countryside/9.jpg",
    "https://img-proxy.imgfo.com/?referer=https://manganelo.com&url=https://s41.mkklcdnv6temp.com/mangakakalot/i1/ikoku_meiro_no_croiseacutee/vol4_chapter_112_to_the_countryside/10.jpg",
    "https://img-proxy.imgfo.com/?referer=https://manganelo.com&url=https://s41.mkklcdnv6temp.com/mangakakalot/i1/ikoku_meiro_no_croiseacutee/vol4_chapter_112_to_the_countryside/11.jpg",
    "https://img-proxy.imgfo.com/?referer=https://manganelo.com&url=https://s41.mkklcdnv6temp.com/mangakakalot/i1/ikoku_meiro_no_croiseacutee/vol4_chapter_112_to_the_countryside/12.jpg",
    "https://img-proxy.imgfo.com/?referer=https://manganelo.com&url=https://s41.mkklcdnv6temp.com/mangakakalot/i1/ikoku_meiro_no_croiseacutee/vol4_chapter_112_to_the_countryside/13.jpg",
    "https://img-proxy.imgfo.com/?referer=https://manganelo.com&url=https://s41.mkklcdnv6temp.com/mangakakalot/i1/ikoku_meiro_no_croiseacutee/vol4_chapter_112_to_the_countryside/14.jpg",
    "https://img-proxy.imgfo.com/?referer=https://manganelo.com&url=https://s41.mkklcdnv6temp.com/mangakakalot/i1/ikoku_meiro_no_croiseacutee/vol4_chapter_112_to_the_countryside/15.jpg",
    "https://img-proxy.imgfo.com/?referer=https://manganelo.com&url=https://s41.mkklcdnv6temp.com/mangakakalot/i1/ikoku_meiro_no_croiseacutee/vol4_chapter_112_to_the_countryside/16.jpg",
    "https://img-proxy.imgfo.com/?referer=https://manganelo.com&url=https://s41.mkklcdnv6temp.com/mangakakalot/i1/ikoku_meiro_no_croiseacutee/vol4_chapter_112_to_the_countryside/17.jpg",
    "https://img-proxy.imgfo.com/?referer=https://manganelo.com&url=https://s41.mkklcdnv6temp.com/mangakakalot/i1/ikoku_meiro_no_croiseacutee/vol4_chapter_112_to_the_countryside/18.jpg",
    "https://img-proxy.imgfo.com/?referer=https://manganelo.com&url=https://s41.mkklcdnv6temp.com/mangakakalot/i1/ikoku_meiro_no_croiseacutee/vol4_chapter_112_to_the_countryside/19.jpg",
    "https://img-proxy.imgfo.com/?referer=https://manganelo.com&url=https://s41.mkklcdnv6temp.com/mangakakalot/i1/ikoku_meiro_no_croiseacutee/vol4_chapter_112_to_the_countryside/20.jpg",
    "https://img-proxy.imgfo.com/?referer=https://manganelo.com&url=https://s41.mkklcdnv6temp.com/mangakakalot/i1/ikoku_meiro_no_croiseacutee/vol4_chapter_112_to_the_countryside/21.jpg",
    "https://img-proxy.imgfo.com/?referer=https://manganelo.com&url=https://s41.mkklcdnv6temp.com/mangakakalot/i1/ikoku_meiro_no_croiseacutee/vol4_chapter_112_to_the_countryside/22.jpg",
    "https://img-proxy.imgfo.com/?referer=https://manganelo.com&url=https://s41.mkklcdnv6temp.com/mangakakalot/i1/ikoku_meiro_no_croiseacutee/vol4_chapter_112_to_the_countryside/23.jpg",
    "https://img-proxy.imgfo.com/?referer=https://manganelo.com&url=https://s41.mkklcdnv6temp.com/mangakakalot/i1/ikoku_meiro_no_croiseacutee/vol4_chapter_112_to_the_countryside/24.jpg",
    "https://img-proxy.imgfo.com/?referer=https://manganelo.com&url=https://s41.mkklcdnv6temp.com/mangakakalot/i1/ikoku_meiro_no_croiseacutee/vol4_chapter_112_to_the_countryside/25.jpg",
    "https://img-proxy.imgfo.com/?referer=https://manganelo.com&url=https://s41.mkklcdnv6temp.com/mangakakalot/i1/ikoku_meiro_no_croiseacutee/vol4_chapter_112_to_the_countryside/26.jpg",
    "https://img-proxy.imgfo.com/?referer=https://manganelo.com&url=https://s41.mkklcdnv6temp.com/mangakakalot/i1/ikoku_meiro_no_croiseacutee/vol4_chapter_112_to_the_countryside/27.jpg"
  ]
}