{
  "cover": "https://avt.mkklcdnv6.com/1/e/4-1583471851.jpg",
  "title": "Watashi No Ookami-San",
  "original": "わたしの狼さん。 ; わたしの狼さん。THE OTHER SIDE OF LYCANTHROPE ; 我的狼魔王 ; My Wolf ; My Wolf - THE OTHER SIDE OF LYCANTHROPE",
  "genre": "Adventure, Comedy, Fantasy, Romance, Shoujo, Manga",
  "author": "Fujiwara Cocoa",
  "status": "Completed",
  "backlink": "https://manganu.com/collections/fujiwara-cocoa/watashi-no-ookami-san/",
  "description": "Watashi no Ookami-san is a fantasy love comedy and consists of two volumes: Brave and Lycanthrope and The Other Side of Lycanthrope. The Other Side also contains 2 other small stories that Fujiwara had done previously.\nBored of sitting around holding a wine glass all day, the Demon Lord is looking for something new. Something cute. Someone like Komomo, the level 0 heroine who has just appeared before him, ready to vanquish him like all heroes (or heroines) do. Faced with a demon king who'd rather watch TV under a kotatsu and make out with her than spread evil over the land, what will Komomo do?\nWatashi no Ookami-san is continued in Dear, [[ http://mangafox.me/manga/dear_fujiwara_cocoa/ ]] .",
  "language": "English",
  "images": [
    "https://img-proxy.imgfo.com/?referer=https://manganelo.com&url=https://s7.mkklcdnv6temp.com/mangakakalot/w1/watashi_no_ookamisan/vol2_chapter_71/1.jpg",
    "https://img-proxy.imgfo.com/?referer=https://manganelo.com&url=https://s7.mkklcdnv6temp.com/mangakakalot/w1/watashi_no_ookamisan/vol2_chapter_71/2.jpg",
    "https://img-proxy.imgfo.com/?referer=https://manganelo.com&url=https://s7.mkklcdnv6temp.com/mangakakalot/w1/watashi_no_ookamisan/vol2_chapter_71/3.jpg",
    "https://img-proxy.imgfo.com/?referer=https://manganelo.com&url=https://s7.mkklcdnv6temp.com/mangakakalot/w1/watashi_no_ookamisan/vol2_chapter_71/4.jpg",
    "https://img-proxy.imgfo.com/?referer=https://manganelo.com&url=https://s7.mkklcdnv6temp.com/mangakakalot/w1/watashi_no_ookamisan/vol2_chapter_71/5.jpg",
    "https://img-proxy.imgfo.com/?referer=https://manganelo.com&url=https://s7.mkklcdnv6temp.com/mangakakalot/w1/watashi_no_ookamisan/vol2_chapter_71/6.jpg",
    "https://img-proxy.imgfo.com/?referer=https://manganelo.com&url=https://s7.mkklcdnv6temp.com/mangakakalot/w1/watashi_no_ookamisan/vol2_chapter_71/7.jpg",
    "https://img-proxy.imgfo.com/?referer=https://manganelo.com&url=https://s7.mkklcdnv6temp.com/mangakakalot/w1/watashi_no_ookamisan/vol2_chapter_71/8.jpg",
    "https://img-proxy.imgfo.com/?referer=https://manganelo.com&url=https://s7.mkklcdnv6temp.com/mangakakalot/w1/watashi_no_ookamisan/vol2_chapter_71/9.jpg",
    "https://img-proxy.imgfo.com/?referer=https://manganelo.com&url=https://s7.mkklcdnv6temp.com/mangakakalot/w1/watashi_no_ookamisan/vol2_chapter_71/10.jpg",
    "https://img-proxy.imgfo.com/?referer=https://manganelo.com&url=https://s7.mkklcdnv6temp.com/mangakakalot/w1/watashi_no_ookamisan/vol2_chapter_71/11.jpg",
    "https://img-proxy.imgfo.com/?referer=https://manganelo.com&url=https://s7.mkklcdnv6temp.com/mangakakalot/w1/watashi_no_ookamisan/vol2_chapter_71/12.jpg",
    "https://img-proxy.imgfo.com/?referer=https://manganelo.com&url=https://s7.mkklcdnv6temp.com/mangakakalot/w1/watashi_no_ookamisan/vol2_chapter_71/13.jpg",
    "https://img-proxy.imgfo.com/?referer=https://manganelo.com&url=https://s7.mkklcdnv6temp.com/mangakakalot/w1/watashi_no_ookamisan/vol2_chapter_71/14.jpg",
    "https://img-proxy.imgfo.com/?referer=https://manganelo.com&url=https://s7.mkklcdnv6temp.com/mangakakalot/w1/watashi_no_ookamisan/vol2_chapter_71/15.jpg",
    "https://img-proxy.imgfo.com/?referer=https://manganelo.com&url=https://s7.mkklcdnv6temp.com/mangakakalot/w1/watashi_no_ookamisan/vol2_chapter_71/16.jpg",
    "https://img-proxy.imgfo.com/?referer=https://manganelo.com&url=https://s7.mkklcdnv6temp.com/mangakakalot/w1/watashi_no_ookamisan/vol2_chapter_71/17.jpg",
    "https://img-proxy.imgfo.com/?referer=https://manganelo.com&url=https://s7.mkklcdnv6temp.com/mangakakalot/w1/watashi_no_ookamisan/vol2_chapter_71/18.jpg",
    "https://img-proxy.imgfo.com/?referer=https://manganelo.com&url=https://s7.mkklcdnv6temp.com/mangakakalot/w1/watashi_no_ookamisan/vol2_chapter_71/19.jpg",
    "https://img-proxy.imgfo.com/?referer=https://manganelo.com&url=https://s7.mkklcdnv6temp.com/mangakakalot/w1/watashi_no_ookamisan/vol2_chapter_71/20.jpg",
    "https://img-proxy.imgfo.com/?referer=https://manganelo.com&url=https://s7.mkklcdnv6temp.com/mangakakalot/w1/watashi_no_ookamisan/vol2_chapter_71/21.jpg",
    "https://img-proxy.imgfo.com/?referer=https://manganelo.com&url=https://s7.mkklcdnv6temp.com/mangakakalot/w1/watashi_no_ookamisan/vol2_chapter_71/22.jpg",
    "https://img-proxy.imgfo.com/?referer=https://manganelo.com&url=https://s7.mkklcdnv6temp.com/mangakakalot/w1/watashi_no_ookamisan/vol2_chapter_71/23.jpg",
    "https://img-proxy.imgfo.com/?referer=https://manganelo.com&url=https://s7.mkklcdnv6temp.com/mangakakalot/w1/watashi_no_ookamisan/vol2_chapter_71/24.jpg",
    "https://img-proxy.imgfo.com/?referer=https://manganelo.com&url=https://s7.mkklcdnv6temp.com/mangakakalot/w1/watashi_no_ookamisan/vol2_chapter_71/25.jpg",
    "https://img-proxy.imgfo.com/?referer=https://manganelo.com&url=https://s7.mkklcdnv6temp.com/mangakakalot/w1/watashi_no_ookamisan/vol2_chapter_71/26.jpg",
    "https://img-proxy.imgfo.com/?referer=https://manganelo.com&url=https://s7.mkklcdnv6temp.com/mangakakalot/w1/watashi_no_ookamisan/vol2_chapter_71/27.jpg",
    "https://img-proxy.imgfo.com/?referer=https://manganelo.com&url=https://s7.mkklcdnv6temp.com/mangakakalot/w1/watashi_no_ookamisan/vol2_chapter_71/28.jpg",
    "https://img-proxy.imgfo.com/?referer=https://manganelo.com&url=https://s7.mkklcdnv6temp.com/mangakakalot/w1/watashi_no_ookamisan/vol2_chapter_71/29.jpg",
    "https://img-proxy.imgfo.com/?referer=https://manganelo.com&url=https://s7.mkklcdnv6temp.com/mangakakalot/w1/watashi_no_ookamisan/vol2_chapter_71/30.jpg",
    "https://img-proxy.imgfo.com/?referer=https://manganelo.com&url=https://s7.mkklcdnv6temp.com/mangakakalot/w1/watashi_no_ookamisan/vol2_chapter_71/31.jpg",
    "https://img-proxy.imgfo.com/?referer=https://manganelo.com&url=https://s7.mkklcdnv6temp.com/mangakakalot/w1/watashi_no_ookamisan/vol2_chapter_71/32.jpg",
    "https://img-proxy.imgfo.com/?referer=https://manganelo.com&url=https://s7.mkklcdnv6temp.com/mangakakalot/w1/watashi_no_ookamisan/vol2_chapter_71/33.jpg",
    "https://img-proxy.imgfo.com/?referer=https://manganelo.com&url=https://s7.mkklcdnv6temp.com/mangakakalot/w1/watashi_no_ookamisan/vol2_chapter_71/34.jpg",
    "https://img-proxy.imgfo.com/?referer=https://manganelo.com&url=https://s7.mkklcdnv6temp.com/mangakakalot/w1/watashi_no_ookamisan/vol2_chapter_71/35.jpg",
    "https://img-proxy.imgfo.com/?referer=https://manganelo.com&url=https://s7.mkklcdnv6temp.com/mangakakalot/w1/watashi_no_ookamisan/vol2_chapter_71/36.jpg"
  ]
}