{
  "cover": "https://avt.mkklcdnv6.com/32/c/10-1583483328.jpg",
  "title": "Old Boy",
  "original": "オールドボーイ ; Oldboy",
  "genre": "Drama, Mystery, Psychological, Seinen, Manga",
  "author": "Tsuchiya Garon",
  "status": "Completed",
  "backlink": "https://manganu.com/collections/tsuchiya-garon/old-boy/",
  "description": "Ten years ago, they took him. He doesn't know who. For ten years he has been confined in a private prison. He doesn't know why. For ten years his only contact with the outside world has been a television set and the voices of his jailers. In time, he lost himself. He changed...transformed himself into something else...something hard...something lethal.Suddenly, one day his incarceration ends, again without explanation. He is sedated, stuffed inside a trunk, and dumped in a park. When he awakes, he is free to reclaim what's left of his life...and what's left is revenge.Manga that inspired hit Korean movie Old Boy!",
  "language": "English",
  "images": [
    "https://img-proxy.imgfo.com/?referer=https://manganelo.com&url=https://s7.mkklcdnv6temp.com/mangakakalot/o1/old_boy/vol6_chapter_55/1.jpg",
    "https://img-proxy.imgfo.com/?referer=https://manganelo.com&url=https://s7.mkklcdnv6temp.com/mangakakalot/o1/old_boy/vol6_chapter_55/2.jpg",
    "https://img-proxy.imgfo.com/?referer=https://manganelo.com&url=https://s7.mkklcdnv6temp.com/mangakakalot/o1/old_boy/vol6_chapter_55/3.jpg",
    "https://img-proxy.imgfo.com/?referer=https://manganelo.com&url=https://s7.mkklcdnv6temp.com/mangakakalot/o1/old_boy/vol6_chapter_55/4.jpg",
    "https://img-proxy.imgfo.com/?referer=https://manganelo.com&url=https://s7.mkklcdnv6temp.com/mangakakalot/o1/old_boy/vol6_chapter_55/5.jpg",
    "https://img-proxy.imgfo.com/?referer=https://manganelo.com&url=https://s7.mkklcdnv6temp.com/mangakakalot/o1/old_boy/vol6_chapter_55/6.jpg",
    "https://img-proxy.imgfo.com/?referer=https://manganelo.com&url=https://s7.mkklcdnv6temp.com/mangakakalot/o1/old_boy/vol6_chapter_55/7.jpg",
    "https://img-proxy.imgfo.com/?referer=https://manganelo.com&url=https://s7.mkklcdnv6temp.com/mangakakalot/o1/old_boy/vol6_chapter_55/8.jpg",
    "https://img-proxy.imgfo.com/?referer=https://manganelo.com&url=https://s7.mkklcdnv6temp.com/mangakakalot/o1/old_boy/vol6_chapter_55/9.jpg",
    "https://img-proxy.imgfo.com/?referer=https://manganelo.com&url=https://s7.mkklcdnv6temp.com/mangakakalot/o1/old_boy/vol6_chapter_55/10.jpg",
    "https://img-proxy.imgfo.com/?referer=https://manganelo.com&url=https://s7.mkklcdnv6temp.com/mangakakalot/o1/old_boy/vol6_chapter_55/11.jpg",
    "https://img-proxy.imgfo.com/?referer=https://manganelo.com&url=https://s7.mkklcdnv6temp.com/mangakakalot/o1/old_boy/vol6_chapter_55/12.jpg",
    "https://img-proxy.imgfo.com/?referer=https://manganelo.com&url=https://s7.mkklcdnv6temp.com/mangakakalot/o1/old_boy/vol6_chapter_55/13.jpg",
    "https://img-proxy.imgfo.com/?referer=https://manganelo.com&url=https://s7.mkklcdnv6temp.com/mangakakalot/o1/old_boy/vol6_chapter_55/14.jpg",
    "https://img-proxy.imgfo.com/?referer=https://manganelo.com&url=https://s7.mkklcdnv6temp.com/mangakakalot/o1/old_boy/vol6_chapter_55/15.jpg",
    "https://img-proxy.imgfo.com/?referer=https://manganelo.com&url=https://s7.mkklcdnv6temp.com/mangakakalot/o1/old_boy/vol6_chapter_55/16.jpg",
    "https://img-proxy.imgfo.com/?referer=https://manganelo.com&url=https://s7.mkklcdnv6temp.com/mangakakalot/o1/old_boy/vol6_chapter_55/17.jpg",
    "https://img-proxy.imgfo.com/?referer=https://manganelo.com&url=https://s7.mkklcdnv6temp.com/mangakakalot/o1/old_boy/vol6_chapter_55/18.jpg",
    "https://img-proxy.imgfo.com/?referer=https://manganelo.com&url=https://s7.mkklcdnv6temp.com/mangakakalot/o1/old_boy/vol6_chapter_55/19.jpg",
    "https://img-proxy.imgfo.com/?referer=https://manganelo.com&url=https://s7.mkklcdnv6temp.com/mangakakalot/o1/old_boy/vol6_chapter_55/20.jpg",
    "https://img-proxy.imgfo.com/?referer=https://manganelo.com&url=https://s7.mkklcdnv6temp.com/mangakakalot/o1/old_boy/vol6_chapter_55/21.jpg",
    "https://img-proxy.imgfo.com/?referer=https://manganelo.com&url=https://s7.mkklcdnv6temp.com/mangakakalot/o1/old_boy/vol6_chapter_55/22.jpg",
    "https://img-proxy.imgfo.com/?referer=https://manganelo.com&url=https://s7.mkklcdnv6temp.com/mangakakalot/o1/old_boy/vol6_chapter_55/23.jpg",
    "https://img-proxy.imgfo.com/?referer=https://manganelo.com&url=https://s7.mkklcdnv6temp.com/mangakakalot/o1/old_boy/vol6_chapter_55/24.jpg"
  ]
}