{
  "cover": "https://avt.mkklcdnv6.com/21/d/2-1583466528.jpg",
  "title": "Sick",
  "original": "Extras:倉橋トモ「sick」ペーパー",
  "genre": "Slice of life, Yaoi, Manga",
  "author": "Kurahashi Tomo",
  "status": "Completed",
  "backlink": "https://manganu.com/collections/kurahashi-tomo/sick/",
  "description": "From Hoshikuzuu Scans:\nHe’s good-looking, he’s suave and he comes from a rich family. Everything is all smooth-sailing in Sudou's life. Not to mention, he doesn’t have a girl tying him down.\nHe’s got drama-free friends and basically a blossoming campus life. That’s how it was supposed to be. However, the highlight of his day is always teasing socially crippled Kishi, who shares the same seminar as him.\n“What in the world am I doing!?”",
  "language": "English",
  "images": [
    "https://img-proxy.imgfo.com/?referer=https://manganelo.com&url=https://s7.mkklcdnv6temp.com/mangakakalot/s1/sick/vol1_chapter_3_resume_3/1.jpg",
    "https://img-proxy.imgfo.com/?referer=https://manganelo.com&url=https://s7.mkklcdnv6temp.com/mangakakalot/s1/sick/vol1_chapter_3_resume_3/2.jpg",
    "https://img-proxy.imgfo.com/?referer=https://manganelo.com&url=https://s7.mkklcdnv6temp.com/mangakakalot/s1/sick/vol1_chapter_3_resume_3/3.jpg",
    "https://img-proxy.imgfo.com/?referer=https://manganelo.com&url=https://s7.mkklcdnv6temp.com/mangakakalot/s1/sick/vol1_chapter_3_resume_3/4.jpg",
    "https://img-proxy.imgfo.com/?referer=https://manganelo.com&url=https://s7.mkklcdnv6temp.com/mangakakalot/s1/sick/vol1_chapter_3_resume_3/5.jpg",
    "https://img-proxy.imgfo.com/?referer=https://manganelo.com&url=https://s7.mkklcdnv6temp.com/mangakakalot/s1/sick/vol1_chapter_3_resume_3/6.jpg",
    "https://img-proxy.imgfo.com/?referer=https://manganelo.com&url=https://s7.mkklcdnv6temp.com/mangakakalot/s1/sick/vol1_chapter_3_resume_3/7.jpg",
    "https://img-proxy.imgfo.com/?referer=https://manganelo.com&url=https://s7.mkklcdnv6temp.com/mangakakalot/s1/sick/vol1_chapter_3_resume_3/8.jpg",
    "https://img-proxy.imgfo.com/?referer=https://manganelo.com&url=https://s7.mkklcdnv6temp.com/mangakakalot/s1/sick/vol1_chapter_3_resume_3/9.jpg",
    "https://img-proxy.imgfo.com/?referer=https://manganelo.com&url=https://s7.mkklcdnv6temp.com/mangakakalot/s1/sick/vol1_chapter_3_resume_3/10.jpg",
    "https://img-proxy.imgfo.com/?referer=https://manganelo.com&url=https://s7.mkklcdnv6temp.com/mangakakalot/s1/sick/vol1_chapter_3_resume_3/11.jpg",
    "https://img-proxy.imgfo.com/?referer=https://manganelo.com&url=https://s7.mkklcdnv6temp.com/mangakakalot/s1/sick/vol1_chapter_3_resume_3/12.jpg",
    "https://img-proxy.imgfo.com/?referer=https://manganelo.com&url=https://s7.mkklcdnv6temp.com/mangakakalot/s1/sick/vol1_chapter_3_resume_3/13.jpg",
    "https://img-proxy.imgfo.com/?referer=https://manganelo.com&url=https://s7.mkklcdnv6temp.com/mangakakalot/s1/sick/vol1_chapter_3_resume_3/14.jpg",
    "https://img-proxy.imgfo.com/?referer=https://manganelo.com&url=https://s7.mkklcdnv6temp.com/mangakakalot/s1/sick/vol1_chapter_3_resume_3/15.jpg",
    "https://img-proxy.imgfo.com/?referer=https://manganelo.com&url=https://s7.mkklcdnv6temp.com/mangakakalot/s1/sick/vol1_chapter_3_resume_3/16.jpg",
    "https://img-proxy.imgfo.com/?referer=https://manganelo.com&url=https://s7.mkklcdnv6temp.com/mangakakalot/s1/sick/vol1_chapter_3_resume_3/17.jpg",
    "https://img-proxy.imgfo.com/?referer=https://manganelo.com&url=https://s7.mkklcdnv6temp.com/mangakakalot/s1/sick/vol1_chapter_3_resume_3/18.jpg",
    "https://img-proxy.imgfo.com/?referer=https://manganelo.com&url=https://s7.mkklcdnv6temp.com/mangakakalot/s1/sick/vol1_chapter_3_resume_3/19.jpg",
    "https://img-proxy.imgfo.com/?referer=https://manganelo.com&url=https://s7.mkklcdnv6temp.com/mangakakalot/s1/sick/vol1_chapter_3_resume_3/20.jpg",
    "https://img-proxy.imgfo.com/?referer=https://manganelo.com&url=https://s7.mkklcdnv6temp.com/mangakakalot/s1/sick/vol1_chapter_3_resume_3/21.jpg",
    "https://img-proxy.imgfo.com/?referer=https://manganelo.com&url=https://s7.mkklcdnv6temp.com/mangakakalot/s1/sick/vol1_chapter_3_resume_3/22.jpg",
    "https://img-proxy.imgfo.com/?referer=https://manganelo.com&url=https://s7.mkklcdnv6temp.com/mangakakalot/s1/sick/vol1_chapter_3_resume_3/23.jpg",
    "https://img-proxy.imgfo.com/?referer=https://manganelo.com&url=https://s7.mkklcdnv6temp.com/mangakakalot/s1/sick/vol1_chapter_3_resume_3/24.jpg",
    "https://img-proxy.imgfo.com/?referer=https://manganelo.com&url=https://s7.mkklcdnv6temp.com/mangakakalot/s1/sick/vol1_chapter_3_resume_3/25.jpg",
    "https://img-proxy.imgfo.com/?referer=https://manganelo.com&url=https://s7.mkklcdnv6temp.com/mangakakalot/s1/sick/vol1_chapter_3_resume_3/26.jpg",
    "https://img-proxy.imgfo.com/?referer=https://manganelo.com&url=https://s7.mkklcdnv6temp.com/mangakakalot/s1/sick/vol1_chapter_3_resume_3/27.jpg",
    "https://img-proxy.imgfo.com/?referer=https://manganelo.com&url=https://s7.mkklcdnv6temp.com/mangakakalot/s1/sick/vol1_chapter_3_resume_3/28.jpg",
    "https://img-proxy.imgfo.com/?referer=https://manganelo.com&url=https://s7.mkklcdnv6temp.com/mangakakalot/s1/sick/vol1_chapter_3_resume_3/29.jpg",
    "https://img-proxy.imgfo.com/?referer=https://manganelo.com&url=https://s7.mkklcdnv6temp.com/mangakakalot/s1/sick/vol1_chapter_3_resume_3/30.jpg",
    "https://img-proxy.imgfo.com/?referer=https://manganelo.com&url=https://s7.mkklcdnv6temp.com/mangakakalot/s1/sick/vol1_chapter_3_resume_3/31.jpg",
    "https://img-proxy.imgfo.com/?referer=https://manganelo.com&url=https://s7.mkklcdnv6temp.com/mangakakalot/s1/sick/vol1_chapter_3_resume_3/32.jpg"
  ]
}