{
  "cover": "https://avt.mkklcdnv6.com/46/j/1-1583465532.jpg",
  "title": "Kare No Shousou To Koi Ni Tsuite",
  "original": "彼の焦燥と恋について ; About His Irritation and Love",
  "genre": "Mature, Smut, Yaoi, Manga",
  "author": "Aomoto Sari",
  "status": "Completed",
  "backlink": "https://manganu.com/collections/aomoto-sari/kare-no-shousou-to-koi-ni-tsuite/",
  "description": "From Fujoshi Bitches:\nOne day, Yajima, who kept on having physical relations only with older partners, met a young man, Watabe. Younger guys were never his type but the hot sex he had with that man made that night unforgettable. What will happen to Yajima, who since then keeps on wanting to have flared up sex with Watabe again…?",
  "language": "English",
  "images": [
    "https://img-proxy.imgfo.com/?referer=https://manganelo.com&url=https://s7.mkklcdnv6temp.com/mangakakalot/k1/kare_no_shousou_to_koi_ni_tsuite/vol1_chapter_1_about_his_irritation_and_love_1/1.jpg",
    "https://img-proxy.imgfo.com/?referer=https://manganelo.com&url=https://s7.mkklcdnv6temp.com/mangakakalot/k1/kare_no_shousou_to_koi_ni_tsuite/vol1_chapter_1_about_his_irritation_and_love_1/2.jpg",
    "https://img-proxy.imgfo.com/?referer=https://manganelo.com&url=https://s7.mkklcdnv6temp.com/mangakakalot/k1/kare_no_shousou_to_koi_ni_tsuite/vol1_chapter_1_about_his_irritation_and_love_1/3.jpg",
    "https://img-proxy.imgfo.com/?referer=https://manganelo.com&url=https://s7.mkklcdnv6temp.com/mangakakalot/k1/kare_no_shousou_to_koi_ni_tsuite/vol1_chapter_1_about_his_irritation_and_love_1/4.jpg",
    "https://img-proxy.imgfo.com/?referer=https://manganelo.com&url=https://s7.mkklcdnv6temp.com/mangakakalot/k1/kare_no_shousou_to_koi_ni_tsuite/vol1_chapter_1_about_his_irritation_and_love_1/5.jpg",
    "https://img-proxy.imgfo.com/?referer=https://manganelo.com&url=https://s7.mkklcdnv6temp.com/mangakakalot/k1/kare_no_shousou_to_koi_ni_tsuite/vol1_chapter_1_about_his_irritation_and_love_1/6.jpg",
    "https://img-proxy.imgfo.com/?referer=https://manganelo.com&url=https://s7.mkklcdnv6temp.com/mangakakalot/k1/kare_no_shousou_to_koi_ni_tsuite/vol1_chapter_1_about_his_irritation_and_love_1/7.jpg",
    "https://img-proxy.imgfo.com/?referer=https://manganelo.com&url=https://s7.mkklcdnv6temp.com/mangakakalot/k1/kare_no_shousou_to_koi_ni_tsuite/vol1_chapter_1_about_his_irritation_and_love_1/8.jpg",
    "https://img-proxy.imgfo.com/?referer=https://manganelo.com&url=https://s7.mkklcdnv6temp.com/mangakakalot/k1/kare_no_shousou_to_koi_ni_tsuite/vol1_chapter_1_about_his_irritation_and_love_1/9.jpg",
    "https://img-proxy.imgfo.com/?referer=https://manganelo.com&url=https://s7.mkklcdnv6temp.com/mangakakalot/k1/kare_no_shousou_to_koi_ni_tsuite/vol1_chapter_1_about_his_irritation_and_love_1/10.jpg",
    "https://img-proxy.imgfo.com/?referer=https://manganelo.com&url=https://s7.mkklcdnv6temp.com/mangakakalot/k1/kare_no_shousou_to_koi_ni_tsuite/vol1_chapter_1_about_his_irritation_and_love_1/11.jpg",
    "https://img-proxy.imgfo.com/?referer=https://manganelo.com&url=https://s7.mkklcdnv6temp.com/mangakakalot/k1/kare_no_shousou_to_koi_ni_tsuite/vol1_chapter_1_about_his_irritation_and_love_1/12.jpg",
    "https://img-proxy.imgfo.com/?referer=https://manganelo.com&url=https://s7.mkklcdnv6temp.com/mangakakalot/k1/kare_no_shousou_to_koi_ni_tsuite/vol1_chapter_1_about_his_irritation_and_love_1/13.jpg",
    "https://img-proxy.imgfo.com/?referer=https://manganelo.com&url=https://s7.mkklcdnv6temp.com/mangakakalot/k1/kare_no_shousou_to_koi_ni_tsuite/vol1_chapter_1_about_his_irritation_and_love_1/14.jpg",
    "https://img-proxy.imgfo.com/?referer=https://manganelo.com&url=https://s7.mkklcdnv6temp.com/mangakakalot/k1/kare_no_shousou_to_koi_ni_tsuite/vol1_chapter_1_about_his_irritation_and_love_1/15.jpg",
    "https://img-proxy.imgfo.com/?referer=https://manganelo.com&url=https://s7.mkklcdnv6temp.com/mangakakalot/k1/kare_no_shousou_to_koi_ni_tsuite/vol1_chapter_1_about_his_irritation_and_love_1/16.jpg",
    "https://img-proxy.imgfo.com/?referer=https://manganelo.com&url=https://s7.mkklcdnv6temp.com/mangakakalot/k1/kare_no_shousou_to_koi_ni_tsuite/vol1_chapter_1_about_his_irritation_and_love_1/17.jpg",
    "https://img-proxy.imgfo.com/?referer=https://manganelo.com&url=https://s7.mkklcdnv6temp.com/mangakakalot/k1/kare_no_shousou_to_koi_ni_tsuite/vol1_chapter_1_about_his_irritation_and_love_1/18.jpg",
    "https://img-proxy.imgfo.com/?referer=https://manganelo.com&url=https://s7.mkklcdnv6temp.com/mangakakalot/k1/kare_no_shousou_to_koi_ni_tsuite/vol1_chapter_1_about_his_irritation_and_love_1/19.jpg",
    "https://img-proxy.imgfo.com/?referer=https://manganelo.com&url=https://s7.mkklcdnv6temp.com/mangakakalot/k1/kare_no_shousou_to_koi_ni_tsuite/vol1_chapter_1_about_his_irritation_and_love_1/20.jpg",
    "https://img-proxy.imgfo.com/?referer=https://manganelo.com&url=https://s7.mkklcdnv6temp.com/mangakakalot/k1/kare_no_shousou_to_koi_ni_tsuite/vol1_chapter_1_about_his_irritation_and_love_1/21.jpg",
    "https://img-proxy.imgfo.com/?referer=https://manganelo.com&url=https://s7.mkklcdnv6temp.com/mangakakalot/k1/kare_no_shousou_to_koi_ni_tsuite/vol1_chapter_1_about_his_irritation_and_love_1/22.jpg",
    "https://img-proxy.imgfo.com/?referer=https://manganelo.com&url=https://s7.mkklcdnv6temp.com/mangakakalot/k1/kare_no_shousou_to_koi_ni_tsuite/vol1_chapter_1_about_his_irritation_and_love_1/23.jpg",
    "https://img-proxy.imgfo.com/?referer=https://manganelo.com&url=https://s7.mkklcdnv6temp.com/mangakakalot/k1/kare_no_shousou_to_koi_ni_tsuite/vol1_chapter_1_about_his_irritation_and_love_1/24.jpg",
    "https://img-proxy.imgfo.com/?referer=https://manganelo.com&url=https://s7.mkklcdnv6temp.com/mangakakalot/k1/kare_no_shousou_to_koi_ni_tsuite/vol1_chapter_1_about_his_irritation_and_love_1/25.jpg",
    "https://img-proxy.imgfo.com/?referer=https://manganelo.com&url=https://s7.mkklcdnv6temp.com/mangakakalot/k1/kare_no_shousou_to_koi_ni_tsuite/vol1_chapter_1_about_his_irritation_and_love_1/26.jpg",
    "https://img-proxy.imgfo.com/?referer=https://manganelo.com&url=https://s7.mkklcdnv6temp.com/mangakakalot/k1/kare_no_shousou_to_koi_ni_tsuite/vol1_chapter_1_about_his_irritation_and_love_1/27.jpg",
    "https://img-proxy.imgfo.com/?referer=https://manganelo.com&url=https://s7.mkklcdnv6temp.com/mangakakalot/k1/kare_no_shousou_to_koi_ni_tsuite/vol1_chapter_1_about_his_irritation_and_love_1/28.jpg",
    "https://img-proxy.imgfo.com/?referer=https://manganelo.com&url=https://s7.mkklcdnv6temp.com/mangakakalot/k1/kare_no_shousou_to_koi_ni_tsuite/vol1_chapter_1_about_his_irritation_and_love_1/29.jpg",
    "https://img-proxy.imgfo.com/?referer=https://manganelo.com&url=https://s7.mkklcdnv6temp.com/mangakakalot/k1/kare_no_shousou_to_koi_ni_tsuite/vol1_chapter_1_about_his_irritation_and_love_1/30.jpg",
    "https://img-proxy.imgfo.com/?referer=https://manganelo.com&url=https://s7.mkklcdnv6temp.com/mangakakalot/k1/kare_no_shousou_to_koi_ni_tsuite/vol1_chapter_1_about_his_irritation_and_love_1/31.jpg",
    "https://img-proxy.imgfo.com/?referer=https://manganelo.com&url=https://s7.mkklcdnv6temp.com/mangakakalot/k1/kare_no_shousou_to_koi_ni_tsuite/vol1_chapter_1_about_his_irritation_and_love_1/32.jpg",
    "https://img-proxy.imgfo.com/?referer=https://manganelo.com&url=https://s7.mkklcdnv6temp.com/mangakakalot/k1/kare_no_shousou_to_koi_ni_tsuite/vol1_chapter_1_about_his_irritation_and_love_1/33.jpg",
    "https://img-proxy.imgfo.com/?referer=https://manganelo.com&url=https://s7.mkklcdnv6temp.com/mangakakalot/k1/kare_no_shousou_to_koi_ni_tsuite/vol1_chapter_1_about_his_irritation_and_love_1/34.jpg",
    "https://img-proxy.imgfo.com/?referer=https://manganelo.com&url=https://s7.mkklcdnv6temp.com/mangakakalot/k1/kare_no_shousou_to_koi_ni_tsuite/vol1_chapter_1_about_his_irritation_and_love_1/35.jpg",
    "https://img-proxy.imgfo.com/?referer=https://manganelo.com&url=https://s7.mkklcdnv6temp.com/mangakakalot/k1/kare_no_shousou_to_koi_ni_tsuite/vol1_chapter_1_about_his_irritation_and_love_1/36.jpg",
    "https://img-proxy.imgfo.com/?referer=https://manganelo.com&url=https://s7.mkklcdnv6temp.com/mangakakalot/k1/kare_no_shousou_to_koi_ni_tsuite/vol1_chapter_1_about_his_irritation_and_love_1/37.jpg"
  ]
}