{
  "cover": "http://ww1.heaventoon.com/content/upload/images/Gokukoku-No-Brynhildr.jpg",
  "title": "Gokukoku no Brynhildr",
  "genre": "Action, Drama, Ecchi, Harem, Manga, Mature, Romance, Sci-fi, Seinen, Tragedy",
  "author": "OKAMOTO Lynn",
  "status": "Completed",
  "backlink": "https://manganu.com/collections/okamoto-lynn/gokukoku-no-brynhildr/",
  "description": "When he was a child, Murakami was infatuated with a girl he called Kuroneko. She insisted on knowing about aliens and having met them, but no one believed her, even young Murakami was skeptical. One day, she decides to show him the aliens, but an accident occurs and Kuroneko dies while Murakami is left seriously wounded in the hospital. Years go by and Murakami obsesses on finding proof of the existence of aliens because of a promise he had made with Kuroneko. Then, one day, a new transfer student comes to his class, who not only looks a lot like Kuroneko, but is named Kuroha Neko! And even though she insists on never having met Murakami before, the girl has superhuman strength and seems to even be able to predict the future! How will Murakami&nbsp;life change now that he has been saved by this mysterious girl that claims to be a magician?",
  "language": "English",
  "images": [
    "http://ww1.heaventoon.com/content/upload/file/2017/11/02/gokukoku-no-brynhildr-chap-90-page-0.png",
    "http://ww1.heaventoon.com/content/upload/file/2017/11/02/gokukoku-no-brynhildr-chap-90-page-1.png",
    "http://ww1.heaventoon.com/content/upload/file/2017/11/02/gokukoku-no-brynhildr-chap-90-page-2.png",
    "http://ww1.heaventoon.com/content/upload/file/2017/11/02/gokukoku-no-brynhildr-chap-90-page-3.png",
    "http://ww1.heaventoon.com/content/upload/file/2017/11/02/gokukoku-no-brynhildr-chap-90-page-4.png",
    "http://ww1.heaventoon.com/content/upload/file/2017/11/02/gokukoku-no-brynhildr-chap-90-page-5.png",
    "http://ww1.heaventoon.com/content/upload/file/2017/11/02/gokukoku-no-brynhildr-chap-90-page-6.png",
    "http://ww1.heaventoon.com/content/upload/file/2017/11/02/gokukoku-no-brynhildr-chap-90-page-7.png",
    "http://ww1.heaventoon.com/content/upload/file/2017/11/02/gokukoku-no-brynhildr-chap-90-page-8.png",
    "http://ww1.heaventoon.com/content/upload/file/2017/11/02/gokukoku-no-brynhildr-chap-90-page-9.png",
    "http://ww1.heaventoon.com/content/upload/file/2017/11/02/gokukoku-no-brynhildr-chap-90-page-10.png",
    "http://ww1.heaventoon.com/content/upload/file/2017/11/02/gokukoku-no-brynhildr-chap-90-page-11.png",
    "http://ww1.heaventoon.com/content/upload/file/2017/11/02/gokukoku-no-brynhildr-chap-90-page-12.png",
    "http://ww1.heaventoon.com/content/upload/file/2017/11/02/gokukoku-no-brynhildr-chap-90-page-13.png",
    "http://ww1.heaventoon.com/content/upload/file/2017/11/02/gokukoku-no-brynhildr-chap-90-page-14.png",
    "http://ww1.heaventoon.com/content/upload/file/2017/11/02/gokukoku-no-brynhildr-chap-90-page-15.png",
    "http://ww1.heaventoon.com/content/upload/file/2017/11/02/gokukoku-no-brynhildr-chap-90-page-16.png",
    "http://ww1.heaventoon.com/content/upload/file/2017/11/02/gokukoku-no-brynhildr-chap-90-page-17.png",
    "http://ww1.heaventoon.com/content/upload/file/2017/11/02/gokukoku-no-brynhildr-chap-90-page-18.png"
  ]
}