{
  "cover": "https://avt.mkklcdnv6.com/45/c/4-1583471588.jpg",
  "title": "Super-Dreadnought Girl 4946",
  "original": "Chōdokyū Shōjo 4946 Superdreadnought Girl 4946 ; Choudokyuu Shoujo 4946",
  "genre": "Action, Comedy, Drama, Romance, School life, Sci fi, Shounen, Supernatural, Manga",
  "author": "Azuma Takeshi",
  "status": "Completed",
  "backlink": "https://manganu.com/collections/azuma-takeshi/super-dreadnought-girl-4946/",
  "description": "With his phrase \"don't you dare make girls cry,\" Makoto Tobita has failed his 30th confession, but that won't stop him. Promising to do anything for the girl who smiles at him, no matter what it is, what will happen now when the alien fighting - giant girl, Mana Eimiya, is in love with him?",
  "language": "English",
  "images": [
    "https://img-proxy.imgfo.com/?referer=https://manganelo.com&url=https://s41.mkklcdnv6temp.com/mangakakalot/s2/superdreadnought_girl_4946/vol2_chapter_8_special_move/1.jpg",
    "https://img-proxy.imgfo.com/?referer=https://manganelo.com&url=https://s41.mkklcdnv6temp.com/mangakakalot/s2/superdreadnought_girl_4946/vol2_chapter_8_special_move/2.jpg",
    "https://img-proxy.imgfo.com/?referer=https://manganelo.com&url=https://s41.mkklcdnv6temp.com/mangakakalot/s2/superdreadnought_girl_4946/vol2_chapter_8_special_move/3.jpg",
    "https://img-proxy.imgfo.com/?referer=https://manganelo.com&url=https://s41.mkklcdnv6temp.com/mangakakalot/s2/superdreadnought_girl_4946/vol2_chapter_8_special_move/4.jpg",
    "https://img-proxy.imgfo.com/?referer=https://manganelo.com&url=https://s41.mkklcdnv6temp.com/mangakakalot/s2/superdreadnought_girl_4946/vol2_chapter_8_special_move/5.jpg",
    "https://img-proxy.imgfo.com/?referer=https://manganelo.com&url=https://s41.mkklcdnv6temp.com/mangakakalot/s2/superdreadnought_girl_4946/vol2_chapter_8_special_move/6.jpg",
    "https://img-proxy.imgfo.com/?referer=https://manganelo.com&url=https://s41.mkklcdnv6temp.com/mangakakalot/s2/superdreadnought_girl_4946/vol2_chapter_8_special_move/7.jpg",
    "https://img-proxy.imgfo.com/?referer=https://manganelo.com&url=https://s41.mkklcdnv6temp.com/mangakakalot/s2/superdreadnought_girl_4946/vol2_chapter_8_special_move/8.jpg",
    "https://img-proxy.imgfo.com/?referer=https://manganelo.com&url=https://s41.mkklcdnv6temp.com/mangakakalot/s2/superdreadnought_girl_4946/vol2_chapter_8_special_move/9.jpg",
    "https://img-proxy.imgfo.com/?referer=https://manganelo.com&url=https://s41.mkklcdnv6temp.com/mangakakalot/s2/superdreadnought_girl_4946/vol2_chapter_8_special_move/10.jpg",
    "https://img-proxy.imgfo.com/?referer=https://manganelo.com&url=https://s41.mkklcdnv6temp.com/mangakakalot/s2/superdreadnought_girl_4946/vol2_chapter_8_special_move/11.jpg",
    "https://img-proxy.imgfo.com/?referer=https://manganelo.com&url=https://s41.mkklcdnv6temp.com/mangakakalot/s2/superdreadnought_girl_4946/vol2_chapter_8_special_move/12.jpg",
    "https://img-proxy.imgfo.com/?referer=https://manganelo.com&url=https://s41.mkklcdnv6temp.com/mangakakalot/s2/superdreadnought_girl_4946/vol2_chapter_8_special_move/13.jpg",
    "https://img-proxy.imgfo.com/?referer=https://manganelo.com&url=https://s41.mkklcdnv6temp.com/mangakakalot/s2/superdreadnought_girl_4946/vol2_chapter_8_special_move/14.jpg",
    "https://img-proxy.imgfo.com/?referer=https://manganelo.com&url=https://s41.mkklcdnv6temp.com/mangakakalot/s2/superdreadnought_girl_4946/vol2_chapter_8_special_move/15.jpg",
    "https://img-proxy.imgfo.com/?referer=https://manganelo.com&url=https://s41.mkklcdnv6temp.com/mangakakalot/s2/superdreadnought_girl_4946/vol2_chapter_8_special_move/16.jpg",
    "https://img-proxy.imgfo.com/?referer=https://manganelo.com&url=https://s41.mkklcdnv6temp.com/mangakakalot/s2/superdreadnought_girl_4946/vol2_chapter_8_special_move/17.jpg",
    "https://img-proxy.imgfo.com/?referer=https://manganelo.com&url=https://s41.mkklcdnv6temp.com/mangakakalot/s2/superdreadnought_girl_4946/vol2_chapter_8_special_move/18.jpg",
    "https://img-proxy.imgfo.com/?referer=https://manganelo.com&url=https://s41.mkklcdnv6temp.com/mangakakalot/s2/superdreadnought_girl_4946/vol2_chapter_8_special_move/19.jpg",
    "https://img-proxy.imgfo.com/?referer=https://manganelo.com&url=https://s41.mkklcdnv6temp.com/mangakakalot/s2/superdreadnought_girl_4946/vol2_chapter_8_special_move/20.jpg",
    "https://img-proxy.imgfo.com/?referer=https://manganelo.com&url=https://s41.mkklcdnv6temp.com/mangakakalot/s2/superdreadnought_girl_4946/vol2_chapter_8_special_move/21.jpg",
    "https://img-proxy.imgfo.com/?referer=https://manganelo.com&url=https://s41.mkklcdnv6temp.com/mangakakalot/s2/superdreadnought_girl_4946/vol2_chapter_8_special_move/22.jpg",
    "https://img-proxy.imgfo.com/?referer=https://manganelo.com&url=https://s41.mkklcdnv6temp.com/mangakakalot/s2/superdreadnought_girl_4946/vol2_chapter_8_special_move/23.jpg",
    "https://img-proxy.imgfo.com/?referer=https://manganelo.com&url=https://s41.mkklcdnv6temp.com/mangakakalot/s2/superdreadnought_girl_4946/vol2_chapter_8_special_move/24.jpg",
    "https://img-proxy.imgfo.com/?referer=https://manganelo.com&url=https://s41.mkklcdnv6temp.com/mangakakalot/s2/superdreadnought_girl_4946/vol2_chapter_8_special_move/25.jpg",
    "https://img-proxy.imgfo.com/?referer=https://manganelo.com&url=https://s41.mkklcdnv6temp.com/mangakakalot/s2/superdreadnought_girl_4946/vol2_chapter_8_special_move/26.jpg",
    "https://img-proxy.imgfo.com/?referer=https://manganelo.com&url=https://s41.mkklcdnv6temp.com/mangakakalot/s2/superdreadnought_girl_4946/vol2_chapter_8_special_move/27.jpg",
    "https://img-proxy.imgfo.com/?referer=https://manganelo.com&url=https://s41.mkklcdnv6temp.com/mangakakalot/s2/superdreadnought_girl_4946/vol2_chapter_8_special_move/28.jpg",
    "https://img-proxy.imgfo.com/?referer=https://manganelo.com&url=https://s41.mkklcdnv6temp.com/mangakakalot/s2/superdreadnought_girl_4946/vol2_chapter_8_special_move/29.jpg",
    "https://img-proxy.imgfo.com/?referer=https://manganelo.com&url=https://s41.mkklcdnv6temp.com/mangakakalot/s2/superdreadnought_girl_4946/vol2_chapter_8_special_move/30.jpg",
    "https://img-proxy.imgfo.com/?referer=https://manganelo.com&url=https://s41.mkklcdnv6temp.com/mangakakalot/s2/superdreadnought_girl_4946/vol2_chapter_8_special_move/31.jpg",
    "https://img-proxy.imgfo.com/?referer=https://manganelo.com&url=https://s41.mkklcdnv6temp.com/mangakakalot/s2/superdreadnought_girl_4946/vol2_chapter_8_special_move/32.jpg",
    "https://img-proxy.imgfo.com/?referer=https://manganelo.com&url=https://s41.mkklcdnv6temp.com/mangakakalot/s2/superdreadnought_girl_4946/vol2_chapter_8_special_move/33.jpg",
    "https://img-proxy.imgfo.com/?referer=https://manganelo.com&url=https://s41.mkklcdnv6temp.com/mangakakalot/s2/superdreadnought_girl_4946/vol2_chapter_8_special_move/34.jpg",
    "https://img-proxy.imgfo.com/?referer=https://manganelo.com&url=https://s41.mkklcdnv6temp.com/mangakakalot/s2/superdreadnought_girl_4946/vol2_chapter_8_special_move/35.jpg"
  ]
}