{
  "cover": "https://avt.mkklcdnv6.com/12/d/4-1583470162.jpg",
  "title": "Ameiro Kouchakan Kandan",
  "original": "飴色紅茶館歓談 (Japanese); Ameiro Kochakan Kandan; Ameiro Kohchakan Kandan; Chatting at the Amber Teahouse; Chatting Over Tea at the Amber Teahouse (English)",
  "genre": "Comedy, Shoujo ai, Slice of life, Manga",
  "author": "Fujieda Miyabi",
  "status": "Completed",
  "backlink": "https://manganu.com/collections/fujieda-miyabi/ameiro-kouchakan-kandan/",
  "description": "Set at a shop called The Amber Teahouse, this is a very heartwarming story that focuses on Seriho, the proprietor of the teahouse, and Sarasa, the high school student who works there part-time. It&#39;ll set your heart aflutter!",
  "language": "English",
  "images": [
    "https://img-proxy.imgfo.com/?referer=https://manganelo.com&url=https://s5.mkklcdnv6temp.com/mangakakalot/a1/ameiro_kouchakan_kandan/vol1_chapter_6/1.jpg",
    "https://img-proxy.imgfo.com/?referer=https://manganelo.com&url=https://s5.mkklcdnv6temp.com/mangakakalot/a1/ameiro_kouchakan_kandan/vol1_chapter_6/2.jpg",
    "https://img-proxy.imgfo.com/?referer=https://manganelo.com&url=https://s5.mkklcdnv6temp.com/mangakakalot/a1/ameiro_kouchakan_kandan/vol1_chapter_6/3.jpg",
    "https://img-proxy.imgfo.com/?referer=https://manganelo.com&url=https://s5.mkklcdnv6temp.com/mangakakalot/a1/ameiro_kouchakan_kandan/vol1_chapter_6/4.jpg",
    "https://img-proxy.imgfo.com/?referer=https://manganelo.com&url=https://s5.mkklcdnv6temp.com/mangakakalot/a1/ameiro_kouchakan_kandan/vol1_chapter_6/5.jpg",
    "https://img-proxy.imgfo.com/?referer=https://manganelo.com&url=https://s5.mkklcdnv6temp.com/mangakakalot/a1/ameiro_kouchakan_kandan/vol1_chapter_6/6.jpg",
    "https://img-proxy.imgfo.com/?referer=https://manganelo.com&url=https://s5.mkklcdnv6temp.com/mangakakalot/a1/ameiro_kouchakan_kandan/vol1_chapter_6/7.jpg",
    "https://img-proxy.imgfo.com/?referer=https://manganelo.com&url=https://s5.mkklcdnv6temp.com/mangakakalot/a1/ameiro_kouchakan_kandan/vol1_chapter_6/8.jpg",
    "https://img-proxy.imgfo.com/?referer=https://manganelo.com&url=https://s5.mkklcdnv6temp.com/mangakakalot/a1/ameiro_kouchakan_kandan/vol1_chapter_6/9.jpg",
    "https://img-proxy.imgfo.com/?referer=https://manganelo.com&url=https://s5.mkklcdnv6temp.com/mangakakalot/a1/ameiro_kouchakan_kandan/vol1_chapter_6/10.jpg",
    "https://img-proxy.imgfo.com/?referer=https://manganelo.com&url=https://s5.mkklcdnv6temp.com/mangakakalot/a1/ameiro_kouchakan_kandan/vol1_chapter_6/11.jpg"
  ]
}