{
  "cover": "https://avt.mkklcdnv6.com/6/v/10-1583482419.jpg",
  "title": "Painting Warriors",
  "original": "绘战师 ; Painting",
  "genre": "Action, Adventure, Drama, Fantasy, Historical, Shounen, Manhwa",
  "author": "Suen Wai Kwan",
  "status": "Completed",
  "backlink": "https://manganu.com/collections/suen-wai-kwan/painting-warriors/",
  "description": "In the early Song Dynasty (AD 960-1127), at the western border of the Tangut Empire - a pivot point of the Silk Road - furious battles were being fought. Brave warriors of the Tangut and a strange religious army from the west battled for a rumoured sacred item. Conflicts, conspiracies, and religious struggles - moving in the heart of the battlefield, the \"untouchable war painter\" Tao Hui paints nothing but the truth!\n(from Manga Updates)",
  "language": "English",
  "images": [
    "https://img-proxy.imgfo.com/?referer=https://manganelo.com&url=https://s5.mkklcdnv6temp.com/mangakakalot/p1/painting_warriors/vol1_chapter_4_medium_of_a_holy_spirit/1.jpg",
    "https://img-proxy.imgfo.com/?referer=https://manganelo.com&url=https://s5.mkklcdnv6temp.com/mangakakalot/p1/painting_warriors/vol1_chapter_4_medium_of_a_holy_spirit/2.jpg",
    "https://img-proxy.imgfo.com/?referer=https://manganelo.com&url=https://s5.mkklcdnv6temp.com/mangakakalot/p1/painting_warriors/vol1_chapter_4_medium_of_a_holy_spirit/3.jpg",
    "https://img-proxy.imgfo.com/?referer=https://manganelo.com&url=https://s5.mkklcdnv6temp.com/mangakakalot/p1/painting_warriors/vol1_chapter_4_medium_of_a_holy_spirit/4.jpg",
    "https://img-proxy.imgfo.com/?referer=https://manganelo.com&url=https://s5.mkklcdnv6temp.com/mangakakalot/p1/painting_warriors/vol1_chapter_4_medium_of_a_holy_spirit/5.jpg",
    "https://img-proxy.imgfo.com/?referer=https://manganelo.com&url=https://s5.mkklcdnv6temp.com/mangakakalot/p1/painting_warriors/vol1_chapter_4_medium_of_a_holy_spirit/6.jpg",
    "https://img-proxy.imgfo.com/?referer=https://manganelo.com&url=https://s5.mkklcdnv6temp.com/mangakakalot/p1/painting_warriors/vol1_chapter_4_medium_of_a_holy_spirit/7.jpg",
    "https://img-proxy.imgfo.com/?referer=https://manganelo.com&url=https://s5.mkklcdnv6temp.com/mangakakalot/p1/painting_warriors/vol1_chapter_4_medium_of_a_holy_spirit/8.jpg",
    "https://img-proxy.imgfo.com/?referer=https://manganelo.com&url=https://s5.mkklcdnv6temp.com/mangakakalot/p1/painting_warriors/vol1_chapter_4_medium_of_a_holy_spirit/9.jpg",
    "https://img-proxy.imgfo.com/?referer=https://manganelo.com&url=https://s5.mkklcdnv6temp.com/mangakakalot/p1/painting_warriors/vol1_chapter_4_medium_of_a_holy_spirit/10.jpg",
    "https://img-proxy.imgfo.com/?referer=https://manganelo.com&url=https://s5.mkklcdnv6temp.com/mangakakalot/p1/painting_warriors/vol1_chapter_4_medium_of_a_holy_spirit/11.jpg",
    "https://img-proxy.imgfo.com/?referer=https://manganelo.com&url=https://s5.mkklcdnv6temp.com/mangakakalot/p1/painting_warriors/vol1_chapter_4_medium_of_a_holy_spirit/12.jpg",
    "https://img-proxy.imgfo.com/?referer=https://manganelo.com&url=https://s5.mkklcdnv6temp.com/mangakakalot/p1/painting_warriors/vol1_chapter_4_medium_of_a_holy_spirit/13.jpg",
    "https://img-proxy.imgfo.com/?referer=https://manganelo.com&url=https://s5.mkklcdnv6temp.com/mangakakalot/p1/painting_warriors/vol1_chapter_4_medium_of_a_holy_spirit/14.jpg",
    "https://img-proxy.imgfo.com/?referer=https://manganelo.com&url=https://s5.mkklcdnv6temp.com/mangakakalot/p1/painting_warriors/vol1_chapter_4_medium_of_a_holy_spirit/15.jpg",
    "https://img-proxy.imgfo.com/?referer=https://manganelo.com&url=https://s5.mkklcdnv6temp.com/mangakakalot/p1/painting_warriors/vol1_chapter_4_medium_of_a_holy_spirit/16.jpg",
    "https://img-proxy.imgfo.com/?referer=https://manganelo.com&url=https://s5.mkklcdnv6temp.com/mangakakalot/p1/painting_warriors/vol1_chapter_4_medium_of_a_holy_spirit/17.jpg",
    "https://img-proxy.imgfo.com/?referer=https://manganelo.com&url=https://s5.mkklcdnv6temp.com/mangakakalot/p1/painting_warriors/vol1_chapter_4_medium_of_a_holy_spirit/18.jpg",
    "https://img-proxy.imgfo.com/?referer=https://manganelo.com&url=https://s5.mkklcdnv6temp.com/mangakakalot/p1/painting_warriors/vol1_chapter_4_medium_of_a_holy_spirit/19.jpg",
    "https://img-proxy.imgfo.com/?referer=https://manganelo.com&url=https://s5.mkklcdnv6temp.com/mangakakalot/p1/painting_warriors/vol1_chapter_4_medium_of_a_holy_spirit/20.jpg",
    "https://img-proxy.imgfo.com/?referer=https://manganelo.com&url=https://s5.mkklcdnv6temp.com/mangakakalot/p1/painting_warriors/vol1_chapter_4_medium_of_a_holy_spirit/21.jpg"
  ]
}