{
  "cover": "https://avt.mkklcdnv6.com/33/t/2-1583467001.jpg",
  "title": "Komatta Toki Ni Wa Hoshi Ni Kike!",
  "original": "困った時には星に聞け！ ; 微忧青春日记 ; Komahoshi ; Komatta Toki ni wa Hoshi ni Kike ; Komatta Toki ni wa Hosi ni Kike! ; Komatta Toki niwa Hoshi ni Kike ; Komatta Toki niwa Hoshi ni Kike! ; 괴로울땐 별님에게 물어봐 ; 괴별물 ; No One Can Force to Stop Others from Loving Other People! ; Bí mật học đường ; Ask the Stars for Help! ; When You Are Troubled, Ask The Star!",
  "genre": "Comedy, Drama, School life, Shounen ai, Slice of life, Manga",
  "author": "Abe Miyuki",
  "status": "Completed",
  "backlink": "https://manganu.com/collections/abe-miyuki/komatta-toki-ni-wa-hoshi-ni-kike/",
  "description": "Fujishima Takara goes to high school and will start living in a dorm because he has lost all his family except for his father, who's always away for his work. Takara has to share a room with Hosaka Kiyomine. Living together isn't easy, and many rows ensue. Kiyomine is very introverted, while Takara is just the opposite. At first the two get on each other's nerves because of those differences. But things turn towards friendship and later on, towards love?",
  "language": "English",
  "images": [
    "https://img-proxy.imgfo.com/?referer=https://manganelo.com&url=https://s7.mkklcdnv6temp.com/mangakakalot/k2/komatta_toki_ni_wa_hoshi_ni_kike/vol8_chapter_22/1.jpg",
    "https://img-proxy.imgfo.com/?referer=https://manganelo.com&url=https://s7.mkklcdnv6temp.com/mangakakalot/k2/komatta_toki_ni_wa_hoshi_ni_kike/vol8_chapter_22/2.jpg",
    "https://img-proxy.imgfo.com/?referer=https://manganelo.com&url=https://s7.mkklcdnv6temp.com/mangakakalot/k2/komatta_toki_ni_wa_hoshi_ni_kike/vol8_chapter_22/3.jpg",
    "https://img-proxy.imgfo.com/?referer=https://manganelo.com&url=https://s7.mkklcdnv6temp.com/mangakakalot/k2/komatta_toki_ni_wa_hoshi_ni_kike/vol8_chapter_22/4.jpg",
    "https://img-proxy.imgfo.com/?referer=https://manganelo.com&url=https://s7.mkklcdnv6temp.com/mangakakalot/k2/komatta_toki_ni_wa_hoshi_ni_kike/vol8_chapter_22/5.jpg",
    "https://img-proxy.imgfo.com/?referer=https://manganelo.com&url=https://s7.mkklcdnv6temp.com/mangakakalot/k2/komatta_toki_ni_wa_hoshi_ni_kike/vol8_chapter_22/6.jpg",
    "https://img-proxy.imgfo.com/?referer=https://manganelo.com&url=https://s7.mkklcdnv6temp.com/mangakakalot/k2/komatta_toki_ni_wa_hoshi_ni_kike/vol8_chapter_22/7.jpg",
    "https://img-proxy.imgfo.com/?referer=https://manganelo.com&url=https://s7.mkklcdnv6temp.com/mangakakalot/k2/komatta_toki_ni_wa_hoshi_ni_kike/vol8_chapter_22/8.jpg",
    "https://img-proxy.imgfo.com/?referer=https://manganelo.com&url=https://s7.mkklcdnv6temp.com/mangakakalot/k2/komatta_toki_ni_wa_hoshi_ni_kike/vol8_chapter_22/9.jpg",
    "https://img-proxy.imgfo.com/?referer=https://manganelo.com&url=https://s7.mkklcdnv6temp.com/mangakakalot/k2/komatta_toki_ni_wa_hoshi_ni_kike/vol8_chapter_22/10.jpg",
    "https://img-proxy.imgfo.com/?referer=https://manganelo.com&url=https://s7.mkklcdnv6temp.com/mangakakalot/k2/komatta_toki_ni_wa_hoshi_ni_kike/vol8_chapter_22/11.jpg",
    "https://img-proxy.imgfo.com/?referer=https://manganelo.com&url=https://s7.mkklcdnv6temp.com/mangakakalot/k2/komatta_toki_ni_wa_hoshi_ni_kike/vol8_chapter_22/12.jpg",
    "https://img-proxy.imgfo.com/?referer=https://manganelo.com&url=https://s7.mkklcdnv6temp.com/mangakakalot/k2/komatta_toki_ni_wa_hoshi_ni_kike/vol8_chapter_22/13.jpg",
    "https://img-proxy.imgfo.com/?referer=https://manganelo.com&url=https://s7.mkklcdnv6temp.com/mangakakalot/k2/komatta_toki_ni_wa_hoshi_ni_kike/vol8_chapter_22/14.jpg",
    "https://img-proxy.imgfo.com/?referer=https://manganelo.com&url=https://s7.mkklcdnv6temp.com/mangakakalot/k2/komatta_toki_ni_wa_hoshi_ni_kike/vol8_chapter_22/15.jpg",
    "https://img-proxy.imgfo.com/?referer=https://manganelo.com&url=https://s7.mkklcdnv6temp.com/mangakakalot/k2/komatta_toki_ni_wa_hoshi_ni_kike/vol8_chapter_22/16.jpg",
    "https://img-proxy.imgfo.com/?referer=https://manganelo.com&url=https://s7.mkklcdnv6temp.com/mangakakalot/k2/komatta_toki_ni_wa_hoshi_ni_kike/vol8_chapter_22/17.jpg",
    "https://img-proxy.imgfo.com/?referer=https://manganelo.com&url=https://s7.mkklcdnv6temp.com/mangakakalot/k2/komatta_toki_ni_wa_hoshi_ni_kike/vol8_chapter_22/18.jpg",
    "https://img-proxy.imgfo.com/?referer=https://manganelo.com&url=https://s7.mkklcdnv6temp.com/mangakakalot/k2/komatta_toki_ni_wa_hoshi_ni_kike/vol8_chapter_22/19.jpg",
    "https://img-proxy.imgfo.com/?referer=https://manganelo.com&url=https://s7.mkklcdnv6temp.com/mangakakalot/k2/komatta_toki_ni_wa_hoshi_ni_kike/vol8_chapter_22/20.jpg",
    "https://img-proxy.imgfo.com/?referer=https://manganelo.com&url=https://s7.mkklcdnv6temp.com/mangakakalot/k2/komatta_toki_ni_wa_hoshi_ni_kike/vol8_chapter_22/21.jpg",
    "https://img-proxy.imgfo.com/?referer=https://manganelo.com&url=https://s7.mkklcdnv6temp.com/mangakakalot/k2/komatta_toki_ni_wa_hoshi_ni_kike/vol8_chapter_22/22.jpg",
    "https://img-proxy.imgfo.com/?referer=https://manganelo.com&url=https://s7.mkklcdnv6temp.com/mangakakalot/k2/komatta_toki_ni_wa_hoshi_ni_kike/vol8_chapter_22/23.jpg",
    "https://img-proxy.imgfo.com/?referer=https://manganelo.com&url=https://s7.mkklcdnv6temp.com/mangakakalot/k2/komatta_toki_ni_wa_hoshi_ni_kike/vol8_chapter_22/24.jpg",
    "https://img-proxy.imgfo.com/?referer=https://manganelo.com&url=https://s7.mkklcdnv6temp.com/mangakakalot/k2/komatta_toki_ni_wa_hoshi_ni_kike/vol8_chapter_22/25.jpg",
    "https://img-proxy.imgfo.com/?referer=https://manganelo.com&url=https://s7.mkklcdnv6temp.com/mangakakalot/k2/komatta_toki_ni_wa_hoshi_ni_kike/vol8_chapter_22/26.jpg",
    "https://img-proxy.imgfo.com/?referer=https://manganelo.com&url=https://s7.mkklcdnv6temp.com/mangakakalot/k2/komatta_toki_ni_wa_hoshi_ni_kike/vol8_chapter_22/27.jpg",
    "https://img-proxy.imgfo.com/?referer=https://manganelo.com&url=https://s7.mkklcdnv6temp.com/mangakakalot/k2/komatta_toki_ni_wa_hoshi_ni_kike/vol8_chapter_22/28.jpg",
    "https://img-proxy.imgfo.com/?referer=https://manganelo.com&url=https://s7.mkklcdnv6temp.com/mangakakalot/k2/komatta_toki_ni_wa_hoshi_ni_kike/vol8_chapter_22/29.jpg",
    "https://img-proxy.imgfo.com/?referer=https://manganelo.com&url=https://s7.mkklcdnv6temp.com/mangakakalot/k2/komatta_toki_ni_wa_hoshi_ni_kike/vol8_chapter_22/30.jpg",
    "https://img-proxy.imgfo.com/?referer=https://manganelo.com&url=https://s7.mkklcdnv6temp.com/mangakakalot/k2/komatta_toki_ni_wa_hoshi_ni_kike/vol8_chapter_22/31.jpg",
    "https://img-proxy.imgfo.com/?referer=https://manganelo.com&url=https://s7.mkklcdnv6temp.com/mangakakalot/k2/komatta_toki_ni_wa_hoshi_ni_kike/vol8_chapter_22/32.jpg",
    "https://img-proxy.imgfo.com/?referer=https://manganelo.com&url=https://s7.mkklcdnv6temp.com/mangakakalot/k2/komatta_toki_ni_wa_hoshi_ni_kike/vol8_chapter_22/33.jpg",
    "https://img-proxy.imgfo.com/?referer=https://manganelo.com&url=https://s7.mkklcdnv6temp.com/mangakakalot/k2/komatta_toki_ni_wa_hoshi_ni_kike/vol8_chapter_22/34.jpg",
    "https://img-proxy.imgfo.com/?referer=https://manganelo.com&url=https://s7.mkklcdnv6temp.com/mangakakalot/k2/komatta_toki_ni_wa_hoshi_ni_kike/vol8_chapter_22/35.jpg",
    "https://img-proxy.imgfo.com/?referer=https://manganelo.com&url=https://s7.mkklcdnv6temp.com/mangakakalot/k2/komatta_toki_ni_wa_hoshi_ni_kike/vol8_chapter_22/36.jpg",
    "https://img-proxy.imgfo.com/?referer=https://manganelo.com&url=https://s7.mkklcdnv6temp.com/mangakakalot/k2/komatta_toki_ni_wa_hoshi_ni_kike/vol8_chapter_22/37.jpg",
    "https://img-proxy.imgfo.com/?referer=https://manganelo.com&url=https://s7.mkklcdnv6temp.com/mangakakalot/k2/komatta_toki_ni_wa_hoshi_ni_kike/vol8_chapter_22/38.jpg",
    "https://img-proxy.imgfo.com/?referer=https://manganelo.com&url=https://s7.mkklcdnv6temp.com/mangakakalot/k2/komatta_toki_ni_wa_hoshi_ni_kike/vol8_chapter_22/39.jpg",
    "https://img-proxy.imgfo.com/?referer=https://manganelo.com&url=https://s7.mkklcdnv6temp.com/mangakakalot/k2/komatta_toki_ni_wa_hoshi_ni_kike/vol8_chapter_22/40.jpg",
    "https://img-proxy.imgfo.com/?referer=https://manganelo.com&url=https://s7.mkklcdnv6temp.com/mangakakalot/k2/komatta_toki_ni_wa_hoshi_ni_kike/vol8_chapter_22/41.jpg",
    "https://img-proxy.imgfo.com/?referer=https://manganelo.com&url=https://s7.mkklcdnv6temp.com/mangakakalot/k2/komatta_toki_ni_wa_hoshi_ni_kike/vol8_chapter_22/42.jpg",
    "https://img-proxy.imgfo.com/?referer=https://manganelo.com&url=https://s7.mkklcdnv6temp.com/mangakakalot/k2/komatta_toki_ni_wa_hoshi_ni_kike/vol8_chapter_22/43.jpg",
    "https://img-proxy.imgfo.com/?referer=https://manganelo.com&url=https://s7.mkklcdnv6temp.com/mangakakalot/k2/komatta_toki_ni_wa_hoshi_ni_kike/vol8_chapter_22/44.jpg",
    "https://img-proxy.imgfo.com/?referer=https://manganelo.com&url=https://s7.mkklcdnv6temp.com/mangakakalot/k2/komatta_toki_ni_wa_hoshi_ni_kike/vol8_chapter_22/45.jpg",
    "https://img-proxy.imgfo.com/?referer=https://manganelo.com&url=https://s7.mkklcdnv6temp.com/mangakakalot/k2/komatta_toki_ni_wa_hoshi_ni_kike/vol8_chapter_22/46.jpg",
    "https://img-proxy.imgfo.com/?referer=https://manganelo.com&url=https://s7.mkklcdnv6temp.com/mangakakalot/k2/komatta_toki_ni_wa_hoshi_ni_kike/vol8_chapter_22/47.jpg",
    "https://img-proxy.imgfo.com/?referer=https://manganelo.com&url=https://s7.mkklcdnv6temp.com/mangakakalot/k2/komatta_toki_ni_wa_hoshi_ni_kike/vol8_chapter_22/48.jpg",
    "https://img-proxy.imgfo.com/?referer=https://manganelo.com&url=https://s7.mkklcdnv6temp.com/mangakakalot/k2/komatta_toki_ni_wa_hoshi_ni_kike/vol8_chapter_22/49.jpg",
    "https://img-proxy.imgfo.com/?referer=https://manganelo.com&url=https://s7.mkklcdnv6temp.com/mangakakalot/k2/komatta_toki_ni_wa_hoshi_ni_kike/vol8_chapter_22/50.jpg",
    "https://img-proxy.imgfo.com/?referer=https://manganelo.com&url=https://s7.mkklcdnv6temp.com/mangakakalot/k2/komatta_toki_ni_wa_hoshi_ni_kike/vol8_chapter_22/51.jpg",
    "https://img-proxy.imgfo.com/?referer=https://manganelo.com&url=https://s7.mkklcdnv6temp.com/mangakakalot/k2/komatta_toki_ni_wa_hoshi_ni_kike/vol8_chapter_22/52.jpg",
    "https://img-proxy.imgfo.com/?referer=https://manganelo.com&url=https://s7.mkklcdnv6temp.com/mangakakalot/k2/komatta_toki_ni_wa_hoshi_ni_kike/vol8_chapter_22/53.jpg",
    "https://img-proxy.imgfo.com/?referer=https://manganelo.com&url=https://s7.mkklcdnv6temp.com/mangakakalot/k2/komatta_toki_ni_wa_hoshi_ni_kike/vol8_chapter_22/54.jpg",
    "https://img-proxy.imgfo.com/?referer=https://manganelo.com&url=https://s7.mkklcdnv6temp.com/mangakakalot/k2/komatta_toki_ni_wa_hoshi_ni_kike/vol8_chapter_22/55.jpg"
  ]
}