{
  "cover": "https://avt.mkklcdnv6.com/14/f/13-1583488259.jpg",
  "title": "Hot Limit",
  "genre": "Yaoi, Manga",
  "author": "Shima Minori",
  "status": "Completed",
  "backlink": "https://manganu.com/collections/shima-minori/hot-limit/",
  "description": "By day he is a beautiful honor student, but when night falls, the sexy and lewd \"Maya\" appears. Even though university student Kazuma wants to deny the existence of Maya's double life, he gets drawn in by him. Before long, Kazuma finds out that a young congressman, Tanabe, is manipulating Maya like a puppet, and is using him for the government...",
  "language": "English",
  "images": [
    "https://img-proxy.imgfo.com/?referer=https://manganelo.com&url=https://s41.mkklcdnv6temp.com/mangakakalot/h2/hot_limit/vol1_chapter_4_hot_limit_act_4/1.jpg",
    "https://img-proxy.imgfo.com/?referer=https://manganelo.com&url=https://s41.mkklcdnv6temp.com/mangakakalot/h2/hot_limit/vol1_chapter_4_hot_limit_act_4/2.jpg",
    "https://img-proxy.imgfo.com/?referer=https://manganelo.com&url=https://s41.mkklcdnv6temp.com/mangakakalot/h2/hot_limit/vol1_chapter_4_hot_limit_act_4/3.jpg",
    "https://img-proxy.imgfo.com/?referer=https://manganelo.com&url=https://s41.mkklcdnv6temp.com/mangakakalot/h2/hot_limit/vol1_chapter_4_hot_limit_act_4/4.jpg",
    "https://img-proxy.imgfo.com/?referer=https://manganelo.com&url=https://s41.mkklcdnv6temp.com/mangakakalot/h2/hot_limit/vol1_chapter_4_hot_limit_act_4/5.jpg",
    "https://img-proxy.imgfo.com/?referer=https://manganelo.com&url=https://s41.mkklcdnv6temp.com/mangakakalot/h2/hot_limit/vol1_chapter_4_hot_limit_act_4/6.jpg",
    "https://img-proxy.imgfo.com/?referer=https://manganelo.com&url=https://s41.mkklcdnv6temp.com/mangakakalot/h2/hot_limit/vol1_chapter_4_hot_limit_act_4/7.jpg",
    "https://img-proxy.imgfo.com/?referer=https://manganelo.com&url=https://s41.mkklcdnv6temp.com/mangakakalot/h2/hot_limit/vol1_chapter_4_hot_limit_act_4/8.jpg",
    "https://img-proxy.imgfo.com/?referer=https://manganelo.com&url=https://s41.mkklcdnv6temp.com/mangakakalot/h2/hot_limit/vol1_chapter_4_hot_limit_act_4/9.jpg",
    "https://img-proxy.imgfo.com/?referer=https://manganelo.com&url=https://s41.mkklcdnv6temp.com/mangakakalot/h2/hot_limit/vol1_chapter_4_hot_limit_act_4/10.jpg",
    "https://img-proxy.imgfo.com/?referer=https://manganelo.com&url=https://s41.mkklcdnv6temp.com/mangakakalot/h2/hot_limit/vol1_chapter_4_hot_limit_act_4/11.jpg",
    "https://img-proxy.imgfo.com/?referer=https://manganelo.com&url=https://s41.mkklcdnv6temp.com/mangakakalot/h2/hot_limit/vol1_chapter_4_hot_limit_act_4/12.jpg",
    "https://img-proxy.imgfo.com/?referer=https://manganelo.com&url=https://s41.mkklcdnv6temp.com/mangakakalot/h2/hot_limit/vol1_chapter_4_hot_limit_act_4/13.jpg",
    "https://img-proxy.imgfo.com/?referer=https://manganelo.com&url=https://s41.mkklcdnv6temp.com/mangakakalot/h2/hot_limit/vol1_chapter_4_hot_limit_act_4/14.jpg",
    "https://img-proxy.imgfo.com/?referer=https://manganelo.com&url=https://s41.mkklcdnv6temp.com/mangakakalot/h2/hot_limit/vol1_chapter_4_hot_limit_act_4/15.jpg",
    "https://img-proxy.imgfo.com/?referer=https://manganelo.com&url=https://s41.mkklcdnv6temp.com/mangakakalot/h2/hot_limit/vol1_chapter_4_hot_limit_act_4/16.jpg",
    "https://img-proxy.imgfo.com/?referer=https://manganelo.com&url=https://s41.mkklcdnv6temp.com/mangakakalot/h2/hot_limit/vol1_chapter_4_hot_limit_act_4/17.jpg",
    "https://img-proxy.imgfo.com/?referer=https://manganelo.com&url=https://s41.mkklcdnv6temp.com/mangakakalot/h2/hot_limit/vol1_chapter_4_hot_limit_act_4/18.jpg",
    "https://img-proxy.imgfo.com/?referer=https://manganelo.com&url=https://s41.mkklcdnv6temp.com/mangakakalot/h2/hot_limit/vol1_chapter_4_hot_limit_act_4/19.jpg",
    "https://img-proxy.imgfo.com/?referer=https://manganelo.com&url=https://s41.mkklcdnv6temp.com/mangakakalot/h2/hot_limit/vol1_chapter_4_hot_limit_act_4/20.jpg",
    "https://img-proxy.imgfo.com/?referer=https://manganelo.com&url=https://s41.mkklcdnv6temp.com/mangakakalot/h2/hot_limit/vol1_chapter_4_hot_limit_act_4/21.jpg",
    "https://img-proxy.imgfo.com/?referer=https://manganelo.com&url=https://s41.mkklcdnv6temp.com/mangakakalot/h2/hot_limit/vol1_chapter_4_hot_limit_act_4/22.jpg",
    "https://img-proxy.imgfo.com/?referer=https://manganelo.com&url=https://s41.mkklcdnv6temp.com/mangakakalot/h2/hot_limit/vol1_chapter_4_hot_limit_act_4/23.jpg",
    "https://img-proxy.imgfo.com/?referer=https://manganelo.com&url=https://s41.mkklcdnv6temp.com/mangakakalot/h2/hot_limit/vol1_chapter_4_hot_limit_act_4/24.jpg",
    "https://img-proxy.imgfo.com/?referer=https://manganelo.com&url=https://s41.mkklcdnv6temp.com/mangakakalot/h2/hot_limit/vol1_chapter_4_hot_limit_act_4/25.jpg",
    "https://img-proxy.imgfo.com/?referer=https://manganelo.com&url=https://s41.mkklcdnv6temp.com/mangakakalot/h2/hot_limit/vol1_chapter_4_hot_limit_act_4/26.jpg",
    "https://img-proxy.imgfo.com/?referer=https://manganelo.com&url=https://s41.mkklcdnv6temp.com/mangakakalot/h2/hot_limit/vol1_chapter_4_hot_limit_act_4/27.jpg",
    "https://img-proxy.imgfo.com/?referer=https://manganelo.com&url=https://s41.mkklcdnv6temp.com/mangakakalot/h2/hot_limit/vol1_chapter_4_hot_limit_act_4/28.jpg",
    "https://img-proxy.imgfo.com/?referer=https://manganelo.com&url=https://s41.mkklcdnv6temp.com/mangakakalot/h2/hot_limit/vol1_chapter_4_hot_limit_act_4/29.jpg",
    "https://img-proxy.imgfo.com/?referer=https://manganelo.com&url=https://s41.mkklcdnv6temp.com/mangakakalot/h2/hot_limit/vol1_chapter_4_hot_limit_act_4/30.jpg",
    "https://img-proxy.imgfo.com/?referer=https://manganelo.com&url=https://s41.mkklcdnv6temp.com/mangakakalot/h2/hot_limit/vol1_chapter_4_hot_limit_act_4/31.jpg",
    "https://img-proxy.imgfo.com/?referer=https://manganelo.com&url=https://s41.mkklcdnv6temp.com/mangakakalot/h2/hot_limit/vol1_chapter_4_hot_limit_act_4/32.jpg",
    "https://img-proxy.imgfo.com/?referer=https://manganelo.com&url=https://s41.mkklcdnv6temp.com/mangakakalot/h2/hot_limit/vol1_chapter_4_hot_limit_act_4/33.jpg",
    "https://img-proxy.imgfo.com/?referer=https://manganelo.com&url=https://s41.mkklcdnv6temp.com/mangakakalot/h2/hot_limit/vol1_chapter_4_hot_limit_act_4/34.jpg",
    "https://img-proxy.imgfo.com/?referer=https://manganelo.com&url=https://s41.mkklcdnv6temp.com/mangakakalot/h2/hot_limit/vol1_chapter_4_hot_limit_act_4/35.jpg",
    "https://img-proxy.imgfo.com/?referer=https://manganelo.com&url=https://s41.mkklcdnv6temp.com/mangakakalot/h2/hot_limit/vol1_chapter_4_hot_limit_act_4/36.jpg",
    "https://img-proxy.imgfo.com/?referer=https://manganelo.com&url=https://s41.mkklcdnv6temp.com/mangakakalot/h2/hot_limit/vol1_chapter_4_hot_limit_act_4/37.jpg"
  ]
}