{
  "cover": "https://avt.mkklcdnv6.com/22/y/19-1583500024.jpg",
  "title": "Fukufuku: Kitten Tales",
  "original": "Fuku-Fuku Funya~n,Fuku,Fuku Fuku Funyan,Sweet Fuku-Fuku,เหมียว เหมียว หง่าว ฟุคุฟุคุ (Thai),ふくふくふにゃーん,ふくふくふにゃ～ん",
  "genre": "Adventure, Comedy, Josei, Slice of life, Manga",
  "author": "Kanata Konami",
  "status": "Completed",
  "backlink": "https://manganu.com/collections/kanata-konami/fukufuku-kitten-tales/",
  "description": "From the author of the New York Times manga best seller Chi&rsquo;s Sweet Home comes a delightful series of vignettes in the life of a kitten and her doting owner. To a young kitten, even the most mundane things appear fresh and exciting (and sometimes unpleasant or scary). Join FukuFuku on her journey and rediscover the world from a tiny cat&rsquo;s point of view.",
  "language": "English",
  "images": [
    "https://img-proxy.imgfo.com/?referer=https://manganelo.com&url=https://s7.mkklcdnv6temp.com/mangakakalot/e2/eu920548/vol2_when_you_grow_up/1.jpg",
    "https://img-proxy.imgfo.com/?referer=https://manganelo.com&url=https://s7.mkklcdnv6temp.com/mangakakalot/e2/eu920548/vol2_when_you_grow_up/2.jpg",
    "https://img-proxy.imgfo.com/?referer=https://manganelo.com&url=https://s7.mkklcdnv6temp.com/mangakakalot/e2/eu920548/vol2_when_you_grow_up/3.jpg",
    "https://img-proxy.imgfo.com/?referer=https://manganelo.com&url=https://s7.mkklcdnv6temp.com/mangakakalot/e2/eu920548/vol2_when_you_grow_up/4.jpg",
    "https://img-proxy.imgfo.com/?referer=https://manganelo.com&url=https://s7.mkklcdnv6temp.com/mangakakalot/e2/eu920548/vol2_when_you_grow_up/5.jpg",
    "https://img-proxy.imgfo.com/?referer=https://manganelo.com&url=https://s7.mkklcdnv6temp.com/mangakakalot/e2/eu920548/vol2_when_you_grow_up/6.jpg"
  ]
}