{
  "cover": "https://avt.mkklcdnv6.com/13/a/6-1583474644.jpg",
  "title": "Black Jack",
  "original": "ブラックジャック ; Burakku Jakku",
  "genre": "Adventure, Drama, Shounen, Manga",
  "author": "Tezuka Osamu",
  "status": "Completed",
  "backlink": "https://manganu.com/collections/tezuka-osamu/black-jack/",
  "description": "Taken From ANN: Black Jack is the doctor Tezuka wished he could be, one free of the constraints of the modern rules, who can heal and help on his rules. He travels the world helping those who pay him, sometime those he takes mercy on, and always those who move him. Despite not having a valid license, he is still the doctor of last resort, the only man who keeps the reaper at bay. Sometimes though, he&#39;s the one who brings the reaper...",
  "language": "English",
  "images": [
    "https://img-proxy.imgfo.com/?referer=https://manganelo.com&url=https://s5.mkklcdnv6temp.com/mangakakalot/b1/black_jack/vol3_chapter_9_two_dark_doctors/1.jpg",
    "https://img-proxy.imgfo.com/?referer=https://manganelo.com&url=https://s5.mkklcdnv6temp.com/mangakakalot/b1/black_jack/vol3_chapter_9_two_dark_doctors/2.jpg",
    "https://img-proxy.imgfo.com/?referer=https://manganelo.com&url=https://s5.mkklcdnv6temp.com/mangakakalot/b1/black_jack/vol3_chapter_9_two_dark_doctors/3.jpg",
    "https://img-proxy.imgfo.com/?referer=https://manganelo.com&url=https://s5.mkklcdnv6temp.com/mangakakalot/b1/black_jack/vol3_chapter_9_two_dark_doctors/4.jpg",
    "https://img-proxy.imgfo.com/?referer=https://manganelo.com&url=https://s5.mkklcdnv6temp.com/mangakakalot/b1/black_jack/vol3_chapter_9_two_dark_doctors/5.jpg",
    "https://img-proxy.imgfo.com/?referer=https://manganelo.com&url=https://s5.mkklcdnv6temp.com/mangakakalot/b1/black_jack/vol3_chapter_9_two_dark_doctors/6.jpg",
    "https://img-proxy.imgfo.com/?referer=https://manganelo.com&url=https://s5.mkklcdnv6temp.com/mangakakalot/b1/black_jack/vol3_chapter_9_two_dark_doctors/7.jpg",
    "https://img-proxy.imgfo.com/?referer=https://manganelo.com&url=https://s5.mkklcdnv6temp.com/mangakakalot/b1/black_jack/vol3_chapter_9_two_dark_doctors/8.jpg",
    "https://img-proxy.imgfo.com/?referer=https://manganelo.com&url=https://s5.mkklcdnv6temp.com/mangakakalot/b1/black_jack/vol3_chapter_9_two_dark_doctors/9.jpg",
    "https://img-proxy.imgfo.com/?referer=https://manganelo.com&url=https://s5.mkklcdnv6temp.com/mangakakalot/b1/black_jack/vol3_chapter_9_two_dark_doctors/10.jpg",
    "https://img-proxy.imgfo.com/?referer=https://manganelo.com&url=https://s5.mkklcdnv6temp.com/mangakakalot/b1/black_jack/vol3_chapter_9_two_dark_doctors/11.jpg",
    "https://img-proxy.imgfo.com/?referer=https://manganelo.com&url=https://s5.mkklcdnv6temp.com/mangakakalot/b1/black_jack/vol3_chapter_9_two_dark_doctors/12.jpg",
    "https://img-proxy.imgfo.com/?referer=https://manganelo.com&url=https://s5.mkklcdnv6temp.com/mangakakalot/b1/black_jack/vol3_chapter_9_two_dark_doctors/13.jpg",
    "https://img-proxy.imgfo.com/?referer=https://manganelo.com&url=https://s5.mkklcdnv6temp.com/mangakakalot/b1/black_jack/vol3_chapter_9_two_dark_doctors/14.jpg",
    "https://img-proxy.imgfo.com/?referer=https://manganelo.com&url=https://s5.mkklcdnv6temp.com/mangakakalot/b1/black_jack/vol3_chapter_9_two_dark_doctors/15.jpg",
    "https://img-proxy.imgfo.com/?referer=https://manganelo.com&url=https://s5.mkklcdnv6temp.com/mangakakalot/b1/black_jack/vol3_chapter_9_two_dark_doctors/16.jpg",
    "https://img-proxy.imgfo.com/?referer=https://manganelo.com&url=https://s5.mkklcdnv6temp.com/mangakakalot/b1/black_jack/vol3_chapter_9_two_dark_doctors/17.jpg",
    "https://img-proxy.imgfo.com/?referer=https://manganelo.com&url=https://s5.mkklcdnv6temp.com/mangakakalot/b1/black_jack/vol3_chapter_9_two_dark_doctors/18.jpg",
    "https://img-proxy.imgfo.com/?referer=https://manganelo.com&url=https://s5.mkklcdnv6temp.com/mangakakalot/b1/black_jack/vol3_chapter_9_two_dark_doctors/19.jpg"
  ]
}