{
  "cover": "https://avt.mkklcdnv6.com/43/x/4-1583471516.jpg",
  "title": "Zan",
  "original": "斬",
  "genre": "Action, Adventure, Comedy, Shounen, Manga",
  "author": "Sugita Naoya",
  "status": "Completed",
  "backlink": "https://manganu.com/collections/sugita-naoya/zan/",
  "description": "A samurai manga about a boy named Zan. Zan's father was a legendary swordsman who used a sword which had no edge (think Sakabatou from Ruroken). Zan's father died one day, and ever since, Zan has wanted to follow in his fathers footsteps.\nThe manga starts off with Zan being transfered to a new high school in his second year. When pushed, Zan somehow becomes super strong and has incredible sword technique that allows him to beat his enemies.",
  "language": "English",
  "images": [
    "https://img-proxy.imgfo.com/?referer=https://manganelo.com&url=https://s6.mkklcdnv6temp.com/mangakakalot/z1/zan/vol2_chapter_14_a_new_force/1.jpg",
    "https://img-proxy.imgfo.com/?referer=https://manganelo.com&url=https://s6.mkklcdnv6temp.com/mangakakalot/z1/zan/vol2_chapter_14_a_new_force/2.jpg",
    "https://img-proxy.imgfo.com/?referer=https://manganelo.com&url=https://s6.mkklcdnv6temp.com/mangakakalot/z1/zan/vol2_chapter_14_a_new_force/3.jpg",
    "https://img-proxy.imgfo.com/?referer=https://manganelo.com&url=https://s6.mkklcdnv6temp.com/mangakakalot/z1/zan/vol2_chapter_14_a_new_force/4.jpg",
    "https://img-proxy.imgfo.com/?referer=https://manganelo.com&url=https://s6.mkklcdnv6temp.com/mangakakalot/z1/zan/vol2_chapter_14_a_new_force/5.jpg",
    "https://img-proxy.imgfo.com/?referer=https://manganelo.com&url=https://s6.mkklcdnv6temp.com/mangakakalot/z1/zan/vol2_chapter_14_a_new_force/6.jpg",
    "https://img-proxy.imgfo.com/?referer=https://manganelo.com&url=https://s6.mkklcdnv6temp.com/mangakakalot/z1/zan/vol2_chapter_14_a_new_force/7.jpg",
    "https://img-proxy.imgfo.com/?referer=https://manganelo.com&url=https://s6.mkklcdnv6temp.com/mangakakalot/z1/zan/vol2_chapter_14_a_new_force/8.jpg",
    "https://img-proxy.imgfo.com/?referer=https://manganelo.com&url=https://s6.mkklcdnv6temp.com/mangakakalot/z1/zan/vol2_chapter_14_a_new_force/9.jpg",
    "https://img-proxy.imgfo.com/?referer=https://manganelo.com&url=https://s6.mkklcdnv6temp.com/mangakakalot/z1/zan/vol2_chapter_14_a_new_force/10.jpg",
    "https://img-proxy.imgfo.com/?referer=https://manganelo.com&url=https://s6.mkklcdnv6temp.com/mangakakalot/z1/zan/vol2_chapter_14_a_new_force/11.jpg",
    "https://img-proxy.imgfo.com/?referer=https://manganelo.com&url=https://s6.mkklcdnv6temp.com/mangakakalot/z1/zan/vol2_chapter_14_a_new_force/12.jpg",
    "https://img-proxy.imgfo.com/?referer=https://manganelo.com&url=https://s6.mkklcdnv6temp.com/mangakakalot/z1/zan/vol2_chapter_14_a_new_force/13.jpg",
    "https://img-proxy.imgfo.com/?referer=https://manganelo.com&url=https://s6.mkklcdnv6temp.com/mangakakalot/z1/zan/vol2_chapter_14_a_new_force/14.jpg",
    "https://img-proxy.imgfo.com/?referer=https://manganelo.com&url=https://s6.mkklcdnv6temp.com/mangakakalot/z1/zan/vol2_chapter_14_a_new_force/15.jpg",
    "https://img-proxy.imgfo.com/?referer=https://manganelo.com&url=https://s6.mkklcdnv6temp.com/mangakakalot/z1/zan/vol2_chapter_14_a_new_force/16.jpg",
    "https://img-proxy.imgfo.com/?referer=https://manganelo.com&url=https://s6.mkklcdnv6temp.com/mangakakalot/z1/zan/vol2_chapter_14_a_new_force/17.jpg",
    "https://img-proxy.imgfo.com/?referer=https://manganelo.com&url=https://s6.mkklcdnv6temp.com/mangakakalot/z1/zan/vol2_chapter_14_a_new_force/18.jpg",
    "https://img-proxy.imgfo.com/?referer=https://manganelo.com&url=https://s6.mkklcdnv6temp.com/mangakakalot/z1/zan/vol2_chapter_14_a_new_force/19.jpg",
    "https://img-proxy.imgfo.com/?referer=https://manganelo.com&url=https://s6.mkklcdnv6temp.com/mangakakalot/z1/zan/vol2_chapter_14_a_new_force/20.jpg",
    "https://img-proxy.imgfo.com/?referer=https://manganelo.com&url=https://s6.mkklcdnv6temp.com/mangakakalot/z1/zan/vol2_chapter_14_a_new_force/21.jpg",
    "https://img-proxy.imgfo.com/?referer=https://manganelo.com&url=https://s6.mkklcdnv6temp.com/mangakakalot/z1/zan/vol2_chapter_14_a_new_force/22.jpg"
  ]
}