{
  "cover": "https://avt.mkklcdnv6.com/6/k/6-1583474356.jpg",
  "title": "Zennou No Noa - The World Of Lost Memories",
  "original": "全能のノア ; Amnesiac Kidz ; Zennō no Noa - The World of Lost Memories ; Zenno no Noa ; Zennou no Noa ; Noah Almighty",
  "genre": "Mystery, Psychological, Sci fi, Seinen, Manga",
  "author": "Ono Youichirou",
  "status": "Completed",
  "backlink": "https://manganu.com/collections/ono-youichirou/zennou-no-noa-the-world-of-lost-memories/",
  "description": "In the year 2038, a white light descended on the center of Tokyo and stole the memories of over one million people. The cause of this horrible incident was not determined, and no cure was to be found. The government formed a separate city beneath Tokyo to house and care for the victims of the incident and branded them as \"KIDz.\" Regardless of their age, they truly are like children, and they must be retaught everything they once knew. Noa Ikurumi, a boy genius who lives in this isolated society, is just taking one day at a time and dreaming of finally being allowed to go back out into the world. But Noa's life will once again change drastically on the day that he is taken hostage by a terrorist with some surprising information about his identity...",
  "language": "English",
  "images": [
    "https://img-proxy.imgfo.com/?referer=https://manganelo.com&url=https://s3.mkklcdnv6temp.com/mangakakalot/z1/zennou_no_noa_the_world_of_lost_memories/vol2_chapter_10/1.jpg",
    "https://img-proxy.imgfo.com/?referer=https://manganelo.com&url=https://s3.mkklcdnv6temp.com/mangakakalot/z1/zennou_no_noa_the_world_of_lost_memories/vol2_chapter_10/2.jpg",
    "https://img-proxy.imgfo.com/?referer=https://manganelo.com&url=https://s3.mkklcdnv6temp.com/mangakakalot/z1/zennou_no_noa_the_world_of_lost_memories/vol2_chapter_10/3.jpg",
    "https://img-proxy.imgfo.com/?referer=https://manganelo.com&url=https://s3.mkklcdnv6temp.com/mangakakalot/z1/zennou_no_noa_the_world_of_lost_memories/vol2_chapter_10/4.jpg",
    "https://img-proxy.imgfo.com/?referer=https://manganelo.com&url=https://s3.mkklcdnv6temp.com/mangakakalot/z1/zennou_no_noa_the_world_of_lost_memories/vol2_chapter_10/5.jpg",
    "https://img-proxy.imgfo.com/?referer=https://manganelo.com&url=https://s3.mkklcdnv6temp.com/mangakakalot/z1/zennou_no_noa_the_world_of_lost_memories/vol2_chapter_10/6.jpg",
    "https://img-proxy.imgfo.com/?referer=https://manganelo.com&url=https://s3.mkklcdnv6temp.com/mangakakalot/z1/zennou_no_noa_the_world_of_lost_memories/vol2_chapter_10/7.jpg",
    "https://img-proxy.imgfo.com/?referer=https://manganelo.com&url=https://s3.mkklcdnv6temp.com/mangakakalot/z1/zennou_no_noa_the_world_of_lost_memories/vol2_chapter_10/8.jpg",
    "https://img-proxy.imgfo.com/?referer=https://manganelo.com&url=https://s3.mkklcdnv6temp.com/mangakakalot/z1/zennou_no_noa_the_world_of_lost_memories/vol2_chapter_10/9.jpg",
    "https://img-proxy.imgfo.com/?referer=https://manganelo.com&url=https://s3.mkklcdnv6temp.com/mangakakalot/z1/zennou_no_noa_the_world_of_lost_memories/vol2_chapter_10/10.jpg",
    "https://img-proxy.imgfo.com/?referer=https://manganelo.com&url=https://s3.mkklcdnv6temp.com/mangakakalot/z1/zennou_no_noa_the_world_of_lost_memories/vol2_chapter_10/11.jpg",
    "https://img-proxy.imgfo.com/?referer=https://manganelo.com&url=https://s3.mkklcdnv6temp.com/mangakakalot/z1/zennou_no_noa_the_world_of_lost_memories/vol2_chapter_10/12.jpg",
    "https://img-proxy.imgfo.com/?referer=https://manganelo.com&url=https://s3.mkklcdnv6temp.com/mangakakalot/z1/zennou_no_noa_the_world_of_lost_memories/vol2_chapter_10/13.jpg",
    "https://img-proxy.imgfo.com/?referer=https://manganelo.com&url=https://s3.mkklcdnv6temp.com/mangakakalot/z1/zennou_no_noa_the_world_of_lost_memories/vol2_chapter_10/14.jpg",
    "https://img-proxy.imgfo.com/?referer=https://manganelo.com&url=https://s3.mkklcdnv6temp.com/mangakakalot/z1/zennou_no_noa_the_world_of_lost_memories/vol2_chapter_10/15.jpg",
    "https://img-proxy.imgfo.com/?referer=https://manganelo.com&url=https://s3.mkklcdnv6temp.com/mangakakalot/z1/zennou_no_noa_the_world_of_lost_memories/vol2_chapter_10/16.jpg",
    "https://img-proxy.imgfo.com/?referer=https://manganelo.com&url=https://s3.mkklcdnv6temp.com/mangakakalot/z1/zennou_no_noa_the_world_of_lost_memories/vol2_chapter_10/17.jpg",
    "https://img-proxy.imgfo.com/?referer=https://manganelo.com&url=https://s3.mkklcdnv6temp.com/mangakakalot/z1/zennou_no_noa_the_world_of_lost_memories/vol2_chapter_10/18.jpg",
    "https://img-proxy.imgfo.com/?referer=https://manganelo.com&url=https://s3.mkklcdnv6temp.com/mangakakalot/z1/zennou_no_noa_the_world_of_lost_memories/vol2_chapter_10/19.jpg",
    "https://img-proxy.imgfo.com/?referer=https://manganelo.com&url=https://s3.mkklcdnv6temp.com/mangakakalot/z1/zennou_no_noa_the_world_of_lost_memories/vol2_chapter_10/20.jpg",
    "https://img-proxy.imgfo.com/?referer=https://manganelo.com&url=https://s3.mkklcdnv6temp.com/mangakakalot/z1/zennou_no_noa_the_world_of_lost_memories/vol2_chapter_10/21.jpg",
    "https://img-proxy.imgfo.com/?referer=https://manganelo.com&url=https://s3.mkklcdnv6temp.com/mangakakalot/z1/zennou_no_noa_the_world_of_lost_memories/vol2_chapter_10/22.jpg",
    "https://img-proxy.imgfo.com/?referer=https://manganelo.com&url=https://s3.mkklcdnv6temp.com/mangakakalot/z1/zennou_no_noa_the_world_of_lost_memories/vol2_chapter_10/23.jpg",
    "https://img-proxy.imgfo.com/?referer=https://manganelo.com&url=https://s3.mkklcdnv6temp.com/mangakakalot/z1/zennou_no_noa_the_world_of_lost_memories/vol2_chapter_10/24.jpg",
    "https://img-proxy.imgfo.com/?referer=https://manganelo.com&url=https://s3.mkklcdnv6temp.com/mangakakalot/z1/zennou_no_noa_the_world_of_lost_memories/vol2_chapter_10/25.jpg",
    "https://img-proxy.imgfo.com/?referer=https://manganelo.com&url=https://s3.mkklcdnv6temp.com/mangakakalot/z1/zennou_no_noa_the_world_of_lost_memories/vol2_chapter_10/26.jpg",
    "https://img-proxy.imgfo.com/?referer=https://manganelo.com&url=https://s3.mkklcdnv6temp.com/mangakakalot/z1/zennou_no_noa_the_world_of_lost_memories/vol2_chapter_10/27.jpg",
    "https://img-proxy.imgfo.com/?referer=https://manganelo.com&url=https://s3.mkklcdnv6temp.com/mangakakalot/z1/zennou_no_noa_the_world_of_lost_memories/vol2_chapter_10/28.jpg",
    "https://img-proxy.imgfo.com/?referer=https://manganelo.com&url=https://s3.mkklcdnv6temp.com/mangakakalot/z1/zennou_no_noa_the_world_of_lost_memories/vol2_chapter_10/29.jpg",
    "https://img-proxy.imgfo.com/?referer=https://manganelo.com&url=https://s3.mkklcdnv6temp.com/mangakakalot/z1/zennou_no_noa_the_world_of_lost_memories/vol2_chapter_10/30.jpg",
    "https://img-proxy.imgfo.com/?referer=https://manganelo.com&url=https://s3.mkklcdnv6temp.com/mangakakalot/z1/zennou_no_noa_the_world_of_lost_memories/vol2_chapter_10/31.jpg",
    "https://img-proxy.imgfo.com/?referer=https://manganelo.com&url=https://s3.mkklcdnv6temp.com/mangakakalot/z1/zennou_no_noa_the_world_of_lost_memories/vol2_chapter_10/32.jpg",
    "https://img-proxy.imgfo.com/?referer=https://manganelo.com&url=https://s3.mkklcdnv6temp.com/mangakakalot/z1/zennou_no_noa_the_world_of_lost_memories/vol2_chapter_10/33.jpg",
    "https://img-proxy.imgfo.com/?referer=https://manganelo.com&url=https://s3.mkklcdnv6temp.com/mangakakalot/z1/zennou_no_noa_the_world_of_lost_memories/vol2_chapter_10/34.jpg",
    "https://img-proxy.imgfo.com/?referer=https://manganelo.com&url=https://s3.mkklcdnv6temp.com/mangakakalot/z1/zennou_no_noa_the_world_of_lost_memories/vol2_chapter_10/35.jpg",
    "https://img-proxy.imgfo.com/?referer=https://manganelo.com&url=https://s3.mkklcdnv6temp.com/mangakakalot/z1/zennou_no_noa_the_world_of_lost_memories/vol2_chapter_10/36.jpg",
    "https://img-proxy.imgfo.com/?referer=https://manganelo.com&url=https://s3.mkklcdnv6temp.com/mangakakalot/z1/zennou_no_noa_the_world_of_lost_memories/vol2_chapter_10/37.jpg",
    "https://img-proxy.imgfo.com/?referer=https://manganelo.com&url=https://s3.mkklcdnv6temp.com/mangakakalot/z1/zennou_no_noa_the_world_of_lost_memories/vol2_chapter_10/38.jpg",
    "https://img-proxy.imgfo.com/?referer=https://manganelo.com&url=https://s3.mkklcdnv6temp.com/mangakakalot/z1/zennou_no_noa_the_world_of_lost_memories/vol2_chapter_10/39.jpg"
  ]
}