{
  "cover": "https://avt.mkklcdnv6.com/49/i/3-1583469618.jpg",
  "title": "Excel",
  "original": "戀人情人 ; 엑셀",
  "genre": "Comedy, Romance, School life, Shoujo, Slice of life, Manga",
  "author": "Yoon Ji Un",
  "status": "Completed",
  "backlink": "https://manganu.com/collections/yoon-ji-un/excel/",
  "description": "Anji is the complete opposite of her beautiful, smart and ambitious older sister Anri. To make matters worse, Anji has a hopeless crush on Anri's boyfriend Baek-hui, who is her sister's match in looks, brains, manners and goals. But is Baek-hui all that he seems?\nFrom Baka-Updates:\nAnri and Anji are sisters. Anri is one year older than Anji. Anri is a person with determination and guts, not to mention top grades and attitude. Anji has really nothing to offer. She can be quite mean and unreasonable. But, when it comes down to her sibling, she can be pretty determined.\nThis story details the troubles that Anji goes through because of Anri's two-faced boyfriend, Baek-Hui Kang.",
  "language": "English",
  "images": [
    "https://img-proxy.imgfo.com/?referer=https://manganelo.com&url=https://s5.mkklcdnv6temp.com/mangakakalot/e2/excel/vol04_chapter_3/1.jpg",
    "https://img-proxy.imgfo.com/?referer=https://manganelo.com&url=https://s5.mkklcdnv6temp.com/mangakakalot/e2/excel/vol04_chapter_3/2.jpg",
    "https://img-proxy.imgfo.com/?referer=https://manganelo.com&url=https://s5.mkklcdnv6temp.com/mangakakalot/e2/excel/vol04_chapter_3/3.jpg",
    "https://img-proxy.imgfo.com/?referer=https://manganelo.com&url=https://s5.mkklcdnv6temp.com/mangakakalot/e2/excel/vol04_chapter_3/4.jpg",
    "https://img-proxy.imgfo.com/?referer=https://manganelo.com&url=https://s5.mkklcdnv6temp.com/mangakakalot/e2/excel/vol04_chapter_3/5.jpg",
    "https://img-proxy.imgfo.com/?referer=https://manganelo.com&url=https://s5.mkklcdnv6temp.com/mangakakalot/e2/excel/vol04_chapter_3/6.jpg",
    "https://img-proxy.imgfo.com/?referer=https://manganelo.com&url=https://s5.mkklcdnv6temp.com/mangakakalot/e2/excel/vol04_chapter_3/7.jpg",
    "https://img-proxy.imgfo.com/?referer=https://manganelo.com&url=https://s5.mkklcdnv6temp.com/mangakakalot/e2/excel/vol04_chapter_3/8.jpg",
    "https://img-proxy.imgfo.com/?referer=https://manganelo.com&url=https://s5.mkklcdnv6temp.com/mangakakalot/e2/excel/vol04_chapter_3/9.jpg",
    "https://img-proxy.imgfo.com/?referer=https://manganelo.com&url=https://s5.mkklcdnv6temp.com/mangakakalot/e2/excel/vol04_chapter_3/10.jpg",
    "https://img-proxy.imgfo.com/?referer=https://manganelo.com&url=https://s5.mkklcdnv6temp.com/mangakakalot/e2/excel/vol04_chapter_3/11.jpg",
    "https://img-proxy.imgfo.com/?referer=https://manganelo.com&url=https://s5.mkklcdnv6temp.com/mangakakalot/e2/excel/vol04_chapter_3/12.jpg",
    "https://img-proxy.imgfo.com/?referer=https://manganelo.com&url=https://s5.mkklcdnv6temp.com/mangakakalot/e2/excel/vol04_chapter_3/13.jpg",
    "https://img-proxy.imgfo.com/?referer=https://manganelo.com&url=https://s5.mkklcdnv6temp.com/mangakakalot/e2/excel/vol04_chapter_3/14.jpg",
    "https://img-proxy.imgfo.com/?referer=https://manganelo.com&url=https://s5.mkklcdnv6temp.com/mangakakalot/e2/excel/vol04_chapter_3/15.jpg",
    "https://img-proxy.imgfo.com/?referer=https://manganelo.com&url=https://s5.mkklcdnv6temp.com/mangakakalot/e2/excel/vol04_chapter_3/16.jpg",
    "https://img-proxy.imgfo.com/?referer=https://manganelo.com&url=https://s5.mkklcdnv6temp.com/mangakakalot/e2/excel/vol04_chapter_3/17.jpg"
  ]
}