{
  "cover": "https://avt.mkklcdnv6.com/11/i/4-1583470128.jpg",
  "title": "Annyeong, Pi",
  "original": "안녕 Pi ; Hello, Pi ; My Guardian Chick, Pi",
  "genre": "Comedy, Fantasy, Historical, Romance, School life, Shoujo, Manga",
  "author": "Shin Yoo Ha",
  "status": "Completed",
  "backlink": "https://manganu.com/collections/shin-yoo-ha/annyeong-pi/",
  "description": "Gi-Hyun encounters a talking chick one day. The talking chick, whose name is Bok, claims that Gi-Hyun is his master in their previous lives.\nBok (The talking chick) has been reborn as a chicken in order to fullfil his duty which he failed in his previous life. His duty is to protect Gi-Hyun from the assassin who killed him in his previous life.\nAnd so, their ordeals begin.",
  "language": "English",
  "images": [
    "https://img-proxy.imgfo.com/?referer=https://manganelo.com&url=https://s6.mkklcdnv6temp.com/mangakakalot/a1/annyeong_pi/vol02_chapter_5/1.jpg",
    "https://img-proxy.imgfo.com/?referer=https://manganelo.com&url=https://s6.mkklcdnv6temp.com/mangakakalot/a1/annyeong_pi/vol02_chapter_5/2.jpg",
    "https://img-proxy.imgfo.com/?referer=https://manganelo.com&url=https://s6.mkklcdnv6temp.com/mangakakalot/a1/annyeong_pi/vol02_chapter_5/3.jpg",
    "https://img-proxy.imgfo.com/?referer=https://manganelo.com&url=https://s6.mkklcdnv6temp.com/mangakakalot/a1/annyeong_pi/vol02_chapter_5/4.jpg",
    "https://img-proxy.imgfo.com/?referer=https://manganelo.com&url=https://s6.mkklcdnv6temp.com/mangakakalot/a1/annyeong_pi/vol02_chapter_5/5.jpg",
    "https://img-proxy.imgfo.com/?referer=https://manganelo.com&url=https://s6.mkklcdnv6temp.com/mangakakalot/a1/annyeong_pi/vol02_chapter_5/6.jpg",
    "https://img-proxy.imgfo.com/?referer=https://manganelo.com&url=https://s6.mkklcdnv6temp.com/mangakakalot/a1/annyeong_pi/vol02_chapter_5/7.jpg",
    "https://img-proxy.imgfo.com/?referer=https://manganelo.com&url=https://s6.mkklcdnv6temp.com/mangakakalot/a1/annyeong_pi/vol02_chapter_5/8.jpg",
    "https://img-proxy.imgfo.com/?referer=https://manganelo.com&url=https://s6.mkklcdnv6temp.com/mangakakalot/a1/annyeong_pi/vol02_chapter_5/9.jpg",
    "https://img-proxy.imgfo.com/?referer=https://manganelo.com&url=https://s6.mkklcdnv6temp.com/mangakakalot/a1/annyeong_pi/vol02_chapter_5/10.jpg",
    "https://img-proxy.imgfo.com/?referer=https://manganelo.com&url=https://s6.mkklcdnv6temp.com/mangakakalot/a1/annyeong_pi/vol02_chapter_5/11.jpg",
    "https://img-proxy.imgfo.com/?referer=https://manganelo.com&url=https://s6.mkklcdnv6temp.com/mangakakalot/a1/annyeong_pi/vol02_chapter_5/12.jpg",
    "https://img-proxy.imgfo.com/?referer=https://manganelo.com&url=https://s6.mkklcdnv6temp.com/mangakakalot/a1/annyeong_pi/vol02_chapter_5/13.jpg",
    "https://img-proxy.imgfo.com/?referer=https://manganelo.com&url=https://s6.mkklcdnv6temp.com/mangakakalot/a1/annyeong_pi/vol02_chapter_5/14.jpg"
  ]
}