{
  "cover": "https://avt.mkklcdnv6.com/11/l/6-1583474570.jpg",
  "title": "Calling",
  "original": "エデン ; コーリング ; ノーウェア ; 等待鈴聲 ; Blue Me ; Eden (MIYAMOTO Kano) ; Everything (MIYAMOTO Kano) ; Night Call ; Nowhere ; Yes Man",
  "genre": "Drama, Romance, Yaoi, Manga",
  "author": "Miyamoto Kano",
  "status": "Completed",
  "backlink": "https://manganu.com/collections/miyamoto-kano/calling/",
  "description": "V.1 - Calling &bull; Calling When Keigo sees Shiki at a club, he overcomes his shyness and determines to pursue Shiki. After Shiki gets plastered, Keigo seizes the opportunity to take the drunk back to his place, but no amount of alcohol can convince Shiki to turn gay. Is Keigo doomed to be nothing more to Shiki than his stalker or will Shiki&#39;s feelings change? &bull; Night Call After spending some time as a homeless drifter and casual rent boy, Asaoka Shino decided to join the police force&#39;s Zero Unit, an anti-terrorism division, to aid the fight against the rapidly growing terrorist problem. He has a real chance to join the unit as an undercover officer, but first he has to pass a highly-secretive test to see if he could be used in &#39;honeytrap&#39; operations, which is to have sexual intercourse with an examiner. But the assigned examiner is male. Can Asaoka go through with it? &bull; Ougon no Ame (Golden Rain) Kaoru has just opened his own video rental store, and is lucky enough to have a friendly neighbour in the shape of Inoue-san, who runs a Takoyaki shop next to Kaoru&#39;s store. But who is the mysterious boy watching them from behind a closed window? Can the rumours surrounding the boy really be true? V.2 - Nowhere &bull; Stray Sheep &bull; Blue Me &bull; Everything &bull; Nowhere &bull; Pandora &bull; Kimi no Na wa (Call My Name) &bull; Soar &bull; Sly -----Calling Universe Timeline------ Pipe Dreams (Shino, TJ)* Realize (Shiki, Keigo, Shino, TJ)* Replay *Doujinshi published by Curve (accurate as of September 2010)",
  "language": "English",
  "images": [
    "https://img-proxy.imgfo.com/?referer=https://manganelo.com&url=https://s6.mkklcdnv6temp.com/mangakakalot/c1/calling/vol2_chapter_5_pandora/1.jpg",
    "https://img-proxy.imgfo.com/?referer=https://manganelo.com&url=https://s6.mkklcdnv6temp.com/mangakakalot/c1/calling/vol2_chapter_5_pandora/2.jpg",
    "https://img-proxy.imgfo.com/?referer=https://manganelo.com&url=https://s6.mkklcdnv6temp.com/mangakakalot/c1/calling/vol2_chapter_5_pandora/3.jpg",
    "https://img-proxy.imgfo.com/?referer=https://manganelo.com&url=https://s6.mkklcdnv6temp.com/mangakakalot/c1/calling/vol2_chapter_5_pandora/4.jpg",
    "https://img-proxy.imgfo.com/?referer=https://manganelo.com&url=https://s6.mkklcdnv6temp.com/mangakakalot/c1/calling/vol2_chapter_5_pandora/5.jpg",
    "https://img-proxy.imgfo.com/?referer=https://manganelo.com&url=https://s6.mkklcdnv6temp.com/mangakakalot/c1/calling/vol2_chapter_5_pandora/6.jpg",
    "https://img-proxy.imgfo.com/?referer=https://manganelo.com&url=https://s6.mkklcdnv6temp.com/mangakakalot/c1/calling/vol2_chapter_5_pandora/7.jpg",
    "https://img-proxy.imgfo.com/?referer=https://manganelo.com&url=https://s6.mkklcdnv6temp.com/mangakakalot/c1/calling/vol2_chapter_5_pandora/8.jpg",
    "https://img-proxy.imgfo.com/?referer=https://manganelo.com&url=https://s6.mkklcdnv6temp.com/mangakakalot/c1/calling/vol2_chapter_5_pandora/9.jpg",
    "https://img-proxy.imgfo.com/?referer=https://manganelo.com&url=https://s6.mkklcdnv6temp.com/mangakakalot/c1/calling/vol2_chapter_5_pandora/10.jpg",
    "https://img-proxy.imgfo.com/?referer=https://manganelo.com&url=https://s6.mkklcdnv6temp.com/mangakakalot/c1/calling/vol2_chapter_5_pandora/11.jpg",
    "https://img-proxy.imgfo.com/?referer=https://manganelo.com&url=https://s6.mkklcdnv6temp.com/mangakakalot/c1/calling/vol2_chapter_5_pandora/12.jpg",
    "https://img-proxy.imgfo.com/?referer=https://manganelo.com&url=https://s6.mkklcdnv6temp.com/mangakakalot/c1/calling/vol2_chapter_5_pandora/13.jpg",
    "https://img-proxy.imgfo.com/?referer=https://manganelo.com&url=https://s6.mkklcdnv6temp.com/mangakakalot/c1/calling/vol2_chapter_5_pandora/14.jpg",
    "https://img-proxy.imgfo.com/?referer=https://manganelo.com&url=https://s6.mkklcdnv6temp.com/mangakakalot/c1/calling/vol2_chapter_5_pandora/15.jpg",
    "https://img-proxy.imgfo.com/?referer=https://manganelo.com&url=https://s6.mkklcdnv6temp.com/mangakakalot/c1/calling/vol2_chapter_5_pandora/16.jpg",
    "https://img-proxy.imgfo.com/?referer=https://manganelo.com&url=https://s6.mkklcdnv6temp.com/mangakakalot/c1/calling/vol2_chapter_5_pandora/17.jpg",
    "https://img-proxy.imgfo.com/?referer=https://manganelo.com&url=https://s6.mkklcdnv6temp.com/mangakakalot/c1/calling/vol2_chapter_5_pandora/18.jpg",
    "https://img-proxy.imgfo.com/?referer=https://manganelo.com&url=https://s6.mkklcdnv6temp.com/mangakakalot/c1/calling/vol2_chapter_5_pandora/19.jpg",
    "https://img-proxy.imgfo.com/?referer=https://manganelo.com&url=https://s6.mkklcdnv6temp.com/mangakakalot/c1/calling/vol2_chapter_5_pandora/20.jpg",
    "https://img-proxy.imgfo.com/?referer=https://manganelo.com&url=https://s6.mkklcdnv6temp.com/mangakakalot/c1/calling/vol2_chapter_5_pandora/21.jpg",
    "https://img-proxy.imgfo.com/?referer=https://manganelo.com&url=https://s6.mkklcdnv6temp.com/mangakakalot/c1/calling/vol2_chapter_5_pandora/22.jpg",
    "https://img-proxy.imgfo.com/?referer=https://manganelo.com&url=https://s6.mkklcdnv6temp.com/mangakakalot/c1/calling/vol2_chapter_5_pandora/23.jpg",
    "https://img-proxy.imgfo.com/?referer=https://manganelo.com&url=https://s6.mkklcdnv6temp.com/mangakakalot/c1/calling/vol2_chapter_5_pandora/24.jpg",
    "https://img-proxy.imgfo.com/?referer=https://manganelo.com&url=https://s6.mkklcdnv6temp.com/mangakakalot/c1/calling/vol2_chapter_5_pandora/25.jpg",
    "https://img-proxy.imgfo.com/?referer=https://manganelo.com&url=https://s6.mkklcdnv6temp.com/mangakakalot/c1/calling/vol2_chapter_5_pandora/26.jpg",
    "https://img-proxy.imgfo.com/?referer=https://manganelo.com&url=https://s6.mkklcdnv6temp.com/mangakakalot/c1/calling/vol2_chapter_5_pandora/27.jpg",
    "https://img-proxy.imgfo.com/?referer=https://manganelo.com&url=https://s6.mkklcdnv6temp.com/mangakakalot/c1/calling/vol2_chapter_5_pandora/28.jpg",
    "https://img-proxy.imgfo.com/?referer=https://manganelo.com&url=https://s6.mkklcdnv6temp.com/mangakakalot/c1/calling/vol2_chapter_5_pandora/29.jpg",
    "https://img-proxy.imgfo.com/?referer=https://manganelo.com&url=https://s6.mkklcdnv6temp.com/mangakakalot/c1/calling/vol2_chapter_5_pandora/30.jpg",
    "https://img-proxy.imgfo.com/?referer=https://manganelo.com&url=https://s6.mkklcdnv6temp.com/mangakakalot/c1/calling/vol2_chapter_5_pandora/31.jpg",
    "https://img-proxy.imgfo.com/?referer=https://manganelo.com&url=https://s6.mkklcdnv6temp.com/mangakakalot/c1/calling/vol2_chapter_5_pandora/32.jpg",
    "https://img-proxy.imgfo.com/?referer=https://manganelo.com&url=https://s6.mkklcdnv6temp.com/mangakakalot/c1/calling/vol2_chapter_5_pandora/33.jpg",
    "https://img-proxy.imgfo.com/?referer=https://manganelo.com&url=https://s6.mkklcdnv6temp.com/mangakakalot/c1/calling/vol2_chapter_5_pandora/34.jpg",
    "https://img-proxy.imgfo.com/?referer=https://manganelo.com&url=https://s6.mkklcdnv6temp.com/mangakakalot/c1/calling/vol2_chapter_5_pandora/35.jpg",
    "https://img-proxy.imgfo.com/?referer=https://manganelo.com&url=https://s6.mkklcdnv6temp.com/mangakakalot/c1/calling/vol2_chapter_5_pandora/36.jpg",
    "https://img-proxy.imgfo.com/?referer=https://manganelo.com&url=https://s6.mkklcdnv6temp.com/mangakakalot/c1/calling/vol2_chapter_5_pandora/37.jpg",
    "https://img-proxy.imgfo.com/?referer=https://manganelo.com&url=https://s6.mkklcdnv6temp.com/mangakakalot/c1/calling/vol2_chapter_5_pandora/38.jpg",
    "https://img-proxy.imgfo.com/?referer=https://manganelo.com&url=https://s6.mkklcdnv6temp.com/mangakakalot/c1/calling/vol2_chapter_5_pandora/39.jpg",
    "https://img-proxy.imgfo.com/?referer=https://manganelo.com&url=https://s6.mkklcdnv6temp.com/mangakakalot/c1/calling/vol2_chapter_5_pandora/40.jpg",
    "https://img-proxy.imgfo.com/?referer=https://manganelo.com&url=https://s6.mkklcdnv6temp.com/mangakakalot/c1/calling/vol2_chapter_5_pandora/41.jpg",
    "https://img-proxy.imgfo.com/?referer=https://manganelo.com&url=https://s6.mkklcdnv6temp.com/mangakakalot/c1/calling/vol2_chapter_5_pandora/42.jpg",
    "https://img-proxy.imgfo.com/?referer=https://manganelo.com&url=https://s6.mkklcdnv6temp.com/mangakakalot/c1/calling/vol2_chapter_5_pandora/43.jpg",
    "https://img-proxy.imgfo.com/?referer=https://manganelo.com&url=https://s6.mkklcdnv6temp.com/mangakakalot/c1/calling/vol2_chapter_5_pandora/44.jpg"
  ]
}