{
  "cover": "https://avt.mkklcdnv6.com/14/y/4-1583470281.jpg",
  "title": "3.3.7 Byooshi!!",
  "original": "3.3.7ビョーシ!! ; 3.3.7应援男 ; 3.3.7. Byooshi!! ; 337 Byooshi!! ; 337应援男",
  "genre": "Comedy, Drama, Ecchi, Romance, Shounen, Manga",
  "author": "Kubo Mitsurou",
  "status": "Completed",
  "backlink": "https://manganu.com/collections/kubo-mitsurou/337-byooshi/",
  "description": "From Anime Waves:\nBy all the usual measures, he could be considered a pretty useless guy: a scholastic failure, an athletic disaster, and a chronic loser...but Fukuda Shinichi has one passion: cheering for others!\nThe 18-year-old captain of North Kanto Southern High's Cheerleading squad decides to make the most of his summer by attending cram school in Tokyo, only to find out that the whole trip was a sham! Things are looking up when he and his friend meet up with two cute Tokyo girls; too bad the girls brought them to a rip-off bar and took off! Ditched by his one remaining friend and stuck with an impossibly high bar bill, Fuku-kun's life couldn't get any worse!\nBut just then he gets saved by Ume, his role model and former cheerleading squad captain! What is he doing in Tokyo...and why does everyone around seem to know and respect him? Without anywhere else to go, Fuku-kun decides follow Ume to his job, only to discover that...he's a host?!? Fukuda's summer of cheering others on has begun...and the streets of Tokyo's red-light district will never be the same!",
  "language": "English",
  "images": [
    "https://img-proxy.imgfo.com/?referer=https://manganelo.com&url=https://s3.mkklcdnv6temp.com/mangakakalot/02/337_byooshi/vol5_chapter_34_glorious_revolution/1.jpg",
    "https://img-proxy.imgfo.com/?referer=https://manganelo.com&url=https://s3.mkklcdnv6temp.com/mangakakalot/02/337_byooshi/vol5_chapter_34_glorious_revolution/2.jpg",
    "https://img-proxy.imgfo.com/?referer=https://manganelo.com&url=https://s3.mkklcdnv6temp.com/mangakakalot/02/337_byooshi/vol5_chapter_34_glorious_revolution/3.jpg",
    "https://img-proxy.imgfo.com/?referer=https://manganelo.com&url=https://s3.mkklcdnv6temp.com/mangakakalot/02/337_byooshi/vol5_chapter_34_glorious_revolution/4.jpg",
    "https://img-proxy.imgfo.com/?referer=https://manganelo.com&url=https://s3.mkklcdnv6temp.com/mangakakalot/02/337_byooshi/vol5_chapter_34_glorious_revolution/5.jpg",
    "https://img-proxy.imgfo.com/?referer=https://manganelo.com&url=https://s3.mkklcdnv6temp.com/mangakakalot/02/337_byooshi/vol5_chapter_34_glorious_revolution/6.jpg",
    "https://img-proxy.imgfo.com/?referer=https://manganelo.com&url=https://s3.mkklcdnv6temp.com/mangakakalot/02/337_byooshi/vol5_chapter_34_glorious_revolution/7.jpg",
    "https://img-proxy.imgfo.com/?referer=https://manganelo.com&url=https://s3.mkklcdnv6temp.com/mangakakalot/02/337_byooshi/vol5_chapter_34_glorious_revolution/8.jpg",
    "https://img-proxy.imgfo.com/?referer=https://manganelo.com&url=https://s3.mkklcdnv6temp.com/mangakakalot/02/337_byooshi/vol5_chapter_34_glorious_revolution/9.jpg",
    "https://img-proxy.imgfo.com/?referer=https://manganelo.com&url=https://s3.mkklcdnv6temp.com/mangakakalot/02/337_byooshi/vol5_chapter_34_glorious_revolution/10.jpg",
    "https://img-proxy.imgfo.com/?referer=https://manganelo.com&url=https://s3.mkklcdnv6temp.com/mangakakalot/02/337_byooshi/vol5_chapter_34_glorious_revolution/11.jpg",
    "https://img-proxy.imgfo.com/?referer=https://manganelo.com&url=https://s3.mkklcdnv6temp.com/mangakakalot/02/337_byooshi/vol5_chapter_34_glorious_revolution/12.jpg",
    "https://img-proxy.imgfo.com/?referer=https://manganelo.com&url=https://s3.mkklcdnv6temp.com/mangakakalot/02/337_byooshi/vol5_chapter_34_glorious_revolution/13.jpg",
    "https://img-proxy.imgfo.com/?referer=https://manganelo.com&url=https://s3.mkklcdnv6temp.com/mangakakalot/02/337_byooshi/vol5_chapter_34_glorious_revolution/14.jpg",
    "https://img-proxy.imgfo.com/?referer=https://manganelo.com&url=https://s3.mkklcdnv6temp.com/mangakakalot/02/337_byooshi/vol5_chapter_34_glorious_revolution/15.jpg",
    "https://img-proxy.imgfo.com/?referer=https://manganelo.com&url=https://s3.mkklcdnv6temp.com/mangakakalot/02/337_byooshi/vol5_chapter_34_glorious_revolution/16.jpg",
    "https://img-proxy.imgfo.com/?referer=https://manganelo.com&url=https://s3.mkklcdnv6temp.com/mangakakalot/02/337_byooshi/vol5_chapter_34_glorious_revolution/17.jpg",
    "https://img-proxy.imgfo.com/?referer=https://manganelo.com&url=https://s3.mkklcdnv6temp.com/mangakakalot/02/337_byooshi/vol5_chapter_34_glorious_revolution/18.jpg",
    "https://img-proxy.imgfo.com/?referer=https://manganelo.com&url=https://s3.mkklcdnv6temp.com/mangakakalot/02/337_byooshi/vol5_chapter_34_glorious_revolution/19.jpg",
    "https://img-proxy.imgfo.com/?referer=https://manganelo.com&url=https://s3.mkklcdnv6temp.com/mangakakalot/02/337_byooshi/vol5_chapter_34_glorious_revolution/20.jpg",
    "https://img-proxy.imgfo.com/?referer=https://manganelo.com&url=https://s3.mkklcdnv6temp.com/mangakakalot/02/337_byooshi/vol5_chapter_34_glorious_revolution/21.jpg"
  ]
}