{
  "cover": "https://avt.mkklcdnv6.com/4/k/4-1583469835.jpg",
  "title": "Ciguatera",
  "original": "シガテラ ; 机车人生 ; 17岁青春遁走 ; 17青春遁走 ; Ciguatera - 17 Fuga of Youth",
  "genre": "Comedy, Drama, Ecchi, Mature, Romance, Seinen, Slice of life, Manga",
  "author": "Furuya Minoru",
  "status": "Completed",
  "backlink": "https://manganu.com/collections/furuya-minoru/ciguatera/",
  "description": "Just another story of youth, love, life, and death. From the author of Ping Pong Club and Himizu, though less comedic than the former and less soul-crushingly depressing than the latter. From Mangascreener: The latest completed story from Minoru Furuya, the author of Inachuu Ping Pong Club, Himizu, Boku to Issho and Green Hill. Furuya&#39;s work has always featured a lot of pinpoint comedy and pathos, and while Ciguatera does not stray from this format, it is a lot more rounded and mature in its presentation.",
  "language": "English",
  "images": [
    "https://img-proxy.imgfo.com/?referer=https://manganelo.com&url=https://s7.mkklcdnv6temp.com/mangakakalot/c1/ciguatera/vol6_chapter_62_art/1.jpg",
    "https://img-proxy.imgfo.com/?referer=https://manganelo.com&url=https://s7.mkklcdnv6temp.com/mangakakalot/c1/ciguatera/vol6_chapter_62_art/2.jpg",
    "https://img-proxy.imgfo.com/?referer=https://manganelo.com&url=https://s7.mkklcdnv6temp.com/mangakakalot/c1/ciguatera/vol6_chapter_62_art/3.jpg",
    "https://img-proxy.imgfo.com/?referer=https://manganelo.com&url=https://s7.mkklcdnv6temp.com/mangakakalot/c1/ciguatera/vol6_chapter_62_art/4.jpg",
    "https://img-proxy.imgfo.com/?referer=https://manganelo.com&url=https://s7.mkklcdnv6temp.com/mangakakalot/c1/ciguatera/vol6_chapter_62_art/5.jpg",
    "https://img-proxy.imgfo.com/?referer=https://manganelo.com&url=https://s7.mkklcdnv6temp.com/mangakakalot/c1/ciguatera/vol6_chapter_62_art/6.jpg",
    "https://img-proxy.imgfo.com/?referer=https://manganelo.com&url=https://s7.mkklcdnv6temp.com/mangakakalot/c1/ciguatera/vol6_chapter_62_art/7.jpg",
    "https://img-proxy.imgfo.com/?referer=https://manganelo.com&url=https://s7.mkklcdnv6temp.com/mangakakalot/c1/ciguatera/vol6_chapter_62_art/8.jpg",
    "https://img-proxy.imgfo.com/?referer=https://manganelo.com&url=https://s7.mkklcdnv6temp.com/mangakakalot/c1/ciguatera/vol6_chapter_62_art/9.jpg",
    "https://img-proxy.imgfo.com/?referer=https://manganelo.com&url=https://s7.mkklcdnv6temp.com/mangakakalot/c1/ciguatera/vol6_chapter_62_art/10.jpg",
    "https://img-proxy.imgfo.com/?referer=https://manganelo.com&url=https://s7.mkklcdnv6temp.com/mangakakalot/c1/ciguatera/vol6_chapter_62_art/11.jpg",
    "https://img-proxy.imgfo.com/?referer=https://manganelo.com&url=https://s7.mkklcdnv6temp.com/mangakakalot/c1/ciguatera/vol6_chapter_62_art/12.jpg",
    "https://img-proxy.imgfo.com/?referer=https://manganelo.com&url=https://s7.mkklcdnv6temp.com/mangakakalot/c1/ciguatera/vol6_chapter_62_art/13.jpg",
    "https://img-proxy.imgfo.com/?referer=https://manganelo.com&url=https://s7.mkklcdnv6temp.com/mangakakalot/c1/ciguatera/vol6_chapter_62_art/14.jpg",
    "https://img-proxy.imgfo.com/?referer=https://manganelo.com&url=https://s7.mkklcdnv6temp.com/mangakakalot/c1/ciguatera/vol6_chapter_62_art/15.jpg",
    "https://img-proxy.imgfo.com/?referer=https://manganelo.com&url=https://s7.mkklcdnv6temp.com/mangakakalot/c1/ciguatera/vol6_chapter_62_art/16.jpg",
    "https://img-proxy.imgfo.com/?referer=https://manganelo.com&url=https://s7.mkklcdnv6temp.com/mangakakalot/c1/ciguatera/vol6_chapter_62_art/17.jpg",
    "https://img-proxy.imgfo.com/?referer=https://manganelo.com&url=https://s7.mkklcdnv6temp.com/mangakakalot/c1/ciguatera/vol6_chapter_62_art/18.jpg",
    "https://img-proxy.imgfo.com/?referer=https://manganelo.com&url=https://s7.mkklcdnv6temp.com/mangakakalot/c1/ciguatera/vol6_chapter_62_art/19.jpg"
  ]
}