{
  "cover": "https://avt.mkklcdnv6.com/17/l/7-1583476930.jpg",
  "title": "Bashing Renai",
  "original": "バッシング恋愛 ; 天旋地轉愛一生 ; Basshingu Renai",
  "genre": "Drama, Psychological, Romance, Shoujo, Shounen ai, Manga",
  "author": "Abe Miyuki",
  "status": "Completed",
  "backlink": "https://manganu.com/collections/abe-miyuki/bashing-renai/",
  "description": "From Peccatore Sanctuary:\nMurakami Keisuke possesses beauty which cannot be missed, many people admire him due to his beauty. But he has never accepted any one of these people. One day student council president Masaki, due to some incident started to become close to him...",
  "language": "English",
  "images": [
    "https://img-proxy.imgfo.com/?referer=https://manganelo.com&url=https://s6.mkklcdnv6temp.com/mangakakalot/b1/bashing_renai/vol1_chapter_21_bashing_renai_2/1.jpg",
    "https://img-proxy.imgfo.com/?referer=https://manganelo.com&url=https://s6.mkklcdnv6temp.com/mangakakalot/b1/bashing_renai/vol1_chapter_21_bashing_renai_2/2.jpg",
    "https://img-proxy.imgfo.com/?referer=https://manganelo.com&url=https://s6.mkklcdnv6temp.com/mangakakalot/b1/bashing_renai/vol1_chapter_21_bashing_renai_2/3.jpg",
    "https://img-proxy.imgfo.com/?referer=https://manganelo.com&url=https://s6.mkklcdnv6temp.com/mangakakalot/b1/bashing_renai/vol1_chapter_21_bashing_renai_2/4.jpg",
    "https://img-proxy.imgfo.com/?referer=https://manganelo.com&url=https://s6.mkklcdnv6temp.com/mangakakalot/b1/bashing_renai/vol1_chapter_21_bashing_renai_2/5.jpg",
    "https://img-proxy.imgfo.com/?referer=https://manganelo.com&url=https://s6.mkklcdnv6temp.com/mangakakalot/b1/bashing_renai/vol1_chapter_21_bashing_renai_2/6.jpg",
    "https://img-proxy.imgfo.com/?referer=https://manganelo.com&url=https://s6.mkklcdnv6temp.com/mangakakalot/b1/bashing_renai/vol1_chapter_21_bashing_renai_2/7.jpg",
    "https://img-proxy.imgfo.com/?referer=https://manganelo.com&url=https://s6.mkklcdnv6temp.com/mangakakalot/b1/bashing_renai/vol1_chapter_21_bashing_renai_2/8.jpg",
    "https://img-proxy.imgfo.com/?referer=https://manganelo.com&url=https://s6.mkklcdnv6temp.com/mangakakalot/b1/bashing_renai/vol1_chapter_21_bashing_renai_2/9.jpg",
    "https://img-proxy.imgfo.com/?referer=https://manganelo.com&url=https://s6.mkklcdnv6temp.com/mangakakalot/b1/bashing_renai/vol1_chapter_21_bashing_renai_2/10.jpg",
    "https://img-proxy.imgfo.com/?referer=https://manganelo.com&url=https://s6.mkklcdnv6temp.com/mangakakalot/b1/bashing_renai/vol1_chapter_21_bashing_renai_2/11.jpg",
    "https://img-proxy.imgfo.com/?referer=https://manganelo.com&url=https://s6.mkklcdnv6temp.com/mangakakalot/b1/bashing_renai/vol1_chapter_21_bashing_renai_2/12.jpg",
    "https://img-proxy.imgfo.com/?referer=https://manganelo.com&url=https://s6.mkklcdnv6temp.com/mangakakalot/b1/bashing_renai/vol1_chapter_21_bashing_renai_2/13.jpg",
    "https://img-proxy.imgfo.com/?referer=https://manganelo.com&url=https://s6.mkklcdnv6temp.com/mangakakalot/b1/bashing_renai/vol1_chapter_21_bashing_renai_2/14.jpg",
    "https://img-proxy.imgfo.com/?referer=https://manganelo.com&url=https://s6.mkklcdnv6temp.com/mangakakalot/b1/bashing_renai/vol1_chapter_21_bashing_renai_2/15.jpg",
    "https://img-proxy.imgfo.com/?referer=https://manganelo.com&url=https://s6.mkklcdnv6temp.com/mangakakalot/b1/bashing_renai/vol1_chapter_21_bashing_renai_2/16.jpg",
    "https://img-proxy.imgfo.com/?referer=https://manganelo.com&url=https://s6.mkklcdnv6temp.com/mangakakalot/b1/bashing_renai/vol1_chapter_21_bashing_renai_2/17.jpg",
    "https://img-proxy.imgfo.com/?referer=https://manganelo.com&url=https://s6.mkklcdnv6temp.com/mangakakalot/b1/bashing_renai/vol1_chapter_21_bashing_renai_2/18.jpg",
    "https://img-proxy.imgfo.com/?referer=https://manganelo.com&url=https://s6.mkklcdnv6temp.com/mangakakalot/b1/bashing_renai/vol1_chapter_21_bashing_renai_2/19.jpg",
    "https://img-proxy.imgfo.com/?referer=https://manganelo.com&url=https://s6.mkklcdnv6temp.com/mangakakalot/b1/bashing_renai/vol1_chapter_21_bashing_renai_2/20.jpg",
    "https://img-proxy.imgfo.com/?referer=https://manganelo.com&url=https://s6.mkklcdnv6temp.com/mangakakalot/b1/bashing_renai/vol1_chapter_21_bashing_renai_2/21.jpg",
    "https://img-proxy.imgfo.com/?referer=https://manganelo.com&url=https://s6.mkklcdnv6temp.com/mangakakalot/b1/bashing_renai/vol1_chapter_21_bashing_renai_2/22.jpg",
    "https://img-proxy.imgfo.com/?referer=https://manganelo.com&url=https://s6.mkklcdnv6temp.com/mangakakalot/b1/bashing_renai/vol1_chapter_21_bashing_renai_2/23.jpg",
    "https://img-proxy.imgfo.com/?referer=https://manganelo.com&url=https://s6.mkklcdnv6temp.com/mangakakalot/b1/bashing_renai/vol1_chapter_21_bashing_renai_2/24.jpg",
    "https://img-proxy.imgfo.com/?referer=https://manganelo.com&url=https://s6.mkklcdnv6temp.com/mangakakalot/b1/bashing_renai/vol1_chapter_21_bashing_renai_2/25.jpg",
    "https://img-proxy.imgfo.com/?referer=https://manganelo.com&url=https://s6.mkklcdnv6temp.com/mangakakalot/b1/bashing_renai/vol1_chapter_21_bashing_renai_2/26.jpg",
    "https://img-proxy.imgfo.com/?referer=https://manganelo.com&url=https://s6.mkklcdnv6temp.com/mangakakalot/b1/bashing_renai/vol1_chapter_21_bashing_renai_2/27.jpg",
    "https://img-proxy.imgfo.com/?referer=https://manganelo.com&url=https://s6.mkklcdnv6temp.com/mangakakalot/b1/bashing_renai/vol1_chapter_21_bashing_renai_2/28.jpg",
    "https://img-proxy.imgfo.com/?referer=https://manganelo.com&url=https://s6.mkklcdnv6temp.com/mangakakalot/b1/bashing_renai/vol1_chapter_21_bashing_renai_2/29.jpg",
    "https://img-proxy.imgfo.com/?referer=https://manganelo.com&url=https://s6.mkklcdnv6temp.com/mangakakalot/b1/bashing_renai/vol1_chapter_21_bashing_renai_2/30.jpg",
    "https://img-proxy.imgfo.com/?referer=https://manganelo.com&url=https://s6.mkklcdnv6temp.com/mangakakalot/b1/bashing_renai/vol1_chapter_21_bashing_renai_2/31.jpg",
    "https://img-proxy.imgfo.com/?referer=https://manganelo.com&url=https://s6.mkklcdnv6temp.com/mangakakalot/b1/bashing_renai/vol1_chapter_21_bashing_renai_2/32.jpg",
    "https://img-proxy.imgfo.com/?referer=https://manganelo.com&url=https://s6.mkklcdnv6temp.com/mangakakalot/b1/bashing_renai/vol1_chapter_21_bashing_renai_2/33.jpg",
    "https://img-proxy.imgfo.com/?referer=https://manganelo.com&url=https://s6.mkklcdnv6temp.com/mangakakalot/b1/bashing_renai/vol1_chapter_21_bashing_renai_2/34.jpg",
    "https://img-proxy.imgfo.com/?referer=https://manganelo.com&url=https://s6.mkklcdnv6temp.com/mangakakalot/b1/bashing_renai/vol1_chapter_21_bashing_renai_2/35.jpg",
    "https://img-proxy.imgfo.com/?referer=https://manganelo.com&url=https://s6.mkklcdnv6temp.com/mangakakalot/b1/bashing_renai/vol1_chapter_21_bashing_renai_2/36.jpg",
    "https://img-proxy.imgfo.com/?referer=https://manganelo.com&url=https://s6.mkklcdnv6temp.com/mangakakalot/b1/bashing_renai/vol1_chapter_21_bashing_renai_2/37.jpg",
    "https://img-proxy.imgfo.com/?referer=https://manganelo.com&url=https://s6.mkklcdnv6temp.com/mangakakalot/b1/bashing_renai/vol1_chapter_21_bashing_renai_2/38.jpg",
    "https://img-proxy.imgfo.com/?referer=https://manganelo.com&url=https://s6.mkklcdnv6temp.com/mangakakalot/b1/bashing_renai/vol1_chapter_21_bashing_renai_2/39.jpg",
    "https://img-proxy.imgfo.com/?referer=https://manganelo.com&url=https://s6.mkklcdnv6temp.com/mangakakalot/b1/bashing_renai/vol1_chapter_21_bashing_renai_2/40.jpg",
    "https://img-proxy.imgfo.com/?referer=https://manganelo.com&url=https://s6.mkklcdnv6temp.com/mangakakalot/b1/bashing_renai/vol1_chapter_21_bashing_renai_2/41.jpg",
    "https://img-proxy.imgfo.com/?referer=https://manganelo.com&url=https://s6.mkklcdnv6temp.com/mangakakalot/b1/bashing_renai/vol1_chapter_21_bashing_renai_2/42.jpg",
    "https://img-proxy.imgfo.com/?referer=https://manganelo.com&url=https://s6.mkklcdnv6temp.com/mangakakalot/b1/bashing_renai/vol1_chapter_21_bashing_renai_2/43.jpg",
    "https://img-proxy.imgfo.com/?referer=https://manganelo.com&url=https://s6.mkklcdnv6temp.com/mangakakalot/b1/bashing_renai/vol1_chapter_21_bashing_renai_2/44.jpg",
    "https://img-proxy.imgfo.com/?referer=https://manganelo.com&url=https://s6.mkklcdnv6temp.com/mangakakalot/b1/bashing_renai/vol1_chapter_21_bashing_renai_2/45.jpg",
    "https://img-proxy.imgfo.com/?referer=https://manganelo.com&url=https://s6.mkklcdnv6temp.com/mangakakalot/b1/bashing_renai/vol1_chapter_21_bashing_renai_2/46.jpg",
    "https://img-proxy.imgfo.com/?referer=https://manganelo.com&url=https://s6.mkklcdnv6temp.com/mangakakalot/b1/bashing_renai/vol1_chapter_21_bashing_renai_2/47.jpg",
    "https://img-proxy.imgfo.com/?referer=https://manganelo.com&url=https://s6.mkklcdnv6temp.com/mangakakalot/b1/bashing_renai/vol1_chapter_21_bashing_renai_2/48.jpg",
    "https://img-proxy.imgfo.com/?referer=https://manganelo.com&url=https://s6.mkklcdnv6temp.com/mangakakalot/b1/bashing_renai/vol1_chapter_21_bashing_renai_2/49.jpg",
    "https://img-proxy.imgfo.com/?referer=https://manganelo.com&url=https://s6.mkklcdnv6temp.com/mangakakalot/b1/bashing_renai/vol1_chapter_21_bashing_renai_2/50.jpg",
    "https://img-proxy.imgfo.com/?referer=https://manganelo.com&url=https://s6.mkklcdnv6temp.com/mangakakalot/b1/bashing_renai/vol1_chapter_21_bashing_renai_2/51.jpg"
  ]
}