{
  "cover": "http://ww1.heaventoon.com/content/upload/images/Kaichou-Wa-Maid-Sama.jpg",
  "title": "Kaichou wa Maid-sama!",
  "genre": "Comedy, Drama, Manga, Martial Arts, Romance, School Life, Shoujo",
  "author": "FUJIWARA Hiro",
  "status": "Completed",
  "backlink": "https://manganu.com/collections/fujiwara-hiro/kaichou-wa-maid-sama/",
  "description": "Brilliant and overachieving, Misaki Ayuzawa is the President of the Student Council at Seika High School, formerly a boys&nbsp;school. Unfortunately, most of the students are still male and stuck in their slovenly habits, so man-hating Misaki really socks it to em in an attempt to make the school presentable to attract more female students. But what will she do when the sexiest boy in school finds out that after school, Misaki works in a maid cafe.",
  "language": "English",
  "images": [
    "http://2.bp.blogspot.com/-dbily2gIqU8/VlUBQxjGWOI/AAAAAAAAWAE/H6dz8L2Ef6k/s16000/0051-001.jpg",
    "http://2.bp.blogspot.com/-pm1qRziHs04/VlUDHCEi0CI/AAAAAAAAWjI/Bp4jDGs-KRA/s16000/0051-002.jpg",
    "http://2.bp.blogspot.com/-sRlBBfpTQOY/VlT8ExWZq0I/AAAAAAAAUgw/yy4m2gS_0BE/s16000/0051-003.jpg",
    "http://2.bp.blogspot.com/-1JvL6NYg1ys/VlT-xz0xXQI/AAAAAAAAVRY/Eez8ZMWOMA0/s16000/0051-004.jpg",
    "http://2.bp.blogspot.com/-0-m6j2uYLDg/VlT_KNI3FII/AAAAAAAAVbw/MZwirkvNPcM/s16000/0051-005.jpg",
    "http://2.bp.blogspot.com/-UWuEX6_Codk/VlT8z9nrV-I/AAAAAAAAUrw/bQqIjzsgJg8/s16000/0051-006.jpg",
    "http://2.bp.blogspot.com/-Hq5jRiG_w_4/VlT-A8LJIaI/AAAAAAAAVCs/Bq9vznfnCvA/s16000/0051-007.jpg",
    "http://2.bp.blogspot.com/-B65aK9eg6AQ/VlT-DSjqROI/AAAAAAAAVDc/FboKYSCxaj0/s16000/0051-008.jpg",
    "http://2.bp.blogspot.com/-L7iLITV-T1A/VlUATd2J9vI/AAAAAAAAVtw/WxxiLtOt-2M/s16000/0051-009.jpg",
    "http://2.bp.blogspot.com/-Te8CYhfUQJI/VlT7mS1fc1I/AAAAAAAAUXg/pAU3-8ICWME/s16000/0051-010.jpg",
    "http://2.bp.blogspot.com/-DGyw_m81Ms8/VlT7xsanqOI/AAAAAAAAUa0/8ROeT4u8YO0/s16000/0051-011.jpg",
    "http://2.bp.blogspot.com/-H0DLyJGav2Q/VlUAgLLw_vI/AAAAAAAAVxk/_ZGwUNvbkQc/s16000/0051-012.jpg",
    "http://2.bp.blogspot.com/-EvzePjFjQXA/VlT-RKzH08I/AAAAAAAAVHo/Bc2XGlxdPQ4/s16000/0051-013.jpg",
    "http://2.bp.blogspot.com/-F7mHMe_qvI8/VlT7stk4r2I/AAAAAAAAUZU/HYdht_ty2es/s16000/0051-014.jpg",
    "http://2.bp.blogspot.com/-IG8CxIpwfFk/VlUEOItBEbI/AAAAAAAAW3c/5yM59cGDOIc/s16000/0051-015.jpg",
    "http://2.bp.blogspot.com/-UHHoE9S24S4/VlT_P5xei_I/AAAAAAAAVcA/pCwW_P9Zg30/s16000/0051-016.jpg",
    "http://2.bp.blogspot.com/-urYgxf8Yd0o/VlT9zwXXhkI/AAAAAAAAU-U/IeIp_6ePmbU/s16000/0051-017.jpg",
    "http://2.bp.blogspot.com/-TxG86FDBEgg/VlT6kB8sn2I/AAAAAAAAUDs/eLfczi-B-Kk/s16000/0051-018.jpg",
    "http://2.bp.blogspot.com/-yTpBa0syBmA/VlT9s2e7kkI/AAAAAAAAU8M/zEiQFaADmtk/s16000/0051-019.jpg",
    "http://2.bp.blogspot.com/-A0UWSzWAPKs/VlUDpaXChSI/AAAAAAAAWsM/GL9m0_7RWqU/s16000/0051-020.jpg",
    "http://2.bp.blogspot.com/-YEvWkL-WoCQ/VlUCOXNsxVI/AAAAAAAAWVQ/JvFPH7u7X1o/s16000/0051-021.jpg",
    "http://2.bp.blogspot.com/-OoKUvxFJ_H8/VlT7Txg8olI/AAAAAAAAUSI/i04Gj4VNF4w/s16000/0051-022.jpg",
    "http://2.bp.blogspot.com/-YJ7R_Vzqu0k/VlT8M2ORbFI/AAAAAAAAUjE/-BewBkt0gb8/s16000/0051-023.jpg",
    "http://2.bp.blogspot.com/-l56ilOK5flQ/VlUD-2vMt-I/AAAAAAAAWzA/QlFPhjxls7s/s16000/0051-024.jpg",
    "http://2.bp.blogspot.com/-UhZLCqgXhkU/VlUA4mWvpJI/AAAAAAAAV9c/iFwPSJMIhis/s16000/0051-025.jpg",
    "http://2.bp.blogspot.com/-oq865JjLxSU/VlT_Y_MeYhI/AAAAAAAAVcI/98Hm8wSXFg4/s16000/0051-026.jpg",
    "http://2.bp.blogspot.com/-ePUvu4BW5NU/VlT-cea-mAI/AAAAAAAAVLI/BQKax-A2RPc/s16000/0051-027.jpg",
    "http://2.bp.blogspot.com/-mT7eFBQjZ90/VlT-r7YVqLI/AAAAAAAAVPc/-PPeatBQP48/s16000/0051-028.jpg",
    "http://2.bp.blogspot.com/-sDDbzk1e2ro/VlT9yhBCDvI/AAAAAAAAU_A/9Eke1KcH5Dw/s16000/0051-029.jpg",
    "http://2.bp.blogspot.com/-gK9v-uehuX0/VlUBukz1AoI/AAAAAAAAWJs/coCHOr0rye8/s16000/0051-030.jpg",
    "http://2.bp.blogspot.com/-J2OryhtPQn8/VlUCyBgIPyI/AAAAAAAAWck/tSSVct3ilMY/s16000/0051-031.jpg",
    "http://2.bp.blogspot.com/-RtyEWmZWrPk/VlT7DWaAiKI/AAAAAAAAUNE/VvAaLEcWyAI/s16000/0051-032.jpg",
    "http://2.bp.blogspot.com/-pmgj6wBNovc/VlT-Xa8iCyI/AAAAAAAAVJo/0lBnsgcl8Is/s16000/0051-033.jpg",
    "http://2.bp.blogspot.com/-D2Sr6xd6J8Q/VlUABcLtNXI/AAAAAAAAVoA/HkzUuX0EPYQ/s16000/0051-034.jpg",
    "http://2.bp.blogspot.com/-wZ76Yu7DUNg/VlUAyVtUAnI/AAAAAAAAV3Y/wwpjbqSnxtI/s16000/0051-035.jpg"
  ]
}