{
  "cover": "https://avt.mkklcdnv6.com/14/w/11-1583484550.jpg",
  "title": "Antique Romance",
  "genre": "Drama, Historical, Romance, Shoujo, Manga",
  "author": "Kim Mi Jung",
  "status": "Completed",
  "backlink": "https://manganu.com/collections/kim-mi-jung/antique-romance/",
  "description": "From Esthétique:\"I am a human, but a doll...Feelings are not needed. Physically alive, but not mentally.I am a painting trapped inside a rusted frame.The cold skin of a statue.Like a stuffed bird--Killed and set for display.I wonder...I wonder, on whose display I will be placed...\"",
  "language": "English",
  "images": [
    "https://img-proxy.imgfo.com/?referer=https://manganelo.com&url=https://s6.mkklcdnv6temp.com/mangakakalot/a1/antique_romance/vol3_chapter_14/1.jpg",
    "https://img-proxy.imgfo.com/?referer=https://manganelo.com&url=https://s6.mkklcdnv6temp.com/mangakakalot/a1/antique_romance/vol3_chapter_14/2.jpg",
    "https://img-proxy.imgfo.com/?referer=https://manganelo.com&url=https://s6.mkklcdnv6temp.com/mangakakalot/a1/antique_romance/vol3_chapter_14/3.jpg",
    "https://img-proxy.imgfo.com/?referer=https://manganelo.com&url=https://s6.mkklcdnv6temp.com/mangakakalot/a1/antique_romance/vol3_chapter_14/4.jpg",
    "https://img-proxy.imgfo.com/?referer=https://manganelo.com&url=https://s6.mkklcdnv6temp.com/mangakakalot/a1/antique_romance/vol3_chapter_14/5.jpg",
    "https://img-proxy.imgfo.com/?referer=https://manganelo.com&url=https://s6.mkklcdnv6temp.com/mangakakalot/a1/antique_romance/vol3_chapter_14/6.jpg",
    "https://img-proxy.imgfo.com/?referer=https://manganelo.com&url=https://s6.mkklcdnv6temp.com/mangakakalot/a1/antique_romance/vol3_chapter_14/7.jpg",
    "https://img-proxy.imgfo.com/?referer=https://manganelo.com&url=https://s6.mkklcdnv6temp.com/mangakakalot/a1/antique_romance/vol3_chapter_14/8.jpg",
    "https://img-proxy.imgfo.com/?referer=https://manganelo.com&url=https://s6.mkklcdnv6temp.com/mangakakalot/a1/antique_romance/vol3_chapter_14/9.jpg",
    "https://img-proxy.imgfo.com/?referer=https://manganelo.com&url=https://s6.mkklcdnv6temp.com/mangakakalot/a1/antique_romance/vol3_chapter_14/10.jpg",
    "https://img-proxy.imgfo.com/?referer=https://manganelo.com&url=https://s6.mkklcdnv6temp.com/mangakakalot/a1/antique_romance/vol3_chapter_14/11.jpg",
    "https://img-proxy.imgfo.com/?referer=https://manganelo.com&url=https://s6.mkklcdnv6temp.com/mangakakalot/a1/antique_romance/vol3_chapter_14/12.jpg",
    "https://img-proxy.imgfo.com/?referer=https://manganelo.com&url=https://s6.mkklcdnv6temp.com/mangakakalot/a1/antique_romance/vol3_chapter_14/13.jpg",
    "https://img-proxy.imgfo.com/?referer=https://manganelo.com&url=https://s6.mkklcdnv6temp.com/mangakakalot/a1/antique_romance/vol3_chapter_14/14.jpg",
    "https://img-proxy.imgfo.com/?referer=https://manganelo.com&url=https://s6.mkklcdnv6temp.com/mangakakalot/a1/antique_romance/vol3_chapter_14/15.jpg",
    "https://img-proxy.imgfo.com/?referer=https://manganelo.com&url=https://s6.mkklcdnv6temp.com/mangakakalot/a1/antique_romance/vol3_chapter_14/16.jpg",
    "https://img-proxy.imgfo.com/?referer=https://manganelo.com&url=https://s6.mkklcdnv6temp.com/mangakakalot/a1/antique_romance/vol3_chapter_14/17.jpg",
    "https://img-proxy.imgfo.com/?referer=https://manganelo.com&url=https://s6.mkklcdnv6temp.com/mangakakalot/a1/antique_romance/vol3_chapter_14/18.jpg",
    "https://img-proxy.imgfo.com/?referer=https://manganelo.com&url=https://s6.mkklcdnv6temp.com/mangakakalot/a1/antique_romance/vol3_chapter_14/19.jpg",
    "https://img-proxy.imgfo.com/?referer=https://manganelo.com&url=https://s6.mkklcdnv6temp.com/mangakakalot/a1/antique_romance/vol3_chapter_14/20.jpg",
    "https://img-proxy.imgfo.com/?referer=https://manganelo.com&url=https://s6.mkklcdnv6temp.com/mangakakalot/a1/antique_romance/vol3_chapter_14/21.jpg",
    "https://img-proxy.imgfo.com/?referer=https://manganelo.com&url=https://s6.mkklcdnv6temp.com/mangakakalot/a1/antique_romance/vol3_chapter_14/22.jpg",
    "https://img-proxy.imgfo.com/?referer=https://manganelo.com&url=https://s6.mkklcdnv6temp.com/mangakakalot/a1/antique_romance/vol3_chapter_14/23.jpg",
    "https://img-proxy.imgfo.com/?referer=https://manganelo.com&url=https://s6.mkklcdnv6temp.com/mangakakalot/a1/antique_romance/vol3_chapter_14/24.jpg",
    "https://img-proxy.imgfo.com/?referer=https://manganelo.com&url=https://s6.mkklcdnv6temp.com/mangakakalot/a1/antique_romance/vol3_chapter_14/25.jpg"
  ]
}