{
  "cover": "https://avt.mkklcdnv6.com/7/h/13-1583487999.jpg",
  "title": "Kakenukerunara, Kienaidekure.",
  "original": "駆け抜けるなら消えないでくれ ; Kakenukerunara Kienaidekure",
  "genre": "Drama, Sports, Yaoi, Manga",
  "author": "Kasuga Naoka",
  "status": "Completed",
  "backlink": "https://manganu.com/collections/kasuga-naoka/kakenukerunara-kienaidekure/",
  "description": "Series of Short Stories.\nChapter 1-3:\nRevolves around the same boxing club.\n1) A Boxer's Love ~ Part One\n2) A Boxer's Love ~ PArt Two\n3) Secret\n4) The True Form of Your Favorite Man\n5) Love Spell\n6) Forbidden Agreement\n(Contains incest!)\n7) Baby Animals\n7.5) Memories of Papa Igawa & Switch One",
  "language": "English",
  "images": [
    "https://img-proxy.imgfo.com/?referer=https://manganelo.com&url=https://s6.mkklcdnv6temp.com/mangakakalot/k1/kakenukerunara_kienaidekure/vol1_chapter_4_the_true_form_of_your_favorite_man/1.jpg",
    "https://img-proxy.imgfo.com/?referer=https://manganelo.com&url=https://s6.mkklcdnv6temp.com/mangakakalot/k1/kakenukerunara_kienaidekure/vol1_chapter_4_the_true_form_of_your_favorite_man/2.jpg",
    "https://img-proxy.imgfo.com/?referer=https://manganelo.com&url=https://s6.mkklcdnv6temp.com/mangakakalot/k1/kakenukerunara_kienaidekure/vol1_chapter_4_the_true_form_of_your_favorite_man/3.jpg",
    "https://img-proxy.imgfo.com/?referer=https://manganelo.com&url=https://s6.mkklcdnv6temp.com/mangakakalot/k1/kakenukerunara_kienaidekure/vol1_chapter_4_the_true_form_of_your_favorite_man/4.jpg",
    "https://img-proxy.imgfo.com/?referer=https://manganelo.com&url=https://s6.mkklcdnv6temp.com/mangakakalot/k1/kakenukerunara_kienaidekure/vol1_chapter_4_the_true_form_of_your_favorite_man/5.jpg",
    "https://img-proxy.imgfo.com/?referer=https://manganelo.com&url=https://s6.mkklcdnv6temp.com/mangakakalot/k1/kakenukerunara_kienaidekure/vol1_chapter_4_the_true_form_of_your_favorite_man/6.jpg",
    "https://img-proxy.imgfo.com/?referer=https://manganelo.com&url=https://s6.mkklcdnv6temp.com/mangakakalot/k1/kakenukerunara_kienaidekure/vol1_chapter_4_the_true_form_of_your_favorite_man/7.jpg",
    "https://img-proxy.imgfo.com/?referer=https://manganelo.com&url=https://s6.mkklcdnv6temp.com/mangakakalot/k1/kakenukerunara_kienaidekure/vol1_chapter_4_the_true_form_of_your_favorite_man/8.jpg",
    "https://img-proxy.imgfo.com/?referer=https://manganelo.com&url=https://s6.mkklcdnv6temp.com/mangakakalot/k1/kakenukerunara_kienaidekure/vol1_chapter_4_the_true_form_of_your_favorite_man/9.jpg",
    "https://img-proxy.imgfo.com/?referer=https://manganelo.com&url=https://s6.mkklcdnv6temp.com/mangakakalot/k1/kakenukerunara_kienaidekure/vol1_chapter_4_the_true_form_of_your_favorite_man/10.jpg",
    "https://img-proxy.imgfo.com/?referer=https://manganelo.com&url=https://s6.mkklcdnv6temp.com/mangakakalot/k1/kakenukerunara_kienaidekure/vol1_chapter_4_the_true_form_of_your_favorite_man/11.jpg",
    "https://img-proxy.imgfo.com/?referer=https://manganelo.com&url=https://s6.mkklcdnv6temp.com/mangakakalot/k1/kakenukerunara_kienaidekure/vol1_chapter_4_the_true_form_of_your_favorite_man/12.jpg",
    "https://img-proxy.imgfo.com/?referer=https://manganelo.com&url=https://s6.mkklcdnv6temp.com/mangakakalot/k1/kakenukerunara_kienaidekure/vol1_chapter_4_the_true_form_of_your_favorite_man/13.jpg",
    "https://img-proxy.imgfo.com/?referer=https://manganelo.com&url=https://s6.mkklcdnv6temp.com/mangakakalot/k1/kakenukerunara_kienaidekure/vol1_chapter_4_the_true_form_of_your_favorite_man/14.jpg",
    "https://img-proxy.imgfo.com/?referer=https://manganelo.com&url=https://s6.mkklcdnv6temp.com/mangakakalot/k1/kakenukerunara_kienaidekure/vol1_chapter_4_the_true_form_of_your_favorite_man/15.jpg",
    "https://img-proxy.imgfo.com/?referer=https://manganelo.com&url=https://s6.mkklcdnv6temp.com/mangakakalot/k1/kakenukerunara_kienaidekure/vol1_chapter_4_the_true_form_of_your_favorite_man/16.jpg",
    "https://img-proxy.imgfo.com/?referer=https://manganelo.com&url=https://s6.mkklcdnv6temp.com/mangakakalot/k1/kakenukerunara_kienaidekure/vol1_chapter_4_the_true_form_of_your_favorite_man/17.jpg",
    "https://img-proxy.imgfo.com/?referer=https://manganelo.com&url=https://s6.mkklcdnv6temp.com/mangakakalot/k1/kakenukerunara_kienaidekure/vol1_chapter_4_the_true_form_of_your_favorite_man/18.jpg",
    "https://img-proxy.imgfo.com/?referer=https://manganelo.com&url=https://s6.mkklcdnv6temp.com/mangakakalot/k1/kakenukerunara_kienaidekure/vol1_chapter_4_the_true_form_of_your_favorite_man/19.jpg",
    "https://img-proxy.imgfo.com/?referer=https://manganelo.com&url=https://s6.mkklcdnv6temp.com/mangakakalot/k1/kakenukerunara_kienaidekure/vol1_chapter_4_the_true_form_of_your_favorite_man/20.jpg",
    "https://img-proxy.imgfo.com/?referer=https://manganelo.com&url=https://s6.mkklcdnv6temp.com/mangakakalot/k1/kakenukerunara_kienaidekure/vol1_chapter_4_the_true_form_of_your_favorite_man/21.jpg",
    "https://img-proxy.imgfo.com/?referer=https://manganelo.com&url=https://s6.mkklcdnv6temp.com/mangakakalot/k1/kakenukerunara_kienaidekure/vol1_chapter_4_the_true_form_of_your_favorite_man/22.jpg",
    "https://img-proxy.imgfo.com/?referer=https://manganelo.com&url=https://s6.mkklcdnv6temp.com/mangakakalot/k1/kakenukerunara_kienaidekure/vol1_chapter_4_the_true_form_of_your_favorite_man/23.jpg",
    "https://img-proxy.imgfo.com/?referer=https://manganelo.com&url=https://s6.mkklcdnv6temp.com/mangakakalot/k1/kakenukerunara_kienaidekure/vol1_chapter_4_the_true_form_of_your_favorite_man/24.jpg",
    "https://img-proxy.imgfo.com/?referer=https://manganelo.com&url=https://s6.mkklcdnv6temp.com/mangakakalot/k1/kakenukerunara_kienaidekure/vol1_chapter_4_the_true_form_of_your_favorite_man/25.jpg",
    "https://img-proxy.imgfo.com/?referer=https://manganelo.com&url=https://s6.mkklcdnv6temp.com/mangakakalot/k1/kakenukerunara_kienaidekure/vol1_chapter_4_the_true_form_of_your_favorite_man/26.jpg",
    "https://img-proxy.imgfo.com/?referer=https://manganelo.com&url=https://s6.mkklcdnv6temp.com/mangakakalot/k1/kakenukerunara_kienaidekure/vol1_chapter_4_the_true_form_of_your_favorite_man/27.jpg",
    "https://img-proxy.imgfo.com/?referer=https://manganelo.com&url=https://s6.mkklcdnv6temp.com/mangakakalot/k1/kakenukerunara_kienaidekure/vol1_chapter_4_the_true_form_of_your_favorite_man/28.jpg",
    "https://img-proxy.imgfo.com/?referer=https://manganelo.com&url=https://s6.mkklcdnv6temp.com/mangakakalot/k1/kakenukerunara_kienaidekure/vol1_chapter_4_the_true_form_of_your_favorite_man/29.jpg",
    "https://img-proxy.imgfo.com/?referer=https://manganelo.com&url=https://s6.mkklcdnv6temp.com/mangakakalot/k1/kakenukerunara_kienaidekure/vol1_chapter_4_the_true_form_of_your_favorite_man/30.jpg",
    "https://img-proxy.imgfo.com/?referer=https://manganelo.com&url=https://s6.mkklcdnv6temp.com/mangakakalot/k1/kakenukerunara_kienaidekure/vol1_chapter_4_the_true_form_of_your_favorite_man/31.jpg",
    "https://img-proxy.imgfo.com/?referer=https://manganelo.com&url=https://s6.mkklcdnv6temp.com/mangakakalot/k1/kakenukerunara_kienaidekure/vol1_chapter_4_the_true_form_of_your_favorite_man/32.jpg",
    "https://img-proxy.imgfo.com/?referer=https://manganelo.com&url=https://s6.mkklcdnv6temp.com/mangakakalot/k1/kakenukerunara_kienaidekure/vol1_chapter_4_the_true_form_of_your_favorite_man/33.jpg"
  ]
}