{
  "cover": "https://avt.mkklcdnv6.com/10/q/4-1583470101.jpg",
  "title": "Ashita No Ousama",
  "original": "明日の王様 ; Tomorrow's King",
  "genre": "Comedy, Drama, Josei, Romance, Slice of life, Manga",
  "author": "Yachi Emiko",
  "status": "Completed",
  "backlink": "https://manganu.com/collections/yachi-emiko/ashita-no-ousama/",
  "description": "From Wingtip Cafe:\nYu has found the stage full of dreams and happiness. Fascinated by magic of the drama, she struggles to be a stage director and a scriptwriter. This is her drama.",
  "language": "English",
  "images": [
    "https://img-proxy.imgfo.com/?referer=https://manganelo.com&url=https://s5.mkklcdnv6temp.com/mangakakalot/a2/ashita_no_ousama/vol2_chapter_15/1.jpg",
    "https://img-proxy.imgfo.com/?referer=https://manganelo.com&url=https://s5.mkklcdnv6temp.com/mangakakalot/a2/ashita_no_ousama/vol2_chapter_15/2.jpg",
    "https://img-proxy.imgfo.com/?referer=https://manganelo.com&url=https://s5.mkklcdnv6temp.com/mangakakalot/a2/ashita_no_ousama/vol2_chapter_15/3.jpg",
    "https://img-proxy.imgfo.com/?referer=https://manganelo.com&url=https://s5.mkklcdnv6temp.com/mangakakalot/a2/ashita_no_ousama/vol2_chapter_15/4.jpg",
    "https://img-proxy.imgfo.com/?referer=https://manganelo.com&url=https://s5.mkklcdnv6temp.com/mangakakalot/a2/ashita_no_ousama/vol2_chapter_15/5.jpg",
    "https://img-proxy.imgfo.com/?referer=https://manganelo.com&url=https://s5.mkklcdnv6temp.com/mangakakalot/a2/ashita_no_ousama/vol2_chapter_15/6.jpg",
    "https://img-proxy.imgfo.com/?referer=https://manganelo.com&url=https://s5.mkklcdnv6temp.com/mangakakalot/a2/ashita_no_ousama/vol2_chapter_15/7.jpg",
    "https://img-proxy.imgfo.com/?referer=https://manganelo.com&url=https://s5.mkklcdnv6temp.com/mangakakalot/a2/ashita_no_ousama/vol2_chapter_15/8.jpg",
    "https://img-proxy.imgfo.com/?referer=https://manganelo.com&url=https://s5.mkklcdnv6temp.com/mangakakalot/a2/ashita_no_ousama/vol2_chapter_15/9.jpg",
    "https://img-proxy.imgfo.com/?referer=https://manganelo.com&url=https://s5.mkklcdnv6temp.com/mangakakalot/a2/ashita_no_ousama/vol2_chapter_15/10.jpg",
    "https://img-proxy.imgfo.com/?referer=https://manganelo.com&url=https://s5.mkklcdnv6temp.com/mangakakalot/a2/ashita_no_ousama/vol2_chapter_15/11.jpg",
    "https://img-proxy.imgfo.com/?referer=https://manganelo.com&url=https://s5.mkklcdnv6temp.com/mangakakalot/a2/ashita_no_ousama/vol2_chapter_15/12.jpg",
    "https://img-proxy.imgfo.com/?referer=https://manganelo.com&url=https://s5.mkklcdnv6temp.com/mangakakalot/a2/ashita_no_ousama/vol2_chapter_15/13.jpg",
    "https://img-proxy.imgfo.com/?referer=https://manganelo.com&url=https://s5.mkklcdnv6temp.com/mangakakalot/a2/ashita_no_ousama/vol2_chapter_15/14.jpg",
    "https://img-proxy.imgfo.com/?referer=https://manganelo.com&url=https://s5.mkklcdnv6temp.com/mangakakalot/a2/ashita_no_ousama/vol2_chapter_15/15.jpg",
    "https://img-proxy.imgfo.com/?referer=https://manganelo.com&url=https://s5.mkklcdnv6temp.com/mangakakalot/a2/ashita_no_ousama/vol2_chapter_15/16.jpg",
    "https://img-proxy.imgfo.com/?referer=https://manganelo.com&url=https://s5.mkklcdnv6temp.com/mangakakalot/a2/ashita_no_ousama/vol2_chapter_15/17.jpg",
    "https://img-proxy.imgfo.com/?referer=https://manganelo.com&url=https://s5.mkklcdnv6temp.com/mangakakalot/a2/ashita_no_ousama/vol2_chapter_15/18.jpg",
    "https://img-proxy.imgfo.com/?referer=https://manganelo.com&url=https://s5.mkklcdnv6temp.com/mangakakalot/a2/ashita_no_ousama/vol2_chapter_15/19.jpg",
    "https://img-proxy.imgfo.com/?referer=https://manganelo.com&url=https://s5.mkklcdnv6temp.com/mangakakalot/a2/ashita_no_ousama/vol2_chapter_15/20.jpg",
    "https://img-proxy.imgfo.com/?referer=https://manganelo.com&url=https://s5.mkklcdnv6temp.com/mangakakalot/a2/ashita_no_ousama/vol2_chapter_15/21.jpg",
    "https://img-proxy.imgfo.com/?referer=https://manganelo.com&url=https://s5.mkklcdnv6temp.com/mangakakalot/a2/ashita_no_ousama/vol2_chapter_15/22.jpg",
    "https://img-proxy.imgfo.com/?referer=https://manganelo.com&url=https://s5.mkklcdnv6temp.com/mangakakalot/a2/ashita_no_ousama/vol2_chapter_15/23.jpg",
    "https://img-proxy.imgfo.com/?referer=https://manganelo.com&url=https://s5.mkklcdnv6temp.com/mangakakalot/a2/ashita_no_ousama/vol2_chapter_15/24.jpg",
    "https://img-proxy.imgfo.com/?referer=https://manganelo.com&url=https://s5.mkklcdnv6temp.com/mangakakalot/a2/ashita_no_ousama/vol2_chapter_15/25.jpg",
    "https://img-proxy.imgfo.com/?referer=https://manganelo.com&url=https://s5.mkklcdnv6temp.com/mangakakalot/a2/ashita_no_ousama/vol2_chapter_15/26.jpg",
    "https://img-proxy.imgfo.com/?referer=https://manganelo.com&url=https://s5.mkklcdnv6temp.com/mangakakalot/a2/ashita_no_ousama/vol2_chapter_15/27.jpg",
    "https://img-proxy.imgfo.com/?referer=https://manganelo.com&url=https://s5.mkklcdnv6temp.com/mangakakalot/a2/ashita_no_ousama/vol2_chapter_15/28.jpg",
    "https://img-proxy.imgfo.com/?referer=https://manganelo.com&url=https://s5.mkklcdnv6temp.com/mangakakalot/a2/ashita_no_ousama/vol2_chapter_15/29.jpg",
    "https://img-proxy.imgfo.com/?referer=https://manganelo.com&url=https://s5.mkklcdnv6temp.com/mangakakalot/a2/ashita_no_ousama/vol2_chapter_15/30.jpg",
    "https://img-proxy.imgfo.com/?referer=https://manganelo.com&url=https://s5.mkklcdnv6temp.com/mangakakalot/a2/ashita_no_ousama/vol2_chapter_15/31.jpg",
    "https://img-proxy.imgfo.com/?referer=https://manganelo.com&url=https://s5.mkklcdnv6temp.com/mangakakalot/a2/ashita_no_ousama/vol2_chapter_15/32.jpg",
    "https://img-proxy.imgfo.com/?referer=https://manganelo.com&url=https://s5.mkklcdnv6temp.com/mangakakalot/a2/ashita_no_ousama/vol2_chapter_15/33.jpg",
    "https://img-proxy.imgfo.com/?referer=https://manganelo.com&url=https://s5.mkklcdnv6temp.com/mangakakalot/a2/ashita_no_ousama/vol2_chapter_15/34.jpg",
    "https://img-proxy.imgfo.com/?referer=https://manganelo.com&url=https://s5.mkklcdnv6temp.com/mangakakalot/a2/ashita_no_ousama/vol2_chapter_15/35.jpg",
    "https://img-proxy.imgfo.com/?referer=https://manganelo.com&url=https://s5.mkklcdnv6temp.com/mangakakalot/a2/ashita_no_ousama/vol2_chapter_15/36.jpg",
    "https://img-proxy.imgfo.com/?referer=https://manganelo.com&url=https://s5.mkklcdnv6temp.com/mangakakalot/a2/ashita_no_ousama/vol2_chapter_15/37.jpg",
    "https://img-proxy.imgfo.com/?referer=https://manganelo.com&url=https://s5.mkklcdnv6temp.com/mangakakalot/a2/ashita_no_ousama/vol2_chapter_15/38.jpg"
  ]
}