{
  "cover": "http://ww1.heaventoon.com/content/upload/images/images/Kudan-no-Gotoshi.jpg",
  "title": "Kudan no Gotoshi",
  "genre": "Drama, Horror, Manga, Mystery, Seinen",
  "author": "WATANABE Jun",
  "status": "Ongoing",
  "backlink": "https://manganu.com/collections/watanabe-jun/kudan-no-gotoshi/",
  "description": "Seven college students are coming back from their graduations. During the travel they are shocked to see a strange, cow-like creature with a human face. This accident means they only have seven days left to live. What will they do to stay alive until the fated day?",
  "language": "English",
  "images": [
    "https://2.bp.blogspot.com/f0_iE8o19VsgR4oJo33zZZ7EwmSHM1sl8QykAZxM127Zob1fXLpqXOLH0N_PlDDxbPeXJEH6cqqSZ7XlwZ5jsy0J8J8iQWhCp_pXo1R1t-e0dZZhwOkd0XbmbfVkLcnkRQXDMivlKw=s0?title=MTg1LjIyOS41OS4xMTE=000___1588250553.png",
    "https://2.bp.blogspot.com/hQyRqevk04L_WeHHssDOVTqzj4JIPLIviBsxLQQR_2aiuaOFHjc47P-PU_T54nAw4kZjA3fhjuTzk0QDCeSZE4rSTXN9rB4zuOhMq2aVZJ1QdjCBauCwUdRlHLouI6KYewyi_6dHiw=s0?title=MTg1LjIyOS41OS4xMTE=001___1588250553.png",
    "https://2.bp.blogspot.com/kfd3XVofAGMWaRzSRADwXG4jGk3ioA7ZK4Fy2CP-p2VHBCyvtFmtQ0PtnqjeOfLIiLvNhPjuYlAjlgWqkVhlPAAzURjWyUyi8AchVSIPA8ms8pNrkr1qGluSNP9RgmbJt9eta0HZ-w=s0?title=MTg1LjIyOS41OS4xMTE=002___1588250553.png",
    "https://2.bp.blogspot.com/--MJI6DBUXYcYC3fjqDsujzZF-iyYQtzG0nXiq_6quu2qRnFUTXjwdyC3byrCGAaC6wvyAv9-mc-7l58VFxDBXyOPCFdL-y-OP45OgaJtmkXgTdZz34n3EMb7oSpi7UDkCsFlgqVlQ=s0?title=MTg1LjIyOS41OS4xMTE=003___1588250553.png",
    "https://2.bp.blogspot.com/eU4PgPlL9DlacD1ePsQ-o59NRI28UiK8TNu1dvxIEVMmxkoFUHckEPSi0pBH_xylkWA2zsN8dEOh_x17Y6WQ4VNs_vugbeiJjMq2cMKumsqSWHm85GZldMmbIKgGl_86MwtPPo6B1A=s0?title=MTg1LjIyOS41OS4xMTE=004___1588250553.png",
    "https://2.bp.blogspot.com/2SmEUtVfR97FLxo7zMjR6_rGGcfFJhL-ln_auZSbwtzvNrJVESKMgdv_284J9WXk1cUC25A3QSm35oh9xwBq7yid5Wq5NXUsjMiulZvDWRv-GVPV3WNGUXI_AVuC6KJgD0qo5R1USg=s0?title=MTg1LjIyOS41OS4xMTE=005___1588250553.png",
    "https://2.bp.blogspot.com/ZsS2oIVnZLlFLv5d5SlmAAYwb_L1fp1NsQM0SuWwdwPoznAmjHZWIoBWxw1A1VHXu48zzfoCiUBTj4JyN5Fj-SjY6nLptbLbDHjMzqOnglnExOfgYPFxo8A52G0TSGr5QIIB6ozX0Q=s0?title=MTg1LjIyOS41OS4xMTE=006___1588250553.png",
    "https://2.bp.blogspot.com/awsVtFaeh8FJ7M5HG9bbeILRyF3zVInqinzb25NQ1LbfW6iyfLn17DGZwmoRpQLSW_EKp120QwpC5ynwYD7DSJOEylIOmfyZNC0VSxS5PR35tfF1vNOWdz0Vi-S7LaGfIm7nBPf4Dg=s0?title=MTg1LjIyOS41OS4xMTE=007___1588250553.png",
    "https://2.bp.blogspot.com/SoS1xHuSCcZrKAUdhTdU4erBoriqoMSP1kteRbOIqKeMEOSEb0pJPFTz_SBNtkTH2Y9spXSF8aVNsXiirpJUxCmA48Cs71ZNf2VmgZdM4J0jtXVCLvZ0wVJGyZ-dGZNql1IfG6ufWA=s0?title=MTg1LjIyOS41OS4xMTE=008___1588250553.png",
    "https://2.bp.blogspot.com/rgRP2lNoSSWgGRgpYttg7hQeRabl_rxzhAb9SpY35hkqePJzpu0U0cYxvmfRabIU0R-uoLQkilFW7ykZcYEYDy9c2m17j7pX8FnmAqbuL50tl6AlBoZSkK1sXCiRuoYrrsF0RDSzIA=s0?title=MTg1LjIyOS41OS4xMTE=009___1588250553.png",
    "https://2.bp.blogspot.com/8SlvVg0_pc3OZpZx1bCCZ8eo5zQVoZi9cKDqS6p7HVUXnV4hF05WsOthk6PL4r8kRb2avaCbD6uOTw3i_Fdh5thb86B4WreZuc3hzRvYB62V2znKIUN51jCLAfKCJwjI8XX59c6rjw=s0?title=MTg1LjIyOS41OS4xMTE=010___1588250553.png",
    "https://2.bp.blogspot.com/7FCrM6BhckGNSbb4G7h4C194cApj69kWxEcDbVVdNe8Fa_pkm5sstg6OrIoef60TiIrxytr1jXQFutyA-oD1PCW_-QHzabvYzhMIk8n5b_us6HerfV-oyGojeSInJST_u_2KcIN6JA=s0?title=MTg1LjIyOS41OS4xMTE=011___1588250553.png",
    "https://2.bp.blogspot.com/WK8rkzzxIXEWCwjrCvvYvNopBcfYcHWeBrDoZDU-IZy0qyNZvcijktpiHqyfAARFRWrTxAwyAg57Ci-7gIk4BVAX2y2dnoYKZ5hzr9_RaAb-I16TYbIKxjGrPb0jqsVM4g5iq9Axgg=s0?title=MTg1LjIyOS41OS4xMTE=012___1588250553.png",
    "https://2.bp.blogspot.com/V_vKIfoRwfQZnJGB6UmE99oZMUBMHoWDXFbf6glCrM0eVqtpA5KPA91q1XCE_FVr0rAdBYBAEcgqNlUW1lb_uqrIE2bWC6UuXqlSOCLm9hfle6BnhSPYtnw6L5S9pMbiXZu8dLIUtg=s0?title=MTg1LjIyOS41OS4xMTE=013___1588250553.png",
    "https://2.bp.blogspot.com/Om1HrXL2LvD-IX4karllSVrW8YqK8LojEc62axVTUJbf8NGObVmoIyOEb9m7j9HpOROOlZFf-_4BxOhXjsVcEiV8V9QXqkfdOgennfvOmBlayMA79-Vk853aNMSKrKL6XlsAbiWiTg=s0?title=MTg1LjIyOS41OS4xMTE=014___1588250553.png",
    "https://2.bp.blogspot.com/W445Rr8-XurQ0a3bLTXSnwbDjJaYvJIfEi7TiDUB3BHgk7-PFu6UwJLlNySLshDtt8fn6dgaPJd4W9k0jh2Qyc_HCE2NNcIXxWSeRUYqpVHbJpGyDKH_f0-wLXi5xfPmL5BEiQmA3w=s0?title=MTg1LjIyOS41OS4xMTE=015___1588250553.png",
    "https://2.bp.blogspot.com/OSYEKcq0Jl3lAYqkLFAbxuvlcbJRtwF3qRjZMiD7PebE8rfaL8v8LVWpeNjk412PRSkuiRYEnj-pDUjr0QfSxof_x5kOQr-hobptOADQcBV7HtOigmaFdmpFPMPGy3McOgJJvjHcYg=s0?title=MTg1LjIyOS41OS4xMTE=016___1588250553.png",
    "https://2.bp.blogspot.com/5wOfRVAadErVN7hEHFYuNbCXc06xCXPk1PNw0KIiWReSLOOYqRe0V9DvQ8nBi9oYjJz3XHvE1nKShPKaqBpHkwUMl7hThsD4uQ_eMQ78HP-SlAwfJqxvAabda_uNLa5uy5C9fK2sAA=s0?title=MTg1LjIyOS41OS4xMTE=017___1588250553.png"
  ]
}