{
  "cover": "https://avt.mkklcdnv6.com/8/x/18-1583497426.jpg",
  "title": "Kudan No Gotoshi",
  "original": "クダンノゴトシ",
  "genre": "Drama, Horror, Mystery, Seinen",
  "author": "Watanabe Jun",
  "status": "Completed",
  "backlink": "https://manganu.com/collections/watanabe-jun/kudan-no-gotoshi/",
  "description": "Seven college students are coming back from their graduations. During the travel they are shocked to see a strange, cow-like creature with a human face. This accident means they only have seven days left to live. What will they do to stay alive until the fated day? [MAL]",
  "language": "English",
  "images": [
    "https://static-focus-opensocial.googleusercontent.com/gadgets/proxy?container=focus&gadget=a&no_expand=1&resize_h=0&rewriteMime=image%2F*&url=https://img-proxy.imgfo.com/?referer=https://manganelo.com&url=https://s8.mkklcdnv6temp.com/mangakakalot/p2/pu918807/vol6_chapter_56_hikaru_tsujimoto_lt_part_31_gt/1.jpg",
    "https://static-focus-opensocial.googleusercontent.com/gadgets/proxy?container=focus&gadget=a&no_expand=1&resize_h=0&rewriteMime=image%2F*&url=https://img-proxy.imgfo.com/?referer=https://manganelo.com&url=https://s8.mkklcdnv6temp.com/mangakakalot/p2/pu918807/vol6_chapter_56_hikaru_tsujimoto_lt_part_31_gt/2.jpg",
    "https://static-focus-opensocial.googleusercontent.com/gadgets/proxy?container=focus&gadget=a&no_expand=1&resize_h=0&rewriteMime=image%2F*&url=https://img-proxy.imgfo.com/?referer=https://manganelo.com&url=https://s8.mkklcdnv6temp.com/mangakakalot/p2/pu918807/vol6_chapter_56_hikaru_tsujimoto_lt_part_31_gt/3.jpg",
    "https://static-focus-opensocial.googleusercontent.com/gadgets/proxy?container=focus&gadget=a&no_expand=1&resize_h=0&rewriteMime=image%2F*&url=https://img-proxy.imgfo.com/?referer=https://manganelo.com&url=https://s8.mkklcdnv6temp.com/mangakakalot/p2/pu918807/vol6_chapter_56_hikaru_tsujimoto_lt_part_31_gt/4.jpg",
    "https://static-focus-opensocial.googleusercontent.com/gadgets/proxy?container=focus&gadget=a&no_expand=1&resize_h=0&rewriteMime=image%2F*&url=https://img-proxy.imgfo.com/?referer=https://manganelo.com&url=https://s8.mkklcdnv6temp.com/mangakakalot/p2/pu918807/vol6_chapter_56_hikaru_tsujimoto_lt_part_31_gt/5.jpg",
    "https://static-focus-opensocial.googleusercontent.com/gadgets/proxy?container=focus&gadget=a&no_expand=1&resize_h=0&rewriteMime=image%2F*&url=https://img-proxy.imgfo.com/?referer=https://manganelo.com&url=https://s8.mkklcdnv6temp.com/mangakakalot/p2/pu918807/vol6_chapter_56_hikaru_tsujimoto_lt_part_31_gt/6.jpg",
    "https://static-focus-opensocial.googleusercontent.com/gadgets/proxy?container=focus&gadget=a&no_expand=1&resize_h=0&rewriteMime=image%2F*&url=https://img-proxy.imgfo.com/?referer=https://manganelo.com&url=https://s8.mkklcdnv6temp.com/mangakakalot/p2/pu918807/vol6_chapter_56_hikaru_tsujimoto_lt_part_31_gt/7.jpg",
    "https://static-focus-opensocial.googleusercontent.com/gadgets/proxy?container=focus&gadget=a&no_expand=1&resize_h=0&rewriteMime=image%2F*&url=https://img-proxy.imgfo.com/?referer=https://manganelo.com&url=https://s8.mkklcdnv6temp.com/mangakakalot/p2/pu918807/vol6_chapter_56_hikaru_tsujimoto_lt_part_31_gt/8.jpg",
    "https://static-focus-opensocial.googleusercontent.com/gadgets/proxy?container=focus&gadget=a&no_expand=1&resize_h=0&rewriteMime=image%2F*&url=https://img-proxy.imgfo.com/?referer=https://manganelo.com&url=https://s8.mkklcdnv6temp.com/mangakakalot/p2/pu918807/vol6_chapter_56_hikaru_tsujimoto_lt_part_31_gt/9.jpg",
    "https://static-focus-opensocial.googleusercontent.com/gadgets/proxy?container=focus&gadget=a&no_expand=1&resize_h=0&rewriteMime=image%2F*&url=https://img-proxy.imgfo.com/?referer=https://manganelo.com&url=https://s8.mkklcdnv6temp.com/mangakakalot/p2/pu918807/vol6_chapter_56_hikaru_tsujimoto_lt_part_31_gt/10.jpg",
    "https://static-focus-opensocial.googleusercontent.com/gadgets/proxy?container=focus&gadget=a&no_expand=1&resize_h=0&rewriteMime=image%2F*&url=https://img-proxy.imgfo.com/?referer=https://manganelo.com&url=https://s8.mkklcdnv6temp.com/mangakakalot/p2/pu918807/vol6_chapter_56_hikaru_tsujimoto_lt_part_31_gt/11.jpg",
    "https://static-focus-opensocial.googleusercontent.com/gadgets/proxy?container=focus&gadget=a&no_expand=1&resize_h=0&rewriteMime=image%2F*&url=https://img-proxy.imgfo.com/?referer=https://manganelo.com&url=https://s8.mkklcdnv6temp.com/mangakakalot/p2/pu918807/vol6_chapter_56_hikaru_tsujimoto_lt_part_31_gt/12.jpg",
    "https://static-focus-opensocial.googleusercontent.com/gadgets/proxy?container=focus&gadget=a&no_expand=1&resize_h=0&rewriteMime=image%2F*&url=https://img-proxy.imgfo.com/?referer=https://manganelo.com&url=https://s8.mkklcdnv6temp.com/mangakakalot/p2/pu918807/vol6_chapter_56_hikaru_tsujimoto_lt_part_31_gt/13.jpg",
    "https://static-focus-opensocial.googleusercontent.com/gadgets/proxy?container=focus&gadget=a&no_expand=1&resize_h=0&rewriteMime=image%2F*&url=https://img-proxy.imgfo.com/?referer=https://manganelo.com&url=https://s8.mkklcdnv6temp.com/mangakakalot/p2/pu918807/vol6_chapter_56_hikaru_tsujimoto_lt_part_31_gt/14.jpg",
    "https://static-focus-opensocial.googleusercontent.com/gadgets/proxy?container=focus&gadget=a&no_expand=1&resize_h=0&rewriteMime=image%2F*&url=https://img-proxy.imgfo.com/?referer=https://manganelo.com&url=https://s8.mkklcdnv6temp.com/mangakakalot/p2/pu918807/vol6_chapter_56_hikaru_tsujimoto_lt_part_31_gt/15.jpg",
    "https://static-focus-opensocial.googleusercontent.com/gadgets/proxy?container=focus&gadget=a&no_expand=1&resize_h=0&rewriteMime=image%2F*&url=https://img-proxy.imgfo.com/?referer=https://manganelo.com&url=https://s8.mkklcdnv6temp.com/mangakakalot/p2/pu918807/vol6_chapter_56_hikaru_tsujimoto_lt_part_31_gt/16.jpg",
    "https://static-focus-opensocial.googleusercontent.com/gadgets/proxy?container=focus&gadget=a&no_expand=1&resize_h=0&rewriteMime=image%2F*&url=https://img-proxy.imgfo.com/?referer=https://manganelo.com&url=https://s8.mkklcdnv6temp.com/mangakakalot/p2/pu918807/vol6_chapter_56_hikaru_tsujimoto_lt_part_31_gt/17.jpg",
    "https://static-focus-opensocial.googleusercontent.com/gadgets/proxy?container=focus&gadget=a&no_expand=1&resize_h=0&rewriteMime=image%2F*&url=https://img-proxy.imgfo.com/?referer=https://manganelo.com&url=https://s8.mkklcdnv6temp.com/mangakakalot/p2/pu918807/vol6_chapter_56_hikaru_tsujimoto_lt_part_31_gt/18.jpg",
    "https://static-focus-opensocial.googleusercontent.com/gadgets/proxy?container=focus&gadget=a&no_expand=1&resize_h=0&rewriteMime=image%2F*&url=https://img-proxy.imgfo.com/?referer=https://manganelo.com&url=https://s8.mkklcdnv6temp.com/mangakakalot/p2/pu918807/vol6_chapter_56_hikaru_tsujimoto_lt_part_31_gt/19.jpg"
  ]
}