{
  "cover": "https://avt.mkklcdnv6.com/8/x/18-1583497426.jpg",
  "title": "Kudan No Gotoshi",
  "original": "クダンノゴトシ",
  "genre": "Drama, Horror, Mystery, Seinen",
  "author": "Watanabe Jun",
  "status": "Completed",
  "backlink": "https://manganu.com/collections/watanabe-jun/kudan-no-gotoshi/",
  "description": "Seven college students are coming back from their graduations. During the travel they are shocked to see a strange, cow-like creature with a human face. This accident means they only have seven days left to live. What will they do to stay alive until the fated day? [MAL]",
  "language": "English",
  "images": [
    "https://img-proxy.imgfo.com/?referer=https://manganelo.com&url=https://s5.mkklcdnv6temp.com/mangakakalot/p2/pu918807/vol1_chapter_7_chizuru_sakurai_part_1/1.jpg",
    "https://img-proxy.imgfo.com/?referer=https://manganelo.com&url=https://s5.mkklcdnv6temp.com/mangakakalot/p2/pu918807/vol1_chapter_7_chizuru_sakurai_part_1/2.jpg",
    "https://img-proxy.imgfo.com/?referer=https://manganelo.com&url=https://s5.mkklcdnv6temp.com/mangakakalot/p2/pu918807/vol1_chapter_7_chizuru_sakurai_part_1/3.jpg",
    "https://img-proxy.imgfo.com/?referer=https://manganelo.com&url=https://s5.mkklcdnv6temp.com/mangakakalot/p2/pu918807/vol1_chapter_7_chizuru_sakurai_part_1/4.jpg",
    "https://img-proxy.imgfo.com/?referer=https://manganelo.com&url=https://s5.mkklcdnv6temp.com/mangakakalot/p2/pu918807/vol1_chapter_7_chizuru_sakurai_part_1/5.jpg",
    "https://img-proxy.imgfo.com/?referer=https://manganelo.com&url=https://s5.mkklcdnv6temp.com/mangakakalot/p2/pu918807/vol1_chapter_7_chizuru_sakurai_part_1/6.jpg",
    "https://img-proxy.imgfo.com/?referer=https://manganelo.com&url=https://s5.mkklcdnv6temp.com/mangakakalot/p2/pu918807/vol1_chapter_7_chizuru_sakurai_part_1/7.jpg",
    "https://img-proxy.imgfo.com/?referer=https://manganelo.com&url=https://s5.mkklcdnv6temp.com/mangakakalot/p2/pu918807/vol1_chapter_7_chizuru_sakurai_part_1/8.jpg",
    "https://img-proxy.imgfo.com/?referer=https://manganelo.com&url=https://s5.mkklcdnv6temp.com/mangakakalot/p2/pu918807/vol1_chapter_7_chizuru_sakurai_part_1/9.jpg",
    "https://img-proxy.imgfo.com/?referer=https://manganelo.com&url=https://s5.mkklcdnv6temp.com/mangakakalot/p2/pu918807/vol1_chapter_7_chizuru_sakurai_part_1/10.jpg",
    "https://img-proxy.imgfo.com/?referer=https://manganelo.com&url=https://s5.mkklcdnv6temp.com/mangakakalot/p2/pu918807/vol1_chapter_7_chizuru_sakurai_part_1/11.jpg",
    "https://img-proxy.imgfo.com/?referer=https://manganelo.com&url=https://s5.mkklcdnv6temp.com/mangakakalot/p2/pu918807/vol1_chapter_7_chizuru_sakurai_part_1/12.jpg",
    "https://img-proxy.imgfo.com/?referer=https://manganelo.com&url=https://s5.mkklcdnv6temp.com/mangakakalot/p2/pu918807/vol1_chapter_7_chizuru_sakurai_part_1/13.jpg",
    "https://img-proxy.imgfo.com/?referer=https://manganelo.com&url=https://s5.mkklcdnv6temp.com/mangakakalot/p2/pu918807/vol1_chapter_7_chizuru_sakurai_part_1/14.jpg",
    "https://img-proxy.imgfo.com/?referer=https://manganelo.com&url=https://s5.mkklcdnv6temp.com/mangakakalot/p2/pu918807/vol1_chapter_7_chizuru_sakurai_part_1/15.jpg",
    "https://img-proxy.imgfo.com/?referer=https://manganelo.com&url=https://s5.mkklcdnv6temp.com/mangakakalot/p2/pu918807/vol1_chapter_7_chizuru_sakurai_part_1/16.jpg",
    "https://img-proxy.imgfo.com/?referer=https://manganelo.com&url=https://s5.mkklcdnv6temp.com/mangakakalot/p2/pu918807/vol1_chapter_7_chizuru_sakurai_part_1/17.jpg",
    "https://img-proxy.imgfo.com/?referer=https://manganelo.com&url=https://s5.mkklcdnv6temp.com/mangakakalot/p2/pu918807/vol1_chapter_7_chizuru_sakurai_part_1/18.jpg",
    "https://img-proxy.imgfo.com/?referer=https://manganelo.com&url=https://s5.mkklcdnv6temp.com/mangakakalot/p2/pu918807/vol1_chapter_7_chizuru_sakurai_part_1/19.jpg",
    "https://img-proxy.imgfo.com/?referer=https://manganelo.com&url=https://s5.mkklcdnv6temp.com/mangakakalot/p2/pu918807/vol1_chapter_7_chizuru_sakurai_part_1/20.jpg",
    "https://img-proxy.imgfo.com/?referer=https://manganelo.com&url=https://s5.mkklcdnv6temp.com/mangakakalot/p2/pu918807/vol1_chapter_7_chizuru_sakurai_part_1/21.jpg",
    "https://img-proxy.imgfo.com/?referer=https://manganelo.com&url=https://s5.mkklcdnv6temp.com/mangakakalot/p2/pu918807/vol1_chapter_7_chizuru_sakurai_part_1/22.jpg",
    "https://img-proxy.imgfo.com/?referer=https://manganelo.com&url=https://s5.mkklcdnv6temp.com/mangakakalot/p2/pu918807/vol1_chapter_7_chizuru_sakurai_part_1/23.jpg",
    "https://img-proxy.imgfo.com/?referer=https://manganelo.com&url=https://s5.mkklcdnv6temp.com/mangakakalot/p2/pu918807/vol1_chapter_7_chizuru_sakurai_part_1/24.jpg",
    "https://img-proxy.imgfo.com/?referer=https://manganelo.com&url=https://s5.mkklcdnv6temp.com/mangakakalot/p2/pu918807/vol1_chapter_7_chizuru_sakurai_part_1/25.jpg"
  ]
}