{
  "cover": "https://avt.mkklcdnv6.com/8/x/18-1583497426.jpg",
  "title": "Kudan No Gotoshi",
  "original": "クダンノゴトシ",
  "genre": "Drama, Horror, Mystery, Seinen",
  "author": "Watanabe Jun",
  "status": "Completed",
  "backlink": "https://manganu.com/collections/watanabe-jun/kudan-no-gotoshi/",
  "description": "Seven college students are coming back from their graduations. During the travel they are shocked to see a strange, cow-like creature with a human face. This accident means they only have seven days left to live. What will they do to stay alive until the fated day? [MAL]",
  "language": "English",
  "images": [
    "https://img-proxy.imgfo.com/?referer=https://manganelo.com&url=https://s5.mkklcdnv6temp.com/mangakakalot/p2/pu918807/vol2_chapter_16_shinji_fujisawa_part_2/1.jpg",
    "https://img-proxy.imgfo.com/?referer=https://manganelo.com&url=https://s5.mkklcdnv6temp.com/mangakakalot/p2/pu918807/vol2_chapter_16_shinji_fujisawa_part_2/2.jpg",
    "https://img-proxy.imgfo.com/?referer=https://manganelo.com&url=https://s5.mkklcdnv6temp.com/mangakakalot/p2/pu918807/vol2_chapter_16_shinji_fujisawa_part_2/3.jpg",
    "https://img-proxy.imgfo.com/?referer=https://manganelo.com&url=https://s5.mkklcdnv6temp.com/mangakakalot/p2/pu918807/vol2_chapter_16_shinji_fujisawa_part_2/4.jpg",
    "https://img-proxy.imgfo.com/?referer=https://manganelo.com&url=https://s5.mkklcdnv6temp.com/mangakakalot/p2/pu918807/vol2_chapter_16_shinji_fujisawa_part_2/5.jpg",
    "https://img-proxy.imgfo.com/?referer=https://manganelo.com&url=https://s5.mkklcdnv6temp.com/mangakakalot/p2/pu918807/vol2_chapter_16_shinji_fujisawa_part_2/6.jpg",
    "https://img-proxy.imgfo.com/?referer=https://manganelo.com&url=https://s5.mkklcdnv6temp.com/mangakakalot/p2/pu918807/vol2_chapter_16_shinji_fujisawa_part_2/7.jpg",
    "https://img-proxy.imgfo.com/?referer=https://manganelo.com&url=https://s5.mkklcdnv6temp.com/mangakakalot/p2/pu918807/vol2_chapter_16_shinji_fujisawa_part_2/8.jpg",
    "https://img-proxy.imgfo.com/?referer=https://manganelo.com&url=https://s5.mkklcdnv6temp.com/mangakakalot/p2/pu918807/vol2_chapter_16_shinji_fujisawa_part_2/9.jpg",
    "https://img-proxy.imgfo.com/?referer=https://manganelo.com&url=https://s5.mkklcdnv6temp.com/mangakakalot/p2/pu918807/vol2_chapter_16_shinji_fujisawa_part_2/10.jpg",
    "https://img-proxy.imgfo.com/?referer=https://manganelo.com&url=https://s5.mkklcdnv6temp.com/mangakakalot/p2/pu918807/vol2_chapter_16_shinji_fujisawa_part_2/11.jpg",
    "https://img-proxy.imgfo.com/?referer=https://manganelo.com&url=https://s5.mkklcdnv6temp.com/mangakakalot/p2/pu918807/vol2_chapter_16_shinji_fujisawa_part_2/12.jpg",
    "https://img-proxy.imgfo.com/?referer=https://manganelo.com&url=https://s5.mkklcdnv6temp.com/mangakakalot/p2/pu918807/vol2_chapter_16_shinji_fujisawa_part_2/13.jpg",
    "https://img-proxy.imgfo.com/?referer=https://manganelo.com&url=https://s5.mkklcdnv6temp.com/mangakakalot/p2/pu918807/vol2_chapter_16_shinji_fujisawa_part_2/14.jpg",
    "https://img-proxy.imgfo.com/?referer=https://manganelo.com&url=https://s5.mkklcdnv6temp.com/mangakakalot/p2/pu918807/vol2_chapter_16_shinji_fujisawa_part_2/15.jpg",
    "https://img-proxy.imgfo.com/?referer=https://manganelo.com&url=https://s5.mkklcdnv6temp.com/mangakakalot/p2/pu918807/vol2_chapter_16_shinji_fujisawa_part_2/16.jpg",
    "https://img-proxy.imgfo.com/?referer=https://manganelo.com&url=https://s5.mkklcdnv6temp.com/mangakakalot/p2/pu918807/vol2_chapter_16_shinji_fujisawa_part_2/17.jpg",
    "https://img-proxy.imgfo.com/?referer=https://manganelo.com&url=https://s5.mkklcdnv6temp.com/mangakakalot/p2/pu918807/vol2_chapter_16_shinji_fujisawa_part_2/18.jpg",
    "https://img-proxy.imgfo.com/?referer=https://manganelo.com&url=https://s5.mkklcdnv6temp.com/mangakakalot/p2/pu918807/vol2_chapter_16_shinji_fujisawa_part_2/19.jpg"
  ]
}