{
  "cover": "https://avt.mkklcdnv6.com/12/u/5-1583472350.jpg",
  "title": "Magico (Iwamoto Naoki)",
  "original": "Магия Древних ; マジコ ; 魔女的婚仪",
  "genre": "Action, Adult, Adventure, Comedy, Cooking, Drama, Fantasy, Romance, Shounen, Manga",
  "author": "Iwamoto Naoki",
  "status": "Completed",
  "backlink": "https://manganu.com/collections/iwamoto-naoki/magico-iwamoto-naoki/",
  "description": "Sixteen-year-old Emma finally arrives at the capital city Hawk Eye after escaping from being held captive for her entire life. But as soon as she arrives, every man in the city, including the king, falls madly in love with her. She is about to be forced into marriage, but is saved by a sorcerer. The sorcerer identifies himself as Shion, one of the youngest and most talented in the nation. They have met before, but Emma has no recollection. Shion explains to Emma that she is cursed with the Ekidna, a mysterious magic that happens every 500 years where a girl is born with her heart packed with such powerful dark magic that it has the potential to destroy the world. With such power, one could rule the world, and Shion explains to Emma that people are going to try and hunt her down to get her heart. However, Emma is told that there exists a ritual that will rid her of the Ekidna curse but doing so will require a long and arduous process. The first of that being Emma and Shion will have to marry each other...",
  "language": "English",
  "images": [
    "https://img-proxy.imgfo.com/?referer=https://manganelo.com&url=https://s6.mkklcdnv6temp.com/mangakakalot/r1/read_magico_iwamoto_naoki/vol1_chapter_3_unwavering_heart/1.jpg",
    "https://img-proxy.imgfo.com/?referer=https://manganelo.com&url=https://s6.mkklcdnv6temp.com/mangakakalot/r1/read_magico_iwamoto_naoki/vol1_chapter_3_unwavering_heart/2.jpg",
    "https://img-proxy.imgfo.com/?referer=https://manganelo.com&url=https://s6.mkklcdnv6temp.com/mangakakalot/r1/read_magico_iwamoto_naoki/vol1_chapter_3_unwavering_heart/3.jpg",
    "https://img-proxy.imgfo.com/?referer=https://manganelo.com&url=https://s6.mkklcdnv6temp.com/mangakakalot/r1/read_magico_iwamoto_naoki/vol1_chapter_3_unwavering_heart/4.jpg",
    "https://img-proxy.imgfo.com/?referer=https://manganelo.com&url=https://s6.mkklcdnv6temp.com/mangakakalot/r1/read_magico_iwamoto_naoki/vol1_chapter_3_unwavering_heart/5.jpg",
    "https://img-proxy.imgfo.com/?referer=https://manganelo.com&url=https://s6.mkklcdnv6temp.com/mangakakalot/r1/read_magico_iwamoto_naoki/vol1_chapter_3_unwavering_heart/6.jpg",
    "https://img-proxy.imgfo.com/?referer=https://manganelo.com&url=https://s6.mkklcdnv6temp.com/mangakakalot/r1/read_magico_iwamoto_naoki/vol1_chapter_3_unwavering_heart/7.jpg",
    "https://img-proxy.imgfo.com/?referer=https://manganelo.com&url=https://s6.mkklcdnv6temp.com/mangakakalot/r1/read_magico_iwamoto_naoki/vol1_chapter_3_unwavering_heart/8.jpg",
    "https://img-proxy.imgfo.com/?referer=https://manganelo.com&url=https://s6.mkklcdnv6temp.com/mangakakalot/r1/read_magico_iwamoto_naoki/vol1_chapter_3_unwavering_heart/9.jpg",
    "https://img-proxy.imgfo.com/?referer=https://manganelo.com&url=https://s6.mkklcdnv6temp.com/mangakakalot/r1/read_magico_iwamoto_naoki/vol1_chapter_3_unwavering_heart/10.jpg",
    "https://img-proxy.imgfo.com/?referer=https://manganelo.com&url=https://s6.mkklcdnv6temp.com/mangakakalot/r1/read_magico_iwamoto_naoki/vol1_chapter_3_unwavering_heart/11.jpg",
    "https://img-proxy.imgfo.com/?referer=https://manganelo.com&url=https://s6.mkklcdnv6temp.com/mangakakalot/r1/read_magico_iwamoto_naoki/vol1_chapter_3_unwavering_heart/12.jpg",
    "https://img-proxy.imgfo.com/?referer=https://manganelo.com&url=https://s6.mkklcdnv6temp.com/mangakakalot/r1/read_magico_iwamoto_naoki/vol1_chapter_3_unwavering_heart/13.jpg",
    "https://img-proxy.imgfo.com/?referer=https://manganelo.com&url=https://s6.mkklcdnv6temp.com/mangakakalot/r1/read_magico_iwamoto_naoki/vol1_chapter_3_unwavering_heart/14.jpg",
    "https://img-proxy.imgfo.com/?referer=https://manganelo.com&url=https://s6.mkklcdnv6temp.com/mangakakalot/r1/read_magico_iwamoto_naoki/vol1_chapter_3_unwavering_heart/15.jpg",
    "https://img-proxy.imgfo.com/?referer=https://manganelo.com&url=https://s6.mkklcdnv6temp.com/mangakakalot/r1/read_magico_iwamoto_naoki/vol1_chapter_3_unwavering_heart/16.jpg",
    "https://img-proxy.imgfo.com/?referer=https://manganelo.com&url=https://s6.mkklcdnv6temp.com/mangakakalot/r1/read_magico_iwamoto_naoki/vol1_chapter_3_unwavering_heart/17.jpg",
    "https://img-proxy.imgfo.com/?referer=https://manganelo.com&url=https://s6.mkklcdnv6temp.com/mangakakalot/r1/read_magico_iwamoto_naoki/vol1_chapter_3_unwavering_heart/18.jpg",
    "https://img-proxy.imgfo.com/?referer=https://manganelo.com&url=https://s6.mkklcdnv6temp.com/mangakakalot/r1/read_magico_iwamoto_naoki/vol1_chapter_3_unwavering_heart/19.jpg",
    "https://img-proxy.imgfo.com/?referer=https://manganelo.com&url=https://s6.mkklcdnv6temp.com/mangakakalot/r1/read_magico_iwamoto_naoki/vol1_chapter_3_unwavering_heart/20.jpg",
    "https://img-proxy.imgfo.com/?referer=https://manganelo.com&url=https://s6.mkklcdnv6temp.com/mangakakalot/r1/read_magico_iwamoto_naoki/vol1_chapter_3_unwavering_heart/21.jpg",
    "https://img-proxy.imgfo.com/?referer=https://manganelo.com&url=https://s6.mkklcdnv6temp.com/mangakakalot/r1/read_magico_iwamoto_naoki/vol1_chapter_3_unwavering_heart/22.jpg",
    "https://img-proxy.imgfo.com/?referer=https://manganelo.com&url=https://s6.mkklcdnv6temp.com/mangakakalot/r1/read_magico_iwamoto_naoki/vol1_chapter_3_unwavering_heart/23.jpg"
  ]
}