{
  "cover": "https://avt.mkklcdnv6.com/45/k/6-1583476094.jpg",
  "title": "Bakumatsu Ibunroku - Code Geass: Hangyaku No Lelouch",
  "original": "幕末異聞録 コードギアス反逆のルルーシュ ; 幕末異聞録コードギアス ; A Record of the Strange Tales of the Bakumatsu Era: Code Geass ; Bakumatsu Ibun-roku Code Geass ; Bakumatsu Ibun-roku Code Geass - Hangyaku no Lelouch ; Bakumatsu Ibunroku Code Geass",
  "genre": "Action, Adventure, Drama, Mecha, Sci fi, Manga",
  "author": "Ganjii",
  "status": "Completed",
  "backlink": "https://manganu.com/collections/ganjii/bakumatsu-ibunroku-code-geass-hangyaku-no-lelouch/",
  "description": "Bakumatsu Ibunroku - Code Geass: Hangyaku no Lelouch summary is updating. Come visit our website sometime to read the latest chapter of Bakumatsu Ibunroku - Code Geass: Hangyaku no Lelouch. If you have any question about this manga, Please don't hesitate to contact us or translate team. Hope you enjoy it.",
  "language": "English",
  "images": [
    "https://img-proxy.imgfo.com/?referer=https://manganelo.com&url=https://s7.mkklcdnv6temp.com/mangakakalot/b1/bakumatsu_ibunroku_code_geass_hangyaku_no_lelouch/vol1_chapter_1_chivalrous_thief_zero_appears/1.jpg",
    "https://img-proxy.imgfo.com/?referer=https://manganelo.com&url=https://s7.mkklcdnv6temp.com/mangakakalot/b1/bakumatsu_ibunroku_code_geass_hangyaku_no_lelouch/vol1_chapter_1_chivalrous_thief_zero_appears/2.jpg",
    "https://img-proxy.imgfo.com/?referer=https://manganelo.com&url=https://s7.mkklcdnv6temp.com/mangakakalot/b1/bakumatsu_ibunroku_code_geass_hangyaku_no_lelouch/vol1_chapter_1_chivalrous_thief_zero_appears/3.jpg",
    "https://img-proxy.imgfo.com/?referer=https://manganelo.com&url=https://s7.mkklcdnv6temp.com/mangakakalot/b1/bakumatsu_ibunroku_code_geass_hangyaku_no_lelouch/vol1_chapter_1_chivalrous_thief_zero_appears/4.jpg",
    "https://img-proxy.imgfo.com/?referer=https://manganelo.com&url=https://s7.mkklcdnv6temp.com/mangakakalot/b1/bakumatsu_ibunroku_code_geass_hangyaku_no_lelouch/vol1_chapter_1_chivalrous_thief_zero_appears/5.jpg",
    "https://img-proxy.imgfo.com/?referer=https://manganelo.com&url=https://s7.mkklcdnv6temp.com/mangakakalot/b1/bakumatsu_ibunroku_code_geass_hangyaku_no_lelouch/vol1_chapter_1_chivalrous_thief_zero_appears/6.jpg",
    "https://img-proxy.imgfo.com/?referer=https://manganelo.com&url=https://s7.mkklcdnv6temp.com/mangakakalot/b1/bakumatsu_ibunroku_code_geass_hangyaku_no_lelouch/vol1_chapter_1_chivalrous_thief_zero_appears/7.jpg",
    "https://img-proxy.imgfo.com/?referer=https://manganelo.com&url=https://s7.mkklcdnv6temp.com/mangakakalot/b1/bakumatsu_ibunroku_code_geass_hangyaku_no_lelouch/vol1_chapter_1_chivalrous_thief_zero_appears/8.jpg",
    "https://img-proxy.imgfo.com/?referer=https://manganelo.com&url=https://s7.mkklcdnv6temp.com/mangakakalot/b1/bakumatsu_ibunroku_code_geass_hangyaku_no_lelouch/vol1_chapter_1_chivalrous_thief_zero_appears/9.jpg",
    "https://img-proxy.imgfo.com/?referer=https://manganelo.com&url=https://s7.mkklcdnv6temp.com/mangakakalot/b1/bakumatsu_ibunroku_code_geass_hangyaku_no_lelouch/vol1_chapter_1_chivalrous_thief_zero_appears/10.jpg",
    "https://img-proxy.imgfo.com/?referer=https://manganelo.com&url=https://s7.mkklcdnv6temp.com/mangakakalot/b1/bakumatsu_ibunroku_code_geass_hangyaku_no_lelouch/vol1_chapter_1_chivalrous_thief_zero_appears/11.jpg",
    "https://img-proxy.imgfo.com/?referer=https://manganelo.com&url=https://s7.mkklcdnv6temp.com/mangakakalot/b1/bakumatsu_ibunroku_code_geass_hangyaku_no_lelouch/vol1_chapter_1_chivalrous_thief_zero_appears/12.jpg",
    "https://img-proxy.imgfo.com/?referer=https://manganelo.com&url=https://s7.mkklcdnv6temp.com/mangakakalot/b1/bakumatsu_ibunroku_code_geass_hangyaku_no_lelouch/vol1_chapter_1_chivalrous_thief_zero_appears/13.jpg",
    "https://img-proxy.imgfo.com/?referer=https://manganelo.com&url=https://s7.mkklcdnv6temp.com/mangakakalot/b1/bakumatsu_ibunroku_code_geass_hangyaku_no_lelouch/vol1_chapter_1_chivalrous_thief_zero_appears/14.jpg",
    "https://img-proxy.imgfo.com/?referer=https://manganelo.com&url=https://s7.mkklcdnv6temp.com/mangakakalot/b1/bakumatsu_ibunroku_code_geass_hangyaku_no_lelouch/vol1_chapter_1_chivalrous_thief_zero_appears/15.jpg",
    "https://img-proxy.imgfo.com/?referer=https://manganelo.com&url=https://s7.mkklcdnv6temp.com/mangakakalot/b1/bakumatsu_ibunroku_code_geass_hangyaku_no_lelouch/vol1_chapter_1_chivalrous_thief_zero_appears/16.jpg",
    "https://img-proxy.imgfo.com/?referer=https://manganelo.com&url=https://s7.mkklcdnv6temp.com/mangakakalot/b1/bakumatsu_ibunroku_code_geass_hangyaku_no_lelouch/vol1_chapter_1_chivalrous_thief_zero_appears/17.jpg",
    "https://img-proxy.imgfo.com/?referer=https://manganelo.com&url=https://s7.mkklcdnv6temp.com/mangakakalot/b1/bakumatsu_ibunroku_code_geass_hangyaku_no_lelouch/vol1_chapter_1_chivalrous_thief_zero_appears/18.jpg",
    "https://img-proxy.imgfo.com/?referer=https://manganelo.com&url=https://s7.mkklcdnv6temp.com/mangakakalot/b1/bakumatsu_ibunroku_code_geass_hangyaku_no_lelouch/vol1_chapter_1_chivalrous_thief_zero_appears/19.jpg",
    "https://img-proxy.imgfo.com/?referer=https://manganelo.com&url=https://s7.mkklcdnv6temp.com/mangakakalot/b1/bakumatsu_ibunroku_code_geass_hangyaku_no_lelouch/vol1_chapter_1_chivalrous_thief_zero_appears/20.jpg",
    "https://img-proxy.imgfo.com/?referer=https://manganelo.com&url=https://s7.mkklcdnv6temp.com/mangakakalot/b1/bakumatsu_ibunroku_code_geass_hangyaku_no_lelouch/vol1_chapter_1_chivalrous_thief_zero_appears/21.jpg",
    "https://img-proxy.imgfo.com/?referer=https://manganelo.com&url=https://s7.mkklcdnv6temp.com/mangakakalot/b1/bakumatsu_ibunroku_code_geass_hangyaku_no_lelouch/vol1_chapter_1_chivalrous_thief_zero_appears/22.jpg",
    "https://img-proxy.imgfo.com/?referer=https://manganelo.com&url=https://s7.mkklcdnv6temp.com/mangakakalot/b1/bakumatsu_ibunroku_code_geass_hangyaku_no_lelouch/vol1_chapter_1_chivalrous_thief_zero_appears/23.jpg",
    "https://img-proxy.imgfo.com/?referer=https://manganelo.com&url=https://s7.mkklcdnv6temp.com/mangakakalot/b1/bakumatsu_ibunroku_code_geass_hangyaku_no_lelouch/vol1_chapter_1_chivalrous_thief_zero_appears/24.jpg",
    "https://img-proxy.imgfo.com/?referer=https://manganelo.com&url=https://s7.mkklcdnv6temp.com/mangakakalot/b1/bakumatsu_ibunroku_code_geass_hangyaku_no_lelouch/vol1_chapter_1_chivalrous_thief_zero_appears/25.jpg",
    "https://img-proxy.imgfo.com/?referer=https://manganelo.com&url=https://s7.mkklcdnv6temp.com/mangakakalot/b1/bakumatsu_ibunroku_code_geass_hangyaku_no_lelouch/vol1_chapter_1_chivalrous_thief_zero_appears/26.jpg",
    "https://img-proxy.imgfo.com/?referer=https://manganelo.com&url=https://s7.mkklcdnv6temp.com/mangakakalot/b1/bakumatsu_ibunroku_code_geass_hangyaku_no_lelouch/vol1_chapter_1_chivalrous_thief_zero_appears/27.jpg",
    "https://img-proxy.imgfo.com/?referer=https://manganelo.com&url=https://s7.mkklcdnv6temp.com/mangakakalot/b1/bakumatsu_ibunroku_code_geass_hangyaku_no_lelouch/vol1_chapter_1_chivalrous_thief_zero_appears/28.jpg",
    "https://img-proxy.imgfo.com/?referer=https://manganelo.com&url=https://s7.mkklcdnv6temp.com/mangakakalot/b1/bakumatsu_ibunroku_code_geass_hangyaku_no_lelouch/vol1_chapter_1_chivalrous_thief_zero_appears/29.jpg",
    "https://img-proxy.imgfo.com/?referer=https://manganelo.com&url=https://s7.mkklcdnv6temp.com/mangakakalot/b1/bakumatsu_ibunroku_code_geass_hangyaku_no_lelouch/vol1_chapter_1_chivalrous_thief_zero_appears/30.jpg",
    "https://img-proxy.imgfo.com/?referer=https://manganelo.com&url=https://s7.mkklcdnv6temp.com/mangakakalot/b1/bakumatsu_ibunroku_code_geass_hangyaku_no_lelouch/vol1_chapter_1_chivalrous_thief_zero_appears/31.jpg",
    "https://img-proxy.imgfo.com/?referer=https://manganelo.com&url=https://s7.mkklcdnv6temp.com/mangakakalot/b1/bakumatsu_ibunroku_code_geass_hangyaku_no_lelouch/vol1_chapter_1_chivalrous_thief_zero_appears/32.jpg",
    "https://img-proxy.imgfo.com/?referer=https://manganelo.com&url=https://s7.mkklcdnv6temp.com/mangakakalot/b1/bakumatsu_ibunroku_code_geass_hangyaku_no_lelouch/vol1_chapter_1_chivalrous_thief_zero_appears/33.jpg",
    "https://img-proxy.imgfo.com/?referer=https://manganelo.com&url=https://s7.mkklcdnv6temp.com/mangakakalot/b1/bakumatsu_ibunroku_code_geass_hangyaku_no_lelouch/vol1_chapter_1_chivalrous_thief_zero_appears/34.jpg",
    "https://img-proxy.imgfo.com/?referer=https://manganelo.com&url=https://s7.mkklcdnv6temp.com/mangakakalot/b1/bakumatsu_ibunroku_code_geass_hangyaku_no_lelouch/vol1_chapter_1_chivalrous_thief_zero_appears/35.jpg",
    "https://img-proxy.imgfo.com/?referer=https://manganelo.com&url=https://s7.mkklcdnv6temp.com/mangakakalot/b1/bakumatsu_ibunroku_code_geass_hangyaku_no_lelouch/vol1_chapter_1_chivalrous_thief_zero_appears/36.jpg",
    "https://img-proxy.imgfo.com/?referer=https://manganelo.com&url=https://s7.mkklcdnv6temp.com/mangakakalot/b1/bakumatsu_ibunroku_code_geass_hangyaku_no_lelouch/vol1_chapter_1_chivalrous_thief_zero_appears/37.jpg",
    "https://img-proxy.imgfo.com/?referer=https://manganelo.com&url=https://s7.mkklcdnv6temp.com/mangakakalot/b1/bakumatsu_ibunroku_code_geass_hangyaku_no_lelouch/vol1_chapter_1_chivalrous_thief_zero_appears/38.jpg",
    "https://img-proxy.imgfo.com/?referer=https://manganelo.com&url=https://s7.mkklcdnv6temp.com/mangakakalot/b1/bakumatsu_ibunroku_code_geass_hangyaku_no_lelouch/vol1_chapter_1_chivalrous_thief_zero_appears/39.jpg",
    "https://img-proxy.imgfo.com/?referer=https://manganelo.com&url=https://s7.mkklcdnv6temp.com/mangakakalot/b1/bakumatsu_ibunroku_code_geass_hangyaku_no_lelouch/vol1_chapter_1_chivalrous_thief_zero_appears/40.jpg",
    "https://img-proxy.imgfo.com/?referer=https://manganelo.com&url=https://s7.mkklcdnv6temp.com/mangakakalot/b1/bakumatsu_ibunroku_code_geass_hangyaku_no_lelouch/vol1_chapter_1_chivalrous_thief_zero_appears/41.jpg",
    "https://img-proxy.imgfo.com/?referer=https://manganelo.com&url=https://s7.mkklcdnv6temp.com/mangakakalot/b1/bakumatsu_ibunroku_code_geass_hangyaku_no_lelouch/vol1_chapter_1_chivalrous_thief_zero_appears/42.jpg",
    "https://img-proxy.imgfo.com/?referer=https://manganelo.com&url=https://s7.mkklcdnv6temp.com/mangakakalot/b1/bakumatsu_ibunroku_code_geass_hangyaku_no_lelouch/vol1_chapter_1_chivalrous_thief_zero_appears/43.jpg",
    "https://img-proxy.imgfo.com/?referer=https://manganelo.com&url=https://s7.mkklcdnv6temp.com/mangakakalot/b1/bakumatsu_ibunroku_code_geass_hangyaku_no_lelouch/vol1_chapter_1_chivalrous_thief_zero_appears/44.jpg",
    "https://img-proxy.imgfo.com/?referer=https://manganelo.com&url=https://s7.mkklcdnv6temp.com/mangakakalot/b1/bakumatsu_ibunroku_code_geass_hangyaku_no_lelouch/vol1_chapter_1_chivalrous_thief_zero_appears/45.jpg",
    "https://img-proxy.imgfo.com/?referer=https://manganelo.com&url=https://s7.mkklcdnv6temp.com/mangakakalot/b1/bakumatsu_ibunroku_code_geass_hangyaku_no_lelouch/vol1_chapter_1_chivalrous_thief_zero_appears/46.jpg",
    "https://img-proxy.imgfo.com/?referer=https://manganelo.com&url=https://s7.mkklcdnv6temp.com/mangakakalot/b1/bakumatsu_ibunroku_code_geass_hangyaku_no_lelouch/vol1_chapter_1_chivalrous_thief_zero_appears/47.jpg"
  ]
}