{
  "cover": "https://avt.mkklcdnv6.com/48/t/6-1583476221.jpg",
  "title": "Ares",
  "original": "떠돌이 용병 아레스 ; 떠돌이 용병 ARES ; Ddeo-dol-i Yong-byeong Ares ; Kiếm sĩ lang thang ; Vagrant Soldier Ares",
  "genre": "Action, Adventure, Drama, Shounen, Manga",
  "author": "Ryu Geum Chel",
  "status": "Completed",
  "backlink": "https://manganu.com/collections/ryu-geum-chel/ares/",
  "description": "The story takes place in an era similar to that of ancient Rome in a country called Cronos. It follows a group known as the Temple Mercenaries. In particular, the manhwa is about Ares, Michael and Baroona, three young warriors with mysterious pasts and surpassing skills...\nThe manhwa is notable for its subtle use of anachronistic elements (Ares' shoes are similar to that of classic Adidas), as well as very dynamic and fluid action sequences.",
  "language": "English",
  "images": [
    "https://img-proxy.imgfo.com/?referer=https://manganelo.com&url=https://s3.mkklcdnv6temp.com/mangakakalot/a2/ares/vol3_chapter_23/1.jpg",
    "https://img-proxy.imgfo.com/?referer=https://manganelo.com&url=https://s3.mkklcdnv6temp.com/mangakakalot/a2/ares/vol3_chapter_23/2.jpg",
    "https://img-proxy.imgfo.com/?referer=https://manganelo.com&url=https://s3.mkklcdnv6temp.com/mangakakalot/a2/ares/vol3_chapter_23/3.jpg",
    "https://img-proxy.imgfo.com/?referer=https://manganelo.com&url=https://s3.mkklcdnv6temp.com/mangakakalot/a2/ares/vol3_chapter_23/4.jpg",
    "https://img-proxy.imgfo.com/?referer=https://manganelo.com&url=https://s3.mkklcdnv6temp.com/mangakakalot/a2/ares/vol3_chapter_23/5.jpg",
    "https://img-proxy.imgfo.com/?referer=https://manganelo.com&url=https://s3.mkklcdnv6temp.com/mangakakalot/a2/ares/vol3_chapter_23/6.jpg",
    "https://img-proxy.imgfo.com/?referer=https://manganelo.com&url=https://s3.mkklcdnv6temp.com/mangakakalot/a2/ares/vol3_chapter_23/7.jpg",
    "https://img-proxy.imgfo.com/?referer=https://manganelo.com&url=https://s3.mkklcdnv6temp.com/mangakakalot/a2/ares/vol3_chapter_23/8.jpg",
    "https://img-proxy.imgfo.com/?referer=https://manganelo.com&url=https://s3.mkklcdnv6temp.com/mangakakalot/a2/ares/vol3_chapter_23/9.jpg",
    "https://img-proxy.imgfo.com/?referer=https://manganelo.com&url=https://s3.mkklcdnv6temp.com/mangakakalot/a2/ares/vol3_chapter_23/10.jpg",
    "https://img-proxy.imgfo.com/?referer=https://manganelo.com&url=https://s3.mkklcdnv6temp.com/mangakakalot/a2/ares/vol3_chapter_23/11.jpg",
    "https://img-proxy.imgfo.com/?referer=https://manganelo.com&url=https://s3.mkklcdnv6temp.com/mangakakalot/a2/ares/vol3_chapter_23/12.jpg",
    "https://img-proxy.imgfo.com/?referer=https://manganelo.com&url=https://s3.mkklcdnv6temp.com/mangakakalot/a2/ares/vol3_chapter_23/13.jpg",
    "https://img-proxy.imgfo.com/?referer=https://manganelo.com&url=https://s3.mkklcdnv6temp.com/mangakakalot/a2/ares/vol3_chapter_23/14.jpg",
    "https://img-proxy.imgfo.com/?referer=https://manganelo.com&url=https://s3.mkklcdnv6temp.com/mangakakalot/a2/ares/vol3_chapter_23/15.jpg",
    "https://img-proxy.imgfo.com/?referer=https://manganelo.com&url=https://s3.mkklcdnv6temp.com/mangakakalot/a2/ares/vol3_chapter_23/16.jpg",
    "https://img-proxy.imgfo.com/?referer=https://manganelo.com&url=https://s3.mkklcdnv6temp.com/mangakakalot/a2/ares/vol3_chapter_23/17.jpg",
    "https://img-proxy.imgfo.com/?referer=https://manganelo.com&url=https://s3.mkklcdnv6temp.com/mangakakalot/a2/ares/vol3_chapter_23/18.jpg",
    "https://img-proxy.imgfo.com/?referer=https://manganelo.com&url=https://s3.mkklcdnv6temp.com/mangakakalot/a2/ares/vol3_chapter_23/19.jpg",
    "https://img-proxy.imgfo.com/?referer=https://manganelo.com&url=https://s3.mkklcdnv6temp.com/mangakakalot/a2/ares/vol3_chapter_23/20.jpg",
    "https://img-proxy.imgfo.com/?referer=https://manganelo.com&url=https://s3.mkklcdnv6temp.com/mangakakalot/a2/ares/vol3_chapter_23/21.jpg",
    "https://img-proxy.imgfo.com/?referer=https://manganelo.com&url=https://s3.mkklcdnv6temp.com/mangakakalot/a2/ares/vol3_chapter_23/22.jpg",
    "https://img-proxy.imgfo.com/?referer=https://manganelo.com&url=https://s3.mkklcdnv6temp.com/mangakakalot/a2/ares/vol3_chapter_23/23.jpg",
    "https://img-proxy.imgfo.com/?referer=https://manganelo.com&url=https://s3.mkklcdnv6temp.com/mangakakalot/a2/ares/vol3_chapter_23/24.jpg",
    "https://img-proxy.imgfo.com/?referer=https://manganelo.com&url=https://s3.mkklcdnv6temp.com/mangakakalot/a2/ares/vol3_chapter_23/25.jpg",
    "https://img-proxy.imgfo.com/?referer=https://manganelo.com&url=https://s3.mkklcdnv6temp.com/mangakakalot/a2/ares/vol3_chapter_23/26.jpg",
    "https://img-proxy.imgfo.com/?referer=https://manganelo.com&url=https://s3.mkklcdnv6temp.com/mangakakalot/a2/ares/vol3_chapter_23/27.jpg",
    "https://img-proxy.imgfo.com/?referer=https://manganelo.com&url=https://s3.mkklcdnv6temp.com/mangakakalot/a2/ares/vol3_chapter_23/28.jpg"
  ]
}