{
  "cover": "https://avt.mkklcdnv6.com/48/t/6-1583476221.jpg",
  "title": "Ares",
  "original": "떠돌이 용병 아레스 ; 떠돌이 용병 ARES ; Ddeo-dol-i Yong-byeong Ares ; Kiếm sĩ lang thang ; Vagrant Soldier Ares",
  "genre": "Action, Adventure, Drama, Shounen, Manga",
  "author": "Ryu Geum Chel",
  "status": "Completed",
  "backlink": "https://manganu.com/collections/ryu-geum-chel/ares/",
  "description": "The story takes place in an era similar to that of ancient Rome in a country called Cronos. It follows a group known as the Temple Mercenaries. In particular, the manhwa is about Ares, Michael and Baroona, three young warriors with mysterious pasts and surpassing skills...\nThe manhwa is notable for its subtle use of anachronistic elements (Ares' shoes are similar to that of classic Adidas), as well as very dynamic and fluid action sequences.",
  "language": "English",
  "images": [
    "https://img-proxy.imgfo.com/?referer=https://manganelo.com&url=https://s3.mkklcdnv6temp.com/mangakakalot/a2/ares/vol18_chapter_135/1.jpg",
    "https://img-proxy.imgfo.com/?referer=https://manganelo.com&url=https://s3.mkklcdnv6temp.com/mangakakalot/a2/ares/vol18_chapter_135/2.jpg",
    "https://img-proxy.imgfo.com/?referer=https://manganelo.com&url=https://s3.mkklcdnv6temp.com/mangakakalot/a2/ares/vol18_chapter_135/3.jpg",
    "https://img-proxy.imgfo.com/?referer=https://manganelo.com&url=https://s3.mkklcdnv6temp.com/mangakakalot/a2/ares/vol18_chapter_135/4.jpg",
    "https://img-proxy.imgfo.com/?referer=https://manganelo.com&url=https://s3.mkklcdnv6temp.com/mangakakalot/a2/ares/vol18_chapter_135/5.jpg",
    "https://img-proxy.imgfo.com/?referer=https://manganelo.com&url=https://s3.mkklcdnv6temp.com/mangakakalot/a2/ares/vol18_chapter_135/6.jpg",
    "https://img-proxy.imgfo.com/?referer=https://manganelo.com&url=https://s3.mkklcdnv6temp.com/mangakakalot/a2/ares/vol18_chapter_135/7.jpg",
    "https://img-proxy.imgfo.com/?referer=https://manganelo.com&url=https://s3.mkklcdnv6temp.com/mangakakalot/a2/ares/vol18_chapter_135/8.jpg",
    "https://img-proxy.imgfo.com/?referer=https://manganelo.com&url=https://s3.mkklcdnv6temp.com/mangakakalot/a2/ares/vol18_chapter_135/9.jpg",
    "https://img-proxy.imgfo.com/?referer=https://manganelo.com&url=https://s3.mkklcdnv6temp.com/mangakakalot/a2/ares/vol18_chapter_135/10.jpg",
    "https://img-proxy.imgfo.com/?referer=https://manganelo.com&url=https://s3.mkklcdnv6temp.com/mangakakalot/a2/ares/vol18_chapter_135/11.jpg",
    "https://img-proxy.imgfo.com/?referer=https://manganelo.com&url=https://s3.mkklcdnv6temp.com/mangakakalot/a2/ares/vol18_chapter_135/12.jpg",
    "https://img-proxy.imgfo.com/?referer=https://manganelo.com&url=https://s3.mkklcdnv6temp.com/mangakakalot/a2/ares/vol18_chapter_135/13.jpg",
    "https://img-proxy.imgfo.com/?referer=https://manganelo.com&url=https://s3.mkklcdnv6temp.com/mangakakalot/a2/ares/vol18_chapter_135/14.jpg",
    "https://img-proxy.imgfo.com/?referer=https://manganelo.com&url=https://s3.mkklcdnv6temp.com/mangakakalot/a2/ares/vol18_chapter_135/15.jpg",
    "https://img-proxy.imgfo.com/?referer=https://manganelo.com&url=https://s3.mkklcdnv6temp.com/mangakakalot/a2/ares/vol18_chapter_135/16.jpg"
  ]
}