{
  "cover": "https://avt.mkklcdnv6.com/50/w/10-1583484016.jpg",
  "title": "Jade",
  "original": "ジェイド",
  "genre": "Mystery, Shoujo, Supernatural, Manga",
  "author": "Bikke",
  "status": "Completed",
  "backlink": "https://manganu.com/collections/bikke/jade/",
  "description": "Robert Cornelius is a master artisan renowned the world over as an expert in the crafting of \"GEM\", a brand of dolls who are humanoid in size, shape, and movement.\nBefore he passes away, Cornelius destroys his house and his workshop, only leaving behind, in his grandson Frants' name, a journal, a key, and an elegantly crafted GEM named \"Jade\".\nBut as Frants is soon to find out, a skilled craftsman's work is never safe from those who covet it...",
  "language": "English",
  "images": [
    "https://img-proxy.imgfo.com/?referer=https://manganelo.com&url=https://s7.mkklcdnv6temp.com/mangakakalot/j1/jade/vol1_chapter_3_gem_artisan/1.jpg",
    "https://img-proxy.imgfo.com/?referer=https://manganelo.com&url=https://s7.mkklcdnv6temp.com/mangakakalot/j1/jade/vol1_chapter_3_gem_artisan/2.jpg",
    "https://img-proxy.imgfo.com/?referer=https://manganelo.com&url=https://s7.mkklcdnv6temp.com/mangakakalot/j1/jade/vol1_chapter_3_gem_artisan/3.jpg",
    "https://img-proxy.imgfo.com/?referer=https://manganelo.com&url=https://s7.mkklcdnv6temp.com/mangakakalot/j1/jade/vol1_chapter_3_gem_artisan/4.jpg",
    "https://img-proxy.imgfo.com/?referer=https://manganelo.com&url=https://s7.mkklcdnv6temp.com/mangakakalot/j1/jade/vol1_chapter_3_gem_artisan/5.jpg",
    "https://img-proxy.imgfo.com/?referer=https://manganelo.com&url=https://s7.mkklcdnv6temp.com/mangakakalot/j1/jade/vol1_chapter_3_gem_artisan/6.jpg",
    "https://img-proxy.imgfo.com/?referer=https://manganelo.com&url=https://s7.mkklcdnv6temp.com/mangakakalot/j1/jade/vol1_chapter_3_gem_artisan/7.jpg",
    "https://img-proxy.imgfo.com/?referer=https://manganelo.com&url=https://s7.mkklcdnv6temp.com/mangakakalot/j1/jade/vol1_chapter_3_gem_artisan/8.jpg",
    "https://img-proxy.imgfo.com/?referer=https://manganelo.com&url=https://s7.mkklcdnv6temp.com/mangakakalot/j1/jade/vol1_chapter_3_gem_artisan/9.jpg",
    "https://img-proxy.imgfo.com/?referer=https://manganelo.com&url=https://s7.mkklcdnv6temp.com/mangakakalot/j1/jade/vol1_chapter_3_gem_artisan/10.jpg",
    "https://img-proxy.imgfo.com/?referer=https://manganelo.com&url=https://s7.mkklcdnv6temp.com/mangakakalot/j1/jade/vol1_chapter_3_gem_artisan/11.jpg",
    "https://img-proxy.imgfo.com/?referer=https://manganelo.com&url=https://s7.mkklcdnv6temp.com/mangakakalot/j1/jade/vol1_chapter_3_gem_artisan/12.jpg",
    "https://img-proxy.imgfo.com/?referer=https://manganelo.com&url=https://s7.mkklcdnv6temp.com/mangakakalot/j1/jade/vol1_chapter_3_gem_artisan/13.jpg",
    "https://img-proxy.imgfo.com/?referer=https://manganelo.com&url=https://s7.mkklcdnv6temp.com/mangakakalot/j1/jade/vol1_chapter_3_gem_artisan/14.jpg",
    "https://img-proxy.imgfo.com/?referer=https://manganelo.com&url=https://s7.mkklcdnv6temp.com/mangakakalot/j1/jade/vol1_chapter_3_gem_artisan/15.jpg",
    "https://img-proxy.imgfo.com/?referer=https://manganelo.com&url=https://s7.mkklcdnv6temp.com/mangakakalot/j1/jade/vol1_chapter_3_gem_artisan/16.jpg",
    "https://img-proxy.imgfo.com/?referer=https://manganelo.com&url=https://s7.mkklcdnv6temp.com/mangakakalot/j1/jade/vol1_chapter_3_gem_artisan/17.jpg",
    "https://img-proxy.imgfo.com/?referer=https://manganelo.com&url=https://s7.mkklcdnv6temp.com/mangakakalot/j1/jade/vol1_chapter_3_gem_artisan/18.jpg",
    "https://img-proxy.imgfo.com/?referer=https://manganelo.com&url=https://s7.mkklcdnv6temp.com/mangakakalot/j1/jade/vol1_chapter_3_gem_artisan/19.jpg",
    "https://img-proxy.imgfo.com/?referer=https://manganelo.com&url=https://s7.mkklcdnv6temp.com/mangakakalot/j1/jade/vol1_chapter_3_gem_artisan/20.jpg",
    "https://img-proxy.imgfo.com/?referer=https://manganelo.com&url=https://s7.mkklcdnv6temp.com/mangakakalot/j1/jade/vol1_chapter_3_gem_artisan/21.jpg",
    "https://img-proxy.imgfo.com/?referer=https://manganelo.com&url=https://s7.mkklcdnv6temp.com/mangakakalot/j1/jade/vol1_chapter_3_gem_artisan/22.jpg",
    "https://img-proxy.imgfo.com/?referer=https://manganelo.com&url=https://s7.mkklcdnv6temp.com/mangakakalot/j1/jade/vol1_chapter_3_gem_artisan/23.jpg",
    "https://img-proxy.imgfo.com/?referer=https://manganelo.com&url=https://s7.mkklcdnv6temp.com/mangakakalot/j1/jade/vol1_chapter_3_gem_artisan/24.jpg",
    "https://img-proxy.imgfo.com/?referer=https://manganelo.com&url=https://s7.mkklcdnv6temp.com/mangakakalot/j1/jade/vol1_chapter_3_gem_artisan/25.jpg",
    "https://img-proxy.imgfo.com/?referer=https://manganelo.com&url=https://s7.mkklcdnv6temp.com/mangakakalot/j1/jade/vol1_chapter_3_gem_artisan/26.jpg",
    "https://img-proxy.imgfo.com/?referer=https://manganelo.com&url=https://s7.mkklcdnv6temp.com/mangakakalot/j1/jade/vol1_chapter_3_gem_artisan/27.jpg",
    "https://img-proxy.imgfo.com/?referer=https://manganelo.com&url=https://s7.mkklcdnv6temp.com/mangakakalot/j1/jade/vol1_chapter_3_gem_artisan/28.jpg",
    "https://img-proxy.imgfo.com/?referer=https://manganelo.com&url=https://s7.mkklcdnv6temp.com/mangakakalot/j1/jade/vol1_chapter_3_gem_artisan/29.jpg",
    "https://img-proxy.imgfo.com/?referer=https://manganelo.com&url=https://s7.mkklcdnv6temp.com/mangakakalot/j1/jade/vol1_chapter_3_gem_artisan/30.jpg",
    "https://img-proxy.imgfo.com/?referer=https://manganelo.com&url=https://s7.mkklcdnv6temp.com/mangakakalot/j1/jade/vol1_chapter_3_gem_artisan/31.jpg",
    "https://img-proxy.imgfo.com/?referer=https://manganelo.com&url=https://s7.mkklcdnv6temp.com/mangakakalot/j1/jade/vol1_chapter_3_gem_artisan/32.jpg",
    "https://img-proxy.imgfo.com/?referer=https://manganelo.com&url=https://s7.mkklcdnv6temp.com/mangakakalot/j1/jade/vol1_chapter_3_gem_artisan/33.jpg",
    "https://img-proxy.imgfo.com/?referer=https://manganelo.com&url=https://s7.mkklcdnv6temp.com/mangakakalot/j1/jade/vol1_chapter_3_gem_artisan/34.jpg",
    "https://img-proxy.imgfo.com/?referer=https://manganelo.com&url=https://s7.mkklcdnv6temp.com/mangakakalot/j1/jade/vol1_chapter_3_gem_artisan/35.jpg",
    "https://img-proxy.imgfo.com/?referer=https://manganelo.com&url=https://s7.mkklcdnv6temp.com/mangakakalot/j1/jade/vol1_chapter_3_gem_artisan/36.jpg"
  ]
}