{
  "cover": "https://avt.mkklcdnv6.com/21/c/5-1583472663.jpg",
  "title": "Yu-Gi-Oh",
  "original": "遊☆戯☆王 ; Vua trò chơi ; Yu-Gi-Oh ; Yu-Gi-Oh! (The First Series) ; Yugioh!",
  "genre": "Action, Adult, Comedy, Fantasy, School life, Shounen, Supernatural, Manga",
  "author": "Takahashi Kazuki",
  "status": "Completed",
  "backlink": "https://manganu.com/collections/takahashi-kazuki/yu-gi-oh/",
  "description": "Yu-Gi-Oh! (&quot;Game King&quot;) is a Japanese manga series about gambling composed and illustrated by Kazuki Takahashi. It was serialized in Shueisha&#39;s Weekly Shonen Jump magazine between March 8, 2004 and September 30, 1996. The storyline follows the narrative of a boy named Yugi Mutou, who solves the Millennium Puzzle that is early, and awakens a gaming alterego within his body that solves his disagreements using various games.\n\n\n&nbsp;\nYu-Gi-Oh! tells the story of Yugi Mutou, a shy young lad who loves a variety of games, but is frequently intimidated about. One day, he solves an ancient artifact called the Millennium Puzzle (Sennen Pazuru?), causing his body to play host to a cryptic spirit with the character of a gambler. From that moment onwards, whenever Yugi or one of his buddies is endangered by those with darkness in their own hearts, this other Yugi reveals himself and challenges them to dangerous Shadow Games (Yami no muo, lit. &quot;Games of Darkness&quot;) which show the real nature of someone else&#39;s heart, the losers of these competitions regularly being subjected to a black punishment called a Penalty Game (Batsu Gomu?). Whether it&#39;s dice, cards or role playing games, he&#39;ll take on difficulties from anybody, anyplace. Yugi and his friends discover that this man in of his puzzle is in fact the heart of a nameless Pharaoh from Egyptian times who&#39;d lost his recollections as the show progresses. As Yugi and his comrades try to help the Pharaoh recover his memories, they are going through many trials as they wager their lives facing off against gamers that wield the cryptic Millennium Items (Sennen Aitemu?) and the black power of the Shadow Games.\n&nbsp;\nYugi Mutou (Muto Yugi) is a character in the Yu-Gi-Oh! manga. Here is the first characterization of Yugi Mutou.\n&nbsp;\nYugi was a shy lad, who invested time and had been often intimidated. Yet through getting several mostly Dark Yugi buddies, Anzu Mazaki, Katsuya Jonouchi, Hiroto Honda and Ryo Bakura, he beat his difficulties becoming much more separate and more powerful.\n\nAfter fixing the Millennium Puzzle, Yugi unknowingly shared his physique the heart of an amnesiac early Egyptian Pharaoh, Dark Yugi, who shield his buddies and Yugi throughout using Shadow Games. Yugi became conscious of Dark Yugi, when he confronted Death- a theme-park created by by Seto Kaiba to destroy the Yugis, T, and fulfilled with Dark Yugi for the very first time, when Dark Bakura and his physique split Yugi&#39;s consciousness in a-game of Monster World.\n&nbsp;\n\n\nYugi assisted in winning the Duelist Kingdom tournament Dark Yugi, to save his grandpa. He re-assembled the Millennium Puzzle in the burning building to stop from losing Dark Yugi and conquered Ryuji Otogi in Dungeon Dice Monsters by himself. Collectively the Battle City tournament was won by the Yugis.\n&nbsp;\nWhen they entered the World of Memories, the Yugis were distinguished. There Yugi assisted Dark Yugi re-learn overcome Zorc Necrophades, Atem, and his title. Yugi conquered Atem in the Ceremonial Battle, a rite required for Atem to move to the afterlife when they came back to real life.\n\nOther manga:\n+ Phantom Blood\n+ Master Keaton",
  "language": "English",
  "images": [
    "https://img-proxy.imgfo.com/?referer=https://manganelo.com&url=https://s3.mkklcdnv6temp.com/mangakakalot/r1/read_yugioh_manga_online/vol6_chapter_45_the_terror_of_thirteen/1.jpg",
    "https://img-proxy.imgfo.com/?referer=https://manganelo.com&url=https://s3.mkklcdnv6temp.com/mangakakalot/r1/read_yugioh_manga_online/vol6_chapter_45_the_terror_of_thirteen/2.jpg",
    "https://img-proxy.imgfo.com/?referer=https://manganelo.com&url=https://s3.mkklcdnv6temp.com/mangakakalot/r1/read_yugioh_manga_online/vol6_chapter_45_the_terror_of_thirteen/3.jpg",
    "https://img-proxy.imgfo.com/?referer=https://manganelo.com&url=https://s3.mkklcdnv6temp.com/mangakakalot/r1/read_yugioh_manga_online/vol6_chapter_45_the_terror_of_thirteen/4.jpg",
    "https://img-proxy.imgfo.com/?referer=https://manganelo.com&url=https://s3.mkklcdnv6temp.com/mangakakalot/r1/read_yugioh_manga_online/vol6_chapter_45_the_terror_of_thirteen/5.jpg",
    "https://img-proxy.imgfo.com/?referer=https://manganelo.com&url=https://s3.mkklcdnv6temp.com/mangakakalot/r1/read_yugioh_manga_online/vol6_chapter_45_the_terror_of_thirteen/6.jpg",
    "https://img-proxy.imgfo.com/?referer=https://manganelo.com&url=https://s3.mkklcdnv6temp.com/mangakakalot/r1/read_yugioh_manga_online/vol6_chapter_45_the_terror_of_thirteen/7.jpg",
    "https://img-proxy.imgfo.com/?referer=https://manganelo.com&url=https://s3.mkklcdnv6temp.com/mangakakalot/r1/read_yugioh_manga_online/vol6_chapter_45_the_terror_of_thirteen/8.jpg",
    "https://img-proxy.imgfo.com/?referer=https://manganelo.com&url=https://s3.mkklcdnv6temp.com/mangakakalot/r1/read_yugioh_manga_online/vol6_chapter_45_the_terror_of_thirteen/9.jpg",
    "https://img-proxy.imgfo.com/?referer=https://manganelo.com&url=https://s3.mkklcdnv6temp.com/mangakakalot/r1/read_yugioh_manga_online/vol6_chapter_45_the_terror_of_thirteen/10.jpg",
    "https://img-proxy.imgfo.com/?referer=https://manganelo.com&url=https://s3.mkklcdnv6temp.com/mangakakalot/r1/read_yugioh_manga_online/vol6_chapter_45_the_terror_of_thirteen/11.jpg",
    "https://img-proxy.imgfo.com/?referer=https://manganelo.com&url=https://s3.mkklcdnv6temp.com/mangakakalot/r1/read_yugioh_manga_online/vol6_chapter_45_the_terror_of_thirteen/12.jpg",
    "https://img-proxy.imgfo.com/?referer=https://manganelo.com&url=https://s3.mkklcdnv6temp.com/mangakakalot/r1/read_yugioh_manga_online/vol6_chapter_45_the_terror_of_thirteen/13.jpg",
    "https://img-proxy.imgfo.com/?referer=https://manganelo.com&url=https://s3.mkklcdnv6temp.com/mangakakalot/r1/read_yugioh_manga_online/vol6_chapter_45_the_terror_of_thirteen/14.jpg",
    "https://img-proxy.imgfo.com/?referer=https://manganelo.com&url=https://s3.mkklcdnv6temp.com/mangakakalot/r1/read_yugioh_manga_online/vol6_chapter_45_the_terror_of_thirteen/15.jpg",
    "https://img-proxy.imgfo.com/?referer=https://manganelo.com&url=https://s3.mkklcdnv6temp.com/mangakakalot/r1/read_yugioh_manga_online/vol6_chapter_45_the_terror_of_thirteen/16.jpg",
    "https://img-proxy.imgfo.com/?referer=https://manganelo.com&url=https://s3.mkklcdnv6temp.com/mangakakalot/r1/read_yugioh_manga_online/vol6_chapter_45_the_terror_of_thirteen/17.jpg",
    "https://img-proxy.imgfo.com/?referer=https://manganelo.com&url=https://s3.mkklcdnv6temp.com/mangakakalot/r1/read_yugioh_manga_online/vol6_chapter_45_the_terror_of_thirteen/18.jpg",
    "https://img-proxy.imgfo.com/?referer=https://manganelo.com&url=https://s3.mkklcdnv6temp.com/mangakakalot/r1/read_yugioh_manga_online/vol6_chapter_45_the_terror_of_thirteen/19.jpg",
    "https://img-proxy.imgfo.com/?referer=https://manganelo.com&url=https://s3.mkklcdnv6temp.com/mangakakalot/r1/read_yugioh_manga_online/vol6_chapter_45_the_terror_of_thirteen/20.jpg",
    "https://img-proxy.imgfo.com/?referer=https://manganelo.com&url=https://s3.mkklcdnv6temp.com/mangakakalot/r1/read_yugioh_manga_online/vol6_chapter_45_the_terror_of_thirteen/21.jpg",
    "https://img-proxy.imgfo.com/?referer=https://manganelo.com&url=https://s3.mkklcdnv6temp.com/mangakakalot/r1/read_yugioh_manga_online/vol6_chapter_45_the_terror_of_thirteen/22.jpg",
    "https://img-proxy.imgfo.com/?referer=https://manganelo.com&url=https://s3.mkklcdnv6temp.com/mangakakalot/r1/read_yugioh_manga_online/vol6_chapter_45_the_terror_of_thirteen/23.jpg",
    "https://img-proxy.imgfo.com/?referer=https://manganelo.com&url=https://s3.mkklcdnv6temp.com/mangakakalot/r1/read_yugioh_manga_online/vol6_chapter_45_the_terror_of_thirteen/24.jpg"
  ]
}