{
  "cover": "https://avt.mkklcdnv6.com/49/t/4-1583471784.jpg",
  "title": "Yuuhi Romance",
  "genre": "Comedy, Romance, School life, Seinen, Slice of life, Manga",
  "author": "Katou Haruaki",
  "status": "Completed",
  "backlink": "https://manganu.com/collections/katou-haruaki/yuuhi-romance/",
  "description": "A little complicated family love story about Yuu, her brother Hiro, and their half-sister Tomo.",
  "language": "English",
  "images": [
    "https://img-proxy.imgfo.com/?referer=https://manganelo.com&url=https://s3.mkklcdnv6temp.com/mangakakalot/y2/yuuhi_romance/vol1_chapter_10/1.jpg",
    "https://img-proxy.imgfo.com/?referer=https://manganelo.com&url=https://s3.mkklcdnv6temp.com/mangakakalot/y2/yuuhi_romance/vol1_chapter_10/2.jpg",
    "https://img-proxy.imgfo.com/?referer=https://manganelo.com&url=https://s3.mkklcdnv6temp.com/mangakakalot/y2/yuuhi_romance/vol1_chapter_10/3.jpg",
    "https://img-proxy.imgfo.com/?referer=https://manganelo.com&url=https://s3.mkklcdnv6temp.com/mangakakalot/y2/yuuhi_romance/vol1_chapter_10/4.jpg",
    "https://img-proxy.imgfo.com/?referer=https://manganelo.com&url=https://s3.mkklcdnv6temp.com/mangakakalot/y2/yuuhi_romance/vol1_chapter_10/5.jpg",
    "https://img-proxy.imgfo.com/?referer=https://manganelo.com&url=https://s3.mkklcdnv6temp.com/mangakakalot/y2/yuuhi_romance/vol1_chapter_10/6.jpg",
    "https://img-proxy.imgfo.com/?referer=https://manganelo.com&url=https://s3.mkklcdnv6temp.com/mangakakalot/y2/yuuhi_romance/vol1_chapter_10/7.jpg",
    "https://img-proxy.imgfo.com/?referer=https://manganelo.com&url=https://s3.mkklcdnv6temp.com/mangakakalot/y2/yuuhi_romance/vol1_chapter_10/8.jpg",
    "https://img-proxy.imgfo.com/?referer=https://manganelo.com&url=https://s3.mkklcdnv6temp.com/mangakakalot/y2/yuuhi_romance/vol1_chapter_10/9.jpg",
    "https://img-proxy.imgfo.com/?referer=https://manganelo.com&url=https://s3.mkklcdnv6temp.com/mangakakalot/y2/yuuhi_romance/vol1_chapter_10/10.jpg",
    "https://img-proxy.imgfo.com/?referer=https://manganelo.com&url=https://s3.mkklcdnv6temp.com/mangakakalot/y2/yuuhi_romance/vol1_chapter_10/11.jpg",
    "https://img-proxy.imgfo.com/?referer=https://manganelo.com&url=https://s3.mkklcdnv6temp.com/mangakakalot/y2/yuuhi_romance/vol1_chapter_10/12.jpg"
  ]
}