{
  "cover": "https://avt.mkklcdnv6.com/17/d/5-1583472517.jpg",
  "title": "Hizamazuite Ai Wo Chikae",
  "original": "ひざまずいて愛を誓え ; 保镖的爱情誓言 ; Hizamazu Ite Ai wo Chikae ; Hizamazuite Ai wo Chikae ; Kneel down and vow your love ; Omae no Karada ni Kiitemiro ; Swear Love On Your Knees ; Tennen Ecstasy ; Yokubou Star",
  "genre": "Comedy, Drama, Romance, School life, Shoujo, Manga",
  "author": "Honda Natsumi",
  "status": "Completed",
  "backlink": "https://manganu.com/collections/honda-natsumi/hizamazuite-ai-wo-chikae/",
  "description": "A cute collection of short stories, packed full of love!\n• Omae no Karada ni Kiitemiro (Swear Love On Your Knees) : I work with Naoe, who is the same age as me, and he makes my heart beat like crazy!? Turns out, he's my father's bodyguard and so now he accompanies me. And now I'm in (unrequited) love with him. But he's not kind to me at all...\n• Try Asking Your Body : Jun is a typical player. There is no one in high school who hasn't heard of him and his seducing ways. One day a tom-boy girl challenges to a duel for playing around with one of her classmates. What's this feeling in his heart? It won't stop beating. Could this infamous playboy be feeling.... love?\n• Yokubou Star : Amemiya Kou, already an accomplished novelist and still in high school. Ever since I first read his book I've loved him. But now that I go to the same high school as him and work under him in the literature club he doesn't seem a thing like the beautiful words in his book. In fact he's very bossy and seems to only pick on me! Gwah, what? That means I'm his favorite? That doesn't make sense! Why's he so mean?!\n• Koibito. Zenyasai (Lover. The Eye):\nHe is cold, and does not act like a boyfriend, she wants to believe they DO are going out... What will it become of their relationship?!\n• Tennen Ecstasy (Natural Ecstasy)\nHoshina izumi, whose looks are like an elementary student, does not have any friend at school. While everyone was befriend-ling she... received a confession from a guy?! Wait, he wants to be her friend or... not?!\nRead this manga from right to left",
  "language": "English",
  "images": [
    "https://img-proxy.imgfo.com/?referer=https://manganelo.com&url=https://s41.mkklcdnv6temp.com/mangakakalot/h1/hizamazuite_ai_wo_chikae/vol1_chapter_5_tennen_ecstasy/1.jpg",
    "https://img-proxy.imgfo.com/?referer=https://manganelo.com&url=https://s41.mkklcdnv6temp.com/mangakakalot/h1/hizamazuite_ai_wo_chikae/vol1_chapter_5_tennen_ecstasy/2.jpg",
    "https://img-proxy.imgfo.com/?referer=https://manganelo.com&url=https://s41.mkklcdnv6temp.com/mangakakalot/h1/hizamazuite_ai_wo_chikae/vol1_chapter_5_tennen_ecstasy/3.jpg",
    "https://img-proxy.imgfo.com/?referer=https://manganelo.com&url=https://s41.mkklcdnv6temp.com/mangakakalot/h1/hizamazuite_ai_wo_chikae/vol1_chapter_5_tennen_ecstasy/4.jpg",
    "https://img-proxy.imgfo.com/?referer=https://manganelo.com&url=https://s41.mkklcdnv6temp.com/mangakakalot/h1/hizamazuite_ai_wo_chikae/vol1_chapter_5_tennen_ecstasy/5.jpg",
    "https://img-proxy.imgfo.com/?referer=https://manganelo.com&url=https://s41.mkklcdnv6temp.com/mangakakalot/h1/hizamazuite_ai_wo_chikae/vol1_chapter_5_tennen_ecstasy/6.jpg",
    "https://img-proxy.imgfo.com/?referer=https://manganelo.com&url=https://s41.mkklcdnv6temp.com/mangakakalot/h1/hizamazuite_ai_wo_chikae/vol1_chapter_5_tennen_ecstasy/7.jpg",
    "https://img-proxy.imgfo.com/?referer=https://manganelo.com&url=https://s41.mkklcdnv6temp.com/mangakakalot/h1/hizamazuite_ai_wo_chikae/vol1_chapter_5_tennen_ecstasy/8.jpg",
    "https://img-proxy.imgfo.com/?referer=https://manganelo.com&url=https://s41.mkklcdnv6temp.com/mangakakalot/h1/hizamazuite_ai_wo_chikae/vol1_chapter_5_tennen_ecstasy/9.jpg",
    "https://img-proxy.imgfo.com/?referer=https://manganelo.com&url=https://s41.mkklcdnv6temp.com/mangakakalot/h1/hizamazuite_ai_wo_chikae/vol1_chapter_5_tennen_ecstasy/10.jpg",
    "https://img-proxy.imgfo.com/?referer=https://manganelo.com&url=https://s41.mkklcdnv6temp.com/mangakakalot/h1/hizamazuite_ai_wo_chikae/vol1_chapter_5_tennen_ecstasy/11.jpg",
    "https://img-proxy.imgfo.com/?referer=https://manganelo.com&url=https://s41.mkklcdnv6temp.com/mangakakalot/h1/hizamazuite_ai_wo_chikae/vol1_chapter_5_tennen_ecstasy/12.jpg",
    "https://img-proxy.imgfo.com/?referer=https://manganelo.com&url=https://s41.mkklcdnv6temp.com/mangakakalot/h1/hizamazuite_ai_wo_chikae/vol1_chapter_5_tennen_ecstasy/13.jpg",
    "https://img-proxy.imgfo.com/?referer=https://manganelo.com&url=https://s41.mkklcdnv6temp.com/mangakakalot/h1/hizamazuite_ai_wo_chikae/vol1_chapter_5_tennen_ecstasy/14.jpg",
    "https://img-proxy.imgfo.com/?referer=https://manganelo.com&url=https://s41.mkklcdnv6temp.com/mangakakalot/h1/hizamazuite_ai_wo_chikae/vol1_chapter_5_tennen_ecstasy/15.jpg",
    "https://img-proxy.imgfo.com/?referer=https://manganelo.com&url=https://s41.mkklcdnv6temp.com/mangakakalot/h1/hizamazuite_ai_wo_chikae/vol1_chapter_5_tennen_ecstasy/16.jpg",
    "https://img-proxy.imgfo.com/?referer=https://manganelo.com&url=https://s41.mkklcdnv6temp.com/mangakakalot/h1/hizamazuite_ai_wo_chikae/vol1_chapter_5_tennen_ecstasy/17.jpg",
    "https://img-proxy.imgfo.com/?referer=https://manganelo.com&url=https://s41.mkklcdnv6temp.com/mangakakalot/h1/hizamazuite_ai_wo_chikae/vol1_chapter_5_tennen_ecstasy/18.jpg",
    "https://img-proxy.imgfo.com/?referer=https://manganelo.com&url=https://s41.mkklcdnv6temp.com/mangakakalot/h1/hizamazuite_ai_wo_chikae/vol1_chapter_5_tennen_ecstasy/19.jpg",
    "https://img-proxy.imgfo.com/?referer=https://manganelo.com&url=https://s41.mkklcdnv6temp.com/mangakakalot/h1/hizamazuite_ai_wo_chikae/vol1_chapter_5_tennen_ecstasy/20.jpg",
    "https://img-proxy.imgfo.com/?referer=https://manganelo.com&url=https://s41.mkklcdnv6temp.com/mangakakalot/h1/hizamazuite_ai_wo_chikae/vol1_chapter_5_tennen_ecstasy/21.jpg",
    "https://img-proxy.imgfo.com/?referer=https://manganelo.com&url=https://s41.mkklcdnv6temp.com/mangakakalot/h1/hizamazuite_ai_wo_chikae/vol1_chapter_5_tennen_ecstasy/22.jpg",
    "https://img-proxy.imgfo.com/?referer=https://manganelo.com&url=https://s41.mkklcdnv6temp.com/mangakakalot/h1/hizamazuite_ai_wo_chikae/vol1_chapter_5_tennen_ecstasy/23.jpg",
    "https://img-proxy.imgfo.com/?referer=https://manganelo.com&url=https://s41.mkklcdnv6temp.com/mangakakalot/h1/hizamazuite_ai_wo_chikae/vol1_chapter_5_tennen_ecstasy/24.jpg",
    "https://img-proxy.imgfo.com/?referer=https://manganelo.com&url=https://s41.mkklcdnv6temp.com/mangakakalot/h1/hizamazuite_ai_wo_chikae/vol1_chapter_5_tennen_ecstasy/25.jpg",
    "https://img-proxy.imgfo.com/?referer=https://manganelo.com&url=https://s41.mkklcdnv6temp.com/mangakakalot/h1/hizamazuite_ai_wo_chikae/vol1_chapter_5_tennen_ecstasy/26.jpg",
    "https://img-proxy.imgfo.com/?referer=https://manganelo.com&url=https://s41.mkklcdnv6temp.com/mangakakalot/h1/hizamazuite_ai_wo_chikae/vol1_chapter_5_tennen_ecstasy/27.jpg",
    "https://img-proxy.imgfo.com/?referer=https://manganelo.com&url=https://s41.mkklcdnv6temp.com/mangakakalot/h1/hizamazuite_ai_wo_chikae/vol1_chapter_5_tennen_ecstasy/28.jpg",
    "https://img-proxy.imgfo.com/?referer=https://manganelo.com&url=https://s41.mkklcdnv6temp.com/mangakakalot/h1/hizamazuite_ai_wo_chikae/vol1_chapter_5_tennen_ecstasy/29.jpg",
    "https://img-proxy.imgfo.com/?referer=https://manganelo.com&url=https://s41.mkklcdnv6temp.com/mangakakalot/h1/hizamazuite_ai_wo_chikae/vol1_chapter_5_tennen_ecstasy/30.jpg",
    "https://img-proxy.imgfo.com/?referer=https://manganelo.com&url=https://s41.mkklcdnv6temp.com/mangakakalot/h1/hizamazuite_ai_wo_chikae/vol1_chapter_5_tennen_ecstasy/31.jpg",
    "https://img-proxy.imgfo.com/?referer=https://manganelo.com&url=https://s41.mkklcdnv6temp.com/mangakakalot/h1/hizamazuite_ai_wo_chikae/vol1_chapter_5_tennen_ecstasy/32.jpg",
    "https://img-proxy.imgfo.com/?referer=https://manganelo.com&url=https://s41.mkklcdnv6temp.com/mangakakalot/h1/hizamazuite_ai_wo_chikae/vol1_chapter_5_tennen_ecstasy/33.jpg",
    "https://img-proxy.imgfo.com/?referer=https://manganelo.com&url=https://s41.mkklcdnv6temp.com/mangakakalot/h1/hizamazuite_ai_wo_chikae/vol1_chapter_5_tennen_ecstasy/34.jpg",
    "https://img-proxy.imgfo.com/?referer=https://manganelo.com&url=https://s41.mkklcdnv6temp.com/mangakakalot/h1/hizamazuite_ai_wo_chikae/vol1_chapter_5_tennen_ecstasy/35.jpg",
    "https://img-proxy.imgfo.com/?referer=https://manganelo.com&url=https://s41.mkklcdnv6temp.com/mangakakalot/h1/hizamazuite_ai_wo_chikae/vol1_chapter_5_tennen_ecstasy/36.jpg",
    "https://img-proxy.imgfo.com/?referer=https://manganelo.com&url=https://s41.mkklcdnv6temp.com/mangakakalot/h1/hizamazuite_ai_wo_chikae/vol1_chapter_5_tennen_ecstasy/37.jpg",
    "https://img-proxy.imgfo.com/?referer=https://manganelo.com&url=https://s41.mkklcdnv6temp.com/mangakakalot/h1/hizamazuite_ai_wo_chikae/vol1_chapter_5_tennen_ecstasy/38.jpg",
    "https://img-proxy.imgfo.com/?referer=https://manganelo.com&url=https://s41.mkklcdnv6temp.com/mangakakalot/h1/hizamazuite_ai_wo_chikae/vol1_chapter_5_tennen_ecstasy/39.jpg",
    "https://img-proxy.imgfo.com/?referer=https://manganelo.com&url=https://s41.mkklcdnv6temp.com/mangakakalot/h1/hizamazuite_ai_wo_chikae/vol1_chapter_5_tennen_ecstasy/40.jpg",
    "https://img-proxy.imgfo.com/?referer=https://manganelo.com&url=https://s41.mkklcdnv6temp.com/mangakakalot/h1/hizamazuite_ai_wo_chikae/vol1_chapter_5_tennen_ecstasy/41.jpg"
  ]
}