{
  "cover": "https://avt.mkklcdnv6.com/32/v/6-1583475451.jpg",
  "title": "Chocolate",
  "original": "チョコレート ; よこれいと ; 初恋巧克力 ; Chiyokoreito ; Chokoreito ; Chokorēto ; Tsokolate ; Шоколад (Bulgarian) ; Choklad (Swedish)",
  "genre": "Drama, Romance, School life, Shoujo, Manga",
  "author": "Fukushima Haruka",
  "status": "Completed",
  "backlink": "https://manganu.com/collections/fukushima-haruka/chocolate/",
  "description": "Chii-chan is an elementary school student who is really inexperienced with love. When the new transfer student Rei-kun arrives at her school, her life makes big changes. The next day, when Chii-chan arrives at school, her teacher, told Chii-chan that Rei-kun is dead. What will happen to Chii-chan?",
  "language": "English",
  "images": [
    "https://img-proxy.imgfo.com/?referer=https://manganelo.com&url=https://s7.mkklcdnv6temp.com/mangakakalot/c1/chocolate/vol1_chapter_4_fragmented_memories/1.jpg",
    "https://img-proxy.imgfo.com/?referer=https://manganelo.com&url=https://s7.mkklcdnv6temp.com/mangakakalot/c1/chocolate/vol1_chapter_4_fragmented_memories/2.jpg",
    "https://img-proxy.imgfo.com/?referer=https://manganelo.com&url=https://s7.mkklcdnv6temp.com/mangakakalot/c1/chocolate/vol1_chapter_4_fragmented_memories/3.jpg",
    "https://img-proxy.imgfo.com/?referer=https://manganelo.com&url=https://s7.mkklcdnv6temp.com/mangakakalot/c1/chocolate/vol1_chapter_4_fragmented_memories/4.jpg",
    "https://img-proxy.imgfo.com/?referer=https://manganelo.com&url=https://s7.mkklcdnv6temp.com/mangakakalot/c1/chocolate/vol1_chapter_4_fragmented_memories/5.jpg",
    "https://img-proxy.imgfo.com/?referer=https://manganelo.com&url=https://s7.mkklcdnv6temp.com/mangakakalot/c1/chocolate/vol1_chapter_4_fragmented_memories/6.jpg",
    "https://img-proxy.imgfo.com/?referer=https://manganelo.com&url=https://s7.mkklcdnv6temp.com/mangakakalot/c1/chocolate/vol1_chapter_4_fragmented_memories/7.jpg",
    "https://img-proxy.imgfo.com/?referer=https://manganelo.com&url=https://s7.mkklcdnv6temp.com/mangakakalot/c1/chocolate/vol1_chapter_4_fragmented_memories/8.jpg",
    "https://img-proxy.imgfo.com/?referer=https://manganelo.com&url=https://s7.mkklcdnv6temp.com/mangakakalot/c1/chocolate/vol1_chapter_4_fragmented_memories/9.jpg",
    "https://img-proxy.imgfo.com/?referer=https://manganelo.com&url=https://s7.mkklcdnv6temp.com/mangakakalot/c1/chocolate/vol1_chapter_4_fragmented_memories/10.jpg",
    "https://img-proxy.imgfo.com/?referer=https://manganelo.com&url=https://s7.mkklcdnv6temp.com/mangakakalot/c1/chocolate/vol1_chapter_4_fragmented_memories/11.jpg",
    "https://img-proxy.imgfo.com/?referer=https://manganelo.com&url=https://s7.mkklcdnv6temp.com/mangakakalot/c1/chocolate/vol1_chapter_4_fragmented_memories/12.jpg",
    "https://img-proxy.imgfo.com/?referer=https://manganelo.com&url=https://s7.mkklcdnv6temp.com/mangakakalot/c1/chocolate/vol1_chapter_4_fragmented_memories/13.jpg",
    "https://img-proxy.imgfo.com/?referer=https://manganelo.com&url=https://s7.mkklcdnv6temp.com/mangakakalot/c1/chocolate/vol1_chapter_4_fragmented_memories/14.jpg",
    "https://img-proxy.imgfo.com/?referer=https://manganelo.com&url=https://s7.mkklcdnv6temp.com/mangakakalot/c1/chocolate/vol1_chapter_4_fragmented_memories/15.jpg",
    "https://img-proxy.imgfo.com/?referer=https://manganelo.com&url=https://s7.mkklcdnv6temp.com/mangakakalot/c1/chocolate/vol1_chapter_4_fragmented_memories/16.jpg",
    "https://img-proxy.imgfo.com/?referer=https://manganelo.com&url=https://s7.mkklcdnv6temp.com/mangakakalot/c1/chocolate/vol1_chapter_4_fragmented_memories/17.jpg",
    "https://img-proxy.imgfo.com/?referer=https://manganelo.com&url=https://s7.mkklcdnv6temp.com/mangakakalot/c1/chocolate/vol1_chapter_4_fragmented_memories/18.jpg",
    "https://img-proxy.imgfo.com/?referer=https://manganelo.com&url=https://s7.mkklcdnv6temp.com/mangakakalot/c1/chocolate/vol1_chapter_4_fragmented_memories/19.jpg",
    "https://img-proxy.imgfo.com/?referer=https://manganelo.com&url=https://s7.mkklcdnv6temp.com/mangakakalot/c1/chocolate/vol1_chapter_4_fragmented_memories/20.jpg",
    "https://img-proxy.imgfo.com/?referer=https://manganelo.com&url=https://s7.mkklcdnv6temp.com/mangakakalot/c1/chocolate/vol1_chapter_4_fragmented_memories/21.jpg",
    "https://img-proxy.imgfo.com/?referer=https://manganelo.com&url=https://s7.mkklcdnv6temp.com/mangakakalot/c1/chocolate/vol1_chapter_4_fragmented_memories/22.jpg",
    "https://img-proxy.imgfo.com/?referer=https://manganelo.com&url=https://s7.mkklcdnv6temp.com/mangakakalot/c1/chocolate/vol1_chapter_4_fragmented_memories/23.jpg",
    "https://img-proxy.imgfo.com/?referer=https://manganelo.com&url=https://s7.mkklcdnv6temp.com/mangakakalot/c1/chocolate/vol1_chapter_4_fragmented_memories/24.jpg",
    "https://img-proxy.imgfo.com/?referer=https://manganelo.com&url=https://s7.mkklcdnv6temp.com/mangakakalot/c1/chocolate/vol1_chapter_4_fragmented_memories/25.jpg",
    "https://img-proxy.imgfo.com/?referer=https://manganelo.com&url=https://s7.mkklcdnv6temp.com/mangakakalot/c1/chocolate/vol1_chapter_4_fragmented_memories/26.jpg",
    "https://img-proxy.imgfo.com/?referer=https://manganelo.com&url=https://s7.mkklcdnv6temp.com/mangakakalot/c1/chocolate/vol1_chapter_4_fragmented_memories/27.jpg",
    "https://img-proxy.imgfo.com/?referer=https://manganelo.com&url=https://s7.mkklcdnv6temp.com/mangakakalot/c1/chocolate/vol1_chapter_4_fragmented_memories/28.jpg",
    "https://img-proxy.imgfo.com/?referer=https://manganelo.com&url=https://s7.mkklcdnv6temp.com/mangakakalot/c1/chocolate/vol1_chapter_4_fragmented_memories/29.jpg",
    "https://img-proxy.imgfo.com/?referer=https://manganelo.com&url=https://s7.mkklcdnv6temp.com/mangakakalot/c1/chocolate/vol1_chapter_4_fragmented_memories/30.jpg",
    "https://img-proxy.imgfo.com/?referer=https://manganelo.com&url=https://s7.mkklcdnv6temp.com/mangakakalot/c1/chocolate/vol1_chapter_4_fragmented_memories/31.jpg",
    "https://img-proxy.imgfo.com/?referer=https://manganelo.com&url=https://s7.mkklcdnv6temp.com/mangakakalot/c1/chocolate/vol1_chapter_4_fragmented_memories/32.jpg",
    "https://img-proxy.imgfo.com/?referer=https://manganelo.com&url=https://s7.mkklcdnv6temp.com/mangakakalot/c1/chocolate/vol1_chapter_4_fragmented_memories/33.jpg",
    "https://img-proxy.imgfo.com/?referer=https://manganelo.com&url=https://s7.mkklcdnv6temp.com/mangakakalot/c1/chocolate/vol1_chapter_4_fragmented_memories/34.jpg",
    "https://img-proxy.imgfo.com/?referer=https://manganelo.com&url=https://s7.mkklcdnv6temp.com/mangakakalot/c1/chocolate/vol1_chapter_4_fragmented_memories/35.jpg",
    "https://img-proxy.imgfo.com/?referer=https://manganelo.com&url=https://s7.mkklcdnv6temp.com/mangakakalot/c1/chocolate/vol1_chapter_4_fragmented_memories/36.jpg",
    "https://img-proxy.imgfo.com/?referer=https://manganelo.com&url=https://s7.mkklcdnv6temp.com/mangakakalot/c1/chocolate/vol1_chapter_4_fragmented_memories/37.jpg",
    "https://img-proxy.imgfo.com/?referer=https://manganelo.com&url=https://s7.mkklcdnv6temp.com/mangakakalot/c1/chocolate/vol1_chapter_4_fragmented_memories/38.jpg"
  ]
}