{
  "cover": "https://avt.mkklcdnv6.com/18/o/5-1583472571.jpg",
  "title": "Gokuraku Cafe",
  "original": "极乐咖啡 ; 極楽カフェ ; Caffé Paradise ; Caffè Paradiso ; Paradise Cafe",
  "genre": "Comedy, Drama, Shounen ai, Sports, Manga",
  "author": "Mamahara Ellie",
  "status": "Completed",
  "backlink": "https://manganu.com/collections/mamahara-ellie/gokuraku-cafe/",
  "description": "Yuto works as a waiter at the Rainbow Forest Cafe. One day he sees a guy who looked like he wants to throw himself from a bridge. Yuto tries to save him and finds out he's none other than the famous former baseball player, Esaki.\n-- Manga Updates\n--\nVol.01: Gokuraku Cafe revolves around Yuuto Takanashi, a young cafe part-time worker. Naturally enthusiastic and helpful, Yuuta often gets involved with the personal lives and problems of people. Usually most of the (male) customers begin falling for him! Such incidents, added to the overprotectiveness of his best friend Souhei, only make Yuuto's life more complicated. Then one day he sees a guy who looked like he wants to throw himself from a bridge. Yuto tries to save him and finds out he's none other than the famous former baseball player, Esaki.\nvol.02: For some reason, everyone who attempts to woo cafe waiter Yuuto is a man. One day, a hotshot director from Hollywood, Jack, comes to Japan. Jack, whom Yuuto admires, is actually the cafe owner's son and the two of them have been isolated from each other for 6 years. Yuuto goes to see Jack in an effort to convince his two beloved friends to make up. But he ends up being overpowered and pushed down by Jack and...!?\nfrom Forever-More\nSequel: Yakyuu Tengoku",
  "language": "English",
  "images": [
    "https://img-proxy.imgfo.com/?referer=https://manganelo.com&url=https://s6.mkklcdnv6temp.com/mangakakalot/g2/gokuraku_cafe/vol01_chapter_41/1.jpg",
    "https://img-proxy.imgfo.com/?referer=https://manganelo.com&url=https://s6.mkklcdnv6temp.com/mangakakalot/g2/gokuraku_cafe/vol01_chapter_41/2.jpg",
    "https://img-proxy.imgfo.com/?referer=https://manganelo.com&url=https://s6.mkklcdnv6temp.com/mangakakalot/g2/gokuraku_cafe/vol01_chapter_41/3.jpg",
    "https://img-proxy.imgfo.com/?referer=https://manganelo.com&url=https://s6.mkklcdnv6temp.com/mangakakalot/g2/gokuraku_cafe/vol01_chapter_41/4.jpg",
    "https://img-proxy.imgfo.com/?referer=https://manganelo.com&url=https://s6.mkklcdnv6temp.com/mangakakalot/g2/gokuraku_cafe/vol01_chapter_41/5.jpg",
    "https://img-proxy.imgfo.com/?referer=https://manganelo.com&url=https://s6.mkklcdnv6temp.com/mangakakalot/g2/gokuraku_cafe/vol01_chapter_41/6.jpg",
    "https://img-proxy.imgfo.com/?referer=https://manganelo.com&url=https://s6.mkklcdnv6temp.com/mangakakalot/g2/gokuraku_cafe/vol01_chapter_41/7.jpg",
    "https://img-proxy.imgfo.com/?referer=https://manganelo.com&url=https://s6.mkklcdnv6temp.com/mangakakalot/g2/gokuraku_cafe/vol01_chapter_41/8.jpg",
    "https://img-proxy.imgfo.com/?referer=https://manganelo.com&url=https://s6.mkklcdnv6temp.com/mangakakalot/g2/gokuraku_cafe/vol01_chapter_41/9.jpg",
    "https://img-proxy.imgfo.com/?referer=https://manganelo.com&url=https://s6.mkklcdnv6temp.com/mangakakalot/g2/gokuraku_cafe/vol01_chapter_41/10.jpg",
    "https://img-proxy.imgfo.com/?referer=https://manganelo.com&url=https://s6.mkklcdnv6temp.com/mangakakalot/g2/gokuraku_cafe/vol01_chapter_41/11.jpg",
    "https://img-proxy.imgfo.com/?referer=https://manganelo.com&url=https://s6.mkklcdnv6temp.com/mangakakalot/g2/gokuraku_cafe/vol01_chapter_41/12.jpg",
    "https://img-proxy.imgfo.com/?referer=https://manganelo.com&url=https://s6.mkklcdnv6temp.com/mangakakalot/g2/gokuraku_cafe/vol01_chapter_41/13.jpg",
    "https://img-proxy.imgfo.com/?referer=https://manganelo.com&url=https://s6.mkklcdnv6temp.com/mangakakalot/g2/gokuraku_cafe/vol01_chapter_41/14.jpg",
    "https://img-proxy.imgfo.com/?referer=https://manganelo.com&url=https://s6.mkklcdnv6temp.com/mangakakalot/g2/gokuraku_cafe/vol01_chapter_41/15.jpg",
    "https://img-proxy.imgfo.com/?referer=https://manganelo.com&url=https://s6.mkklcdnv6temp.com/mangakakalot/g2/gokuraku_cafe/vol01_chapter_41/16.jpg",
    "https://img-proxy.imgfo.com/?referer=https://manganelo.com&url=https://s6.mkklcdnv6temp.com/mangakakalot/g2/gokuraku_cafe/vol01_chapter_41/17.jpg",
    "https://img-proxy.imgfo.com/?referer=https://manganelo.com&url=https://s6.mkklcdnv6temp.com/mangakakalot/g2/gokuraku_cafe/vol01_chapter_41/18.jpg",
    "https://img-proxy.imgfo.com/?referer=https://manganelo.com&url=https://s6.mkklcdnv6temp.com/mangakakalot/g2/gokuraku_cafe/vol01_chapter_41/19.jpg",
    "https://img-proxy.imgfo.com/?referer=https://manganelo.com&url=https://s6.mkklcdnv6temp.com/mangakakalot/g2/gokuraku_cafe/vol01_chapter_41/20.jpg",
    "https://img-proxy.imgfo.com/?referer=https://manganelo.com&url=https://s6.mkklcdnv6temp.com/mangakakalot/g2/gokuraku_cafe/vol01_chapter_41/21.jpg",
    "https://img-proxy.imgfo.com/?referer=https://manganelo.com&url=https://s6.mkklcdnv6temp.com/mangakakalot/g2/gokuraku_cafe/vol01_chapter_41/22.jpg",
    "https://img-proxy.imgfo.com/?referer=https://manganelo.com&url=https://s6.mkklcdnv6temp.com/mangakakalot/g2/gokuraku_cafe/vol01_chapter_41/23.jpg",
    "https://img-proxy.imgfo.com/?referer=https://manganelo.com&url=https://s6.mkklcdnv6temp.com/mangakakalot/g2/gokuraku_cafe/vol01_chapter_41/24.jpg",
    "https://img-proxy.imgfo.com/?referer=https://manganelo.com&url=https://s6.mkklcdnv6temp.com/mangakakalot/g2/gokuraku_cafe/vol01_chapter_41/25.jpg",
    "https://img-proxy.imgfo.com/?referer=https://manganelo.com&url=https://s6.mkklcdnv6temp.com/mangakakalot/g2/gokuraku_cafe/vol01_chapter_41/26.jpg",
    "https://img-proxy.imgfo.com/?referer=https://manganelo.com&url=https://s6.mkklcdnv6temp.com/mangakakalot/g2/gokuraku_cafe/vol01_chapter_41/27.jpg",
    "https://img-proxy.imgfo.com/?referer=https://manganelo.com&url=https://s6.mkklcdnv6temp.com/mangakakalot/g2/gokuraku_cafe/vol01_chapter_41/28.jpg",
    "https://img-proxy.imgfo.com/?referer=https://manganelo.com&url=https://s6.mkklcdnv6temp.com/mangakakalot/g2/gokuraku_cafe/vol01_chapter_41/29.jpg",
    "https://img-proxy.imgfo.com/?referer=https://manganelo.com&url=https://s6.mkklcdnv6temp.com/mangakakalot/g2/gokuraku_cafe/vol01_chapter_41/30.jpg",
    "https://img-proxy.imgfo.com/?referer=https://manganelo.com&url=https://s6.mkklcdnv6temp.com/mangakakalot/g2/gokuraku_cafe/vol01_chapter_41/31.jpg",
    "https://img-proxy.imgfo.com/?referer=https://manganelo.com&url=https://s6.mkklcdnv6temp.com/mangakakalot/g2/gokuraku_cafe/vol01_chapter_41/32.jpg",
    "https://img-proxy.imgfo.com/?referer=https://manganelo.com&url=https://s6.mkklcdnv6temp.com/mangakakalot/g2/gokuraku_cafe/vol01_chapter_41/33.jpg"
  ]
}