{
  "cover": "https://avt.mkklcdnv6.com/5/w/4-1583469904.jpg",
  "title": "Can't See Can't Hear But Love",
  "original": "보지 못하고 듣지 못하고 사랑해 ; 보지도 못하고 듣지도 못해도 사랑해 ; Can (Not) See, Can (Not) Hear, But Love You!",
  "genre": "Comedy, Drama, Romance, Slice of life, Tragedy, Webtoons, Manhwa",
  "author": "Nasty Cat",
  "status": "Completed",
  "backlink": "https://manganu.com/collections/nasty-cat/cant-see-cant-hear-but-love/",
  "description": "A love story about a manhwa artist who loses his eyesight due to his job, and a deaf woman who falls in love with the artist's manhwa, and then with the artist himself.",
  "language": "English",
  "images": [
    "https://img-proxy.imgfo.com/?referer=https://manganelo.com&url=https://s3.mkklcdnv6temp.com/mangakakalot/c1/cant_see_cant_hear_but_love/vol1_chapter_54/1.jpg",
    "https://img-proxy.imgfo.com/?referer=https://manganelo.com&url=https://s3.mkklcdnv6temp.com/mangakakalot/c1/cant_see_cant_hear_but_love/vol1_chapter_54/2.jpg",
    "https://img-proxy.imgfo.com/?referer=https://manganelo.com&url=https://s3.mkklcdnv6temp.com/mangakakalot/c1/cant_see_cant_hear_but_love/vol1_chapter_54/3.jpg",
    "https://img-proxy.imgfo.com/?referer=https://manganelo.com&url=https://s3.mkklcdnv6temp.com/mangakakalot/c1/cant_see_cant_hear_but_love/vol1_chapter_54/4.jpg",
    "https://img-proxy.imgfo.com/?referer=https://manganelo.com&url=https://s3.mkklcdnv6temp.com/mangakakalot/c1/cant_see_cant_hear_but_love/vol1_chapter_54/5.jpg",
    "https://img-proxy.imgfo.com/?referer=https://manganelo.com&url=https://s3.mkklcdnv6temp.com/mangakakalot/c1/cant_see_cant_hear_but_love/vol1_chapter_54/6.jpg",
    "https://img-proxy.imgfo.com/?referer=https://manganelo.com&url=https://s3.mkklcdnv6temp.com/mangakakalot/c1/cant_see_cant_hear_but_love/vol1_chapter_54/7.jpg",
    "https://img-proxy.imgfo.com/?referer=https://manganelo.com&url=https://s3.mkklcdnv6temp.com/mangakakalot/c1/cant_see_cant_hear_but_love/vol1_chapter_54/8.jpg",
    "https://img-proxy.imgfo.com/?referer=https://manganelo.com&url=https://s3.mkklcdnv6temp.com/mangakakalot/c1/cant_see_cant_hear_but_love/vol1_chapter_54/9.jpg",
    "https://img-proxy.imgfo.com/?referer=https://manganelo.com&url=https://s3.mkklcdnv6temp.com/mangakakalot/c1/cant_see_cant_hear_but_love/vol1_chapter_54/10.jpg",
    "https://img-proxy.imgfo.com/?referer=https://manganelo.com&url=https://s3.mkklcdnv6temp.com/mangakakalot/c1/cant_see_cant_hear_but_love/vol1_chapter_54/11.jpg",
    "https://img-proxy.imgfo.com/?referer=https://manganelo.com&url=https://s3.mkklcdnv6temp.com/mangakakalot/c1/cant_see_cant_hear_but_love/vol1_chapter_54/12.jpg",
    "https://img-proxy.imgfo.com/?referer=https://manganelo.com&url=https://s3.mkklcdnv6temp.com/mangakakalot/c1/cant_see_cant_hear_but_love/vol1_chapter_54/13.jpg",
    "https://img-proxy.imgfo.com/?referer=https://manganelo.com&url=https://s3.mkklcdnv6temp.com/mangakakalot/c1/cant_see_cant_hear_but_love/vol1_chapter_54/14.jpg",
    "https://img-proxy.imgfo.com/?referer=https://manganelo.com&url=https://s3.mkklcdnv6temp.com/mangakakalot/c1/cant_see_cant_hear_but_love/vol1_chapter_54/15.jpg"
  ]
}