{
  "cover": "https://avt.mkklcdnv6.com/5/h/13-1583487918.jpg",
  "title": "Katsuai (Dakaretai)",
  "original": "渇愛 抱かれたい",
  "genre": "Drama, Oneshot, Romance, School life, Shoujo, Smut, Manga",
  "author": "Kanou Noriko",
  "status": "Completed",
  "backlink": "https://manganu.com/collections/kanou-noriko/katsuai-dakaretai/",
  "description": "1) Katsuai Dakaretai\nMisao has only been going out with Tsukasa for a week, but he's a notorious playboy and she's a virgin. She loves him, but she's nervous about sex...\n2) Rouge Temptation\nChizu is small and boyish looking, and is used to everyone teasing her about it. If only she was a little more sexy, maybe she could get the handsome Miyabi to see her as more than a \"little brother\". But her best friend Ayane wants Chizu to stay the way she is.\n3) Last Romance\nRei and Misaki have been dating for nearly a year, but their relationship has become strained since Misaki job was transferred to another town. After he breaks a much anticipated date with her, Rei gets drunk and wakes up in bed with strange guy! Should she tell Misaki? Is there relationship doomed? Rei is Miyabi's (Rouge Temptation) older sister, and he pops up as a cute kid here.\n4) Second Virgin\nFutaba gave her first time to the sempai she was in love with, only to find out he was playing with her. When she's saved from drowning by the kind Haruka, she's not sure she wants to live. But spending time with Haruka is helping erase the past hurt. Is he as wonderful as he seems?",
  "language": "English",
  "images": [
    "https://img-proxy.imgfo.com/?referer=https://manganelo.com&url=https://s41.mkklcdnv6temp.com/mangakakalot/k1/katsuai_dakaretai/vol1_chapter_1_katsuai_dakaretai/1.jpg",
    "https://img-proxy.imgfo.com/?referer=https://manganelo.com&url=https://s41.mkklcdnv6temp.com/mangakakalot/k1/katsuai_dakaretai/vol1_chapter_1_katsuai_dakaretai/2.jpg",
    "https://img-proxy.imgfo.com/?referer=https://manganelo.com&url=https://s41.mkklcdnv6temp.com/mangakakalot/k1/katsuai_dakaretai/vol1_chapter_1_katsuai_dakaretai/3.jpg",
    "https://img-proxy.imgfo.com/?referer=https://manganelo.com&url=https://s41.mkklcdnv6temp.com/mangakakalot/k1/katsuai_dakaretai/vol1_chapter_1_katsuai_dakaretai/4.jpg",
    "https://img-proxy.imgfo.com/?referer=https://manganelo.com&url=https://s41.mkklcdnv6temp.com/mangakakalot/k1/katsuai_dakaretai/vol1_chapter_1_katsuai_dakaretai/5.jpg",
    "https://img-proxy.imgfo.com/?referer=https://manganelo.com&url=https://s41.mkklcdnv6temp.com/mangakakalot/k1/katsuai_dakaretai/vol1_chapter_1_katsuai_dakaretai/6.jpg",
    "https://img-proxy.imgfo.com/?referer=https://manganelo.com&url=https://s41.mkklcdnv6temp.com/mangakakalot/k1/katsuai_dakaretai/vol1_chapter_1_katsuai_dakaretai/7.jpg",
    "https://img-proxy.imgfo.com/?referer=https://manganelo.com&url=https://s41.mkklcdnv6temp.com/mangakakalot/k1/katsuai_dakaretai/vol1_chapter_1_katsuai_dakaretai/8.jpg",
    "https://img-proxy.imgfo.com/?referer=https://manganelo.com&url=https://s41.mkklcdnv6temp.com/mangakakalot/k1/katsuai_dakaretai/vol1_chapter_1_katsuai_dakaretai/9.jpg",
    "https://img-proxy.imgfo.com/?referer=https://manganelo.com&url=https://s41.mkklcdnv6temp.com/mangakakalot/k1/katsuai_dakaretai/vol1_chapter_1_katsuai_dakaretai/10.jpg",
    "https://img-proxy.imgfo.com/?referer=https://manganelo.com&url=https://s41.mkklcdnv6temp.com/mangakakalot/k1/katsuai_dakaretai/vol1_chapter_1_katsuai_dakaretai/11.jpg",
    "https://img-proxy.imgfo.com/?referer=https://manganelo.com&url=https://s41.mkklcdnv6temp.com/mangakakalot/k1/katsuai_dakaretai/vol1_chapter_1_katsuai_dakaretai/12.jpg",
    "https://img-proxy.imgfo.com/?referer=https://manganelo.com&url=https://s41.mkklcdnv6temp.com/mangakakalot/k1/katsuai_dakaretai/vol1_chapter_1_katsuai_dakaretai/13.jpg",
    "https://img-proxy.imgfo.com/?referer=https://manganelo.com&url=https://s41.mkklcdnv6temp.com/mangakakalot/k1/katsuai_dakaretai/vol1_chapter_1_katsuai_dakaretai/14.jpg",
    "https://img-proxy.imgfo.com/?referer=https://manganelo.com&url=https://s41.mkklcdnv6temp.com/mangakakalot/k1/katsuai_dakaretai/vol1_chapter_1_katsuai_dakaretai/15.jpg",
    "https://img-proxy.imgfo.com/?referer=https://manganelo.com&url=https://s41.mkklcdnv6temp.com/mangakakalot/k1/katsuai_dakaretai/vol1_chapter_1_katsuai_dakaretai/16.jpg",
    "https://img-proxy.imgfo.com/?referer=https://manganelo.com&url=https://s41.mkklcdnv6temp.com/mangakakalot/k1/katsuai_dakaretai/vol1_chapter_1_katsuai_dakaretai/17.jpg",
    "https://img-proxy.imgfo.com/?referer=https://manganelo.com&url=https://s41.mkklcdnv6temp.com/mangakakalot/k1/katsuai_dakaretai/vol1_chapter_1_katsuai_dakaretai/18.jpg",
    "https://img-proxy.imgfo.com/?referer=https://manganelo.com&url=https://s41.mkklcdnv6temp.com/mangakakalot/k1/katsuai_dakaretai/vol1_chapter_1_katsuai_dakaretai/19.jpg",
    "https://img-proxy.imgfo.com/?referer=https://manganelo.com&url=https://s41.mkklcdnv6temp.com/mangakakalot/k1/katsuai_dakaretai/vol1_chapter_1_katsuai_dakaretai/20.jpg",
    "https://img-proxy.imgfo.com/?referer=https://manganelo.com&url=https://s41.mkklcdnv6temp.com/mangakakalot/k1/katsuai_dakaretai/vol1_chapter_1_katsuai_dakaretai/21.jpg",
    "https://img-proxy.imgfo.com/?referer=https://manganelo.com&url=https://s41.mkklcdnv6temp.com/mangakakalot/k1/katsuai_dakaretai/vol1_chapter_1_katsuai_dakaretai/22.jpg",
    "https://img-proxy.imgfo.com/?referer=https://manganelo.com&url=https://s41.mkklcdnv6temp.com/mangakakalot/k1/katsuai_dakaretai/vol1_chapter_1_katsuai_dakaretai/23.jpg",
    "https://img-proxy.imgfo.com/?referer=https://manganelo.com&url=https://s41.mkklcdnv6temp.com/mangakakalot/k1/katsuai_dakaretai/vol1_chapter_1_katsuai_dakaretai/24.jpg",
    "https://img-proxy.imgfo.com/?referer=https://manganelo.com&url=https://s41.mkklcdnv6temp.com/mangakakalot/k1/katsuai_dakaretai/vol1_chapter_1_katsuai_dakaretai/25.jpg",
    "https://img-proxy.imgfo.com/?referer=https://manganelo.com&url=https://s41.mkklcdnv6temp.com/mangakakalot/k1/katsuai_dakaretai/vol1_chapter_1_katsuai_dakaretai/26.jpg",
    "https://img-proxy.imgfo.com/?referer=https://manganelo.com&url=https://s41.mkklcdnv6temp.com/mangakakalot/k1/katsuai_dakaretai/vol1_chapter_1_katsuai_dakaretai/27.jpg",
    "https://img-proxy.imgfo.com/?referer=https://manganelo.com&url=https://s41.mkklcdnv6temp.com/mangakakalot/k1/katsuai_dakaretai/vol1_chapter_1_katsuai_dakaretai/28.jpg",
    "https://img-proxy.imgfo.com/?referer=https://manganelo.com&url=https://s41.mkklcdnv6temp.com/mangakakalot/k1/katsuai_dakaretai/vol1_chapter_1_katsuai_dakaretai/29.jpg",
    "https://img-proxy.imgfo.com/?referer=https://manganelo.com&url=https://s41.mkklcdnv6temp.com/mangakakalot/k1/katsuai_dakaretai/vol1_chapter_1_katsuai_dakaretai/30.jpg",
    "https://img-proxy.imgfo.com/?referer=https://manganelo.com&url=https://s41.mkklcdnv6temp.com/mangakakalot/k1/katsuai_dakaretai/vol1_chapter_1_katsuai_dakaretai/31.jpg",
    "https://img-proxy.imgfo.com/?referer=https://manganelo.com&url=https://s41.mkklcdnv6temp.com/mangakakalot/k1/katsuai_dakaretai/vol1_chapter_1_katsuai_dakaretai/32.jpg",
    "https://img-proxy.imgfo.com/?referer=https://manganelo.com&url=https://s41.mkklcdnv6temp.com/mangakakalot/k1/katsuai_dakaretai/vol1_chapter_1_katsuai_dakaretai/33.jpg",
    "https://img-proxy.imgfo.com/?referer=https://manganelo.com&url=https://s41.mkklcdnv6temp.com/mangakakalot/k1/katsuai_dakaretai/vol1_chapter_1_katsuai_dakaretai/34.jpg",
    "https://img-proxy.imgfo.com/?referer=https://manganelo.com&url=https://s41.mkklcdnv6temp.com/mangakakalot/k1/katsuai_dakaretai/vol1_chapter_1_katsuai_dakaretai/35.jpg",
    "https://img-proxy.imgfo.com/?referer=https://manganelo.com&url=https://s41.mkklcdnv6temp.com/mangakakalot/k1/katsuai_dakaretai/vol1_chapter_1_katsuai_dakaretai/36.jpg",
    "https://img-proxy.imgfo.com/?referer=https://manganelo.com&url=https://s41.mkklcdnv6temp.com/mangakakalot/k1/katsuai_dakaretai/vol1_chapter_1_katsuai_dakaretai/37.jpg",
    "https://img-proxy.imgfo.com/?referer=https://manganelo.com&url=https://s41.mkklcdnv6temp.com/mangakakalot/k1/katsuai_dakaretai/vol1_chapter_1_katsuai_dakaretai/38.jpg",
    "https://img-proxy.imgfo.com/?referer=https://manganelo.com&url=https://s41.mkklcdnv6temp.com/mangakakalot/k1/katsuai_dakaretai/vol1_chapter_1_katsuai_dakaretai/39.jpg",
    "https://img-proxy.imgfo.com/?referer=https://manganelo.com&url=https://s41.mkklcdnv6temp.com/mangakakalot/k1/katsuai_dakaretai/vol1_chapter_1_katsuai_dakaretai/40.jpg",
    "https://img-proxy.imgfo.com/?referer=https://manganelo.com&url=https://s41.mkklcdnv6temp.com/mangakakalot/k1/katsuai_dakaretai/vol1_chapter_1_katsuai_dakaretai/41.jpg",
    "https://img-proxy.imgfo.com/?referer=https://manganelo.com&url=https://s41.mkklcdnv6temp.com/mangakakalot/k1/katsuai_dakaretai/vol1_chapter_1_katsuai_dakaretai/42.jpg",
    "https://img-proxy.imgfo.com/?referer=https://manganelo.com&url=https://s41.mkklcdnv6temp.com/mangakakalot/k1/katsuai_dakaretai/vol1_chapter_1_katsuai_dakaretai/43.jpg",
    "https://img-proxy.imgfo.com/?referer=https://manganelo.com&url=https://s41.mkklcdnv6temp.com/mangakakalot/k1/katsuai_dakaretai/vol1_chapter_1_katsuai_dakaretai/44.jpg",
    "https://img-proxy.imgfo.com/?referer=https://manganelo.com&url=https://s41.mkklcdnv6temp.com/mangakakalot/k1/katsuai_dakaretai/vol1_chapter_1_katsuai_dakaretai/45.jpg",
    "https://img-proxy.imgfo.com/?referer=https://manganelo.com&url=https://s41.mkklcdnv6temp.com/mangakakalot/k1/katsuai_dakaretai/vol1_chapter_1_katsuai_dakaretai/46.jpg",
    "https://img-proxy.imgfo.com/?referer=https://manganelo.com&url=https://s41.mkklcdnv6temp.com/mangakakalot/k1/katsuai_dakaretai/vol1_chapter_1_katsuai_dakaretai/47.jpg",
    "https://img-proxy.imgfo.com/?referer=https://manganelo.com&url=https://s41.mkklcdnv6temp.com/mangakakalot/k1/katsuai_dakaretai/vol1_chapter_1_katsuai_dakaretai/48.jpg",
    "https://img-proxy.imgfo.com/?referer=https://manganelo.com&url=https://s41.mkklcdnv6temp.com/mangakakalot/k1/katsuai_dakaretai/vol1_chapter_1_katsuai_dakaretai/49.jpg",
    "https://img-proxy.imgfo.com/?referer=https://manganelo.com&url=https://s41.mkklcdnv6temp.com/mangakakalot/k1/katsuai_dakaretai/vol1_chapter_1_katsuai_dakaretai/50.jpg",
    "https://img-proxy.imgfo.com/?referer=https://manganelo.com&url=https://s41.mkklcdnv6temp.com/mangakakalot/k1/katsuai_dakaretai/vol1_chapter_1_katsuai_dakaretai/51.jpg",
    "https://img-proxy.imgfo.com/?referer=https://manganelo.com&url=https://s41.mkklcdnv6temp.com/mangakakalot/k1/katsuai_dakaretai/vol1_chapter_1_katsuai_dakaretai/52.jpg",
    "https://img-proxy.imgfo.com/?referer=https://manganelo.com&url=https://s41.mkklcdnv6temp.com/mangakakalot/k1/katsuai_dakaretai/vol1_chapter_1_katsuai_dakaretai/53.jpg",
    "https://img-proxy.imgfo.com/?referer=https://manganelo.com&url=https://s41.mkklcdnv6temp.com/mangakakalot/k1/katsuai_dakaretai/vol1_chapter_1_katsuai_dakaretai/54.jpg"
  ]
}