{
  "cover": "https://avt.mkklcdnv6.com/41/a/6-1583475852.jpg",
  "title": "Blue",
  "original": "ブルー",
  "genre": "Drama, Josei, School life, Shoujo ai, Slice of life, Manga",
  "author": "Nananan Kiriko",
  "status": "Completed",
  "backlink": "https://manganu.com/collections/nananan-kiriko/blue/",
  "description": "Kayako Kirishima who lives in Niigata is almost ready to go off to college but is lonely and unsure of her future. Masami Endo is a girl who has been ostracized and made a social outcast for having an abortion. The two girls meet each other in class one day and become good friends. Gradually Kirishima falls in love with Endo and the relationship becomes more personal.\nFrom Ponent Mon:\nKayako Kirishima and Masami Endô are about to discover that their recent friendship is turning into obsessive love. But when today’s hopes and yesterday’s dreams meet tomorrow’s problems, will they be able to continue? With clear outline and confused feelings, Kiriko Nananan demonstrates that it is possible to make a Blue manga from black and white.",
  "language": "English",
  "images": [
    "https://img-proxy.imgfo.com/?referer=https://manganelo.com&url=https://s41.mkklcdnv6temp.com/mangakakalot/b1/blue/vol1_chapter_5/1.jpg",
    "https://img-proxy.imgfo.com/?referer=https://manganelo.com&url=https://s41.mkklcdnv6temp.com/mangakakalot/b1/blue/vol1_chapter_5/2.jpg",
    "https://img-proxy.imgfo.com/?referer=https://manganelo.com&url=https://s41.mkklcdnv6temp.com/mangakakalot/b1/blue/vol1_chapter_5/3.jpg",
    "https://img-proxy.imgfo.com/?referer=https://manganelo.com&url=https://s41.mkklcdnv6temp.com/mangakakalot/b1/blue/vol1_chapter_5/4.jpg",
    "https://img-proxy.imgfo.com/?referer=https://manganelo.com&url=https://s41.mkklcdnv6temp.com/mangakakalot/b1/blue/vol1_chapter_5/5.jpg",
    "https://img-proxy.imgfo.com/?referer=https://manganelo.com&url=https://s41.mkklcdnv6temp.com/mangakakalot/b1/blue/vol1_chapter_5/6.jpg",
    "https://img-proxy.imgfo.com/?referer=https://manganelo.com&url=https://s41.mkklcdnv6temp.com/mangakakalot/b1/blue/vol1_chapter_5/7.jpg",
    "https://img-proxy.imgfo.com/?referer=https://manganelo.com&url=https://s41.mkklcdnv6temp.com/mangakakalot/b1/blue/vol1_chapter_5/8.jpg",
    "https://img-proxy.imgfo.com/?referer=https://manganelo.com&url=https://s41.mkklcdnv6temp.com/mangakakalot/b1/blue/vol1_chapter_5/9.jpg",
    "https://img-proxy.imgfo.com/?referer=https://manganelo.com&url=https://s41.mkklcdnv6temp.com/mangakakalot/b1/blue/vol1_chapter_5/10.jpg",
    "https://img-proxy.imgfo.com/?referer=https://manganelo.com&url=https://s41.mkklcdnv6temp.com/mangakakalot/b1/blue/vol1_chapter_5/11.jpg",
    "https://img-proxy.imgfo.com/?referer=https://manganelo.com&url=https://s41.mkklcdnv6temp.com/mangakakalot/b1/blue/vol1_chapter_5/12.jpg",
    "https://img-proxy.imgfo.com/?referer=https://manganelo.com&url=https://s41.mkklcdnv6temp.com/mangakakalot/b1/blue/vol1_chapter_5/13.jpg",
    "https://img-proxy.imgfo.com/?referer=https://manganelo.com&url=https://s41.mkklcdnv6temp.com/mangakakalot/b1/blue/vol1_chapter_5/14.jpg",
    "https://img-proxy.imgfo.com/?referer=https://manganelo.com&url=https://s41.mkklcdnv6temp.com/mangakakalot/b1/blue/vol1_chapter_5/15.jpg",
    "https://img-proxy.imgfo.com/?referer=https://manganelo.com&url=https://s41.mkklcdnv6temp.com/mangakakalot/b1/blue/vol1_chapter_5/16.jpg",
    "https://img-proxy.imgfo.com/?referer=https://manganelo.com&url=https://s41.mkklcdnv6temp.com/mangakakalot/b1/blue/vol1_chapter_5/17.jpg",
    "https://img-proxy.imgfo.com/?referer=https://manganelo.com&url=https://s41.mkklcdnv6temp.com/mangakakalot/b1/blue/vol1_chapter_5/18.jpg",
    "https://img-proxy.imgfo.com/?referer=https://manganelo.com&url=https://s41.mkklcdnv6temp.com/mangakakalot/b1/blue/vol1_chapter_5/19.jpg",
    "https://img-proxy.imgfo.com/?referer=https://manganelo.com&url=https://s41.mkklcdnv6temp.com/mangakakalot/b1/blue/vol1_chapter_5/20.jpg",
    "https://img-proxy.imgfo.com/?referer=https://manganelo.com&url=https://s41.mkklcdnv6temp.com/mangakakalot/b1/blue/vol1_chapter_5/21.jpg"
  ]
}