{
  "cover": "https://avt.mkklcdnv6.com/31/a/6-1583475387.jpg",
  "title": "Code Geass - Shikkoku No Renya",
  "original": "コードギアス 漆黒の蓮夜 ; 漆黑的莲夜 ; Code Geass - Renya of the Darkness",
  "genre": "Action, Adventure, Shounen, Supernatural, Manga",
  "author": "Takuma Tomomasa",
  "status": "Completed",
  "backlink": "https://manganu.com/collections/takuma-tomomasa/code-geass-shikkoku-no-renya/",
  "description": "The story takes place in the same official Code Geass history as the anime, but in a different era. The title character, Renya, is a 17-year-old boy with a mechanical left arm and shuriken throwing stars as his weapons of choice. The story begins when Renya encounters a mysterious, perpetually young witch named \"Reifuu C.C.\" C.C. has appeared in Japan's historical Edo era to seek a new partner for a covenant. Meanwhile, a mysterious man, with a striking resemblance to the character Lelouch of the original anime, also appears with unknown intentions.",
  "language": "English",
  "images": [
    "https://img-proxy.imgfo.com/?referer=https://manganelo.com&url=https://s6.mkklcdnv6temp.com/mangakakalot/c2/code_geass_shikkoku_no_renya/vol4_chapter_18_the_invitation_to_tomorrow/1.jpg",
    "https://img-proxy.imgfo.com/?referer=https://manganelo.com&url=https://s6.mkklcdnv6temp.com/mangakakalot/c2/code_geass_shikkoku_no_renya/vol4_chapter_18_the_invitation_to_tomorrow/2.jpg",
    "https://img-proxy.imgfo.com/?referer=https://manganelo.com&url=https://s6.mkklcdnv6temp.com/mangakakalot/c2/code_geass_shikkoku_no_renya/vol4_chapter_18_the_invitation_to_tomorrow/3.jpg",
    "https://img-proxy.imgfo.com/?referer=https://manganelo.com&url=https://s6.mkklcdnv6temp.com/mangakakalot/c2/code_geass_shikkoku_no_renya/vol4_chapter_18_the_invitation_to_tomorrow/4.jpg",
    "https://img-proxy.imgfo.com/?referer=https://manganelo.com&url=https://s6.mkklcdnv6temp.com/mangakakalot/c2/code_geass_shikkoku_no_renya/vol4_chapter_18_the_invitation_to_tomorrow/5.jpg",
    "https://img-proxy.imgfo.com/?referer=https://manganelo.com&url=https://s6.mkklcdnv6temp.com/mangakakalot/c2/code_geass_shikkoku_no_renya/vol4_chapter_18_the_invitation_to_tomorrow/6.jpg",
    "https://img-proxy.imgfo.com/?referer=https://manganelo.com&url=https://s6.mkklcdnv6temp.com/mangakakalot/c2/code_geass_shikkoku_no_renya/vol4_chapter_18_the_invitation_to_tomorrow/7.jpg",
    "https://img-proxy.imgfo.com/?referer=https://manganelo.com&url=https://s6.mkklcdnv6temp.com/mangakakalot/c2/code_geass_shikkoku_no_renya/vol4_chapter_18_the_invitation_to_tomorrow/8.jpg",
    "https://img-proxy.imgfo.com/?referer=https://manganelo.com&url=https://s6.mkklcdnv6temp.com/mangakakalot/c2/code_geass_shikkoku_no_renya/vol4_chapter_18_the_invitation_to_tomorrow/9.jpg",
    "https://img-proxy.imgfo.com/?referer=https://manganelo.com&url=https://s6.mkklcdnv6temp.com/mangakakalot/c2/code_geass_shikkoku_no_renya/vol4_chapter_18_the_invitation_to_tomorrow/10.jpg",
    "https://img-proxy.imgfo.com/?referer=https://manganelo.com&url=https://s6.mkklcdnv6temp.com/mangakakalot/c2/code_geass_shikkoku_no_renya/vol4_chapter_18_the_invitation_to_tomorrow/11.jpg",
    "https://img-proxy.imgfo.com/?referer=https://manganelo.com&url=https://s6.mkklcdnv6temp.com/mangakakalot/c2/code_geass_shikkoku_no_renya/vol4_chapter_18_the_invitation_to_tomorrow/12.jpg",
    "https://img-proxy.imgfo.com/?referer=https://manganelo.com&url=https://s6.mkklcdnv6temp.com/mangakakalot/c2/code_geass_shikkoku_no_renya/vol4_chapter_18_the_invitation_to_tomorrow/13.jpg",
    "https://img-proxy.imgfo.com/?referer=https://manganelo.com&url=https://s6.mkklcdnv6temp.com/mangakakalot/c2/code_geass_shikkoku_no_renya/vol4_chapter_18_the_invitation_to_tomorrow/14.jpg",
    "https://img-proxy.imgfo.com/?referer=https://manganelo.com&url=https://s6.mkklcdnv6temp.com/mangakakalot/c2/code_geass_shikkoku_no_renya/vol4_chapter_18_the_invitation_to_tomorrow/15.jpg",
    "https://img-proxy.imgfo.com/?referer=https://manganelo.com&url=https://s6.mkklcdnv6temp.com/mangakakalot/c2/code_geass_shikkoku_no_renya/vol4_chapter_18_the_invitation_to_tomorrow/16.jpg",
    "https://img-proxy.imgfo.com/?referer=https://manganelo.com&url=https://s6.mkklcdnv6temp.com/mangakakalot/c2/code_geass_shikkoku_no_renya/vol4_chapter_18_the_invitation_to_tomorrow/17.jpg",
    "https://img-proxy.imgfo.com/?referer=https://manganelo.com&url=https://s6.mkklcdnv6temp.com/mangakakalot/c2/code_geass_shikkoku_no_renya/vol4_chapter_18_the_invitation_to_tomorrow/18.jpg",
    "https://img-proxy.imgfo.com/?referer=https://manganelo.com&url=https://s6.mkklcdnv6temp.com/mangakakalot/c2/code_geass_shikkoku_no_renya/vol4_chapter_18_the_invitation_to_tomorrow/19.jpg",
    "https://img-proxy.imgfo.com/?referer=https://manganelo.com&url=https://s6.mkklcdnv6temp.com/mangakakalot/c2/code_geass_shikkoku_no_renya/vol4_chapter_18_the_invitation_to_tomorrow/20.jpg",
    "https://img-proxy.imgfo.com/?referer=https://manganelo.com&url=https://s6.mkklcdnv6temp.com/mangakakalot/c2/code_geass_shikkoku_no_renya/vol4_chapter_18_the_invitation_to_tomorrow/21.jpg",
    "https://img-proxy.imgfo.com/?referer=https://manganelo.com&url=https://s6.mkklcdnv6temp.com/mangakakalot/c2/code_geass_shikkoku_no_renya/vol4_chapter_18_the_invitation_to_tomorrow/22.jpg",
    "https://img-proxy.imgfo.com/?referer=https://manganelo.com&url=https://s6.mkklcdnv6temp.com/mangakakalot/c2/code_geass_shikkoku_no_renya/vol4_chapter_18_the_invitation_to_tomorrow/23.jpg",
    "https://img-proxy.imgfo.com/?referer=https://manganelo.com&url=https://s6.mkklcdnv6temp.com/mangakakalot/c2/code_geass_shikkoku_no_renya/vol4_chapter_18_the_invitation_to_tomorrow/24.jpg",
    "https://img-proxy.imgfo.com/?referer=https://manganelo.com&url=https://s6.mkklcdnv6temp.com/mangakakalot/c2/code_geass_shikkoku_no_renya/vol4_chapter_18_the_invitation_to_tomorrow/25.jpg",
    "https://img-proxy.imgfo.com/?referer=https://manganelo.com&url=https://s6.mkklcdnv6temp.com/mangakakalot/c2/code_geass_shikkoku_no_renya/vol4_chapter_18_the_invitation_to_tomorrow/26.jpg",
    "https://img-proxy.imgfo.com/?referer=https://manganelo.com&url=https://s6.mkklcdnv6temp.com/mangakakalot/c2/code_geass_shikkoku_no_renya/vol4_chapter_18_the_invitation_to_tomorrow/27.jpg",
    "https://img-proxy.imgfo.com/?referer=https://manganelo.com&url=https://s6.mkklcdnv6temp.com/mangakakalot/c2/code_geass_shikkoku_no_renya/vol4_chapter_18_the_invitation_to_tomorrow/28.jpg",
    "https://img-proxy.imgfo.com/?referer=https://manganelo.com&url=https://s6.mkklcdnv6temp.com/mangakakalot/c2/code_geass_shikkoku_no_renya/vol4_chapter_18_the_invitation_to_tomorrow/29.jpg"
  ]
}