{
  "cover": "https://avt.mkklcdnv6.com/9/h/5-1583472224.jpg",
  "title": "Onidere",
  "original": "オニデレ ; 鬼骄 ; Oni Dere",
  "genre": "Action, Comedy, Romance, School life, Shounen, Manga",
  "author": "Crystal Na Yousuke",
  "status": "Completed",
  "backlink": "https://manganu.com/collections/crystal-na-yousuke/onidere/",
  "description": "Tadashi is in his second year of junior high school and is a member of the handicraft club and loves nothing more than knitting. Unfortunately he's in a secret relationship with Saya, the member of a notorious all-girl gang, who says she will kill him and herself if anyone ever finds out about it.",
  "language": "English",
  "images": [
    "https://img-proxy.imgfo.com/?referer=https://manganelo.com&url=https://s6.mkklcdnv6temp.com/mangakakalot/o1/onidere/vol1_chapter_0_miss_match_onidere_oneshot/1.jpg",
    "https://img-proxy.imgfo.com/?referer=https://manganelo.com&url=https://s6.mkklcdnv6temp.com/mangakakalot/o1/onidere/vol1_chapter_0_miss_match_onidere_oneshot/2.jpg",
    "https://img-proxy.imgfo.com/?referer=https://manganelo.com&url=https://s6.mkklcdnv6temp.com/mangakakalot/o1/onidere/vol1_chapter_0_miss_match_onidere_oneshot/3.jpg",
    "https://img-proxy.imgfo.com/?referer=https://manganelo.com&url=https://s6.mkklcdnv6temp.com/mangakakalot/o1/onidere/vol1_chapter_0_miss_match_onidere_oneshot/4.jpg",
    "https://img-proxy.imgfo.com/?referer=https://manganelo.com&url=https://s6.mkklcdnv6temp.com/mangakakalot/o1/onidere/vol1_chapter_0_miss_match_onidere_oneshot/5.jpg",
    "https://img-proxy.imgfo.com/?referer=https://manganelo.com&url=https://s6.mkklcdnv6temp.com/mangakakalot/o1/onidere/vol1_chapter_0_miss_match_onidere_oneshot/6.jpg",
    "https://img-proxy.imgfo.com/?referer=https://manganelo.com&url=https://s6.mkklcdnv6temp.com/mangakakalot/o1/onidere/vol1_chapter_0_miss_match_onidere_oneshot/7.jpg",
    "https://img-proxy.imgfo.com/?referer=https://manganelo.com&url=https://s6.mkklcdnv6temp.com/mangakakalot/o1/onidere/vol1_chapter_0_miss_match_onidere_oneshot/8.jpg",
    "https://img-proxy.imgfo.com/?referer=https://manganelo.com&url=https://s6.mkklcdnv6temp.com/mangakakalot/o1/onidere/vol1_chapter_0_miss_match_onidere_oneshot/9.jpg",
    "https://img-proxy.imgfo.com/?referer=https://manganelo.com&url=https://s6.mkklcdnv6temp.com/mangakakalot/o1/onidere/vol1_chapter_0_miss_match_onidere_oneshot/10.jpg",
    "https://img-proxy.imgfo.com/?referer=https://manganelo.com&url=https://s6.mkklcdnv6temp.com/mangakakalot/o1/onidere/vol1_chapter_0_miss_match_onidere_oneshot/11.jpg",
    "https://img-proxy.imgfo.com/?referer=https://manganelo.com&url=https://s6.mkklcdnv6temp.com/mangakakalot/o1/onidere/vol1_chapter_0_miss_match_onidere_oneshot/12.jpg",
    "https://img-proxy.imgfo.com/?referer=https://manganelo.com&url=https://s6.mkklcdnv6temp.com/mangakakalot/o1/onidere/vol1_chapter_0_miss_match_onidere_oneshot/13.jpg",
    "https://img-proxy.imgfo.com/?referer=https://manganelo.com&url=https://s6.mkklcdnv6temp.com/mangakakalot/o1/onidere/vol1_chapter_0_miss_match_onidere_oneshot/14.jpg",
    "https://img-proxy.imgfo.com/?referer=https://manganelo.com&url=https://s6.mkklcdnv6temp.com/mangakakalot/o1/onidere/vol1_chapter_0_miss_match_onidere_oneshot/15.jpg",
    "https://img-proxy.imgfo.com/?referer=https://manganelo.com&url=https://s6.mkklcdnv6temp.com/mangakakalot/o1/onidere/vol1_chapter_0_miss_match_onidere_oneshot/16.jpg",
    "https://img-proxy.imgfo.com/?referer=https://manganelo.com&url=https://s6.mkklcdnv6temp.com/mangakakalot/o1/onidere/vol1_chapter_0_miss_match_onidere_oneshot/17.jpg"
  ]
}