{
  "cover": "https://avt.mkklcdnv6.com/42/j/5-1583473556.jpg",
  "title": "Jinsei Wa Barairo Da",
  "original": "人生はバラ色だ。 ; 玫瑰人生 ; La Vie en Rose (HASHIDA Yukari) ; La Vien Rose ; Life is Rosy",
  "genre": "Action, Comedy, Drama, Romance, Yaoi, Manga",
  "author": "Hashida Yukari",
  "status": "Completed",
  "backlink": "https://manganu.com/collections/hashida-yukari/jinsei-wa-barairo-da/",
  "description": "From Forever More: After his parents were killed in an accident, Yayoi assumed their hundred-million yen debt. He was being pursued by collectors when a mysterious man, Kazu, appeared before him and offered to take on the debt for him if he would become Kazu&#39;s...",
  "language": "English",
  "images": [
    "https://img-proxy.imgfo.com/?referer=https://manganelo.com&url=https://s3.mkklcdnv6temp.com/mangakakalot/j1/jinsei_wa_barairo_da/vol2_chapter_8/1.jpg",
    "https://img-proxy.imgfo.com/?referer=https://manganelo.com&url=https://s3.mkklcdnv6temp.com/mangakakalot/j1/jinsei_wa_barairo_da/vol2_chapter_8/2.jpg",
    "https://img-proxy.imgfo.com/?referer=https://manganelo.com&url=https://s3.mkklcdnv6temp.com/mangakakalot/j1/jinsei_wa_barairo_da/vol2_chapter_8/3.jpg",
    "https://img-proxy.imgfo.com/?referer=https://manganelo.com&url=https://s3.mkklcdnv6temp.com/mangakakalot/j1/jinsei_wa_barairo_da/vol2_chapter_8/4.jpg",
    "https://img-proxy.imgfo.com/?referer=https://manganelo.com&url=https://s3.mkklcdnv6temp.com/mangakakalot/j1/jinsei_wa_barairo_da/vol2_chapter_8/5.jpg",
    "https://img-proxy.imgfo.com/?referer=https://manganelo.com&url=https://s3.mkklcdnv6temp.com/mangakakalot/j1/jinsei_wa_barairo_da/vol2_chapter_8/6.jpg",
    "https://img-proxy.imgfo.com/?referer=https://manganelo.com&url=https://s3.mkklcdnv6temp.com/mangakakalot/j1/jinsei_wa_barairo_da/vol2_chapter_8/7.jpg",
    "https://img-proxy.imgfo.com/?referer=https://manganelo.com&url=https://s3.mkklcdnv6temp.com/mangakakalot/j1/jinsei_wa_barairo_da/vol2_chapter_8/8.jpg",
    "https://img-proxy.imgfo.com/?referer=https://manganelo.com&url=https://s3.mkklcdnv6temp.com/mangakakalot/j1/jinsei_wa_barairo_da/vol2_chapter_8/9.jpg",
    "https://img-proxy.imgfo.com/?referer=https://manganelo.com&url=https://s3.mkklcdnv6temp.com/mangakakalot/j1/jinsei_wa_barairo_da/vol2_chapter_8/10.jpg",
    "https://img-proxy.imgfo.com/?referer=https://manganelo.com&url=https://s3.mkklcdnv6temp.com/mangakakalot/j1/jinsei_wa_barairo_da/vol2_chapter_8/11.jpg",
    "https://img-proxy.imgfo.com/?referer=https://manganelo.com&url=https://s3.mkklcdnv6temp.com/mangakakalot/j1/jinsei_wa_barairo_da/vol2_chapter_8/12.jpg",
    "https://img-proxy.imgfo.com/?referer=https://manganelo.com&url=https://s3.mkklcdnv6temp.com/mangakakalot/j1/jinsei_wa_barairo_da/vol2_chapter_8/13.jpg",
    "https://img-proxy.imgfo.com/?referer=https://manganelo.com&url=https://s3.mkklcdnv6temp.com/mangakakalot/j1/jinsei_wa_barairo_da/vol2_chapter_8/14.jpg",
    "https://img-proxy.imgfo.com/?referer=https://manganelo.com&url=https://s3.mkklcdnv6temp.com/mangakakalot/j1/jinsei_wa_barairo_da/vol2_chapter_8/15.jpg",
    "https://img-proxy.imgfo.com/?referer=https://manganelo.com&url=https://s3.mkklcdnv6temp.com/mangakakalot/j1/jinsei_wa_barairo_da/vol2_chapter_8/16.jpg",
    "https://img-proxy.imgfo.com/?referer=https://manganelo.com&url=https://s3.mkklcdnv6temp.com/mangakakalot/j1/jinsei_wa_barairo_da/vol2_chapter_8/17.jpg",
    "https://img-proxy.imgfo.com/?referer=https://manganelo.com&url=https://s3.mkklcdnv6temp.com/mangakakalot/j1/jinsei_wa_barairo_da/vol2_chapter_8/18.jpg",
    "https://img-proxy.imgfo.com/?referer=https://manganelo.com&url=https://s3.mkklcdnv6temp.com/mangakakalot/j1/jinsei_wa_barairo_da/vol2_chapter_8/19.jpg",
    "https://img-proxy.imgfo.com/?referer=https://manganelo.com&url=https://s3.mkklcdnv6temp.com/mangakakalot/j1/jinsei_wa_barairo_da/vol2_chapter_8/20.jpg",
    "https://img-proxy.imgfo.com/?referer=https://manganelo.com&url=https://s3.mkklcdnv6temp.com/mangakakalot/j1/jinsei_wa_barairo_da/vol2_chapter_8/21.jpg",
    "https://img-proxy.imgfo.com/?referer=https://manganelo.com&url=https://s3.mkklcdnv6temp.com/mangakakalot/j1/jinsei_wa_barairo_da/vol2_chapter_8/22.jpg",
    "https://img-proxy.imgfo.com/?referer=https://manganelo.com&url=https://s3.mkklcdnv6temp.com/mangakakalot/j1/jinsei_wa_barairo_da/vol2_chapter_8/23.jpg",
    "https://img-proxy.imgfo.com/?referer=https://manganelo.com&url=https://s3.mkklcdnv6temp.com/mangakakalot/j1/jinsei_wa_barairo_da/vol2_chapter_8/24.jpg",
    "https://img-proxy.imgfo.com/?referer=https://manganelo.com&url=https://s3.mkklcdnv6temp.com/mangakakalot/j1/jinsei_wa_barairo_da/vol2_chapter_8/25.jpg",
    "https://img-proxy.imgfo.com/?referer=https://manganelo.com&url=https://s3.mkklcdnv6temp.com/mangakakalot/j1/jinsei_wa_barairo_da/vol2_chapter_8/26.jpg",
    "https://img-proxy.imgfo.com/?referer=https://manganelo.com&url=https://s3.mkklcdnv6temp.com/mangakakalot/j1/jinsei_wa_barairo_da/vol2_chapter_8/27.jpg",
    "https://img-proxy.imgfo.com/?referer=https://manganelo.com&url=https://s3.mkklcdnv6temp.com/mangakakalot/j1/jinsei_wa_barairo_da/vol2_chapter_8/28.jpg",
    "https://img-proxy.imgfo.com/?referer=https://manganelo.com&url=https://s3.mkklcdnv6temp.com/mangakakalot/j1/jinsei_wa_barairo_da/vol2_chapter_8/29.jpg",
    "https://img-proxy.imgfo.com/?referer=https://manganelo.com&url=https://s3.mkklcdnv6temp.com/mangakakalot/j1/jinsei_wa_barairo_da/vol2_chapter_8/30.jpg",
    "https://img-proxy.imgfo.com/?referer=https://manganelo.com&url=https://s3.mkklcdnv6temp.com/mangakakalot/j1/jinsei_wa_barairo_da/vol2_chapter_8/31.jpg",
    "https://img-proxy.imgfo.com/?referer=https://manganelo.com&url=https://s3.mkklcdnv6temp.com/mangakakalot/j1/jinsei_wa_barairo_da/vol2_chapter_8/32.jpg",
    "https://img-proxy.imgfo.com/?referer=https://manganelo.com&url=https://s3.mkklcdnv6temp.com/mangakakalot/j1/jinsei_wa_barairo_da/vol2_chapter_8/33.jpg",
    "https://img-proxy.imgfo.com/?referer=https://manganelo.com&url=https://s3.mkklcdnv6temp.com/mangakakalot/j1/jinsei_wa_barairo_da/vol2_chapter_8/34.jpg",
    "https://img-proxy.imgfo.com/?referer=https://manganelo.com&url=https://s3.mkklcdnv6temp.com/mangakakalot/j1/jinsei_wa_barairo_da/vol2_chapter_8/35.jpg",
    "https://img-proxy.imgfo.com/?referer=https://manganelo.com&url=https://s3.mkklcdnv6temp.com/mangakakalot/j1/jinsei_wa_barairo_da/vol2_chapter_8/36.jpg",
    "https://img-proxy.imgfo.com/?referer=https://manganelo.com&url=https://s3.mkklcdnv6temp.com/mangakakalot/j1/jinsei_wa_barairo_da/vol2_chapter_8/37.jpg",
    "https://img-proxy.imgfo.com/?referer=https://manganelo.com&url=https://s3.mkklcdnv6temp.com/mangakakalot/j1/jinsei_wa_barairo_da/vol2_chapter_8/38.jpg",
    "https://img-proxy.imgfo.com/?referer=https://manganelo.com&url=https://s3.mkklcdnv6temp.com/mangakakalot/j1/jinsei_wa_barairo_da/vol2_chapter_8/39.jpg",
    "https://img-proxy.imgfo.com/?referer=https://manganelo.com&url=https://s3.mkklcdnv6temp.com/mangakakalot/j1/jinsei_wa_barairo_da/vol2_chapter_8/40.jpg",
    "https://img-proxy.imgfo.com/?referer=https://manganelo.com&url=https://s3.mkklcdnv6temp.com/mangakakalot/j1/jinsei_wa_barairo_da/vol2_chapter_8/41.jpg",
    "https://img-proxy.imgfo.com/?referer=https://manganelo.com&url=https://s3.mkklcdnv6temp.com/mangakakalot/j1/jinsei_wa_barairo_da/vol2_chapter_8/42.jpg",
    "https://img-proxy.imgfo.com/?referer=https://manganelo.com&url=https://s3.mkklcdnv6temp.com/mangakakalot/j1/jinsei_wa_barairo_da/vol2_chapter_8/43.jpg"
  ]
}