{
  "cover": "https://avt.mkklcdnv6.com/15/s/13-1583488320.jpg",
  "title": "Hitsuji No Uta",
  "original": "羊のうた",
  "genre": "Drama, Horror, Mature, Psychological, Seinen, Supernatural, Tragedy, Manga",
  "author": "Toume Kei",
  "status": "Completed",
  "backlink": "https://manganu.com/collections/toume-kei/hitsuji-no-uta/",
  "description": "This is about two siblings with the vampire-like tendency for blood, and at first share the same home alone till their caring aunt decides to move in with her husband to care for them, however their normal life is going to get far crazier as a doctor and other characters become involved in the plot.\nFrom Tokyopop:\nThe members of the Takashiro family share a terrible curse: only human blood can slake their thirst. Sent away after the death of his mother, Kuzuna Takashiro remained blissfully unaware of his 'condition.' When Kazuna's teenage hormones begin to rage, his uncontrollable bloodlust suddenly rears its head...",
  "language": "English",
  "images": [
    "https://img-proxy.imgfo.com/?referer=https://manganelo.com&url=https://s3.mkklcdnv6temp.com/mangakakalot/h1/hitsuji_no_uta/vol6_chapter_40/1.jpg",
    "https://img-proxy.imgfo.com/?referer=https://manganelo.com&url=https://s3.mkklcdnv6temp.com/mangakakalot/h1/hitsuji_no_uta/vol6_chapter_40/2.jpg",
    "https://img-proxy.imgfo.com/?referer=https://manganelo.com&url=https://s3.mkklcdnv6temp.com/mangakakalot/h1/hitsuji_no_uta/vol6_chapter_40/3.jpg",
    "https://img-proxy.imgfo.com/?referer=https://manganelo.com&url=https://s3.mkklcdnv6temp.com/mangakakalot/h1/hitsuji_no_uta/vol6_chapter_40/4.jpg",
    "https://img-proxy.imgfo.com/?referer=https://manganelo.com&url=https://s3.mkklcdnv6temp.com/mangakakalot/h1/hitsuji_no_uta/vol6_chapter_40/5.jpg",
    "https://img-proxy.imgfo.com/?referer=https://manganelo.com&url=https://s3.mkklcdnv6temp.com/mangakakalot/h1/hitsuji_no_uta/vol6_chapter_40/6.jpg",
    "https://img-proxy.imgfo.com/?referer=https://manganelo.com&url=https://s3.mkklcdnv6temp.com/mangakakalot/h1/hitsuji_no_uta/vol6_chapter_40/7.jpg",
    "https://img-proxy.imgfo.com/?referer=https://manganelo.com&url=https://s3.mkklcdnv6temp.com/mangakakalot/h1/hitsuji_no_uta/vol6_chapter_40/8.jpg",
    "https://img-proxy.imgfo.com/?referer=https://manganelo.com&url=https://s3.mkklcdnv6temp.com/mangakakalot/h1/hitsuji_no_uta/vol6_chapter_40/9.jpg",
    "https://img-proxy.imgfo.com/?referer=https://manganelo.com&url=https://s3.mkklcdnv6temp.com/mangakakalot/h1/hitsuji_no_uta/vol6_chapter_40/10.jpg",
    "https://img-proxy.imgfo.com/?referer=https://manganelo.com&url=https://s3.mkklcdnv6temp.com/mangakakalot/h1/hitsuji_no_uta/vol6_chapter_40/11.jpg",
    "https://img-proxy.imgfo.com/?referer=https://manganelo.com&url=https://s3.mkklcdnv6temp.com/mangakakalot/h1/hitsuji_no_uta/vol6_chapter_40/12.jpg",
    "https://img-proxy.imgfo.com/?referer=https://manganelo.com&url=https://s3.mkklcdnv6temp.com/mangakakalot/h1/hitsuji_no_uta/vol6_chapter_40/13.jpg",
    "https://img-proxy.imgfo.com/?referer=https://manganelo.com&url=https://s3.mkklcdnv6temp.com/mangakakalot/h1/hitsuji_no_uta/vol6_chapter_40/14.jpg",
    "https://img-proxy.imgfo.com/?referer=https://manganelo.com&url=https://s3.mkklcdnv6temp.com/mangakakalot/h1/hitsuji_no_uta/vol6_chapter_40/15.jpg",
    "https://img-proxy.imgfo.com/?referer=https://manganelo.com&url=https://s3.mkklcdnv6temp.com/mangakakalot/h1/hitsuji_no_uta/vol6_chapter_40/16.jpg",
    "https://img-proxy.imgfo.com/?referer=https://manganelo.com&url=https://s3.mkklcdnv6temp.com/mangakakalot/h1/hitsuji_no_uta/vol6_chapter_40/17.jpg",
    "https://img-proxy.imgfo.com/?referer=https://manganelo.com&url=https://s3.mkklcdnv6temp.com/mangakakalot/h1/hitsuji_no_uta/vol6_chapter_40/18.jpg",
    "https://img-proxy.imgfo.com/?referer=https://manganelo.com&url=https://s3.mkklcdnv6temp.com/mangakakalot/h1/hitsuji_no_uta/vol6_chapter_40/19.jpg",
    "https://img-proxy.imgfo.com/?referer=https://manganelo.com&url=https://s3.mkklcdnv6temp.com/mangakakalot/h1/hitsuji_no_uta/vol6_chapter_40/20.jpg",
    "https://img-proxy.imgfo.com/?referer=https://manganelo.com&url=https://s3.mkklcdnv6temp.com/mangakakalot/h1/hitsuji_no_uta/vol6_chapter_40/21.jpg",
    "https://img-proxy.imgfo.com/?referer=https://manganelo.com&url=https://s3.mkklcdnv6temp.com/mangakakalot/h1/hitsuji_no_uta/vol6_chapter_40/22.jpg",
    "https://img-proxy.imgfo.com/?referer=https://manganelo.com&url=https://s3.mkklcdnv6temp.com/mangakakalot/h1/hitsuji_no_uta/vol6_chapter_40/23.jpg",
    "https://img-proxy.imgfo.com/?referer=https://manganelo.com&url=https://s3.mkklcdnv6temp.com/mangakakalot/h1/hitsuji_no_uta/vol6_chapter_40/24.jpg",
    "https://img-proxy.imgfo.com/?referer=https://manganelo.com&url=https://s3.mkklcdnv6temp.com/mangakakalot/h1/hitsuji_no_uta/vol6_chapter_40/25.jpg",
    "https://img-proxy.imgfo.com/?referer=https://manganelo.com&url=https://s3.mkklcdnv6temp.com/mangakakalot/h1/hitsuji_no_uta/vol6_chapter_40/26.jpg",
    "https://img-proxy.imgfo.com/?referer=https://manganelo.com&url=https://s3.mkklcdnv6temp.com/mangakakalot/h1/hitsuji_no_uta/vol6_chapter_40/27.jpg",
    "https://img-proxy.imgfo.com/?referer=https://manganelo.com&url=https://s3.mkklcdnv6temp.com/mangakakalot/h1/hitsuji_no_uta/vol6_chapter_40/28.jpg",
    "https://img-proxy.imgfo.com/?referer=https://manganelo.com&url=https://s3.mkklcdnv6temp.com/mangakakalot/h1/hitsuji_no_uta/vol6_chapter_40/29.jpg",
    "https://img-proxy.imgfo.com/?referer=https://manganelo.com&url=https://s3.mkklcdnv6temp.com/mangakakalot/h1/hitsuji_no_uta/vol6_chapter_40/30.jpg",
    "https://img-proxy.imgfo.com/?referer=https://manganelo.com&url=https://s3.mkklcdnv6temp.com/mangakakalot/h1/hitsuji_no_uta/vol6_chapter_40/31.jpg",
    "https://img-proxy.imgfo.com/?referer=https://manganelo.com&url=https://s3.mkklcdnv6temp.com/mangakakalot/h1/hitsuji_no_uta/vol6_chapter_40/32.jpg",
    "https://img-proxy.imgfo.com/?referer=https://manganelo.com&url=https://s3.mkklcdnv6temp.com/mangakakalot/h1/hitsuji_no_uta/vol6_chapter_40/33.jpg",
    "https://img-proxy.imgfo.com/?referer=https://manganelo.com&url=https://s3.mkklcdnv6temp.com/mangakakalot/h1/hitsuji_no_uta/vol6_chapter_40/34.jpg",
    "https://img-proxy.imgfo.com/?referer=https://manganelo.com&url=https://s3.mkklcdnv6temp.com/mangakakalot/h1/hitsuji_no_uta/vol6_chapter_40/35.jpg",
    "https://img-proxy.imgfo.com/?referer=https://manganelo.com&url=https://s3.mkklcdnv6temp.com/mangakakalot/h1/hitsuji_no_uta/vol6_chapter_40/36.jpg",
    "https://img-proxy.imgfo.com/?referer=https://manganelo.com&url=https://s3.mkklcdnv6temp.com/mangakakalot/h1/hitsuji_no_uta/vol6_chapter_40/37.jpg",
    "https://img-proxy.imgfo.com/?referer=https://manganelo.com&url=https://s3.mkklcdnv6temp.com/mangakakalot/h1/hitsuji_no_uta/vol6_chapter_40/38.jpg"
  ]
}