{
  "cover": "https://avt.mkklcdnv6.com/8/g/13-1583488044.jpg",
  "title": "Juukei Hanazono",
  "original": "重慶花園 ; Chungking Garden",
  "genre": "Action, Drama, Yaoi, Manga",
  "author": "Ichiju Yuko",
  "status": "Completed",
  "backlink": "https://manganu.com/collections/ichiju-yuko/juukei-hanazono/",
  "description": "From Boys On Boys Love:\nHaruhiko's older brother Seiichi suddenly stops sending letters in the middle of investigating the mysterious organization called PARK. Haruhiko crosses over to Hong Kong to pursue the whereabouts of his brother and encounters detective Kuwan who continues to investigate PARK. Kuwan comforts Haruhiko who is shaken with anxiety and loneliness and vows to protect Haruhiko with all of his power. But, because of his good looks, Haruhiko gets captured as a pet of PARK...!?",
  "language": "English",
  "images": [
    "https://img-proxy.imgfo.com/?referer=https://manganelo.com&url=https://s6.mkklcdnv6temp.com/mangakakalot/j2/juukei_hanazono/vol1_chapter_2/1.jpg",
    "https://img-proxy.imgfo.com/?referer=https://manganelo.com&url=https://s6.mkklcdnv6temp.com/mangakakalot/j2/juukei_hanazono/vol1_chapter_2/2.jpg",
    "https://img-proxy.imgfo.com/?referer=https://manganelo.com&url=https://s6.mkklcdnv6temp.com/mangakakalot/j2/juukei_hanazono/vol1_chapter_2/3.jpg",
    "https://img-proxy.imgfo.com/?referer=https://manganelo.com&url=https://s6.mkklcdnv6temp.com/mangakakalot/j2/juukei_hanazono/vol1_chapter_2/4.jpg",
    "https://img-proxy.imgfo.com/?referer=https://manganelo.com&url=https://s6.mkklcdnv6temp.com/mangakakalot/j2/juukei_hanazono/vol1_chapter_2/5.jpg",
    "https://img-proxy.imgfo.com/?referer=https://manganelo.com&url=https://s6.mkklcdnv6temp.com/mangakakalot/j2/juukei_hanazono/vol1_chapter_2/6.jpg",
    "https://img-proxy.imgfo.com/?referer=https://manganelo.com&url=https://s6.mkklcdnv6temp.com/mangakakalot/j2/juukei_hanazono/vol1_chapter_2/7.jpg",
    "https://img-proxy.imgfo.com/?referer=https://manganelo.com&url=https://s6.mkklcdnv6temp.com/mangakakalot/j2/juukei_hanazono/vol1_chapter_2/8.jpg",
    "https://img-proxy.imgfo.com/?referer=https://manganelo.com&url=https://s6.mkklcdnv6temp.com/mangakakalot/j2/juukei_hanazono/vol1_chapter_2/9.jpg",
    "https://img-proxy.imgfo.com/?referer=https://manganelo.com&url=https://s6.mkklcdnv6temp.com/mangakakalot/j2/juukei_hanazono/vol1_chapter_2/10.jpg",
    "https://img-proxy.imgfo.com/?referer=https://manganelo.com&url=https://s6.mkklcdnv6temp.com/mangakakalot/j2/juukei_hanazono/vol1_chapter_2/11.jpg",
    "https://img-proxy.imgfo.com/?referer=https://manganelo.com&url=https://s6.mkklcdnv6temp.com/mangakakalot/j2/juukei_hanazono/vol1_chapter_2/12.jpg",
    "https://img-proxy.imgfo.com/?referer=https://manganelo.com&url=https://s6.mkklcdnv6temp.com/mangakakalot/j2/juukei_hanazono/vol1_chapter_2/13.jpg",
    "https://img-proxy.imgfo.com/?referer=https://manganelo.com&url=https://s6.mkklcdnv6temp.com/mangakakalot/j2/juukei_hanazono/vol1_chapter_2/14.jpg",
    "https://img-proxy.imgfo.com/?referer=https://manganelo.com&url=https://s6.mkklcdnv6temp.com/mangakakalot/j2/juukei_hanazono/vol1_chapter_2/15.jpg",
    "https://img-proxy.imgfo.com/?referer=https://manganelo.com&url=https://s6.mkklcdnv6temp.com/mangakakalot/j2/juukei_hanazono/vol1_chapter_2/16.jpg",
    "https://img-proxy.imgfo.com/?referer=https://manganelo.com&url=https://s6.mkklcdnv6temp.com/mangakakalot/j2/juukei_hanazono/vol1_chapter_2/17.jpg",
    "https://img-proxy.imgfo.com/?referer=https://manganelo.com&url=https://s6.mkklcdnv6temp.com/mangakakalot/j2/juukei_hanazono/vol1_chapter_2/18.jpg",
    "https://img-proxy.imgfo.com/?referer=https://manganelo.com&url=https://s6.mkklcdnv6temp.com/mangakakalot/j2/juukei_hanazono/vol1_chapter_2/19.jpg",
    "https://img-proxy.imgfo.com/?referer=https://manganelo.com&url=https://s6.mkklcdnv6temp.com/mangakakalot/j2/juukei_hanazono/vol1_chapter_2/20.jpg",
    "https://img-proxy.imgfo.com/?referer=https://manganelo.com&url=https://s6.mkklcdnv6temp.com/mangakakalot/j2/juukei_hanazono/vol1_chapter_2/21.jpg",
    "https://img-proxy.imgfo.com/?referer=https://manganelo.com&url=https://s6.mkklcdnv6temp.com/mangakakalot/j2/juukei_hanazono/vol1_chapter_2/22.jpg",
    "https://img-proxy.imgfo.com/?referer=https://manganelo.com&url=https://s6.mkklcdnv6temp.com/mangakakalot/j2/juukei_hanazono/vol1_chapter_2/23.jpg",
    "https://img-proxy.imgfo.com/?referer=https://manganelo.com&url=https://s6.mkklcdnv6temp.com/mangakakalot/j2/juukei_hanazono/vol1_chapter_2/24.jpg",
    "https://img-proxy.imgfo.com/?referer=https://manganelo.com&url=https://s6.mkklcdnv6temp.com/mangakakalot/j2/juukei_hanazono/vol1_chapter_2/25.jpg",
    "https://img-proxy.imgfo.com/?referer=https://manganelo.com&url=https://s6.mkklcdnv6temp.com/mangakakalot/j2/juukei_hanazono/vol1_chapter_2/26.jpg",
    "https://img-proxy.imgfo.com/?referer=https://manganelo.com&url=https://s6.mkklcdnv6temp.com/mangakakalot/j2/juukei_hanazono/vol1_chapter_2/27.jpg",
    "https://img-proxy.imgfo.com/?referer=https://manganelo.com&url=https://s6.mkklcdnv6temp.com/mangakakalot/j2/juukei_hanazono/vol1_chapter_2/28.jpg",
    "https://img-proxy.imgfo.com/?referer=https://manganelo.com&url=https://s6.mkklcdnv6temp.com/mangakakalot/j2/juukei_hanazono/vol1_chapter_2/29.jpg",
    "https://img-proxy.imgfo.com/?referer=https://manganelo.com&url=https://s6.mkklcdnv6temp.com/mangakakalot/j2/juukei_hanazono/vol1_chapter_2/30.jpg",
    "https://img-proxy.imgfo.com/?referer=https://manganelo.com&url=https://s6.mkklcdnv6temp.com/mangakakalot/j2/juukei_hanazono/vol1_chapter_2/31.jpg",
    "https://img-proxy.imgfo.com/?referer=https://manganelo.com&url=https://s6.mkklcdnv6temp.com/mangakakalot/j2/juukei_hanazono/vol1_chapter_2/32.jpg",
    "https://img-proxy.imgfo.com/?referer=https://manganelo.com&url=https://s6.mkklcdnv6temp.com/mangakakalot/j2/juukei_hanazono/vol1_chapter_2/33.jpg",
    "https://img-proxy.imgfo.com/?referer=https://manganelo.com&url=https://s6.mkklcdnv6temp.com/mangakakalot/j2/juukei_hanazono/vol1_chapter_2/34.jpg",
    "https://img-proxy.imgfo.com/?referer=https://manganelo.com&url=https://s6.mkklcdnv6temp.com/mangakakalot/j2/juukei_hanazono/vol1_chapter_2/35.jpg",
    "https://img-proxy.imgfo.com/?referer=https://manganelo.com&url=https://s6.mkklcdnv6temp.com/mangakakalot/j2/juukei_hanazono/vol1_chapter_2/36.jpg",
    "https://img-proxy.imgfo.com/?referer=https://manganelo.com&url=https://s6.mkklcdnv6temp.com/mangakakalot/j2/juukei_hanazono/vol1_chapter_2/37.jpg",
    "https://img-proxy.imgfo.com/?referer=https://manganelo.com&url=https://s6.mkklcdnv6temp.com/mangakakalot/j2/juukei_hanazono/vol1_chapter_2/38.jpg",
    "https://img-proxy.imgfo.com/?referer=https://manganelo.com&url=https://s6.mkklcdnv6temp.com/mangakakalot/j2/juukei_hanazono/vol1_chapter_2/39.jpg",
    "https://img-proxy.imgfo.com/?referer=https://manganelo.com&url=https://s6.mkklcdnv6temp.com/mangakakalot/j2/juukei_hanazono/vol1_chapter_2/40.jpg",
    "https://img-proxy.imgfo.com/?referer=https://manganelo.com&url=https://s6.mkklcdnv6temp.com/mangakakalot/j2/juukei_hanazono/vol1_chapter_2/41.jpg",
    "https://img-proxy.imgfo.com/?referer=https://manganelo.com&url=https://s6.mkklcdnv6temp.com/mangakakalot/j2/juukei_hanazono/vol1_chapter_2/42.jpg",
    "https://img-proxy.imgfo.com/?referer=https://manganelo.com&url=https://s6.mkklcdnv6temp.com/mangakakalot/j2/juukei_hanazono/vol1_chapter_2/43.jpg",
    "https://img-proxy.imgfo.com/?referer=https://manganelo.com&url=https://s6.mkklcdnv6temp.com/mangakakalot/j2/juukei_hanazono/vol1_chapter_2/44.jpg",
    "https://img-proxy.imgfo.com/?referer=https://manganelo.com&url=https://s6.mkklcdnv6temp.com/mangakakalot/j2/juukei_hanazono/vol1_chapter_2/45.jpg"
  ]
}