{
  "cover": "https://avt.mkklcdnv6.com/31/i/10-1583483300.jpg",
  "title": "Ookami Nante Kowakunai!!",
  "original": "狼なんて怖くない！！ ; I'm not afraid of the wolf!",
  "genre": "Shounen, Supernatural, Manga",
  "author": "Togashi Yoshihiro",
  "status": "Completed",
  "backlink": "https://manganu.com/collections/togashi-yoshihiro/ookami-nante-kowakunai/",
  "description": "A collection of six stories.\nI. I'm Not Afraid of the Wolf!.\nII. Occult Detective Group - Part 1.\nIII. Occult Detective Group - Part 2.\nIV. Horror Angel.\nV. Tonda Birthday Present.\nVI. Ookami Nante Kowakunai!!.",
  "language": "English",
  "images": [
    "https://img-proxy.imgfo.com/?referer=https://manganelo.com&url=https://s41.mkklcdnv6temp.com/mangakakalot/o2/ookami_nante_kowakunai/vol1_chapter_6_ookami_nante_kowakunai/1.jpg",
    "https://img-proxy.imgfo.com/?referer=https://manganelo.com&url=https://s41.mkklcdnv6temp.com/mangakakalot/o2/ookami_nante_kowakunai/vol1_chapter_6_ookami_nante_kowakunai/2.jpg",
    "https://img-proxy.imgfo.com/?referer=https://manganelo.com&url=https://s41.mkklcdnv6temp.com/mangakakalot/o2/ookami_nante_kowakunai/vol1_chapter_6_ookami_nante_kowakunai/3.jpg",
    "https://img-proxy.imgfo.com/?referer=https://manganelo.com&url=https://s41.mkklcdnv6temp.com/mangakakalot/o2/ookami_nante_kowakunai/vol1_chapter_6_ookami_nante_kowakunai/4.jpg",
    "https://img-proxy.imgfo.com/?referer=https://manganelo.com&url=https://s41.mkklcdnv6temp.com/mangakakalot/o2/ookami_nante_kowakunai/vol1_chapter_6_ookami_nante_kowakunai/5.jpg",
    "https://img-proxy.imgfo.com/?referer=https://manganelo.com&url=https://s41.mkklcdnv6temp.com/mangakakalot/o2/ookami_nante_kowakunai/vol1_chapter_6_ookami_nante_kowakunai/6.jpg",
    "https://img-proxy.imgfo.com/?referer=https://manganelo.com&url=https://s41.mkklcdnv6temp.com/mangakakalot/o2/ookami_nante_kowakunai/vol1_chapter_6_ookami_nante_kowakunai/7.jpg",
    "https://img-proxy.imgfo.com/?referer=https://manganelo.com&url=https://s41.mkklcdnv6temp.com/mangakakalot/o2/ookami_nante_kowakunai/vol1_chapter_6_ookami_nante_kowakunai/8.jpg",
    "https://img-proxy.imgfo.com/?referer=https://manganelo.com&url=https://s41.mkklcdnv6temp.com/mangakakalot/o2/ookami_nante_kowakunai/vol1_chapter_6_ookami_nante_kowakunai/9.jpg",
    "https://img-proxy.imgfo.com/?referer=https://manganelo.com&url=https://s41.mkklcdnv6temp.com/mangakakalot/o2/ookami_nante_kowakunai/vol1_chapter_6_ookami_nante_kowakunai/10.jpg",
    "https://img-proxy.imgfo.com/?referer=https://manganelo.com&url=https://s41.mkklcdnv6temp.com/mangakakalot/o2/ookami_nante_kowakunai/vol1_chapter_6_ookami_nante_kowakunai/11.jpg",
    "https://img-proxy.imgfo.com/?referer=https://manganelo.com&url=https://s41.mkklcdnv6temp.com/mangakakalot/o2/ookami_nante_kowakunai/vol1_chapter_6_ookami_nante_kowakunai/12.jpg",
    "https://img-proxy.imgfo.com/?referer=https://manganelo.com&url=https://s41.mkklcdnv6temp.com/mangakakalot/o2/ookami_nante_kowakunai/vol1_chapter_6_ookami_nante_kowakunai/13.jpg",
    "https://img-proxy.imgfo.com/?referer=https://manganelo.com&url=https://s41.mkklcdnv6temp.com/mangakakalot/o2/ookami_nante_kowakunai/vol1_chapter_6_ookami_nante_kowakunai/14.jpg",
    "https://img-proxy.imgfo.com/?referer=https://manganelo.com&url=https://s41.mkklcdnv6temp.com/mangakakalot/o2/ookami_nante_kowakunai/vol1_chapter_6_ookami_nante_kowakunai/15.jpg",
    "https://img-proxy.imgfo.com/?referer=https://manganelo.com&url=https://s41.mkklcdnv6temp.com/mangakakalot/o2/ookami_nante_kowakunai/vol1_chapter_6_ookami_nante_kowakunai/16.jpg",
    "https://img-proxy.imgfo.com/?referer=https://manganelo.com&url=https://s41.mkklcdnv6temp.com/mangakakalot/o2/ookami_nante_kowakunai/vol1_chapter_6_ookami_nante_kowakunai/17.jpg",
    "https://img-proxy.imgfo.com/?referer=https://manganelo.com&url=https://s41.mkklcdnv6temp.com/mangakakalot/o2/ookami_nante_kowakunai/vol1_chapter_6_ookami_nante_kowakunai/18.jpg",
    "https://img-proxy.imgfo.com/?referer=https://manganelo.com&url=https://s41.mkklcdnv6temp.com/mangakakalot/o2/ookami_nante_kowakunai/vol1_chapter_6_ookami_nante_kowakunai/19.jpg",
    "https://img-proxy.imgfo.com/?referer=https://manganelo.com&url=https://s41.mkklcdnv6temp.com/mangakakalot/o2/ookami_nante_kowakunai/vol1_chapter_6_ookami_nante_kowakunai/20.jpg",
    "https://img-proxy.imgfo.com/?referer=https://manganelo.com&url=https://s41.mkklcdnv6temp.com/mangakakalot/o2/ookami_nante_kowakunai/vol1_chapter_6_ookami_nante_kowakunai/21.jpg",
    "https://img-proxy.imgfo.com/?referer=https://manganelo.com&url=https://s41.mkklcdnv6temp.com/mangakakalot/o2/ookami_nante_kowakunai/vol1_chapter_6_ookami_nante_kowakunai/22.jpg",
    "https://img-proxy.imgfo.com/?referer=https://manganelo.com&url=https://s41.mkklcdnv6temp.com/mangakakalot/o2/ookami_nante_kowakunai/vol1_chapter_6_ookami_nante_kowakunai/23.jpg",
    "https://img-proxy.imgfo.com/?referer=https://manganelo.com&url=https://s41.mkklcdnv6temp.com/mangakakalot/o2/ookami_nante_kowakunai/vol1_chapter_6_ookami_nante_kowakunai/24.jpg",
    "https://img-proxy.imgfo.com/?referer=https://manganelo.com&url=https://s41.mkklcdnv6temp.com/mangakakalot/o2/ookami_nante_kowakunai/vol1_chapter_6_ookami_nante_kowakunai/25.jpg",
    "https://img-proxy.imgfo.com/?referer=https://manganelo.com&url=https://s41.mkklcdnv6temp.com/mangakakalot/o2/ookami_nante_kowakunai/vol1_chapter_6_ookami_nante_kowakunai/26.jpg",
    "https://img-proxy.imgfo.com/?referer=https://manganelo.com&url=https://s41.mkklcdnv6temp.com/mangakakalot/o2/ookami_nante_kowakunai/vol1_chapter_6_ookami_nante_kowakunai/27.jpg",
    "https://img-proxy.imgfo.com/?referer=https://manganelo.com&url=https://s41.mkklcdnv6temp.com/mangakakalot/o2/ookami_nante_kowakunai/vol1_chapter_6_ookami_nante_kowakunai/28.jpg",
    "https://img-proxy.imgfo.com/?referer=https://manganelo.com&url=https://s41.mkklcdnv6temp.com/mangakakalot/o2/ookami_nante_kowakunai/vol1_chapter_6_ookami_nante_kowakunai/29.jpg",
    "https://img-proxy.imgfo.com/?referer=https://manganelo.com&url=https://s41.mkklcdnv6temp.com/mangakakalot/o2/ookami_nante_kowakunai/vol1_chapter_6_ookami_nante_kowakunai/30.jpg",
    "https://img-proxy.imgfo.com/?referer=https://manganelo.com&url=https://s41.mkklcdnv6temp.com/mangakakalot/o2/ookami_nante_kowakunai/vol1_chapter_6_ookami_nante_kowakunai/31.jpg",
    "https://img-proxy.imgfo.com/?referer=https://manganelo.com&url=https://s41.mkklcdnv6temp.com/mangakakalot/o2/ookami_nante_kowakunai/vol1_chapter_6_ookami_nante_kowakunai/32.jpg"
  ]
}