{
  "cover": "https://avt.mkklcdnv6.com/15/z/5-1583472468.jpg",
  "title": "Itsumo Misora",
  "original": "いつも美空 ; 미소라 ; Always Beautiful Sky ; Eternal Blue Sky",
  "genre": "Comedy, Drama, School life, Shounen, Slice of life, Sports, Supernatural, Manga",
  "author": "Adachi Mitsuru",
  "status": "Completed",
  "backlink": "https://manganu.com/collections/adachi-mitsuru/itsumo-misora/",
  "description": "From Adachi's Universe:\nA quirky but fun series, Itsumo Misora explores the lives of six kids and how they are brought together by fate and the appearance of unusual powers. It contains everything Adachi is synonymous with: humor, sports, tangled lives, strange situations, and love triangles...",
  "language": "English",
  "images": [
    "https://img-proxy.imgfo.com/?referer=https://manganelo.com&url=https://s7.mkklcdnv6temp.com/mangakakalot/i2/itsumo_misora/vol4_chapter_32_thats_a_cute_cat_you_have_there/1.jpg",
    "https://img-proxy.imgfo.com/?referer=https://manganelo.com&url=https://s7.mkklcdnv6temp.com/mangakakalot/i2/itsumo_misora/vol4_chapter_32_thats_a_cute_cat_you_have_there/2.jpg",
    "https://img-proxy.imgfo.com/?referer=https://manganelo.com&url=https://s7.mkklcdnv6temp.com/mangakakalot/i2/itsumo_misora/vol4_chapter_32_thats_a_cute_cat_you_have_there/3.jpg",
    "https://img-proxy.imgfo.com/?referer=https://manganelo.com&url=https://s7.mkklcdnv6temp.com/mangakakalot/i2/itsumo_misora/vol4_chapter_32_thats_a_cute_cat_you_have_there/4.jpg",
    "https://img-proxy.imgfo.com/?referer=https://manganelo.com&url=https://s7.mkklcdnv6temp.com/mangakakalot/i2/itsumo_misora/vol4_chapter_32_thats_a_cute_cat_you_have_there/5.jpg",
    "https://img-proxy.imgfo.com/?referer=https://manganelo.com&url=https://s7.mkklcdnv6temp.com/mangakakalot/i2/itsumo_misora/vol4_chapter_32_thats_a_cute_cat_you_have_there/6.jpg",
    "https://img-proxy.imgfo.com/?referer=https://manganelo.com&url=https://s7.mkklcdnv6temp.com/mangakakalot/i2/itsumo_misora/vol4_chapter_32_thats_a_cute_cat_you_have_there/7.jpg",
    "https://img-proxy.imgfo.com/?referer=https://manganelo.com&url=https://s7.mkklcdnv6temp.com/mangakakalot/i2/itsumo_misora/vol4_chapter_32_thats_a_cute_cat_you_have_there/8.jpg",
    "https://img-proxy.imgfo.com/?referer=https://manganelo.com&url=https://s7.mkklcdnv6temp.com/mangakakalot/i2/itsumo_misora/vol4_chapter_32_thats_a_cute_cat_you_have_there/9.jpg",
    "https://img-proxy.imgfo.com/?referer=https://manganelo.com&url=https://s7.mkklcdnv6temp.com/mangakakalot/i2/itsumo_misora/vol4_chapter_32_thats_a_cute_cat_you_have_there/10.jpg",
    "https://img-proxy.imgfo.com/?referer=https://manganelo.com&url=https://s7.mkklcdnv6temp.com/mangakakalot/i2/itsumo_misora/vol4_chapter_32_thats_a_cute_cat_you_have_there/11.jpg",
    "https://img-proxy.imgfo.com/?referer=https://manganelo.com&url=https://s7.mkklcdnv6temp.com/mangakakalot/i2/itsumo_misora/vol4_chapter_32_thats_a_cute_cat_you_have_there/12.jpg",
    "https://img-proxy.imgfo.com/?referer=https://manganelo.com&url=https://s7.mkklcdnv6temp.com/mangakakalot/i2/itsumo_misora/vol4_chapter_32_thats_a_cute_cat_you_have_there/13.jpg",
    "https://img-proxy.imgfo.com/?referer=https://manganelo.com&url=https://s7.mkklcdnv6temp.com/mangakakalot/i2/itsumo_misora/vol4_chapter_32_thats_a_cute_cat_you_have_there/14.jpg",
    "https://img-proxy.imgfo.com/?referer=https://manganelo.com&url=https://s7.mkklcdnv6temp.com/mangakakalot/i2/itsumo_misora/vol4_chapter_32_thats_a_cute_cat_you_have_there/15.jpg",
    "https://img-proxy.imgfo.com/?referer=https://manganelo.com&url=https://s7.mkklcdnv6temp.com/mangakakalot/i2/itsumo_misora/vol4_chapter_32_thats_a_cute_cat_you_have_there/16.jpg",
    "https://img-proxy.imgfo.com/?referer=https://manganelo.com&url=https://s7.mkklcdnv6temp.com/mangakakalot/i2/itsumo_misora/vol4_chapter_32_thats_a_cute_cat_you_have_there/17.jpg",
    "https://img-proxy.imgfo.com/?referer=https://manganelo.com&url=https://s7.mkklcdnv6temp.com/mangakakalot/i2/itsumo_misora/vol4_chapter_32_thats_a_cute_cat_you_have_there/18.jpg",
    "https://img-proxy.imgfo.com/?referer=https://manganelo.com&url=https://s7.mkklcdnv6temp.com/mangakakalot/i2/itsumo_misora/vol4_chapter_32_thats_a_cute_cat_you_have_there/19.jpg"
  ]
}