{
  "cover": "https://avt.mkklcdnv6.com/37/r/1-1583465177.jpg",
  "title": "Kyochuu Rettou",
  "original": "巨虫列岛 ; 巨蟲列島 ; Giant Bug Archipelago ; The Island of Giant Insects",
  "genre": "Ecchi, Fantasy, Horror, Seinen, Tragedy, Manga",
  "author": "Fujimi Yasutaka",
  "status": "Completed",
  "backlink": "https://manganu.com/collections/fujimi-yasutaka/kyochuu-rettou/",
  "description": "From tethysdust at MangaHelpers: After an airplane crash during a school trip, Oribe Mutsumi and her classmates were stranded on a seemingly deserted island. Mutsumi found the other survivors, and used her wilderness knowledge to help them. She expects that they will be rescued in about three days, which doesn&#39;t seem so long to endure. However, she didn&#39;t account for the fact that the island is populated with gigantic killer insects. Her knowledge of butterflies, wasps, and more may be the only thing that will help any of her classmates survive to be rescued!",
  "language": "English",
  "images": [
    "https://img-proxy.imgfo.com/?referer=https://manganelo.com&url=https://s5.mkklcdnv6temp.com/mangakakalot/k2/kyochuu_rettou/vol2_chapter_8_protohermes_grandis_part_1/1.jpg",
    "https://img-proxy.imgfo.com/?referer=https://manganelo.com&url=https://s5.mkklcdnv6temp.com/mangakakalot/k2/kyochuu_rettou/vol2_chapter_8_protohermes_grandis_part_1/2.jpg",
    "https://img-proxy.imgfo.com/?referer=https://manganelo.com&url=https://s5.mkklcdnv6temp.com/mangakakalot/k2/kyochuu_rettou/vol2_chapter_8_protohermes_grandis_part_1/3.jpg",
    "https://img-proxy.imgfo.com/?referer=https://manganelo.com&url=https://s5.mkklcdnv6temp.com/mangakakalot/k2/kyochuu_rettou/vol2_chapter_8_protohermes_grandis_part_1/4.jpg",
    "https://img-proxy.imgfo.com/?referer=https://manganelo.com&url=https://s5.mkklcdnv6temp.com/mangakakalot/k2/kyochuu_rettou/vol2_chapter_8_protohermes_grandis_part_1/5.jpg",
    "https://img-proxy.imgfo.com/?referer=https://manganelo.com&url=https://s5.mkklcdnv6temp.com/mangakakalot/k2/kyochuu_rettou/vol2_chapter_8_protohermes_grandis_part_1/6.jpg",
    "https://img-proxy.imgfo.com/?referer=https://manganelo.com&url=https://s5.mkklcdnv6temp.com/mangakakalot/k2/kyochuu_rettou/vol2_chapter_8_protohermes_grandis_part_1/7.jpg",
    "https://img-proxy.imgfo.com/?referer=https://manganelo.com&url=https://s5.mkklcdnv6temp.com/mangakakalot/k2/kyochuu_rettou/vol2_chapter_8_protohermes_grandis_part_1/8.jpg",
    "https://img-proxy.imgfo.com/?referer=https://manganelo.com&url=https://s5.mkklcdnv6temp.com/mangakakalot/k2/kyochuu_rettou/vol2_chapter_8_protohermes_grandis_part_1/9.jpg",
    "https://img-proxy.imgfo.com/?referer=https://manganelo.com&url=https://s5.mkklcdnv6temp.com/mangakakalot/k2/kyochuu_rettou/vol2_chapter_8_protohermes_grandis_part_1/10.jpg",
    "https://img-proxy.imgfo.com/?referer=https://manganelo.com&url=https://s5.mkklcdnv6temp.com/mangakakalot/k2/kyochuu_rettou/vol2_chapter_8_protohermes_grandis_part_1/11.jpg",
    "https://img-proxy.imgfo.com/?referer=https://manganelo.com&url=https://s5.mkklcdnv6temp.com/mangakakalot/k2/kyochuu_rettou/vol2_chapter_8_protohermes_grandis_part_1/12.jpg",
    "https://img-proxy.imgfo.com/?referer=https://manganelo.com&url=https://s5.mkklcdnv6temp.com/mangakakalot/k2/kyochuu_rettou/vol2_chapter_8_protohermes_grandis_part_1/13.jpg",
    "https://img-proxy.imgfo.com/?referer=https://manganelo.com&url=https://s5.mkklcdnv6temp.com/mangakakalot/k2/kyochuu_rettou/vol2_chapter_8_protohermes_grandis_part_1/14.jpg",
    "https://img-proxy.imgfo.com/?referer=https://manganelo.com&url=https://s5.mkklcdnv6temp.com/mangakakalot/k2/kyochuu_rettou/vol2_chapter_8_protohermes_grandis_part_1/15.jpg",
    "https://img-proxy.imgfo.com/?referer=https://manganelo.com&url=https://s5.mkklcdnv6temp.com/mangakakalot/k2/kyochuu_rettou/vol2_chapter_8_protohermes_grandis_part_1/16.jpg",
    "https://img-proxy.imgfo.com/?referer=https://manganelo.com&url=https://s5.mkklcdnv6temp.com/mangakakalot/k2/kyochuu_rettou/vol2_chapter_8_protohermes_grandis_part_1/17.jpg",
    "https://img-proxy.imgfo.com/?referer=https://manganelo.com&url=https://s5.mkklcdnv6temp.com/mangakakalot/k2/kyochuu_rettou/vol2_chapter_8_protohermes_grandis_part_1/18.jpg",
    "https://img-proxy.imgfo.com/?referer=https://manganelo.com&url=https://s5.mkklcdnv6temp.com/mangakakalot/k2/kyochuu_rettou/vol2_chapter_8_protohermes_grandis_part_1/19.jpg",
    "https://img-proxy.imgfo.com/?referer=https://manganelo.com&url=https://s5.mkklcdnv6temp.com/mangakakalot/k2/kyochuu_rettou/vol2_chapter_8_protohermes_grandis_part_1/20.jpg",
    "https://img-proxy.imgfo.com/?referer=https://manganelo.com&url=https://s5.mkklcdnv6temp.com/mangakakalot/k2/kyochuu_rettou/vol2_chapter_8_protohermes_grandis_part_1/21.jpg",
    "https://img-proxy.imgfo.com/?referer=https://manganelo.com&url=https://s5.mkklcdnv6temp.com/mangakakalot/k2/kyochuu_rettou/vol2_chapter_8_protohermes_grandis_part_1/22.jpg"
  ]
}