{
  "cover": "https://avt.mkklcdnv6.com/33/b/4-1583471043.jpg",
  "title": "Katekyo!",
  "original": "カテキョ! ; 家庭教師！ ; 情色家教 ; Home Tutor ; Home Tutor! ; Melancholic Trickster ; Private Teacher (MOEGI Yuu) ; Private Teacher!",
  "genre": "Comedy, Drama, Romance, School life, Smut, Yaoi, Manga",
  "author": "Moegi Yuu",
  "status": "Completed",
  "backlink": "https://manganu.com/collections/moegi-yuu/katekyo/",
  "description": "From Blissful Sin:\nRintarou is bothered by the throbbing of his heart caused by his tutor, Kaede for unknown reasons. One day, Rintarou finds out that he's actually in love with Kaede when he was receiving H punishment!\nBut, without knowing Kaede's feelings, Rintarou became anxious and--?!\nLittle sadistic home tutor x natural high school student's after class love.\n--\nIncludes the following short stories:\nV.1\n• Complex 17\n• Koi no Hajime wa xxx!?\nV.2\n• Yuuutsu Trickster (Melancholic Trickster)\n• Bangai-hen/Extra",
  "language": "English",
  "images": [
    "https://img-proxy.imgfo.com/?referer=https://manganelo.com&url=https://s41.mkklcdnv6temp.com/mangakakalot/k1/katekyo/vol0_chapter_4_katekyo_dj_creme_brulee/1.jpg",
    "https://img-proxy.imgfo.com/?referer=https://manganelo.com&url=https://s41.mkklcdnv6temp.com/mangakakalot/k1/katekyo/vol0_chapter_4_katekyo_dj_creme_brulee/2.jpg",
    "https://img-proxy.imgfo.com/?referer=https://manganelo.com&url=https://s41.mkklcdnv6temp.com/mangakakalot/k1/katekyo/vol0_chapter_4_katekyo_dj_creme_brulee/3.jpg",
    "https://img-proxy.imgfo.com/?referer=https://manganelo.com&url=https://s41.mkklcdnv6temp.com/mangakakalot/k1/katekyo/vol0_chapter_4_katekyo_dj_creme_brulee/4.jpg",
    "https://img-proxy.imgfo.com/?referer=https://manganelo.com&url=https://s41.mkklcdnv6temp.com/mangakakalot/k1/katekyo/vol0_chapter_4_katekyo_dj_creme_brulee/5.jpg",
    "https://img-proxy.imgfo.com/?referer=https://manganelo.com&url=https://s41.mkklcdnv6temp.com/mangakakalot/k1/katekyo/vol0_chapter_4_katekyo_dj_creme_brulee/6.jpg",
    "https://img-proxy.imgfo.com/?referer=https://manganelo.com&url=https://s41.mkklcdnv6temp.com/mangakakalot/k1/katekyo/vol0_chapter_4_katekyo_dj_creme_brulee/7.jpg",
    "https://img-proxy.imgfo.com/?referer=https://manganelo.com&url=https://s41.mkklcdnv6temp.com/mangakakalot/k1/katekyo/vol0_chapter_4_katekyo_dj_creme_brulee/8.jpg",
    "https://img-proxy.imgfo.com/?referer=https://manganelo.com&url=https://s41.mkklcdnv6temp.com/mangakakalot/k1/katekyo/vol0_chapter_4_katekyo_dj_creme_brulee/9.jpg",
    "https://img-proxy.imgfo.com/?referer=https://manganelo.com&url=https://s41.mkklcdnv6temp.com/mangakakalot/k1/katekyo/vol0_chapter_4_katekyo_dj_creme_brulee/10.jpg",
    "https://img-proxy.imgfo.com/?referer=https://manganelo.com&url=https://s41.mkklcdnv6temp.com/mangakakalot/k1/katekyo/vol0_chapter_4_katekyo_dj_creme_brulee/11.jpg",
    "https://img-proxy.imgfo.com/?referer=https://manganelo.com&url=https://s41.mkklcdnv6temp.com/mangakakalot/k1/katekyo/vol0_chapter_4_katekyo_dj_creme_brulee/12.jpg",
    "https://img-proxy.imgfo.com/?referer=https://manganelo.com&url=https://s41.mkklcdnv6temp.com/mangakakalot/k1/katekyo/vol0_chapter_4_katekyo_dj_creme_brulee/13.jpg",
    "https://img-proxy.imgfo.com/?referer=https://manganelo.com&url=https://s41.mkklcdnv6temp.com/mangakakalot/k1/katekyo/vol0_chapter_4_katekyo_dj_creme_brulee/14.jpg",
    "https://img-proxy.imgfo.com/?referer=https://manganelo.com&url=https://s41.mkklcdnv6temp.com/mangakakalot/k1/katekyo/vol0_chapter_4_katekyo_dj_creme_brulee/15.jpg",
    "https://img-proxy.imgfo.com/?referer=https://manganelo.com&url=https://s41.mkklcdnv6temp.com/mangakakalot/k1/katekyo/vol0_chapter_4_katekyo_dj_creme_brulee/16.jpg",
    "https://img-proxy.imgfo.com/?referer=https://manganelo.com&url=https://s41.mkklcdnv6temp.com/mangakakalot/k1/katekyo/vol0_chapter_4_katekyo_dj_creme_brulee/17.jpg",
    "https://img-proxy.imgfo.com/?referer=https://manganelo.com&url=https://s41.mkklcdnv6temp.com/mangakakalot/k1/katekyo/vol0_chapter_4_katekyo_dj_creme_brulee/18.jpg",
    "https://img-proxy.imgfo.com/?referer=https://manganelo.com&url=https://s41.mkklcdnv6temp.com/mangakakalot/k1/katekyo/vol0_chapter_4_katekyo_dj_creme_brulee/19.jpg",
    "https://img-proxy.imgfo.com/?referer=https://manganelo.com&url=https://s41.mkklcdnv6temp.com/mangakakalot/k1/katekyo/vol0_chapter_4_katekyo_dj_creme_brulee/20.jpg",
    "https://img-proxy.imgfo.com/?referer=https://manganelo.com&url=https://s41.mkklcdnv6temp.com/mangakakalot/k1/katekyo/vol0_chapter_4_katekyo_dj_creme_brulee/21.jpg",
    "https://img-proxy.imgfo.com/?referer=https://manganelo.com&url=https://s41.mkklcdnv6temp.com/mangakakalot/k1/katekyo/vol0_chapter_4_katekyo_dj_creme_brulee/22.jpg",
    "https://img-proxy.imgfo.com/?referer=https://manganelo.com&url=https://s41.mkklcdnv6temp.com/mangakakalot/k1/katekyo/vol0_chapter_4_katekyo_dj_creme_brulee/23.jpg"
  ]
}