{
  "cover": "https://avt.mkklcdnv6.com/37/g/9-1583481618.jpg",
  "title": "Wadatsumi",
  "original": "ワダツミ ; Wada Tsumi",
  "genre": "Action, Adventure, Ecchi, Sci fi, Shounen, Manga",
  "author": "Kotoyoshi Yumisuke",
  "status": "Completed",
  "backlink": "https://manganu.com/collections/kotoyoshi-yumisuke/wadatsumi/",
  "description": "In an postapocalyptic world practically covered with water, Wadatsumi, a tomboy who lives in what she thinks to be the last piece of earth, knows a mysterious girl who was dragged by the waves of the sea.\nWhere did she come from? Are there more zones of earth in the world?",
  "language": "English",
  "images": [
    "https://img-proxy.imgfo.com/?referer=https://manganelo.com&url=https://s7.mkklcdnv6temp.com/mangakakalot/w1/wadatsumi/vol2_chapter_9_attack_special_envoy_squad/1.jpg",
    "https://img-proxy.imgfo.com/?referer=https://manganelo.com&url=https://s7.mkklcdnv6temp.com/mangakakalot/w1/wadatsumi/vol2_chapter_9_attack_special_envoy_squad/2.jpg",
    "https://img-proxy.imgfo.com/?referer=https://manganelo.com&url=https://s7.mkklcdnv6temp.com/mangakakalot/w1/wadatsumi/vol2_chapter_9_attack_special_envoy_squad/3.jpg",
    "https://img-proxy.imgfo.com/?referer=https://manganelo.com&url=https://s7.mkklcdnv6temp.com/mangakakalot/w1/wadatsumi/vol2_chapter_9_attack_special_envoy_squad/4.jpg",
    "https://img-proxy.imgfo.com/?referer=https://manganelo.com&url=https://s7.mkklcdnv6temp.com/mangakakalot/w1/wadatsumi/vol2_chapter_9_attack_special_envoy_squad/5.jpg",
    "https://img-proxy.imgfo.com/?referer=https://manganelo.com&url=https://s7.mkklcdnv6temp.com/mangakakalot/w1/wadatsumi/vol2_chapter_9_attack_special_envoy_squad/6.jpg",
    "https://img-proxy.imgfo.com/?referer=https://manganelo.com&url=https://s7.mkklcdnv6temp.com/mangakakalot/w1/wadatsumi/vol2_chapter_9_attack_special_envoy_squad/7.jpg",
    "https://img-proxy.imgfo.com/?referer=https://manganelo.com&url=https://s7.mkklcdnv6temp.com/mangakakalot/w1/wadatsumi/vol2_chapter_9_attack_special_envoy_squad/8.jpg",
    "https://img-proxy.imgfo.com/?referer=https://manganelo.com&url=https://s7.mkklcdnv6temp.com/mangakakalot/w1/wadatsumi/vol2_chapter_9_attack_special_envoy_squad/9.jpg",
    "https://img-proxy.imgfo.com/?referer=https://manganelo.com&url=https://s7.mkklcdnv6temp.com/mangakakalot/w1/wadatsumi/vol2_chapter_9_attack_special_envoy_squad/10.jpg",
    "https://img-proxy.imgfo.com/?referer=https://manganelo.com&url=https://s7.mkklcdnv6temp.com/mangakakalot/w1/wadatsumi/vol2_chapter_9_attack_special_envoy_squad/11.jpg",
    "https://img-proxy.imgfo.com/?referer=https://manganelo.com&url=https://s7.mkklcdnv6temp.com/mangakakalot/w1/wadatsumi/vol2_chapter_9_attack_special_envoy_squad/12.jpg",
    "https://img-proxy.imgfo.com/?referer=https://manganelo.com&url=https://s7.mkklcdnv6temp.com/mangakakalot/w1/wadatsumi/vol2_chapter_9_attack_special_envoy_squad/13.jpg",
    "https://img-proxy.imgfo.com/?referer=https://manganelo.com&url=https://s7.mkklcdnv6temp.com/mangakakalot/w1/wadatsumi/vol2_chapter_9_attack_special_envoy_squad/14.jpg",
    "https://img-proxy.imgfo.com/?referer=https://manganelo.com&url=https://s7.mkklcdnv6temp.com/mangakakalot/w1/wadatsumi/vol2_chapter_9_attack_special_envoy_squad/15.jpg",
    "https://img-proxy.imgfo.com/?referer=https://manganelo.com&url=https://s7.mkklcdnv6temp.com/mangakakalot/w1/wadatsumi/vol2_chapter_9_attack_special_envoy_squad/16.jpg",
    "https://img-proxy.imgfo.com/?referer=https://manganelo.com&url=https://s7.mkklcdnv6temp.com/mangakakalot/w1/wadatsumi/vol2_chapter_9_attack_special_envoy_squad/17.jpg",
    "https://img-proxy.imgfo.com/?referer=https://manganelo.com&url=https://s7.mkklcdnv6temp.com/mangakakalot/w1/wadatsumi/vol2_chapter_9_attack_special_envoy_squad/18.jpg",
    "https://img-proxy.imgfo.com/?referer=https://manganelo.com&url=https://s7.mkklcdnv6temp.com/mangakakalot/w1/wadatsumi/vol2_chapter_9_attack_special_envoy_squad/19.jpg",
    "https://img-proxy.imgfo.com/?referer=https://manganelo.com&url=https://s7.mkklcdnv6temp.com/mangakakalot/w1/wadatsumi/vol2_chapter_9_attack_special_envoy_squad/20.jpg",
    "https://img-proxy.imgfo.com/?referer=https://manganelo.com&url=https://s7.mkklcdnv6temp.com/mangakakalot/w1/wadatsumi/vol2_chapter_9_attack_special_envoy_squad/21.jpg",
    "https://img-proxy.imgfo.com/?referer=https://manganelo.com&url=https://s7.mkklcdnv6temp.com/mangakakalot/w1/wadatsumi/vol2_chapter_9_attack_special_envoy_squad/22.jpg",
    "https://img-proxy.imgfo.com/?referer=https://manganelo.com&url=https://s7.mkklcdnv6temp.com/mangakakalot/w1/wadatsumi/vol2_chapter_9_attack_special_envoy_squad/23.jpg",
    "https://img-proxy.imgfo.com/?referer=https://manganelo.com&url=https://s7.mkklcdnv6temp.com/mangakakalot/w1/wadatsumi/vol2_chapter_9_attack_special_envoy_squad/24.jpg"
  ]
}