{
  "cover": "https://avt.mkklcdnv6.com/37/g/9-1583481618.jpg",
  "title": "Wadatsumi",
  "original": "ワダツミ ; Wada Tsumi",
  "genre": "Action, Adventure, Ecchi, Sci fi, Shounen, Manga",
  "author": "Kotoyoshi Yumisuke",
  "status": "Completed",
  "backlink": "https://manganu.com/collections/kotoyoshi-yumisuke/wadatsumi/",
  "description": "In an postapocalyptic world practically covered with water, Wadatsumi, a tomboy who lives in what she thinks to be the last piece of earth, knows a mysterious girl who was dragged by the waves of the sea.\nWhere did she come from? Are there more zones of earth in the world?",
  "language": "English",
  "images": [
    "https://img-proxy.imgfo.com/?referer=https://manganelo.com&url=https://s7.mkklcdnv6temp.com/mangakakalot/w1/wadatsumi/vol2_chapter_15_time_is_like_a_wave/1.jpg",
    "https://img-proxy.imgfo.com/?referer=https://manganelo.com&url=https://s7.mkklcdnv6temp.com/mangakakalot/w1/wadatsumi/vol2_chapter_15_time_is_like_a_wave/2.jpg",
    "https://img-proxy.imgfo.com/?referer=https://manganelo.com&url=https://s7.mkklcdnv6temp.com/mangakakalot/w1/wadatsumi/vol2_chapter_15_time_is_like_a_wave/3.jpg",
    "https://img-proxy.imgfo.com/?referer=https://manganelo.com&url=https://s7.mkklcdnv6temp.com/mangakakalot/w1/wadatsumi/vol2_chapter_15_time_is_like_a_wave/4.jpg",
    "https://img-proxy.imgfo.com/?referer=https://manganelo.com&url=https://s7.mkklcdnv6temp.com/mangakakalot/w1/wadatsumi/vol2_chapter_15_time_is_like_a_wave/5.jpg",
    "https://img-proxy.imgfo.com/?referer=https://manganelo.com&url=https://s7.mkklcdnv6temp.com/mangakakalot/w1/wadatsumi/vol2_chapter_15_time_is_like_a_wave/6.jpg",
    "https://img-proxy.imgfo.com/?referer=https://manganelo.com&url=https://s7.mkklcdnv6temp.com/mangakakalot/w1/wadatsumi/vol2_chapter_15_time_is_like_a_wave/7.jpg",
    "https://img-proxy.imgfo.com/?referer=https://manganelo.com&url=https://s7.mkklcdnv6temp.com/mangakakalot/w1/wadatsumi/vol2_chapter_15_time_is_like_a_wave/8.jpg",
    "https://img-proxy.imgfo.com/?referer=https://manganelo.com&url=https://s7.mkklcdnv6temp.com/mangakakalot/w1/wadatsumi/vol2_chapter_15_time_is_like_a_wave/9.jpg",
    "https://img-proxy.imgfo.com/?referer=https://manganelo.com&url=https://s7.mkklcdnv6temp.com/mangakakalot/w1/wadatsumi/vol2_chapter_15_time_is_like_a_wave/10.jpg",
    "https://img-proxy.imgfo.com/?referer=https://manganelo.com&url=https://s7.mkklcdnv6temp.com/mangakakalot/w1/wadatsumi/vol2_chapter_15_time_is_like_a_wave/11.jpg",
    "https://img-proxy.imgfo.com/?referer=https://manganelo.com&url=https://s7.mkklcdnv6temp.com/mangakakalot/w1/wadatsumi/vol2_chapter_15_time_is_like_a_wave/12.jpg",
    "https://img-proxy.imgfo.com/?referer=https://manganelo.com&url=https://s7.mkklcdnv6temp.com/mangakakalot/w1/wadatsumi/vol2_chapter_15_time_is_like_a_wave/13.jpg",
    "https://img-proxy.imgfo.com/?referer=https://manganelo.com&url=https://s7.mkklcdnv6temp.com/mangakakalot/w1/wadatsumi/vol2_chapter_15_time_is_like_a_wave/14.jpg",
    "https://img-proxy.imgfo.com/?referer=https://manganelo.com&url=https://s7.mkklcdnv6temp.com/mangakakalot/w1/wadatsumi/vol2_chapter_15_time_is_like_a_wave/15.jpg",
    "https://img-proxy.imgfo.com/?referer=https://manganelo.com&url=https://s7.mkklcdnv6temp.com/mangakakalot/w1/wadatsumi/vol2_chapter_15_time_is_like_a_wave/16.jpg",
    "https://img-proxy.imgfo.com/?referer=https://manganelo.com&url=https://s7.mkklcdnv6temp.com/mangakakalot/w1/wadatsumi/vol2_chapter_15_time_is_like_a_wave/17.jpg",
    "https://img-proxy.imgfo.com/?referer=https://manganelo.com&url=https://s7.mkklcdnv6temp.com/mangakakalot/w1/wadatsumi/vol2_chapter_15_time_is_like_a_wave/18.jpg",
    "https://img-proxy.imgfo.com/?referer=https://manganelo.com&url=https://s7.mkklcdnv6temp.com/mangakakalot/w1/wadatsumi/vol2_chapter_15_time_is_like_a_wave/19.jpg",
    "https://img-proxy.imgfo.com/?referer=https://manganelo.com&url=https://s7.mkklcdnv6temp.com/mangakakalot/w1/wadatsumi/vol2_chapter_15_time_is_like_a_wave/20.jpg",
    "https://img-proxy.imgfo.com/?referer=https://manganelo.com&url=https://s7.mkklcdnv6temp.com/mangakakalot/w1/wadatsumi/vol2_chapter_15_time_is_like_a_wave/21.jpg",
    "https://img-proxy.imgfo.com/?referer=https://manganelo.com&url=https://s7.mkklcdnv6temp.com/mangakakalot/w1/wadatsumi/vol2_chapter_15_time_is_like_a_wave/22.jpg",
    "https://img-proxy.imgfo.com/?referer=https://manganelo.com&url=https://s7.mkklcdnv6temp.com/mangakakalot/w1/wadatsumi/vol2_chapter_15_time_is_like_a_wave/23.jpg",
    "https://img-proxy.imgfo.com/?referer=https://manganelo.com&url=https://s7.mkklcdnv6temp.com/mangakakalot/w1/wadatsumi/vol2_chapter_15_time_is_like_a_wave/24.jpg",
    "https://img-proxy.imgfo.com/?referer=https://manganelo.com&url=https://s7.mkklcdnv6temp.com/mangakakalot/w1/wadatsumi/vol2_chapter_15_time_is_like_a_wave/25.jpg",
    "https://img-proxy.imgfo.com/?referer=https://manganelo.com&url=https://s7.mkklcdnv6temp.com/mangakakalot/w1/wadatsumi/vol2_chapter_15_time_is_like_a_wave/26.jpg",
    "https://img-proxy.imgfo.com/?referer=https://manganelo.com&url=https://s7.mkklcdnv6temp.com/mangakakalot/w1/wadatsumi/vol2_chapter_15_time_is_like_a_wave/27.jpg",
    "https://img-proxy.imgfo.com/?referer=https://manganelo.com&url=https://s7.mkklcdnv6temp.com/mangakakalot/w1/wadatsumi/vol2_chapter_15_time_is_like_a_wave/28.jpg",
    "https://img-proxy.imgfo.com/?referer=https://manganelo.com&url=https://s7.mkklcdnv6temp.com/mangakakalot/w1/wadatsumi/vol2_chapter_15_time_is_like_a_wave/29.jpg",
    "https://img-proxy.imgfo.com/?referer=https://manganelo.com&url=https://s7.mkklcdnv6temp.com/mangakakalot/w1/wadatsumi/vol2_chapter_15_time_is_like_a_wave/30.jpg",
    "https://img-proxy.imgfo.com/?referer=https://manganelo.com&url=https://s7.mkklcdnv6temp.com/mangakakalot/w1/wadatsumi/vol2_chapter_15_time_is_like_a_wave/31.jpg",
    "https://img-proxy.imgfo.com/?referer=https://manganelo.com&url=https://s7.mkklcdnv6temp.com/mangakakalot/w1/wadatsumi/vol2_chapter_15_time_is_like_a_wave/32.jpg",
    "https://img-proxy.imgfo.com/?referer=https://manganelo.com&url=https://s7.mkklcdnv6temp.com/mangakakalot/w1/wadatsumi/vol2_chapter_15_time_is_like_a_wave/33.jpg",
    "https://img-proxy.imgfo.com/?referer=https://manganelo.com&url=https://s7.mkklcdnv6temp.com/mangakakalot/w1/wadatsumi/vol2_chapter_15_time_is_like_a_wave/34.jpg",
    "https://img-proxy.imgfo.com/?referer=https://manganelo.com&url=https://s7.mkklcdnv6temp.com/mangakakalot/w1/wadatsumi/vol2_chapter_15_time_is_like_a_wave/35.jpg"
  ]
}