{
  "cover": "http://ww1.heaventoon.com/content/upload/images/22075-aa918430.jpg",
  "title": "Film Emperor&#39s Reincarnation Script",
  "genre": "Comedy, Drama, Manhua, Shounen, Shounen Ai, Full Color, Webtoons",
  "author": "Bing Mao",
  "status": "Completed",
  "backlink": "https://manganu.com/collections/bing-mao/film-emperorand39s-reincarnation-script/",
  "description": "Film Emperor&rsquo;s Reincarnation Script summary: After crawling through the showbiz world for more than ten years, the film emperor Yuan Mu gained an excellent set of acting abilities, just not the right kind to save himself from being murdered. Heaven messed up then, probably, as he reincarnated in the body of a &lsquo;young hunk&rsquo;. The appearance of this &lsquo;young hunk&rsquo; was about eighty percent similar to his former handsome self, fully satisfying his desire to look ten years younger. But the problem was&mdash;&mdash;he reincarnated onto his nemesis&rsquo; bed! WTF? Now he gotta deal with the moody tycoon and his murderer. This &lsquo;young hunk&rsquo; is tired man... But if it&rsquo;s acting, no one&rsquo;s gonna beat Yuan Mu. Life is a drama to act and revenge goes by the script. He&rsquo;ll be in the shadows, baiting his enemies out there to fall for it. Looks like a pretty good start. Only one thing makes no sense. That tycoon-nemesis-dude.",
  "language": "English",
  "images": [
    "https://img-proxy.imgfo.com/?referer=https://manganelo.com&url=https://s8.mkklcdnv6temp.com/mangakakalot/a1/aa918430/chapter_1295/1.jpg",
    "https://img-proxy.imgfo.com/?referer=https://manganelo.com&url=https://s8.mkklcdnv6temp.com/mangakakalot/a1/aa918430/chapter_1295/2.jpg",
    "https://img-proxy.imgfo.com/?referer=https://manganelo.com&url=https://s8.mkklcdnv6temp.com/mangakakalot/a1/aa918430/chapter_1295/3.jpg",
    "https://img-proxy.imgfo.com/?referer=https://manganelo.com&url=https://s8.mkklcdnv6temp.com/mangakakalot/a1/aa918430/chapter_1295/4.jpg",
    "https://img-proxy.imgfo.com/?referer=https://manganelo.com&url=https://s8.mkklcdnv6temp.com/mangakakalot/a1/aa918430/chapter_1295/5.jpg",
    "https://img-proxy.imgfo.com/?referer=https://manganelo.com&url=https://s8.mkklcdnv6temp.com/mangakakalot/a1/aa918430/chapter_1295/6.jpg",
    "https://img-proxy.imgfo.com/?referer=https://manganelo.com&url=https://s8.mkklcdnv6temp.com/mangakakalot/a1/aa918430/chapter_1295/7.jpg",
    "https://img-proxy.imgfo.com/?referer=https://manganelo.com&url=https://s8.mkklcdnv6temp.com/mangakakalot/a1/aa918430/chapter_1295/8.jpg",
    "https://img-proxy.imgfo.com/?referer=https://manganelo.com&url=https://s8.mkklcdnv6temp.com/mangakakalot/a1/aa918430/chapter_1295/9.jpg",
    "https://img-proxy.imgfo.com/?referer=https://manganelo.com&url=https://s8.mkklcdnv6temp.com/mangakakalot/a1/aa918430/chapter_1295/10.jpg",
    "https://img-proxy.imgfo.com/?referer=https://manganelo.com&url=https://s8.mkklcdnv6temp.com/mangakakalot/a1/aa918430/chapter_1295/11.jpg",
    "https://img-proxy.imgfo.com/?referer=https://manganelo.com&url=https://s8.mkklcdnv6temp.com/mangakakalot/a1/aa918430/chapter_1295/12.jpg",
    "https://img-proxy.imgfo.com/?referer=https://manganelo.com&url=https://s8.mkklcdnv6temp.com/mangakakalot/a1/aa918430/chapter_1295/13.jpg",
    "https://img-proxy.imgfo.com/?referer=https://manganelo.com&url=https://s8.mkklcdnv6temp.com/mangakakalot/a1/aa918430/chapter_1295/14.jpg",
    "https://img-proxy.imgfo.com/?referer=https://manganelo.com&url=https://s8.mkklcdnv6temp.com/mangakakalot/a1/aa918430/chapter_1295/15.jpg",
    "https://img-proxy.imgfo.com/?referer=https://manganelo.com&url=https://s8.mkklcdnv6temp.com/mangakakalot/a1/aa918430/chapter_1295/16.jpg",
    "https://img-proxy.imgfo.com/?referer=https://manganelo.com&url=https://s8.mkklcdnv6temp.com/mangakakalot/a1/aa918430/chapter_1295/17.jpg",
    "https://img-proxy.imgfo.com/?referer=https://manganelo.com&url=https://s8.mkklcdnv6temp.com/mangakakalot/a1/aa918430/chapter_1295/18.jpg",
    "https://img-proxy.imgfo.com/?referer=https://manganelo.com&url=https://s8.mkklcdnv6temp.com/mangakakalot/a1/aa918430/chapter_1295/19.jpg"
  ]
}