{
  "cover": "http://ww1.heaventoon.com/content/upload/images/22075-aa918430.jpg",
  "title": "Film Emperor&#39s Reincarnation Script",
  "genre": "Comedy, Drama, Manhua, Shounen, Shounen Ai, Full Color, Webtoons",
  "author": "Bing Mao",
  "status": "Completed",
  "backlink": "https://manganu.com/collections/bing-mao/film-emperorand39s-reincarnation-script/",
  "description": "Film Emperor&rsquo;s Reincarnation Script summary: After crawling through the showbiz world for more than ten years, the film emperor Yuan Mu gained an excellent set of acting abilities, just not the right kind to save himself from being murdered. Heaven messed up then, probably, as he reincarnated in the body of a &lsquo;young hunk&rsquo;. The appearance of this &lsquo;young hunk&rsquo; was about eighty percent similar to his former handsome self, fully satisfying his desire to look ten years younger. But the problem was&mdash;&mdash;he reincarnated onto his nemesis&rsquo; bed! WTF? Now he gotta deal with the moody tycoon and his murderer. This &lsquo;young hunk&rsquo; is tired man... But if it&rsquo;s acting, no one&rsquo;s gonna beat Yuan Mu. Life is a drama to act and revenge goes by the script. He&rsquo;ll be in the shadows, baiting his enemies out there to fall for it. Looks like a pretty good start. Only one thing makes no sense. That tycoon-nemesis-dude.",
  "language": "English",
  "images": [
    "https://img-proxy.imgfo.com/?referer=https://manganelo.com&url=https://s8.mkklcdnv6temp.com/mangakakalot/a1/aa918430/chapter_102/1.jpg",
    "https://img-proxy.imgfo.com/?referer=https://manganelo.com&url=https://s8.mkklcdnv6temp.com/mangakakalot/a1/aa918430/chapter_102/2.jpg",
    "https://img-proxy.imgfo.com/?referer=https://manganelo.com&url=https://s8.mkklcdnv6temp.com/mangakakalot/a1/aa918430/chapter_102/3.jpg",
    "https://img-proxy.imgfo.com/?referer=https://manganelo.com&url=https://s8.mkklcdnv6temp.com/mangakakalot/a1/aa918430/chapter_102/4.jpg",
    "https://img-proxy.imgfo.com/?referer=https://manganelo.com&url=https://s8.mkklcdnv6temp.com/mangakakalot/a1/aa918430/chapter_102/5.jpg",
    "https://img-proxy.imgfo.com/?referer=https://manganelo.com&url=https://s8.mkklcdnv6temp.com/mangakakalot/a1/aa918430/chapter_102/6.jpg",
    "https://img-proxy.imgfo.com/?referer=https://manganelo.com&url=https://s8.mkklcdnv6temp.com/mangakakalot/a1/aa918430/chapter_102/7.jpg",
    "https://img-proxy.imgfo.com/?referer=https://manganelo.com&url=https://s8.mkklcdnv6temp.com/mangakakalot/a1/aa918430/chapter_102/8.jpg",
    "https://img-proxy.imgfo.com/?referer=https://manganelo.com&url=https://s8.mkklcdnv6temp.com/mangakakalot/a1/aa918430/chapter_102/9.jpg",
    "https://img-proxy.imgfo.com/?referer=https://manganelo.com&url=https://s8.mkklcdnv6temp.com/mangakakalot/a1/aa918430/chapter_102/10.jpg",
    "https://img-proxy.imgfo.com/?referer=https://manganelo.com&url=https://s8.mkklcdnv6temp.com/mangakakalot/a1/aa918430/chapter_102/11.jpg",
    "https://img-proxy.imgfo.com/?referer=https://manganelo.com&url=https://s8.mkklcdnv6temp.com/mangakakalot/a1/aa918430/chapter_102/12.jpg",
    "https://img-proxy.imgfo.com/?referer=https://manganelo.com&url=https://s8.mkklcdnv6temp.com/mangakakalot/a1/aa918430/chapter_102/13.jpg",
    "https://img-proxy.imgfo.com/?referer=https://manganelo.com&url=https://s8.mkklcdnv6temp.com/mangakakalot/a1/aa918430/chapter_102/14.jpg",
    "https://img-proxy.imgfo.com/?referer=https://manganelo.com&url=https://s8.mkklcdnv6temp.com/mangakakalot/a1/aa918430/chapter_102/15.jpg",
    "https://img-proxy.imgfo.com/?referer=https://manganelo.com&url=https://s8.mkklcdnv6temp.com/mangakakalot/a1/aa918430/chapter_102/16.jpg",
    "https://img-proxy.imgfo.com/?referer=https://manganelo.com&url=https://s8.mkklcdnv6temp.com/mangakakalot/a1/aa918430/chapter_102/17.jpg",
    "https://img-proxy.imgfo.com/?referer=https://manganelo.com&url=https://s8.mkklcdnv6temp.com/mangakakalot/a1/aa918430/chapter_102/18.jpg",
    "https://img-proxy.imgfo.com/?referer=https://manganelo.com&url=https://s8.mkklcdnv6temp.com/mangakakalot/a1/aa918430/chapter_102/19.jpg",
    "https://img-proxy.imgfo.com/?referer=https://manganelo.com&url=https://s8.mkklcdnv6temp.com/mangakakalot/a1/aa918430/chapter_102/20.jpg",
    "https://img-proxy.imgfo.com/?referer=https://manganelo.com&url=https://s8.mkklcdnv6temp.com/mangakakalot/a1/aa918430/chapter_102/21.jpg",
    "https://img-proxy.imgfo.com/?referer=https://manganelo.com&url=https://s8.mkklcdnv6temp.com/mangakakalot/a1/aa918430/chapter_102/22.jpg",
    "https://img-proxy.imgfo.com/?referer=https://manganelo.com&url=https://s8.mkklcdnv6temp.com/mangakakalot/a1/aa918430/chapter_102/23.jpg",
    "https://img-proxy.imgfo.com/?referer=https://manganelo.com&url=https://s8.mkklcdnv6temp.com/mangakakalot/a1/aa918430/chapter_102/24.jpg",
    "https://img-proxy.imgfo.com/?referer=https://manganelo.com&url=https://s8.mkklcdnv6temp.com/mangakakalot/a1/aa918430/chapter_102/25.jpg",
    "https://img-proxy.imgfo.com/?referer=https://manganelo.com&url=https://s8.mkklcdnv6temp.com/mangakakalot/a1/aa918430/chapter_102/26.jpg",
    "https://img-proxy.imgfo.com/?referer=https://manganelo.com&url=https://s8.mkklcdnv6temp.com/mangakakalot/a1/aa918430/chapter_102/27.jpg",
    "https://img-proxy.imgfo.com/?referer=https://manganelo.com&url=https://s8.mkklcdnv6temp.com/mangakakalot/a1/aa918430/chapter_102/28.jpg",
    "https://img-proxy.imgfo.com/?referer=https://manganelo.com&url=https://s8.mkklcdnv6temp.com/mangakakalot/a1/aa918430/chapter_102/29.jpg",
    "https://img-proxy.imgfo.com/?referer=https://manganelo.com&url=https://s8.mkklcdnv6temp.com/mangakakalot/a1/aa918430/chapter_102/30.jpg",
    "https://img-proxy.imgfo.com/?referer=https://manganelo.com&url=https://s8.mkklcdnv6temp.com/mangakakalot/a1/aa918430/chapter_102/31.jpg",
    "https://img-proxy.imgfo.com/?referer=https://manganelo.com&url=https://s8.mkklcdnv6temp.com/mangakakalot/a1/aa918430/chapter_102/32.jpg",
    "https://img-proxy.imgfo.com/?referer=https://manganelo.com&url=https://s8.mkklcdnv6temp.com/mangakakalot/a1/aa918430/chapter_102/33.jpg",
    "https://img-proxy.imgfo.com/?referer=https://manganelo.com&url=https://s8.mkklcdnv6temp.com/mangakakalot/a1/aa918430/chapter_102/34.jpg",
    "https://img-proxy.imgfo.com/?referer=https://manganelo.com&url=https://s8.mkklcdnv6temp.com/mangakakalot/a1/aa918430/chapter_102/35.jpg",
    "https://img-proxy.imgfo.com/?referer=https://manganelo.com&url=https://s8.mkklcdnv6temp.com/mangakakalot/a1/aa918430/chapter_102/36.jpg",
    "https://img-proxy.imgfo.com/?referer=https://manganelo.com&url=https://s8.mkklcdnv6temp.com/mangakakalot/a1/aa918430/chapter_102/37.jpg",
    "https://img-proxy.imgfo.com/?referer=https://manganelo.com&url=https://s8.mkklcdnv6temp.com/mangakakalot/a1/aa918430/chapter_102/38.jpg",
    "https://img-proxy.imgfo.com/?referer=https://manganelo.com&url=https://s8.mkklcdnv6temp.com/mangakakalot/a1/aa918430/chapter_102/39.jpg",
    "https://img-proxy.imgfo.com/?referer=https://manganelo.com&url=https://s8.mkklcdnv6temp.com/mangakakalot/a1/aa918430/chapter_102/40.jpg",
    "https://img-proxy.imgfo.com/?referer=https://manganelo.com&url=https://s8.mkklcdnv6temp.com/mangakakalot/a1/aa918430/chapter_102/41.jpg",
    "https://img-proxy.imgfo.com/?referer=https://manganelo.com&url=https://s8.mkklcdnv6temp.com/mangakakalot/a1/aa918430/chapter_102/42.jpg",
    "https://img-proxy.imgfo.com/?referer=https://manganelo.com&url=https://s8.mkklcdnv6temp.com/mangakakalot/a1/aa918430/chapter_102/43.jpg",
    "https://img-proxy.imgfo.com/?referer=https://manganelo.com&url=https://s8.mkklcdnv6temp.com/mangakakalot/a1/aa918430/chapter_102/44.jpg",
    "https://img-proxy.imgfo.com/?referer=https://manganelo.com&url=https://s8.mkklcdnv6temp.com/mangakakalot/a1/aa918430/chapter_102/45.jpg",
    "https://img-proxy.imgfo.com/?referer=https://manganelo.com&url=https://s8.mkklcdnv6temp.com/mangakakalot/a1/aa918430/chapter_102/46.jpg",
    "https://img-proxy.imgfo.com/?referer=https://manganelo.com&url=https://s8.mkklcdnv6temp.com/mangakakalot/a1/aa918430/chapter_102/47.jpg",
    "https://img-proxy.imgfo.com/?referer=https://manganelo.com&url=https://s8.mkklcdnv6temp.com/mangakakalot/a1/aa918430/chapter_102/48.jpg",
    "https://img-proxy.imgfo.com/?referer=https://manganelo.com&url=https://s8.mkklcdnv6temp.com/mangakakalot/a1/aa918430/chapter_102/49.jpg",
    "https://img-proxy.imgfo.com/?referer=https://manganelo.com&url=https://s8.mkklcdnv6temp.com/mangakakalot/a1/aa918430/chapter_102/50.jpg",
    "https://img-proxy.imgfo.com/?referer=https://manganelo.com&url=https://s8.mkklcdnv6temp.com/mangakakalot/a1/aa918430/chapter_102/51.jpg",
    "https://img-proxy.imgfo.com/?referer=https://manganelo.com&url=https://s8.mkklcdnv6temp.com/mangakakalot/a1/aa918430/chapter_102/52.jpg",
    "https://img-proxy.imgfo.com/?referer=https://manganelo.com&url=https://s8.mkklcdnv6temp.com/mangakakalot/a1/aa918430/chapter_102/53.jpg",
    "https://img-proxy.imgfo.com/?referer=https://manganelo.com&url=https://s8.mkklcdnv6temp.com/mangakakalot/a1/aa918430/chapter_102/54.jpg"
  ]
}