{
  "cover": "https://avt.mkklcdnv6.com/36/k/1-1583465128.jpg",
  "title": "Migawari Hakushaku No Bouken",
  "original": "身代わり伯爵の冒険 ; The Substitute Count Adventure ; 替身伯爵的冒险",
  "genre": "Action, Adult, Comedy, Cooking, Gender bender, Historical, Romance, Shoujo, Manga",
  "author": "Seike Mimori",
  "status": "Completed",
  "backlink": "https://manganu.com/collections/seike-mimori/migawari-hakushaku-no-bouken/",
  "description": "Mireille is the daughter of a bakery owner and her twin brother Fredrick was adopted into another family when they were kids but they remained in contact with each other by sending letters to each other. One day a letter from her brother said he was in love with another man&#39;s woman. She replied, provoking him to be a man and claim the woman as his. Two months later, a beautiful young man named Richard, claiming to be a messenger from her twin brother Fred, visits and tells her &quot;I&#39;ve come for you.&quot; When the bewildered Mireille resists, he proceeds to kidnap her! She learns that Fred has run and eloped with the crown prince&#39;s fiance and now, it is now her responsibility to impersonate Fred who was the former Count of Bernhardt!",
  "language": "English",
  "images": [
    "https://img-proxy.imgfo.com/?referer=https://manganelo.com&url=https://s7.mkklcdnv6temp.com/mangakakalot/m1/migawari_hakushaku_no_bouken/vol6_chapter_28/1.jpg",
    "https://img-proxy.imgfo.com/?referer=https://manganelo.com&url=https://s7.mkklcdnv6temp.com/mangakakalot/m1/migawari_hakushaku_no_bouken/vol6_chapter_28/2.jpg",
    "https://img-proxy.imgfo.com/?referer=https://manganelo.com&url=https://s7.mkklcdnv6temp.com/mangakakalot/m1/migawari_hakushaku_no_bouken/vol6_chapter_28/3.jpg",
    "https://img-proxy.imgfo.com/?referer=https://manganelo.com&url=https://s7.mkklcdnv6temp.com/mangakakalot/m1/migawari_hakushaku_no_bouken/vol6_chapter_28/4.jpg",
    "https://img-proxy.imgfo.com/?referer=https://manganelo.com&url=https://s7.mkklcdnv6temp.com/mangakakalot/m1/migawari_hakushaku_no_bouken/vol6_chapter_28/5.jpg",
    "https://img-proxy.imgfo.com/?referer=https://manganelo.com&url=https://s7.mkklcdnv6temp.com/mangakakalot/m1/migawari_hakushaku_no_bouken/vol6_chapter_28/6.jpg",
    "https://img-proxy.imgfo.com/?referer=https://manganelo.com&url=https://s7.mkklcdnv6temp.com/mangakakalot/m1/migawari_hakushaku_no_bouken/vol6_chapter_28/7.jpg",
    "https://img-proxy.imgfo.com/?referer=https://manganelo.com&url=https://s7.mkklcdnv6temp.com/mangakakalot/m1/migawari_hakushaku_no_bouken/vol6_chapter_28/8.jpg",
    "https://img-proxy.imgfo.com/?referer=https://manganelo.com&url=https://s7.mkklcdnv6temp.com/mangakakalot/m1/migawari_hakushaku_no_bouken/vol6_chapter_28/9.jpg",
    "https://img-proxy.imgfo.com/?referer=https://manganelo.com&url=https://s7.mkklcdnv6temp.com/mangakakalot/m1/migawari_hakushaku_no_bouken/vol6_chapter_28/10.jpg",
    "https://img-proxy.imgfo.com/?referer=https://manganelo.com&url=https://s7.mkklcdnv6temp.com/mangakakalot/m1/migawari_hakushaku_no_bouken/vol6_chapter_28/11.jpg",
    "https://img-proxy.imgfo.com/?referer=https://manganelo.com&url=https://s7.mkklcdnv6temp.com/mangakakalot/m1/migawari_hakushaku_no_bouken/vol6_chapter_28/12.jpg",
    "https://img-proxy.imgfo.com/?referer=https://manganelo.com&url=https://s7.mkklcdnv6temp.com/mangakakalot/m1/migawari_hakushaku_no_bouken/vol6_chapter_28/13.jpg",
    "https://img-proxy.imgfo.com/?referer=https://manganelo.com&url=https://s7.mkklcdnv6temp.com/mangakakalot/m1/migawari_hakushaku_no_bouken/vol6_chapter_28/14.jpg",
    "https://img-proxy.imgfo.com/?referer=https://manganelo.com&url=https://s7.mkklcdnv6temp.com/mangakakalot/m1/migawari_hakushaku_no_bouken/vol6_chapter_28/15.jpg",
    "https://img-proxy.imgfo.com/?referer=https://manganelo.com&url=https://s7.mkklcdnv6temp.com/mangakakalot/m1/migawari_hakushaku_no_bouken/vol6_chapter_28/16.jpg",
    "https://img-proxy.imgfo.com/?referer=https://manganelo.com&url=https://s7.mkklcdnv6temp.com/mangakakalot/m1/migawari_hakushaku_no_bouken/vol6_chapter_28/17.jpg",
    "https://img-proxy.imgfo.com/?referer=https://manganelo.com&url=https://s7.mkklcdnv6temp.com/mangakakalot/m1/migawari_hakushaku_no_bouken/vol6_chapter_28/18.jpg",
    "https://img-proxy.imgfo.com/?referer=https://manganelo.com&url=https://s7.mkklcdnv6temp.com/mangakakalot/m1/migawari_hakushaku_no_bouken/vol6_chapter_28/19.jpg",
    "https://img-proxy.imgfo.com/?referer=https://manganelo.com&url=https://s7.mkklcdnv6temp.com/mangakakalot/m1/migawari_hakushaku_no_bouken/vol6_chapter_28/20.jpg",
    "https://img-proxy.imgfo.com/?referer=https://manganelo.com&url=https://s7.mkklcdnv6temp.com/mangakakalot/m1/migawari_hakushaku_no_bouken/vol6_chapter_28/21.jpg",
    "https://img-proxy.imgfo.com/?referer=https://manganelo.com&url=https://s7.mkklcdnv6temp.com/mangakakalot/m1/migawari_hakushaku_no_bouken/vol6_chapter_28/22.jpg",
    "https://img-proxy.imgfo.com/?referer=https://manganelo.com&url=https://s7.mkklcdnv6temp.com/mangakakalot/m1/migawari_hakushaku_no_bouken/vol6_chapter_28/23.jpg",
    "https://img-proxy.imgfo.com/?referer=https://manganelo.com&url=https://s7.mkklcdnv6temp.com/mangakakalot/m1/migawari_hakushaku_no_bouken/vol6_chapter_28/24.jpg",
    "https://img-proxy.imgfo.com/?referer=https://manganelo.com&url=https://s7.mkklcdnv6temp.com/mangakakalot/m1/migawari_hakushaku_no_bouken/vol6_chapter_28/25.jpg",
    "https://img-proxy.imgfo.com/?referer=https://manganelo.com&url=https://s7.mkklcdnv6temp.com/mangakakalot/m1/migawari_hakushaku_no_bouken/vol6_chapter_28/26.jpg",
    "https://img-proxy.imgfo.com/?referer=https://manganelo.com&url=https://s7.mkklcdnv6temp.com/mangakakalot/m1/migawari_hakushaku_no_bouken/vol6_chapter_28/27.jpg",
    "https://img-proxy.imgfo.com/?referer=https://manganelo.com&url=https://s7.mkklcdnv6temp.com/mangakakalot/m1/migawari_hakushaku_no_bouken/vol6_chapter_28/28.jpg",
    "https://img-proxy.imgfo.com/?referer=https://manganelo.com&url=https://s7.mkklcdnv6temp.com/mangakakalot/m1/migawari_hakushaku_no_bouken/vol6_chapter_28/29.jpg",
    "https://img-proxy.imgfo.com/?referer=https://manganelo.com&url=https://s7.mkklcdnv6temp.com/mangakakalot/m1/migawari_hakushaku_no_bouken/vol6_chapter_28/30.jpg",
    "https://img-proxy.imgfo.com/?referer=https://manganelo.com&url=https://s7.mkklcdnv6temp.com/mangakakalot/m1/migawari_hakushaku_no_bouken/vol6_chapter_28/31.jpg",
    "https://img-proxy.imgfo.com/?referer=https://manganelo.com&url=https://s7.mkklcdnv6temp.com/mangakakalot/m1/migawari_hakushaku_no_bouken/vol6_chapter_28/32.jpg",
    "https://img-proxy.imgfo.com/?referer=https://manganelo.com&url=https://s7.mkklcdnv6temp.com/mangakakalot/m1/migawari_hakushaku_no_bouken/vol6_chapter_28/33.jpg",
    "https://img-proxy.imgfo.com/?referer=https://manganelo.com&url=https://s7.mkklcdnv6temp.com/mangakakalot/m1/migawari_hakushaku_no_bouken/vol6_chapter_28/34.jpg",
    "https://img-proxy.imgfo.com/?referer=https://manganelo.com&url=https://s7.mkklcdnv6temp.com/mangakakalot/m1/migawari_hakushaku_no_bouken/vol6_chapter_28/35.jpg",
    "https://img-proxy.imgfo.com/?referer=https://manganelo.com&url=https://s7.mkklcdnv6temp.com/mangakakalot/m1/migawari_hakushaku_no_bouken/vol6_chapter_28/36.jpg",
    "https://img-proxy.imgfo.com/?referer=https://manganelo.com&url=https://s7.mkklcdnv6temp.com/mangakakalot/m1/migawari_hakushaku_no_bouken/vol6_chapter_28/37.jpg",
    "https://img-proxy.imgfo.com/?referer=https://manganelo.com&url=https://s7.mkklcdnv6temp.com/mangakakalot/m1/migawari_hakushaku_no_bouken/vol6_chapter_28/38.jpg",
    "https://img-proxy.imgfo.com/?referer=https://manganelo.com&url=https://s7.mkklcdnv6temp.com/mangakakalot/m1/migawari_hakushaku_no_bouken/vol6_chapter_28/39.jpg",
    "https://img-proxy.imgfo.com/?referer=https://manganelo.com&url=https://s7.mkklcdnv6temp.com/mangakakalot/m1/migawari_hakushaku_no_bouken/vol6_chapter_28/40.jpg",
    "https://img-proxy.imgfo.com/?referer=https://manganelo.com&url=https://s7.mkklcdnv6temp.com/mangakakalot/m1/migawari_hakushaku_no_bouken/vol6_chapter_28/41.jpg",
    "https://img-proxy.imgfo.com/?referer=https://manganelo.com&url=https://s7.mkklcdnv6temp.com/mangakakalot/m1/migawari_hakushaku_no_bouken/vol6_chapter_28/42.jpg",
    "https://img-proxy.imgfo.com/?referer=https://manganelo.com&url=https://s7.mkklcdnv6temp.com/mangakakalot/m1/migawari_hakushaku_no_bouken/vol6_chapter_28/43.jpg",
    "https://img-proxy.imgfo.com/?referer=https://manganelo.com&url=https://s7.mkklcdnv6temp.com/mangakakalot/m1/migawari_hakushaku_no_bouken/vol6_chapter_28/44.jpg",
    "https://img-proxy.imgfo.com/?referer=https://manganelo.com&url=https://s7.mkklcdnv6temp.com/mangakakalot/m1/migawari_hakushaku_no_bouken/vol6_chapter_28/45.jpg",
    "https://img-proxy.imgfo.com/?referer=https://manganelo.com&url=https://s7.mkklcdnv6temp.com/mangakakalot/m1/migawari_hakushaku_no_bouken/vol6_chapter_28/46.jpg",
    "https://img-proxy.imgfo.com/?referer=https://manganelo.com&url=https://s7.mkklcdnv6temp.com/mangakakalot/m1/migawari_hakushaku_no_bouken/vol6_chapter_28/47.jpg",
    "https://img-proxy.imgfo.com/?referer=https://manganelo.com&url=https://s7.mkklcdnv6temp.com/mangakakalot/m1/migawari_hakushaku_no_bouken/vol6_chapter_28/48.jpg",
    "https://img-proxy.imgfo.com/?referer=https://manganelo.com&url=https://s7.mkklcdnv6temp.com/mangakakalot/m1/migawari_hakushaku_no_bouken/vol6_chapter_28/49.jpg",
    "https://img-proxy.imgfo.com/?referer=https://manganelo.com&url=https://s7.mkklcdnv6temp.com/mangakakalot/m1/migawari_hakushaku_no_bouken/vol6_chapter_28/50.jpg",
    "https://img-proxy.imgfo.com/?referer=https://manganelo.com&url=https://s7.mkklcdnv6temp.com/mangakakalot/m1/migawari_hakushaku_no_bouken/vol6_chapter_28/51.jpg",
    "https://img-proxy.imgfo.com/?referer=https://manganelo.com&url=https://s7.mkklcdnv6temp.com/mangakakalot/m1/migawari_hakushaku_no_bouken/vol6_chapter_28/52.jpg"
  ]
}