{
  "cover": "https://avt.mkklcdnv6.com/36/k/1-1583465128.jpg",
  "title": "Migawari Hakushaku No Bouken",
  "original": "身代わり伯爵の冒険 ; The Substitute Count Adventure ; 替身伯爵的冒险",
  "genre": "Action, Adult, Comedy, Cooking, Gender bender, Historical, Romance, Shoujo, Manga",
  "author": "Seike Mimori",
  "status": "Completed",
  "backlink": "https://manganu.com/collections/seike-mimori/migawari-hakushaku-no-bouken/",
  "description": "Mireille is the daughter of a bakery owner and her twin brother Fredrick was adopted into another family when they were kids but they remained in contact with each other by sending letters to each other. One day a letter from her brother said he was in love with another man&#39;s woman. She replied, provoking him to be a man and claim the woman as his. Two months later, a beautiful young man named Richard, claiming to be a messenger from her twin brother Fred, visits and tells her &quot;I&#39;ve come for you.&quot; When the bewildered Mireille resists, he proceeds to kidnap her! She learns that Fred has run and eloped with the crown prince&#39;s fiance and now, it is now her responsibility to impersonate Fred who was the former Count of Bernhardt!",
  "language": "English",
  "images": [
    "https://img-proxy.imgfo.com/?referer=https://manganelo.com&url=https://s7.mkklcdnv6temp.com/mangakakalot/m1/migawari_hakushaku_no_bouken/vol4_chapter_185/1.jpg",
    "https://img-proxy.imgfo.com/?referer=https://manganelo.com&url=https://s7.mkklcdnv6temp.com/mangakakalot/m1/migawari_hakushaku_no_bouken/vol4_chapter_185/2.jpg",
    "https://img-proxy.imgfo.com/?referer=https://manganelo.com&url=https://s7.mkklcdnv6temp.com/mangakakalot/m1/migawari_hakushaku_no_bouken/vol4_chapter_185/3.jpg",
    "https://img-proxy.imgfo.com/?referer=https://manganelo.com&url=https://s7.mkklcdnv6temp.com/mangakakalot/m1/migawari_hakushaku_no_bouken/vol4_chapter_185/4.jpg",
    "https://img-proxy.imgfo.com/?referer=https://manganelo.com&url=https://s7.mkklcdnv6temp.com/mangakakalot/m1/migawari_hakushaku_no_bouken/vol4_chapter_185/5.jpg",
    "https://img-proxy.imgfo.com/?referer=https://manganelo.com&url=https://s7.mkklcdnv6temp.com/mangakakalot/m1/migawari_hakushaku_no_bouken/vol4_chapter_185/6.jpg",
    "https://img-proxy.imgfo.com/?referer=https://manganelo.com&url=https://s7.mkklcdnv6temp.com/mangakakalot/m1/migawari_hakushaku_no_bouken/vol4_chapter_185/7.jpg",
    "https://img-proxy.imgfo.com/?referer=https://manganelo.com&url=https://s7.mkklcdnv6temp.com/mangakakalot/m1/migawari_hakushaku_no_bouken/vol4_chapter_185/8.jpg",
    "https://img-proxy.imgfo.com/?referer=https://manganelo.com&url=https://s7.mkklcdnv6temp.com/mangakakalot/m1/migawari_hakushaku_no_bouken/vol4_chapter_185/9.jpg",
    "https://img-proxy.imgfo.com/?referer=https://manganelo.com&url=https://s7.mkklcdnv6temp.com/mangakakalot/m1/migawari_hakushaku_no_bouken/vol4_chapter_185/10.jpg",
    "https://img-proxy.imgfo.com/?referer=https://manganelo.com&url=https://s7.mkklcdnv6temp.com/mangakakalot/m1/migawari_hakushaku_no_bouken/vol4_chapter_185/11.jpg",
    "https://img-proxy.imgfo.com/?referer=https://manganelo.com&url=https://s7.mkklcdnv6temp.com/mangakakalot/m1/migawari_hakushaku_no_bouken/vol4_chapter_185/12.jpg",
    "https://img-proxy.imgfo.com/?referer=https://manganelo.com&url=https://s7.mkklcdnv6temp.com/mangakakalot/m1/migawari_hakushaku_no_bouken/vol4_chapter_185/13.jpg",
    "https://img-proxy.imgfo.com/?referer=https://manganelo.com&url=https://s7.mkklcdnv6temp.com/mangakakalot/m1/migawari_hakushaku_no_bouken/vol4_chapter_185/14.jpg",
    "https://img-proxy.imgfo.com/?referer=https://manganelo.com&url=https://s7.mkklcdnv6temp.com/mangakakalot/m1/migawari_hakushaku_no_bouken/vol4_chapter_185/15.jpg",
    "https://img-proxy.imgfo.com/?referer=https://manganelo.com&url=https://s7.mkklcdnv6temp.com/mangakakalot/m1/migawari_hakushaku_no_bouken/vol4_chapter_185/16.jpg",
    "https://img-proxy.imgfo.com/?referer=https://manganelo.com&url=https://s7.mkklcdnv6temp.com/mangakakalot/m1/migawari_hakushaku_no_bouken/vol4_chapter_185/17.jpg"
  ]
}