{
  "cover": "https://avt.mkklcdnv6.com/44/v/4-1583471572.jpg",
  "title": "Tokyo Crazy Paradise",
  "original": "Thiên Đường Tokyo (Vietnamese) ; Syurga Gila Tokyo (Malay) ; Paradis Gila Tokyo ; tokio un paraiso loco(español latino)",
  "genre": "Action, Comedy, Drama, Gender bender, Martial arts, Romance, Sci fi, Shoujo, Tragedy, Manga",
  "author": "Nakamura Yoshiki",
  "status": "Completed",
  "backlink": "https://manganu.com/collections/nakamura-yoshiki/tokyo-crazy-paradise/",
  "description": "It's the year 2020 AD, and Tokyo is a city infested with crime. Women can no longer go out in the streets alone without being victimized. Not wanting their daughter to suffer the same fate, Tsukasa Kozuki's cop parents raise her as a boy. When they are suddenly killed by one of the yakuza's in-fights, Tsukasa is left orphaned on the streets along with her three brothers. With no other options, she goes to the only person she can think of for help: pokerface Ryuji Shirogami, her classmate of 8 years and also the head leader of the powerful yakuza group, Kuryugumi. Ryuji, whose father was also a victim of the same yakuza fight, agrees to take her on as his personal bodyguard. As they set out to find their enemy, Ryuji slaps on an increasing amount of debt onto Tsukasa using all manners of ploys necessary to keep the reluctant Tsukasa by his side.",
  "language": "English",
  "images": [
    "https://img-proxy.imgfo.com/?referer=https://manganelo.com&url=https://s3.mkklcdnv6temp.com/mangakakalot/t2/tokyo_crazy_paradise/vol13_chapter_75_i_will_protect_shirogami_ryugi/1.jpg",
    "https://img-proxy.imgfo.com/?referer=https://manganelo.com&url=https://s3.mkklcdnv6temp.com/mangakakalot/t2/tokyo_crazy_paradise/vol13_chapter_75_i_will_protect_shirogami_ryugi/2.jpg",
    "https://img-proxy.imgfo.com/?referer=https://manganelo.com&url=https://s3.mkklcdnv6temp.com/mangakakalot/t2/tokyo_crazy_paradise/vol13_chapter_75_i_will_protect_shirogami_ryugi/3.jpg",
    "https://img-proxy.imgfo.com/?referer=https://manganelo.com&url=https://s3.mkklcdnv6temp.com/mangakakalot/t2/tokyo_crazy_paradise/vol13_chapter_75_i_will_protect_shirogami_ryugi/4.jpg",
    "https://img-proxy.imgfo.com/?referer=https://manganelo.com&url=https://s3.mkklcdnv6temp.com/mangakakalot/t2/tokyo_crazy_paradise/vol13_chapter_75_i_will_protect_shirogami_ryugi/5.jpg",
    "https://img-proxy.imgfo.com/?referer=https://manganelo.com&url=https://s3.mkklcdnv6temp.com/mangakakalot/t2/tokyo_crazy_paradise/vol13_chapter_75_i_will_protect_shirogami_ryugi/6.jpg",
    "https://img-proxy.imgfo.com/?referer=https://manganelo.com&url=https://s3.mkklcdnv6temp.com/mangakakalot/t2/tokyo_crazy_paradise/vol13_chapter_75_i_will_protect_shirogami_ryugi/7.jpg",
    "https://img-proxy.imgfo.com/?referer=https://manganelo.com&url=https://s3.mkklcdnv6temp.com/mangakakalot/t2/tokyo_crazy_paradise/vol13_chapter_75_i_will_protect_shirogami_ryugi/8.jpg",
    "https://img-proxy.imgfo.com/?referer=https://manganelo.com&url=https://s3.mkklcdnv6temp.com/mangakakalot/t2/tokyo_crazy_paradise/vol13_chapter_75_i_will_protect_shirogami_ryugi/9.jpg",
    "https://img-proxy.imgfo.com/?referer=https://manganelo.com&url=https://s3.mkklcdnv6temp.com/mangakakalot/t2/tokyo_crazy_paradise/vol13_chapter_75_i_will_protect_shirogami_ryugi/10.jpg",
    "https://img-proxy.imgfo.com/?referer=https://manganelo.com&url=https://s3.mkklcdnv6temp.com/mangakakalot/t2/tokyo_crazy_paradise/vol13_chapter_75_i_will_protect_shirogami_ryugi/11.jpg",
    "https://img-proxy.imgfo.com/?referer=https://manganelo.com&url=https://s3.mkklcdnv6temp.com/mangakakalot/t2/tokyo_crazy_paradise/vol13_chapter_75_i_will_protect_shirogami_ryugi/12.jpg",
    "https://img-proxy.imgfo.com/?referer=https://manganelo.com&url=https://s3.mkklcdnv6temp.com/mangakakalot/t2/tokyo_crazy_paradise/vol13_chapter_75_i_will_protect_shirogami_ryugi/13.jpg",
    "https://img-proxy.imgfo.com/?referer=https://manganelo.com&url=https://s3.mkklcdnv6temp.com/mangakakalot/t2/tokyo_crazy_paradise/vol13_chapter_75_i_will_protect_shirogami_ryugi/14.jpg",
    "https://img-proxy.imgfo.com/?referer=https://manganelo.com&url=https://s3.mkklcdnv6temp.com/mangakakalot/t2/tokyo_crazy_paradise/vol13_chapter_75_i_will_protect_shirogami_ryugi/15.jpg",
    "https://img-proxy.imgfo.com/?referer=https://manganelo.com&url=https://s3.mkklcdnv6temp.com/mangakakalot/t2/tokyo_crazy_paradise/vol13_chapter_75_i_will_protect_shirogami_ryugi/16.jpg",
    "https://img-proxy.imgfo.com/?referer=https://manganelo.com&url=https://s3.mkklcdnv6temp.com/mangakakalot/t2/tokyo_crazy_paradise/vol13_chapter_75_i_will_protect_shirogami_ryugi/17.jpg",
    "https://img-proxy.imgfo.com/?referer=https://manganelo.com&url=https://s3.mkklcdnv6temp.com/mangakakalot/t2/tokyo_crazy_paradise/vol13_chapter_75_i_will_protect_shirogami_ryugi/18.jpg",
    "https://img-proxy.imgfo.com/?referer=https://manganelo.com&url=https://s3.mkklcdnv6temp.com/mangakakalot/t2/tokyo_crazy_paradise/vol13_chapter_75_i_will_protect_shirogami_ryugi/19.jpg",
    "https://img-proxy.imgfo.com/?referer=https://manganelo.com&url=https://s3.mkklcdnv6temp.com/mangakakalot/t2/tokyo_crazy_paradise/vol13_chapter_75_i_will_protect_shirogami_ryugi/20.jpg",
    "https://img-proxy.imgfo.com/?referer=https://manganelo.com&url=https://s3.mkklcdnv6temp.com/mangakakalot/t2/tokyo_crazy_paradise/vol13_chapter_75_i_will_protect_shirogami_ryugi/21.jpg",
    "https://img-proxy.imgfo.com/?referer=https://manganelo.com&url=https://s3.mkklcdnv6temp.com/mangakakalot/t2/tokyo_crazy_paradise/vol13_chapter_75_i_will_protect_shirogami_ryugi/22.jpg",
    "https://img-proxy.imgfo.com/?referer=https://manganelo.com&url=https://s3.mkklcdnv6temp.com/mangakakalot/t2/tokyo_crazy_paradise/vol13_chapter_75_i_will_protect_shirogami_ryugi/23.jpg",
    "https://img-proxy.imgfo.com/?referer=https://manganelo.com&url=https://s3.mkklcdnv6temp.com/mangakakalot/t2/tokyo_crazy_paradise/vol13_chapter_75_i_will_protect_shirogami_ryugi/24.jpg",
    "https://img-proxy.imgfo.com/?referer=https://manganelo.com&url=https://s3.mkklcdnv6temp.com/mangakakalot/t2/tokyo_crazy_paradise/vol13_chapter_75_i_will_protect_shirogami_ryugi/25.jpg",
    "https://img-proxy.imgfo.com/?referer=https://manganelo.com&url=https://s3.mkklcdnv6temp.com/mangakakalot/t2/tokyo_crazy_paradise/vol13_chapter_75_i_will_protect_shirogami_ryugi/26.jpg",
    "https://img-proxy.imgfo.com/?referer=https://manganelo.com&url=https://s3.mkklcdnv6temp.com/mangakakalot/t2/tokyo_crazy_paradise/vol13_chapter_75_i_will_protect_shirogami_ryugi/27.jpg",
    "https://img-proxy.imgfo.com/?referer=https://manganelo.com&url=https://s3.mkklcdnv6temp.com/mangakakalot/t2/tokyo_crazy_paradise/vol13_chapter_75_i_will_protect_shirogami_ryugi/28.jpg",
    "https://img-proxy.imgfo.com/?referer=https://manganelo.com&url=https://s3.mkklcdnv6temp.com/mangakakalot/t2/tokyo_crazy_paradise/vol13_chapter_75_i_will_protect_shirogami_ryugi/29.jpg",
    "https://img-proxy.imgfo.com/?referer=https://manganelo.com&url=https://s3.mkklcdnv6temp.com/mangakakalot/t2/tokyo_crazy_paradise/vol13_chapter_75_i_will_protect_shirogami_ryugi/30.jpg",
    "https://img-proxy.imgfo.com/?referer=https://manganelo.com&url=https://s3.mkklcdnv6temp.com/mangakakalot/t2/tokyo_crazy_paradise/vol13_chapter_75_i_will_protect_shirogami_ryugi/31.jpg"
  ]
}