{
  "cover": "https://avt.mkklcdnv6.com/5/s/19-1583499297.jpg",
  "title": "Aldnoah.zero Season One",
  "original": "Aldnoah Zero,Aldnoah.Zero,ALDNOAH.ZERO アルドノア・ゼロ,アルドノア・ゼロ,Aldnoah.Zero: Let justice be done though the heavens fall",
  "genre": "Action, Drama, Mecha, School life, Sci fi, Seinen, Manga",
  "author": "Updating",
  "status": "Completed",
  "backlink": "https://manganu.com/collections/updating/aldnoahzero-season-one/",
  "description": "In 1999, after the discovery of a hypergate on the Moon&#39;s surface, occurred on 1972, a war begins between the humans who live on the Earth and those who inmigrated to Mars, resulting on the devastation of Earth&#39;s natural satellite. Several years later the humanity still lives the aftermath of that conflict.",
  "language": "English",
  "images": [
    "https://img-proxy.imgfo.com/?referer=https://manganelo.com&url=https://s3.mkklcdnv6temp.com/mangakakalot/x2/xx920078/vol3_ep08_the_day_they_saw_the_island_then_and_now/1.jpg",
    "https://img-proxy.imgfo.com/?referer=https://manganelo.com&url=https://s3.mkklcdnv6temp.com/mangakakalot/x2/xx920078/vol3_ep08_the_day_they_saw_the_island_then_and_now/2.jpg",
    "https://img-proxy.imgfo.com/?referer=https://manganelo.com&url=https://s3.mkklcdnv6temp.com/mangakakalot/x2/xx920078/vol3_ep08_the_day_they_saw_the_island_then_and_now/3.jpg",
    "https://img-proxy.imgfo.com/?referer=https://manganelo.com&url=https://s3.mkklcdnv6temp.com/mangakakalot/x2/xx920078/vol3_ep08_the_day_they_saw_the_island_then_and_now/4.jpg",
    "https://img-proxy.imgfo.com/?referer=https://manganelo.com&url=https://s3.mkklcdnv6temp.com/mangakakalot/x2/xx920078/vol3_ep08_the_day_they_saw_the_island_then_and_now/5.jpg",
    "https://img-proxy.imgfo.com/?referer=https://manganelo.com&url=https://s3.mkklcdnv6temp.com/mangakakalot/x2/xx920078/vol3_ep08_the_day_they_saw_the_island_then_and_now/6.jpg",
    "https://img-proxy.imgfo.com/?referer=https://manganelo.com&url=https://s3.mkklcdnv6temp.com/mangakakalot/x2/xx920078/vol3_ep08_the_day_they_saw_the_island_then_and_now/7.jpg",
    "https://img-proxy.imgfo.com/?referer=https://manganelo.com&url=https://s3.mkklcdnv6temp.com/mangakakalot/x2/xx920078/vol3_ep08_the_day_they_saw_the_island_then_and_now/8.jpg",
    "https://img-proxy.imgfo.com/?referer=https://manganelo.com&url=https://s3.mkklcdnv6temp.com/mangakakalot/x2/xx920078/vol3_ep08_the_day_they_saw_the_island_then_and_now/9.jpg",
    "https://img-proxy.imgfo.com/?referer=https://manganelo.com&url=https://s3.mkklcdnv6temp.com/mangakakalot/x2/xx920078/vol3_ep08_the_day_they_saw_the_island_then_and_now/10.jpg",
    "https://img-proxy.imgfo.com/?referer=https://manganelo.com&url=https://s3.mkklcdnv6temp.com/mangakakalot/x2/xx920078/vol3_ep08_the_day_they_saw_the_island_then_and_now/11.jpg",
    "https://img-proxy.imgfo.com/?referer=https://manganelo.com&url=https://s3.mkklcdnv6temp.com/mangakakalot/x2/xx920078/vol3_ep08_the_day_they_saw_the_island_then_and_now/12.jpg",
    "https://img-proxy.imgfo.com/?referer=https://manganelo.com&url=https://s3.mkklcdnv6temp.com/mangakakalot/x2/xx920078/vol3_ep08_the_day_they_saw_the_island_then_and_now/13.jpg",
    "https://img-proxy.imgfo.com/?referer=https://manganelo.com&url=https://s3.mkklcdnv6temp.com/mangakakalot/x2/xx920078/vol3_ep08_the_day_they_saw_the_island_then_and_now/14.jpg",
    "https://img-proxy.imgfo.com/?referer=https://manganelo.com&url=https://s3.mkklcdnv6temp.com/mangakakalot/x2/xx920078/vol3_ep08_the_day_they_saw_the_island_then_and_now/15.jpg",
    "https://img-proxy.imgfo.com/?referer=https://manganelo.com&url=https://s3.mkklcdnv6temp.com/mangakakalot/x2/xx920078/vol3_ep08_the_day_they_saw_the_island_then_and_now/16.jpg",
    "https://img-proxy.imgfo.com/?referer=https://manganelo.com&url=https://s3.mkklcdnv6temp.com/mangakakalot/x2/xx920078/vol3_ep08_the_day_they_saw_the_island_then_and_now/17.jpg",
    "https://img-proxy.imgfo.com/?referer=https://manganelo.com&url=https://s3.mkklcdnv6temp.com/mangakakalot/x2/xx920078/vol3_ep08_the_day_they_saw_the_island_then_and_now/18.jpg",
    "https://img-proxy.imgfo.com/?referer=https://manganelo.com&url=https://s3.mkklcdnv6temp.com/mangakakalot/x2/xx920078/vol3_ep08_the_day_they_saw_the_island_then_and_now/19.jpg",
    "https://img-proxy.imgfo.com/?referer=https://manganelo.com&url=https://s3.mkklcdnv6temp.com/mangakakalot/x2/xx920078/vol3_ep08_the_day_they_saw_the_island_then_and_now/20.jpg",
    "https://img-proxy.imgfo.com/?referer=https://manganelo.com&url=https://s3.mkklcdnv6temp.com/mangakakalot/x2/xx920078/vol3_ep08_the_day_they_saw_the_island_then_and_now/21.jpg",
    "https://img-proxy.imgfo.com/?referer=https://manganelo.com&url=https://s3.mkklcdnv6temp.com/mangakakalot/x2/xx920078/vol3_ep08_the_day_they_saw_the_island_then_and_now/22.jpg",
    "https://img-proxy.imgfo.com/?referer=https://manganelo.com&url=https://s3.mkklcdnv6temp.com/mangakakalot/x2/xx920078/vol3_ep08_the_day_they_saw_the_island_then_and_now/23.jpg",
    "https://img-proxy.imgfo.com/?referer=https://manganelo.com&url=https://s3.mkklcdnv6temp.com/mangakakalot/x2/xx920078/vol3_ep08_the_day_they_saw_the_island_then_and_now/24.jpg",
    "https://img-proxy.imgfo.com/?referer=https://manganelo.com&url=https://s3.mkklcdnv6temp.com/mangakakalot/x2/xx920078/vol3_ep08_the_day_they_saw_the_island_then_and_now/25.jpg",
    "https://img-proxy.imgfo.com/?referer=https://manganelo.com&url=https://s3.mkklcdnv6temp.com/mangakakalot/x2/xx920078/vol3_ep08_the_day_they_saw_the_island_then_and_now/26.jpg",
    "https://img-proxy.imgfo.com/?referer=https://manganelo.com&url=https://s3.mkklcdnv6temp.com/mangakakalot/x2/xx920078/vol3_ep08_the_day_they_saw_the_island_then_and_now/27.jpg",
    "https://img-proxy.imgfo.com/?referer=https://manganelo.com&url=https://s3.mkklcdnv6temp.com/mangakakalot/x2/xx920078/vol3_ep08_the_day_they_saw_the_island_then_and_now/28.jpg",
    "https://img-proxy.imgfo.com/?referer=https://manganelo.com&url=https://s3.mkklcdnv6temp.com/mangakakalot/x2/xx920078/vol3_ep08_the_day_they_saw_the_island_then_and_now/29.jpg",
    "https://img-proxy.imgfo.com/?referer=https://manganelo.com&url=https://s3.mkklcdnv6temp.com/mangakakalot/x2/xx920078/vol3_ep08_the_day_they_saw_the_island_then_and_now/30.jpg",
    "https://img-proxy.imgfo.com/?referer=https://manganelo.com&url=https://s3.mkklcdnv6temp.com/mangakakalot/x2/xx920078/vol3_ep08_the_day_they_saw_the_island_then_and_now/31.jpg",
    "https://img-proxy.imgfo.com/?referer=https://manganelo.com&url=https://s3.mkklcdnv6temp.com/mangakakalot/x2/xx920078/vol3_ep08_the_day_they_saw_the_island_then_and_now/32.jpg",
    "https://img-proxy.imgfo.com/?referer=https://manganelo.com&url=https://s3.mkklcdnv6temp.com/mangakakalot/x2/xx920078/vol3_ep08_the_day_they_saw_the_island_then_and_now/33.jpg",
    "https://img-proxy.imgfo.com/?referer=https://manganelo.com&url=https://s3.mkklcdnv6temp.com/mangakakalot/x2/xx920078/vol3_ep08_the_day_they_saw_the_island_then_and_now/34.jpg",
    "https://img-proxy.imgfo.com/?referer=https://manganelo.com&url=https://s3.mkklcdnv6temp.com/mangakakalot/x2/xx920078/vol3_ep08_the_day_they_saw_the_island_then_and_now/35.jpg",
    "https://img-proxy.imgfo.com/?referer=https://manganelo.com&url=https://s3.mkklcdnv6temp.com/mangakakalot/x2/xx920078/vol3_ep08_the_day_they_saw_the_island_then_and_now/36.jpg",
    "https://img-proxy.imgfo.com/?referer=https://manganelo.com&url=https://s3.mkklcdnv6temp.com/mangakakalot/x2/xx920078/vol3_ep08_the_day_they_saw_the_island_then_and_now/37.jpg",
    "https://img-proxy.imgfo.com/?referer=https://manganelo.com&url=https://s3.mkklcdnv6temp.com/mangakakalot/x2/xx920078/vol3_ep08_the_day_they_saw_the_island_then_and_now/38.jpg",
    "https://img-proxy.imgfo.com/?referer=https://manganelo.com&url=https://s3.mkklcdnv6temp.com/mangakakalot/x2/xx920078/vol3_ep08_the_day_they_saw_the_island_then_and_now/39.jpg",
    "https://img-proxy.imgfo.com/?referer=https://manganelo.com&url=https://s3.mkklcdnv6temp.com/mangakakalot/x2/xx920078/vol3_ep08_the_day_they_saw_the_island_then_and_now/40.jpg",
    "https://img-proxy.imgfo.com/?referer=https://manganelo.com&url=https://s3.mkklcdnv6temp.com/mangakakalot/x2/xx920078/vol3_ep08_the_day_they_saw_the_island_then_and_now/41.jpg",
    "https://img-proxy.imgfo.com/?referer=https://manganelo.com&url=https://s3.mkklcdnv6temp.com/mangakakalot/x2/xx920078/vol3_ep08_the_day_they_saw_the_island_then_and_now/42.jpg",
    "https://img-proxy.imgfo.com/?referer=https://manganelo.com&url=https://s3.mkklcdnv6temp.com/mangakakalot/x2/xx920078/vol3_ep08_the_day_they_saw_the_island_then_and_now/43.jpg",
    "https://img-proxy.imgfo.com/?referer=https://manganelo.com&url=https://s3.mkklcdnv6temp.com/mangakakalot/x2/xx920078/vol3_ep08_the_day_they_saw_the_island_then_and_now/44.jpg",
    "https://img-proxy.imgfo.com/?referer=https://manganelo.com&url=https://s3.mkklcdnv6temp.com/mangakakalot/x2/xx920078/vol3_ep08_the_day_they_saw_the_island_then_and_now/45.jpg",
    "https://img-proxy.imgfo.com/?referer=https://manganelo.com&url=https://s3.mkklcdnv6temp.com/mangakakalot/x2/xx920078/vol3_ep08_the_day_they_saw_the_island_then_and_now/46.jpg",
    "https://img-proxy.imgfo.com/?referer=https://manganelo.com&url=https://s3.mkklcdnv6temp.com/mangakakalot/x2/xx920078/vol3_ep08_the_day_they_saw_the_island_then_and_now/47.jpg",
    "https://img-proxy.imgfo.com/?referer=https://manganelo.com&url=https://s3.mkklcdnv6temp.com/mangakakalot/x2/xx920078/vol3_ep08_the_day_they_saw_the_island_then_and_now/48.jpg",
    "https://img-proxy.imgfo.com/?referer=https://manganelo.com&url=https://s3.mkklcdnv6temp.com/mangakakalot/x2/xx920078/vol3_ep08_the_day_they_saw_the_island_then_and_now/49.jpg",
    "https://img-proxy.imgfo.com/?referer=https://manganelo.com&url=https://s3.mkklcdnv6temp.com/mangakakalot/x2/xx920078/vol3_ep08_the_day_they_saw_the_island_then_and_now/50.jpg"
  ]
}