{
  "cover": "https://avt.mkklcdnv6.com/42/n/2-1583467333.jpg",
  "title": "Maria Boy",
  "original": "マリアボーイ ; マリアボーイ 初回特典ペーパー",
  "genre": "Drama, Romance, Slice of life, Yaoi, Manga",
  "author": "Kimura Hidesato",
  "status": "Completed",
  "backlink": "https://manganu.com/collections/kimura-hidesato/maria-boy/",
  "description": "From Must Be Endless:\nWhile holding a deep loneliness in his heart that he refuses to acknowledge, Yoshiki cares for his younger brother with the fiercest tenacity. At the same time, he sells his body to men, and despite the ridicule, he relies on their need daily. Amidst this lifestyle, he runs into a handsome younger man named Katou and begins to rely on him, while being manipulated as well. Yoshiki’s little brother, Naoto, and his classmate Shuu’s life-sized love story is featured as well. With a powerful, deep flavor, this is Kimura Hidesato’s World Compilation!",
  "language": "English",
  "images": [
    "https://img-proxy.imgfo.com/?referer=https://manganelo.com&url=https://s41.mkklcdnv6temp.com/mangakakalot/m1/maria_boy/vol1_chapter_67_extra_papers/1.jpg",
    "https://img-proxy.imgfo.com/?referer=https://manganelo.com&url=https://s41.mkklcdnv6temp.com/mangakakalot/m1/maria_boy/vol1_chapter_67_extra_papers/2.jpg",
    "https://img-proxy.imgfo.com/?referer=https://manganelo.com&url=https://s41.mkklcdnv6temp.com/mangakakalot/m1/maria_boy/vol1_chapter_67_extra_papers/3.jpg"
  ]
}