{
  "cover": "https://avt.mkklcdnv6.com/43/z/9-1583481944.jpg",
  "title": "Mononoke",
  "original": "MO NO NO KE ; モノノ怪",
  "genre": "Drama, Historical, Horror, Mystery, Seinen, Supernatural, Manga",
  "author": "Ninagawa Yaeko",
  "status": "Completed",
  "backlink": "https://manganu.com/collections/ninagawa-yaeko/mononoke/",
  "description": "The story is about a man who is a medicine seller. He hunts mononoke (demons) and kills them by using a sword. However, before unsheathing his sword he first needs to learn of the form (katachi), the truth behind the human tragedies (makoto) and the reason behind the evils (kotowari) that gave birth to it before killing the demon.",
  "language": "English",
  "images": [
    "https://img-proxy.imgfo.com/?referer=https://manganelo.com&url=https://s6.mkklcdnv6temp.com/mangakakalot/m2/mononoke/vol2_chapter_10/1.jpg",
    "https://img-proxy.imgfo.com/?referer=https://manganelo.com&url=https://s6.mkklcdnv6temp.com/mangakakalot/m2/mononoke/vol2_chapter_10/2.jpg",
    "https://img-proxy.imgfo.com/?referer=https://manganelo.com&url=https://s6.mkklcdnv6temp.com/mangakakalot/m2/mononoke/vol2_chapter_10/3.jpg",
    "https://img-proxy.imgfo.com/?referer=https://manganelo.com&url=https://s6.mkklcdnv6temp.com/mangakakalot/m2/mononoke/vol2_chapter_10/4.jpg",
    "https://img-proxy.imgfo.com/?referer=https://manganelo.com&url=https://s6.mkklcdnv6temp.com/mangakakalot/m2/mononoke/vol2_chapter_10/5.jpg",
    "https://img-proxy.imgfo.com/?referer=https://manganelo.com&url=https://s6.mkklcdnv6temp.com/mangakakalot/m2/mononoke/vol2_chapter_10/6.jpg",
    "https://img-proxy.imgfo.com/?referer=https://manganelo.com&url=https://s6.mkklcdnv6temp.com/mangakakalot/m2/mononoke/vol2_chapter_10/7.jpg",
    "https://img-proxy.imgfo.com/?referer=https://manganelo.com&url=https://s6.mkklcdnv6temp.com/mangakakalot/m2/mononoke/vol2_chapter_10/8.jpg",
    "https://img-proxy.imgfo.com/?referer=https://manganelo.com&url=https://s6.mkklcdnv6temp.com/mangakakalot/m2/mononoke/vol2_chapter_10/9.jpg",
    "https://img-proxy.imgfo.com/?referer=https://manganelo.com&url=https://s6.mkklcdnv6temp.com/mangakakalot/m2/mononoke/vol2_chapter_10/10.jpg",
    "https://img-proxy.imgfo.com/?referer=https://manganelo.com&url=https://s6.mkklcdnv6temp.com/mangakakalot/m2/mononoke/vol2_chapter_10/11.jpg",
    "https://img-proxy.imgfo.com/?referer=https://manganelo.com&url=https://s6.mkklcdnv6temp.com/mangakakalot/m2/mononoke/vol2_chapter_10/12.jpg",
    "https://img-proxy.imgfo.com/?referer=https://manganelo.com&url=https://s6.mkklcdnv6temp.com/mangakakalot/m2/mononoke/vol2_chapter_10/13.jpg",
    "https://img-proxy.imgfo.com/?referer=https://manganelo.com&url=https://s6.mkklcdnv6temp.com/mangakakalot/m2/mononoke/vol2_chapter_10/14.jpg",
    "https://img-proxy.imgfo.com/?referer=https://manganelo.com&url=https://s6.mkklcdnv6temp.com/mangakakalot/m2/mononoke/vol2_chapter_10/15.jpg",
    "https://img-proxy.imgfo.com/?referer=https://manganelo.com&url=https://s6.mkklcdnv6temp.com/mangakakalot/m2/mononoke/vol2_chapter_10/16.jpg",
    "https://img-proxy.imgfo.com/?referer=https://manganelo.com&url=https://s6.mkklcdnv6temp.com/mangakakalot/m2/mononoke/vol2_chapter_10/17.jpg",
    "https://img-proxy.imgfo.com/?referer=https://manganelo.com&url=https://s6.mkklcdnv6temp.com/mangakakalot/m2/mononoke/vol2_chapter_10/18.jpg",
    "https://img-proxy.imgfo.com/?referer=https://manganelo.com&url=https://s6.mkklcdnv6temp.com/mangakakalot/m2/mononoke/vol2_chapter_10/19.jpg",
    "https://img-proxy.imgfo.com/?referer=https://manganelo.com&url=https://s6.mkklcdnv6temp.com/mangakakalot/m2/mononoke/vol2_chapter_10/20.jpg",
    "https://img-proxy.imgfo.com/?referer=https://manganelo.com&url=https://s6.mkklcdnv6temp.com/mangakakalot/m2/mononoke/vol2_chapter_10/21.jpg",
    "https://img-proxy.imgfo.com/?referer=https://manganelo.com&url=https://s6.mkklcdnv6temp.com/mangakakalot/m2/mononoke/vol2_chapter_10/22.jpg",
    "https://img-proxy.imgfo.com/?referer=https://manganelo.com&url=https://s6.mkklcdnv6temp.com/mangakakalot/m2/mononoke/vol2_chapter_10/23.jpg",
    "https://img-proxy.imgfo.com/?referer=https://manganelo.com&url=https://s6.mkklcdnv6temp.com/mangakakalot/m2/mononoke/vol2_chapter_10/24.jpg"
  ]
}