{
  "cover": "https://avt.mkklcdnv6.com/3/a/7-1583476396.jpg",
  "title": "Amai Nukumori",
  "original": "甘いぬくもり",
  "genre": "Drama, Romance, Yaoi, Manga",
  "author": "Toyama Mako",
  "status": "Completed",
  "backlink": "https://manganu.com/collections/toyama-mako/amai-nukumori/",
  "description": "1-3) Sweet Warmth. After a difficult time of being dumped by his lover and getting hurt by falling down the stairs, Shinshu meets Fushimi at work, where he is assigned to help him due to his injury. Fushimi is tender and thoughtful towards him, which is a different experience for Shinshu.\n4) Kiss at Midnight. When childish and spoiled Harumi gets rejected by his housemate whom he loves, he moves in with Hisaya who has always been there to pick up the pieces for him.\n5) If Love is Secondary. Natsuhiko gets drunk one night and is taken home by Jin. Natsuhiko seduces Jin, only to realize later that Jin is his college crush who turned him down! Jin was such a playboy back then, has he changed at all?\n6) The Love that Follows You. Takashi is ready to propose to his girlfriend, but she never shows up for their date. At her apartment he finds a note and her younger brother Yukinari. With his girlfriend gone, Takashi starts spending time with the lonely Yukinari, but is he only a father figure to the younger man?",
  "language": "English",
  "images": [
    "https://img-proxy.imgfo.com/?referer=https://manganelo.com&url=https://s6.mkklcdnv6temp.com/mangakakalot/a1/amai_nukumori/vol1_chapter_5_its_always_love_at_second_sight/1.jpg",
    "https://img-proxy.imgfo.com/?referer=https://manganelo.com&url=https://s6.mkklcdnv6temp.com/mangakakalot/a1/amai_nukumori/vol1_chapter_5_its_always_love_at_second_sight/2.jpg",
    "https://img-proxy.imgfo.com/?referer=https://manganelo.com&url=https://s6.mkklcdnv6temp.com/mangakakalot/a1/amai_nukumori/vol1_chapter_5_its_always_love_at_second_sight/3.jpg",
    "https://img-proxy.imgfo.com/?referer=https://manganelo.com&url=https://s6.mkklcdnv6temp.com/mangakakalot/a1/amai_nukumori/vol1_chapter_5_its_always_love_at_second_sight/4.jpg",
    "https://img-proxy.imgfo.com/?referer=https://manganelo.com&url=https://s6.mkklcdnv6temp.com/mangakakalot/a1/amai_nukumori/vol1_chapter_5_its_always_love_at_second_sight/5.jpg",
    "https://img-proxy.imgfo.com/?referer=https://manganelo.com&url=https://s6.mkklcdnv6temp.com/mangakakalot/a1/amai_nukumori/vol1_chapter_5_its_always_love_at_second_sight/6.jpg",
    "https://img-proxy.imgfo.com/?referer=https://manganelo.com&url=https://s6.mkklcdnv6temp.com/mangakakalot/a1/amai_nukumori/vol1_chapter_5_its_always_love_at_second_sight/7.jpg",
    "https://img-proxy.imgfo.com/?referer=https://manganelo.com&url=https://s6.mkklcdnv6temp.com/mangakakalot/a1/amai_nukumori/vol1_chapter_5_its_always_love_at_second_sight/8.jpg",
    "https://img-proxy.imgfo.com/?referer=https://manganelo.com&url=https://s6.mkklcdnv6temp.com/mangakakalot/a1/amai_nukumori/vol1_chapter_5_its_always_love_at_second_sight/9.jpg",
    "https://img-proxy.imgfo.com/?referer=https://manganelo.com&url=https://s6.mkklcdnv6temp.com/mangakakalot/a1/amai_nukumori/vol1_chapter_5_its_always_love_at_second_sight/10.jpg",
    "https://img-proxy.imgfo.com/?referer=https://manganelo.com&url=https://s6.mkklcdnv6temp.com/mangakakalot/a1/amai_nukumori/vol1_chapter_5_its_always_love_at_second_sight/11.jpg",
    "https://img-proxy.imgfo.com/?referer=https://manganelo.com&url=https://s6.mkklcdnv6temp.com/mangakakalot/a1/amai_nukumori/vol1_chapter_5_its_always_love_at_second_sight/12.jpg",
    "https://img-proxy.imgfo.com/?referer=https://manganelo.com&url=https://s6.mkklcdnv6temp.com/mangakakalot/a1/amai_nukumori/vol1_chapter_5_its_always_love_at_second_sight/13.jpg",
    "https://img-proxy.imgfo.com/?referer=https://manganelo.com&url=https://s6.mkklcdnv6temp.com/mangakakalot/a1/amai_nukumori/vol1_chapter_5_its_always_love_at_second_sight/14.jpg",
    "https://img-proxy.imgfo.com/?referer=https://manganelo.com&url=https://s6.mkklcdnv6temp.com/mangakakalot/a1/amai_nukumori/vol1_chapter_5_its_always_love_at_second_sight/15.jpg",
    "https://img-proxy.imgfo.com/?referer=https://manganelo.com&url=https://s6.mkklcdnv6temp.com/mangakakalot/a1/amai_nukumori/vol1_chapter_5_its_always_love_at_second_sight/16.jpg",
    "https://img-proxy.imgfo.com/?referer=https://manganelo.com&url=https://s6.mkklcdnv6temp.com/mangakakalot/a1/amai_nukumori/vol1_chapter_5_its_always_love_at_second_sight/17.jpg",
    "https://img-proxy.imgfo.com/?referer=https://manganelo.com&url=https://s6.mkklcdnv6temp.com/mangakakalot/a1/amai_nukumori/vol1_chapter_5_its_always_love_at_second_sight/18.jpg",
    "https://img-proxy.imgfo.com/?referer=https://manganelo.com&url=https://s6.mkklcdnv6temp.com/mangakakalot/a1/amai_nukumori/vol1_chapter_5_its_always_love_at_second_sight/19.jpg",
    "https://img-proxy.imgfo.com/?referer=https://manganelo.com&url=https://s6.mkklcdnv6temp.com/mangakakalot/a1/amai_nukumori/vol1_chapter_5_its_always_love_at_second_sight/20.jpg",
    "https://img-proxy.imgfo.com/?referer=https://manganelo.com&url=https://s6.mkklcdnv6temp.com/mangakakalot/a1/amai_nukumori/vol1_chapter_5_its_always_love_at_second_sight/21.jpg",
    "https://img-proxy.imgfo.com/?referer=https://manganelo.com&url=https://s6.mkklcdnv6temp.com/mangakakalot/a1/amai_nukumori/vol1_chapter_5_its_always_love_at_second_sight/22.jpg",
    "https://img-proxy.imgfo.com/?referer=https://manganelo.com&url=https://s6.mkklcdnv6temp.com/mangakakalot/a1/amai_nukumori/vol1_chapter_5_its_always_love_at_second_sight/23.jpg",
    "https://img-proxy.imgfo.com/?referer=https://manganelo.com&url=https://s6.mkklcdnv6temp.com/mangakakalot/a1/amai_nukumori/vol1_chapter_5_its_always_love_at_second_sight/24.jpg",
    "https://img-proxy.imgfo.com/?referer=https://manganelo.com&url=https://s6.mkklcdnv6temp.com/mangakakalot/a1/amai_nukumori/vol1_chapter_5_its_always_love_at_second_sight/25.jpg",
    "https://img-proxy.imgfo.com/?referer=https://manganelo.com&url=https://s6.mkklcdnv6temp.com/mangakakalot/a1/amai_nukumori/vol1_chapter_5_its_always_love_at_second_sight/26.jpg",
    "https://img-proxy.imgfo.com/?referer=https://manganelo.com&url=https://s6.mkklcdnv6temp.com/mangakakalot/a1/amai_nukumori/vol1_chapter_5_its_always_love_at_second_sight/27.jpg",
    "https://img-proxy.imgfo.com/?referer=https://manganelo.com&url=https://s6.mkklcdnv6temp.com/mangakakalot/a1/amai_nukumori/vol1_chapter_5_its_always_love_at_second_sight/28.jpg",
    "https://img-proxy.imgfo.com/?referer=https://manganelo.com&url=https://s6.mkklcdnv6temp.com/mangakakalot/a1/amai_nukumori/vol1_chapter_5_its_always_love_at_second_sight/29.jpg",
    "https://img-proxy.imgfo.com/?referer=https://manganelo.com&url=https://s6.mkklcdnv6temp.com/mangakakalot/a1/amai_nukumori/vol1_chapter_5_its_always_love_at_second_sight/30.jpg",
    "https://img-proxy.imgfo.com/?referer=https://manganelo.com&url=https://s6.mkklcdnv6temp.com/mangakakalot/a1/amai_nukumori/vol1_chapter_5_its_always_love_at_second_sight/31.jpg",
    "https://img-proxy.imgfo.com/?referer=https://manganelo.com&url=https://s6.mkklcdnv6temp.com/mangakakalot/a1/amai_nukumori/vol1_chapter_5_its_always_love_at_second_sight/32.jpg",
    "https://img-proxy.imgfo.com/?referer=https://manganelo.com&url=https://s6.mkklcdnv6temp.com/mangakakalot/a1/amai_nukumori/vol1_chapter_5_its_always_love_at_second_sight/33.jpg",
    "https://img-proxy.imgfo.com/?referer=https://manganelo.com&url=https://s6.mkklcdnv6temp.com/mangakakalot/a1/amai_nukumori/vol1_chapter_5_its_always_love_at_second_sight/34.jpg"
  ]
}