{
  "cover": "https://avt.mkklcdnv6.com/40/k/5-1583473480.jpg",
  "title": "Kimi No Naka De Nemurasete",
  "original": "君の中で眠らせて ; Let Me Sleep Inside of You",
  "genre": "Comedy, Drama, Romance, School life, Yaoi, Manga",
  "author": "Kayama Yumi",
  "status": "Completed",
  "backlink": "https://manganu.com/collections/kayama-yumi/kimi-no-naka-de-nemurasete/",
  "description": "Moriuchi Sei, an exchange student, went to England to escape from his past. There he met Hue Wilfort, who was abandoned by his family. Despite his kind personality, Hue made himself being recognized as a delinquent drug dealer. Will he able to save Sei from his haunting memories? Will Sei not leave Hue after one year of exchange program?",
  "language": "English",
  "images": [
    "https://img-proxy.imgfo.com/?referer=https://manganelo.com&url=https://s6.mkklcdnv6temp.com/mangakakalot/k1/kimi_no_naka_de_nemurasete/vol1_chapter_7_continuation/1.jpg",
    "https://img-proxy.imgfo.com/?referer=https://manganelo.com&url=https://s6.mkklcdnv6temp.com/mangakakalot/k1/kimi_no_naka_de_nemurasete/vol1_chapter_7_continuation/2.jpg",
    "https://img-proxy.imgfo.com/?referer=https://manganelo.com&url=https://s6.mkklcdnv6temp.com/mangakakalot/k1/kimi_no_naka_de_nemurasete/vol1_chapter_7_continuation/3.jpg",
    "https://img-proxy.imgfo.com/?referer=https://manganelo.com&url=https://s6.mkklcdnv6temp.com/mangakakalot/k1/kimi_no_naka_de_nemurasete/vol1_chapter_7_continuation/4.jpg",
    "https://img-proxy.imgfo.com/?referer=https://manganelo.com&url=https://s6.mkklcdnv6temp.com/mangakakalot/k1/kimi_no_naka_de_nemurasete/vol1_chapter_7_continuation/5.jpg",
    "https://img-proxy.imgfo.com/?referer=https://manganelo.com&url=https://s6.mkklcdnv6temp.com/mangakakalot/k1/kimi_no_naka_de_nemurasete/vol1_chapter_7_continuation/6.jpg",
    "https://img-proxy.imgfo.com/?referer=https://manganelo.com&url=https://s6.mkklcdnv6temp.com/mangakakalot/k1/kimi_no_naka_de_nemurasete/vol1_chapter_7_continuation/7.jpg",
    "https://img-proxy.imgfo.com/?referer=https://manganelo.com&url=https://s6.mkklcdnv6temp.com/mangakakalot/k1/kimi_no_naka_de_nemurasete/vol1_chapter_7_continuation/8.jpg",
    "https://img-proxy.imgfo.com/?referer=https://manganelo.com&url=https://s6.mkklcdnv6temp.com/mangakakalot/k1/kimi_no_naka_de_nemurasete/vol1_chapter_7_continuation/9.jpg",
    "https://img-proxy.imgfo.com/?referer=https://manganelo.com&url=https://s6.mkklcdnv6temp.com/mangakakalot/k1/kimi_no_naka_de_nemurasete/vol1_chapter_7_continuation/10.jpg",
    "https://img-proxy.imgfo.com/?referer=https://manganelo.com&url=https://s6.mkklcdnv6temp.com/mangakakalot/k1/kimi_no_naka_de_nemurasete/vol1_chapter_7_continuation/11.jpg",
    "https://img-proxy.imgfo.com/?referer=https://manganelo.com&url=https://s6.mkklcdnv6temp.com/mangakakalot/k1/kimi_no_naka_de_nemurasete/vol1_chapter_7_continuation/12.jpg",
    "https://img-proxy.imgfo.com/?referer=https://manganelo.com&url=https://s6.mkklcdnv6temp.com/mangakakalot/k1/kimi_no_naka_de_nemurasete/vol1_chapter_7_continuation/13.jpg",
    "https://img-proxy.imgfo.com/?referer=https://manganelo.com&url=https://s6.mkklcdnv6temp.com/mangakakalot/k1/kimi_no_naka_de_nemurasete/vol1_chapter_7_continuation/14.jpg",
    "https://img-proxy.imgfo.com/?referer=https://manganelo.com&url=https://s6.mkklcdnv6temp.com/mangakakalot/k1/kimi_no_naka_de_nemurasete/vol1_chapter_7_continuation/15.jpg",
    "https://img-proxy.imgfo.com/?referer=https://manganelo.com&url=https://s6.mkklcdnv6temp.com/mangakakalot/k1/kimi_no_naka_de_nemurasete/vol1_chapter_7_continuation/16.jpg",
    "https://img-proxy.imgfo.com/?referer=https://manganelo.com&url=https://s6.mkklcdnv6temp.com/mangakakalot/k1/kimi_no_naka_de_nemurasete/vol1_chapter_7_continuation/17.jpg",
    "https://img-proxy.imgfo.com/?referer=https://manganelo.com&url=https://s6.mkklcdnv6temp.com/mangakakalot/k1/kimi_no_naka_de_nemurasete/vol1_chapter_7_continuation/18.jpg",
    "https://img-proxy.imgfo.com/?referer=https://manganelo.com&url=https://s6.mkklcdnv6temp.com/mangakakalot/k1/kimi_no_naka_de_nemurasete/vol1_chapter_7_continuation/19.jpg",
    "https://img-proxy.imgfo.com/?referer=https://manganelo.com&url=https://s6.mkklcdnv6temp.com/mangakakalot/k1/kimi_no_naka_de_nemurasete/vol1_chapter_7_continuation/20.jpg",
    "https://img-proxy.imgfo.com/?referer=https://manganelo.com&url=https://s6.mkklcdnv6temp.com/mangakakalot/k1/kimi_no_naka_de_nemurasete/vol1_chapter_7_continuation/21.jpg",
    "https://img-proxy.imgfo.com/?referer=https://manganelo.com&url=https://s6.mkklcdnv6temp.com/mangakakalot/k1/kimi_no_naka_de_nemurasete/vol1_chapter_7_continuation/22.jpg",
    "https://img-proxy.imgfo.com/?referer=https://manganelo.com&url=https://s6.mkklcdnv6temp.com/mangakakalot/k1/kimi_no_naka_de_nemurasete/vol1_chapter_7_continuation/23.jpg",
    "https://img-proxy.imgfo.com/?referer=https://manganelo.com&url=https://s6.mkklcdnv6temp.com/mangakakalot/k1/kimi_no_naka_de_nemurasete/vol1_chapter_7_continuation/24.jpg",
    "https://img-proxy.imgfo.com/?referer=https://manganelo.com&url=https://s6.mkklcdnv6temp.com/mangakakalot/k1/kimi_no_naka_de_nemurasete/vol1_chapter_7_continuation/25.jpg",
    "https://img-proxy.imgfo.com/?referer=https://manganelo.com&url=https://s6.mkklcdnv6temp.com/mangakakalot/k1/kimi_no_naka_de_nemurasete/vol1_chapter_7_continuation/26.jpg",
    "https://img-proxy.imgfo.com/?referer=https://manganelo.com&url=https://s6.mkklcdnv6temp.com/mangakakalot/k1/kimi_no_naka_de_nemurasete/vol1_chapter_7_continuation/27.jpg",
    "https://img-proxy.imgfo.com/?referer=https://manganelo.com&url=https://s6.mkklcdnv6temp.com/mangakakalot/k1/kimi_no_naka_de_nemurasete/vol1_chapter_7_continuation/28.jpg",
    "https://img-proxy.imgfo.com/?referer=https://manganelo.com&url=https://s6.mkklcdnv6temp.com/mangakakalot/k1/kimi_no_naka_de_nemurasete/vol1_chapter_7_continuation/29.jpg",
    "https://img-proxy.imgfo.com/?referer=https://manganelo.com&url=https://s6.mkklcdnv6temp.com/mangakakalot/k1/kimi_no_naka_de_nemurasete/vol1_chapter_7_continuation/30.jpg",
    "https://img-proxy.imgfo.com/?referer=https://manganelo.com&url=https://s6.mkklcdnv6temp.com/mangakakalot/k1/kimi_no_naka_de_nemurasete/vol1_chapter_7_continuation/31.jpg",
    "https://img-proxy.imgfo.com/?referer=https://manganelo.com&url=https://s6.mkklcdnv6temp.com/mangakakalot/k1/kimi_no_naka_de_nemurasete/vol1_chapter_7_continuation/32.jpg"
  ]
}