{
  "cover": "https://avt.mkklcdnv6.com/4/m/12-1583485994.jpg",
  "title": "Redrum 327",
  "genre": "Horror, Mystery, Psychological, Tragedy, Manga",
  "author": "Ko Ya Sung",
  "status": "Completed",
  "backlink": "https://manganu.com/collections/ko-ya-sung/redrum-327/",
  "description": "From MangaCity: Redrum 327, a manhwa by Ko Ya Sung, plunges readers into a world that&#39;s a cross between the &quot;Scream&quot; franchise and Stephen King&#39;s &quot;The Shining.&quot; It tells the tale of a group of friends who plan an impromptu visit to an isolated chalet in the mountains. Their weekend getaway starts out as a pleasant idyll, but as the evening progresses, tensions rise, rifts form and conflicts occur. Soon they start to experience strange disappearances and hallucinations, and that&#39;s when their trip turns into a real nightmare.",
  "language": "English",
  "images": [
    "https://img-proxy.imgfo.com/?referer=https://manganelo.com&url=https://s5.mkklcdnv6temp.com/mangakakalot/r1/redrum_327/vol2_chapter_6_past_come_true/1.jpg",
    "https://img-proxy.imgfo.com/?referer=https://manganelo.com&url=https://s5.mkklcdnv6temp.com/mangakakalot/r1/redrum_327/vol2_chapter_6_past_come_true/2.jpg",
    "https://img-proxy.imgfo.com/?referer=https://manganelo.com&url=https://s5.mkklcdnv6temp.com/mangakakalot/r1/redrum_327/vol2_chapter_6_past_come_true/3.jpg",
    "https://img-proxy.imgfo.com/?referer=https://manganelo.com&url=https://s5.mkklcdnv6temp.com/mangakakalot/r1/redrum_327/vol2_chapter_6_past_come_true/4.jpg",
    "https://img-proxy.imgfo.com/?referer=https://manganelo.com&url=https://s5.mkklcdnv6temp.com/mangakakalot/r1/redrum_327/vol2_chapter_6_past_come_true/5.jpg",
    "https://img-proxy.imgfo.com/?referer=https://manganelo.com&url=https://s5.mkklcdnv6temp.com/mangakakalot/r1/redrum_327/vol2_chapter_6_past_come_true/6.jpg",
    "https://img-proxy.imgfo.com/?referer=https://manganelo.com&url=https://s5.mkklcdnv6temp.com/mangakakalot/r1/redrum_327/vol2_chapter_6_past_come_true/7.jpg",
    "https://img-proxy.imgfo.com/?referer=https://manganelo.com&url=https://s5.mkklcdnv6temp.com/mangakakalot/r1/redrum_327/vol2_chapter_6_past_come_true/8.jpg",
    "https://img-proxy.imgfo.com/?referer=https://manganelo.com&url=https://s5.mkklcdnv6temp.com/mangakakalot/r1/redrum_327/vol2_chapter_6_past_come_true/9.jpg",
    "https://img-proxy.imgfo.com/?referer=https://manganelo.com&url=https://s5.mkklcdnv6temp.com/mangakakalot/r1/redrum_327/vol2_chapter_6_past_come_true/10.jpg",
    "https://img-proxy.imgfo.com/?referer=https://manganelo.com&url=https://s5.mkklcdnv6temp.com/mangakakalot/r1/redrum_327/vol2_chapter_6_past_come_true/11.jpg",
    "https://img-proxy.imgfo.com/?referer=https://manganelo.com&url=https://s5.mkklcdnv6temp.com/mangakakalot/r1/redrum_327/vol2_chapter_6_past_come_true/12.jpg",
    "https://img-proxy.imgfo.com/?referer=https://manganelo.com&url=https://s5.mkklcdnv6temp.com/mangakakalot/r1/redrum_327/vol2_chapter_6_past_come_true/13.jpg",
    "https://img-proxy.imgfo.com/?referer=https://manganelo.com&url=https://s5.mkklcdnv6temp.com/mangakakalot/r1/redrum_327/vol2_chapter_6_past_come_true/14.jpg",
    "https://img-proxy.imgfo.com/?referer=https://manganelo.com&url=https://s5.mkklcdnv6temp.com/mangakakalot/r1/redrum_327/vol2_chapter_6_past_come_true/15.jpg",
    "https://img-proxy.imgfo.com/?referer=https://manganelo.com&url=https://s5.mkklcdnv6temp.com/mangakakalot/r1/redrum_327/vol2_chapter_6_past_come_true/16.jpg",
    "https://img-proxy.imgfo.com/?referer=https://manganelo.com&url=https://s5.mkklcdnv6temp.com/mangakakalot/r1/redrum_327/vol2_chapter_6_past_come_true/17.jpg",
    "https://img-proxy.imgfo.com/?referer=https://manganelo.com&url=https://s5.mkklcdnv6temp.com/mangakakalot/r1/redrum_327/vol2_chapter_6_past_come_true/18.jpg",
    "https://img-proxy.imgfo.com/?referer=https://manganelo.com&url=https://s5.mkklcdnv6temp.com/mangakakalot/r1/redrum_327/vol2_chapter_6_past_come_true/19.jpg",
    "https://img-proxy.imgfo.com/?referer=https://manganelo.com&url=https://s5.mkklcdnv6temp.com/mangakakalot/r1/redrum_327/vol2_chapter_6_past_come_true/20.jpg"
  ]
}