{
  "cover": "https://avt.mkklcdnv6.com/38/d/9-1583481658.jpg",
  "title": "Tousei Gensou Hakubutsushi",
  "original": "当世幻想博物誌 ; History of Present Day Illusions",
  "genre": "Historical, Josei, Mystery, Supernatural, Manga",
  "author": "Katayama Shuu",
  "status": "Completed",
  "backlink": "https://manganu.com/collections/katayama-shuu/tousei-gensou-hakubutsushi/",
  "description": "It’s the early days of the Showa Era. In a really ordinary-looking and peaceful city, no one notices the strange things that are happening. Shinobu, a young man who manages his father’s second-hand goods store, comes face to face with one mystery after another. At some point, these events lead to a story…",
  "language": "English",
  "images": [
    "https://img-proxy.imgfo.com/?referer=https://manganelo.com&url=https://s5.mkklcdnv6temp.com/mangakakalot/t2/tousei_gensou_hakubutsushi/vol1_chapter_13/1.jpg",
    "https://img-proxy.imgfo.com/?referer=https://manganelo.com&url=https://s5.mkklcdnv6temp.com/mangakakalot/t2/tousei_gensou_hakubutsushi/vol1_chapter_13/2.jpg",
    "https://img-proxy.imgfo.com/?referer=https://manganelo.com&url=https://s5.mkklcdnv6temp.com/mangakakalot/t2/tousei_gensou_hakubutsushi/vol1_chapter_13/3.jpg",
    "https://img-proxy.imgfo.com/?referer=https://manganelo.com&url=https://s5.mkklcdnv6temp.com/mangakakalot/t2/tousei_gensou_hakubutsushi/vol1_chapter_13/4.jpg",
    "https://img-proxy.imgfo.com/?referer=https://manganelo.com&url=https://s5.mkklcdnv6temp.com/mangakakalot/t2/tousei_gensou_hakubutsushi/vol1_chapter_13/5.jpg",
    "https://img-proxy.imgfo.com/?referer=https://manganelo.com&url=https://s5.mkklcdnv6temp.com/mangakakalot/t2/tousei_gensou_hakubutsushi/vol1_chapter_13/6.jpg",
    "https://img-proxy.imgfo.com/?referer=https://manganelo.com&url=https://s5.mkklcdnv6temp.com/mangakakalot/t2/tousei_gensou_hakubutsushi/vol1_chapter_13/7.jpg",
    "https://img-proxy.imgfo.com/?referer=https://manganelo.com&url=https://s5.mkklcdnv6temp.com/mangakakalot/t2/tousei_gensou_hakubutsushi/vol1_chapter_13/8.jpg",
    "https://img-proxy.imgfo.com/?referer=https://manganelo.com&url=https://s5.mkklcdnv6temp.com/mangakakalot/t2/tousei_gensou_hakubutsushi/vol1_chapter_13/9.jpg",
    "https://img-proxy.imgfo.com/?referer=https://manganelo.com&url=https://s5.mkklcdnv6temp.com/mangakakalot/t2/tousei_gensou_hakubutsushi/vol1_chapter_13/10.jpg",
    "https://img-proxy.imgfo.com/?referer=https://manganelo.com&url=https://s5.mkklcdnv6temp.com/mangakakalot/t2/tousei_gensou_hakubutsushi/vol1_chapter_13/11.jpg",
    "https://img-proxy.imgfo.com/?referer=https://manganelo.com&url=https://s5.mkklcdnv6temp.com/mangakakalot/t2/tousei_gensou_hakubutsushi/vol1_chapter_13/12.jpg",
    "https://img-proxy.imgfo.com/?referer=https://manganelo.com&url=https://s5.mkklcdnv6temp.com/mangakakalot/t2/tousei_gensou_hakubutsushi/vol1_chapter_13/13.jpg",
    "https://img-proxy.imgfo.com/?referer=https://manganelo.com&url=https://s5.mkklcdnv6temp.com/mangakakalot/t2/tousei_gensou_hakubutsushi/vol1_chapter_13/14.jpg",
    "https://img-proxy.imgfo.com/?referer=https://manganelo.com&url=https://s5.mkklcdnv6temp.com/mangakakalot/t2/tousei_gensou_hakubutsushi/vol1_chapter_13/15.jpg",
    "https://img-proxy.imgfo.com/?referer=https://manganelo.com&url=https://s5.mkklcdnv6temp.com/mangakakalot/t2/tousei_gensou_hakubutsushi/vol1_chapter_13/16.jpg",
    "https://img-proxy.imgfo.com/?referer=https://manganelo.com&url=https://s5.mkklcdnv6temp.com/mangakakalot/t2/tousei_gensou_hakubutsushi/vol1_chapter_13/17.jpg",
    "https://img-proxy.imgfo.com/?referer=https://manganelo.com&url=https://s5.mkklcdnv6temp.com/mangakakalot/t2/tousei_gensou_hakubutsushi/vol1_chapter_13/18.jpg",
    "https://img-proxy.imgfo.com/?referer=https://manganelo.com&url=https://s5.mkklcdnv6temp.com/mangakakalot/t2/tousei_gensou_hakubutsushi/vol1_chapter_13/19.jpg",
    "https://img-proxy.imgfo.com/?referer=https://manganelo.com&url=https://s5.mkklcdnv6temp.com/mangakakalot/t2/tousei_gensou_hakubutsushi/vol1_chapter_13/20.jpg",
    "https://img-proxy.imgfo.com/?referer=https://manganelo.com&url=https://s5.mkklcdnv6temp.com/mangakakalot/t2/tousei_gensou_hakubutsushi/vol1_chapter_13/21.jpg",
    "https://img-proxy.imgfo.com/?referer=https://manganelo.com&url=https://s5.mkklcdnv6temp.com/mangakakalot/t2/tousei_gensou_hakubutsushi/vol1_chapter_13/22.jpg",
    "https://img-proxy.imgfo.com/?referer=https://manganelo.com&url=https://s5.mkklcdnv6temp.com/mangakakalot/t2/tousei_gensou_hakubutsushi/vol1_chapter_13/23.jpg"
  ]
}