{
  "cover": "https://avt.mkklcdnv6.com/44/n/4-1583471550.jpg",
  "title": "Tripeace",
  "original": "トライピース ; Tri-Piece ; 戰爭仲裁者 ; แก๊งป่วนชวนรักษ์โลก ; Trippel-Fred",
  "genre": "Action, Comedy, Drama, Gender bender, Shounen, Tragedy, Manga",
  "author": "Maru Tomoyuki",
  "status": "Completed",
  "backlink": "https://manganu.com/collections/maru-tomoyuki/tripeace/",
  "description": "Nana, a young boy suffering from extreme amnesia, has forgotten his real name. After helplessly witnessing the unjust death of three children during one of his trips, he vows to eradicate all wars of the surface of the earth.\nHe then joined Tripeace, a small group of activists whose members use all kinds of weapons and will stop at nothing, not even the violence, bring peace to the world. But soon, the new registration number 102078 of Tripeace is faced with a dilemma: can we protect the peace at any price?",
  "language": "English",
  "images": [
    "https://img-proxy.imgfo.com/?referer=https://manganelo.com&url=https://s7.mkklcdnv6temp.com/mangakakalot/t2/tripeace/vol8_chapter_30_eradicate_war/1.jpg",
    "https://img-proxy.imgfo.com/?referer=https://manganelo.com&url=https://s7.mkklcdnv6temp.com/mangakakalot/t2/tripeace/vol8_chapter_30_eradicate_war/2.jpg",
    "https://img-proxy.imgfo.com/?referer=https://manganelo.com&url=https://s7.mkklcdnv6temp.com/mangakakalot/t2/tripeace/vol8_chapter_30_eradicate_war/3.jpg",
    "https://img-proxy.imgfo.com/?referer=https://manganelo.com&url=https://s7.mkklcdnv6temp.com/mangakakalot/t2/tripeace/vol8_chapter_30_eradicate_war/4.jpg",
    "https://img-proxy.imgfo.com/?referer=https://manganelo.com&url=https://s7.mkklcdnv6temp.com/mangakakalot/t2/tripeace/vol8_chapter_30_eradicate_war/5.jpg",
    "https://img-proxy.imgfo.com/?referer=https://manganelo.com&url=https://s7.mkklcdnv6temp.com/mangakakalot/t2/tripeace/vol8_chapter_30_eradicate_war/6.jpg",
    "https://img-proxy.imgfo.com/?referer=https://manganelo.com&url=https://s7.mkklcdnv6temp.com/mangakakalot/t2/tripeace/vol8_chapter_30_eradicate_war/7.jpg",
    "https://img-proxy.imgfo.com/?referer=https://manganelo.com&url=https://s7.mkklcdnv6temp.com/mangakakalot/t2/tripeace/vol8_chapter_30_eradicate_war/8.jpg",
    "https://img-proxy.imgfo.com/?referer=https://manganelo.com&url=https://s7.mkklcdnv6temp.com/mangakakalot/t2/tripeace/vol8_chapter_30_eradicate_war/9.jpg",
    "https://img-proxy.imgfo.com/?referer=https://manganelo.com&url=https://s7.mkklcdnv6temp.com/mangakakalot/t2/tripeace/vol8_chapter_30_eradicate_war/10.jpg",
    "https://img-proxy.imgfo.com/?referer=https://manganelo.com&url=https://s7.mkklcdnv6temp.com/mangakakalot/t2/tripeace/vol8_chapter_30_eradicate_war/11.jpg",
    "https://img-proxy.imgfo.com/?referer=https://manganelo.com&url=https://s7.mkklcdnv6temp.com/mangakakalot/t2/tripeace/vol8_chapter_30_eradicate_war/12.jpg",
    "https://img-proxy.imgfo.com/?referer=https://manganelo.com&url=https://s7.mkklcdnv6temp.com/mangakakalot/t2/tripeace/vol8_chapter_30_eradicate_war/13.jpg",
    "https://img-proxy.imgfo.com/?referer=https://manganelo.com&url=https://s7.mkklcdnv6temp.com/mangakakalot/t2/tripeace/vol8_chapter_30_eradicate_war/14.jpg",
    "https://img-proxy.imgfo.com/?referer=https://manganelo.com&url=https://s7.mkklcdnv6temp.com/mangakakalot/t2/tripeace/vol8_chapter_30_eradicate_war/15.jpg",
    "https://img-proxy.imgfo.com/?referer=https://manganelo.com&url=https://s7.mkklcdnv6temp.com/mangakakalot/t2/tripeace/vol8_chapter_30_eradicate_war/16.jpg",
    "https://img-proxy.imgfo.com/?referer=https://manganelo.com&url=https://s7.mkklcdnv6temp.com/mangakakalot/t2/tripeace/vol8_chapter_30_eradicate_war/17.jpg",
    "https://img-proxy.imgfo.com/?referer=https://manganelo.com&url=https://s7.mkklcdnv6temp.com/mangakakalot/t2/tripeace/vol8_chapter_30_eradicate_war/18.jpg",
    "https://img-proxy.imgfo.com/?referer=https://manganelo.com&url=https://s7.mkklcdnv6temp.com/mangakakalot/t2/tripeace/vol8_chapter_30_eradicate_war/19.jpg",
    "https://img-proxy.imgfo.com/?referer=https://manganelo.com&url=https://s7.mkklcdnv6temp.com/mangakakalot/t2/tripeace/vol8_chapter_30_eradicate_war/20.jpg",
    "https://img-proxy.imgfo.com/?referer=https://manganelo.com&url=https://s7.mkklcdnv6temp.com/mangakakalot/t2/tripeace/vol8_chapter_30_eradicate_war/21.jpg",
    "https://img-proxy.imgfo.com/?referer=https://manganelo.com&url=https://s7.mkklcdnv6temp.com/mangakakalot/t2/tripeace/vol8_chapter_30_eradicate_war/22.jpg",
    "https://img-proxy.imgfo.com/?referer=https://manganelo.com&url=https://s7.mkklcdnv6temp.com/mangakakalot/t2/tripeace/vol8_chapter_30_eradicate_war/23.jpg",
    "https://img-proxy.imgfo.com/?referer=https://manganelo.com&url=https://s7.mkklcdnv6temp.com/mangakakalot/t2/tripeace/vol8_chapter_30_eradicate_war/24.jpg",
    "https://img-proxy.imgfo.com/?referer=https://manganelo.com&url=https://s7.mkklcdnv6temp.com/mangakakalot/t2/tripeace/vol8_chapter_30_eradicate_war/25.jpg",
    "https://img-proxy.imgfo.com/?referer=https://manganelo.com&url=https://s7.mkklcdnv6temp.com/mangakakalot/t2/tripeace/vol8_chapter_30_eradicate_war/26.jpg",
    "https://img-proxy.imgfo.com/?referer=https://manganelo.com&url=https://s7.mkklcdnv6temp.com/mangakakalot/t2/tripeace/vol8_chapter_30_eradicate_war/27.jpg",
    "https://img-proxy.imgfo.com/?referer=https://manganelo.com&url=https://s7.mkklcdnv6temp.com/mangakakalot/t2/tripeace/vol8_chapter_30_eradicate_war/28.jpg",
    "https://img-proxy.imgfo.com/?referer=https://manganelo.com&url=https://s7.mkklcdnv6temp.com/mangakakalot/t2/tripeace/vol8_chapter_30_eradicate_war/29.jpg",
    "https://img-proxy.imgfo.com/?referer=https://manganelo.com&url=https://s7.mkklcdnv6temp.com/mangakakalot/t2/tripeace/vol8_chapter_30_eradicate_war/30.jpg",
    "https://img-proxy.imgfo.com/?referer=https://manganelo.com&url=https://s7.mkklcdnv6temp.com/mangakakalot/t2/tripeace/vol8_chapter_30_eradicate_war/31.jpg",
    "https://img-proxy.imgfo.com/?referer=https://manganelo.com&url=https://s7.mkklcdnv6temp.com/mangakakalot/t2/tripeace/vol8_chapter_30_eradicate_war/32.jpg",
    "https://img-proxy.imgfo.com/?referer=https://manganelo.com&url=https://s7.mkklcdnv6temp.com/mangakakalot/t2/tripeace/vol8_chapter_30_eradicate_war/33.jpg",
    "https://img-proxy.imgfo.com/?referer=https://manganelo.com&url=https://s7.mkklcdnv6temp.com/mangakakalot/t2/tripeace/vol8_chapter_30_eradicate_war/34.jpg",
    "https://img-proxy.imgfo.com/?referer=https://manganelo.com&url=https://s7.mkklcdnv6temp.com/mangakakalot/t2/tripeace/vol8_chapter_30_eradicate_war/35.jpg",
    "https://img-proxy.imgfo.com/?referer=https://manganelo.com&url=https://s7.mkklcdnv6temp.com/mangakakalot/t2/tripeace/vol8_chapter_30_eradicate_war/36.jpg",
    "https://img-proxy.imgfo.com/?referer=https://manganelo.com&url=https://s7.mkklcdnv6temp.com/mangakakalot/t2/tripeace/vol8_chapter_30_eradicate_war/37.jpg",
    "https://img-proxy.imgfo.com/?referer=https://manganelo.com&url=https://s7.mkklcdnv6temp.com/mangakakalot/t2/tripeace/vol8_chapter_30_eradicate_war/38.jpg",
    "https://img-proxy.imgfo.com/?referer=https://manganelo.com&url=https://s7.mkklcdnv6temp.com/mangakakalot/t2/tripeace/vol8_chapter_30_eradicate_war/39.jpg",
    "https://img-proxy.imgfo.com/?referer=https://manganelo.com&url=https://s7.mkklcdnv6temp.com/mangakakalot/t2/tripeace/vol8_chapter_30_eradicate_war/40.jpg",
    "https://img-proxy.imgfo.com/?referer=https://manganelo.com&url=https://s7.mkklcdnv6temp.com/mangakakalot/t2/tripeace/vol8_chapter_30_eradicate_war/41.jpg",
    "https://img-proxy.imgfo.com/?referer=https://manganelo.com&url=https://s7.mkklcdnv6temp.com/mangakakalot/t2/tripeace/vol8_chapter_30_eradicate_war/42.jpg",
    "https://img-proxy.imgfo.com/?referer=https://manganelo.com&url=https://s7.mkklcdnv6temp.com/mangakakalot/t2/tripeace/vol8_chapter_30_eradicate_war/43.jpg",
    "https://img-proxy.imgfo.com/?referer=https://manganelo.com&url=https://s7.mkklcdnv6temp.com/mangakakalot/t2/tripeace/vol8_chapter_30_eradicate_war/44.jpg",
    "https://img-proxy.imgfo.com/?referer=https://manganelo.com&url=https://s7.mkklcdnv6temp.com/mangakakalot/t2/tripeace/vol8_chapter_30_eradicate_war/45.jpg",
    "https://img-proxy.imgfo.com/?referer=https://manganelo.com&url=https://s7.mkklcdnv6temp.com/mangakakalot/t2/tripeace/vol8_chapter_30_eradicate_war/46.jpg",
    "https://img-proxy.imgfo.com/?referer=https://manganelo.com&url=https://s7.mkklcdnv6temp.com/mangakakalot/t2/tripeace/vol8_chapter_30_eradicate_war/47.jpg",
    "https://img-proxy.imgfo.com/?referer=https://manganelo.com&url=https://s7.mkklcdnv6temp.com/mangakakalot/t2/tripeace/vol8_chapter_30_eradicate_war/48.jpg",
    "https://img-proxy.imgfo.com/?referer=https://manganelo.com&url=https://s7.mkklcdnv6temp.com/mangakakalot/t2/tripeace/vol8_chapter_30_eradicate_war/49.jpg",
    "https://img-proxy.imgfo.com/?referer=https://manganelo.com&url=https://s7.mkklcdnv6temp.com/mangakakalot/t2/tripeace/vol8_chapter_30_eradicate_war/50.jpg",
    "https://img-proxy.imgfo.com/?referer=https://manganelo.com&url=https://s7.mkklcdnv6temp.com/mangakakalot/t2/tripeace/vol8_chapter_30_eradicate_war/51.jpg",
    "https://img-proxy.imgfo.com/?referer=https://manganelo.com&url=https://s7.mkklcdnv6temp.com/mangakakalot/t2/tripeace/vol8_chapter_30_eradicate_war/52.jpg",
    "https://img-proxy.imgfo.com/?referer=https://manganelo.com&url=https://s7.mkklcdnv6temp.com/mangakakalot/t2/tripeace/vol8_chapter_30_eradicate_war/53.jpg",
    "https://img-proxy.imgfo.com/?referer=https://manganelo.com&url=https://s7.mkklcdnv6temp.com/mangakakalot/t2/tripeace/vol8_chapter_30_eradicate_war/54.jpg",
    "https://img-proxy.imgfo.com/?referer=https://manganelo.com&url=https://s7.mkklcdnv6temp.com/mangakakalot/t2/tripeace/vol8_chapter_30_eradicate_war/55.jpg",
    "https://img-proxy.imgfo.com/?referer=https://manganelo.com&url=https://s7.mkklcdnv6temp.com/mangakakalot/t2/tripeace/vol8_chapter_30_eradicate_war/56.jpg",
    "https://img-proxy.imgfo.com/?referer=https://manganelo.com&url=https://s7.mkklcdnv6temp.com/mangakakalot/t2/tripeace/vol8_chapter_30_eradicate_war/57.jpg",
    "https://img-proxy.imgfo.com/?referer=https://manganelo.com&url=https://s7.mkklcdnv6temp.com/mangakakalot/t2/tripeace/vol8_chapter_30_eradicate_war/58.jpg",
    "https://img-proxy.imgfo.com/?referer=https://manganelo.com&url=https://s7.mkklcdnv6temp.com/mangakakalot/t2/tripeace/vol8_chapter_30_eradicate_war/59.jpg",
    "https://img-proxy.imgfo.com/?referer=https://manganelo.com&url=https://s7.mkklcdnv6temp.com/mangakakalot/t2/tripeace/vol8_chapter_30_eradicate_war/60.jpg",
    "https://img-proxy.imgfo.com/?referer=https://manganelo.com&url=https://s7.mkklcdnv6temp.com/mangakakalot/t2/tripeace/vol8_chapter_30_eradicate_war/61.jpg",
    "https://img-proxy.imgfo.com/?referer=https://manganelo.com&url=https://s7.mkklcdnv6temp.com/mangakakalot/t2/tripeace/vol8_chapter_30_eradicate_war/62.jpg",
    "https://img-proxy.imgfo.com/?referer=https://manganelo.com&url=https://s7.mkklcdnv6temp.com/mangakakalot/t2/tripeace/vol8_chapter_30_eradicate_war/63.jpg",
    "https://img-proxy.imgfo.com/?referer=https://manganelo.com&url=https://s7.mkklcdnv6temp.com/mangakakalot/t2/tripeace/vol8_chapter_30_eradicate_war/64.jpg",
    "https://img-proxy.imgfo.com/?referer=https://manganelo.com&url=https://s7.mkklcdnv6temp.com/mangakakalot/t2/tripeace/vol8_chapter_30_eradicate_war/65.jpg",
    "https://img-proxy.imgfo.com/?referer=https://manganelo.com&url=https://s7.mkklcdnv6temp.com/mangakakalot/t2/tripeace/vol8_chapter_30_eradicate_war/66.jpg",
    "https://img-proxy.imgfo.com/?referer=https://manganelo.com&url=https://s7.mkklcdnv6temp.com/mangakakalot/t2/tripeace/vol8_chapter_30_eradicate_war/67.jpg",
    "https://img-proxy.imgfo.com/?referer=https://manganelo.com&url=https://s7.mkklcdnv6temp.com/mangakakalot/t2/tripeace/vol8_chapter_30_eradicate_war/68.jpg",
    "https://img-proxy.imgfo.com/?referer=https://manganelo.com&url=https://s7.mkklcdnv6temp.com/mangakakalot/t2/tripeace/vol8_chapter_30_eradicate_war/69.jpg",
    "https://img-proxy.imgfo.com/?referer=https://manganelo.com&url=https://s7.mkklcdnv6temp.com/mangakakalot/t2/tripeace/vol8_chapter_30_eradicate_war/70.jpg",
    "https://img-proxy.imgfo.com/?referer=https://manganelo.com&url=https://s7.mkklcdnv6temp.com/mangakakalot/t2/tripeace/vol8_chapter_30_eradicate_war/71.jpg",
    "https://img-proxy.imgfo.com/?referer=https://manganelo.com&url=https://s7.mkklcdnv6temp.com/mangakakalot/t2/tripeace/vol8_chapter_30_eradicate_war/72.jpg",
    "https://img-proxy.imgfo.com/?referer=https://manganelo.com&url=https://s7.mkklcdnv6temp.com/mangakakalot/t2/tripeace/vol8_chapter_30_eradicate_war/73.jpg",
    "https://img-proxy.imgfo.com/?referer=https://manganelo.com&url=https://s7.mkklcdnv6temp.com/mangakakalot/t2/tripeace/vol8_chapter_30_eradicate_war/74.jpg",
    "https://img-proxy.imgfo.com/?referer=https://manganelo.com&url=https://s7.mkklcdnv6temp.com/mangakakalot/t2/tripeace/vol8_chapter_30_eradicate_war/75.jpg",
    "https://img-proxy.imgfo.com/?referer=https://manganelo.com&url=https://s7.mkklcdnv6temp.com/mangakakalot/t2/tripeace/vol8_chapter_30_eradicate_war/76.jpg",
    "https://img-proxy.imgfo.com/?referer=https://manganelo.com&url=https://s7.mkklcdnv6temp.com/mangakakalot/t2/tripeace/vol8_chapter_30_eradicate_war/77.jpg",
    "https://img-proxy.imgfo.com/?referer=https://manganelo.com&url=https://s7.mkklcdnv6temp.com/mangakakalot/t2/tripeace/vol8_chapter_30_eradicate_war/78.jpg",
    "https://img-proxy.imgfo.com/?referer=https://manganelo.com&url=https://s7.mkklcdnv6temp.com/mangakakalot/t2/tripeace/vol8_chapter_30_eradicate_war/79.jpg",
    "https://img-proxy.imgfo.com/?referer=https://manganelo.com&url=https://s7.mkklcdnv6temp.com/mangakakalot/t2/tripeace/vol8_chapter_30_eradicate_war/80.jpg",
    "https://img-proxy.imgfo.com/?referer=https://manganelo.com&url=https://s7.mkklcdnv6temp.com/mangakakalot/t2/tripeace/vol8_chapter_30_eradicate_war/81.jpg",
    "https://img-proxy.imgfo.com/?referer=https://manganelo.com&url=https://s7.mkklcdnv6temp.com/mangakakalot/t2/tripeace/vol8_chapter_30_eradicate_war/82.jpg",
    "https://img-proxy.imgfo.com/?referer=https://manganelo.com&url=https://s7.mkklcdnv6temp.com/mangakakalot/t2/tripeace/vol8_chapter_30_eradicate_war/83.jpg",
    "https://img-proxy.imgfo.com/?referer=https://manganelo.com&url=https://s7.mkklcdnv6temp.com/mangakakalot/t2/tripeace/vol8_chapter_30_eradicate_war/84.jpg"
  ]
}