{
  "cover": "https://avt.mkklcdnv6.com/4/o/7-1583476466.jpg",
  "title": "Aku No Hana",
  "original": "恶之华 ; 惡の華 ; Blossom of Evil ; Flowers of Evil (OSHIMI Shuuzou) ; Les fleurs du mal (OSHIMI Shuuzou) ; Las Flores del Mal (Español)",
  "genre": "Drama, Psychological, Romance, School life, Shounen, Manga",
  "author": "Oshimi Shuzo",
  "status": "Completed",
  "backlink": "https://manganu.com/collections/oshimi-shuzo/aku-no-hana/",
  "description": "Kasuga-kun steals a pair gym clothes of the girl he likes, the next day the girl that sits behind him reveals that she saw everything. Now if he doesn&#39;t form a &quot;contract&quot; with her, she is going to tell.",
  "language": "English",
  "images": [
    "https://img-proxy.imgfo.com/?referer=https://manganelo.com&url=https://s6.mkklcdnv6temp.com/mangakakalot/a1/aku_no_hana/vol1_chapter_2_invitation_to_the_voyage/1.jpg",
    "https://img-proxy.imgfo.com/?referer=https://manganelo.com&url=https://s6.mkklcdnv6temp.com/mangakakalot/a1/aku_no_hana/vol1_chapter_2_invitation_to_the_voyage/2.jpg",
    "https://img-proxy.imgfo.com/?referer=https://manganelo.com&url=https://s6.mkklcdnv6temp.com/mangakakalot/a1/aku_no_hana/vol1_chapter_2_invitation_to_the_voyage/3.jpg",
    "https://img-proxy.imgfo.com/?referer=https://manganelo.com&url=https://s6.mkklcdnv6temp.com/mangakakalot/a1/aku_no_hana/vol1_chapter_2_invitation_to_the_voyage/4.jpg",
    "https://img-proxy.imgfo.com/?referer=https://manganelo.com&url=https://s6.mkklcdnv6temp.com/mangakakalot/a1/aku_no_hana/vol1_chapter_2_invitation_to_the_voyage/5.jpg",
    "https://img-proxy.imgfo.com/?referer=https://manganelo.com&url=https://s6.mkklcdnv6temp.com/mangakakalot/a1/aku_no_hana/vol1_chapter_2_invitation_to_the_voyage/6.jpg",
    "https://img-proxy.imgfo.com/?referer=https://manganelo.com&url=https://s6.mkklcdnv6temp.com/mangakakalot/a1/aku_no_hana/vol1_chapter_2_invitation_to_the_voyage/7.jpg",
    "https://img-proxy.imgfo.com/?referer=https://manganelo.com&url=https://s6.mkklcdnv6temp.com/mangakakalot/a1/aku_no_hana/vol1_chapter_2_invitation_to_the_voyage/8.jpg",
    "https://img-proxy.imgfo.com/?referer=https://manganelo.com&url=https://s6.mkklcdnv6temp.com/mangakakalot/a1/aku_no_hana/vol1_chapter_2_invitation_to_the_voyage/9.jpg",
    "https://img-proxy.imgfo.com/?referer=https://manganelo.com&url=https://s6.mkklcdnv6temp.com/mangakakalot/a1/aku_no_hana/vol1_chapter_2_invitation_to_the_voyage/10.jpg",
    "https://img-proxy.imgfo.com/?referer=https://manganelo.com&url=https://s6.mkklcdnv6temp.com/mangakakalot/a1/aku_no_hana/vol1_chapter_2_invitation_to_the_voyage/11.jpg",
    "https://img-proxy.imgfo.com/?referer=https://manganelo.com&url=https://s6.mkklcdnv6temp.com/mangakakalot/a1/aku_no_hana/vol1_chapter_2_invitation_to_the_voyage/12.jpg",
    "https://img-proxy.imgfo.com/?referer=https://manganelo.com&url=https://s6.mkklcdnv6temp.com/mangakakalot/a1/aku_no_hana/vol1_chapter_2_invitation_to_the_voyage/13.jpg",
    "https://img-proxy.imgfo.com/?referer=https://manganelo.com&url=https://s6.mkklcdnv6temp.com/mangakakalot/a1/aku_no_hana/vol1_chapter_2_invitation_to_the_voyage/14.jpg",
    "https://img-proxy.imgfo.com/?referer=https://manganelo.com&url=https://s6.mkklcdnv6temp.com/mangakakalot/a1/aku_no_hana/vol1_chapter_2_invitation_to_the_voyage/15.jpg",
    "https://img-proxy.imgfo.com/?referer=https://manganelo.com&url=https://s6.mkklcdnv6temp.com/mangakakalot/a1/aku_no_hana/vol1_chapter_2_invitation_to_the_voyage/16.jpg",
    "https://img-proxy.imgfo.com/?referer=https://manganelo.com&url=https://s6.mkklcdnv6temp.com/mangakakalot/a1/aku_no_hana/vol1_chapter_2_invitation_to_the_voyage/17.jpg",
    "https://img-proxy.imgfo.com/?referer=https://manganelo.com&url=https://s6.mkklcdnv6temp.com/mangakakalot/a1/aku_no_hana/vol1_chapter_2_invitation_to_the_voyage/18.jpg",
    "https://img-proxy.imgfo.com/?referer=https://manganelo.com&url=https://s6.mkklcdnv6temp.com/mangakakalot/a1/aku_no_hana/vol1_chapter_2_invitation_to_the_voyage/19.jpg",
    "https://img-proxy.imgfo.com/?referer=https://manganelo.com&url=https://s6.mkklcdnv6temp.com/mangakakalot/a1/aku_no_hana/vol1_chapter_2_invitation_to_the_voyage/20.jpg",
    "https://img-proxy.imgfo.com/?referer=https://manganelo.com&url=https://s6.mkklcdnv6temp.com/mangakakalot/a1/aku_no_hana/vol1_chapter_2_invitation_to_the_voyage/21.jpg",
    "https://img-proxy.imgfo.com/?referer=https://manganelo.com&url=https://s6.mkklcdnv6temp.com/mangakakalot/a1/aku_no_hana/vol1_chapter_2_invitation_to_the_voyage/22.jpg",
    "https://img-proxy.imgfo.com/?referer=https://manganelo.com&url=https://s6.mkklcdnv6temp.com/mangakakalot/a1/aku_no_hana/vol1_chapter_2_invitation_to_the_voyage/23.jpg",
    "https://img-proxy.imgfo.com/?referer=https://manganelo.com&url=https://s6.mkklcdnv6temp.com/mangakakalot/a1/aku_no_hana/vol1_chapter_2_invitation_to_the_voyage/24.jpg",
    "https://img-proxy.imgfo.com/?referer=https://manganelo.com&url=https://s6.mkklcdnv6temp.com/mangakakalot/a1/aku_no_hana/vol1_chapter_2_invitation_to_the_voyage/25.jpg",
    "https://img-proxy.imgfo.com/?referer=https://manganelo.com&url=https://s6.mkklcdnv6temp.com/mangakakalot/a1/aku_no_hana/vol1_chapter_2_invitation_to_the_voyage/26.jpg",
    "https://img-proxy.imgfo.com/?referer=https://manganelo.com&url=https://s6.mkklcdnv6temp.com/mangakakalot/a1/aku_no_hana/vol1_chapter_2_invitation_to_the_voyage/27.jpg",
    "https://img-proxy.imgfo.com/?referer=https://manganelo.com&url=https://s6.mkklcdnv6temp.com/mangakakalot/a1/aku_no_hana/vol1_chapter_2_invitation_to_the_voyage/28.jpg",
    "https://img-proxy.imgfo.com/?referer=https://manganelo.com&url=https://s6.mkklcdnv6temp.com/mangakakalot/a1/aku_no_hana/vol1_chapter_2_invitation_to_the_voyage/29.jpg",
    "https://img-proxy.imgfo.com/?referer=https://manganelo.com&url=https://s6.mkklcdnv6temp.com/mangakakalot/a1/aku_no_hana/vol1_chapter_2_invitation_to_the_voyage/30.jpg",
    "https://img-proxy.imgfo.com/?referer=https://manganelo.com&url=https://s6.mkklcdnv6temp.com/mangakakalot/a1/aku_no_hana/vol1_chapter_2_invitation_to_the_voyage/31.jpg",
    "https://img-proxy.imgfo.com/?referer=https://manganelo.com&url=https://s6.mkklcdnv6temp.com/mangakakalot/a1/aku_no_hana/vol1_chapter_2_invitation_to_the_voyage/32.jpg",
    "https://img-proxy.imgfo.com/?referer=https://manganelo.com&url=https://s6.mkklcdnv6temp.com/mangakakalot/a1/aku_no_hana/vol1_chapter_2_invitation_to_the_voyage/33.jpg"
  ]
}