{
  "cover": "https://avt.mkklcdnv6.com/19/x/4-1583470489.jpg",
  "title": "Mysterious Girlfriend X",
  "original": "謎の彼女X ; 謎樣女友X ; Kekasih Misteri X ; My Mysterious Girlfriend X ; Nazo no Kanojo X",
  "genre": "Action, Adult, Comedy, Cooking, Ecchi, Romance, School life, Seinen, Slice of life, Supernatural, Manga",
  "author": "Ueshiba Riichi",
  "status": "Completed",
  "backlink": "https://manganu.com/collections/ueshiba-riichi/mysterious-girlfriend-x/",
  "description": "One day, a strange transfer student appears before Tsubaki. Urabe Mikoto is an antisocial girl, whose hobby is just sleeping during class-breaks. One day, Tsubaki goes to wake her up and accidentally tastes her drool... And gets hooked on that! After that, he starts going out with her and gets to know her better. Her second hobby, as it turns out, is carrying around scissors in her panties and cutting paper into flowers...",
  "language": "English",
  "images": [
    "https://img-proxy.imgfo.com/?referer=https://manganelo.com&url=https://s3.mkklcdnv6temp.com/mangakakalot/r1/read_mysterious_girlfriend_x_manga_online/vol11_chapter_78_the_mysterious_onepiece/1.jpg",
    "https://img-proxy.imgfo.com/?referer=https://manganelo.com&url=https://s3.mkklcdnv6temp.com/mangakakalot/r1/read_mysterious_girlfriend_x_manga_online/vol11_chapter_78_the_mysterious_onepiece/2.jpg",
    "https://img-proxy.imgfo.com/?referer=https://manganelo.com&url=https://s3.mkklcdnv6temp.com/mangakakalot/r1/read_mysterious_girlfriend_x_manga_online/vol11_chapter_78_the_mysterious_onepiece/3.jpg",
    "https://img-proxy.imgfo.com/?referer=https://manganelo.com&url=https://s3.mkklcdnv6temp.com/mangakakalot/r1/read_mysterious_girlfriend_x_manga_online/vol11_chapter_78_the_mysterious_onepiece/4.jpg",
    "https://img-proxy.imgfo.com/?referer=https://manganelo.com&url=https://s3.mkklcdnv6temp.com/mangakakalot/r1/read_mysterious_girlfriend_x_manga_online/vol11_chapter_78_the_mysterious_onepiece/5.jpg",
    "https://img-proxy.imgfo.com/?referer=https://manganelo.com&url=https://s3.mkklcdnv6temp.com/mangakakalot/r1/read_mysterious_girlfriend_x_manga_online/vol11_chapter_78_the_mysterious_onepiece/6.jpg",
    "https://img-proxy.imgfo.com/?referer=https://manganelo.com&url=https://s3.mkklcdnv6temp.com/mangakakalot/r1/read_mysterious_girlfriend_x_manga_online/vol11_chapter_78_the_mysterious_onepiece/7.jpg",
    "https://img-proxy.imgfo.com/?referer=https://manganelo.com&url=https://s3.mkklcdnv6temp.com/mangakakalot/r1/read_mysterious_girlfriend_x_manga_online/vol11_chapter_78_the_mysterious_onepiece/8.jpg",
    "https://img-proxy.imgfo.com/?referer=https://manganelo.com&url=https://s3.mkklcdnv6temp.com/mangakakalot/r1/read_mysterious_girlfriend_x_manga_online/vol11_chapter_78_the_mysterious_onepiece/9.jpg",
    "https://img-proxy.imgfo.com/?referer=https://manganelo.com&url=https://s3.mkklcdnv6temp.com/mangakakalot/r1/read_mysterious_girlfriend_x_manga_online/vol11_chapter_78_the_mysterious_onepiece/10.jpg",
    "https://img-proxy.imgfo.com/?referer=https://manganelo.com&url=https://s3.mkklcdnv6temp.com/mangakakalot/r1/read_mysterious_girlfriend_x_manga_online/vol11_chapter_78_the_mysterious_onepiece/11.jpg",
    "https://img-proxy.imgfo.com/?referer=https://manganelo.com&url=https://s3.mkklcdnv6temp.com/mangakakalot/r1/read_mysterious_girlfriend_x_manga_online/vol11_chapter_78_the_mysterious_onepiece/12.jpg",
    "https://img-proxy.imgfo.com/?referer=https://manganelo.com&url=https://s3.mkklcdnv6temp.com/mangakakalot/r1/read_mysterious_girlfriend_x_manga_online/vol11_chapter_78_the_mysterious_onepiece/13.jpg",
    "https://img-proxy.imgfo.com/?referer=https://manganelo.com&url=https://s3.mkklcdnv6temp.com/mangakakalot/r1/read_mysterious_girlfriend_x_manga_online/vol11_chapter_78_the_mysterious_onepiece/14.jpg",
    "https://img-proxy.imgfo.com/?referer=https://manganelo.com&url=https://s3.mkklcdnv6temp.com/mangakakalot/r1/read_mysterious_girlfriend_x_manga_online/vol11_chapter_78_the_mysterious_onepiece/15.jpg",
    "https://img-proxy.imgfo.com/?referer=https://manganelo.com&url=https://s3.mkklcdnv6temp.com/mangakakalot/r1/read_mysterious_girlfriend_x_manga_online/vol11_chapter_78_the_mysterious_onepiece/16.jpg",
    "https://img-proxy.imgfo.com/?referer=https://manganelo.com&url=https://s3.mkklcdnv6temp.com/mangakakalot/r1/read_mysterious_girlfriend_x_manga_online/vol11_chapter_78_the_mysterious_onepiece/17.jpg",
    "https://img-proxy.imgfo.com/?referer=https://manganelo.com&url=https://s3.mkklcdnv6temp.com/mangakakalot/r1/read_mysterious_girlfriend_x_manga_online/vol11_chapter_78_the_mysterious_onepiece/18.jpg",
    "https://img-proxy.imgfo.com/?referer=https://manganelo.com&url=https://s3.mkklcdnv6temp.com/mangakakalot/r1/read_mysterious_girlfriend_x_manga_online/vol11_chapter_78_the_mysterious_onepiece/19.jpg",
    "https://img-proxy.imgfo.com/?referer=https://manganelo.com&url=https://s3.mkklcdnv6temp.com/mangakakalot/r1/read_mysterious_girlfriend_x_manga_online/vol11_chapter_78_the_mysterious_onepiece/20.jpg",
    "https://img-proxy.imgfo.com/?referer=https://manganelo.com&url=https://s3.mkklcdnv6temp.com/mangakakalot/r1/read_mysterious_girlfriend_x_manga_online/vol11_chapter_78_the_mysterious_onepiece/21.jpg",
    "https://img-proxy.imgfo.com/?referer=https://manganelo.com&url=https://s3.mkklcdnv6temp.com/mangakakalot/r1/read_mysterious_girlfriend_x_manga_online/vol11_chapter_78_the_mysterious_onepiece/22.jpg",
    "https://img-proxy.imgfo.com/?referer=https://manganelo.com&url=https://s3.mkklcdnv6temp.com/mangakakalot/r1/read_mysterious_girlfriend_x_manga_online/vol11_chapter_78_the_mysterious_onepiece/23.jpg",
    "https://img-proxy.imgfo.com/?referer=https://manganelo.com&url=https://s3.mkklcdnv6temp.com/mangakakalot/r1/read_mysterious_girlfriend_x_manga_online/vol11_chapter_78_the_mysterious_onepiece/24.jpg",
    "https://img-proxy.imgfo.com/?referer=https://manganelo.com&url=https://s3.mkklcdnv6temp.com/mangakakalot/r1/read_mysterious_girlfriend_x_manga_online/vol11_chapter_78_the_mysterious_onepiece/25.jpg",
    "https://img-proxy.imgfo.com/?referer=https://manganelo.com&url=https://s3.mkklcdnv6temp.com/mangakakalot/r1/read_mysterious_girlfriend_x_manga_online/vol11_chapter_78_the_mysterious_onepiece/26.jpg"
  ]
}