{
  "cover": "https://avt.mkklcdnv6.com/49/y/6-1583476269.jpg",
  "title": "Aoi Shiro - Aoi Shiro No Enbukyoku",
  "original": "アオイシロ－青い城の円舞曲 ; Aoishiro - Aoi Shiro no Enbukyoku ; Aoi Shiro - Aoi Shiro no Rondo ; Aoishiro - Waltz of the Blue Castle ; Aoishiro no Waltz",
  "genre": "School life, Shoujo ai, Manga",
  "author": "Fumotogawa Tomoyuki",
  "status": "Completed",
  "backlink": "https://manganu.com/collections/fumotogawa-tomoyuki/aoi-shiro-aoi-shiro-no-enbukyoku/",
  "description": "Akita Momoko who entered Seijou Girls Academy is staying in the dorms.\nHer roommate is Aizawa Yasumi and Momoko is drawn to her, but Yasumi is searching for a different girl.\nWho is that girl…and what will become of Momoko’s feelings…!?\nBased on the PS2 game Aoishiro and serialized in Yurihime, this story which takes place before the game has finally appeared.",
  "language": "English",
  "images": [
    "https://img-proxy.imgfo.com/?referer=https://manganelo.com&url=https://s7.mkklcdnv6temp.com/mangakakalot/a2/aoi_shiro_aoi_shiro_no_enbukyoku/vol1_chapter_0_prelude/1.jpg",
    "https://img-proxy.imgfo.com/?referer=https://manganelo.com&url=https://s7.mkklcdnv6temp.com/mangakakalot/a2/aoi_shiro_aoi_shiro_no_enbukyoku/vol1_chapter_0_prelude/2.jpg",
    "https://img-proxy.imgfo.com/?referer=https://manganelo.com&url=https://s7.mkklcdnv6temp.com/mangakakalot/a2/aoi_shiro_aoi_shiro_no_enbukyoku/vol1_chapter_0_prelude/3.jpg",
    "https://img-proxy.imgfo.com/?referer=https://manganelo.com&url=https://s7.mkklcdnv6temp.com/mangakakalot/a2/aoi_shiro_aoi_shiro_no_enbukyoku/vol1_chapter_0_prelude/4.jpg",
    "https://img-proxy.imgfo.com/?referer=https://manganelo.com&url=https://s7.mkklcdnv6temp.com/mangakakalot/a2/aoi_shiro_aoi_shiro_no_enbukyoku/vol1_chapter_0_prelude/5.jpg",
    "https://img-proxy.imgfo.com/?referer=https://manganelo.com&url=https://s7.mkklcdnv6temp.com/mangakakalot/a2/aoi_shiro_aoi_shiro_no_enbukyoku/vol1_chapter_0_prelude/6.jpg",
    "https://img-proxy.imgfo.com/?referer=https://manganelo.com&url=https://s7.mkklcdnv6temp.com/mangakakalot/a2/aoi_shiro_aoi_shiro_no_enbukyoku/vol1_chapter_0_prelude/7.jpg",
    "https://img-proxy.imgfo.com/?referer=https://manganelo.com&url=https://s7.mkklcdnv6temp.com/mangakakalot/a2/aoi_shiro_aoi_shiro_no_enbukyoku/vol1_chapter_0_prelude/8.jpg",
    "https://img-proxy.imgfo.com/?referer=https://manganelo.com&url=https://s7.mkklcdnv6temp.com/mangakakalot/a2/aoi_shiro_aoi_shiro_no_enbukyoku/vol1_chapter_0_prelude/9.jpg",
    "https://img-proxy.imgfo.com/?referer=https://manganelo.com&url=https://s7.mkklcdnv6temp.com/mangakakalot/a2/aoi_shiro_aoi_shiro_no_enbukyoku/vol1_chapter_0_prelude/10.jpg",
    "https://img-proxy.imgfo.com/?referer=https://manganelo.com&url=https://s7.mkklcdnv6temp.com/mangakakalot/a2/aoi_shiro_aoi_shiro_no_enbukyoku/vol1_chapter_0_prelude/11.jpg",
    "https://img-proxy.imgfo.com/?referer=https://manganelo.com&url=https://s7.mkklcdnv6temp.com/mangakakalot/a2/aoi_shiro_aoi_shiro_no_enbukyoku/vol1_chapter_0_prelude/12.jpg",
    "https://img-proxy.imgfo.com/?referer=https://manganelo.com&url=https://s7.mkklcdnv6temp.com/mangakakalot/a2/aoi_shiro_aoi_shiro_no_enbukyoku/vol1_chapter_0_prelude/13.jpg",
    "https://img-proxy.imgfo.com/?referer=https://manganelo.com&url=https://s7.mkklcdnv6temp.com/mangakakalot/a2/aoi_shiro_aoi_shiro_no_enbukyoku/vol1_chapter_0_prelude/14.jpg",
    "https://img-proxy.imgfo.com/?referer=https://manganelo.com&url=https://s7.mkklcdnv6temp.com/mangakakalot/a2/aoi_shiro_aoi_shiro_no_enbukyoku/vol1_chapter_0_prelude/15.jpg",
    "https://img-proxy.imgfo.com/?referer=https://manganelo.com&url=https://s7.mkklcdnv6temp.com/mangakakalot/a2/aoi_shiro_aoi_shiro_no_enbukyoku/vol1_chapter_0_prelude/16.jpg",
    "https://img-proxy.imgfo.com/?referer=https://manganelo.com&url=https://s7.mkklcdnv6temp.com/mangakakalot/a2/aoi_shiro_aoi_shiro_no_enbukyoku/vol1_chapter_0_prelude/17.jpg",
    "https://img-proxy.imgfo.com/?referer=https://manganelo.com&url=https://s7.mkklcdnv6temp.com/mangakakalot/a2/aoi_shiro_aoi_shiro_no_enbukyoku/vol1_chapter_0_prelude/18.jpg",
    "https://img-proxy.imgfo.com/?referer=https://manganelo.com&url=https://s7.mkklcdnv6temp.com/mangakakalot/a2/aoi_shiro_aoi_shiro_no_enbukyoku/vol1_chapter_0_prelude/19.jpg",
    "https://img-proxy.imgfo.com/?referer=https://manganelo.com&url=https://s7.mkklcdnv6temp.com/mangakakalot/a2/aoi_shiro_aoi_shiro_no_enbukyoku/vol1_chapter_0_prelude/20.jpg",
    "https://img-proxy.imgfo.com/?referer=https://manganelo.com&url=https://s7.mkklcdnv6temp.com/mangakakalot/a2/aoi_shiro_aoi_shiro_no_enbukyoku/vol1_chapter_0_prelude/21.jpg",
    "https://img-proxy.imgfo.com/?referer=https://manganelo.com&url=https://s7.mkklcdnv6temp.com/mangakakalot/a2/aoi_shiro_aoi_shiro_no_enbukyoku/vol1_chapter_0_prelude/22.jpg",
    "https://img-proxy.imgfo.com/?referer=https://manganelo.com&url=https://s7.mkklcdnv6temp.com/mangakakalot/a2/aoi_shiro_aoi_shiro_no_enbukyoku/vol1_chapter_0_prelude/23.jpg",
    "https://img-proxy.imgfo.com/?referer=https://manganelo.com&url=https://s7.mkklcdnv6temp.com/mangakakalot/a2/aoi_shiro_aoi_shiro_no_enbukyoku/vol1_chapter_0_prelude/24.jpg"
  ]
}