{
  "cover": "https://avt.mkklcdnv6.com/46/w/4-1583471660.jpg",
  "title": "No Bra",
  "original": "のーぶら ; 同居非男孩 ; Nobura",
  "genre": "Comedy, Drama, Ecchi, Gender bender, Romance, School life, Shounen, Manga",
  "author": "Kawatsu Kenjiro",
  "status": "Completed",
  "backlink": "https://manganu.com/collections/kawatsu-kenjiro/no-bra/",
  "description": "Masato Kataoka moves into his new dorm to begin his life in high school when one day, a cute girl named Yuki Nomura becomes his roomate. Masato learns that Yuki is an old childhood friend, but becomes surprised when he realizes that Yuki was, and still is a guy. Yuki's charm and affection for cross-dressing leaves Masato with feelings of discomfort and fright.\nFind out how Masato manages to deal with a cute cross-dresser and the many obstacles of high school life.\nRésumé by: Krasae",
  "language": "English",
  "images": [
    "https://img-proxy.imgfo.com/?referer=https://manganelo.com&url=https://s6.mkklcdnv6temp.com/mangakakalot/n2/no_bra/vol3_chapter_19_despicable/1.jpg",
    "https://img-proxy.imgfo.com/?referer=https://manganelo.com&url=https://s6.mkklcdnv6temp.com/mangakakalot/n2/no_bra/vol3_chapter_19_despicable/2.jpg",
    "https://img-proxy.imgfo.com/?referer=https://manganelo.com&url=https://s6.mkklcdnv6temp.com/mangakakalot/n2/no_bra/vol3_chapter_19_despicable/3.jpg",
    "https://img-proxy.imgfo.com/?referer=https://manganelo.com&url=https://s6.mkklcdnv6temp.com/mangakakalot/n2/no_bra/vol3_chapter_19_despicable/4.jpg",
    "https://img-proxy.imgfo.com/?referer=https://manganelo.com&url=https://s6.mkklcdnv6temp.com/mangakakalot/n2/no_bra/vol3_chapter_19_despicable/5.jpg",
    "https://img-proxy.imgfo.com/?referer=https://manganelo.com&url=https://s6.mkklcdnv6temp.com/mangakakalot/n2/no_bra/vol3_chapter_19_despicable/6.jpg",
    "https://img-proxy.imgfo.com/?referer=https://manganelo.com&url=https://s6.mkklcdnv6temp.com/mangakakalot/n2/no_bra/vol3_chapter_19_despicable/7.jpg",
    "https://img-proxy.imgfo.com/?referer=https://manganelo.com&url=https://s6.mkklcdnv6temp.com/mangakakalot/n2/no_bra/vol3_chapter_19_despicable/8.jpg",
    "https://img-proxy.imgfo.com/?referer=https://manganelo.com&url=https://s6.mkklcdnv6temp.com/mangakakalot/n2/no_bra/vol3_chapter_19_despicable/9.jpg",
    "https://img-proxy.imgfo.com/?referer=https://manganelo.com&url=https://s6.mkklcdnv6temp.com/mangakakalot/n2/no_bra/vol3_chapter_19_despicable/10.jpg",
    "https://img-proxy.imgfo.com/?referer=https://manganelo.com&url=https://s6.mkklcdnv6temp.com/mangakakalot/n2/no_bra/vol3_chapter_19_despicable/11.jpg",
    "https://img-proxy.imgfo.com/?referer=https://manganelo.com&url=https://s6.mkklcdnv6temp.com/mangakakalot/n2/no_bra/vol3_chapter_19_despicable/12.jpg",
    "https://img-proxy.imgfo.com/?referer=https://manganelo.com&url=https://s6.mkklcdnv6temp.com/mangakakalot/n2/no_bra/vol3_chapter_19_despicable/13.jpg",
    "https://img-proxy.imgfo.com/?referer=https://manganelo.com&url=https://s6.mkklcdnv6temp.com/mangakakalot/n2/no_bra/vol3_chapter_19_despicable/14.jpg",
    "https://img-proxy.imgfo.com/?referer=https://manganelo.com&url=https://s6.mkklcdnv6temp.com/mangakakalot/n2/no_bra/vol3_chapter_19_despicable/15.jpg",
    "https://img-proxy.imgfo.com/?referer=https://manganelo.com&url=https://s6.mkklcdnv6temp.com/mangakakalot/n2/no_bra/vol3_chapter_19_despicable/16.jpg",
    "https://img-proxy.imgfo.com/?referer=https://manganelo.com&url=https://s6.mkklcdnv6temp.com/mangakakalot/n2/no_bra/vol3_chapter_19_despicable/17.jpg",
    "https://img-proxy.imgfo.com/?referer=https://manganelo.com&url=https://s6.mkklcdnv6temp.com/mangakakalot/n2/no_bra/vol3_chapter_19_despicable/18.jpg",
    "https://img-proxy.imgfo.com/?referer=https://manganelo.com&url=https://s6.mkklcdnv6temp.com/mangakakalot/n2/no_bra/vol3_chapter_19_despicable/19.jpg",
    "https://img-proxy.imgfo.com/?referer=https://manganelo.com&url=https://s6.mkklcdnv6temp.com/mangakakalot/n2/no_bra/vol3_chapter_19_despicable/20.jpg",
    "https://img-proxy.imgfo.com/?referer=https://manganelo.com&url=https://s6.mkklcdnv6temp.com/mangakakalot/n2/no_bra/vol3_chapter_19_despicable/21.jpg",
    "https://img-proxy.imgfo.com/?referer=https://manganelo.com&url=https://s6.mkklcdnv6temp.com/mangakakalot/n2/no_bra/vol3_chapter_19_despicable/22.jpg",
    "https://img-proxy.imgfo.com/?referer=https://manganelo.com&url=https://s6.mkklcdnv6temp.com/mangakakalot/n2/no_bra/vol3_chapter_19_despicable/23.jpg",
    "https://img-proxy.imgfo.com/?referer=https://manganelo.com&url=https://s6.mkklcdnv6temp.com/mangakakalot/n2/no_bra/vol3_chapter_19_despicable/24.jpg",
    "https://img-proxy.imgfo.com/?referer=https://manganelo.com&url=https://s6.mkklcdnv6temp.com/mangakakalot/n2/no_bra/vol3_chapter_19_despicable/25.jpg",
    "https://img-proxy.imgfo.com/?referer=https://manganelo.com&url=https://s6.mkklcdnv6temp.com/mangakakalot/n2/no_bra/vol3_chapter_19_despicable/26.jpg",
    "https://img-proxy.imgfo.com/?referer=https://manganelo.com&url=https://s6.mkklcdnv6temp.com/mangakakalot/n2/no_bra/vol3_chapter_19_despicable/27.jpg",
    "https://img-proxy.imgfo.com/?referer=https://manganelo.com&url=https://s6.mkklcdnv6temp.com/mangakakalot/n2/no_bra/vol3_chapter_19_despicable/28.jpg",
    "https://img-proxy.imgfo.com/?referer=https://manganelo.com&url=https://s6.mkklcdnv6temp.com/mangakakalot/n2/no_bra/vol3_chapter_19_despicable/29.jpg",
    "https://img-proxy.imgfo.com/?referer=https://manganelo.com&url=https://s6.mkklcdnv6temp.com/mangakakalot/n2/no_bra/vol3_chapter_19_despicable/30.jpg"
  ]
}