{
  "cover": "https://avt.mkklcdnv6.com/11/h/7-1583476714.jpg",
  "title": "14R",
  "original": "给刚开始恋爱的我们 ; 14 Rating ; For Us Who Begin to Love ; Fourteen Rating ; Koi o Hajimeru Bokutachi ni ; Koiboku",
  "genre": "Oneshot, Romance, School life, Shoujo, Manga",
  "author": "Maki Youko",
  "status": "Completed",
  "backlink": "https://manganu.com/collections/maki-youko/14r/",
  "description": "A volume of 5 romantic oneshots.\n1) 14R\nKawamura Tamaki, 14 years old.\nSeen as a very serious class rep by everyone around. But, what does it mean to be serious? She too falls in love, and...!?\nA blinding underworld unraveled here!!\n- From ShoujoLove\n2) Mahiru ni Kakedasu\n3) Watakushi-sama\n4) Koi wo Hajimeru Bokutachi ni (For Us Who Begin to Love)\nA girl, Kawai Oto, and a guy... Will they fall in love?\n- From Dragon Voice Project\n5) Daily News\nTwo twins support each other through everything, but can a guy tear them apart?",
  "language": "English",
  "images": [
    "https://img-proxy.imgfo.com/?referer=https://manganelo.com&url=https://s7.mkklcdnv6temp.com/mangakakalot/02/14r/vol1_chapter_5_daily_news/1.jpg",
    "https://img-proxy.imgfo.com/?referer=https://manganelo.com&url=https://s7.mkklcdnv6temp.com/mangakakalot/02/14r/vol1_chapter_5_daily_news/2.jpg",
    "https://img-proxy.imgfo.com/?referer=https://manganelo.com&url=https://s7.mkklcdnv6temp.com/mangakakalot/02/14r/vol1_chapter_5_daily_news/3.jpg",
    "https://img-proxy.imgfo.com/?referer=https://manganelo.com&url=https://s7.mkklcdnv6temp.com/mangakakalot/02/14r/vol1_chapter_5_daily_news/4.jpg",
    "https://img-proxy.imgfo.com/?referer=https://manganelo.com&url=https://s7.mkklcdnv6temp.com/mangakakalot/02/14r/vol1_chapter_5_daily_news/5.jpg",
    "https://img-proxy.imgfo.com/?referer=https://manganelo.com&url=https://s7.mkklcdnv6temp.com/mangakakalot/02/14r/vol1_chapter_5_daily_news/6.jpg",
    "https://img-proxy.imgfo.com/?referer=https://manganelo.com&url=https://s7.mkklcdnv6temp.com/mangakakalot/02/14r/vol1_chapter_5_daily_news/7.jpg",
    "https://img-proxy.imgfo.com/?referer=https://manganelo.com&url=https://s7.mkklcdnv6temp.com/mangakakalot/02/14r/vol1_chapter_5_daily_news/8.jpg",
    "https://img-proxy.imgfo.com/?referer=https://manganelo.com&url=https://s7.mkklcdnv6temp.com/mangakakalot/02/14r/vol1_chapter_5_daily_news/9.jpg",
    "https://img-proxy.imgfo.com/?referer=https://manganelo.com&url=https://s7.mkklcdnv6temp.com/mangakakalot/02/14r/vol1_chapter_5_daily_news/10.jpg",
    "https://img-proxy.imgfo.com/?referer=https://manganelo.com&url=https://s7.mkklcdnv6temp.com/mangakakalot/02/14r/vol1_chapter_5_daily_news/11.jpg",
    "https://img-proxy.imgfo.com/?referer=https://manganelo.com&url=https://s7.mkklcdnv6temp.com/mangakakalot/02/14r/vol1_chapter_5_daily_news/12.jpg",
    "https://img-proxy.imgfo.com/?referer=https://manganelo.com&url=https://s7.mkklcdnv6temp.com/mangakakalot/02/14r/vol1_chapter_5_daily_news/13.jpg",
    "https://img-proxy.imgfo.com/?referer=https://manganelo.com&url=https://s7.mkklcdnv6temp.com/mangakakalot/02/14r/vol1_chapter_5_daily_news/14.jpg",
    "https://img-proxy.imgfo.com/?referer=https://manganelo.com&url=https://s7.mkklcdnv6temp.com/mangakakalot/02/14r/vol1_chapter_5_daily_news/15.jpg",
    "https://img-proxy.imgfo.com/?referer=https://manganelo.com&url=https://s7.mkklcdnv6temp.com/mangakakalot/02/14r/vol1_chapter_5_daily_news/16.jpg",
    "https://img-proxy.imgfo.com/?referer=https://manganelo.com&url=https://s7.mkklcdnv6temp.com/mangakakalot/02/14r/vol1_chapter_5_daily_news/17.jpg",
    "https://img-proxy.imgfo.com/?referer=https://manganelo.com&url=https://s7.mkklcdnv6temp.com/mangakakalot/02/14r/vol1_chapter_5_daily_news/18.jpg",
    "https://img-proxy.imgfo.com/?referer=https://manganelo.com&url=https://s7.mkklcdnv6temp.com/mangakakalot/02/14r/vol1_chapter_5_daily_news/19.jpg",
    "https://img-proxy.imgfo.com/?referer=https://manganelo.com&url=https://s7.mkklcdnv6temp.com/mangakakalot/02/14r/vol1_chapter_5_daily_news/20.jpg",
    "https://img-proxy.imgfo.com/?referer=https://manganelo.com&url=https://s7.mkklcdnv6temp.com/mangakakalot/02/14r/vol1_chapter_5_daily_news/21.jpg",
    "https://img-proxy.imgfo.com/?referer=https://manganelo.com&url=https://s7.mkklcdnv6temp.com/mangakakalot/02/14r/vol1_chapter_5_daily_news/22.jpg",
    "https://img-proxy.imgfo.com/?referer=https://manganelo.com&url=https://s7.mkklcdnv6temp.com/mangakakalot/02/14r/vol1_chapter_5_daily_news/23.jpg",
    "https://img-proxy.imgfo.com/?referer=https://manganelo.com&url=https://s7.mkklcdnv6temp.com/mangakakalot/02/14r/vol1_chapter_5_daily_news/24.jpg",
    "https://img-proxy.imgfo.com/?referer=https://manganelo.com&url=https://s7.mkklcdnv6temp.com/mangakakalot/02/14r/vol1_chapter_5_daily_news/25.jpg",
    "https://img-proxy.imgfo.com/?referer=https://manganelo.com&url=https://s7.mkklcdnv6temp.com/mangakakalot/02/14r/vol1_chapter_5_daily_news/26.jpg",
    "https://img-proxy.imgfo.com/?referer=https://manganelo.com&url=https://s7.mkklcdnv6temp.com/mangakakalot/02/14r/vol1_chapter_5_daily_news/27.jpg",
    "https://img-proxy.imgfo.com/?referer=https://manganelo.com&url=https://s7.mkklcdnv6temp.com/mangakakalot/02/14r/vol1_chapter_5_daily_news/28.jpg",
    "https://img-proxy.imgfo.com/?referer=https://manganelo.com&url=https://s7.mkklcdnv6temp.com/mangakakalot/02/14r/vol1_chapter_5_daily_news/29.jpg",
    "https://img-proxy.imgfo.com/?referer=https://manganelo.com&url=https://s7.mkklcdnv6temp.com/mangakakalot/02/14r/vol1_chapter_5_daily_news/30.jpg",
    "https://img-proxy.imgfo.com/?referer=https://manganelo.com&url=https://s7.mkklcdnv6temp.com/mangakakalot/02/14r/vol1_chapter_5_daily_news/31.jpg",
    "https://img-proxy.imgfo.com/?referer=https://manganelo.com&url=https://s7.mkklcdnv6temp.com/mangakakalot/02/14r/vol1_chapter_5_daily_news/32.jpg",
    "https://img-proxy.imgfo.com/?referer=https://manganelo.com&url=https://s7.mkklcdnv6temp.com/mangakakalot/02/14r/vol1_chapter_5_daily_news/33.jpg",
    "https://img-proxy.imgfo.com/?referer=https://manganelo.com&url=https://s7.mkklcdnv6temp.com/mangakakalot/02/14r/vol1_chapter_5_daily_news/34.jpg",
    "https://img-proxy.imgfo.com/?referer=https://manganelo.com&url=https://s7.mkklcdnv6temp.com/mangakakalot/02/14r/vol1_chapter_5_daily_news/35.jpg",
    "https://img-proxy.imgfo.com/?referer=https://manganelo.com&url=https://s7.mkklcdnv6temp.com/mangakakalot/02/14r/vol1_chapter_5_daily_news/36.jpg",
    "https://img-proxy.imgfo.com/?referer=https://manganelo.com&url=https://s7.mkklcdnv6temp.com/mangakakalot/02/14r/vol1_chapter_5_daily_news/37.jpg",
    "https://img-proxy.imgfo.com/?referer=https://manganelo.com&url=https://s7.mkklcdnv6temp.com/mangakakalot/02/14r/vol1_chapter_5_daily_news/38.jpg",
    "https://img-proxy.imgfo.com/?referer=https://manganelo.com&url=https://s7.mkklcdnv6temp.com/mangakakalot/02/14r/vol1_chapter_5_daily_news/39.jpg",
    "https://img-proxy.imgfo.com/?referer=https://manganelo.com&url=https://s7.mkklcdnv6temp.com/mangakakalot/02/14r/vol1_chapter_5_daily_news/40.jpg",
    "https://img-proxy.imgfo.com/?referer=https://manganelo.com&url=https://s7.mkklcdnv6temp.com/mangakakalot/02/14r/vol1_chapter_5_daily_news/41.jpg",
    "https://img-proxy.imgfo.com/?referer=https://manganelo.com&url=https://s7.mkklcdnv6temp.com/mangakakalot/02/14r/vol1_chapter_5_daily_news/42.jpg",
    "https://img-proxy.imgfo.com/?referer=https://manganelo.com&url=https://s7.mkklcdnv6temp.com/mangakakalot/02/14r/vol1_chapter_5_daily_news/43.jpg",
    "https://img-proxy.imgfo.com/?referer=https://manganelo.com&url=https://s7.mkklcdnv6temp.com/mangakakalot/02/14r/vol1_chapter_5_daily_news/44.jpg",
    "https://img-proxy.imgfo.com/?referer=https://manganelo.com&url=https://s7.mkklcdnv6temp.com/mangakakalot/02/14r/vol1_chapter_5_daily_news/45.jpg",
    "https://img-proxy.imgfo.com/?referer=https://manganelo.com&url=https://s7.mkklcdnv6temp.com/mangakakalot/02/14r/vol1_chapter_5_daily_news/46.jpg"
  ]
}