{
  "cover": "https://avt.mkklcdnv6.com/32/y/7-1583477510.jpg",
  "title": "Lesbian Solo!",
  "original": "LesbianSOLO!",
  "genre": "Shoujo ai, Slice of life, Yuri, Manga",
  "author": "Morishima Akiko",
  "status": "Completed",
  "backlink": "https://manganu.com/collections/morishima-akiko/lesbian-solo/",
  "description": "Koharu is solo again, so her friends drag her out to get hammered and talk about their relationships.\nSource: Yuri Project",
  "language": "English",
  "images": [
    "https://img-proxy.imgfo.com/?referer=https://manganelo.com&url=https://s41.mkklcdnv6temp.com/mangakakalot/l1/lesbian_solo/vol0_chapter_0/1.jpg",
    "https://img-proxy.imgfo.com/?referer=https://manganelo.com&url=https://s41.mkklcdnv6temp.com/mangakakalot/l1/lesbian_solo/vol0_chapter_0/2.jpg",
    "https://img-proxy.imgfo.com/?referer=https://manganelo.com&url=https://s41.mkklcdnv6temp.com/mangakakalot/l1/lesbian_solo/vol0_chapter_0/3.jpg",
    "https://img-proxy.imgfo.com/?referer=https://manganelo.com&url=https://s41.mkklcdnv6temp.com/mangakakalot/l1/lesbian_solo/vol0_chapter_0/4.jpg",
    "https://img-proxy.imgfo.com/?referer=https://manganelo.com&url=https://s41.mkklcdnv6temp.com/mangakakalot/l1/lesbian_solo/vol0_chapter_0/5.jpg",
    "https://img-proxy.imgfo.com/?referer=https://manganelo.com&url=https://s41.mkklcdnv6temp.com/mangakakalot/l1/lesbian_solo/vol0_chapter_0/6.jpg",
    "https://img-proxy.imgfo.com/?referer=https://manganelo.com&url=https://s41.mkklcdnv6temp.com/mangakakalot/l1/lesbian_solo/vol0_chapter_0/7.jpg",
    "https://img-proxy.imgfo.com/?referer=https://manganelo.com&url=https://s41.mkklcdnv6temp.com/mangakakalot/l1/lesbian_solo/vol0_chapter_0/8.jpg",
    "https://img-proxy.imgfo.com/?referer=https://manganelo.com&url=https://s41.mkklcdnv6temp.com/mangakakalot/l1/lesbian_solo/vol0_chapter_0/9.jpg",
    "https://img-proxy.imgfo.com/?referer=https://manganelo.com&url=https://s41.mkklcdnv6temp.com/mangakakalot/l1/lesbian_solo/vol0_chapter_0/10.jpg",
    "https://img-proxy.imgfo.com/?referer=https://manganelo.com&url=https://s41.mkklcdnv6temp.com/mangakakalot/l1/lesbian_solo/vol0_chapter_0/11.jpg",
    "https://img-proxy.imgfo.com/?referer=https://manganelo.com&url=https://s41.mkklcdnv6temp.com/mangakakalot/l1/lesbian_solo/vol0_chapter_0/12.jpg",
    "https://img-proxy.imgfo.com/?referer=https://manganelo.com&url=https://s41.mkklcdnv6temp.com/mangakakalot/l1/lesbian_solo/vol0_chapter_0/13.jpg",
    "https://img-proxy.imgfo.com/?referer=https://manganelo.com&url=https://s41.mkklcdnv6temp.com/mangakakalot/l1/lesbian_solo/vol0_chapter_0/14.jpg",
    "https://img-proxy.imgfo.com/?referer=https://manganelo.com&url=https://s41.mkklcdnv6temp.com/mangakakalot/l1/lesbian_solo/vol0_chapter_0/15.jpg",
    "https://img-proxy.imgfo.com/?referer=https://manganelo.com&url=https://s41.mkklcdnv6temp.com/mangakakalot/l1/lesbian_solo/vol0_chapter_0/16.jpg",
    "https://img-proxy.imgfo.com/?referer=https://manganelo.com&url=https://s41.mkklcdnv6temp.com/mangakakalot/l1/lesbian_solo/vol0_chapter_0/17.jpg",
    "https://img-proxy.imgfo.com/?referer=https://manganelo.com&url=https://s41.mkklcdnv6temp.com/mangakakalot/l1/lesbian_solo/vol0_chapter_0/18.jpg",
    "https://img-proxy.imgfo.com/?referer=https://manganelo.com&url=https://s41.mkklcdnv6temp.com/mangakakalot/l1/lesbian_solo/vol0_chapter_0/19.jpg",
    "https://img-proxy.imgfo.com/?referer=https://manganelo.com&url=https://s41.mkklcdnv6temp.com/mangakakalot/l1/lesbian_solo/vol0_chapter_0/20.jpg",
    "https://img-proxy.imgfo.com/?referer=https://manganelo.com&url=https://s41.mkklcdnv6temp.com/mangakakalot/l1/lesbian_solo/vol0_chapter_0/21.jpg"
  ]
}