{
  "cover": "https://avt.mkklcdnv6.com/1/b/6-1583476316.jpg",
  "title": "Anne No Aijou",
  "original": "アンの愛情 ; Anne of the Island ; Anne's Love ; Red Haired Anne 5",
  "genre": "Drama, Historical, Josei, Romance, Shoujo, Slice of life, Manga",
  "author": "Igarashi Yumiko",
  "status": "Completed",
  "backlink": "https://manganu.com/collections/igarashi-yumiko/anne-no-aijou/",
  "description": "Anne leaves Green Gables and her work as a teacher in Avonlea to continue her education at Redmond College in Nova Scotia. She tucks her memories of rural Avonlea away and discovers life on her own terms, filled with surprises… including a marriage proposal from the worst fellow imaginable, the sale of her very first story, and a tragedy that teaches her a painful lesson.",
  "language": "English",
  "images": [
    "https://img-proxy.imgfo.com/?referer=https://manganelo.com&url=https://s6.mkklcdnv6temp.com/mangakakalot/a1/anne_no_aijou/vol1_chapter_4/1.jpg",
    "https://img-proxy.imgfo.com/?referer=https://manganelo.com&url=https://s6.mkklcdnv6temp.com/mangakakalot/a1/anne_no_aijou/vol1_chapter_4/2.jpg",
    "https://img-proxy.imgfo.com/?referer=https://manganelo.com&url=https://s6.mkklcdnv6temp.com/mangakakalot/a1/anne_no_aijou/vol1_chapter_4/3.jpg",
    "https://img-proxy.imgfo.com/?referer=https://manganelo.com&url=https://s6.mkklcdnv6temp.com/mangakakalot/a1/anne_no_aijou/vol1_chapter_4/4.jpg",
    "https://img-proxy.imgfo.com/?referer=https://manganelo.com&url=https://s6.mkklcdnv6temp.com/mangakakalot/a1/anne_no_aijou/vol1_chapter_4/5.jpg",
    "https://img-proxy.imgfo.com/?referer=https://manganelo.com&url=https://s6.mkklcdnv6temp.com/mangakakalot/a1/anne_no_aijou/vol1_chapter_4/6.jpg",
    "https://img-proxy.imgfo.com/?referer=https://manganelo.com&url=https://s6.mkklcdnv6temp.com/mangakakalot/a1/anne_no_aijou/vol1_chapter_4/7.jpg",
    "https://img-proxy.imgfo.com/?referer=https://manganelo.com&url=https://s6.mkklcdnv6temp.com/mangakakalot/a1/anne_no_aijou/vol1_chapter_4/8.jpg",
    "https://img-proxy.imgfo.com/?referer=https://manganelo.com&url=https://s6.mkklcdnv6temp.com/mangakakalot/a1/anne_no_aijou/vol1_chapter_4/9.jpg",
    "https://img-proxy.imgfo.com/?referer=https://manganelo.com&url=https://s6.mkklcdnv6temp.com/mangakakalot/a1/anne_no_aijou/vol1_chapter_4/10.jpg",
    "https://img-proxy.imgfo.com/?referer=https://manganelo.com&url=https://s6.mkklcdnv6temp.com/mangakakalot/a1/anne_no_aijou/vol1_chapter_4/11.jpg",
    "https://img-proxy.imgfo.com/?referer=https://manganelo.com&url=https://s6.mkklcdnv6temp.com/mangakakalot/a1/anne_no_aijou/vol1_chapter_4/12.jpg",
    "https://img-proxy.imgfo.com/?referer=https://manganelo.com&url=https://s6.mkklcdnv6temp.com/mangakakalot/a1/anne_no_aijou/vol1_chapter_4/13.jpg",
    "https://img-proxy.imgfo.com/?referer=https://manganelo.com&url=https://s6.mkklcdnv6temp.com/mangakakalot/a1/anne_no_aijou/vol1_chapter_4/14.jpg",
    "https://img-proxy.imgfo.com/?referer=https://manganelo.com&url=https://s6.mkklcdnv6temp.com/mangakakalot/a1/anne_no_aijou/vol1_chapter_4/15.jpg",
    "https://img-proxy.imgfo.com/?referer=https://manganelo.com&url=https://s6.mkklcdnv6temp.com/mangakakalot/a1/anne_no_aijou/vol1_chapter_4/16.jpg",
    "https://img-proxy.imgfo.com/?referer=https://manganelo.com&url=https://s6.mkklcdnv6temp.com/mangakakalot/a1/anne_no_aijou/vol1_chapter_4/17.jpg",
    "https://img-proxy.imgfo.com/?referer=https://manganelo.com&url=https://s6.mkklcdnv6temp.com/mangakakalot/a1/anne_no_aijou/vol1_chapter_4/18.jpg",
    "https://img-proxy.imgfo.com/?referer=https://manganelo.com&url=https://s6.mkklcdnv6temp.com/mangakakalot/a1/anne_no_aijou/vol1_chapter_4/19.jpg",
    "https://img-proxy.imgfo.com/?referer=https://manganelo.com&url=https://s6.mkklcdnv6temp.com/mangakakalot/a1/anne_no_aijou/vol1_chapter_4/20.jpg",
    "https://img-proxy.imgfo.com/?referer=https://manganelo.com&url=https://s6.mkklcdnv6temp.com/mangakakalot/a1/anne_no_aijou/vol1_chapter_4/21.jpg",
    "https://img-proxy.imgfo.com/?referer=https://manganelo.com&url=https://s6.mkklcdnv6temp.com/mangakakalot/a1/anne_no_aijou/vol1_chapter_4/22.jpg",
    "https://img-proxy.imgfo.com/?referer=https://manganelo.com&url=https://s6.mkklcdnv6temp.com/mangakakalot/a1/anne_no_aijou/vol1_chapter_4/23.jpg",
    "https://img-proxy.imgfo.com/?referer=https://manganelo.com&url=https://s6.mkklcdnv6temp.com/mangakakalot/a1/anne_no_aijou/vol1_chapter_4/24.jpg",
    "https://img-proxy.imgfo.com/?referer=https://manganelo.com&url=https://s6.mkklcdnv6temp.com/mangakakalot/a1/anne_no_aijou/vol1_chapter_4/25.jpg",
    "https://img-proxy.imgfo.com/?referer=https://manganelo.com&url=https://s6.mkklcdnv6temp.com/mangakakalot/a1/anne_no_aijou/vol1_chapter_4/26.jpg",
    "https://img-proxy.imgfo.com/?referer=https://manganelo.com&url=https://s6.mkklcdnv6temp.com/mangakakalot/a1/anne_no_aijou/vol1_chapter_4/27.jpg",
    "https://img-proxy.imgfo.com/?referer=https://manganelo.com&url=https://s6.mkklcdnv6temp.com/mangakakalot/a1/anne_no_aijou/vol1_chapter_4/28.jpg",
    "https://img-proxy.imgfo.com/?referer=https://manganelo.com&url=https://s6.mkklcdnv6temp.com/mangakakalot/a1/anne_no_aijou/vol1_chapter_4/29.jpg",
    "https://img-proxy.imgfo.com/?referer=https://manganelo.com&url=https://s6.mkklcdnv6temp.com/mangakakalot/a1/anne_no_aijou/vol1_chapter_4/30.jpg",
    "https://img-proxy.imgfo.com/?referer=https://manganelo.com&url=https://s6.mkklcdnv6temp.com/mangakakalot/a1/anne_no_aijou/vol1_chapter_4/31.jpg",
    "https://img-proxy.imgfo.com/?referer=https://manganelo.com&url=https://s6.mkklcdnv6temp.com/mangakakalot/a1/anne_no_aijou/vol1_chapter_4/32.jpg",
    "https://img-proxy.imgfo.com/?referer=https://manganelo.com&url=https://s6.mkklcdnv6temp.com/mangakakalot/a1/anne_no_aijou/vol1_chapter_4/33.jpg",
    "https://img-proxy.imgfo.com/?referer=https://manganelo.com&url=https://s6.mkklcdnv6temp.com/mangakakalot/a1/anne_no_aijou/vol1_chapter_4/34.jpg"
  ]
}