{
  "cover": "https://avt.mkklcdnv6.com/1/e/3-1583469694.jpg",
  "title": "Dokyusei H Kara Hajimaru Koi",
  "original": "同級生 Hから始まる恋 ; Brazen Lovers ; Double Face The Dangerous Classmate ; Feel It, Roast Virgin ; Full of Feeling! The First Night! ; Love Me on the Side Seat ; Secret Apple ; Side Seat de Daite ; St. Gal Chick Valentine's Day ; Unreasonable Lovers",
  "genre": "Comedy, Drama, Romance, School life, Shoujo, Smut, Manga",
  "author": "Shinjo Mayu",
  "status": "Completed",
  "backlink": "https://manganu.com/collections/shinjo-mayu/dokyusei-h-kara-hajimaru-koi/",
  "description": "[From ShoujoMagic]:\nA collection of short stories from the pages of Sho-Comi!\nStory 1: Side Seat de Daite.\nMamii is in love with Sawaii, the person everyone considers to be a dork. When she confesses to him, he tells her he has conditions for dating her. What are the conditions? And is Sawaii the person she really thinks he is?\nStory 2: Brazen Lovers. three chapters\nYuuna's mother moves them everytime she breaks up with a boyfriend. This new place is a real dump. Annoyed, Yuuna heads off to the beach where she meets a very sexy guy. Sou says \"Lets always be together.\" but when Yuuna wakes up he's gone! Two people like this are bound to meet again...\nStory 3: Feel It, Roast Virgin. Rika is a virgin and is very nervous about her first night with her boyfriend Yuuya. It doesn't help that Yuuya tries to do it everywhere, outside, at school, he's ready! But will Rika be ready?\nStory 4: St. Gal Chick Valentine's Day. Mika's school has separate buildings for boys and girls and the girls have asked Mika as a student representative to get them co-ed classrooms so they can spend Valentine's Day with school idol, Subaru. Mika vows to try her hardest, even though Subaru annoys her. But maybe he's not such a bad guy.\nStory 5: Secret Apple. Sakura Kazuki and Katou Ryu are lovers who have been meeting secretly for two years. Because they were once step siblings, and their parents had a messy divorce, they can't tell anyone. Will they ever be able to love freely?\nStory 6: Double Face The Dangerous Classmate. A short 6-paged funny.",
  "language": "English",
  "images": [
    "https://img-proxy.imgfo.com/?referer=https://manganelo.com&url=https://s6.mkklcdnv6temp.com/mangakakalot/d2/dokyusei_h_kara_hajimaru_koi/vol6_stage62_im_sorry/1.jpg",
    "https://img-proxy.imgfo.com/?referer=https://manganelo.com&url=https://s6.mkklcdnv6temp.com/mangakakalot/d2/dokyusei_h_kara_hajimaru_koi/vol6_stage62_im_sorry/2.jpg",
    "https://img-proxy.imgfo.com/?referer=https://manganelo.com&url=https://s6.mkklcdnv6temp.com/mangakakalot/d2/dokyusei_h_kara_hajimaru_koi/vol6_stage62_im_sorry/3.jpg",
    "https://img-proxy.imgfo.com/?referer=https://manganelo.com&url=https://s6.mkklcdnv6temp.com/mangakakalot/d2/dokyusei_h_kara_hajimaru_koi/vol6_stage62_im_sorry/4.jpg",
    "https://img-proxy.imgfo.com/?referer=https://manganelo.com&url=https://s6.mkklcdnv6temp.com/mangakakalot/d2/dokyusei_h_kara_hajimaru_koi/vol6_stage62_im_sorry/5.jpg",
    "https://img-proxy.imgfo.com/?referer=https://manganelo.com&url=https://s6.mkklcdnv6temp.com/mangakakalot/d2/dokyusei_h_kara_hajimaru_koi/vol6_stage62_im_sorry/6.jpg",
    "https://img-proxy.imgfo.com/?referer=https://manganelo.com&url=https://s6.mkklcdnv6temp.com/mangakakalot/d2/dokyusei_h_kara_hajimaru_koi/vol6_stage62_im_sorry/7.jpg",
    "https://img-proxy.imgfo.com/?referer=https://manganelo.com&url=https://s6.mkklcdnv6temp.com/mangakakalot/d2/dokyusei_h_kara_hajimaru_koi/vol6_stage62_im_sorry/8.jpg",
    "https://img-proxy.imgfo.com/?referer=https://manganelo.com&url=https://s6.mkklcdnv6temp.com/mangakakalot/d2/dokyusei_h_kara_hajimaru_koi/vol6_stage62_im_sorry/9.jpg",
    "https://img-proxy.imgfo.com/?referer=https://manganelo.com&url=https://s6.mkklcdnv6temp.com/mangakakalot/d2/dokyusei_h_kara_hajimaru_koi/vol6_stage62_im_sorry/10.jpg",
    "https://img-proxy.imgfo.com/?referer=https://manganelo.com&url=https://s6.mkklcdnv6temp.com/mangakakalot/d2/dokyusei_h_kara_hajimaru_koi/vol6_stage62_im_sorry/11.jpg",
    "https://img-proxy.imgfo.com/?referer=https://manganelo.com&url=https://s6.mkklcdnv6temp.com/mangakakalot/d2/dokyusei_h_kara_hajimaru_koi/vol6_stage62_im_sorry/12.jpg",
    "https://img-proxy.imgfo.com/?referer=https://manganelo.com&url=https://s6.mkklcdnv6temp.com/mangakakalot/d2/dokyusei_h_kara_hajimaru_koi/vol6_stage62_im_sorry/13.jpg",
    "https://img-proxy.imgfo.com/?referer=https://manganelo.com&url=https://s6.mkklcdnv6temp.com/mangakakalot/d2/dokyusei_h_kara_hajimaru_koi/vol6_stage62_im_sorry/14.jpg",
    "https://img-proxy.imgfo.com/?referer=https://manganelo.com&url=https://s6.mkklcdnv6temp.com/mangakakalot/d2/dokyusei_h_kara_hajimaru_koi/vol6_stage62_im_sorry/15.jpg",
    "https://img-proxy.imgfo.com/?referer=https://manganelo.com&url=https://s6.mkklcdnv6temp.com/mangakakalot/d2/dokyusei_h_kara_hajimaru_koi/vol6_stage62_im_sorry/16.jpg"
  ]
}