{
  "cover": "https://avt.mkklcdnv6.com/8/h/4-1583470009.jpg",
  "title": "Black Cat",
  "original": "ブラックキャット ; 黑猫 ; Burakku Kyatto ; Thám Tử Black Cat (Vietnam)",
  "genre": "Action, Adult, Comedy, Doujinshi, Drama, Sci fi, Shounen, Manga",
  "author": "Yabuki Kentaro",
  "status": "Completed",
  "backlink": "https://manganu.com/collections/yabuki-kentaro/black-cat/",
  "description": "Train Heartnet, also known as &quot;Black Cat,&quot; used to be an infamous assassin for the secret organization Chronos. That is, until he abandoned his post as a cold-blooded killer and went to live on his own terms as an easygoing bounty hunter. But is Train&#39;s past as far behind him as he thinks?",
  "language": "English",
  "images": [
    "https://img-proxy.imgfo.com/?referer=https://manganelo.com&url=https://s6.mkklcdnv6temp.com/mangakakalot/r1/read_black_cat/vol5_chapter_47_no_1_pays_a_visit/1.jpg",
    "https://img-proxy.imgfo.com/?referer=https://manganelo.com&url=https://s6.mkklcdnv6temp.com/mangakakalot/r1/read_black_cat/vol5_chapter_47_no_1_pays_a_visit/2.jpg",
    "https://img-proxy.imgfo.com/?referer=https://manganelo.com&url=https://s6.mkklcdnv6temp.com/mangakakalot/r1/read_black_cat/vol5_chapter_47_no_1_pays_a_visit/3.jpg",
    "https://img-proxy.imgfo.com/?referer=https://manganelo.com&url=https://s6.mkklcdnv6temp.com/mangakakalot/r1/read_black_cat/vol5_chapter_47_no_1_pays_a_visit/4.jpg",
    "https://img-proxy.imgfo.com/?referer=https://manganelo.com&url=https://s6.mkklcdnv6temp.com/mangakakalot/r1/read_black_cat/vol5_chapter_47_no_1_pays_a_visit/5.jpg",
    "https://img-proxy.imgfo.com/?referer=https://manganelo.com&url=https://s6.mkklcdnv6temp.com/mangakakalot/r1/read_black_cat/vol5_chapter_47_no_1_pays_a_visit/6.jpg",
    "https://img-proxy.imgfo.com/?referer=https://manganelo.com&url=https://s6.mkklcdnv6temp.com/mangakakalot/r1/read_black_cat/vol5_chapter_47_no_1_pays_a_visit/7.jpg",
    "https://img-proxy.imgfo.com/?referer=https://manganelo.com&url=https://s6.mkklcdnv6temp.com/mangakakalot/r1/read_black_cat/vol5_chapter_47_no_1_pays_a_visit/8.jpg",
    "https://img-proxy.imgfo.com/?referer=https://manganelo.com&url=https://s6.mkklcdnv6temp.com/mangakakalot/r1/read_black_cat/vol5_chapter_47_no_1_pays_a_visit/9.jpg",
    "https://img-proxy.imgfo.com/?referer=https://manganelo.com&url=https://s6.mkklcdnv6temp.com/mangakakalot/r1/read_black_cat/vol5_chapter_47_no_1_pays_a_visit/10.jpg",
    "https://img-proxy.imgfo.com/?referer=https://manganelo.com&url=https://s6.mkklcdnv6temp.com/mangakakalot/r1/read_black_cat/vol5_chapter_47_no_1_pays_a_visit/11.jpg",
    "https://img-proxy.imgfo.com/?referer=https://manganelo.com&url=https://s6.mkklcdnv6temp.com/mangakakalot/r1/read_black_cat/vol5_chapter_47_no_1_pays_a_visit/12.jpg",
    "https://img-proxy.imgfo.com/?referer=https://manganelo.com&url=https://s6.mkklcdnv6temp.com/mangakakalot/r1/read_black_cat/vol5_chapter_47_no_1_pays_a_visit/13.jpg",
    "https://img-proxy.imgfo.com/?referer=https://manganelo.com&url=https://s6.mkklcdnv6temp.com/mangakakalot/r1/read_black_cat/vol5_chapter_47_no_1_pays_a_visit/14.jpg",
    "https://img-proxy.imgfo.com/?referer=https://manganelo.com&url=https://s6.mkklcdnv6temp.com/mangakakalot/r1/read_black_cat/vol5_chapter_47_no_1_pays_a_visit/15.jpg",
    "https://img-proxy.imgfo.com/?referer=https://manganelo.com&url=https://s6.mkklcdnv6temp.com/mangakakalot/r1/read_black_cat/vol5_chapter_47_no_1_pays_a_visit/16.jpg",
    "https://img-proxy.imgfo.com/?referer=https://manganelo.com&url=https://s6.mkklcdnv6temp.com/mangakakalot/r1/read_black_cat/vol5_chapter_47_no_1_pays_a_visit/17.jpg",
    "https://img-proxy.imgfo.com/?referer=https://manganelo.com&url=https://s6.mkklcdnv6temp.com/mangakakalot/r1/read_black_cat/vol5_chapter_47_no_1_pays_a_visit/18.jpg"
  ]
}