{
  "cover": "https://avt.mkklcdnv6.com/8/h/4-1583470009.jpg",
  "title": "Black Cat",
  "original": "ブラックキャット ; 黑猫 ; Burakku Kyatto ; Thám Tử Black Cat (Vietnam)",
  "genre": "Action, Adult, Comedy, Doujinshi, Drama, Sci fi, Shounen, Manga",
  "author": "Yabuki Kentaro",
  "status": "Completed",
  "backlink": "https://manganu.com/collections/yabuki-kentaro/black-cat/",
  "description": "Train Heartnet, also known as &quot;Black Cat,&quot; used to be an infamous assassin for the secret organization Chronos. That is, until he abandoned his post as a cold-blooded killer and went to live on his own terms as an easygoing bounty hunter. But is Train&#39;s past as far behind him as he thinks?",
  "language": "English",
  "images": [
    "https://img-proxy.imgfo.com/?referer=https://manganelo.com&url=https://s6.mkklcdnv6temp.com/mangakakalot/r1/read_black_cat/vol2_chapter_12_mad_carnival/1.jpg",
    "https://img-proxy.imgfo.com/?referer=https://manganelo.com&url=https://s6.mkklcdnv6temp.com/mangakakalot/r1/read_black_cat/vol2_chapter_12_mad_carnival/2.jpg",
    "https://img-proxy.imgfo.com/?referer=https://manganelo.com&url=https://s6.mkklcdnv6temp.com/mangakakalot/r1/read_black_cat/vol2_chapter_12_mad_carnival/3.jpg",
    "https://img-proxy.imgfo.com/?referer=https://manganelo.com&url=https://s6.mkklcdnv6temp.com/mangakakalot/r1/read_black_cat/vol2_chapter_12_mad_carnival/4.jpg",
    "https://img-proxy.imgfo.com/?referer=https://manganelo.com&url=https://s6.mkklcdnv6temp.com/mangakakalot/r1/read_black_cat/vol2_chapter_12_mad_carnival/5.jpg",
    "https://img-proxy.imgfo.com/?referer=https://manganelo.com&url=https://s6.mkklcdnv6temp.com/mangakakalot/r1/read_black_cat/vol2_chapter_12_mad_carnival/6.jpg",
    "https://img-proxy.imgfo.com/?referer=https://manganelo.com&url=https://s6.mkklcdnv6temp.com/mangakakalot/r1/read_black_cat/vol2_chapter_12_mad_carnival/7.jpg",
    "https://img-proxy.imgfo.com/?referer=https://manganelo.com&url=https://s6.mkklcdnv6temp.com/mangakakalot/r1/read_black_cat/vol2_chapter_12_mad_carnival/8.jpg",
    "https://img-proxy.imgfo.com/?referer=https://manganelo.com&url=https://s6.mkklcdnv6temp.com/mangakakalot/r1/read_black_cat/vol2_chapter_12_mad_carnival/9.jpg",
    "https://img-proxy.imgfo.com/?referer=https://manganelo.com&url=https://s6.mkklcdnv6temp.com/mangakakalot/r1/read_black_cat/vol2_chapter_12_mad_carnival/10.jpg",
    "https://img-proxy.imgfo.com/?referer=https://manganelo.com&url=https://s6.mkklcdnv6temp.com/mangakakalot/r1/read_black_cat/vol2_chapter_12_mad_carnival/11.jpg",
    "https://img-proxy.imgfo.com/?referer=https://manganelo.com&url=https://s6.mkklcdnv6temp.com/mangakakalot/r1/read_black_cat/vol2_chapter_12_mad_carnival/12.jpg",
    "https://img-proxy.imgfo.com/?referer=https://manganelo.com&url=https://s6.mkklcdnv6temp.com/mangakakalot/r1/read_black_cat/vol2_chapter_12_mad_carnival/13.jpg",
    "https://img-proxy.imgfo.com/?referer=https://manganelo.com&url=https://s6.mkklcdnv6temp.com/mangakakalot/r1/read_black_cat/vol2_chapter_12_mad_carnival/14.jpg",
    "https://img-proxy.imgfo.com/?referer=https://manganelo.com&url=https://s6.mkklcdnv6temp.com/mangakakalot/r1/read_black_cat/vol2_chapter_12_mad_carnival/15.jpg",
    "https://img-proxy.imgfo.com/?referer=https://manganelo.com&url=https://s6.mkklcdnv6temp.com/mangakakalot/r1/read_black_cat/vol2_chapter_12_mad_carnival/16.jpg",
    "https://img-proxy.imgfo.com/?referer=https://manganelo.com&url=https://s6.mkklcdnv6temp.com/mangakakalot/r1/read_black_cat/vol2_chapter_12_mad_carnival/17.jpg",
    "https://img-proxy.imgfo.com/?referer=https://manganelo.com&url=https://s6.mkklcdnv6temp.com/mangakakalot/r1/read_black_cat/vol2_chapter_12_mad_carnival/18.jpg",
    "https://img-proxy.imgfo.com/?referer=https://manganelo.com&url=https://s6.mkklcdnv6temp.com/mangakakalot/r1/read_black_cat/vol2_chapter_12_mad_carnival/19.jpg",
    "https://img-proxy.imgfo.com/?referer=https://manganelo.com&url=https://s6.mkklcdnv6temp.com/mangakakalot/r1/read_black_cat/vol2_chapter_12_mad_carnival/20.jpg",
    "https://img-proxy.imgfo.com/?referer=https://manganelo.com&url=https://s6.mkklcdnv6temp.com/mangakakalot/r1/read_black_cat/vol2_chapter_12_mad_carnival/21.jpg",
    "https://img-proxy.imgfo.com/?referer=https://manganelo.com&url=https://s6.mkklcdnv6temp.com/mangakakalot/r1/read_black_cat/vol2_chapter_12_mad_carnival/22.jpg"
  ]
}