{
  "cover": "https://avt.mkklcdnv6.com/8/h/4-1583470009.jpg",
  "title": "Black Cat",
  "original": "ブラックキャット ; 黑猫 ; Burakku Kyatto ; Thám Tử Black Cat (Vietnam)",
  "genre": "Action, Adult, Comedy, Doujinshi, Drama, Sci fi, Shounen, Manga",
  "author": "Yabuki Kentaro",
  "status": "Completed",
  "backlink": "https://manganu.com/collections/yabuki-kentaro/black-cat/",
  "description": "Train Heartnet, also known as &quot;Black Cat,&quot; used to be an infamous assassin for the secret organization Chronos. That is, until he abandoned his post as a cold-blooded killer and went to live on his own terms as an easygoing bounty hunter. But is Train&#39;s past as far behind him as he thinks?",
  "language": "English",
  "images": [
    "https://img-proxy.imgfo.com/?referer=https://manganelo.com&url=https://s6.mkklcdnv6temp.com/mangakakalot/r1/read_black_cat/vol16_chapter_147_two_battles_to_the_death/1.jpg",
    "https://img-proxy.imgfo.com/?referer=https://manganelo.com&url=https://s6.mkklcdnv6temp.com/mangakakalot/r1/read_black_cat/vol16_chapter_147_two_battles_to_the_death/2.jpg",
    "https://img-proxy.imgfo.com/?referer=https://manganelo.com&url=https://s6.mkklcdnv6temp.com/mangakakalot/r1/read_black_cat/vol16_chapter_147_two_battles_to_the_death/3.jpg",
    "https://img-proxy.imgfo.com/?referer=https://manganelo.com&url=https://s6.mkklcdnv6temp.com/mangakakalot/r1/read_black_cat/vol16_chapter_147_two_battles_to_the_death/4.jpg",
    "https://img-proxy.imgfo.com/?referer=https://manganelo.com&url=https://s6.mkklcdnv6temp.com/mangakakalot/r1/read_black_cat/vol16_chapter_147_two_battles_to_the_death/5.jpg",
    "https://img-proxy.imgfo.com/?referer=https://manganelo.com&url=https://s6.mkklcdnv6temp.com/mangakakalot/r1/read_black_cat/vol16_chapter_147_two_battles_to_the_death/6.jpg",
    "https://img-proxy.imgfo.com/?referer=https://manganelo.com&url=https://s6.mkklcdnv6temp.com/mangakakalot/r1/read_black_cat/vol16_chapter_147_two_battles_to_the_death/7.jpg",
    "https://img-proxy.imgfo.com/?referer=https://manganelo.com&url=https://s6.mkklcdnv6temp.com/mangakakalot/r1/read_black_cat/vol16_chapter_147_two_battles_to_the_death/8.jpg",
    "https://img-proxy.imgfo.com/?referer=https://manganelo.com&url=https://s6.mkklcdnv6temp.com/mangakakalot/r1/read_black_cat/vol16_chapter_147_two_battles_to_the_death/9.jpg",
    "https://img-proxy.imgfo.com/?referer=https://manganelo.com&url=https://s6.mkklcdnv6temp.com/mangakakalot/r1/read_black_cat/vol16_chapter_147_two_battles_to_the_death/10.jpg",
    "https://img-proxy.imgfo.com/?referer=https://manganelo.com&url=https://s6.mkklcdnv6temp.com/mangakakalot/r1/read_black_cat/vol16_chapter_147_two_battles_to_the_death/11.jpg",
    "https://img-proxy.imgfo.com/?referer=https://manganelo.com&url=https://s6.mkklcdnv6temp.com/mangakakalot/r1/read_black_cat/vol16_chapter_147_two_battles_to_the_death/12.jpg",
    "https://img-proxy.imgfo.com/?referer=https://manganelo.com&url=https://s6.mkklcdnv6temp.com/mangakakalot/r1/read_black_cat/vol16_chapter_147_two_battles_to_the_death/13.jpg",
    "https://img-proxy.imgfo.com/?referer=https://manganelo.com&url=https://s6.mkklcdnv6temp.com/mangakakalot/r1/read_black_cat/vol16_chapter_147_two_battles_to_the_death/14.jpg",
    "https://img-proxy.imgfo.com/?referer=https://manganelo.com&url=https://s6.mkklcdnv6temp.com/mangakakalot/r1/read_black_cat/vol16_chapter_147_two_battles_to_the_death/15.jpg",
    "https://img-proxy.imgfo.com/?referer=https://manganelo.com&url=https://s6.mkklcdnv6temp.com/mangakakalot/r1/read_black_cat/vol16_chapter_147_two_battles_to_the_death/16.jpg",
    "https://img-proxy.imgfo.com/?referer=https://manganelo.com&url=https://s6.mkklcdnv6temp.com/mangakakalot/r1/read_black_cat/vol16_chapter_147_two_battles_to_the_death/17.jpg",
    "https://img-proxy.imgfo.com/?referer=https://manganelo.com&url=https://s6.mkklcdnv6temp.com/mangakakalot/r1/read_black_cat/vol16_chapter_147_two_battles_to_the_death/18.jpg",
    "https://img-proxy.imgfo.com/?referer=https://manganelo.com&url=https://s6.mkklcdnv6temp.com/mangakakalot/r1/read_black_cat/vol16_chapter_147_two_battles_to_the_death/19.jpg",
    "https://img-proxy.imgfo.com/?referer=https://manganelo.com&url=https://s6.mkklcdnv6temp.com/mangakakalot/r1/read_black_cat/vol16_chapter_147_two_battles_to_the_death/20.jpg",
    "https://img-proxy.imgfo.com/?referer=https://manganelo.com&url=https://s6.mkklcdnv6temp.com/mangakakalot/r1/read_black_cat/vol16_chapter_147_two_battles_to_the_death/21.jpg"
  ]
}