{
  "cover": "https://avt.mkklcdnv6.com/46/n/4-1583471645.jpg",
  "title": "Ookamidomo No Shitsukekata",
  "original": "オオカミどものしつけ方 ; How to Tame the Wolves ; Ookami-domo no Shitsukekata ; 野男孩的调教方法",
  "genre": "Comedy, Harem, Romance, School life, Shoujo, Manga",
  "author": "Shiraishi Yuki",
  "status": "Completed",
  "backlink": "https://manganu.com/collections/shiraishi-yuki/ookamidomo-no-shitsukekata/",
  "description": "From Intercross:\nOrigawa Industry Public High School is a school filled with rough men. There's only one girl in this high school packed with wolves. But this little sheep isn't an ordinary person!",
  "language": "English",
  "images": [
    "https://img-proxy.imgfo.com/?referer=https://manganelo.com&url=https://s5.mkklcdnv6temp.com/mangakakalot/o2/ookamidomo_no_shitsukekata/vol1_chapter_3/1.jpg",
    "https://img-proxy.imgfo.com/?referer=https://manganelo.com&url=https://s5.mkklcdnv6temp.com/mangakakalot/o2/ookamidomo_no_shitsukekata/vol1_chapter_3/2.jpg",
    "https://img-proxy.imgfo.com/?referer=https://manganelo.com&url=https://s5.mkklcdnv6temp.com/mangakakalot/o2/ookamidomo_no_shitsukekata/vol1_chapter_3/3.jpg",
    "https://img-proxy.imgfo.com/?referer=https://manganelo.com&url=https://s5.mkklcdnv6temp.com/mangakakalot/o2/ookamidomo_no_shitsukekata/vol1_chapter_3/4.jpg",
    "https://img-proxy.imgfo.com/?referer=https://manganelo.com&url=https://s5.mkklcdnv6temp.com/mangakakalot/o2/ookamidomo_no_shitsukekata/vol1_chapter_3/5.jpg",
    "https://img-proxy.imgfo.com/?referer=https://manganelo.com&url=https://s5.mkklcdnv6temp.com/mangakakalot/o2/ookamidomo_no_shitsukekata/vol1_chapter_3/6.jpg",
    "https://img-proxy.imgfo.com/?referer=https://manganelo.com&url=https://s5.mkklcdnv6temp.com/mangakakalot/o2/ookamidomo_no_shitsukekata/vol1_chapter_3/7.jpg",
    "https://img-proxy.imgfo.com/?referer=https://manganelo.com&url=https://s5.mkklcdnv6temp.com/mangakakalot/o2/ookamidomo_no_shitsukekata/vol1_chapter_3/8.jpg",
    "https://img-proxy.imgfo.com/?referer=https://manganelo.com&url=https://s5.mkklcdnv6temp.com/mangakakalot/o2/ookamidomo_no_shitsukekata/vol1_chapter_3/9.jpg",
    "https://img-proxy.imgfo.com/?referer=https://manganelo.com&url=https://s5.mkklcdnv6temp.com/mangakakalot/o2/ookamidomo_no_shitsukekata/vol1_chapter_3/10.jpg",
    "https://img-proxy.imgfo.com/?referer=https://manganelo.com&url=https://s5.mkklcdnv6temp.com/mangakakalot/o2/ookamidomo_no_shitsukekata/vol1_chapter_3/11.jpg",
    "https://img-proxy.imgfo.com/?referer=https://manganelo.com&url=https://s5.mkklcdnv6temp.com/mangakakalot/o2/ookamidomo_no_shitsukekata/vol1_chapter_3/12.jpg",
    "https://img-proxy.imgfo.com/?referer=https://manganelo.com&url=https://s5.mkklcdnv6temp.com/mangakakalot/o2/ookamidomo_no_shitsukekata/vol1_chapter_3/13.jpg",
    "https://img-proxy.imgfo.com/?referer=https://manganelo.com&url=https://s5.mkklcdnv6temp.com/mangakakalot/o2/ookamidomo_no_shitsukekata/vol1_chapter_3/14.jpg",
    "https://img-proxy.imgfo.com/?referer=https://manganelo.com&url=https://s5.mkklcdnv6temp.com/mangakakalot/o2/ookamidomo_no_shitsukekata/vol1_chapter_3/15.jpg",
    "https://img-proxy.imgfo.com/?referer=https://manganelo.com&url=https://s5.mkklcdnv6temp.com/mangakakalot/o2/ookamidomo_no_shitsukekata/vol1_chapter_3/16.jpg",
    "https://img-proxy.imgfo.com/?referer=https://manganelo.com&url=https://s5.mkklcdnv6temp.com/mangakakalot/o2/ookamidomo_no_shitsukekata/vol1_chapter_3/17.jpg",
    "https://img-proxy.imgfo.com/?referer=https://manganelo.com&url=https://s5.mkklcdnv6temp.com/mangakakalot/o2/ookamidomo_no_shitsukekata/vol1_chapter_3/18.jpg",
    "https://img-proxy.imgfo.com/?referer=https://manganelo.com&url=https://s5.mkklcdnv6temp.com/mangakakalot/o2/ookamidomo_no_shitsukekata/vol1_chapter_3/19.jpg",
    "https://img-proxy.imgfo.com/?referer=https://manganelo.com&url=https://s5.mkklcdnv6temp.com/mangakakalot/o2/ookamidomo_no_shitsukekata/vol1_chapter_3/20.jpg",
    "https://img-proxy.imgfo.com/?referer=https://manganelo.com&url=https://s5.mkklcdnv6temp.com/mangakakalot/o2/ookamidomo_no_shitsukekata/vol1_chapter_3/21.jpg",
    "https://img-proxy.imgfo.com/?referer=https://manganelo.com&url=https://s5.mkklcdnv6temp.com/mangakakalot/o2/ookamidomo_no_shitsukekata/vol1_chapter_3/22.jpg",
    "https://img-proxy.imgfo.com/?referer=https://manganelo.com&url=https://s5.mkklcdnv6temp.com/mangakakalot/o2/ookamidomo_no_shitsukekata/vol1_chapter_3/23.jpg",
    "https://img-proxy.imgfo.com/?referer=https://manganelo.com&url=https://s5.mkklcdnv6temp.com/mangakakalot/o2/ookamidomo_no_shitsukekata/vol1_chapter_3/24.jpg",
    "https://img-proxy.imgfo.com/?referer=https://manganelo.com&url=https://s5.mkklcdnv6temp.com/mangakakalot/o2/ookamidomo_no_shitsukekata/vol1_chapter_3/25.jpg",
    "https://img-proxy.imgfo.com/?referer=https://manganelo.com&url=https://s5.mkklcdnv6temp.com/mangakakalot/o2/ookamidomo_no_shitsukekata/vol1_chapter_3/26.jpg",
    "https://img-proxy.imgfo.com/?referer=https://manganelo.com&url=https://s5.mkklcdnv6temp.com/mangakakalot/o2/ookamidomo_no_shitsukekata/vol1_chapter_3/27.jpg",
    "https://img-proxy.imgfo.com/?referer=https://manganelo.com&url=https://s5.mkklcdnv6temp.com/mangakakalot/o2/ookamidomo_no_shitsukekata/vol1_chapter_3/28.jpg",
    "https://img-proxy.imgfo.com/?referer=https://manganelo.com&url=https://s5.mkklcdnv6temp.com/mangakakalot/o2/ookamidomo_no_shitsukekata/vol1_chapter_3/29.jpg",
    "https://img-proxy.imgfo.com/?referer=https://manganelo.com&url=https://s5.mkklcdnv6temp.com/mangakakalot/o2/ookamidomo_no_shitsukekata/vol1_chapter_3/30.jpg",
    "https://img-proxy.imgfo.com/?referer=https://manganelo.com&url=https://s5.mkklcdnv6temp.com/mangakakalot/o2/ookamidomo_no_shitsukekata/vol1_chapter_3/31.jpg",
    "https://img-proxy.imgfo.com/?referer=https://manganelo.com&url=https://s5.mkklcdnv6temp.com/mangakakalot/o2/ookamidomo_no_shitsukekata/vol1_chapter_3/32.jpg",
    "https://img-proxy.imgfo.com/?referer=https://manganelo.com&url=https://s5.mkklcdnv6temp.com/mangakakalot/o2/ookamidomo_no_shitsukekata/vol1_chapter_3/33.jpg",
    "https://img-proxy.imgfo.com/?referer=https://manganelo.com&url=https://s5.mkklcdnv6temp.com/mangakakalot/o2/ookamidomo_no_shitsukekata/vol1_chapter_3/34.jpg",
    "https://img-proxy.imgfo.com/?referer=https://manganelo.com&url=https://s5.mkklcdnv6temp.com/mangakakalot/o2/ookamidomo_no_shitsukekata/vol1_chapter_3/35.jpg",
    "https://img-proxy.imgfo.com/?referer=https://manganelo.com&url=https://s5.mkklcdnv6temp.com/mangakakalot/o2/ookamidomo_no_shitsukekata/vol1_chapter_3/36.jpg"
  ]
}