{
  "cover": "https://avt.mkklcdnv6.com/2/u/7-1583476380.jpg",
  "title": "Ame No Murakumono",
  "original": "アマノムラクモ ; 天叢雲 ; Ama no Mura Kumo",
  "genre": "Action, Shounen, Supernatural, Manga",
  "author": "Gunsou Penguin",
  "status": "Completed",
  "backlink": "https://manganu.com/collections/gunsou-penguin/ame-no-murakumono/",
  "description": "There is an ancient government office, which was first founded by Queen Himiko, to deal with difficulties arising from supernatural forces. Even today, that agency secretly exists and deals with curses and other dark forces that threaten Japan.\nKushinata Orochi is skilled in these supernatural arts, and he and his physically powerful sidekick Ayame take on cases that deal with supernatural troubles. Now, they have a very ancient and powerful force to deal with in Kageyama City...",
  "language": "English",
  "images": [
    "https://img-proxy.imgfo.com/?referer=https://manganelo.com&url=https://s41.mkklcdnv6temp.com/mangakakalot/a1/ame_no_murakumono/vol1_chapter_1_sacred_fire_purification/1.jpg",
    "https://img-proxy.imgfo.com/?referer=https://manganelo.com&url=https://s41.mkklcdnv6temp.com/mangakakalot/a1/ame_no_murakumono/vol1_chapter_1_sacred_fire_purification/2.jpg",
    "https://img-proxy.imgfo.com/?referer=https://manganelo.com&url=https://s41.mkklcdnv6temp.com/mangakakalot/a1/ame_no_murakumono/vol1_chapter_1_sacred_fire_purification/3.jpg",
    "https://img-proxy.imgfo.com/?referer=https://manganelo.com&url=https://s41.mkklcdnv6temp.com/mangakakalot/a1/ame_no_murakumono/vol1_chapter_1_sacred_fire_purification/4.jpg",
    "https://img-proxy.imgfo.com/?referer=https://manganelo.com&url=https://s41.mkklcdnv6temp.com/mangakakalot/a1/ame_no_murakumono/vol1_chapter_1_sacred_fire_purification/5.jpg",
    "https://img-proxy.imgfo.com/?referer=https://manganelo.com&url=https://s41.mkklcdnv6temp.com/mangakakalot/a1/ame_no_murakumono/vol1_chapter_1_sacred_fire_purification/6.jpg",
    "https://img-proxy.imgfo.com/?referer=https://manganelo.com&url=https://s41.mkklcdnv6temp.com/mangakakalot/a1/ame_no_murakumono/vol1_chapter_1_sacred_fire_purification/7.jpg",
    "https://img-proxy.imgfo.com/?referer=https://manganelo.com&url=https://s41.mkklcdnv6temp.com/mangakakalot/a1/ame_no_murakumono/vol1_chapter_1_sacred_fire_purification/8.jpg",
    "https://img-proxy.imgfo.com/?referer=https://manganelo.com&url=https://s41.mkklcdnv6temp.com/mangakakalot/a1/ame_no_murakumono/vol1_chapter_1_sacred_fire_purification/9.jpg",
    "https://img-proxy.imgfo.com/?referer=https://manganelo.com&url=https://s41.mkklcdnv6temp.com/mangakakalot/a1/ame_no_murakumono/vol1_chapter_1_sacred_fire_purification/10.jpg",
    "https://img-proxy.imgfo.com/?referer=https://manganelo.com&url=https://s41.mkklcdnv6temp.com/mangakakalot/a1/ame_no_murakumono/vol1_chapter_1_sacred_fire_purification/11.jpg",
    "https://img-proxy.imgfo.com/?referer=https://manganelo.com&url=https://s41.mkklcdnv6temp.com/mangakakalot/a1/ame_no_murakumono/vol1_chapter_1_sacred_fire_purification/12.jpg",
    "https://img-proxy.imgfo.com/?referer=https://manganelo.com&url=https://s41.mkklcdnv6temp.com/mangakakalot/a1/ame_no_murakumono/vol1_chapter_1_sacred_fire_purification/13.jpg",
    "https://img-proxy.imgfo.com/?referer=https://manganelo.com&url=https://s41.mkklcdnv6temp.com/mangakakalot/a1/ame_no_murakumono/vol1_chapter_1_sacred_fire_purification/14.jpg",
    "https://img-proxy.imgfo.com/?referer=https://manganelo.com&url=https://s41.mkklcdnv6temp.com/mangakakalot/a1/ame_no_murakumono/vol1_chapter_1_sacred_fire_purification/15.jpg",
    "https://img-proxy.imgfo.com/?referer=https://manganelo.com&url=https://s41.mkklcdnv6temp.com/mangakakalot/a1/ame_no_murakumono/vol1_chapter_1_sacred_fire_purification/16.jpg",
    "https://img-proxy.imgfo.com/?referer=https://manganelo.com&url=https://s41.mkklcdnv6temp.com/mangakakalot/a1/ame_no_murakumono/vol1_chapter_1_sacred_fire_purification/17.jpg",
    "https://img-proxy.imgfo.com/?referer=https://manganelo.com&url=https://s41.mkklcdnv6temp.com/mangakakalot/a1/ame_no_murakumono/vol1_chapter_1_sacred_fire_purification/18.jpg",
    "https://img-proxy.imgfo.com/?referer=https://manganelo.com&url=https://s41.mkklcdnv6temp.com/mangakakalot/a1/ame_no_murakumono/vol1_chapter_1_sacred_fire_purification/19.jpg",
    "https://img-proxy.imgfo.com/?referer=https://manganelo.com&url=https://s41.mkklcdnv6temp.com/mangakakalot/a1/ame_no_murakumono/vol1_chapter_1_sacred_fire_purification/20.jpg",
    "https://img-proxy.imgfo.com/?referer=https://manganelo.com&url=https://s41.mkklcdnv6temp.com/mangakakalot/a1/ame_no_murakumono/vol1_chapter_1_sacred_fire_purification/21.jpg",
    "https://img-proxy.imgfo.com/?referer=https://manganelo.com&url=https://s41.mkklcdnv6temp.com/mangakakalot/a1/ame_no_murakumono/vol1_chapter_1_sacred_fire_purification/22.jpg",
    "https://img-proxy.imgfo.com/?referer=https://manganelo.com&url=https://s41.mkklcdnv6temp.com/mangakakalot/a1/ame_no_murakumono/vol1_chapter_1_sacred_fire_purification/23.jpg",
    "https://img-proxy.imgfo.com/?referer=https://manganelo.com&url=https://s41.mkklcdnv6temp.com/mangakakalot/a1/ame_no_murakumono/vol1_chapter_1_sacred_fire_purification/24.jpg",
    "https://img-proxy.imgfo.com/?referer=https://manganelo.com&url=https://s41.mkklcdnv6temp.com/mangakakalot/a1/ame_no_murakumono/vol1_chapter_1_sacred_fire_purification/25.jpg",
    "https://img-proxy.imgfo.com/?referer=https://manganelo.com&url=https://s41.mkklcdnv6temp.com/mangakakalot/a1/ame_no_murakumono/vol1_chapter_1_sacred_fire_purification/26.jpg",
    "https://img-proxy.imgfo.com/?referer=https://manganelo.com&url=https://s41.mkklcdnv6temp.com/mangakakalot/a1/ame_no_murakumono/vol1_chapter_1_sacred_fire_purification/27.jpg",
    "https://img-proxy.imgfo.com/?referer=https://manganelo.com&url=https://s41.mkklcdnv6temp.com/mangakakalot/a1/ame_no_murakumono/vol1_chapter_1_sacred_fire_purification/28.jpg",
    "https://img-proxy.imgfo.com/?referer=https://manganelo.com&url=https://s41.mkklcdnv6temp.com/mangakakalot/a1/ame_no_murakumono/vol1_chapter_1_sacred_fire_purification/29.jpg",
    "https://img-proxy.imgfo.com/?referer=https://manganelo.com&url=https://s41.mkklcdnv6temp.com/mangakakalot/a1/ame_no_murakumono/vol1_chapter_1_sacred_fire_purification/30.jpg",
    "https://img-proxy.imgfo.com/?referer=https://manganelo.com&url=https://s41.mkklcdnv6temp.com/mangakakalot/a1/ame_no_murakumono/vol1_chapter_1_sacred_fire_purification/31.jpg",
    "https://img-proxy.imgfo.com/?referer=https://manganelo.com&url=https://s41.mkklcdnv6temp.com/mangakakalot/a1/ame_no_murakumono/vol1_chapter_1_sacred_fire_purification/32.jpg",
    "https://img-proxy.imgfo.com/?referer=https://manganelo.com&url=https://s41.mkklcdnv6temp.com/mangakakalot/a1/ame_no_murakumono/vol1_chapter_1_sacred_fire_purification/33.jpg",
    "https://img-proxy.imgfo.com/?referer=https://manganelo.com&url=https://s41.mkklcdnv6temp.com/mangakakalot/a1/ame_no_murakumono/vol1_chapter_1_sacred_fire_purification/34.jpg",
    "https://img-proxy.imgfo.com/?referer=https://manganelo.com&url=https://s41.mkklcdnv6temp.com/mangakakalot/a1/ame_no_murakumono/vol1_chapter_1_sacred_fire_purification/35.jpg",
    "https://img-proxy.imgfo.com/?referer=https://manganelo.com&url=https://s41.mkklcdnv6temp.com/mangakakalot/a1/ame_no_murakumono/vol1_chapter_1_sacred_fire_purification/36.jpg",
    "https://img-proxy.imgfo.com/?referer=https://manganelo.com&url=https://s41.mkklcdnv6temp.com/mangakakalot/a1/ame_no_murakumono/vol1_chapter_1_sacred_fire_purification/37.jpg",
    "https://img-proxy.imgfo.com/?referer=https://manganelo.com&url=https://s41.mkklcdnv6temp.com/mangakakalot/a1/ame_no_murakumono/vol1_chapter_1_sacred_fire_purification/38.jpg",
    "https://img-proxy.imgfo.com/?referer=https://manganelo.com&url=https://s41.mkklcdnv6temp.com/mangakakalot/a1/ame_no_murakumono/vol1_chapter_1_sacred_fire_purification/39.jpg",
    "https://img-proxy.imgfo.com/?referer=https://manganelo.com&url=https://s41.mkklcdnv6temp.com/mangakakalot/a1/ame_no_murakumono/vol1_chapter_1_sacred_fire_purification/40.jpg",
    "https://img-proxy.imgfo.com/?referer=https://manganelo.com&url=https://s41.mkklcdnv6temp.com/mangakakalot/a1/ame_no_murakumono/vol1_chapter_1_sacred_fire_purification/41.jpg",
    "https://img-proxy.imgfo.com/?referer=https://manganelo.com&url=https://s41.mkklcdnv6temp.com/mangakakalot/a1/ame_no_murakumono/vol1_chapter_1_sacred_fire_purification/42.jpg",
    "https://img-proxy.imgfo.com/?referer=https://manganelo.com&url=https://s41.mkklcdnv6temp.com/mangakakalot/a1/ame_no_murakumono/vol1_chapter_1_sacred_fire_purification/43.jpg",
    "https://img-proxy.imgfo.com/?referer=https://manganelo.com&url=https://s41.mkklcdnv6temp.com/mangakakalot/a1/ame_no_murakumono/vol1_chapter_1_sacred_fire_purification/44.jpg",
    "https://img-proxy.imgfo.com/?referer=https://manganelo.com&url=https://s41.mkklcdnv6temp.com/mangakakalot/a1/ame_no_murakumono/vol1_chapter_1_sacred_fire_purification/45.jpg",
    "https://img-proxy.imgfo.com/?referer=https://manganelo.com&url=https://s41.mkklcdnv6temp.com/mangakakalot/a1/ame_no_murakumono/vol1_chapter_1_sacred_fire_purification/46.jpg",
    "https://img-proxy.imgfo.com/?referer=https://manganelo.com&url=https://s41.mkklcdnv6temp.com/mangakakalot/a1/ame_no_murakumono/vol1_chapter_1_sacred_fire_purification/47.jpg",
    "https://img-proxy.imgfo.com/?referer=https://manganelo.com&url=https://s41.mkklcdnv6temp.com/mangakakalot/a1/ame_no_murakumono/vol1_chapter_1_sacred_fire_purification/48.jpg",
    "https://img-proxy.imgfo.com/?referer=https://manganelo.com&url=https://s41.mkklcdnv6temp.com/mangakakalot/a1/ame_no_murakumono/vol1_chapter_1_sacred_fire_purification/49.jpg",
    "https://img-proxy.imgfo.com/?referer=https://manganelo.com&url=https://s41.mkklcdnv6temp.com/mangakakalot/a1/ame_no_murakumono/vol1_chapter_1_sacred_fire_purification/50.jpg",
    "https://img-proxy.imgfo.com/?referer=https://manganelo.com&url=https://s41.mkklcdnv6temp.com/mangakakalot/a1/ame_no_murakumono/vol1_chapter_1_sacred_fire_purification/51.jpg",
    "https://img-proxy.imgfo.com/?referer=https://manganelo.com&url=https://s41.mkklcdnv6temp.com/mangakakalot/a1/ame_no_murakumono/vol1_chapter_1_sacred_fire_purification/52.jpg",
    "https://img-proxy.imgfo.com/?referer=https://manganelo.com&url=https://s41.mkklcdnv6temp.com/mangakakalot/a1/ame_no_murakumono/vol1_chapter_1_sacred_fire_purification/53.jpg",
    "https://img-proxy.imgfo.com/?referer=https://manganelo.com&url=https://s41.mkklcdnv6temp.com/mangakakalot/a1/ame_no_murakumono/vol1_chapter_1_sacred_fire_purification/54.jpg",
    "https://img-proxy.imgfo.com/?referer=https://manganelo.com&url=https://s41.mkklcdnv6temp.com/mangakakalot/a1/ame_no_murakumono/vol1_chapter_1_sacred_fire_purification/55.jpg",
    "https://img-proxy.imgfo.com/?referer=https://manganelo.com&url=https://s41.mkklcdnv6temp.com/mangakakalot/a1/ame_no_murakumono/vol1_chapter_1_sacred_fire_purification/56.jpg",
    "https://img-proxy.imgfo.com/?referer=https://manganelo.com&url=https://s41.mkklcdnv6temp.com/mangakakalot/a1/ame_no_murakumono/vol1_chapter_1_sacred_fire_purification/57.jpg",
    "https://img-proxy.imgfo.com/?referer=https://manganelo.com&url=https://s41.mkklcdnv6temp.com/mangakakalot/a1/ame_no_murakumono/vol1_chapter_1_sacred_fire_purification/58.jpg",
    "https://img-proxy.imgfo.com/?referer=https://manganelo.com&url=https://s41.mkklcdnv6temp.com/mangakakalot/a1/ame_no_murakumono/vol1_chapter_1_sacred_fire_purification/59.jpg"
  ]
}