{
  "cover": "https://avt.mkklcdnv6.com/27/q/6-1583475262.jpg",
  "title": "Daichi Gokujou Chi Dairuma Rikishi",
  "original": "大地獄城,血だるま力士 ; Daichi Gokujou, Chi Dairuma Rikishi ; The Perpetual Cycle of Revenge",
  "genre": "Drama, Historical, Martial arts, Seinen, Tragedy, Manga",
  "author": "Hirata Hiroshi",
  "status": "Completed",
  "backlink": "https://manganu.com/collections/hirata-hiroshi/daichi-gokujou-chi-dairuma-rikishi/",
  "description": "Included Stories:\nThe Great Hell Castle (Chapters 1-5)\nThe Legend of the Great Sumo Soul: Bloody Daruma Warrior\nThe Legend of the Great Sumo Soul: The World's Greatest Headbutt",
  "language": "English",
  "images": [
    "https://img-proxy.imgfo.com/?referer=https://manganelo.com&url=https://s5.mkklcdnv6temp.com/mangakakalot/d1/daichi_gokujou_chi_dairuma_rikishi/vol1_chapter_7_the_legend_of_great_sumo_soul_the_worlds_greates_headbutt/1.jpg",
    "https://img-proxy.imgfo.com/?referer=https://manganelo.com&url=https://s5.mkklcdnv6temp.com/mangakakalot/d1/daichi_gokujou_chi_dairuma_rikishi/vol1_chapter_7_the_legend_of_great_sumo_soul_the_worlds_greates_headbutt/2.jpg",
    "https://img-proxy.imgfo.com/?referer=https://manganelo.com&url=https://s5.mkklcdnv6temp.com/mangakakalot/d1/daichi_gokujou_chi_dairuma_rikishi/vol1_chapter_7_the_legend_of_great_sumo_soul_the_worlds_greates_headbutt/3.jpg",
    "https://img-proxy.imgfo.com/?referer=https://manganelo.com&url=https://s5.mkklcdnv6temp.com/mangakakalot/d1/daichi_gokujou_chi_dairuma_rikishi/vol1_chapter_7_the_legend_of_great_sumo_soul_the_worlds_greates_headbutt/4.jpg",
    "https://img-proxy.imgfo.com/?referer=https://manganelo.com&url=https://s5.mkklcdnv6temp.com/mangakakalot/d1/daichi_gokujou_chi_dairuma_rikishi/vol1_chapter_7_the_legend_of_great_sumo_soul_the_worlds_greates_headbutt/5.jpg",
    "https://img-proxy.imgfo.com/?referer=https://manganelo.com&url=https://s5.mkklcdnv6temp.com/mangakakalot/d1/daichi_gokujou_chi_dairuma_rikishi/vol1_chapter_7_the_legend_of_great_sumo_soul_the_worlds_greates_headbutt/6.jpg",
    "https://img-proxy.imgfo.com/?referer=https://manganelo.com&url=https://s5.mkklcdnv6temp.com/mangakakalot/d1/daichi_gokujou_chi_dairuma_rikishi/vol1_chapter_7_the_legend_of_great_sumo_soul_the_worlds_greates_headbutt/7.jpg",
    "https://img-proxy.imgfo.com/?referer=https://manganelo.com&url=https://s5.mkklcdnv6temp.com/mangakakalot/d1/daichi_gokujou_chi_dairuma_rikishi/vol1_chapter_7_the_legend_of_great_sumo_soul_the_worlds_greates_headbutt/8.jpg",
    "https://img-proxy.imgfo.com/?referer=https://manganelo.com&url=https://s5.mkklcdnv6temp.com/mangakakalot/d1/daichi_gokujou_chi_dairuma_rikishi/vol1_chapter_7_the_legend_of_great_sumo_soul_the_worlds_greates_headbutt/9.jpg",
    "https://img-proxy.imgfo.com/?referer=https://manganelo.com&url=https://s5.mkklcdnv6temp.com/mangakakalot/d1/daichi_gokujou_chi_dairuma_rikishi/vol1_chapter_7_the_legend_of_great_sumo_soul_the_worlds_greates_headbutt/10.jpg",
    "https://img-proxy.imgfo.com/?referer=https://manganelo.com&url=https://s5.mkklcdnv6temp.com/mangakakalot/d1/daichi_gokujou_chi_dairuma_rikishi/vol1_chapter_7_the_legend_of_great_sumo_soul_the_worlds_greates_headbutt/11.jpg",
    "https://img-proxy.imgfo.com/?referer=https://manganelo.com&url=https://s5.mkklcdnv6temp.com/mangakakalot/d1/daichi_gokujou_chi_dairuma_rikishi/vol1_chapter_7_the_legend_of_great_sumo_soul_the_worlds_greates_headbutt/12.jpg",
    "https://img-proxy.imgfo.com/?referer=https://manganelo.com&url=https://s5.mkklcdnv6temp.com/mangakakalot/d1/daichi_gokujou_chi_dairuma_rikishi/vol1_chapter_7_the_legend_of_great_sumo_soul_the_worlds_greates_headbutt/13.jpg",
    "https://img-proxy.imgfo.com/?referer=https://manganelo.com&url=https://s5.mkklcdnv6temp.com/mangakakalot/d1/daichi_gokujou_chi_dairuma_rikishi/vol1_chapter_7_the_legend_of_great_sumo_soul_the_worlds_greates_headbutt/14.jpg",
    "https://img-proxy.imgfo.com/?referer=https://manganelo.com&url=https://s5.mkklcdnv6temp.com/mangakakalot/d1/daichi_gokujou_chi_dairuma_rikishi/vol1_chapter_7_the_legend_of_great_sumo_soul_the_worlds_greates_headbutt/15.jpg",
    "https://img-proxy.imgfo.com/?referer=https://manganelo.com&url=https://s5.mkklcdnv6temp.com/mangakakalot/d1/daichi_gokujou_chi_dairuma_rikishi/vol1_chapter_7_the_legend_of_great_sumo_soul_the_worlds_greates_headbutt/16.jpg",
    "https://img-proxy.imgfo.com/?referer=https://manganelo.com&url=https://s5.mkklcdnv6temp.com/mangakakalot/d1/daichi_gokujou_chi_dairuma_rikishi/vol1_chapter_7_the_legend_of_great_sumo_soul_the_worlds_greates_headbutt/17.jpg",
    "https://img-proxy.imgfo.com/?referer=https://manganelo.com&url=https://s5.mkklcdnv6temp.com/mangakakalot/d1/daichi_gokujou_chi_dairuma_rikishi/vol1_chapter_7_the_legend_of_great_sumo_soul_the_worlds_greates_headbutt/18.jpg",
    "https://img-proxy.imgfo.com/?referer=https://manganelo.com&url=https://s5.mkklcdnv6temp.com/mangakakalot/d1/daichi_gokujou_chi_dairuma_rikishi/vol1_chapter_7_the_legend_of_great_sumo_soul_the_worlds_greates_headbutt/19.jpg",
    "https://img-proxy.imgfo.com/?referer=https://manganelo.com&url=https://s5.mkklcdnv6temp.com/mangakakalot/d1/daichi_gokujou_chi_dairuma_rikishi/vol1_chapter_7_the_legend_of_great_sumo_soul_the_worlds_greates_headbutt/20.jpg",
    "https://img-proxy.imgfo.com/?referer=https://manganelo.com&url=https://s5.mkklcdnv6temp.com/mangakakalot/d1/daichi_gokujou_chi_dairuma_rikishi/vol1_chapter_7_the_legend_of_great_sumo_soul_the_worlds_greates_headbutt/21.jpg",
    "https://img-proxy.imgfo.com/?referer=https://manganelo.com&url=https://s5.mkklcdnv6temp.com/mangakakalot/d1/daichi_gokujou_chi_dairuma_rikishi/vol1_chapter_7_the_legend_of_great_sumo_soul_the_worlds_greates_headbutt/22.jpg",
    "https://img-proxy.imgfo.com/?referer=https://manganelo.com&url=https://s5.mkklcdnv6temp.com/mangakakalot/d1/daichi_gokujou_chi_dairuma_rikishi/vol1_chapter_7_the_legend_of_great_sumo_soul_the_worlds_greates_headbutt/23.jpg",
    "https://img-proxy.imgfo.com/?referer=https://manganelo.com&url=https://s5.mkklcdnv6temp.com/mangakakalot/d1/daichi_gokujou_chi_dairuma_rikishi/vol1_chapter_7_the_legend_of_great_sumo_soul_the_worlds_greates_headbutt/24.jpg",
    "https://img-proxy.imgfo.com/?referer=https://manganelo.com&url=https://s5.mkklcdnv6temp.com/mangakakalot/d1/daichi_gokujou_chi_dairuma_rikishi/vol1_chapter_7_the_legend_of_great_sumo_soul_the_worlds_greates_headbutt/25.jpg",
    "https://img-proxy.imgfo.com/?referer=https://manganelo.com&url=https://s5.mkklcdnv6temp.com/mangakakalot/d1/daichi_gokujou_chi_dairuma_rikishi/vol1_chapter_7_the_legend_of_great_sumo_soul_the_worlds_greates_headbutt/26.jpg",
    "https://img-proxy.imgfo.com/?referer=https://manganelo.com&url=https://s5.mkklcdnv6temp.com/mangakakalot/d1/daichi_gokujou_chi_dairuma_rikishi/vol1_chapter_7_the_legend_of_great_sumo_soul_the_worlds_greates_headbutt/27.jpg",
    "https://img-proxy.imgfo.com/?referer=https://manganelo.com&url=https://s5.mkklcdnv6temp.com/mangakakalot/d1/daichi_gokujou_chi_dairuma_rikishi/vol1_chapter_7_the_legend_of_great_sumo_soul_the_worlds_greates_headbutt/28.jpg",
    "https://img-proxy.imgfo.com/?referer=https://manganelo.com&url=https://s5.mkklcdnv6temp.com/mangakakalot/d1/daichi_gokujou_chi_dairuma_rikishi/vol1_chapter_7_the_legend_of_great_sumo_soul_the_worlds_greates_headbutt/29.jpg",
    "https://img-proxy.imgfo.com/?referer=https://manganelo.com&url=https://s5.mkklcdnv6temp.com/mangakakalot/d1/daichi_gokujou_chi_dairuma_rikishi/vol1_chapter_7_the_legend_of_great_sumo_soul_the_worlds_greates_headbutt/30.jpg",
    "https://img-proxy.imgfo.com/?referer=https://manganelo.com&url=https://s5.mkklcdnv6temp.com/mangakakalot/d1/daichi_gokujou_chi_dairuma_rikishi/vol1_chapter_7_the_legend_of_great_sumo_soul_the_worlds_greates_headbutt/31.jpg",
    "https://img-proxy.imgfo.com/?referer=https://manganelo.com&url=https://s5.mkklcdnv6temp.com/mangakakalot/d1/daichi_gokujou_chi_dairuma_rikishi/vol1_chapter_7_the_legend_of_great_sumo_soul_the_worlds_greates_headbutt/32.jpg",
    "https://img-proxy.imgfo.com/?referer=https://manganelo.com&url=https://s5.mkklcdnv6temp.com/mangakakalot/d1/daichi_gokujou_chi_dairuma_rikishi/vol1_chapter_7_the_legend_of_great_sumo_soul_the_worlds_greates_headbutt/33.jpg",
    "https://img-proxy.imgfo.com/?referer=https://manganelo.com&url=https://s5.mkklcdnv6temp.com/mangakakalot/d1/daichi_gokujou_chi_dairuma_rikishi/vol1_chapter_7_the_legend_of_great_sumo_soul_the_worlds_greates_headbutt/34.jpg",
    "https://img-proxy.imgfo.com/?referer=https://manganelo.com&url=https://s5.mkklcdnv6temp.com/mangakakalot/d1/daichi_gokujou_chi_dairuma_rikishi/vol1_chapter_7_the_legend_of_great_sumo_soul_the_worlds_greates_headbutt/35.jpg",
    "https://img-proxy.imgfo.com/?referer=https://manganelo.com&url=https://s5.mkklcdnv6temp.com/mangakakalot/d1/daichi_gokujou_chi_dairuma_rikishi/vol1_chapter_7_the_legend_of_great_sumo_soul_the_worlds_greates_headbutt/36.jpg",
    "https://img-proxy.imgfo.com/?referer=https://manganelo.com&url=https://s5.mkklcdnv6temp.com/mangakakalot/d1/daichi_gokujou_chi_dairuma_rikishi/vol1_chapter_7_the_legend_of_great_sumo_soul_the_worlds_greates_headbutt/37.jpg"
  ]
}