{
  "cover": "https://avt.mkklcdnv6.com/6/o/10-1583482410.jpg",
  "title": "Warau Kyuuketsuki",
  "original": "ハライソ 笑う吸血鬼２ ; 笑う吸血鬼 ; baraiso: warau kyuuketsuki 2 ; Der lachende Vampir ; The Laughing Vampire ; The Laughing Vampire 2: Paradise",
  "genre": "Horror, Mature, Seinen, Manga",
  "author": "Maruo Suehiro",
  "status": "Completed",
  "backlink": "https://manganu.com/collections/maruo-suehiro/warau-kyuuketsuki/",
  "description": "Volume 1 : The Laughing Vampire.\nWhile a young boy, just resurrected as a vampire, commits acts of awful ferocity, the city around him shows all its perversion. The adults abuse of their power, the boys degenerate and use all the available means to achieve their goal to give vent to their low instincts. Whoever can't understand and make opposition is doomed to change or becoming crazy. So which is the real horror? The vampire who kills in order to feed himself or the crawling disease hidden in the society that slowly corrupts without being noticed?\nVolume 2 : Paradise.\nFollowing the events narrated in the first volume, Luna and Konosuke are now living together with the old woman vampire as fellows, as lovers, in a diabolic innocence, killing to quench their thirst for blood, joining death and love under the dream of the eternal youth. Meanwhile a young boy, named Makoto, is looking for his lost sister Miko, who disappeared years ago under mysterious circumstances. But what has really happened to that girl who liked eating grubs and dreamed to become on of them? And is someone really hiding a terrible secret? The paths of all the characters will dramatically collide, bringing unexpected consequences after the things are gradually revealed.\nA story suspended between weirdness and decadence, showing a clear nostalgia for the German cinematography and Federico Fellini, where the blood is used to trace a great and only apparent amoral story.",
  "language": "English",
  "images": [
    "https://img-proxy.imgfo.com/?referer=https://manganelo.com&url=https://s3.mkklcdnv6temp.com/mangakakalot/w1/warau_kyuuketsuki/vol2_chapter_18/1.jpg",
    "https://img-proxy.imgfo.com/?referer=https://manganelo.com&url=https://s3.mkklcdnv6temp.com/mangakakalot/w1/warau_kyuuketsuki/vol2_chapter_18/2.jpg",
    "https://img-proxy.imgfo.com/?referer=https://manganelo.com&url=https://s3.mkklcdnv6temp.com/mangakakalot/w1/warau_kyuuketsuki/vol2_chapter_18/3.jpg",
    "https://img-proxy.imgfo.com/?referer=https://manganelo.com&url=https://s3.mkklcdnv6temp.com/mangakakalot/w1/warau_kyuuketsuki/vol2_chapter_18/4.jpg",
    "https://img-proxy.imgfo.com/?referer=https://manganelo.com&url=https://s3.mkklcdnv6temp.com/mangakakalot/w1/warau_kyuuketsuki/vol2_chapter_18/5.jpg",
    "https://img-proxy.imgfo.com/?referer=https://manganelo.com&url=https://s3.mkklcdnv6temp.com/mangakakalot/w1/warau_kyuuketsuki/vol2_chapter_18/6.jpg",
    "https://img-proxy.imgfo.com/?referer=https://manganelo.com&url=https://s3.mkklcdnv6temp.com/mangakakalot/w1/warau_kyuuketsuki/vol2_chapter_18/7.jpg",
    "https://img-proxy.imgfo.com/?referer=https://manganelo.com&url=https://s3.mkklcdnv6temp.com/mangakakalot/w1/warau_kyuuketsuki/vol2_chapter_18/8.jpg",
    "https://img-proxy.imgfo.com/?referer=https://manganelo.com&url=https://s3.mkklcdnv6temp.com/mangakakalot/w1/warau_kyuuketsuki/vol2_chapter_18/9.jpg",
    "https://img-proxy.imgfo.com/?referer=https://manganelo.com&url=https://s3.mkklcdnv6temp.com/mangakakalot/w1/warau_kyuuketsuki/vol2_chapter_18/10.jpg",
    "https://img-proxy.imgfo.com/?referer=https://manganelo.com&url=https://s3.mkklcdnv6temp.com/mangakakalot/w1/warau_kyuuketsuki/vol2_chapter_18/11.jpg",
    "https://img-proxy.imgfo.com/?referer=https://manganelo.com&url=https://s3.mkklcdnv6temp.com/mangakakalot/w1/warau_kyuuketsuki/vol2_chapter_18/12.jpg",
    "https://img-proxy.imgfo.com/?referer=https://manganelo.com&url=https://s3.mkklcdnv6temp.com/mangakakalot/w1/warau_kyuuketsuki/vol2_chapter_18/13.jpg",
    "https://img-proxy.imgfo.com/?referer=https://manganelo.com&url=https://s3.mkklcdnv6temp.com/mangakakalot/w1/warau_kyuuketsuki/vol2_chapter_18/14.jpg",
    "https://img-proxy.imgfo.com/?referer=https://manganelo.com&url=https://s3.mkklcdnv6temp.com/mangakakalot/w1/warau_kyuuketsuki/vol2_chapter_18/15.jpg",
    "https://img-proxy.imgfo.com/?referer=https://manganelo.com&url=https://s3.mkklcdnv6temp.com/mangakakalot/w1/warau_kyuuketsuki/vol2_chapter_18/16.jpg",
    "https://img-proxy.imgfo.com/?referer=https://manganelo.com&url=https://s3.mkklcdnv6temp.com/mangakakalot/w1/warau_kyuuketsuki/vol2_chapter_18/17.jpg",
    "https://img-proxy.imgfo.com/?referer=https://manganelo.com&url=https://s3.mkklcdnv6temp.com/mangakakalot/w1/warau_kyuuketsuki/vol2_chapter_18/18.jpg",
    "https://img-proxy.imgfo.com/?referer=https://manganelo.com&url=https://s3.mkklcdnv6temp.com/mangakakalot/w1/warau_kyuuketsuki/vol2_chapter_18/19.jpg",
    "https://img-proxy.imgfo.com/?referer=https://manganelo.com&url=https://s3.mkklcdnv6temp.com/mangakakalot/w1/warau_kyuuketsuki/vol2_chapter_18/20.jpg",
    "https://img-proxy.imgfo.com/?referer=https://manganelo.com&url=https://s3.mkklcdnv6temp.com/mangakakalot/w1/warau_kyuuketsuki/vol2_chapter_18/21.jpg",
    "https://img-proxy.imgfo.com/?referer=https://manganelo.com&url=https://s3.mkklcdnv6temp.com/mangakakalot/w1/warau_kyuuketsuki/vol2_chapter_18/22.jpg",
    "https://img-proxy.imgfo.com/?referer=https://manganelo.com&url=https://s3.mkklcdnv6temp.com/mangakakalot/w1/warau_kyuuketsuki/vol2_chapter_18/23.jpg",
    "https://img-proxy.imgfo.com/?referer=https://manganelo.com&url=https://s3.mkklcdnv6temp.com/mangakakalot/w1/warau_kyuuketsuki/vol2_chapter_18/24.jpg",
    "https://img-proxy.imgfo.com/?referer=https://manganelo.com&url=https://s3.mkklcdnv6temp.com/mangakakalot/w1/warau_kyuuketsuki/vol2_chapter_18/25.jpg",
    "https://img-proxy.imgfo.com/?referer=https://manganelo.com&url=https://s3.mkklcdnv6temp.com/mangakakalot/w1/warau_kyuuketsuki/vol2_chapter_18/26.jpg",
    "https://img-proxy.imgfo.com/?referer=https://manganelo.com&url=https://s3.mkklcdnv6temp.com/mangakakalot/w1/warau_kyuuketsuki/vol2_chapter_18/27.jpg",
    "https://img-proxy.imgfo.com/?referer=https://manganelo.com&url=https://s3.mkklcdnv6temp.com/mangakakalot/w1/warau_kyuuketsuki/vol2_chapter_18/28.jpg",
    "https://img-proxy.imgfo.com/?referer=https://manganelo.com&url=https://s3.mkklcdnv6temp.com/mangakakalot/w1/warau_kyuuketsuki/vol2_chapter_18/29.jpg",
    "https://img-proxy.imgfo.com/?referer=https://manganelo.com&url=https://s3.mkklcdnv6temp.com/mangakakalot/w1/warau_kyuuketsuki/vol2_chapter_18/30.jpg",
    "https://img-proxy.imgfo.com/?referer=https://manganelo.com&url=https://s3.mkklcdnv6temp.com/mangakakalot/w1/warau_kyuuketsuki/vol2_chapter_18/31.jpg",
    "https://img-proxy.imgfo.com/?referer=https://manganelo.com&url=https://s3.mkklcdnv6temp.com/mangakakalot/w1/warau_kyuuketsuki/vol2_chapter_18/32.jpg",
    "https://img-proxy.imgfo.com/?referer=https://manganelo.com&url=https://s3.mkklcdnv6temp.com/mangakakalot/w1/warau_kyuuketsuki/vol2_chapter_18/33.jpg",
    "https://img-proxy.imgfo.com/?referer=https://manganelo.com&url=https://s3.mkklcdnv6temp.com/mangakakalot/w1/warau_kyuuketsuki/vol2_chapter_18/34.jpg"
  ]
}