{
  "cover": "https://avt.mkklcdnv6.com/4/d/10-1583482326.jpg",
  "title": "Yamato Gensouki",
  "genre": "Action, Adventure, Fantasy, Shounen, Manga",
  "author": "Yabuki Kentaro",
  "status": "Completed",
  "backlink": "https://manganu.com/collections/yabuki-kentaro/yamato-gensouki/",
  "description": "Shion is a young man working for the Onmyou Organization under false pretenses. He is attempting to avenge the destruction of his nation and the deaths of his family members, and targets the Empress in an attempt to destroy her homeland. However, their destinies are in fact entwined, as she not only dislikes destruction, but wishes to unite all of Japan peacefully.",
  "language": "English",
  "images": [
    "https://img-proxy.imgfo.com/?referer=https://manganelo.com&url=https://s5.mkklcdnv6temp.com/mangakakalot/y1/yamato_gensouki/vol2_chapter_15_the_crimson_weapon/1.jpg",
    "https://img-proxy.imgfo.com/?referer=https://manganelo.com&url=https://s5.mkklcdnv6temp.com/mangakakalot/y1/yamato_gensouki/vol2_chapter_15_the_crimson_weapon/2.jpg",
    "https://img-proxy.imgfo.com/?referer=https://manganelo.com&url=https://s5.mkklcdnv6temp.com/mangakakalot/y1/yamato_gensouki/vol2_chapter_15_the_crimson_weapon/3.jpg",
    "https://img-proxy.imgfo.com/?referer=https://manganelo.com&url=https://s5.mkklcdnv6temp.com/mangakakalot/y1/yamato_gensouki/vol2_chapter_15_the_crimson_weapon/4.jpg",
    "https://img-proxy.imgfo.com/?referer=https://manganelo.com&url=https://s5.mkklcdnv6temp.com/mangakakalot/y1/yamato_gensouki/vol2_chapter_15_the_crimson_weapon/5.jpg",
    "https://img-proxy.imgfo.com/?referer=https://manganelo.com&url=https://s5.mkklcdnv6temp.com/mangakakalot/y1/yamato_gensouki/vol2_chapter_15_the_crimson_weapon/6.jpg",
    "https://img-proxy.imgfo.com/?referer=https://manganelo.com&url=https://s5.mkklcdnv6temp.com/mangakakalot/y1/yamato_gensouki/vol2_chapter_15_the_crimson_weapon/7.jpg",
    "https://img-proxy.imgfo.com/?referer=https://manganelo.com&url=https://s5.mkklcdnv6temp.com/mangakakalot/y1/yamato_gensouki/vol2_chapter_15_the_crimson_weapon/8.jpg",
    "https://img-proxy.imgfo.com/?referer=https://manganelo.com&url=https://s5.mkklcdnv6temp.com/mangakakalot/y1/yamato_gensouki/vol2_chapter_15_the_crimson_weapon/9.jpg",
    "https://img-proxy.imgfo.com/?referer=https://manganelo.com&url=https://s5.mkklcdnv6temp.com/mangakakalot/y1/yamato_gensouki/vol2_chapter_15_the_crimson_weapon/10.jpg",
    "https://img-proxy.imgfo.com/?referer=https://manganelo.com&url=https://s5.mkklcdnv6temp.com/mangakakalot/y1/yamato_gensouki/vol2_chapter_15_the_crimson_weapon/11.jpg",
    "https://img-proxy.imgfo.com/?referer=https://manganelo.com&url=https://s5.mkklcdnv6temp.com/mangakakalot/y1/yamato_gensouki/vol2_chapter_15_the_crimson_weapon/12.jpg",
    "https://img-proxy.imgfo.com/?referer=https://manganelo.com&url=https://s5.mkklcdnv6temp.com/mangakakalot/y1/yamato_gensouki/vol2_chapter_15_the_crimson_weapon/13.jpg",
    "https://img-proxy.imgfo.com/?referer=https://manganelo.com&url=https://s5.mkklcdnv6temp.com/mangakakalot/y1/yamato_gensouki/vol2_chapter_15_the_crimson_weapon/14.jpg",
    "https://img-proxy.imgfo.com/?referer=https://manganelo.com&url=https://s5.mkklcdnv6temp.com/mangakakalot/y1/yamato_gensouki/vol2_chapter_15_the_crimson_weapon/15.jpg",
    "https://img-proxy.imgfo.com/?referer=https://manganelo.com&url=https://s5.mkklcdnv6temp.com/mangakakalot/y1/yamato_gensouki/vol2_chapter_15_the_crimson_weapon/16.jpg",
    "https://img-proxy.imgfo.com/?referer=https://manganelo.com&url=https://s5.mkklcdnv6temp.com/mangakakalot/y1/yamato_gensouki/vol2_chapter_15_the_crimson_weapon/17.jpg",
    "https://img-proxy.imgfo.com/?referer=https://manganelo.com&url=https://s5.mkklcdnv6temp.com/mangakakalot/y1/yamato_gensouki/vol2_chapter_15_the_crimson_weapon/18.jpg",
    "https://img-proxy.imgfo.com/?referer=https://manganelo.com&url=https://s5.mkklcdnv6temp.com/mangakakalot/y1/yamato_gensouki/vol2_chapter_15_the_crimson_weapon/19.jpg",
    "https://img-proxy.imgfo.com/?referer=https://manganelo.com&url=https://s5.mkklcdnv6temp.com/mangakakalot/y1/yamato_gensouki/vol2_chapter_15_the_crimson_weapon/20.jpg",
    "https://img-proxy.imgfo.com/?referer=https://manganelo.com&url=https://s5.mkklcdnv6temp.com/mangakakalot/y1/yamato_gensouki/vol2_chapter_15_the_crimson_weapon/21.jpg"
  ]
}