{
  "cover": "https://avt.mkklcdnv6.com/39/y/6-1583475786.jpg",
  "title": "Boku No Kichiku Megane",
  "original": "ボクのキチク眼鏡",
  "genre": "School life, Yaoi, Manga",
  "author": "Midoriyama Youko",
  "status": "Completed",
  "backlink": "https://manganu.com/collections/midoriyama-youko/boku-no-kichiku-megane/",
  "description": "1-3) Love Minority\nIsuka Yoshihito, a high school infirmary sensei, fell in love with a student, Shiina Satoru. However, after Sensei confessed to Shiina-kun, things started to go wrong. The mild-mannered Shiina became totally different and their strange relationship began. (from Attractive Fascinante)\n4) Evening Grew\nA high school reunion brings back memories for Hayashi Akira when he sees his childhood friend Tsujitani Masato. While Masato was easy-going and popular, Akira was quiet and deep and his intense affections and jealousy for his friend led him to destructive actions that would haunt him for years...\n5) That Future that is Unknown to Us\nAt junior high graduation Kazuki confessed to his friend Makoto, only to get shot down. They've managed to hang onto their friendship, even though they go to different high schools. But lately Kazuki's love-em-and-leave-em gay relationships are starting to bother Makoto.\n6) Paradigm Shift\nLove Minority extra.",
  "language": "English",
  "images": [
    "https://img-proxy.imgfo.com/?referer=https://manganelo.com&url=https://s3.mkklcdnv6temp.com/mangakakalot/b2/boku_no_kichiku_megane/vol1_chapter_5_that_future_that_is_unknown_to_us/1.jpg",
    "https://img-proxy.imgfo.com/?referer=https://manganelo.com&url=https://s3.mkklcdnv6temp.com/mangakakalot/b2/boku_no_kichiku_megane/vol1_chapter_5_that_future_that_is_unknown_to_us/2.jpg",
    "https://img-proxy.imgfo.com/?referer=https://manganelo.com&url=https://s3.mkklcdnv6temp.com/mangakakalot/b2/boku_no_kichiku_megane/vol1_chapter_5_that_future_that_is_unknown_to_us/3.jpg",
    "https://img-proxy.imgfo.com/?referer=https://manganelo.com&url=https://s3.mkklcdnv6temp.com/mangakakalot/b2/boku_no_kichiku_megane/vol1_chapter_5_that_future_that_is_unknown_to_us/4.jpg",
    "https://img-proxy.imgfo.com/?referer=https://manganelo.com&url=https://s3.mkklcdnv6temp.com/mangakakalot/b2/boku_no_kichiku_megane/vol1_chapter_5_that_future_that_is_unknown_to_us/5.jpg",
    "https://img-proxy.imgfo.com/?referer=https://manganelo.com&url=https://s3.mkklcdnv6temp.com/mangakakalot/b2/boku_no_kichiku_megane/vol1_chapter_5_that_future_that_is_unknown_to_us/6.jpg",
    "https://img-proxy.imgfo.com/?referer=https://manganelo.com&url=https://s3.mkklcdnv6temp.com/mangakakalot/b2/boku_no_kichiku_megane/vol1_chapter_5_that_future_that_is_unknown_to_us/7.jpg",
    "https://img-proxy.imgfo.com/?referer=https://manganelo.com&url=https://s3.mkklcdnv6temp.com/mangakakalot/b2/boku_no_kichiku_megane/vol1_chapter_5_that_future_that_is_unknown_to_us/8.jpg",
    "https://img-proxy.imgfo.com/?referer=https://manganelo.com&url=https://s3.mkklcdnv6temp.com/mangakakalot/b2/boku_no_kichiku_megane/vol1_chapter_5_that_future_that_is_unknown_to_us/9.jpg",
    "https://img-proxy.imgfo.com/?referer=https://manganelo.com&url=https://s3.mkklcdnv6temp.com/mangakakalot/b2/boku_no_kichiku_megane/vol1_chapter_5_that_future_that_is_unknown_to_us/10.jpg",
    "https://img-proxy.imgfo.com/?referer=https://manganelo.com&url=https://s3.mkklcdnv6temp.com/mangakakalot/b2/boku_no_kichiku_megane/vol1_chapter_5_that_future_that_is_unknown_to_us/11.jpg",
    "https://img-proxy.imgfo.com/?referer=https://manganelo.com&url=https://s3.mkklcdnv6temp.com/mangakakalot/b2/boku_no_kichiku_megane/vol1_chapter_5_that_future_that_is_unknown_to_us/12.jpg",
    "https://img-proxy.imgfo.com/?referer=https://manganelo.com&url=https://s3.mkklcdnv6temp.com/mangakakalot/b2/boku_no_kichiku_megane/vol1_chapter_5_that_future_that_is_unknown_to_us/13.jpg",
    "https://img-proxy.imgfo.com/?referer=https://manganelo.com&url=https://s3.mkklcdnv6temp.com/mangakakalot/b2/boku_no_kichiku_megane/vol1_chapter_5_that_future_that_is_unknown_to_us/14.jpg",
    "https://img-proxy.imgfo.com/?referer=https://manganelo.com&url=https://s3.mkklcdnv6temp.com/mangakakalot/b2/boku_no_kichiku_megane/vol1_chapter_5_that_future_that_is_unknown_to_us/15.jpg",
    "https://img-proxy.imgfo.com/?referer=https://manganelo.com&url=https://s3.mkklcdnv6temp.com/mangakakalot/b2/boku_no_kichiku_megane/vol1_chapter_5_that_future_that_is_unknown_to_us/16.jpg",
    "https://img-proxy.imgfo.com/?referer=https://manganelo.com&url=https://s3.mkklcdnv6temp.com/mangakakalot/b2/boku_no_kichiku_megane/vol1_chapter_5_that_future_that_is_unknown_to_us/17.jpg",
    "https://img-proxy.imgfo.com/?referer=https://manganelo.com&url=https://s3.mkklcdnv6temp.com/mangakakalot/b2/boku_no_kichiku_megane/vol1_chapter_5_that_future_that_is_unknown_to_us/18.jpg",
    "https://img-proxy.imgfo.com/?referer=https://manganelo.com&url=https://s3.mkklcdnv6temp.com/mangakakalot/b2/boku_no_kichiku_megane/vol1_chapter_5_that_future_that_is_unknown_to_us/19.jpg",
    "https://img-proxy.imgfo.com/?referer=https://manganelo.com&url=https://s3.mkklcdnv6temp.com/mangakakalot/b2/boku_no_kichiku_megane/vol1_chapter_5_that_future_that_is_unknown_to_us/20.jpg",
    "https://img-proxy.imgfo.com/?referer=https://manganelo.com&url=https://s3.mkklcdnv6temp.com/mangakakalot/b2/boku_no_kichiku_megane/vol1_chapter_5_that_future_that_is_unknown_to_us/21.jpg",
    "https://img-proxy.imgfo.com/?referer=https://manganelo.com&url=https://s3.mkklcdnv6temp.com/mangakakalot/b2/boku_no_kichiku_megane/vol1_chapter_5_that_future_that_is_unknown_to_us/22.jpg",
    "https://img-proxy.imgfo.com/?referer=https://manganelo.com&url=https://s3.mkklcdnv6temp.com/mangakakalot/b2/boku_no_kichiku_megane/vol1_chapter_5_that_future_that_is_unknown_to_us/23.jpg",
    "https://img-proxy.imgfo.com/?referer=https://manganelo.com&url=https://s3.mkklcdnv6temp.com/mangakakalot/b2/boku_no_kichiku_megane/vol1_chapter_5_that_future_that_is_unknown_to_us/24.jpg",
    "https://img-proxy.imgfo.com/?referer=https://manganelo.com&url=https://s3.mkklcdnv6temp.com/mangakakalot/b2/boku_no_kichiku_megane/vol1_chapter_5_that_future_that_is_unknown_to_us/25.jpg",
    "https://img-proxy.imgfo.com/?referer=https://manganelo.com&url=https://s3.mkklcdnv6temp.com/mangakakalot/b2/boku_no_kichiku_megane/vol1_chapter_5_that_future_that_is_unknown_to_us/26.jpg",
    "https://img-proxy.imgfo.com/?referer=https://manganelo.com&url=https://s3.mkklcdnv6temp.com/mangakakalot/b2/boku_no_kichiku_megane/vol1_chapter_5_that_future_that_is_unknown_to_us/27.jpg",
    "https://img-proxy.imgfo.com/?referer=https://manganelo.com&url=https://s3.mkklcdnv6temp.com/mangakakalot/b2/boku_no_kichiku_megane/vol1_chapter_5_that_future_that_is_unknown_to_us/28.jpg",
    "https://img-proxy.imgfo.com/?referer=https://manganelo.com&url=https://s3.mkklcdnv6temp.com/mangakakalot/b2/boku_no_kichiku_megane/vol1_chapter_5_that_future_that_is_unknown_to_us/29.jpg",
    "https://img-proxy.imgfo.com/?referer=https://manganelo.com&url=https://s3.mkklcdnv6temp.com/mangakakalot/b2/boku_no_kichiku_megane/vol1_chapter_5_that_future_that_is_unknown_to_us/30.jpg",
    "https://img-proxy.imgfo.com/?referer=https://manganelo.com&url=https://s3.mkklcdnv6temp.com/mangakakalot/b2/boku_no_kichiku_megane/vol1_chapter_5_that_future_that_is_unknown_to_us/31.jpg",
    "https://img-proxy.imgfo.com/?referer=https://manganelo.com&url=https://s3.mkklcdnv6temp.com/mangakakalot/b2/boku_no_kichiku_megane/vol1_chapter_5_that_future_that_is_unknown_to_us/32.jpg",
    "https://img-proxy.imgfo.com/?referer=https://manganelo.com&url=https://s3.mkklcdnv6temp.com/mangakakalot/b2/boku_no_kichiku_megane/vol1_chapter_5_that_future_that_is_unknown_to_us/33.jpg",
    "https://img-proxy.imgfo.com/?referer=https://manganelo.com&url=https://s3.mkklcdnv6temp.com/mangakakalot/b2/boku_no_kichiku_megane/vol1_chapter_5_that_future_that_is_unknown_to_us/34.jpg"
  ]
}