{
  "cover": "https://avt.mkklcdnv6.com/44/w/4-1583471574.jpg",
  "title": "The!! Beach Stars",
  "original": "ザ!!ビーチスターズ",
  "genre": "Comedy, Ecchi, Seinen, Sports, Manga",
  "author": "Morio Masahiro",
  "status": "Completed",
  "backlink": "https://manganu.com/collections/morio-masahiro/the-beach-stars/",
  "description": "Sequel of Beach Stars, the story begins where it stopped in the first one.\nNanase, who's now the representative of her prefecture, has finally joined the Madonna Cup and will do everything in her power to defeat her one and only target: Hayakawa Sanae!",
  "language": "English",
  "images": [
    "https://img-proxy.imgfo.com/?referer=https://manganelo.com&url=https://s7.mkklcdnv6temp.com/mangakakalot/t1/the_beach_stars/vol1_chapter_5_the_road_to_hayakawa/1.jpg",
    "https://img-proxy.imgfo.com/?referer=https://manganelo.com&url=https://s7.mkklcdnv6temp.com/mangakakalot/t1/the_beach_stars/vol1_chapter_5_the_road_to_hayakawa/2.jpg",
    "https://img-proxy.imgfo.com/?referer=https://manganelo.com&url=https://s7.mkklcdnv6temp.com/mangakakalot/t1/the_beach_stars/vol1_chapter_5_the_road_to_hayakawa/3.jpg",
    "https://img-proxy.imgfo.com/?referer=https://manganelo.com&url=https://s7.mkklcdnv6temp.com/mangakakalot/t1/the_beach_stars/vol1_chapter_5_the_road_to_hayakawa/4.jpg",
    "https://img-proxy.imgfo.com/?referer=https://manganelo.com&url=https://s7.mkklcdnv6temp.com/mangakakalot/t1/the_beach_stars/vol1_chapter_5_the_road_to_hayakawa/5.jpg",
    "https://img-proxy.imgfo.com/?referer=https://manganelo.com&url=https://s7.mkklcdnv6temp.com/mangakakalot/t1/the_beach_stars/vol1_chapter_5_the_road_to_hayakawa/6.jpg",
    "https://img-proxy.imgfo.com/?referer=https://manganelo.com&url=https://s7.mkklcdnv6temp.com/mangakakalot/t1/the_beach_stars/vol1_chapter_5_the_road_to_hayakawa/7.jpg",
    "https://img-proxy.imgfo.com/?referer=https://manganelo.com&url=https://s7.mkklcdnv6temp.com/mangakakalot/t1/the_beach_stars/vol1_chapter_5_the_road_to_hayakawa/8.jpg",
    "https://img-proxy.imgfo.com/?referer=https://manganelo.com&url=https://s7.mkklcdnv6temp.com/mangakakalot/t1/the_beach_stars/vol1_chapter_5_the_road_to_hayakawa/9.jpg",
    "https://img-proxy.imgfo.com/?referer=https://manganelo.com&url=https://s7.mkklcdnv6temp.com/mangakakalot/t1/the_beach_stars/vol1_chapter_5_the_road_to_hayakawa/10.jpg",
    "https://img-proxy.imgfo.com/?referer=https://manganelo.com&url=https://s7.mkklcdnv6temp.com/mangakakalot/t1/the_beach_stars/vol1_chapter_5_the_road_to_hayakawa/11.jpg",
    "https://img-proxy.imgfo.com/?referer=https://manganelo.com&url=https://s7.mkklcdnv6temp.com/mangakakalot/t1/the_beach_stars/vol1_chapter_5_the_road_to_hayakawa/12.jpg",
    "https://img-proxy.imgfo.com/?referer=https://manganelo.com&url=https://s7.mkklcdnv6temp.com/mangakakalot/t1/the_beach_stars/vol1_chapter_5_the_road_to_hayakawa/13.jpg",
    "https://img-proxy.imgfo.com/?referer=https://manganelo.com&url=https://s7.mkklcdnv6temp.com/mangakakalot/t1/the_beach_stars/vol1_chapter_5_the_road_to_hayakawa/14.jpg",
    "https://img-proxy.imgfo.com/?referer=https://manganelo.com&url=https://s7.mkklcdnv6temp.com/mangakakalot/t1/the_beach_stars/vol1_chapter_5_the_road_to_hayakawa/15.jpg",
    "https://img-proxy.imgfo.com/?referer=https://manganelo.com&url=https://s7.mkklcdnv6temp.com/mangakakalot/t1/the_beach_stars/vol1_chapter_5_the_road_to_hayakawa/16.jpg",
    "https://img-proxy.imgfo.com/?referer=https://manganelo.com&url=https://s7.mkklcdnv6temp.com/mangakakalot/t1/the_beach_stars/vol1_chapter_5_the_road_to_hayakawa/17.jpg",
    "https://img-proxy.imgfo.com/?referer=https://manganelo.com&url=https://s7.mkklcdnv6temp.com/mangakakalot/t1/the_beach_stars/vol1_chapter_5_the_road_to_hayakawa/18.jpg",
    "https://img-proxy.imgfo.com/?referer=https://manganelo.com&url=https://s7.mkklcdnv6temp.com/mangakakalot/t1/the_beach_stars/vol1_chapter_5_the_road_to_hayakawa/19.jpg",
    "https://img-proxy.imgfo.com/?referer=https://manganelo.com&url=https://s7.mkklcdnv6temp.com/mangakakalot/t1/the_beach_stars/vol1_chapter_5_the_road_to_hayakawa/20.jpg",
    "https://img-proxy.imgfo.com/?referer=https://manganelo.com&url=https://s7.mkklcdnv6temp.com/mangakakalot/t1/the_beach_stars/vol1_chapter_5_the_road_to_hayakawa/21.jpg",
    "https://img-proxy.imgfo.com/?referer=https://manganelo.com&url=https://s7.mkklcdnv6temp.com/mangakakalot/t1/the_beach_stars/vol1_chapter_5_the_road_to_hayakawa/22.jpg",
    "https://img-proxy.imgfo.com/?referer=https://manganelo.com&url=https://s7.mkklcdnv6temp.com/mangakakalot/t1/the_beach_stars/vol1_chapter_5_the_road_to_hayakawa/23.jpg",
    "https://img-proxy.imgfo.com/?referer=https://manganelo.com&url=https://s7.mkklcdnv6temp.com/mangakakalot/t1/the_beach_stars/vol1_chapter_5_the_road_to_hayakawa/24.jpg",
    "https://img-proxy.imgfo.com/?referer=https://manganelo.com&url=https://s7.mkklcdnv6temp.com/mangakakalot/t1/the_beach_stars/vol1_chapter_5_the_road_to_hayakawa/25.jpg",
    "https://img-proxy.imgfo.com/?referer=https://manganelo.com&url=https://s7.mkklcdnv6temp.com/mangakakalot/t1/the_beach_stars/vol1_chapter_5_the_road_to_hayakawa/26.jpg",
    "https://img-proxy.imgfo.com/?referer=https://manganelo.com&url=https://s7.mkklcdnv6temp.com/mangakakalot/t1/the_beach_stars/vol1_chapter_5_the_road_to_hayakawa/27.jpg",
    "https://img-proxy.imgfo.com/?referer=https://manganelo.com&url=https://s7.mkklcdnv6temp.com/mangakakalot/t1/the_beach_stars/vol1_chapter_5_the_road_to_hayakawa/28.jpg",
    "https://img-proxy.imgfo.com/?referer=https://manganelo.com&url=https://s7.mkklcdnv6temp.com/mangakakalot/t1/the_beach_stars/vol1_chapter_5_the_road_to_hayakawa/29.jpg",
    "https://img-proxy.imgfo.com/?referer=https://manganelo.com&url=https://s7.mkklcdnv6temp.com/mangakakalot/t1/the_beach_stars/vol1_chapter_5_the_road_to_hayakawa/30.jpg",
    "https://img-proxy.imgfo.com/?referer=https://manganelo.com&url=https://s7.mkklcdnv6temp.com/mangakakalot/t1/the_beach_stars/vol1_chapter_5_the_road_to_hayakawa/31.jpg",
    "https://img-proxy.imgfo.com/?referer=https://manganelo.com&url=https://s7.mkklcdnv6temp.com/mangakakalot/t1/the_beach_stars/vol1_chapter_5_the_road_to_hayakawa/32.jpg",
    "https://img-proxy.imgfo.com/?referer=https://manganelo.com&url=https://s7.mkklcdnv6temp.com/mangakakalot/t1/the_beach_stars/vol1_chapter_5_the_road_to_hayakawa/33.jpg"
  ]
}