{
  "cover": "https://avt.mkklcdnv6.com/44/w/4-1583471574.jpg",
  "title": "The!! Beach Stars",
  "original": "ザ!!ビーチスターズ",
  "genre": "Comedy, Ecchi, Seinen, Sports, Manga",
  "author": "Morio Masahiro",
  "status": "Completed",
  "backlink": "https://manganu.com/collections/morio-masahiro/the-beach-stars/",
  "description": "Sequel of Beach Stars, the story begins where it stopped in the first one.\nNanase, who's now the representative of her prefecture, has finally joined the Madonna Cup and will do everything in her power to defeat her one and only target: Hayakawa Sanae!",
  "language": "English",
  "images": [
    "https://img-proxy.imgfo.com/?referer=https://manganelo.com&url=https://s7.mkklcdnv6temp.com/mangakakalot/t1/the_beach_stars/vol2_chapter_9_collision_the_best_4/1.jpg",
    "https://img-proxy.imgfo.com/?referer=https://manganelo.com&url=https://s7.mkklcdnv6temp.com/mangakakalot/t1/the_beach_stars/vol2_chapter_9_collision_the_best_4/2.jpg",
    "https://img-proxy.imgfo.com/?referer=https://manganelo.com&url=https://s7.mkklcdnv6temp.com/mangakakalot/t1/the_beach_stars/vol2_chapter_9_collision_the_best_4/3.jpg",
    "https://img-proxy.imgfo.com/?referer=https://manganelo.com&url=https://s7.mkklcdnv6temp.com/mangakakalot/t1/the_beach_stars/vol2_chapter_9_collision_the_best_4/4.jpg",
    "https://img-proxy.imgfo.com/?referer=https://manganelo.com&url=https://s7.mkklcdnv6temp.com/mangakakalot/t1/the_beach_stars/vol2_chapter_9_collision_the_best_4/5.jpg",
    "https://img-proxy.imgfo.com/?referer=https://manganelo.com&url=https://s7.mkklcdnv6temp.com/mangakakalot/t1/the_beach_stars/vol2_chapter_9_collision_the_best_4/6.jpg",
    "https://img-proxy.imgfo.com/?referer=https://manganelo.com&url=https://s7.mkklcdnv6temp.com/mangakakalot/t1/the_beach_stars/vol2_chapter_9_collision_the_best_4/7.jpg",
    "https://img-proxy.imgfo.com/?referer=https://manganelo.com&url=https://s7.mkklcdnv6temp.com/mangakakalot/t1/the_beach_stars/vol2_chapter_9_collision_the_best_4/8.jpg",
    "https://img-proxy.imgfo.com/?referer=https://manganelo.com&url=https://s7.mkklcdnv6temp.com/mangakakalot/t1/the_beach_stars/vol2_chapter_9_collision_the_best_4/9.jpg",
    "https://img-proxy.imgfo.com/?referer=https://manganelo.com&url=https://s7.mkklcdnv6temp.com/mangakakalot/t1/the_beach_stars/vol2_chapter_9_collision_the_best_4/10.jpg",
    "https://img-proxy.imgfo.com/?referer=https://manganelo.com&url=https://s7.mkklcdnv6temp.com/mangakakalot/t1/the_beach_stars/vol2_chapter_9_collision_the_best_4/11.jpg",
    "https://img-proxy.imgfo.com/?referer=https://manganelo.com&url=https://s7.mkklcdnv6temp.com/mangakakalot/t1/the_beach_stars/vol2_chapter_9_collision_the_best_4/12.jpg",
    "https://img-proxy.imgfo.com/?referer=https://manganelo.com&url=https://s7.mkklcdnv6temp.com/mangakakalot/t1/the_beach_stars/vol2_chapter_9_collision_the_best_4/13.jpg",
    "https://img-proxy.imgfo.com/?referer=https://manganelo.com&url=https://s7.mkklcdnv6temp.com/mangakakalot/t1/the_beach_stars/vol2_chapter_9_collision_the_best_4/14.jpg",
    "https://img-proxy.imgfo.com/?referer=https://manganelo.com&url=https://s7.mkklcdnv6temp.com/mangakakalot/t1/the_beach_stars/vol2_chapter_9_collision_the_best_4/15.jpg",
    "https://img-proxy.imgfo.com/?referer=https://manganelo.com&url=https://s7.mkklcdnv6temp.com/mangakakalot/t1/the_beach_stars/vol2_chapter_9_collision_the_best_4/16.jpg",
    "https://img-proxy.imgfo.com/?referer=https://manganelo.com&url=https://s7.mkklcdnv6temp.com/mangakakalot/t1/the_beach_stars/vol2_chapter_9_collision_the_best_4/17.jpg",
    "https://img-proxy.imgfo.com/?referer=https://manganelo.com&url=https://s7.mkklcdnv6temp.com/mangakakalot/t1/the_beach_stars/vol2_chapter_9_collision_the_best_4/18.jpg",
    "https://img-proxy.imgfo.com/?referer=https://manganelo.com&url=https://s7.mkklcdnv6temp.com/mangakakalot/t1/the_beach_stars/vol2_chapter_9_collision_the_best_4/19.jpg",
    "https://img-proxy.imgfo.com/?referer=https://manganelo.com&url=https://s7.mkklcdnv6temp.com/mangakakalot/t1/the_beach_stars/vol2_chapter_9_collision_the_best_4/20.jpg",
    "https://img-proxy.imgfo.com/?referer=https://manganelo.com&url=https://s7.mkklcdnv6temp.com/mangakakalot/t1/the_beach_stars/vol2_chapter_9_collision_the_best_4/21.jpg",
    "https://img-proxy.imgfo.com/?referer=https://manganelo.com&url=https://s7.mkklcdnv6temp.com/mangakakalot/t1/the_beach_stars/vol2_chapter_9_collision_the_best_4/22.jpg",
    "https://img-proxy.imgfo.com/?referer=https://manganelo.com&url=https://s7.mkklcdnv6temp.com/mangakakalot/t1/the_beach_stars/vol2_chapter_9_collision_the_best_4/23.jpg",
    "https://img-proxy.imgfo.com/?referer=https://manganelo.com&url=https://s7.mkklcdnv6temp.com/mangakakalot/t1/the_beach_stars/vol2_chapter_9_collision_the_best_4/24.jpg",
    "https://img-proxy.imgfo.com/?referer=https://manganelo.com&url=https://s7.mkklcdnv6temp.com/mangakakalot/t1/the_beach_stars/vol2_chapter_9_collision_the_best_4/25.jpg",
    "https://img-proxy.imgfo.com/?referer=https://manganelo.com&url=https://s7.mkklcdnv6temp.com/mangakakalot/t1/the_beach_stars/vol2_chapter_9_collision_the_best_4/26.jpg",
    "https://img-proxy.imgfo.com/?referer=https://manganelo.com&url=https://s7.mkklcdnv6temp.com/mangakakalot/t1/the_beach_stars/vol2_chapter_9_collision_the_best_4/27.jpg",
    "https://img-proxy.imgfo.com/?referer=https://manganelo.com&url=https://s7.mkklcdnv6temp.com/mangakakalot/t1/the_beach_stars/vol2_chapter_9_collision_the_best_4/28.jpg",
    "https://img-proxy.imgfo.com/?referer=https://manganelo.com&url=https://s7.mkklcdnv6temp.com/mangakakalot/t1/the_beach_stars/vol2_chapter_9_collision_the_best_4/29.jpg",
    "https://img-proxy.imgfo.com/?referer=https://manganelo.com&url=https://s7.mkklcdnv6temp.com/mangakakalot/t1/the_beach_stars/vol2_chapter_9_collision_the_best_4/30.jpg",
    "https://img-proxy.imgfo.com/?referer=https://manganelo.com&url=https://s7.mkklcdnv6temp.com/mangakakalot/t1/the_beach_stars/vol2_chapter_9_collision_the_best_4/31.jpg",
    "https://img-proxy.imgfo.com/?referer=https://manganelo.com&url=https://s7.mkklcdnv6temp.com/mangakakalot/t1/the_beach_stars/vol2_chapter_9_collision_the_best_4/32.jpg",
    "https://img-proxy.imgfo.com/?referer=https://manganelo.com&url=https://s7.mkklcdnv6temp.com/mangakakalot/t1/the_beach_stars/vol2_chapter_9_collision_the_best_4/33.jpg"
  ]
}