{
  "cover": "https://avt.mkklcdnv6.com/50/j/3-1583469660.jpg",
  "title": "Dragon Knights",
  "original": "ドラゴン騎士団 ; Doragon Kishidan ; Dragon Kishidan ; Kỵ Sĩ Rồng Thiên",
  "genre": "Action, Adventure, Comedy, Drama, Fantasy, Romance, Shoujo, Supernatural, Manga",
  "author": "Ohkami Mineko",
  "status": "Completed",
  "backlink": "https://manganu.com/collections/ohkami-mineko/dragon-knights/",
  "description": "Three Dragon Knights go on a quest to retreive Demon lord Nadil's head and return it back to their kingdom in Dragoon where the Dragon lord awaits their return. Each dragon knight has their own battle dragon in which they fight demons with. The dragon knight of fire: Rath, a boy with an obsession with killing demons and a mysterious past which has yet to be revealed; the dragon knight of earth: Thatz, a carefree fellow who hungers for food and treasure; the water dragon knight: Rune, a sensitive person to be around and never hesitates to put his fellow knights in their place. These three very different individuals have to work together as \"dragon knights\".\nAs the story progresses the knights face various challenges that they've never even dreamed of! Preventing the demon lord's revival, saving their kingdom from hordes of demons, saving the faerie race from extinction, collecting three sacred treasures (as well as love) are just some of those making up their list!\nAn awesome must-read series that will keep you entertained all the way!",
  "language": "English",
  "images": [
    "https://img-proxy.imgfo.com/?referer=https://manganelo.com&url=https://s6.mkklcdnv6temp.com/mangakakalot/d2/dragon_knights/vol3_chapter_16_home_sweet_home_3/1.jpg",
    "https://img-proxy.imgfo.com/?referer=https://manganelo.com&url=https://s6.mkklcdnv6temp.com/mangakakalot/d2/dragon_knights/vol3_chapter_16_home_sweet_home_3/2.jpg",
    "https://img-proxy.imgfo.com/?referer=https://manganelo.com&url=https://s6.mkklcdnv6temp.com/mangakakalot/d2/dragon_knights/vol3_chapter_16_home_sweet_home_3/3.jpg",
    "https://img-proxy.imgfo.com/?referer=https://manganelo.com&url=https://s6.mkklcdnv6temp.com/mangakakalot/d2/dragon_knights/vol3_chapter_16_home_sweet_home_3/4.jpg",
    "https://img-proxy.imgfo.com/?referer=https://manganelo.com&url=https://s6.mkklcdnv6temp.com/mangakakalot/d2/dragon_knights/vol3_chapter_16_home_sweet_home_3/5.jpg",
    "https://img-proxy.imgfo.com/?referer=https://manganelo.com&url=https://s6.mkklcdnv6temp.com/mangakakalot/d2/dragon_knights/vol3_chapter_16_home_sweet_home_3/6.jpg",
    "https://img-proxy.imgfo.com/?referer=https://manganelo.com&url=https://s6.mkklcdnv6temp.com/mangakakalot/d2/dragon_knights/vol3_chapter_16_home_sweet_home_3/7.jpg",
    "https://img-proxy.imgfo.com/?referer=https://manganelo.com&url=https://s6.mkklcdnv6temp.com/mangakakalot/d2/dragon_knights/vol3_chapter_16_home_sweet_home_3/8.jpg",
    "https://img-proxy.imgfo.com/?referer=https://manganelo.com&url=https://s6.mkklcdnv6temp.com/mangakakalot/d2/dragon_knights/vol3_chapter_16_home_sweet_home_3/9.jpg",
    "https://img-proxy.imgfo.com/?referer=https://manganelo.com&url=https://s6.mkklcdnv6temp.com/mangakakalot/d2/dragon_knights/vol3_chapter_16_home_sweet_home_3/10.jpg",
    "https://img-proxy.imgfo.com/?referer=https://manganelo.com&url=https://s6.mkklcdnv6temp.com/mangakakalot/d2/dragon_knights/vol3_chapter_16_home_sweet_home_3/11.jpg",
    "https://img-proxy.imgfo.com/?referer=https://manganelo.com&url=https://s6.mkklcdnv6temp.com/mangakakalot/d2/dragon_knights/vol3_chapter_16_home_sweet_home_3/12.jpg"
  ]
}