{
  "cover": "https://avt.mkklcdnv6.com/18/w/4-1583470444.jpg",
  "title": "Koko Wa Greenwood",
  "original": "ここはグリーン・ウッド ; 梦回绿园 ; Here is Greenwood",
  "genre": "Action, Adult, Comedy, Cooking, Gender bender, Romance, School life, Shoujo, Slice of life, Manga",
  "author": "Nasu Yukie",
  "status": "Completed",
  "backlink": "https://manganu.com/collections/nasu-yukie/koko-wa-greenwood/",
  "description": "From Viz: It seems like 15-year-old Kazuya Hasukawa&#39;s life can&#39;t get much worse. Not only did his older brother marry Kazuya&#39;s first love, he brought his bride home to live with the family! Leaving his own home, Kazuya enters an exclusive all-male boarding school, Ryokuto Academy. Unfortunately, a prestigious education is little compensation for getting stuck with the cross-dressing roommate from Hell... Note: There are more volumes in the original Japanese publication compared to the Viz release because Viz has excluded unrelated one-shots that do not involve the Greenwood characters.",
  "language": "English",
  "images": [
    "https://img-proxy.imgfo.com/?referer=https://manganelo.com&url=https://s7.mkklcdnv6temp.com/mangakakalot/k2/koko_wa_greenwood/vol9_chapter_44_love_prevails_part_one/1.jpg",
    "https://img-proxy.imgfo.com/?referer=https://manganelo.com&url=https://s7.mkklcdnv6temp.com/mangakakalot/k2/koko_wa_greenwood/vol9_chapter_44_love_prevails_part_one/2.jpg",
    "https://img-proxy.imgfo.com/?referer=https://manganelo.com&url=https://s7.mkklcdnv6temp.com/mangakakalot/k2/koko_wa_greenwood/vol9_chapter_44_love_prevails_part_one/3.jpg",
    "https://img-proxy.imgfo.com/?referer=https://manganelo.com&url=https://s7.mkklcdnv6temp.com/mangakakalot/k2/koko_wa_greenwood/vol9_chapter_44_love_prevails_part_one/4.jpg",
    "https://img-proxy.imgfo.com/?referer=https://manganelo.com&url=https://s7.mkklcdnv6temp.com/mangakakalot/k2/koko_wa_greenwood/vol9_chapter_44_love_prevails_part_one/5.jpg",
    "https://img-proxy.imgfo.com/?referer=https://manganelo.com&url=https://s7.mkklcdnv6temp.com/mangakakalot/k2/koko_wa_greenwood/vol9_chapter_44_love_prevails_part_one/6.jpg",
    "https://img-proxy.imgfo.com/?referer=https://manganelo.com&url=https://s7.mkklcdnv6temp.com/mangakakalot/k2/koko_wa_greenwood/vol9_chapter_44_love_prevails_part_one/7.jpg",
    "https://img-proxy.imgfo.com/?referer=https://manganelo.com&url=https://s7.mkklcdnv6temp.com/mangakakalot/k2/koko_wa_greenwood/vol9_chapter_44_love_prevails_part_one/8.jpg",
    "https://img-proxy.imgfo.com/?referer=https://manganelo.com&url=https://s7.mkklcdnv6temp.com/mangakakalot/k2/koko_wa_greenwood/vol9_chapter_44_love_prevails_part_one/9.jpg",
    "https://img-proxy.imgfo.com/?referer=https://manganelo.com&url=https://s7.mkklcdnv6temp.com/mangakakalot/k2/koko_wa_greenwood/vol9_chapter_44_love_prevails_part_one/10.jpg",
    "https://img-proxy.imgfo.com/?referer=https://manganelo.com&url=https://s7.mkklcdnv6temp.com/mangakakalot/k2/koko_wa_greenwood/vol9_chapter_44_love_prevails_part_one/11.jpg",
    "https://img-proxy.imgfo.com/?referer=https://manganelo.com&url=https://s7.mkklcdnv6temp.com/mangakakalot/k2/koko_wa_greenwood/vol9_chapter_44_love_prevails_part_one/12.jpg",
    "https://img-proxy.imgfo.com/?referer=https://manganelo.com&url=https://s7.mkklcdnv6temp.com/mangakakalot/k2/koko_wa_greenwood/vol9_chapter_44_love_prevails_part_one/13.jpg",
    "https://img-proxy.imgfo.com/?referer=https://manganelo.com&url=https://s7.mkklcdnv6temp.com/mangakakalot/k2/koko_wa_greenwood/vol9_chapter_44_love_prevails_part_one/14.jpg",
    "https://img-proxy.imgfo.com/?referer=https://manganelo.com&url=https://s7.mkklcdnv6temp.com/mangakakalot/k2/koko_wa_greenwood/vol9_chapter_44_love_prevails_part_one/15.jpg",
    "https://img-proxy.imgfo.com/?referer=https://manganelo.com&url=https://s7.mkklcdnv6temp.com/mangakakalot/k2/koko_wa_greenwood/vol9_chapter_44_love_prevails_part_one/16.jpg",
    "https://img-proxy.imgfo.com/?referer=https://manganelo.com&url=https://s7.mkklcdnv6temp.com/mangakakalot/k2/koko_wa_greenwood/vol9_chapter_44_love_prevails_part_one/17.jpg",
    "https://img-proxy.imgfo.com/?referer=https://manganelo.com&url=https://s7.mkklcdnv6temp.com/mangakakalot/k2/koko_wa_greenwood/vol9_chapter_44_love_prevails_part_one/18.jpg",
    "https://img-proxy.imgfo.com/?referer=https://manganelo.com&url=https://s7.mkklcdnv6temp.com/mangakakalot/k2/koko_wa_greenwood/vol9_chapter_44_love_prevails_part_one/19.jpg",
    "https://img-proxy.imgfo.com/?referer=https://manganelo.com&url=https://s7.mkklcdnv6temp.com/mangakakalot/k2/koko_wa_greenwood/vol9_chapter_44_love_prevails_part_one/20.jpg",
    "https://img-proxy.imgfo.com/?referer=https://manganelo.com&url=https://s7.mkklcdnv6temp.com/mangakakalot/k2/koko_wa_greenwood/vol9_chapter_44_love_prevails_part_one/21.jpg",
    "https://img-proxy.imgfo.com/?referer=https://manganelo.com&url=https://s7.mkklcdnv6temp.com/mangakakalot/k2/koko_wa_greenwood/vol9_chapter_44_love_prevails_part_one/22.jpg",
    "https://img-proxy.imgfo.com/?referer=https://manganelo.com&url=https://s7.mkklcdnv6temp.com/mangakakalot/k2/koko_wa_greenwood/vol9_chapter_44_love_prevails_part_one/23.jpg",
    "https://img-proxy.imgfo.com/?referer=https://manganelo.com&url=https://s7.mkklcdnv6temp.com/mangakakalot/k2/koko_wa_greenwood/vol9_chapter_44_love_prevails_part_one/24.jpg",
    "https://img-proxy.imgfo.com/?referer=https://manganelo.com&url=https://s7.mkklcdnv6temp.com/mangakakalot/k2/koko_wa_greenwood/vol9_chapter_44_love_prevails_part_one/25.jpg",
    "https://img-proxy.imgfo.com/?referer=https://manganelo.com&url=https://s7.mkklcdnv6temp.com/mangakakalot/k2/koko_wa_greenwood/vol9_chapter_44_love_prevails_part_one/26.jpg",
    "https://img-proxy.imgfo.com/?referer=https://manganelo.com&url=https://s7.mkklcdnv6temp.com/mangakakalot/k2/koko_wa_greenwood/vol9_chapter_44_love_prevails_part_one/27.jpg",
    "https://img-proxy.imgfo.com/?referer=https://manganelo.com&url=https://s7.mkklcdnv6temp.com/mangakakalot/k2/koko_wa_greenwood/vol9_chapter_44_love_prevails_part_one/28.jpg",
    "https://img-proxy.imgfo.com/?referer=https://manganelo.com&url=https://s7.mkklcdnv6temp.com/mangakakalot/k2/koko_wa_greenwood/vol9_chapter_44_love_prevails_part_one/29.jpg",
    "https://img-proxy.imgfo.com/?referer=https://manganelo.com&url=https://s7.mkklcdnv6temp.com/mangakakalot/k2/koko_wa_greenwood/vol9_chapter_44_love_prevails_part_one/30.jpg",
    "https://img-proxy.imgfo.com/?referer=https://manganelo.com&url=https://s7.mkklcdnv6temp.com/mangakakalot/k2/koko_wa_greenwood/vol9_chapter_44_love_prevails_part_one/31.jpg",
    "https://img-proxy.imgfo.com/?referer=https://manganelo.com&url=https://s7.mkklcdnv6temp.com/mangakakalot/k2/koko_wa_greenwood/vol9_chapter_44_love_prevails_part_one/32.jpg"
  ]
}