{
  "cover": "https://avt.mkklcdnv6.com/6/z/5-1583472138.jpg",
  "title": "Rurou No Tabi",
  "original": "るろうのたび ; 流狼の旅 ; 狼人劍客 ; Wolfman Kenkaku",
  "genre": "Action, Adventure, Comedy, Fantasy, Shounen, Manga",
  "author": "Kitsutsuki Shinki",
  "status": "Completed",
  "backlink": "https://manganu.com/collections/kitsutsuki-shinki/rurou-no-tabi/",
  "description": "Lakate is a man with the face of a wolf due to a curse. While traveling to find a cure for his state and the reincarnation of a woman who helped him long ago, he meets a lost young girl, Kukaru. This is where his real travel begins...",
  "language": "English",
  "images": [
    "https://img-proxy.imgfo.com/?referer=https://manganelo.com&url=https://s3.mkklcdnv6temp.com/mangakakalot/r2/rurou_no_tabi/vol3_chapter_13/1.jpg",
    "https://img-proxy.imgfo.com/?referer=https://manganelo.com&url=https://s3.mkklcdnv6temp.com/mangakakalot/r2/rurou_no_tabi/vol3_chapter_13/2.jpg",
    "https://img-proxy.imgfo.com/?referer=https://manganelo.com&url=https://s3.mkklcdnv6temp.com/mangakakalot/r2/rurou_no_tabi/vol3_chapter_13/3.jpg",
    "https://img-proxy.imgfo.com/?referer=https://manganelo.com&url=https://s3.mkklcdnv6temp.com/mangakakalot/r2/rurou_no_tabi/vol3_chapter_13/4.jpg",
    "https://img-proxy.imgfo.com/?referer=https://manganelo.com&url=https://s3.mkklcdnv6temp.com/mangakakalot/r2/rurou_no_tabi/vol3_chapter_13/5.jpg",
    "https://img-proxy.imgfo.com/?referer=https://manganelo.com&url=https://s3.mkklcdnv6temp.com/mangakakalot/r2/rurou_no_tabi/vol3_chapter_13/6.jpg",
    "https://img-proxy.imgfo.com/?referer=https://manganelo.com&url=https://s3.mkklcdnv6temp.com/mangakakalot/r2/rurou_no_tabi/vol3_chapter_13/7.jpg",
    "https://img-proxy.imgfo.com/?referer=https://manganelo.com&url=https://s3.mkklcdnv6temp.com/mangakakalot/r2/rurou_no_tabi/vol3_chapter_13/8.jpg",
    "https://img-proxy.imgfo.com/?referer=https://manganelo.com&url=https://s3.mkklcdnv6temp.com/mangakakalot/r2/rurou_no_tabi/vol3_chapter_13/9.jpg",
    "https://img-proxy.imgfo.com/?referer=https://manganelo.com&url=https://s3.mkklcdnv6temp.com/mangakakalot/r2/rurou_no_tabi/vol3_chapter_13/10.jpg",
    "https://img-proxy.imgfo.com/?referer=https://manganelo.com&url=https://s3.mkklcdnv6temp.com/mangakakalot/r2/rurou_no_tabi/vol3_chapter_13/11.jpg"
  ]
}