{
  "cover": "https://avt.mkklcdnv6.com/18/q/5-1583472574.jpg",
  "title": "Going To You",
  "original": "Đến Với Anh ; 너에게 간다 ; Coming to You ; No-ege Kanda",
  "genre": "Comedy, Drama, Romance, Shoujo, Manga",
  "author": "Han Yu-Rang",
  "status": "Completed",
  "backlink": "https://manganu.com/collections/han-yu-rang/going-to-you/",
  "description": "Kang Eun Woo is the infamous \"princess\" that Kang Joon Hyuk adores. Although many think she must be very beautiful because Joon Hyuk is also a hottie, she... just eats and sleeps (thats about it). Why does Joon Hyuk care for her so much? Well, I don't know, but touch her and prepare to be annihilated!",
  "language": "English",
  "images": [
    "https://img-proxy.imgfo.com/?referer=https://manganelo.com&url=https://s41.mkklcdnv6temp.com/mangakakalot/g2/going_to_you/vol7_chapter_33/1.jpg",
    "https://img-proxy.imgfo.com/?referer=https://manganelo.com&url=https://s41.mkklcdnv6temp.com/mangakakalot/g2/going_to_you/vol7_chapter_33/2.jpg",
    "https://img-proxy.imgfo.com/?referer=https://manganelo.com&url=https://s41.mkklcdnv6temp.com/mangakakalot/g2/going_to_you/vol7_chapter_33/3.jpg",
    "https://img-proxy.imgfo.com/?referer=https://manganelo.com&url=https://s41.mkklcdnv6temp.com/mangakakalot/g2/going_to_you/vol7_chapter_33/4.jpg",
    "https://img-proxy.imgfo.com/?referer=https://manganelo.com&url=https://s41.mkklcdnv6temp.com/mangakakalot/g2/going_to_you/vol7_chapter_33/5.jpg",
    "https://img-proxy.imgfo.com/?referer=https://manganelo.com&url=https://s41.mkklcdnv6temp.com/mangakakalot/g2/going_to_you/vol7_chapter_33/6.jpg",
    "https://img-proxy.imgfo.com/?referer=https://manganelo.com&url=https://s41.mkklcdnv6temp.com/mangakakalot/g2/going_to_you/vol7_chapter_33/7.jpg",
    "https://img-proxy.imgfo.com/?referer=https://manganelo.com&url=https://s41.mkklcdnv6temp.com/mangakakalot/g2/going_to_you/vol7_chapter_33/8.jpg",
    "https://img-proxy.imgfo.com/?referer=https://manganelo.com&url=https://s41.mkklcdnv6temp.com/mangakakalot/g2/going_to_you/vol7_chapter_33/9.jpg",
    "https://img-proxy.imgfo.com/?referer=https://manganelo.com&url=https://s41.mkklcdnv6temp.com/mangakakalot/g2/going_to_you/vol7_chapter_33/10.jpg",
    "https://img-proxy.imgfo.com/?referer=https://manganelo.com&url=https://s41.mkklcdnv6temp.com/mangakakalot/g2/going_to_you/vol7_chapter_33/11.jpg",
    "https://img-proxy.imgfo.com/?referer=https://manganelo.com&url=https://s41.mkklcdnv6temp.com/mangakakalot/g2/going_to_you/vol7_chapter_33/12.jpg",
    "https://img-proxy.imgfo.com/?referer=https://manganelo.com&url=https://s41.mkklcdnv6temp.com/mangakakalot/g2/going_to_you/vol7_chapter_33/13.jpg",
    "https://img-proxy.imgfo.com/?referer=https://manganelo.com&url=https://s41.mkklcdnv6temp.com/mangakakalot/g2/going_to_you/vol7_chapter_33/14.jpg",
    "https://img-proxy.imgfo.com/?referer=https://manganelo.com&url=https://s41.mkklcdnv6temp.com/mangakakalot/g2/going_to_you/vol7_chapter_33/15.jpg",
    "https://img-proxy.imgfo.com/?referer=https://manganelo.com&url=https://s41.mkklcdnv6temp.com/mangakakalot/g2/going_to_you/vol7_chapter_33/16.jpg",
    "https://img-proxy.imgfo.com/?referer=https://manganelo.com&url=https://s41.mkklcdnv6temp.com/mangakakalot/g2/going_to_you/vol7_chapter_33/17.jpg",
    "https://img-proxy.imgfo.com/?referer=https://manganelo.com&url=https://s41.mkklcdnv6temp.com/mangakakalot/g2/going_to_you/vol7_chapter_33/18.jpg",
    "https://img-proxy.imgfo.com/?referer=https://manganelo.com&url=https://s41.mkklcdnv6temp.com/mangakakalot/g2/going_to_you/vol7_chapter_33/19.jpg",
    "https://img-proxy.imgfo.com/?referer=https://manganelo.com&url=https://s41.mkklcdnv6temp.com/mangakakalot/g2/going_to_you/vol7_chapter_33/20.jpg",
    "https://img-proxy.imgfo.com/?referer=https://manganelo.com&url=https://s41.mkklcdnv6temp.com/mangakakalot/g2/going_to_you/vol7_chapter_33/21.jpg",
    "https://img-proxy.imgfo.com/?referer=https://manganelo.com&url=https://s41.mkklcdnv6temp.com/mangakakalot/g2/going_to_you/vol7_chapter_33/22.jpg",
    "https://img-proxy.imgfo.com/?referer=https://manganelo.com&url=https://s41.mkklcdnv6temp.com/mangakakalot/g2/going_to_you/vol7_chapter_33/23.jpg",
    "https://img-proxy.imgfo.com/?referer=https://manganelo.com&url=https://s41.mkklcdnv6temp.com/mangakakalot/g2/going_to_you/vol7_chapter_33/24.jpg"
  ]
}