{
  "cover": "https://avt.mkklcdnv6.com/13/r/4-1583470228.jpg",
  "title": "Ai-Chan",
  "original": "愛ーちゃん",
  "genre": "Comedy, Oneshot, Shoujo, Manga",
  "author": "Aida Kurea",
  "status": "Completed",
  "backlink": "https://manganu.com/collections/aida-kurea/ai-chan/",
  "description": "From MangaArt:\nA Gag manga that could be a bit strange... for sensitive readers.",
  "language": "English",
  "images": [
    "https://img-proxy.imgfo.com/?referer=https://manganelo.com&url=https://s5.mkklcdnv6temp.com/mangakakalot/a1/aichan/vol01_chapter_001/1.jpg",
    "https://img-proxy.imgfo.com/?referer=https://manganelo.com&url=https://s5.mkklcdnv6temp.com/mangakakalot/a1/aichan/vol01_chapter_001/2.jpg",
    "https://img-proxy.imgfo.com/?referer=https://manganelo.com&url=https://s5.mkklcdnv6temp.com/mangakakalot/a1/aichan/vol01_chapter_001/3.jpg"
  ]
}