{
  "cover": "https://avt.mkklcdnv6.com/45/r/5-1583473677.jpg",
  "title": "Haunted House",
  "genre": "Comedy, Drama, Horror, Josei, Manga",
  "author": "Mihara Mitsukazu",
  "status": "Completed",
  "backlink": "https://manganu.com/collections/mihara-mitsukazu/haunted-house/",
  "description": "Meet Sabato Obiga, a hapless young teen trying to find himself in the world, which is made all but impossible by his frighteningly flamboyant family. Scaring away every girl he brings home, Sabato's family seems to revel in his misery--but could there be more to their torment than meets the eye? Rest assured, you'll keep guessing--and giggling--every step of the way!\n[taken verbatim from the blurb of the English novel]",
  "language": "English",
  "images": [
    "https://img-proxy.imgfo.com/?referer=https://manganelo.com&url=https://s3.mkklcdnv6temp.com/mangakakalot/h1/haunted_house/vol1_chapter_3/1.jpg",
    "https://img-proxy.imgfo.com/?referer=https://manganelo.com&url=https://s3.mkklcdnv6temp.com/mangakakalot/h1/haunted_house/vol1_chapter_3/2.jpg",
    "https://img-proxy.imgfo.com/?referer=https://manganelo.com&url=https://s3.mkklcdnv6temp.com/mangakakalot/h1/haunted_house/vol1_chapter_3/3.jpg",
    "https://img-proxy.imgfo.com/?referer=https://manganelo.com&url=https://s3.mkklcdnv6temp.com/mangakakalot/h1/haunted_house/vol1_chapter_3/4.jpg",
    "https://img-proxy.imgfo.com/?referer=https://manganelo.com&url=https://s3.mkklcdnv6temp.com/mangakakalot/h1/haunted_house/vol1_chapter_3/5.jpg",
    "https://img-proxy.imgfo.com/?referer=https://manganelo.com&url=https://s3.mkklcdnv6temp.com/mangakakalot/h1/haunted_house/vol1_chapter_3/6.jpg",
    "https://img-proxy.imgfo.com/?referer=https://manganelo.com&url=https://s3.mkklcdnv6temp.com/mangakakalot/h1/haunted_house/vol1_chapter_3/7.jpg",
    "https://img-proxy.imgfo.com/?referer=https://manganelo.com&url=https://s3.mkklcdnv6temp.com/mangakakalot/h1/haunted_house/vol1_chapter_3/8.jpg",
    "https://img-proxy.imgfo.com/?referer=https://manganelo.com&url=https://s3.mkklcdnv6temp.com/mangakakalot/h1/haunted_house/vol1_chapter_3/9.jpg",
    "https://img-proxy.imgfo.com/?referer=https://manganelo.com&url=https://s3.mkklcdnv6temp.com/mangakakalot/h1/haunted_house/vol1_chapter_3/10.jpg",
    "https://img-proxy.imgfo.com/?referer=https://manganelo.com&url=https://s3.mkklcdnv6temp.com/mangakakalot/h1/haunted_house/vol1_chapter_3/11.jpg",
    "https://img-proxy.imgfo.com/?referer=https://manganelo.com&url=https://s3.mkklcdnv6temp.com/mangakakalot/h1/haunted_house/vol1_chapter_3/12.jpg",
    "https://img-proxy.imgfo.com/?referer=https://manganelo.com&url=https://s3.mkklcdnv6temp.com/mangakakalot/h1/haunted_house/vol1_chapter_3/13.jpg",
    "https://img-proxy.imgfo.com/?referer=https://manganelo.com&url=https://s3.mkklcdnv6temp.com/mangakakalot/h1/haunted_house/vol1_chapter_3/14.jpg",
    "https://img-proxy.imgfo.com/?referer=https://manganelo.com&url=https://s3.mkklcdnv6temp.com/mangakakalot/h1/haunted_house/vol1_chapter_3/15.jpg",
    "https://img-proxy.imgfo.com/?referer=https://manganelo.com&url=https://s3.mkklcdnv6temp.com/mangakakalot/h1/haunted_house/vol1_chapter_3/16.jpg",
    "https://img-proxy.imgfo.com/?referer=https://manganelo.com&url=https://s3.mkklcdnv6temp.com/mangakakalot/h1/haunted_house/vol1_chapter_3/17.jpg",
    "https://img-proxy.imgfo.com/?referer=https://manganelo.com&url=https://s3.mkklcdnv6temp.com/mangakakalot/h1/haunted_house/vol1_chapter_3/18.jpg",
    "https://img-proxy.imgfo.com/?referer=https://manganelo.com&url=https://s3.mkklcdnv6temp.com/mangakakalot/h1/haunted_house/vol1_chapter_3/19.jpg",
    "https://img-proxy.imgfo.com/?referer=https://manganelo.com&url=https://s3.mkklcdnv6temp.com/mangakakalot/h1/haunted_house/vol1_chapter_3/20.jpg",
    "https://img-proxy.imgfo.com/?referer=https://manganelo.com&url=https://s3.mkklcdnv6temp.com/mangakakalot/h1/haunted_house/vol1_chapter_3/21.jpg",
    "https://img-proxy.imgfo.com/?referer=https://manganelo.com&url=https://s3.mkklcdnv6temp.com/mangakakalot/h1/haunted_house/vol1_chapter_3/22.jpg",
    "https://img-proxy.imgfo.com/?referer=https://manganelo.com&url=https://s3.mkklcdnv6temp.com/mangakakalot/h1/haunted_house/vol1_chapter_3/23.jpg"
  ]
}