{
  "cover": "https://avt.mkklcdnv6.com/34/z/13-1583488994.jpg",
  "title": "Grey(Panoskapa)",
  "genre": "Action, Adventure, Comedy, Drama, Fantasy, Romance, Supernatural, Manga",
  "author": "Panos Kapa",
  "status": "Completed",
  "backlink": "https://manganu.com/collections/panos-kapa/greypanoskapa/",
  "description": "GREY(PanosKapa) summary is updating. Come visit our website sometime to read the latest chapter of GREY(PanosKapa). If you have any question about this manga, Please don't hesitate to contact us or translate team. Hope you enjoy it.",
  "language": "English",
  "images": [
    "https://img-proxy.imgfo.com/?referer=https://manganelo.com&url=https://s6.mkklcdnv6temp.com/mangakakalot/g2/greypanoskapa/vol1_chapter_72_the_dice_of_misfortune/1.jpg"
  ]
}