{
  "cover": "https://avt.mkklcdnv6.com/17/g/4-1583470372.jpg",
  "title": "Candy Boy",
  "original": "キャンディボーイ",
  "genre": "Comedy, Romance, Seinen, Shoujo ai, Manga",
  "author": "Touge Hiro",
  "status": "Completed",
  "backlink": "https://manganu.com/collections/touge-hiro/candy-boy/",
  "description": "Based on the popular yuri OVA series, which is about the relationship between two fraternal twins and their daily life.\nYukino and Kanade continue their schooling, and Kanade takes a late night art class in preparation for her future.\nAs before, she usually ends up fooling around and drawing her sister in strange poses before finally getting her work done.\nKanade begins to question the feelings she has for Yukino... does she feel a pure sisterly love for her, or are her feelings more perverted?",
  "language": "English",
  "images": [
    "https://img-proxy.imgfo.com/?referer=https://manganelo.com&url=https://s7.mkklcdnv6temp.com/mangakakalot/c1/candy_boy/vol02_chapter_5/1.jpg",
    "https://img-proxy.imgfo.com/?referer=https://manganelo.com&url=https://s7.mkklcdnv6temp.com/mangakakalot/c1/candy_boy/vol02_chapter_5/2.jpg",
    "https://img-proxy.imgfo.com/?referer=https://manganelo.com&url=https://s7.mkklcdnv6temp.com/mangakakalot/c1/candy_boy/vol02_chapter_5/3.jpg",
    "https://img-proxy.imgfo.com/?referer=https://manganelo.com&url=https://s7.mkklcdnv6temp.com/mangakakalot/c1/candy_boy/vol02_chapter_5/4.jpg",
    "https://img-proxy.imgfo.com/?referer=https://manganelo.com&url=https://s7.mkklcdnv6temp.com/mangakakalot/c1/candy_boy/vol02_chapter_5/5.jpg",
    "https://img-proxy.imgfo.com/?referer=https://manganelo.com&url=https://s7.mkklcdnv6temp.com/mangakakalot/c1/candy_boy/vol02_chapter_5/6.jpg",
    "https://img-proxy.imgfo.com/?referer=https://manganelo.com&url=https://s7.mkklcdnv6temp.com/mangakakalot/c1/candy_boy/vol02_chapter_5/7.jpg",
    "https://img-proxy.imgfo.com/?referer=https://manganelo.com&url=https://s7.mkklcdnv6temp.com/mangakakalot/c1/candy_boy/vol02_chapter_5/8.jpg",
    "https://img-proxy.imgfo.com/?referer=https://manganelo.com&url=https://s7.mkklcdnv6temp.com/mangakakalot/c1/candy_boy/vol02_chapter_5/9.jpg",
    "https://img-proxy.imgfo.com/?referer=https://manganelo.com&url=https://s7.mkklcdnv6temp.com/mangakakalot/c1/candy_boy/vol02_chapter_5/10.jpg",
    "https://img-proxy.imgfo.com/?referer=https://manganelo.com&url=https://s7.mkklcdnv6temp.com/mangakakalot/c1/candy_boy/vol02_chapter_5/11.jpg",
    "https://img-proxy.imgfo.com/?referer=https://manganelo.com&url=https://s7.mkklcdnv6temp.com/mangakakalot/c1/candy_boy/vol02_chapter_5/12.jpg",
    "https://img-proxy.imgfo.com/?referer=https://manganelo.com&url=https://s7.mkklcdnv6temp.com/mangakakalot/c1/candy_boy/vol02_chapter_5/13.jpg",
    "https://img-proxy.imgfo.com/?referer=https://manganelo.com&url=https://s7.mkklcdnv6temp.com/mangakakalot/c1/candy_boy/vol02_chapter_5/14.jpg",
    "https://img-proxy.imgfo.com/?referer=https://manganelo.com&url=https://s7.mkklcdnv6temp.com/mangakakalot/c1/candy_boy/vol02_chapter_5/15.jpg",
    "https://img-proxy.imgfo.com/?referer=https://manganelo.com&url=https://s7.mkklcdnv6temp.com/mangakakalot/c1/candy_boy/vol02_chapter_5/16.jpg",
    "https://img-proxy.imgfo.com/?referer=https://manganelo.com&url=https://s7.mkklcdnv6temp.com/mangakakalot/c1/candy_boy/vol02_chapter_5/17.jpg"
  ]
}