{
  "cover": "https://avt.mkklcdnv6.com/50/t/9-1583482201.jpg",
  "title": "Hanashite Nante Agenai Yo",
  "original": "はなしてなんてあげないよ ; 甜蜜男朋友 ; Hanashite Nante Age Naiyo ; Hanashite Nante Ageinayo ; I Won't Let You Go ; Ijiwaru na Kuchibiru (SHIGANO Iori) ; Nani-sama?! Ore-sama",
  "genre": "Romance, School life, Shoujo, Smut, Manga",
  "author": "Shigano Iori",
  "status": "Completed",
  "backlink": "https://manganu.com/collections/shigano-iori/hanashite-nante-agenai-yo/",
  "description": "Kyouka, a 16 year old, will be a winner today, the first day of the new school she transferred to! She will definitely get a great boyfriend and say her goodbyes to those lonely days!! Kyouka has two brothers who love her a lot. Every guy who comes close to Kyouka will be kicked out by them, thus she has no boyfriend. But she finally found an ideal prince… or that’s what she thought. This guy, Maki, is actually a perverted prince!?\n* Also includes two short stories in volume 2:\n• Nanisama?! Oresama\nSatomi loves Yuuya a little too much and is totally wrapped around his little finger. But, if this continues, instead of becoming his girlfriend, she'll forever remain his gofer. Will Satomi do something to find out exactly where she stands with Yuuya?\n• Ijiwaru wa Kuchibiru\nDuring Shiori's fifteenth spring, she fell in love with the idol Shuu Kitamura. She was even lucky enough to get to meet him in person, but she realizes he's nothing but a fraud! However, due to certain circumstances, Shiori becomes Shuu's personal assistant!?",
  "language": "English",
  "images": [
    "https://img-proxy.imgfo.com/?referer=https://manganelo.com&url=https://s6.mkklcdnv6temp.com/mangakakalot/h1/hanashite_nante_agenai_yo/vol1_chapter_1/1.jpg",
    "https://img-proxy.imgfo.com/?referer=https://manganelo.com&url=https://s6.mkklcdnv6temp.com/mangakakalot/h1/hanashite_nante_agenai_yo/vol1_chapter_1/2.jpg",
    "https://img-proxy.imgfo.com/?referer=https://manganelo.com&url=https://s6.mkklcdnv6temp.com/mangakakalot/h1/hanashite_nante_agenai_yo/vol1_chapter_1/3.jpg",
    "https://img-proxy.imgfo.com/?referer=https://manganelo.com&url=https://s6.mkklcdnv6temp.com/mangakakalot/h1/hanashite_nante_agenai_yo/vol1_chapter_1/4.jpg",
    "https://img-proxy.imgfo.com/?referer=https://manganelo.com&url=https://s6.mkklcdnv6temp.com/mangakakalot/h1/hanashite_nante_agenai_yo/vol1_chapter_1/5.jpg",
    "https://img-proxy.imgfo.com/?referer=https://manganelo.com&url=https://s6.mkklcdnv6temp.com/mangakakalot/h1/hanashite_nante_agenai_yo/vol1_chapter_1/6.jpg",
    "https://img-proxy.imgfo.com/?referer=https://manganelo.com&url=https://s6.mkklcdnv6temp.com/mangakakalot/h1/hanashite_nante_agenai_yo/vol1_chapter_1/7.jpg",
    "https://img-proxy.imgfo.com/?referer=https://manganelo.com&url=https://s6.mkklcdnv6temp.com/mangakakalot/h1/hanashite_nante_agenai_yo/vol1_chapter_1/8.jpg",
    "https://img-proxy.imgfo.com/?referer=https://manganelo.com&url=https://s6.mkklcdnv6temp.com/mangakakalot/h1/hanashite_nante_agenai_yo/vol1_chapter_1/9.jpg",
    "https://img-proxy.imgfo.com/?referer=https://manganelo.com&url=https://s6.mkklcdnv6temp.com/mangakakalot/h1/hanashite_nante_agenai_yo/vol1_chapter_1/10.jpg",
    "https://img-proxy.imgfo.com/?referer=https://manganelo.com&url=https://s6.mkklcdnv6temp.com/mangakakalot/h1/hanashite_nante_agenai_yo/vol1_chapter_1/11.jpg",
    "https://img-proxy.imgfo.com/?referer=https://manganelo.com&url=https://s6.mkklcdnv6temp.com/mangakakalot/h1/hanashite_nante_agenai_yo/vol1_chapter_1/12.jpg",
    "https://img-proxy.imgfo.com/?referer=https://manganelo.com&url=https://s6.mkklcdnv6temp.com/mangakakalot/h1/hanashite_nante_agenai_yo/vol1_chapter_1/13.jpg",
    "https://img-proxy.imgfo.com/?referer=https://manganelo.com&url=https://s6.mkklcdnv6temp.com/mangakakalot/h1/hanashite_nante_agenai_yo/vol1_chapter_1/14.jpg",
    "https://img-proxy.imgfo.com/?referer=https://manganelo.com&url=https://s6.mkklcdnv6temp.com/mangakakalot/h1/hanashite_nante_agenai_yo/vol1_chapter_1/15.jpg",
    "https://img-proxy.imgfo.com/?referer=https://manganelo.com&url=https://s6.mkklcdnv6temp.com/mangakakalot/h1/hanashite_nante_agenai_yo/vol1_chapter_1/16.jpg",
    "https://img-proxy.imgfo.com/?referer=https://manganelo.com&url=https://s6.mkklcdnv6temp.com/mangakakalot/h1/hanashite_nante_agenai_yo/vol1_chapter_1/17.jpg",
    "https://img-proxy.imgfo.com/?referer=https://manganelo.com&url=https://s6.mkklcdnv6temp.com/mangakakalot/h1/hanashite_nante_agenai_yo/vol1_chapter_1/18.jpg",
    "https://img-proxy.imgfo.com/?referer=https://manganelo.com&url=https://s6.mkklcdnv6temp.com/mangakakalot/h1/hanashite_nante_agenai_yo/vol1_chapter_1/19.jpg",
    "https://img-proxy.imgfo.com/?referer=https://manganelo.com&url=https://s6.mkklcdnv6temp.com/mangakakalot/h1/hanashite_nante_agenai_yo/vol1_chapter_1/20.jpg",
    "https://img-proxy.imgfo.com/?referer=https://manganelo.com&url=https://s6.mkklcdnv6temp.com/mangakakalot/h1/hanashite_nante_agenai_yo/vol1_chapter_1/21.jpg",
    "https://img-proxy.imgfo.com/?referer=https://manganelo.com&url=https://s6.mkklcdnv6temp.com/mangakakalot/h1/hanashite_nante_agenai_yo/vol1_chapter_1/22.jpg",
    "https://img-proxy.imgfo.com/?referer=https://manganelo.com&url=https://s6.mkklcdnv6temp.com/mangakakalot/h1/hanashite_nante_agenai_yo/vol1_chapter_1/23.jpg",
    "https://img-proxy.imgfo.com/?referer=https://manganelo.com&url=https://s6.mkklcdnv6temp.com/mangakakalot/h1/hanashite_nante_agenai_yo/vol1_chapter_1/24.jpg",
    "https://img-proxy.imgfo.com/?referer=https://manganelo.com&url=https://s6.mkklcdnv6temp.com/mangakakalot/h1/hanashite_nante_agenai_yo/vol1_chapter_1/25.jpg",
    "https://img-proxy.imgfo.com/?referer=https://manganelo.com&url=https://s6.mkklcdnv6temp.com/mangakakalot/h1/hanashite_nante_agenai_yo/vol1_chapter_1/26.jpg",
    "https://img-proxy.imgfo.com/?referer=https://manganelo.com&url=https://s6.mkklcdnv6temp.com/mangakakalot/h1/hanashite_nante_agenai_yo/vol1_chapter_1/27.jpg",
    "https://img-proxy.imgfo.com/?referer=https://manganelo.com&url=https://s6.mkklcdnv6temp.com/mangakakalot/h1/hanashite_nante_agenai_yo/vol1_chapter_1/28.jpg",
    "https://img-proxy.imgfo.com/?referer=https://manganelo.com&url=https://s6.mkklcdnv6temp.com/mangakakalot/h1/hanashite_nante_agenai_yo/vol1_chapter_1/29.jpg",
    "https://img-proxy.imgfo.com/?referer=https://manganelo.com&url=https://s6.mkklcdnv6temp.com/mangakakalot/h1/hanashite_nante_agenai_yo/vol1_chapter_1/30.jpg",
    "https://img-proxy.imgfo.com/?referer=https://manganelo.com&url=https://s6.mkklcdnv6temp.com/mangakakalot/h1/hanashite_nante_agenai_yo/vol1_chapter_1/31.jpg",
    "https://img-proxy.imgfo.com/?referer=https://manganelo.com&url=https://s6.mkklcdnv6temp.com/mangakakalot/h1/hanashite_nante_agenai_yo/vol1_chapter_1/32.jpg",
    "https://img-proxy.imgfo.com/?referer=https://manganelo.com&url=https://s6.mkklcdnv6temp.com/mangakakalot/h1/hanashite_nante_agenai_yo/vol1_chapter_1/33.jpg",
    "https://img-proxy.imgfo.com/?referer=https://manganelo.com&url=https://s6.mkklcdnv6temp.com/mangakakalot/h1/hanashite_nante_agenai_yo/vol1_chapter_1/34.jpg",
    "https://img-proxy.imgfo.com/?referer=https://manganelo.com&url=https://s6.mkklcdnv6temp.com/mangakakalot/h1/hanashite_nante_agenai_yo/vol1_chapter_1/35.jpg",
    "https://img-proxy.imgfo.com/?referer=https://manganelo.com&url=https://s6.mkklcdnv6temp.com/mangakakalot/h1/hanashite_nante_agenai_yo/vol1_chapter_1/36.jpg",
    "https://img-proxy.imgfo.com/?referer=https://manganelo.com&url=https://s6.mkklcdnv6temp.com/mangakakalot/h1/hanashite_nante_agenai_yo/vol1_chapter_1/37.jpg",
    "https://img-proxy.imgfo.com/?referer=https://manganelo.com&url=https://s6.mkklcdnv6temp.com/mangakakalot/h1/hanashite_nante_agenai_yo/vol1_chapter_1/38.jpg"
  ]
}