{
  "cover": "https://avt.mkklcdnv6.com/1/p/4-1583471882.jpg",
  "title": "H2",
  "original": "エイチツー",
  "genre": "Comedy, Drama, Romance, School life, Shounen, Slice of life, Sports, Manga",
  "author": "Adachi Mitsuru",
  "status": "Completed",
  "backlink": "https://manganu.com/collections/adachi-mitsuru/h2/",
  "description": "Hiro has two loves: baseball and porn. But due to an elbow injury he gives up baseball choosing a school with no baseball team. His childhood friend Hikari attends a different school with baseball ace Hideo and the two wish Hiro had not given up baseball. Hiro joins the soccer team but meets Haruka, a very clumsy girl, who is manager of the unofficial baseball club. When the soccer team challenges the baseball club to a game, with hopes of humiliating them, the baseball club nearly loses until Hiro, disgusted by the soccer team`s arrogance, switches to the baseball club.\nA not-to-be-missed series for all, and you don't need to be a baseball fan to enjoy this!\nFrom AnimeNfo:\nKunimi Hiro and his best friend Hideo were baseball wonders... Until Hiro found out his arm was permanently damaged, rendering him unable to play anymore. A frustrated Hiro goes through the trouble of specifically finding a high school with no baseball team... Only to later on find out the doctor who examined him was a quack and his arm is perfectly fine. Hiro is quick to reinstate his dream: Creating a baseball team for his school and getting to face off against Hideo in the Koshien... The number one premier league for high school baseball.",
  "language": "English",
  "images": [
    "https://img-proxy.imgfo.com/?referer=https://manganelo.com&url=https://s6.mkklcdnv6temp.com/mangakakalot/h2/h2/vol26_chapter_255/1.jpg",
    "https://img-proxy.imgfo.com/?referer=https://manganelo.com&url=https://s6.mkklcdnv6temp.com/mangakakalot/h2/h2/vol26_chapter_255/2.jpg",
    "https://img-proxy.imgfo.com/?referer=https://manganelo.com&url=https://s6.mkklcdnv6temp.com/mangakakalot/h2/h2/vol26_chapter_255/3.jpg",
    "https://img-proxy.imgfo.com/?referer=https://manganelo.com&url=https://s6.mkklcdnv6temp.com/mangakakalot/h2/h2/vol26_chapter_255/4.jpg",
    "https://img-proxy.imgfo.com/?referer=https://manganelo.com&url=https://s6.mkklcdnv6temp.com/mangakakalot/h2/h2/vol26_chapter_255/5.jpg",
    "https://img-proxy.imgfo.com/?referer=https://manganelo.com&url=https://s6.mkklcdnv6temp.com/mangakakalot/h2/h2/vol26_chapter_255/6.jpg",
    "https://img-proxy.imgfo.com/?referer=https://manganelo.com&url=https://s6.mkklcdnv6temp.com/mangakakalot/h2/h2/vol26_chapter_255/7.jpg",
    "https://img-proxy.imgfo.com/?referer=https://manganelo.com&url=https://s6.mkklcdnv6temp.com/mangakakalot/h2/h2/vol26_chapter_255/8.jpg",
    "https://img-proxy.imgfo.com/?referer=https://manganelo.com&url=https://s6.mkklcdnv6temp.com/mangakakalot/h2/h2/vol26_chapter_255/9.jpg",
    "https://img-proxy.imgfo.com/?referer=https://manganelo.com&url=https://s6.mkklcdnv6temp.com/mangakakalot/h2/h2/vol26_chapter_255/10.jpg",
    "https://img-proxy.imgfo.com/?referer=https://manganelo.com&url=https://s6.mkklcdnv6temp.com/mangakakalot/h2/h2/vol26_chapter_255/11.jpg",
    "https://img-proxy.imgfo.com/?referer=https://manganelo.com&url=https://s6.mkklcdnv6temp.com/mangakakalot/h2/h2/vol26_chapter_255/12.jpg",
    "https://img-proxy.imgfo.com/?referer=https://manganelo.com&url=https://s6.mkklcdnv6temp.com/mangakakalot/h2/h2/vol26_chapter_255/13.jpg",
    "https://img-proxy.imgfo.com/?referer=https://manganelo.com&url=https://s6.mkklcdnv6temp.com/mangakakalot/h2/h2/vol26_chapter_255/14.jpg",
    "https://img-proxy.imgfo.com/?referer=https://manganelo.com&url=https://s6.mkklcdnv6temp.com/mangakakalot/h2/h2/vol26_chapter_255/15.jpg",
    "https://img-proxy.imgfo.com/?referer=https://manganelo.com&url=https://s6.mkklcdnv6temp.com/mangakakalot/h2/h2/vol26_chapter_255/16.jpg",
    "https://img-proxy.imgfo.com/?referer=https://manganelo.com&url=https://s6.mkklcdnv6temp.com/mangakakalot/h2/h2/vol26_chapter_255/17.jpg",
    "https://img-proxy.imgfo.com/?referer=https://manganelo.com&url=https://s6.mkklcdnv6temp.com/mangakakalot/h2/h2/vol26_chapter_255/18.jpg"
  ]
}