{
  "cover": "https://avt.mkklcdnv6.com/45/z/5-1583473688.jpg",
  "title": "Handsome Girlfriend",
  "original": "ハンサムな彼女 ; 帅气女朋友 ; 帥氣女朋友 ; Cô nàng đẹp trai ; Handsome Girl ; Handsome na Kanojo",
  "genre": "Comedy, Drama, Romance, Shoujo, Manga",
  "author": "Yoshizumi Wataru",
  "status": "Completed",
  "backlink": "https://manganu.com/collections/yoshizumi-wataru/handsome-girlfriend/",
  "description": "Hagiwara Mio is a young rising star in the celebrity world of Japan. She has always been in love with her neighbour, the handsome actor Morimoto Teruomi, who is the motivation for Mio to continue being an actress. However, Teruomi falls in love with Sawaki Aya instead, who's the best friend of Mio as well as a popular singer. At the verge of a break-down, Mio was comforted by the genius director, Kumagai Ichiya. A heart-broken Mio slowly finds herself attracted to Ichiya in spite of herself, but why is Ichiya always keeping a distance between Mio and himself?",
  "language": "English",
  "images": [
    "https://img-proxy.imgfo.com/?referer=https://manganelo.com&url=https://s3.mkklcdnv6temp.com/mangakakalot/h1/handsome_girlfriend/vol6_chapter_23/1.jpg",
    "https://img-proxy.imgfo.com/?referer=https://manganelo.com&url=https://s3.mkklcdnv6temp.com/mangakakalot/h1/handsome_girlfriend/vol6_chapter_23/2.jpg",
    "https://img-proxy.imgfo.com/?referer=https://manganelo.com&url=https://s3.mkklcdnv6temp.com/mangakakalot/h1/handsome_girlfriend/vol6_chapter_23/3.jpg",
    "https://img-proxy.imgfo.com/?referer=https://manganelo.com&url=https://s3.mkklcdnv6temp.com/mangakakalot/h1/handsome_girlfriend/vol6_chapter_23/4.jpg",
    "https://img-proxy.imgfo.com/?referer=https://manganelo.com&url=https://s3.mkklcdnv6temp.com/mangakakalot/h1/handsome_girlfriend/vol6_chapter_23/5.jpg",
    "https://img-proxy.imgfo.com/?referer=https://manganelo.com&url=https://s3.mkklcdnv6temp.com/mangakakalot/h1/handsome_girlfriend/vol6_chapter_23/6.jpg",
    "https://img-proxy.imgfo.com/?referer=https://manganelo.com&url=https://s3.mkklcdnv6temp.com/mangakakalot/h1/handsome_girlfriend/vol6_chapter_23/7.jpg",
    "https://img-proxy.imgfo.com/?referer=https://manganelo.com&url=https://s3.mkklcdnv6temp.com/mangakakalot/h1/handsome_girlfriend/vol6_chapter_23/8.jpg",
    "https://img-proxy.imgfo.com/?referer=https://manganelo.com&url=https://s3.mkklcdnv6temp.com/mangakakalot/h1/handsome_girlfriend/vol6_chapter_23/9.jpg",
    "https://img-proxy.imgfo.com/?referer=https://manganelo.com&url=https://s3.mkklcdnv6temp.com/mangakakalot/h1/handsome_girlfriend/vol6_chapter_23/10.jpg",
    "https://img-proxy.imgfo.com/?referer=https://manganelo.com&url=https://s3.mkklcdnv6temp.com/mangakakalot/h1/handsome_girlfriend/vol6_chapter_23/11.jpg",
    "https://img-proxy.imgfo.com/?referer=https://manganelo.com&url=https://s3.mkklcdnv6temp.com/mangakakalot/h1/handsome_girlfriend/vol6_chapter_23/12.jpg",
    "https://img-proxy.imgfo.com/?referer=https://manganelo.com&url=https://s3.mkklcdnv6temp.com/mangakakalot/h1/handsome_girlfriend/vol6_chapter_23/13.jpg",
    "https://img-proxy.imgfo.com/?referer=https://manganelo.com&url=https://s3.mkklcdnv6temp.com/mangakakalot/h1/handsome_girlfriend/vol6_chapter_23/14.jpg",
    "https://img-proxy.imgfo.com/?referer=https://manganelo.com&url=https://s3.mkklcdnv6temp.com/mangakakalot/h1/handsome_girlfriend/vol6_chapter_23/15.jpg",
    "https://img-proxy.imgfo.com/?referer=https://manganelo.com&url=https://s3.mkklcdnv6temp.com/mangakakalot/h1/handsome_girlfriend/vol6_chapter_23/16.jpg",
    "https://img-proxy.imgfo.com/?referer=https://manganelo.com&url=https://s3.mkklcdnv6temp.com/mangakakalot/h1/handsome_girlfriend/vol6_chapter_23/17.jpg",
    "https://img-proxy.imgfo.com/?referer=https://manganelo.com&url=https://s3.mkklcdnv6temp.com/mangakakalot/h1/handsome_girlfriend/vol6_chapter_23/18.jpg",
    "https://img-proxy.imgfo.com/?referer=https://manganelo.com&url=https://s3.mkklcdnv6temp.com/mangakakalot/h1/handsome_girlfriend/vol6_chapter_23/19.jpg",
    "https://img-proxy.imgfo.com/?referer=https://manganelo.com&url=https://s3.mkklcdnv6temp.com/mangakakalot/h1/handsome_girlfriend/vol6_chapter_23/20.jpg",
    "https://img-proxy.imgfo.com/?referer=https://manganelo.com&url=https://s3.mkklcdnv6temp.com/mangakakalot/h1/handsome_girlfriend/vol6_chapter_23/21.jpg",
    "https://img-proxy.imgfo.com/?referer=https://manganelo.com&url=https://s3.mkklcdnv6temp.com/mangakakalot/h1/handsome_girlfriend/vol6_chapter_23/22.jpg",
    "https://img-proxy.imgfo.com/?referer=https://manganelo.com&url=https://s3.mkklcdnv6temp.com/mangakakalot/h1/handsome_girlfriend/vol6_chapter_23/23.jpg",
    "https://img-proxy.imgfo.com/?referer=https://manganelo.com&url=https://s3.mkklcdnv6temp.com/mangakakalot/h1/handsome_girlfriend/vol6_chapter_23/24.jpg",
    "https://img-proxy.imgfo.com/?referer=https://manganelo.com&url=https://s3.mkklcdnv6temp.com/mangakakalot/h1/handsome_girlfriend/vol6_chapter_23/25.jpg",
    "https://img-proxy.imgfo.com/?referer=https://manganelo.com&url=https://s3.mkklcdnv6temp.com/mangakakalot/h1/handsome_girlfriend/vol6_chapter_23/26.jpg",
    "https://img-proxy.imgfo.com/?referer=https://manganelo.com&url=https://s3.mkklcdnv6temp.com/mangakakalot/h1/handsome_girlfriend/vol6_chapter_23/27.jpg",
    "https://img-proxy.imgfo.com/?referer=https://manganelo.com&url=https://s3.mkklcdnv6temp.com/mangakakalot/h1/handsome_girlfriend/vol6_chapter_23/28.jpg",
    "https://img-proxy.imgfo.com/?referer=https://manganelo.com&url=https://s3.mkklcdnv6temp.com/mangakakalot/h1/handsome_girlfriend/vol6_chapter_23/29.jpg",
    "https://img-proxy.imgfo.com/?referer=https://manganelo.com&url=https://s3.mkklcdnv6temp.com/mangakakalot/h1/handsome_girlfriend/vol6_chapter_23/30.jpg",
    "https://img-proxy.imgfo.com/?referer=https://manganelo.com&url=https://s3.mkklcdnv6temp.com/mangakakalot/h1/handsome_girlfriend/vol6_chapter_23/31.jpg",
    "https://img-proxy.imgfo.com/?referer=https://manganelo.com&url=https://s3.mkklcdnv6temp.com/mangakakalot/h1/handsome_girlfriend/vol6_chapter_23/32.jpg",
    "https://img-proxy.imgfo.com/?referer=https://manganelo.com&url=https://s3.mkklcdnv6temp.com/mangakakalot/h1/handsome_girlfriend/vol6_chapter_23/33.jpg",
    "https://img-proxy.imgfo.com/?referer=https://manganelo.com&url=https://s3.mkklcdnv6temp.com/mangakakalot/h1/handsome_girlfriend/vol6_chapter_23/34.jpg",
    "https://img-proxy.imgfo.com/?referer=https://manganelo.com&url=https://s3.mkklcdnv6temp.com/mangakakalot/h1/handsome_girlfriend/vol6_chapter_23/35.jpg",
    "https://img-proxy.imgfo.com/?referer=https://manganelo.com&url=https://s3.mkklcdnv6temp.com/mangakakalot/h1/handsome_girlfriend/vol6_chapter_23/36.jpg",
    "https://img-proxy.imgfo.com/?referer=https://manganelo.com&url=https://s3.mkklcdnv6temp.com/mangakakalot/h1/handsome_girlfriend/vol6_chapter_23/37.jpg"
  ]
}