{
  "cover": "https://avt.mkklcdnv6.com/21/b/5-1583472661.jpg",
  "title": "Yu-Gi-Oh! Millennium World",
  "original": "Yu-Gi-Oh! Dawn Of The Duel",
  "genre": "Action, Adult, Comedy, Fantasy, School life, Shounen, Supernatural, Manga",
  "author": "Takahashi Kazuki",
  "status": "Completed",
  "backlink": "https://manganu.com/collections/takahashi-kazuki/yu-gi-oh-millennium-world/",
  "description": "This is a continuation of the original Yu-Gi-Oh! series and contains the Egypt arc. Originally just called Yu-Gi-Oh!, Viz renamed it to its current name. From the 1st Volume Cover: The final Yu-Gi-Oh! story! After hundreds of battles, Yugi has finally gathered all the Egyptian God Cards... the key to unlocking his memories of his past life as an Egyptian pharaoh. When Ryo Bakura gives him the Millennium Eye, Yugi opens the door to the &quot;world of memory,&quot; and his mind travels back in time to ancient Egypt, when the magic and monsters were real! Now Yugi and his friends must explore the world of Yugi&#39;s forgotten past... and fight an enemy who has been waiting for them for 3,000 years!",
  "language": "English",
  "images": [
    "https://img-proxy.imgfo.com/?referer=https://manganelo.com&url=https://s41.mkklcdnv6temp.com/mangakakalot/r1/read_yugioh_millennium_world/vol2_chapter_18_ka_hunt/1.jpg",
    "https://img-proxy.imgfo.com/?referer=https://manganelo.com&url=https://s41.mkklcdnv6temp.com/mangakakalot/r1/read_yugioh_millennium_world/vol2_chapter_18_ka_hunt/2.jpg",
    "https://img-proxy.imgfo.com/?referer=https://manganelo.com&url=https://s41.mkklcdnv6temp.com/mangakakalot/r1/read_yugioh_millennium_world/vol2_chapter_18_ka_hunt/3.jpg",
    "https://img-proxy.imgfo.com/?referer=https://manganelo.com&url=https://s41.mkklcdnv6temp.com/mangakakalot/r1/read_yugioh_millennium_world/vol2_chapter_18_ka_hunt/4.jpg",
    "https://img-proxy.imgfo.com/?referer=https://manganelo.com&url=https://s41.mkklcdnv6temp.com/mangakakalot/r1/read_yugioh_millennium_world/vol2_chapter_18_ka_hunt/5.jpg",
    "https://img-proxy.imgfo.com/?referer=https://manganelo.com&url=https://s41.mkklcdnv6temp.com/mangakakalot/r1/read_yugioh_millennium_world/vol2_chapter_18_ka_hunt/6.jpg",
    "https://img-proxy.imgfo.com/?referer=https://manganelo.com&url=https://s41.mkklcdnv6temp.com/mangakakalot/r1/read_yugioh_millennium_world/vol2_chapter_18_ka_hunt/7.jpg",
    "https://img-proxy.imgfo.com/?referer=https://manganelo.com&url=https://s41.mkklcdnv6temp.com/mangakakalot/r1/read_yugioh_millennium_world/vol2_chapter_18_ka_hunt/8.jpg",
    "https://img-proxy.imgfo.com/?referer=https://manganelo.com&url=https://s41.mkklcdnv6temp.com/mangakakalot/r1/read_yugioh_millennium_world/vol2_chapter_18_ka_hunt/9.jpg",
    "https://img-proxy.imgfo.com/?referer=https://manganelo.com&url=https://s41.mkklcdnv6temp.com/mangakakalot/r1/read_yugioh_millennium_world/vol2_chapter_18_ka_hunt/10.jpg",
    "https://img-proxy.imgfo.com/?referer=https://manganelo.com&url=https://s41.mkklcdnv6temp.com/mangakakalot/r1/read_yugioh_millennium_world/vol2_chapter_18_ka_hunt/11.jpg",
    "https://img-proxy.imgfo.com/?referer=https://manganelo.com&url=https://s41.mkklcdnv6temp.com/mangakakalot/r1/read_yugioh_millennium_world/vol2_chapter_18_ka_hunt/12.jpg",
    "https://img-proxy.imgfo.com/?referer=https://manganelo.com&url=https://s41.mkklcdnv6temp.com/mangakakalot/r1/read_yugioh_millennium_world/vol2_chapter_18_ka_hunt/13.jpg",
    "https://img-proxy.imgfo.com/?referer=https://manganelo.com&url=https://s41.mkklcdnv6temp.com/mangakakalot/r1/read_yugioh_millennium_world/vol2_chapter_18_ka_hunt/14.jpg",
    "https://img-proxy.imgfo.com/?referer=https://manganelo.com&url=https://s41.mkklcdnv6temp.com/mangakakalot/r1/read_yugioh_millennium_world/vol2_chapter_18_ka_hunt/15.jpg",
    "https://img-proxy.imgfo.com/?referer=https://manganelo.com&url=https://s41.mkklcdnv6temp.com/mangakakalot/r1/read_yugioh_millennium_world/vol2_chapter_18_ka_hunt/16.jpg",
    "https://img-proxy.imgfo.com/?referer=https://manganelo.com&url=https://s41.mkklcdnv6temp.com/mangakakalot/r1/read_yugioh_millennium_world/vol2_chapter_18_ka_hunt/17.jpg"
  ]
}