{
  "cover": "https://avt.mkklcdnv6.com/40/h/19-1583500646.jpg",
  "title": "The Witch Of 2-A",
  "original": "2-A no Mahoutsukai,2-A no Mahou Tsukai,2-Aの魔法使い",
  "genre": "Comedy, Fantasy, School life, Seinen, Slice of life, Supernatural, Manga",
  "author": "Akira Houjou",
  "status": "Completed",
  "backlink": "https://manganu.com/collections/akira-houjou/the-witch-of-2-a/",
  "description": "Fuka Nanase, a 14-year-old in the 8th grade, falls in love for the first time. But when her heart beats, she becomes a witch!?",
  "language": "English",
  "images": [
    "https://img-proxy.imgfo.com/?referer=https://manganelo.com&url=https://s5.mkklcdnv6temp.com/mangakakalot/g2/go921013/vol1_chapter_11/1.jpg",
    "https://img-proxy.imgfo.com/?referer=https://manganelo.com&url=https://s5.mkklcdnv6temp.com/mangakakalot/g2/go921013/vol1_chapter_11/2.jpg",
    "https://img-proxy.imgfo.com/?referer=https://manganelo.com&url=https://s5.mkklcdnv6temp.com/mangakakalot/g2/go921013/vol1_chapter_11/3.jpg",
    "https://img-proxy.imgfo.com/?referer=https://manganelo.com&url=https://s5.mkklcdnv6temp.com/mangakakalot/g2/go921013/vol1_chapter_11/4.jpg",
    "https://img-proxy.imgfo.com/?referer=https://manganelo.com&url=https://s5.mkklcdnv6temp.com/mangakakalot/g2/go921013/vol1_chapter_11/5.jpg",
    "https://img-proxy.imgfo.com/?referer=https://manganelo.com&url=https://s5.mkklcdnv6temp.com/mangakakalot/g2/go921013/vol1_chapter_11/6.jpg",
    "https://img-proxy.imgfo.com/?referer=https://manganelo.com&url=https://s5.mkklcdnv6temp.com/mangakakalot/g2/go921013/vol1_chapter_11/7.jpg",
    "https://img-proxy.imgfo.com/?referer=https://manganelo.com&url=https://s5.mkklcdnv6temp.com/mangakakalot/g2/go921013/vol1_chapter_11/8.jpg",
    "https://img-proxy.imgfo.com/?referer=https://manganelo.com&url=https://s5.mkklcdnv6temp.com/mangakakalot/g2/go921013/vol1_chapter_11/9.jpg",
    "https://img-proxy.imgfo.com/?referer=https://manganelo.com&url=https://s5.mkklcdnv6temp.com/mangakakalot/g2/go921013/vol1_chapter_11/10.jpg"
  ]
}