{
  "cover": "https://avt.mkklcdnv6.com/10/z/1-1583464091.jpg",
  "title": "Shinsengumi Imon Peace Maker",
  "original": "新撰組異聞 PEACE MAKER ; 新撰組異聞列傳-刀魂 ; Peacemaker (Chrono)",
  "genre": "Action, Comedy, Drama, Historical, Seinen, Manga",
  "author": "Chrono Nanae",
  "status": "Completed",
  "backlink": "https://manganu.com/collections/chrono-nanae/shinsengumi-imon-peace-maker/",
  "description": "From Tokyopop: When childhood innocence gives way to a blinding thirst for revenge, is it worth the price of one&#39;s humanity? Tetsunosuke and Tatsunosuke are the sons of a diplomat who sought to bring peace and prosperity to Japan during the early Meiji Restoration. But when their parents are murdered before their very eyes, Tetsu seeks to join the Shinsengumi, the unofficial police who are capable of the same brutality as his parents&#39; murderers. Wading through a sea of espionage, deception and bloodshed, the young boy must choose: should he take a step on the path to becoming a demon...or give up his rage and transform into the ultimate Peacemaker?",
  "language": "English",
  "images": [
    "https://img-proxy.imgfo.com/?referer=https://manganelo.com&url=https://s41.mkklcdnv6temp.com/mangakakalot/s1/shinsengumi_imon_peace_maker/vol4_chapter_18_from_me_to_you/1.jpg",
    "https://img-proxy.imgfo.com/?referer=https://manganelo.com&url=https://s41.mkklcdnv6temp.com/mangakakalot/s1/shinsengumi_imon_peace_maker/vol4_chapter_18_from_me_to_you/2.jpg",
    "https://img-proxy.imgfo.com/?referer=https://manganelo.com&url=https://s41.mkklcdnv6temp.com/mangakakalot/s1/shinsengumi_imon_peace_maker/vol4_chapter_18_from_me_to_you/3.jpg",
    "https://img-proxy.imgfo.com/?referer=https://manganelo.com&url=https://s41.mkklcdnv6temp.com/mangakakalot/s1/shinsengumi_imon_peace_maker/vol4_chapter_18_from_me_to_you/4.jpg",
    "https://img-proxy.imgfo.com/?referer=https://manganelo.com&url=https://s41.mkklcdnv6temp.com/mangakakalot/s1/shinsengumi_imon_peace_maker/vol4_chapter_18_from_me_to_you/5.jpg",
    "https://img-proxy.imgfo.com/?referer=https://manganelo.com&url=https://s41.mkklcdnv6temp.com/mangakakalot/s1/shinsengumi_imon_peace_maker/vol4_chapter_18_from_me_to_you/6.jpg",
    "https://img-proxy.imgfo.com/?referer=https://manganelo.com&url=https://s41.mkklcdnv6temp.com/mangakakalot/s1/shinsengumi_imon_peace_maker/vol4_chapter_18_from_me_to_you/7.jpg",
    "https://img-proxy.imgfo.com/?referer=https://manganelo.com&url=https://s41.mkklcdnv6temp.com/mangakakalot/s1/shinsengumi_imon_peace_maker/vol4_chapter_18_from_me_to_you/8.jpg",
    "https://img-proxy.imgfo.com/?referer=https://manganelo.com&url=https://s41.mkklcdnv6temp.com/mangakakalot/s1/shinsengumi_imon_peace_maker/vol4_chapter_18_from_me_to_you/9.jpg",
    "https://img-proxy.imgfo.com/?referer=https://manganelo.com&url=https://s41.mkklcdnv6temp.com/mangakakalot/s1/shinsengumi_imon_peace_maker/vol4_chapter_18_from_me_to_you/10.jpg",
    "https://img-proxy.imgfo.com/?referer=https://manganelo.com&url=https://s41.mkklcdnv6temp.com/mangakakalot/s1/shinsengumi_imon_peace_maker/vol4_chapter_18_from_me_to_you/11.jpg",
    "https://img-proxy.imgfo.com/?referer=https://manganelo.com&url=https://s41.mkklcdnv6temp.com/mangakakalot/s1/shinsengumi_imon_peace_maker/vol4_chapter_18_from_me_to_you/12.jpg",
    "https://img-proxy.imgfo.com/?referer=https://manganelo.com&url=https://s41.mkklcdnv6temp.com/mangakakalot/s1/shinsengumi_imon_peace_maker/vol4_chapter_18_from_me_to_you/13.jpg",
    "https://img-proxy.imgfo.com/?referer=https://manganelo.com&url=https://s41.mkklcdnv6temp.com/mangakakalot/s1/shinsengumi_imon_peace_maker/vol4_chapter_18_from_me_to_you/14.jpg",
    "https://img-proxy.imgfo.com/?referer=https://manganelo.com&url=https://s41.mkklcdnv6temp.com/mangakakalot/s1/shinsengumi_imon_peace_maker/vol4_chapter_18_from_me_to_you/15.jpg",
    "https://img-proxy.imgfo.com/?referer=https://manganelo.com&url=https://s41.mkklcdnv6temp.com/mangakakalot/s1/shinsengumi_imon_peace_maker/vol4_chapter_18_from_me_to_you/16.jpg",
    "https://img-proxy.imgfo.com/?referer=https://manganelo.com&url=https://s41.mkklcdnv6temp.com/mangakakalot/s1/shinsengumi_imon_peace_maker/vol4_chapter_18_from_me_to_you/17.jpg",
    "https://img-proxy.imgfo.com/?referer=https://manganelo.com&url=https://s41.mkklcdnv6temp.com/mangakakalot/s1/shinsengumi_imon_peace_maker/vol4_chapter_18_from_me_to_you/18.jpg",
    "https://img-proxy.imgfo.com/?referer=https://manganelo.com&url=https://s41.mkklcdnv6temp.com/mangakakalot/s1/shinsengumi_imon_peace_maker/vol4_chapter_18_from_me_to_you/19.jpg",
    "https://img-proxy.imgfo.com/?referer=https://manganelo.com&url=https://s41.mkklcdnv6temp.com/mangakakalot/s1/shinsengumi_imon_peace_maker/vol4_chapter_18_from_me_to_you/20.jpg",
    "https://img-proxy.imgfo.com/?referer=https://manganelo.com&url=https://s41.mkklcdnv6temp.com/mangakakalot/s1/shinsengumi_imon_peace_maker/vol4_chapter_18_from_me_to_you/21.jpg",
    "https://img-proxy.imgfo.com/?referer=https://manganelo.com&url=https://s41.mkklcdnv6temp.com/mangakakalot/s1/shinsengumi_imon_peace_maker/vol4_chapter_18_from_me_to_you/22.jpg",
    "https://img-proxy.imgfo.com/?referer=https://manganelo.com&url=https://s41.mkklcdnv6temp.com/mangakakalot/s1/shinsengumi_imon_peace_maker/vol4_chapter_18_from_me_to_you/23.jpg",
    "https://img-proxy.imgfo.com/?referer=https://manganelo.com&url=https://s41.mkklcdnv6temp.com/mangakakalot/s1/shinsengumi_imon_peace_maker/vol4_chapter_18_from_me_to_you/24.jpg",
    "https://img-proxy.imgfo.com/?referer=https://manganelo.com&url=https://s41.mkklcdnv6temp.com/mangakakalot/s1/shinsengumi_imon_peace_maker/vol4_chapter_18_from_me_to_you/25.jpg",
    "https://img-proxy.imgfo.com/?referer=https://manganelo.com&url=https://s41.mkklcdnv6temp.com/mangakakalot/s1/shinsengumi_imon_peace_maker/vol4_chapter_18_from_me_to_you/26.jpg",
    "https://img-proxy.imgfo.com/?referer=https://manganelo.com&url=https://s41.mkklcdnv6temp.com/mangakakalot/s1/shinsengumi_imon_peace_maker/vol4_chapter_18_from_me_to_you/27.jpg",
    "https://img-proxy.imgfo.com/?referer=https://manganelo.com&url=https://s41.mkklcdnv6temp.com/mangakakalot/s1/shinsengumi_imon_peace_maker/vol4_chapter_18_from_me_to_you/28.jpg",
    "https://img-proxy.imgfo.com/?referer=https://manganelo.com&url=https://s41.mkklcdnv6temp.com/mangakakalot/s1/shinsengumi_imon_peace_maker/vol4_chapter_18_from_me_to_you/29.jpg",
    "https://img-proxy.imgfo.com/?referer=https://manganelo.com&url=https://s41.mkklcdnv6temp.com/mangakakalot/s1/shinsengumi_imon_peace_maker/vol4_chapter_18_from_me_to_you/30.jpg",
    "https://img-proxy.imgfo.com/?referer=https://manganelo.com&url=https://s41.mkklcdnv6temp.com/mangakakalot/s1/shinsengumi_imon_peace_maker/vol4_chapter_18_from_me_to_you/31.jpg",
    "https://img-proxy.imgfo.com/?referer=https://manganelo.com&url=https://s41.mkklcdnv6temp.com/mangakakalot/s1/shinsengumi_imon_peace_maker/vol4_chapter_18_from_me_to_you/32.jpg",
    "https://img-proxy.imgfo.com/?referer=https://manganelo.com&url=https://s41.mkklcdnv6temp.com/mangakakalot/s1/shinsengumi_imon_peace_maker/vol4_chapter_18_from_me_to_you/33.jpg"
  ]
}