{
  "cover": "https://avt.mkklcdnv6.com/42/p/13-1583489326.jpg",
  "title": "Pygmalion",
  "original": "ピグマリオン",
  "genre": "Action, Fantasy, Horror, Shounen, Manga",
  "author": "Watanabe Chihiro (Ii)",
  "status": "Completed",
  "backlink": "https://manganu.com/collections/watanabe-chihiro-ii/pygmalion/",
  "description": "At the National Local Mascot Festival, children all across Japan can meet their favorite local mascots. But as the festival gets underway, it becomes clear that what&#39;s inside these costumes aren&#39;t people - they&#39;re something much darker, with a taste for human flesh. Amid the chaos spreading through the entire country, Keigo Ayahara, his little brother Makoto, and his friend Ako must now fight for their survival and their humanity.",
  "language": "English",
  "images": [
    "https://img-proxy.imgfo.com/?referer=https://manganelo.com&url=https://s5.mkklcdnv6temp.com/mangakakalot/p2/pygmalion/vol3_chapter_185_the_authors_photo_shoot_part_2/1.jpg"
  ]
}