{
  "cover": "https://avt.mkklcdnv6.com/50/n/9-1583482193.jpg",
  "title": "Yuuwaku (Takamiya Azuma)",
  "genre": "Oneshot, School life, Shounen ai, Manga",
  "author": "Takamiya Azuma",
  "status": "Completed",
  "backlink": "https://manganu.com/collections/takamiya-azuma/yuuwaku-takamiya-azuma/",
  "description": "A Very Short Story about a boy, who likes an other boy, he tries to make him interested by lying to him. Short but fun to read",
  "language": "English",
  "images": [
    "https://img-proxy.imgfo.com/?referer=https://manganelo.com&url=https://s41.mkklcdnv6temp.com/mangakakalot/y2/yuuwaku_takamiya_azuma/vol1_chapter_0/1.jpg",
    "https://img-proxy.imgfo.com/?referer=https://manganelo.com&url=https://s41.mkklcdnv6temp.com/mangakakalot/y2/yuuwaku_takamiya_azuma/vol1_chapter_0/2.jpg",
    "https://img-proxy.imgfo.com/?referer=https://manganelo.com&url=https://s41.mkklcdnv6temp.com/mangakakalot/y2/yuuwaku_takamiya_azuma/vol1_chapter_0/3.jpg",
    "https://img-proxy.imgfo.com/?referer=https://manganelo.com&url=https://s41.mkklcdnv6temp.com/mangakakalot/y2/yuuwaku_takamiya_azuma/vol1_chapter_0/4.jpg",
    "https://img-proxy.imgfo.com/?referer=https://manganelo.com&url=https://s41.mkklcdnv6temp.com/mangakakalot/y2/yuuwaku_takamiya_azuma/vol1_chapter_0/5.jpg",
    "https://img-proxy.imgfo.com/?referer=https://manganelo.com&url=https://s41.mkklcdnv6temp.com/mangakakalot/y2/yuuwaku_takamiya_azuma/vol1_chapter_0/6.jpg",
    "https://img-proxy.imgfo.com/?referer=https://manganelo.com&url=https://s41.mkklcdnv6temp.com/mangakakalot/y2/yuuwaku_takamiya_azuma/vol1_chapter_0/7.jpg",
    "https://img-proxy.imgfo.com/?referer=https://manganelo.com&url=https://s41.mkklcdnv6temp.com/mangakakalot/y2/yuuwaku_takamiya_azuma/vol1_chapter_0/8.jpg"
  ]
}