{
  "cover": "http://ww1.heaventoon.com/content/upload/images/Saotome-Girl-Hitakakusu.jpg",
  "title": "Saotome Girl, Hitakakusu",
  "genre": "Comedy, Martial Arts, Romance, School Life, Seinen, Sports, Manga",
  "author": "MIZUGUCHI Naoki",
  "status": "Ongoing",
  "backlink": "https://manganu.com/collections/mizuguchi-naoki/saotome-girl-hitakakusu/",
  "description": "",
  "language": "English",
  "images": [
    "https://img-proxy.imgfo.com/?referer=https://manganelo.com&url=https://s8.mkklcdnv6temp.com/mangakakalot/s1/saotome_girl_hitakakusu/vol1_chapter_5_saotomesenshu_lights_out/1.jpg",
    "https://img-proxy.imgfo.com/?referer=https://manganelo.com&url=https://s8.mkklcdnv6temp.com/mangakakalot/s1/saotome_girl_hitakakusu/vol1_chapter_5_saotomesenshu_lights_out/2.jpg",
    "https://img-proxy.imgfo.com/?referer=https://manganelo.com&url=https://s8.mkklcdnv6temp.com/mangakakalot/s1/saotome_girl_hitakakusu/vol1_chapter_5_saotomesenshu_lights_out/3.jpg",
    "https://img-proxy.imgfo.com/?referer=https://manganelo.com&url=https://s8.mkklcdnv6temp.com/mangakakalot/s1/saotome_girl_hitakakusu/vol1_chapter_5_saotomesenshu_lights_out/4.jpg",
    "https://img-proxy.imgfo.com/?referer=https://manganelo.com&url=https://s8.mkklcdnv6temp.com/mangakakalot/s1/saotome_girl_hitakakusu/vol1_chapter_5_saotomesenshu_lights_out/5.jpg",
    "https://img-proxy.imgfo.com/?referer=https://manganelo.com&url=https://s8.mkklcdnv6temp.com/mangakakalot/s1/saotome_girl_hitakakusu/vol1_chapter_5_saotomesenshu_lights_out/6.jpg",
    "https://img-proxy.imgfo.com/?referer=https://manganelo.com&url=https://s8.mkklcdnv6temp.com/mangakakalot/s1/saotome_girl_hitakakusu/vol1_chapter_5_saotomesenshu_lights_out/7.jpg",
    "https://img-proxy.imgfo.com/?referer=https://manganelo.com&url=https://s8.mkklcdnv6temp.com/mangakakalot/s1/saotome_girl_hitakakusu/vol1_chapter_5_saotomesenshu_lights_out/8.jpg",
    "https://img-proxy.imgfo.com/?referer=https://manganelo.com&url=https://s8.mkklcdnv6temp.com/mangakakalot/s1/saotome_girl_hitakakusu/vol1_chapter_5_saotomesenshu_lights_out/9.jpg",
    "https://img-proxy.imgfo.com/?referer=https://manganelo.com&url=https://s8.mkklcdnv6temp.com/mangakakalot/s1/saotome_girl_hitakakusu/vol1_chapter_5_saotomesenshu_lights_out/10.jpg",
    "https://img-proxy.imgfo.com/?referer=https://manganelo.com&url=https://s8.mkklcdnv6temp.com/mangakakalot/s1/saotome_girl_hitakakusu/vol1_chapter_5_saotomesenshu_lights_out/11.jpg",
    "https://img-proxy.imgfo.com/?referer=https://manganelo.com&url=https://s8.mkklcdnv6temp.com/mangakakalot/s1/saotome_girl_hitakakusu/vol1_chapter_5_saotomesenshu_lights_out/12.jpg",
    "https://img-proxy.imgfo.com/?referer=https://manganelo.com&url=https://s8.mkklcdnv6temp.com/mangakakalot/s1/saotome_girl_hitakakusu/vol1_chapter_5_saotomesenshu_lights_out/13.jpg"
  ]
}