{
  "cover": "http://ww1.heaventoon.com/content/upload/images/Saotome-Girl-Hitakakusu.jpg",
  "title": "Saotome Girl, Hitakakusu",
  "genre": "Comedy, Martial Arts, Romance, School Life, Seinen, Sports, Manga",
  "author": "MIZUGUCHI Naoki",
  "status": "Ongoing",
  "backlink": "https://manganu.com/collections/mizuguchi-naoki/saotome-girl-hitakakusu/",
  "description": "",
  "language": "English",
  "images": [
    "https://img-proxy.imgfo.com/?referer=https://manganelo.com&url=https://s8.mkklcdnv6temp.com/mangakakalot/s1/saotome_girl_hitakakusu/vol4_chapter_35_saotomesenshu_feelings_at_odds/1.jpg",
    "https://img-proxy.imgfo.com/?referer=https://manganelo.com&url=https://s8.mkklcdnv6temp.com/mangakakalot/s1/saotome_girl_hitakakusu/vol4_chapter_35_saotomesenshu_feelings_at_odds/2.jpg",
    "https://img-proxy.imgfo.com/?referer=https://manganelo.com&url=https://s8.mkklcdnv6temp.com/mangakakalot/s1/saotome_girl_hitakakusu/vol4_chapter_35_saotomesenshu_feelings_at_odds/3.jpg",
    "https://img-proxy.imgfo.com/?referer=https://manganelo.com&url=https://s8.mkklcdnv6temp.com/mangakakalot/s1/saotome_girl_hitakakusu/vol4_chapter_35_saotomesenshu_feelings_at_odds/4.jpg",
    "https://img-proxy.imgfo.com/?referer=https://manganelo.com&url=https://s8.mkklcdnv6temp.com/mangakakalot/s1/saotome_girl_hitakakusu/vol4_chapter_35_saotomesenshu_feelings_at_odds/5.jpg",
    "https://img-proxy.imgfo.com/?referer=https://manganelo.com&url=https://s8.mkklcdnv6temp.com/mangakakalot/s1/saotome_girl_hitakakusu/vol4_chapter_35_saotomesenshu_feelings_at_odds/6.jpg",
    "https://img-proxy.imgfo.com/?referer=https://manganelo.com&url=https://s8.mkklcdnv6temp.com/mangakakalot/s1/saotome_girl_hitakakusu/vol4_chapter_35_saotomesenshu_feelings_at_odds/7.jpg",
    "https://img-proxy.imgfo.com/?referer=https://manganelo.com&url=https://s8.mkklcdnv6temp.com/mangakakalot/s1/saotome_girl_hitakakusu/vol4_chapter_35_saotomesenshu_feelings_at_odds/8.jpg",
    "https://img-proxy.imgfo.com/?referer=https://manganelo.com&url=https://s8.mkklcdnv6temp.com/mangakakalot/s1/saotome_girl_hitakakusu/vol4_chapter_35_saotomesenshu_feelings_at_odds/9.jpg",
    "https://img-proxy.imgfo.com/?referer=https://manganelo.com&url=https://s8.mkklcdnv6temp.com/mangakakalot/s1/saotome_girl_hitakakusu/vol4_chapter_35_saotomesenshu_feelings_at_odds/10.jpg",
    "https://img-proxy.imgfo.com/?referer=https://manganelo.com&url=https://s8.mkklcdnv6temp.com/mangakakalot/s1/saotome_girl_hitakakusu/vol4_chapter_35_saotomesenshu_feelings_at_odds/11.jpg",
    "https://img-proxy.imgfo.com/?referer=https://manganelo.com&url=https://s8.mkklcdnv6temp.com/mangakakalot/s1/saotome_girl_hitakakusu/vol4_chapter_35_saotomesenshu_feelings_at_odds/12.jpg",
    "https://img-proxy.imgfo.com/?referer=https://manganelo.com&url=https://s8.mkklcdnv6temp.com/mangakakalot/s1/saotome_girl_hitakakusu/vol4_chapter_35_saotomesenshu_feelings_at_odds/13.jpg",
    "https://img-proxy.imgfo.com/?referer=https://manganelo.com&url=https://s8.mkklcdnv6temp.com/mangakakalot/s1/saotome_girl_hitakakusu/vol4_chapter_35_saotomesenshu_feelings_at_odds/14.jpg"
  ]
}