{
  "cover": "https://avt.mkklcdnv6.com/19/s/11-1583484726.jpg",
  "title": "Yatteraneeze!",
  "original": "I Can't Take it Anymore! ; Yatteranneeze!",
  "genre": "Drama, Romance, School life, Shounen ai, Yaoi, Manga",
  "author": "Akizuki Koh",
  "status": "Completed",
  "backlink": "https://manganu.com/collections/akizuki-koh/yatteraneeze/",
  "description": "From DokiDoki:\nFujimoto Hiroya is at the top of his class. He's the Student Council Vice President, spends all his time studying, and is the idol of all the \"good girls\". But the truth is, he'd trade it all just for the chance to be someone else... someone popular, outgoing and carefree... Someone like Masaki.\nMasaki's what Fujimoto's friends would call an \"idiot\". He'd rather play soccer than study, almost never cracks a book, and is popular with all the \"normal\" kids. He's got flashy clothes, bleached hair and a reputation just as lousy as Fujimoto's is good.\nIn the summer of Fujimoto's freshman year of high school, he resolves to change his image and his life... all to make friends with Masaki. But can dyed hair, new clothes and a piercing really change a person inside?\nHalf-sequel (spin-off): Halfmoon Emotion.",
  "language": "English",
  "images": [
    "https://img-proxy.imgfo.com/?referer=https://manganelo.com&url=https://s6.mkklcdnv6temp.com/mangakakalot/y1/yatteraneeze/vol6_chapter_17_act_17/1.jpg",
    "https://img-proxy.imgfo.com/?referer=https://manganelo.com&url=https://s6.mkklcdnv6temp.com/mangakakalot/y1/yatteraneeze/vol6_chapter_17_act_17/2.jpg",
    "https://img-proxy.imgfo.com/?referer=https://manganelo.com&url=https://s6.mkklcdnv6temp.com/mangakakalot/y1/yatteraneeze/vol6_chapter_17_act_17/3.jpg",
    "https://img-proxy.imgfo.com/?referer=https://manganelo.com&url=https://s6.mkklcdnv6temp.com/mangakakalot/y1/yatteraneeze/vol6_chapter_17_act_17/4.jpg",
    "https://img-proxy.imgfo.com/?referer=https://manganelo.com&url=https://s6.mkklcdnv6temp.com/mangakakalot/y1/yatteraneeze/vol6_chapter_17_act_17/5.jpg",
    "https://img-proxy.imgfo.com/?referer=https://manganelo.com&url=https://s6.mkklcdnv6temp.com/mangakakalot/y1/yatteraneeze/vol6_chapter_17_act_17/6.jpg",
    "https://img-proxy.imgfo.com/?referer=https://manganelo.com&url=https://s6.mkklcdnv6temp.com/mangakakalot/y1/yatteraneeze/vol6_chapter_17_act_17/7.jpg",
    "https://img-proxy.imgfo.com/?referer=https://manganelo.com&url=https://s6.mkklcdnv6temp.com/mangakakalot/y1/yatteraneeze/vol6_chapter_17_act_17/8.jpg",
    "https://img-proxy.imgfo.com/?referer=https://manganelo.com&url=https://s6.mkklcdnv6temp.com/mangakakalot/y1/yatteraneeze/vol6_chapter_17_act_17/9.jpg",
    "https://img-proxy.imgfo.com/?referer=https://manganelo.com&url=https://s6.mkklcdnv6temp.com/mangakakalot/y1/yatteraneeze/vol6_chapter_17_act_17/10.jpg",
    "https://img-proxy.imgfo.com/?referer=https://manganelo.com&url=https://s6.mkklcdnv6temp.com/mangakakalot/y1/yatteraneeze/vol6_chapter_17_act_17/11.jpg",
    "https://img-proxy.imgfo.com/?referer=https://manganelo.com&url=https://s6.mkklcdnv6temp.com/mangakakalot/y1/yatteraneeze/vol6_chapter_17_act_17/12.jpg",
    "https://img-proxy.imgfo.com/?referer=https://manganelo.com&url=https://s6.mkklcdnv6temp.com/mangakakalot/y1/yatteraneeze/vol6_chapter_17_act_17/13.jpg",
    "https://img-proxy.imgfo.com/?referer=https://manganelo.com&url=https://s6.mkklcdnv6temp.com/mangakakalot/y1/yatteraneeze/vol6_chapter_17_act_17/14.jpg",
    "https://img-proxy.imgfo.com/?referer=https://manganelo.com&url=https://s6.mkklcdnv6temp.com/mangakakalot/y1/yatteraneeze/vol6_chapter_17_act_17/15.jpg",
    "https://img-proxy.imgfo.com/?referer=https://manganelo.com&url=https://s6.mkklcdnv6temp.com/mangakakalot/y1/yatteraneeze/vol6_chapter_17_act_17/16.jpg",
    "https://img-proxy.imgfo.com/?referer=https://manganelo.com&url=https://s6.mkklcdnv6temp.com/mangakakalot/y1/yatteraneeze/vol6_chapter_17_act_17/17.jpg",
    "https://img-proxy.imgfo.com/?referer=https://manganelo.com&url=https://s6.mkklcdnv6temp.com/mangakakalot/y1/yatteraneeze/vol6_chapter_17_act_17/18.jpg",
    "https://img-proxy.imgfo.com/?referer=https://manganelo.com&url=https://s6.mkklcdnv6temp.com/mangakakalot/y1/yatteraneeze/vol6_chapter_17_act_17/19.jpg",
    "https://img-proxy.imgfo.com/?referer=https://manganelo.com&url=https://s6.mkklcdnv6temp.com/mangakakalot/y1/yatteraneeze/vol6_chapter_17_act_17/20.jpg",
    "https://img-proxy.imgfo.com/?referer=https://manganelo.com&url=https://s6.mkklcdnv6temp.com/mangakakalot/y1/yatteraneeze/vol6_chapter_17_act_17/21.jpg",
    "https://img-proxy.imgfo.com/?referer=https://manganelo.com&url=https://s6.mkklcdnv6temp.com/mangakakalot/y1/yatteraneeze/vol6_chapter_17_act_17/22.jpg",
    "https://img-proxy.imgfo.com/?referer=https://manganelo.com&url=https://s6.mkklcdnv6temp.com/mangakakalot/y1/yatteraneeze/vol6_chapter_17_act_17/23.jpg",
    "https://img-proxy.imgfo.com/?referer=https://manganelo.com&url=https://s6.mkklcdnv6temp.com/mangakakalot/y1/yatteraneeze/vol6_chapter_17_act_17/24.jpg",
    "https://img-proxy.imgfo.com/?referer=https://manganelo.com&url=https://s6.mkklcdnv6temp.com/mangakakalot/y1/yatteraneeze/vol6_chapter_17_act_17/25.jpg",
    "https://img-proxy.imgfo.com/?referer=https://manganelo.com&url=https://s6.mkklcdnv6temp.com/mangakakalot/y1/yatteraneeze/vol6_chapter_17_act_17/26.jpg",
    "https://img-proxy.imgfo.com/?referer=https://manganelo.com&url=https://s6.mkklcdnv6temp.com/mangakakalot/y1/yatteraneeze/vol6_chapter_17_act_17/27.jpg",
    "https://img-proxy.imgfo.com/?referer=https://manganelo.com&url=https://s6.mkklcdnv6temp.com/mangakakalot/y1/yatteraneeze/vol6_chapter_17_act_17/28.jpg",
    "https://img-proxy.imgfo.com/?referer=https://manganelo.com&url=https://s6.mkklcdnv6temp.com/mangakakalot/y1/yatteraneeze/vol6_chapter_17_act_17/29.jpg",
    "https://img-proxy.imgfo.com/?referer=https://manganelo.com&url=https://s6.mkklcdnv6temp.com/mangakakalot/y1/yatteraneeze/vol6_chapter_17_act_17/30.jpg",
    "https://img-proxy.imgfo.com/?referer=https://manganelo.com&url=https://s6.mkklcdnv6temp.com/mangakakalot/y1/yatteraneeze/vol6_chapter_17_act_17/31.jpg",
    "https://img-proxy.imgfo.com/?referer=https://manganelo.com&url=https://s6.mkklcdnv6temp.com/mangakakalot/y1/yatteraneeze/vol6_chapter_17_act_17/32.jpg",
    "https://img-proxy.imgfo.com/?referer=https://manganelo.com&url=https://s6.mkklcdnv6temp.com/mangakakalot/y1/yatteraneeze/vol6_chapter_17_act_17/33.jpg",
    "https://img-proxy.imgfo.com/?referer=https://manganelo.com&url=https://s6.mkklcdnv6temp.com/mangakakalot/y1/yatteraneeze/vol6_chapter_17_act_17/34.jpg",
    "https://img-proxy.imgfo.com/?referer=https://manganelo.com&url=https://s6.mkklcdnv6temp.com/mangakakalot/y1/yatteraneeze/vol6_chapter_17_act_17/35.jpg",
    "https://img-proxy.imgfo.com/?referer=https://manganelo.com&url=https://s6.mkklcdnv6temp.com/mangakakalot/y1/yatteraneeze/vol6_chapter_17_act_17/36.jpg",
    "https://img-proxy.imgfo.com/?referer=https://manganelo.com&url=https://s6.mkklcdnv6temp.com/mangakakalot/y1/yatteraneeze/vol6_chapter_17_act_17/37.jpg",
    "https://img-proxy.imgfo.com/?referer=https://manganelo.com&url=https://s6.mkklcdnv6temp.com/mangakakalot/y1/yatteraneeze/vol6_chapter_17_act_17/38.jpg",
    "https://img-proxy.imgfo.com/?referer=https://manganelo.com&url=https://s6.mkklcdnv6temp.com/mangakakalot/y1/yatteraneeze/vol6_chapter_17_act_17/39.jpg",
    "https://img-proxy.imgfo.com/?referer=https://manganelo.com&url=https://s6.mkklcdnv6temp.com/mangakakalot/y1/yatteraneeze/vol6_chapter_17_act_17/40.jpg",
    "https://img-proxy.imgfo.com/?referer=https://manganelo.com&url=https://s6.mkklcdnv6temp.com/mangakakalot/y1/yatteraneeze/vol6_chapter_17_act_17/41.jpg",
    "https://img-proxy.imgfo.com/?referer=https://manganelo.com&url=https://s6.mkklcdnv6temp.com/mangakakalot/y1/yatteraneeze/vol6_chapter_17_act_17/42.jpg",
    "https://img-proxy.imgfo.com/?referer=https://manganelo.com&url=https://s6.mkklcdnv6temp.com/mangakakalot/y1/yatteraneeze/vol6_chapter_17_act_17/43.jpg",
    "https://img-proxy.imgfo.com/?referer=https://manganelo.com&url=https://s6.mkklcdnv6temp.com/mangakakalot/y1/yatteraneeze/vol6_chapter_17_act_17/44.jpg",
    "https://img-proxy.imgfo.com/?referer=https://manganelo.com&url=https://s6.mkklcdnv6temp.com/mangakakalot/y1/yatteraneeze/vol6_chapter_17_act_17/45.jpg",
    "https://img-proxy.imgfo.com/?referer=https://manganelo.com&url=https://s6.mkklcdnv6temp.com/mangakakalot/y1/yatteraneeze/vol6_chapter_17_act_17/46.jpg",
    "https://img-proxy.imgfo.com/?referer=https://manganelo.com&url=https://s6.mkklcdnv6temp.com/mangakakalot/y1/yatteraneeze/vol6_chapter_17_act_17/47.jpg",
    "https://img-proxy.imgfo.com/?referer=https://manganelo.com&url=https://s6.mkklcdnv6temp.com/mangakakalot/y1/yatteraneeze/vol6_chapter_17_act_17/48.jpg",
    "https://img-proxy.imgfo.com/?referer=https://manganelo.com&url=https://s6.mkklcdnv6temp.com/mangakakalot/y1/yatteraneeze/vol6_chapter_17_act_17/49.jpg",
    "https://img-proxy.imgfo.com/?referer=https://manganelo.com&url=https://s6.mkklcdnv6temp.com/mangakakalot/y1/yatteraneeze/vol6_chapter_17_act_17/50.jpg",
    "https://img-proxy.imgfo.com/?referer=https://manganelo.com&url=https://s6.mkklcdnv6temp.com/mangakakalot/y1/yatteraneeze/vol6_chapter_17_act_17/51.jpg",
    "https://img-proxy.imgfo.com/?referer=https://manganelo.com&url=https://s6.mkklcdnv6temp.com/mangakakalot/y1/yatteraneeze/vol6_chapter_17_act_17/52.jpg",
    "https://img-proxy.imgfo.com/?referer=https://manganelo.com&url=https://s6.mkklcdnv6temp.com/mangakakalot/y1/yatteraneeze/vol6_chapter_17_act_17/53.jpg",
    "https://img-proxy.imgfo.com/?referer=https://manganelo.com&url=https://s6.mkklcdnv6temp.com/mangakakalot/y1/yatteraneeze/vol6_chapter_17_act_17/54.jpg",
    "https://img-proxy.imgfo.com/?referer=https://manganelo.com&url=https://s6.mkklcdnv6temp.com/mangakakalot/y1/yatteraneeze/vol6_chapter_17_act_17/55.jpg",
    "https://img-proxy.imgfo.com/?referer=https://manganelo.com&url=https://s6.mkklcdnv6temp.com/mangakakalot/y1/yatteraneeze/vol6_chapter_17_act_17/56.jpg",
    "https://img-proxy.imgfo.com/?referer=https://manganelo.com&url=https://s6.mkklcdnv6temp.com/mangakakalot/y1/yatteraneeze/vol6_chapter_17_act_17/57.jpg",
    "https://img-proxy.imgfo.com/?referer=https://manganelo.com&url=https://s6.mkklcdnv6temp.com/mangakakalot/y1/yatteraneeze/vol6_chapter_17_act_17/58.jpg",
    "https://img-proxy.imgfo.com/?referer=https://manganelo.com&url=https://s6.mkklcdnv6temp.com/mangakakalot/y1/yatteraneeze/vol6_chapter_17_act_17/59.jpg",
    "https://img-proxy.imgfo.com/?referer=https://manganelo.com&url=https://s6.mkklcdnv6temp.com/mangakakalot/y1/yatteraneeze/vol6_chapter_17_act_17/60.jpg",
    "https://img-proxy.imgfo.com/?referer=https://manganelo.com&url=https://s6.mkklcdnv6temp.com/mangakakalot/y1/yatteraneeze/vol6_chapter_17_act_17/61.jpg",
    "https://img-proxy.imgfo.com/?referer=https://manganelo.com&url=https://s6.mkklcdnv6temp.com/mangakakalot/y1/yatteraneeze/vol6_chapter_17_act_17/62.jpg",
    "https://img-proxy.imgfo.com/?referer=https://manganelo.com&url=https://s6.mkklcdnv6temp.com/mangakakalot/y1/yatteraneeze/vol6_chapter_17_act_17/63.jpg",
    "https://img-proxy.imgfo.com/?referer=https://manganelo.com&url=https://s6.mkklcdnv6temp.com/mangakakalot/y1/yatteraneeze/vol6_chapter_17_act_17/64.jpg",
    "https://img-proxy.imgfo.com/?referer=https://manganelo.com&url=https://s6.mkklcdnv6temp.com/mangakakalot/y1/yatteraneeze/vol6_chapter_17_act_17/65.jpg",
    "https://img-proxy.imgfo.com/?referer=https://manganelo.com&url=https://s6.mkklcdnv6temp.com/mangakakalot/y1/yatteraneeze/vol6_chapter_17_act_17/66.jpg",
    "https://img-proxy.imgfo.com/?referer=https://manganelo.com&url=https://s6.mkklcdnv6temp.com/mangakakalot/y1/yatteraneeze/vol6_chapter_17_act_17/67.jpg",
    "https://img-proxy.imgfo.com/?referer=https://manganelo.com&url=https://s6.mkklcdnv6temp.com/mangakakalot/y1/yatteraneeze/vol6_chapter_17_act_17/68.jpg",
    "https://img-proxy.imgfo.com/?referer=https://manganelo.com&url=https://s6.mkklcdnv6temp.com/mangakakalot/y1/yatteraneeze/vol6_chapter_17_act_17/69.jpg",
    "https://img-proxy.imgfo.com/?referer=https://manganelo.com&url=https://s6.mkklcdnv6temp.com/mangakakalot/y1/yatteraneeze/vol6_chapter_17_act_17/70.jpg",
    "https://img-proxy.imgfo.com/?referer=https://manganelo.com&url=https://s6.mkklcdnv6temp.com/mangakakalot/y1/yatteraneeze/vol6_chapter_17_act_17/71.jpg",
    "https://img-proxy.imgfo.com/?referer=https://manganelo.com&url=https://s6.mkklcdnv6temp.com/mangakakalot/y1/yatteraneeze/vol6_chapter_17_act_17/72.jpg",
    "https://img-proxy.imgfo.com/?referer=https://manganelo.com&url=https://s6.mkklcdnv6temp.com/mangakakalot/y1/yatteraneeze/vol6_chapter_17_act_17/73.jpg",
    "https://img-proxy.imgfo.com/?referer=https://manganelo.com&url=https://s6.mkklcdnv6temp.com/mangakakalot/y1/yatteraneeze/vol6_chapter_17_act_17/74.jpg",
    "https://img-proxy.imgfo.com/?referer=https://manganelo.com&url=https://s6.mkklcdnv6temp.com/mangakakalot/y1/yatteraneeze/vol6_chapter_17_act_17/75.jpg"
  ]
}