{
  "cover": "https://avt.mkklcdnv6.com/46/u/4-1583471657.jpg",
  "title": "Noramimi",
  "original": "のらみみ",
  "genre": "Comedy, Seinen, Manga",
  "author": "Hara Kazuo",
  "status": "Completed",
  "backlink": "https://manganu.com/collections/hara-kazuo/noramimi/",
  "description": "From MangaScreener:\nIn the world of Noramimi families frequently have \"mascots\". Funny characters that live with the family and acts as companions to the children until they grow older. Noramimi is one such mascot. Unfortuantely for him, he's of an ogre (well everyone else thinks he's a monk) type and not popular so he's doing his \"home stay\" with Hello Kids, an agency which sets up mascots with families. He really wishes a family would adopt him though...",
  "language": "English",
  "images": [
    "https://img-proxy.imgfo.com/?referer=https://manganelo.com&url=https://s7.mkklcdnv6temp.com/mangakakalot/n2/noramimi/vol3_chapter_24/1.jpg",
    "https://img-proxy.imgfo.com/?referer=https://manganelo.com&url=https://s7.mkklcdnv6temp.com/mangakakalot/n2/noramimi/vol3_chapter_24/2.jpg",
    "https://img-proxy.imgfo.com/?referer=https://manganelo.com&url=https://s7.mkklcdnv6temp.com/mangakakalot/n2/noramimi/vol3_chapter_24/3.jpg",
    "https://img-proxy.imgfo.com/?referer=https://manganelo.com&url=https://s7.mkklcdnv6temp.com/mangakakalot/n2/noramimi/vol3_chapter_24/4.jpg",
    "https://img-proxy.imgfo.com/?referer=https://manganelo.com&url=https://s7.mkklcdnv6temp.com/mangakakalot/n2/noramimi/vol3_chapter_24/5.jpg",
    "https://img-proxy.imgfo.com/?referer=https://manganelo.com&url=https://s7.mkklcdnv6temp.com/mangakakalot/n2/noramimi/vol3_chapter_24/6.jpg",
    "https://img-proxy.imgfo.com/?referer=https://manganelo.com&url=https://s7.mkklcdnv6temp.com/mangakakalot/n2/noramimi/vol3_chapter_24/7.jpg",
    "https://img-proxy.imgfo.com/?referer=https://manganelo.com&url=https://s7.mkklcdnv6temp.com/mangakakalot/n2/noramimi/vol3_chapter_24/8.jpg",
    "https://img-proxy.imgfo.com/?referer=https://manganelo.com&url=https://s7.mkklcdnv6temp.com/mangakakalot/n2/noramimi/vol3_chapter_24/9.jpg",
    "https://img-proxy.imgfo.com/?referer=https://manganelo.com&url=https://s7.mkklcdnv6temp.com/mangakakalot/n2/noramimi/vol3_chapter_24/10.jpg",
    "https://img-proxy.imgfo.com/?referer=https://manganelo.com&url=https://s7.mkklcdnv6temp.com/mangakakalot/n2/noramimi/vol3_chapter_24/11.jpg",
    "https://img-proxy.imgfo.com/?referer=https://manganelo.com&url=https://s7.mkklcdnv6temp.com/mangakakalot/n2/noramimi/vol3_chapter_24/12.jpg",
    "https://img-proxy.imgfo.com/?referer=https://manganelo.com&url=https://s7.mkklcdnv6temp.com/mangakakalot/n2/noramimi/vol3_chapter_24/13.jpg",
    "https://img-proxy.imgfo.com/?referer=https://manganelo.com&url=https://s7.mkklcdnv6temp.com/mangakakalot/n2/noramimi/vol3_chapter_24/14.jpg",
    "https://img-proxy.imgfo.com/?referer=https://manganelo.com&url=https://s7.mkklcdnv6temp.com/mangakakalot/n2/noramimi/vol3_chapter_24/15.jpg",
    "https://img-proxy.imgfo.com/?referer=https://manganelo.com&url=https://s7.mkklcdnv6temp.com/mangakakalot/n2/noramimi/vol3_chapter_24/16.jpg",
    "https://img-proxy.imgfo.com/?referer=https://manganelo.com&url=https://s7.mkklcdnv6temp.com/mangakakalot/n2/noramimi/vol3_chapter_24/17.jpg",
    "https://img-proxy.imgfo.com/?referer=https://manganelo.com&url=https://s7.mkklcdnv6temp.com/mangakakalot/n2/noramimi/vol3_chapter_24/18.jpg",
    "https://img-proxy.imgfo.com/?referer=https://manganelo.com&url=https://s7.mkklcdnv6temp.com/mangakakalot/n2/noramimi/vol3_chapter_24/19.jpg",
    "https://img-proxy.imgfo.com/?referer=https://manganelo.com&url=https://s7.mkklcdnv6temp.com/mangakakalot/n2/noramimi/vol3_chapter_24/20.jpg",
    "https://img-proxy.imgfo.com/?referer=https://manganelo.com&url=https://s7.mkklcdnv6temp.com/mangakakalot/n2/noramimi/vol3_chapter_24/21.jpg",
    "https://img-proxy.imgfo.com/?referer=https://manganelo.com&url=https://s7.mkklcdnv6temp.com/mangakakalot/n2/noramimi/vol3_chapter_24/22.jpg",
    "https://img-proxy.imgfo.com/?referer=https://manganelo.com&url=https://s7.mkklcdnv6temp.com/mangakakalot/n2/noramimi/vol3_chapter_24/23.jpg"
  ]
}