{
  "cover": "https://avt.mkklcdnv6.com/49/s/6-1583476258.jpg",
  "title": "Apocalypse Meow",
  "original": "キャット・シット・ワン ; Cat Shit One",
  "genre": "Action, Drama, Historical, Mature, Seinen, Manga",
  "author": "Kobayashi Motofumi",
  "status": "Completed",
  "backlink": "https://manganu.com/collections/kobayashi-motofumi/apocalypse-meow/",
  "description": "Inside the jungles of Vietnam, a courageous Special Ops. Unit is fighting the most infamous war of decades past the Vietnam War. This bold account follows the brave exploits of Sergeant Perky? Perkins and his unit?of rabbits! Join Rats, Perky and Botaski as they fight against the cats of the Viet Cong. From the Tet Offensive to the My Canh bombing, watch these commando-style bunnies through an anthropomorphic lens as events unfold and violence erupts.\nOn-human cast of characters notwithstanding, this compelling and painstakingly-researched work places an emphasis on factualism in order to accurately portray the events of the Vietnam War. With a fresh perspective on one of history's greatest calamities, Apocalypse Meow is a daring new take on a conflict that won't soon be forgotten especially after these young rabbits are done!",
  "language": "English",
  "images": [
    "https://img-proxy.imgfo.com/?referer=https://manganelo.com&url=https://s5.mkklcdnv6temp.com/mangakakalot/a2/apocalypse_meow/vol1_chapter_8_rr/1.jpg",
    "https://img-proxy.imgfo.com/?referer=https://manganelo.com&url=https://s5.mkklcdnv6temp.com/mangakakalot/a2/apocalypse_meow/vol1_chapter_8_rr/2.jpg",
    "https://img-proxy.imgfo.com/?referer=https://manganelo.com&url=https://s5.mkklcdnv6temp.com/mangakakalot/a2/apocalypse_meow/vol1_chapter_8_rr/3.jpg",
    "https://img-proxy.imgfo.com/?referer=https://manganelo.com&url=https://s5.mkklcdnv6temp.com/mangakakalot/a2/apocalypse_meow/vol1_chapter_8_rr/4.jpg",
    "https://img-proxy.imgfo.com/?referer=https://manganelo.com&url=https://s5.mkklcdnv6temp.com/mangakakalot/a2/apocalypse_meow/vol1_chapter_8_rr/5.jpg",
    "https://img-proxy.imgfo.com/?referer=https://manganelo.com&url=https://s5.mkklcdnv6temp.com/mangakakalot/a2/apocalypse_meow/vol1_chapter_8_rr/6.jpg",
    "https://img-proxy.imgfo.com/?referer=https://manganelo.com&url=https://s5.mkklcdnv6temp.com/mangakakalot/a2/apocalypse_meow/vol1_chapter_8_rr/7.jpg",
    "https://img-proxy.imgfo.com/?referer=https://manganelo.com&url=https://s5.mkklcdnv6temp.com/mangakakalot/a2/apocalypse_meow/vol1_chapter_8_rr/8.jpg",
    "https://img-proxy.imgfo.com/?referer=https://manganelo.com&url=https://s5.mkklcdnv6temp.com/mangakakalot/a2/apocalypse_meow/vol1_chapter_8_rr/9.jpg",
    "https://img-proxy.imgfo.com/?referer=https://manganelo.com&url=https://s5.mkklcdnv6temp.com/mangakakalot/a2/apocalypse_meow/vol1_chapter_8_rr/10.jpg",
    "https://img-proxy.imgfo.com/?referer=https://manganelo.com&url=https://s5.mkklcdnv6temp.com/mangakakalot/a2/apocalypse_meow/vol1_chapter_8_rr/11.jpg",
    "https://img-proxy.imgfo.com/?referer=https://manganelo.com&url=https://s5.mkklcdnv6temp.com/mangakakalot/a2/apocalypse_meow/vol1_chapter_8_rr/12.jpg",
    "https://img-proxy.imgfo.com/?referer=https://manganelo.com&url=https://s5.mkklcdnv6temp.com/mangakakalot/a2/apocalypse_meow/vol1_chapter_8_rr/13.jpg"
  ]
}