{
  "cover": "https://avt.mkklcdnv6.com/40/t/15-1583493129.jpg",
  "title": "Jigoku",
  "original": "地獄 ; 新装版地獄 西岡兄妹自選作品集 ; Hell",
  "genre": "Psychological, Seinen, Manga",
  "author": "Nishioka Kyoudai",
  "status": "Completed",
  "backlink": "https://manganu.com/collections/nishioka-kyoudai/jigoku/",
  "description": "Weird, tripped-out Japanese comics. Subtly twisted, delicately detailed but with a strong line, with elongated bodies and shades of Art Deco. Somewhat reminiscent of both Gorey and Dali by way of Edvard Munch, but the style is unique and distinctive and very much the artist's own. About as far as you can get from manga and still be in the same country.",
  "language": "English",
  "images": [
    "https://img-proxy.imgfo.com/?referer=https://manganelo.com&url=https://s7.mkklcdnv6temp.com/mangakakalot/j1/jigoku/vol1_chapter_11_hell/1.jpg",
    "https://img-proxy.imgfo.com/?referer=https://manganelo.com&url=https://s7.mkklcdnv6temp.com/mangakakalot/j1/jigoku/vol1_chapter_11_hell/2.jpg",
    "https://img-proxy.imgfo.com/?referer=https://manganelo.com&url=https://s7.mkklcdnv6temp.com/mangakakalot/j1/jigoku/vol1_chapter_11_hell/3.jpg",
    "https://img-proxy.imgfo.com/?referer=https://manganelo.com&url=https://s7.mkklcdnv6temp.com/mangakakalot/j1/jigoku/vol1_chapter_11_hell/4.jpg",
    "https://img-proxy.imgfo.com/?referer=https://manganelo.com&url=https://s7.mkklcdnv6temp.com/mangakakalot/j1/jigoku/vol1_chapter_11_hell/5.jpg",
    "https://img-proxy.imgfo.com/?referer=https://manganelo.com&url=https://s7.mkklcdnv6temp.com/mangakakalot/j1/jigoku/vol1_chapter_11_hell/6.jpg",
    "https://img-proxy.imgfo.com/?referer=https://manganelo.com&url=https://s7.mkklcdnv6temp.com/mangakakalot/j1/jigoku/vol1_chapter_11_hell/7.jpg",
    "https://img-proxy.imgfo.com/?referer=https://manganelo.com&url=https://s7.mkklcdnv6temp.com/mangakakalot/j1/jigoku/vol1_chapter_11_hell/8.jpg",
    "https://img-proxy.imgfo.com/?referer=https://manganelo.com&url=https://s7.mkklcdnv6temp.com/mangakakalot/j1/jigoku/vol1_chapter_11_hell/9.jpg",
    "https://img-proxy.imgfo.com/?referer=https://manganelo.com&url=https://s7.mkklcdnv6temp.com/mangakakalot/j1/jigoku/vol1_chapter_11_hell/10.jpg",
    "https://img-proxy.imgfo.com/?referer=https://manganelo.com&url=https://s7.mkklcdnv6temp.com/mangakakalot/j1/jigoku/vol1_chapter_11_hell/11.jpg",
    "https://img-proxy.imgfo.com/?referer=https://manganelo.com&url=https://s7.mkklcdnv6temp.com/mangakakalot/j1/jigoku/vol1_chapter_11_hell/12.jpg",
    "https://img-proxy.imgfo.com/?referer=https://manganelo.com&url=https://s7.mkklcdnv6temp.com/mangakakalot/j1/jigoku/vol1_chapter_11_hell/13.jpg",
    "https://img-proxy.imgfo.com/?referer=https://manganelo.com&url=https://s7.mkklcdnv6temp.com/mangakakalot/j1/jigoku/vol1_chapter_11_hell/14.jpg",
    "https://img-proxy.imgfo.com/?referer=https://manganelo.com&url=https://s7.mkklcdnv6temp.com/mangakakalot/j1/jigoku/vol1_chapter_11_hell/15.jpg",
    "https://img-proxy.imgfo.com/?referer=https://manganelo.com&url=https://s7.mkklcdnv6temp.com/mangakakalot/j1/jigoku/vol1_chapter_11_hell/16.jpg",
    "https://img-proxy.imgfo.com/?referer=https://manganelo.com&url=https://s7.mkklcdnv6temp.com/mangakakalot/j1/jigoku/vol1_chapter_11_hell/17.jpg"
  ]
}