{
  "cover": "https://avt.mkklcdnv6.com/4/y/5-1583472036.jpg",
  "title": "Souten No Ken",
  "original": "苍天之拳 ; 蒼天の拳 ; Fist of the Blue Sky ; Thương Thiên Chi Quyền",
  "genre": "Action, Adventure, Comedy, Historical, Martial arts, Romance, Seinen, Manga",
  "author": "Buronson",
  "status": "Completed",
  "backlink": "https://manganu.com/collections/buronson/souten-no-ken/",
  "description": "Taking place in 1930s Japan and China, Kasumi Kenshiro (the uncle of the lead from Hokuto no Ken) is forced to leave his teaching job and settle an old gang rivalry with the help of his martial arts. Along the way, he meets the son of one his triad buddies, an old flame, and a mysterious old man who teaches him new techniques which will assist him in his quest.",
  "language": "English",
  "images": [
    "https://img-proxy.imgfo.com/?referer=https://manganelo.com&url=https://s3.mkklcdnv6temp.com/mangakakalot/s2/souten_no_ken/vol13_chapter_144_the_final_messenger/1.jpg",
    "https://img-proxy.imgfo.com/?referer=https://manganelo.com&url=https://s3.mkklcdnv6temp.com/mangakakalot/s2/souten_no_ken/vol13_chapter_144_the_final_messenger/2.jpg",
    "https://img-proxy.imgfo.com/?referer=https://manganelo.com&url=https://s3.mkklcdnv6temp.com/mangakakalot/s2/souten_no_ken/vol13_chapter_144_the_final_messenger/3.jpg",
    "https://img-proxy.imgfo.com/?referer=https://manganelo.com&url=https://s3.mkklcdnv6temp.com/mangakakalot/s2/souten_no_ken/vol13_chapter_144_the_final_messenger/4.jpg",
    "https://img-proxy.imgfo.com/?referer=https://manganelo.com&url=https://s3.mkklcdnv6temp.com/mangakakalot/s2/souten_no_ken/vol13_chapter_144_the_final_messenger/5.jpg",
    "https://img-proxy.imgfo.com/?referer=https://manganelo.com&url=https://s3.mkklcdnv6temp.com/mangakakalot/s2/souten_no_ken/vol13_chapter_144_the_final_messenger/6.jpg",
    "https://img-proxy.imgfo.com/?referer=https://manganelo.com&url=https://s3.mkklcdnv6temp.com/mangakakalot/s2/souten_no_ken/vol13_chapter_144_the_final_messenger/7.jpg",
    "https://img-proxy.imgfo.com/?referer=https://manganelo.com&url=https://s3.mkklcdnv6temp.com/mangakakalot/s2/souten_no_ken/vol13_chapter_144_the_final_messenger/8.jpg",
    "https://img-proxy.imgfo.com/?referer=https://manganelo.com&url=https://s3.mkklcdnv6temp.com/mangakakalot/s2/souten_no_ken/vol13_chapter_144_the_final_messenger/9.jpg",
    "https://img-proxy.imgfo.com/?referer=https://manganelo.com&url=https://s3.mkklcdnv6temp.com/mangakakalot/s2/souten_no_ken/vol13_chapter_144_the_final_messenger/10.jpg",
    "https://img-proxy.imgfo.com/?referer=https://manganelo.com&url=https://s3.mkklcdnv6temp.com/mangakakalot/s2/souten_no_ken/vol13_chapter_144_the_final_messenger/11.jpg",
    "https://img-proxy.imgfo.com/?referer=https://manganelo.com&url=https://s3.mkklcdnv6temp.com/mangakakalot/s2/souten_no_ken/vol13_chapter_144_the_final_messenger/12.jpg",
    "https://img-proxy.imgfo.com/?referer=https://manganelo.com&url=https://s3.mkklcdnv6temp.com/mangakakalot/s2/souten_no_ken/vol13_chapter_144_the_final_messenger/13.jpg",
    "https://img-proxy.imgfo.com/?referer=https://manganelo.com&url=https://s3.mkklcdnv6temp.com/mangakakalot/s2/souten_no_ken/vol13_chapter_144_the_final_messenger/14.jpg",
    "https://img-proxy.imgfo.com/?referer=https://manganelo.com&url=https://s3.mkklcdnv6temp.com/mangakakalot/s2/souten_no_ken/vol13_chapter_144_the_final_messenger/15.jpg"
  ]
}