{
  "cover": "https://avt.mkklcdnv6.com/24/f/3-1583468627.jpg",
  "title": "Half & Half",
  "original": "ハーフ・アンド・ハーフ ; 一半的另一半 ; 하프 앤 하프 ; Half and Half",
  "genre": "Drama, Gender bender, Romance, Shoujo, Manga",
  "author": "Nanami Mao",
  "status": "Completed",
  "backlink": "https://manganu.com/collections/nanami-mao/half-and-half/",
  "description": "Our heroine is girl named Hina-chan. She is in her 20s. Hina has a handsome boyfriend now, but she will always remember her first love, a boy named Itsuki. When other kids would tease Hina, calling her ugly, Itsuki would defend her, and try to cheer her up and make her feel better. He and some of his family eventually moved away, leaving Hina heartbroken. But the memory of her first love will always make Hina feel nostalgic and happy inside. Itsuki's grandmother still lives next door to Hina, so she still has a connection to him, somehow.\nOne day, Hina has a dream of Itsuki, and she is feeling especially nostalgic about him. She is just mentioning her dream to his grandmother, when they are interrupted by the arrival of a stranger. It is a tall, beautiful woman. Wait a minute… it's Itsuki! Itsuki is not joking, either. She explains that she is really a woman on the inside, and now she is dressing that way on the outside.\nHina finds herself falling in love with Itsuki, regardless of Itsuki's gender. But Itsuki is only attracted to men. Will Hina end up heartbroken all over again?",
  "language": "English",
  "images": [
    "https://img-proxy.imgfo.com/?referer=https://manganelo.com&url=https://s41.mkklcdnv6temp.com/mangakakalot/h1/half_half/vol1_chapter_10_dont_worry/1.jpg",
    "https://img-proxy.imgfo.com/?referer=https://manganelo.com&url=https://s41.mkklcdnv6temp.com/mangakakalot/h1/half_half/vol1_chapter_10_dont_worry/2.jpg",
    "https://img-proxy.imgfo.com/?referer=https://manganelo.com&url=https://s41.mkklcdnv6temp.com/mangakakalot/h1/half_half/vol1_chapter_10_dont_worry/3.jpg",
    "https://img-proxy.imgfo.com/?referer=https://manganelo.com&url=https://s41.mkklcdnv6temp.com/mangakakalot/h1/half_half/vol1_chapter_10_dont_worry/4.jpg",
    "https://img-proxy.imgfo.com/?referer=https://manganelo.com&url=https://s41.mkklcdnv6temp.com/mangakakalot/h1/half_half/vol1_chapter_10_dont_worry/5.jpg",
    "https://img-proxy.imgfo.com/?referer=https://manganelo.com&url=https://s41.mkklcdnv6temp.com/mangakakalot/h1/half_half/vol1_chapter_10_dont_worry/6.jpg",
    "https://img-proxy.imgfo.com/?referer=https://manganelo.com&url=https://s41.mkklcdnv6temp.com/mangakakalot/h1/half_half/vol1_chapter_10_dont_worry/7.jpg",
    "https://img-proxy.imgfo.com/?referer=https://manganelo.com&url=https://s41.mkklcdnv6temp.com/mangakakalot/h1/half_half/vol1_chapter_10_dont_worry/8.jpg",
    "https://img-proxy.imgfo.com/?referer=https://manganelo.com&url=https://s41.mkklcdnv6temp.com/mangakakalot/h1/half_half/vol1_chapter_10_dont_worry/9.jpg",
    "https://img-proxy.imgfo.com/?referer=https://manganelo.com&url=https://s41.mkklcdnv6temp.com/mangakakalot/h1/half_half/vol1_chapter_10_dont_worry/10.jpg",
    "https://img-proxy.imgfo.com/?referer=https://manganelo.com&url=https://s41.mkklcdnv6temp.com/mangakakalot/h1/half_half/vol1_chapter_10_dont_worry/11.jpg",
    "https://img-proxy.imgfo.com/?referer=https://manganelo.com&url=https://s41.mkklcdnv6temp.com/mangakakalot/h1/half_half/vol1_chapter_10_dont_worry/12.jpg",
    "https://img-proxy.imgfo.com/?referer=https://manganelo.com&url=https://s41.mkklcdnv6temp.com/mangakakalot/h1/half_half/vol1_chapter_10_dont_worry/13.jpg",
    "https://img-proxy.imgfo.com/?referer=https://manganelo.com&url=https://s41.mkklcdnv6temp.com/mangakakalot/h1/half_half/vol1_chapter_10_dont_worry/14.jpg",
    "https://img-proxy.imgfo.com/?referer=https://manganelo.com&url=https://s41.mkklcdnv6temp.com/mangakakalot/h1/half_half/vol1_chapter_10_dont_worry/15.jpg",
    "https://img-proxy.imgfo.com/?referer=https://manganelo.com&url=https://s41.mkklcdnv6temp.com/mangakakalot/h1/half_half/vol1_chapter_10_dont_worry/16.jpg",
    "https://img-proxy.imgfo.com/?referer=https://manganelo.com&url=https://s41.mkklcdnv6temp.com/mangakakalot/h1/half_half/vol1_chapter_10_dont_worry/17.jpg",
    "https://img-proxy.imgfo.com/?referer=https://manganelo.com&url=https://s41.mkklcdnv6temp.com/mangakakalot/h1/half_half/vol1_chapter_10_dont_worry/18.jpg",
    "https://img-proxy.imgfo.com/?referer=https://manganelo.com&url=https://s41.mkklcdnv6temp.com/mangakakalot/h1/half_half/vol1_chapter_10_dont_worry/19.jpg",
    "https://img-proxy.imgfo.com/?referer=https://manganelo.com&url=https://s41.mkklcdnv6temp.com/mangakakalot/h1/half_half/vol1_chapter_10_dont_worry/20.jpg",
    "https://img-proxy.imgfo.com/?referer=https://manganelo.com&url=https://s41.mkklcdnv6temp.com/mangakakalot/h1/half_half/vol1_chapter_10_dont_worry/21.jpg",
    "https://img-proxy.imgfo.com/?referer=https://manganelo.com&url=https://s41.mkklcdnv6temp.com/mangakakalot/h1/half_half/vol1_chapter_10_dont_worry/22.jpg",
    "https://img-proxy.imgfo.com/?referer=https://manganelo.com&url=https://s41.mkklcdnv6temp.com/mangakakalot/h1/half_half/vol1_chapter_10_dont_worry/23.jpg",
    "https://img-proxy.imgfo.com/?referer=https://manganelo.com&url=https://s41.mkklcdnv6temp.com/mangakakalot/h1/half_half/vol1_chapter_10_dont_worry/24.jpg",
    "https://img-proxy.imgfo.com/?referer=https://manganelo.com&url=https://s41.mkklcdnv6temp.com/mangakakalot/h1/half_half/vol1_chapter_10_dont_worry/25.jpg",
    "https://img-proxy.imgfo.com/?referer=https://manganelo.com&url=https://s41.mkklcdnv6temp.com/mangakakalot/h1/half_half/vol1_chapter_10_dont_worry/26.jpg"
  ]
}