{
  "cover": "https://avt.mkklcdnv6.com/18/y/4-1583470446.jpg",
  "title": "Gacha Gacha",
  "original": "ガチャガチャ ; 恋爱风波 ; GachaGacha ; GachaX2",
  "genre": "Comedy, Ecchi, Fantasy, Gender bender, Harem, Romance, Shounen, Manga",
  "author": "Tamakoshi Hiroyuki",
  "status": "Completed",
  "backlink": "https://manganu.com/collections/tamakoshi-hiroyuki/gacha-gacha/",
  "description": "Do not confuse with Gaccha Gacha.\nLately, Kouhei can't get his friend Kurara out of his mind. Even though he has known her since elementary school, all of a sudden, ever since she came back from summer vacation, he has been crushing on her . . . hard.\nBut something is different about Kurara-she's acting very oddly. Sometimes she seems wholesome, pure, and innocent, and at other times she is extremely forward and unabashed. Kouhei soon learns that Kurara has multiple personalities-and decides to help her keep her secret from their classmates. But Kouhei finds himself struggling between helping Kurara as a friend and trying to win her heart . . . which is a challenge, since she has many!\nVolumes 1-5 are the first story arc. Starting from volume 6, a whole new set of characters take the story off in another direction. Because of this, the chapter numbers were restarted back to 1 for the first chapter of volume 6.\nFrom Taruby:\nThere are two stories, \"Capsule\" and \"Secret\", so far in the GachaGacha series. This summary is about the 6 volumes of the\"Secret\" story arc.\nHatsushiba Akira, an awkward senior highschool boy, has a strong crush on classmate Sakuraba Yurika. But when he gets close to her he always says or does something stupid.\nAt the suggestion of his best friend, Kikuchi, Akira enters the GachaGacha machine to play a game, but the machine fritzes out and malfunctions. That night he sneezes while going to bed, and when he wakes up he looks like the female avatar he saw in the GachaX2. He soon learns that sneezing will change him back and forth from his normal self to a female form. As a girl, Akira-chan is able to get close to Sakuraba and become her friend.",
  "language": "English",
  "images": [
    "https://img-proxy.imgfo.com/?referer=https://manganelo.com&url=https://s6.mkklcdnv6temp.com/mangakakalot/g1/gacha_gacha/vol15_chapter_47_failure_escape_mufufu_plan/1.jpg",
    "https://img-proxy.imgfo.com/?referer=https://manganelo.com&url=https://s6.mkklcdnv6temp.com/mangakakalot/g1/gacha_gacha/vol15_chapter_47_failure_escape_mufufu_plan/2.jpg",
    "https://img-proxy.imgfo.com/?referer=https://manganelo.com&url=https://s6.mkklcdnv6temp.com/mangakakalot/g1/gacha_gacha/vol15_chapter_47_failure_escape_mufufu_plan/3.jpg",
    "https://img-proxy.imgfo.com/?referer=https://manganelo.com&url=https://s6.mkklcdnv6temp.com/mangakakalot/g1/gacha_gacha/vol15_chapter_47_failure_escape_mufufu_plan/4.jpg",
    "https://img-proxy.imgfo.com/?referer=https://manganelo.com&url=https://s6.mkklcdnv6temp.com/mangakakalot/g1/gacha_gacha/vol15_chapter_47_failure_escape_mufufu_plan/5.jpg",
    "https://img-proxy.imgfo.com/?referer=https://manganelo.com&url=https://s6.mkklcdnv6temp.com/mangakakalot/g1/gacha_gacha/vol15_chapter_47_failure_escape_mufufu_plan/6.jpg",
    "https://img-proxy.imgfo.com/?referer=https://manganelo.com&url=https://s6.mkklcdnv6temp.com/mangakakalot/g1/gacha_gacha/vol15_chapter_47_failure_escape_mufufu_plan/7.jpg",
    "https://img-proxy.imgfo.com/?referer=https://manganelo.com&url=https://s6.mkklcdnv6temp.com/mangakakalot/g1/gacha_gacha/vol15_chapter_47_failure_escape_mufufu_plan/8.jpg",
    "https://img-proxy.imgfo.com/?referer=https://manganelo.com&url=https://s6.mkklcdnv6temp.com/mangakakalot/g1/gacha_gacha/vol15_chapter_47_failure_escape_mufufu_plan/9.jpg",
    "https://img-proxy.imgfo.com/?referer=https://manganelo.com&url=https://s6.mkklcdnv6temp.com/mangakakalot/g1/gacha_gacha/vol15_chapter_47_failure_escape_mufufu_plan/10.jpg",
    "https://img-proxy.imgfo.com/?referer=https://manganelo.com&url=https://s6.mkklcdnv6temp.com/mangakakalot/g1/gacha_gacha/vol15_chapter_47_failure_escape_mufufu_plan/11.jpg",
    "https://img-proxy.imgfo.com/?referer=https://manganelo.com&url=https://s6.mkklcdnv6temp.com/mangakakalot/g1/gacha_gacha/vol15_chapter_47_failure_escape_mufufu_plan/12.jpg",
    "https://img-proxy.imgfo.com/?referer=https://manganelo.com&url=https://s6.mkklcdnv6temp.com/mangakakalot/g1/gacha_gacha/vol15_chapter_47_failure_escape_mufufu_plan/13.jpg",
    "https://img-proxy.imgfo.com/?referer=https://manganelo.com&url=https://s6.mkklcdnv6temp.com/mangakakalot/g1/gacha_gacha/vol15_chapter_47_failure_escape_mufufu_plan/14.jpg",
    "https://img-proxy.imgfo.com/?referer=https://manganelo.com&url=https://s6.mkklcdnv6temp.com/mangakakalot/g1/gacha_gacha/vol15_chapter_47_failure_escape_mufufu_plan/15.jpg",
    "https://img-proxy.imgfo.com/?referer=https://manganelo.com&url=https://s6.mkklcdnv6temp.com/mangakakalot/g1/gacha_gacha/vol15_chapter_47_failure_escape_mufufu_plan/16.jpg",
    "https://img-proxy.imgfo.com/?referer=https://manganelo.com&url=https://s6.mkklcdnv6temp.com/mangakakalot/g1/gacha_gacha/vol15_chapter_47_failure_escape_mufufu_plan/17.jpg",
    "https://img-proxy.imgfo.com/?referer=https://manganelo.com&url=https://s6.mkklcdnv6temp.com/mangakakalot/g1/gacha_gacha/vol15_chapter_47_failure_escape_mufufu_plan/18.jpg",
    "https://img-proxy.imgfo.com/?referer=https://manganelo.com&url=https://s6.mkklcdnv6temp.com/mangakakalot/g1/gacha_gacha/vol15_chapter_47_failure_escape_mufufu_plan/19.jpg",
    "https://img-proxy.imgfo.com/?referer=https://manganelo.com&url=https://s6.mkklcdnv6temp.com/mangakakalot/g1/gacha_gacha/vol15_chapter_47_failure_escape_mufufu_plan/20.jpg",
    "https://img-proxy.imgfo.com/?referer=https://manganelo.com&url=https://s6.mkklcdnv6temp.com/mangakakalot/g1/gacha_gacha/vol15_chapter_47_failure_escape_mufufu_plan/21.jpg",
    "https://img-proxy.imgfo.com/?referer=https://manganelo.com&url=https://s6.mkklcdnv6temp.com/mangakakalot/g1/gacha_gacha/vol15_chapter_47_failure_escape_mufufu_plan/22.jpg",
    "https://img-proxy.imgfo.com/?referer=https://manganelo.com&url=https://s6.mkklcdnv6temp.com/mangakakalot/g1/gacha_gacha/vol15_chapter_47_failure_escape_mufufu_plan/23.jpg",
    "https://img-proxy.imgfo.com/?referer=https://manganelo.com&url=https://s6.mkklcdnv6temp.com/mangakakalot/g1/gacha_gacha/vol15_chapter_47_failure_escape_mufufu_plan/24.jpg",
    "https://img-proxy.imgfo.com/?referer=https://manganelo.com&url=https://s6.mkklcdnv6temp.com/mangakakalot/g1/gacha_gacha/vol15_chapter_47_failure_escape_mufufu_plan/25.jpg",
    "https://img-proxy.imgfo.com/?referer=https://manganelo.com&url=https://s6.mkklcdnv6temp.com/mangakakalot/g1/gacha_gacha/vol15_chapter_47_failure_escape_mufufu_plan/26.jpg",
    "https://img-proxy.imgfo.com/?referer=https://manganelo.com&url=https://s6.mkklcdnv6temp.com/mangakakalot/g1/gacha_gacha/vol15_chapter_47_failure_escape_mufufu_plan/27.jpg",
    "https://img-proxy.imgfo.com/?referer=https://manganelo.com&url=https://s6.mkklcdnv6temp.com/mangakakalot/g1/gacha_gacha/vol15_chapter_47_failure_escape_mufufu_plan/28.jpg",
    "https://img-proxy.imgfo.com/?referer=https://manganelo.com&url=https://s6.mkklcdnv6temp.com/mangakakalot/g1/gacha_gacha/vol15_chapter_47_failure_escape_mufufu_plan/29.jpg",
    "https://img-proxy.imgfo.com/?referer=https://manganelo.com&url=https://s6.mkklcdnv6temp.com/mangakakalot/g1/gacha_gacha/vol15_chapter_47_failure_escape_mufufu_plan/30.jpg",
    "https://img-proxy.imgfo.com/?referer=https://manganelo.com&url=https://s6.mkklcdnv6temp.com/mangakakalot/g1/gacha_gacha/vol15_chapter_47_failure_escape_mufufu_plan/31.jpg",
    "https://img-proxy.imgfo.com/?referer=https://manganelo.com&url=https://s6.mkklcdnv6temp.com/mangakakalot/g1/gacha_gacha/vol15_chapter_47_failure_escape_mufufu_plan/32.jpg",
    "https://img-proxy.imgfo.com/?referer=https://manganelo.com&url=https://s6.mkklcdnv6temp.com/mangakakalot/g1/gacha_gacha/vol15_chapter_47_failure_escape_mufufu_plan/33.jpg",
    "https://img-proxy.imgfo.com/?referer=https://manganelo.com&url=https://s6.mkklcdnv6temp.com/mangakakalot/g1/gacha_gacha/vol15_chapter_47_failure_escape_mufufu_plan/34.jpg",
    "https://img-proxy.imgfo.com/?referer=https://manganelo.com&url=https://s6.mkklcdnv6temp.com/mangakakalot/g1/gacha_gacha/vol15_chapter_47_failure_escape_mufufu_plan/35.jpg",
    "https://img-proxy.imgfo.com/?referer=https://manganelo.com&url=https://s6.mkklcdnv6temp.com/mangakakalot/g1/gacha_gacha/vol15_chapter_47_failure_escape_mufufu_plan/36.jpg",
    "https://img-proxy.imgfo.com/?referer=https://manganelo.com&url=https://s6.mkklcdnv6temp.com/mangakakalot/g1/gacha_gacha/vol15_chapter_47_failure_escape_mufufu_plan/37.jpg"
  ]
}