{
  "cover": "https://avt.mkklcdnv6.com/19/m/13-1583488452.jpg",
  "title": "Hana Wa Junai Ni Junjiru",
  "original": "花は純愛に殉じる ; Flower That’s Sacrificed to Pure Love",
  "genre": "Drama, Historical, Romance, Yaoi, Manga",
  "author": "Kuibira Harumo",
  "status": "Completed",
  "backlink": "https://manganu.com/collections/kuibira-harumo/hana-wa-junai-ni-junjiru/",
  "description": "From Blissful Sin:\nAt the mansion where his father worked as a gardener, young Daniel met Tsubaki, who was destined to become a \"Hana\", an official prostitute that serves only the royalty and nobles. In order to have Tsubaki, Daniel went to England to further his studies, and eventually won the highest accolates for a gardener. Coming back to his motherland, Alexxa, after fifteen long years to receive his peerage, he finds that...",
  "language": "English",
  "images": [
    "https://img-proxy.imgfo.com/?referer=https://manganelo.com&url=https://s6.mkklcdnv6temp.com/mangakakalot/h1/hana_wa_junai_ni_junjiru/vol1_chapter_7/1.jpg",
    "https://img-proxy.imgfo.com/?referer=https://manganelo.com&url=https://s6.mkklcdnv6temp.com/mangakakalot/h1/hana_wa_junai_ni_junjiru/vol1_chapter_7/2.jpg",
    "https://img-proxy.imgfo.com/?referer=https://manganelo.com&url=https://s6.mkklcdnv6temp.com/mangakakalot/h1/hana_wa_junai_ni_junjiru/vol1_chapter_7/3.jpg",
    "https://img-proxy.imgfo.com/?referer=https://manganelo.com&url=https://s6.mkklcdnv6temp.com/mangakakalot/h1/hana_wa_junai_ni_junjiru/vol1_chapter_7/4.jpg",
    "https://img-proxy.imgfo.com/?referer=https://manganelo.com&url=https://s6.mkklcdnv6temp.com/mangakakalot/h1/hana_wa_junai_ni_junjiru/vol1_chapter_7/5.jpg",
    "https://img-proxy.imgfo.com/?referer=https://manganelo.com&url=https://s6.mkklcdnv6temp.com/mangakakalot/h1/hana_wa_junai_ni_junjiru/vol1_chapter_7/6.jpg",
    "https://img-proxy.imgfo.com/?referer=https://manganelo.com&url=https://s6.mkklcdnv6temp.com/mangakakalot/h1/hana_wa_junai_ni_junjiru/vol1_chapter_7/7.jpg",
    "https://img-proxy.imgfo.com/?referer=https://manganelo.com&url=https://s6.mkklcdnv6temp.com/mangakakalot/h1/hana_wa_junai_ni_junjiru/vol1_chapter_7/8.jpg",
    "https://img-proxy.imgfo.com/?referer=https://manganelo.com&url=https://s6.mkklcdnv6temp.com/mangakakalot/h1/hana_wa_junai_ni_junjiru/vol1_chapter_7/9.jpg",
    "https://img-proxy.imgfo.com/?referer=https://manganelo.com&url=https://s6.mkklcdnv6temp.com/mangakakalot/h1/hana_wa_junai_ni_junjiru/vol1_chapter_7/10.jpg",
    "https://img-proxy.imgfo.com/?referer=https://manganelo.com&url=https://s6.mkklcdnv6temp.com/mangakakalot/h1/hana_wa_junai_ni_junjiru/vol1_chapter_7/11.jpg",
    "https://img-proxy.imgfo.com/?referer=https://manganelo.com&url=https://s6.mkklcdnv6temp.com/mangakakalot/h1/hana_wa_junai_ni_junjiru/vol1_chapter_7/12.jpg"
  ]
}