{
  "cover": "https://avt.mkklcdnv6.com/34/t/1-1583465064.jpg",
  "title": "Midnight",
  "original": "ミッドナイト",
  "genre": "Drama, Shounen, Manga",
  "author": "Tezuka Osamu",
  "status": "Completed",
  "backlink": "https://manganu.com/collections/tezuka-osamu/midnight/",
  "description": "Midnight is the story of a taxi driver named Shinya Mito (whose name is literally Japanese for \"mid\" and \"night\") and his various passengers, each of whom he helps in various ways. Shinya drives a taxi as a way to earn money for the treatment of a young woman named Mari, whose brain was injured sometime earlier as the result of an accident Shinya was responsible for causing. The taxi Shinya drives is equipped with a fifth wheel which makes the car more maneuverable under any kind of road conditions.",
  "language": "English",
  "images": [
    "https://img-proxy.imgfo.com/?referer=https://manganelo.com&url=https://s7.mkklcdnv6temp.com/mangakakalot/m1/midnight/vol6_chapter_50_act50/1.jpg",
    "https://img-proxy.imgfo.com/?referer=https://manganelo.com&url=https://s7.mkklcdnv6temp.com/mangakakalot/m1/midnight/vol6_chapter_50_act50/2.jpg",
    "https://img-proxy.imgfo.com/?referer=https://manganelo.com&url=https://s7.mkklcdnv6temp.com/mangakakalot/m1/midnight/vol6_chapter_50_act50/3.jpg",
    "https://img-proxy.imgfo.com/?referer=https://manganelo.com&url=https://s7.mkklcdnv6temp.com/mangakakalot/m1/midnight/vol6_chapter_50_act50/4.jpg",
    "https://img-proxy.imgfo.com/?referer=https://manganelo.com&url=https://s7.mkklcdnv6temp.com/mangakakalot/m1/midnight/vol6_chapter_50_act50/5.jpg",
    "https://img-proxy.imgfo.com/?referer=https://manganelo.com&url=https://s7.mkklcdnv6temp.com/mangakakalot/m1/midnight/vol6_chapter_50_act50/6.jpg",
    "https://img-proxy.imgfo.com/?referer=https://manganelo.com&url=https://s7.mkklcdnv6temp.com/mangakakalot/m1/midnight/vol6_chapter_50_act50/7.jpg",
    "https://img-proxy.imgfo.com/?referer=https://manganelo.com&url=https://s7.mkklcdnv6temp.com/mangakakalot/m1/midnight/vol6_chapter_50_act50/8.jpg",
    "https://img-proxy.imgfo.com/?referer=https://manganelo.com&url=https://s7.mkklcdnv6temp.com/mangakakalot/m1/midnight/vol6_chapter_50_act50/9.jpg",
    "https://img-proxy.imgfo.com/?referer=https://manganelo.com&url=https://s7.mkklcdnv6temp.com/mangakakalot/m1/midnight/vol6_chapter_50_act50/10.jpg",
    "https://img-proxy.imgfo.com/?referer=https://manganelo.com&url=https://s7.mkklcdnv6temp.com/mangakakalot/m1/midnight/vol6_chapter_50_act50/11.jpg",
    "https://img-proxy.imgfo.com/?referer=https://manganelo.com&url=https://s7.mkklcdnv6temp.com/mangakakalot/m1/midnight/vol6_chapter_50_act50/12.jpg",
    "https://img-proxy.imgfo.com/?referer=https://manganelo.com&url=https://s7.mkklcdnv6temp.com/mangakakalot/m1/midnight/vol6_chapter_50_act50/13.jpg",
    "https://img-proxy.imgfo.com/?referer=https://manganelo.com&url=https://s7.mkklcdnv6temp.com/mangakakalot/m1/midnight/vol6_chapter_50_act50/14.jpg",
    "https://img-proxy.imgfo.com/?referer=https://manganelo.com&url=https://s7.mkklcdnv6temp.com/mangakakalot/m1/midnight/vol6_chapter_50_act50/15.jpg",
    "https://img-proxy.imgfo.com/?referer=https://manganelo.com&url=https://s7.mkklcdnv6temp.com/mangakakalot/m1/midnight/vol6_chapter_50_act50/16.jpg",
    "https://img-proxy.imgfo.com/?referer=https://manganelo.com&url=https://s7.mkklcdnv6temp.com/mangakakalot/m1/midnight/vol6_chapter_50_act50/17.jpg",
    "https://img-proxy.imgfo.com/?referer=https://manganelo.com&url=https://s7.mkklcdnv6temp.com/mangakakalot/m1/midnight/vol6_chapter_50_act50/18.jpg",
    "https://img-proxy.imgfo.com/?referer=https://manganelo.com&url=https://s7.mkklcdnv6temp.com/mangakakalot/m1/midnight/vol6_chapter_50_act50/19.jpg",
    "https://img-proxy.imgfo.com/?referer=https://manganelo.com&url=https://s7.mkklcdnv6temp.com/mangakakalot/m1/midnight/vol6_chapter_50_act50/20.jpg",
    "https://img-proxy.imgfo.com/?referer=https://manganelo.com&url=https://s7.mkklcdnv6temp.com/mangakakalot/m1/midnight/vol6_chapter_50_act50/21.jpg"
  ]
}