{
  "cover": "https://avt.mkklcdnv6.com/31/l/6-1583475400.jpg",
  "title": "Claymore",
  "original": "Клеймор ; クレイモア ; 大剑 ; 猎魔战记 ; Kureimoa ; Mắt Bạc; Claymore Manga",
  "genre": "Action, Adult, Adventure, Doujinshi, Fantasy, Mature, Mystery, Shounen, Tragedy, Manga",
  "author": "Yagi Norihiro",
  "status": "Completed",
  "backlink": "https://manganu.com/collections/yagi-norihiro/claymore/",
  "description": "Read Claymore manga\nShow is set on a fictional medieval island where people are harassed by Yoma, humanoid shape-shifters that feed on people. A cryptic group, called The Organization, creates human-Yoma hybrid vehicles to kill Yoma for a fee. These female warriors wear uniforms that are armored.\n\n\nMain character in Claymore manga\n\nClaymore and Yoma warriors likewise are powered with a demonic energy, Yoki, allowing shape-shifting extreme strength and. The action of awakening is likened to the sensation of sexual climax while both female and male warriors existed in days gone by hence the development of male Claymores ceased completely and only the girls proved to be successful warriors.\n\nThe isle world is divided with one warrior delegated to each. Claymore warriors No. 1 through 47 are rated on their service line Yoki possible, strength, agility, wisdom, feeling and leadership. A warrior&#39;s status falls and climbs based on the warrior&#39;s strength in terms of other warriors. It&#39;s not clear when the possibility lies within the warriors or whether the warriors strength comes from training/expertise.\n\nAlong with all having distinct names, most warriors (typically full of status) further their identity by possessing an original sword technique, fighting style, or yoki power. A couple of fighting styles include: releasing a blast of yoki to get a brief fit of speed, fighting with two swords, and extending the arm. For yoki skill, there are quite precisely in close quarters and many Claymores who are able to feel yoki over vast spaces. This seems to be, while not attacking, a precious and very uncommon skill as well as the Claymores in the Organization with this skill are generally highly rated. Additionally, there are four Claymores which have attacking techniques which are yoki. The first is Galatea&#39;s power to command her adversaries yoki for short intervals during conflict, generally to cause the assault to lose of the enemy. The 2nd is Teresa&#39;s: her power to feel yoki is not really weak that she is able to feel her adversaries body being moved around by it how and when her enemy would attack next, and will thus feel, a technique afterwards reproduced by Clare. The next skill is the fact that of Raftela who&#39;s in a position to control movements and the eyesight of other Claymores. She&#39;s used as an anti-warrior warrior.\n\nClaymores would be the titular characters of the show.\nPeople would be the most numerous and politically dominant species understood in both the Mainland as well as the Island.\n\n\n\nYoma are beings that feed on blood and human flesh. They are able to shapeshift into human form which allows them to dwell among people. They are created by the Organization by sending them to the North while the daughters are sent to the East to become Claymores and rounding up orphan sons. The outcome is a Yoma.\n\nYoma have rate and strength beyond individuals and will regenerate damaged bodies at unbelievable rates. Yoma in their authentic state have gold cat like eyes, razor sharp teeth and claws, muscle, elongated limbs and torsos, blood that is purple and grey, purple, brown or green skin.\n\nOther manga:\n+ UQ Holder Manga\n+ Tenkuu Shinpan manga",
  "language": "English",
  "images": [
    "https://img-proxy.imgfo.com/?referer=https://manganelo.com&url=https://s5.mkklcdnv6temp.com/mangakakalot/r1/read_claymore_manga_online_free/vol5_chapter_23_marked_for_death_part_6/1.jpg",
    "https://img-proxy.imgfo.com/?referer=https://manganelo.com&url=https://s5.mkklcdnv6temp.com/mangakakalot/r1/read_claymore_manga_online_free/vol5_chapter_23_marked_for_death_part_6/2.jpg",
    "https://img-proxy.imgfo.com/?referer=https://manganelo.com&url=https://s5.mkklcdnv6temp.com/mangakakalot/r1/read_claymore_manga_online_free/vol5_chapter_23_marked_for_death_part_6/3.jpg",
    "https://img-proxy.imgfo.com/?referer=https://manganelo.com&url=https://s5.mkklcdnv6temp.com/mangakakalot/r1/read_claymore_manga_online_free/vol5_chapter_23_marked_for_death_part_6/4.jpg",
    "https://img-proxy.imgfo.com/?referer=https://manganelo.com&url=https://s5.mkklcdnv6temp.com/mangakakalot/r1/read_claymore_manga_online_free/vol5_chapter_23_marked_for_death_part_6/5.jpg",
    "https://img-proxy.imgfo.com/?referer=https://manganelo.com&url=https://s5.mkklcdnv6temp.com/mangakakalot/r1/read_claymore_manga_online_free/vol5_chapter_23_marked_for_death_part_6/6.jpg",
    "https://img-proxy.imgfo.com/?referer=https://manganelo.com&url=https://s5.mkklcdnv6temp.com/mangakakalot/r1/read_claymore_manga_online_free/vol5_chapter_23_marked_for_death_part_6/7.jpg",
    "https://img-proxy.imgfo.com/?referer=https://manganelo.com&url=https://s5.mkklcdnv6temp.com/mangakakalot/r1/read_claymore_manga_online_free/vol5_chapter_23_marked_for_death_part_6/8.jpg",
    "https://img-proxy.imgfo.com/?referer=https://manganelo.com&url=https://s5.mkklcdnv6temp.com/mangakakalot/r1/read_claymore_manga_online_free/vol5_chapter_23_marked_for_death_part_6/9.jpg",
    "https://img-proxy.imgfo.com/?referer=https://manganelo.com&url=https://s5.mkklcdnv6temp.com/mangakakalot/r1/read_claymore_manga_online_free/vol5_chapter_23_marked_for_death_part_6/10.jpg",
    "https://img-proxy.imgfo.com/?referer=https://manganelo.com&url=https://s5.mkklcdnv6temp.com/mangakakalot/r1/read_claymore_manga_online_free/vol5_chapter_23_marked_for_death_part_6/11.jpg",
    "https://img-proxy.imgfo.com/?referer=https://manganelo.com&url=https://s5.mkklcdnv6temp.com/mangakakalot/r1/read_claymore_manga_online_free/vol5_chapter_23_marked_for_death_part_6/12.jpg",
    "https://img-proxy.imgfo.com/?referer=https://manganelo.com&url=https://s5.mkklcdnv6temp.com/mangakakalot/r1/read_claymore_manga_online_free/vol5_chapter_23_marked_for_death_part_6/13.jpg",
    "https://img-proxy.imgfo.com/?referer=https://manganelo.com&url=https://s5.mkklcdnv6temp.com/mangakakalot/r1/read_claymore_manga_online_free/vol5_chapter_23_marked_for_death_part_6/14.jpg",
    "https://img-proxy.imgfo.com/?referer=https://manganelo.com&url=https://s5.mkklcdnv6temp.com/mangakakalot/r1/read_claymore_manga_online_free/vol5_chapter_23_marked_for_death_part_6/15.jpg",
    "https://img-proxy.imgfo.com/?referer=https://manganelo.com&url=https://s5.mkklcdnv6temp.com/mangakakalot/r1/read_claymore_manga_online_free/vol5_chapter_23_marked_for_death_part_6/16.jpg",
    "https://img-proxy.imgfo.com/?referer=https://manganelo.com&url=https://s5.mkklcdnv6temp.com/mangakakalot/r1/read_claymore_manga_online_free/vol5_chapter_23_marked_for_death_part_6/17.jpg",
    "https://img-proxy.imgfo.com/?referer=https://manganelo.com&url=https://s5.mkklcdnv6temp.com/mangakakalot/r1/read_claymore_manga_online_free/vol5_chapter_23_marked_for_death_part_6/18.jpg",
    "https://img-proxy.imgfo.com/?referer=https://manganelo.com&url=https://s5.mkklcdnv6temp.com/mangakakalot/r1/read_claymore_manga_online_free/vol5_chapter_23_marked_for_death_part_6/19.jpg",
    "https://img-proxy.imgfo.com/?referer=https://manganelo.com&url=https://s5.mkklcdnv6temp.com/mangakakalot/r1/read_claymore_manga_online_free/vol5_chapter_23_marked_for_death_part_6/20.jpg",
    "https://img-proxy.imgfo.com/?referer=https://manganelo.com&url=https://s5.mkklcdnv6temp.com/mangakakalot/r1/read_claymore_manga_online_free/vol5_chapter_23_marked_for_death_part_6/21.jpg",
    "https://img-proxy.imgfo.com/?referer=https://manganelo.com&url=https://s5.mkklcdnv6temp.com/mangakakalot/r1/read_claymore_manga_online_free/vol5_chapter_23_marked_for_death_part_6/22.jpg",
    "https://img-proxy.imgfo.com/?referer=https://manganelo.com&url=https://s5.mkklcdnv6temp.com/mangakakalot/r1/read_claymore_manga_online_free/vol5_chapter_23_marked_for_death_part_6/23.jpg",
    "https://img-proxy.imgfo.com/?referer=https://manganelo.com&url=https://s5.mkklcdnv6temp.com/mangakakalot/r1/read_claymore_manga_online_free/vol5_chapter_23_marked_for_death_part_6/24.jpg",
    "https://img-proxy.imgfo.com/?referer=https://manganelo.com&url=https://s5.mkklcdnv6temp.com/mangakakalot/r1/read_claymore_manga_online_free/vol5_chapter_23_marked_for_death_part_6/25.jpg",
    "https://img-proxy.imgfo.com/?referer=https://manganelo.com&url=https://s5.mkklcdnv6temp.com/mangakakalot/r1/read_claymore_manga_online_free/vol5_chapter_23_marked_for_death_part_6/26.jpg",
    "https://img-proxy.imgfo.com/?referer=https://manganelo.com&url=https://s5.mkklcdnv6temp.com/mangakakalot/r1/read_claymore_manga_online_free/vol5_chapter_23_marked_for_death_part_6/27.jpg",
    "https://img-proxy.imgfo.com/?referer=https://manganelo.com&url=https://s5.mkklcdnv6temp.com/mangakakalot/r1/read_claymore_manga_online_free/vol5_chapter_23_marked_for_death_part_6/28.jpg",
    "https://img-proxy.imgfo.com/?referer=https://manganelo.com&url=https://s5.mkklcdnv6temp.com/mangakakalot/r1/read_claymore_manga_online_free/vol5_chapter_23_marked_for_death_part_6/29.jpg",
    "https://img-proxy.imgfo.com/?referer=https://manganelo.com&url=https://s5.mkklcdnv6temp.com/mangakakalot/r1/read_claymore_manga_online_free/vol5_chapter_23_marked_for_death_part_6/30.jpg"
  ]
}