{
  "cover": "https://avt.mkklcdnv6.com/12/k/4-1583470171.jpg",
  "title": "Amahara-Kun +",
  "original": "あまはら君+ ; Amahara-kun Plus ; Amahara-kun+",
  "genre": "Comedy, Gender bender, Romance, School life, Shounen ai, Manga",
  "author": "Hinahime",
  "status": "Completed",
  "backlink": "https://manganu.com/collections/hinahime/amahara-kun/",
  "description": "The main character is a trap, whose sole purpose is to convert others into trap by whatever means possible. He seeks boys with feminine features or behaviors and through very comedy based tactics convinces them to embrace the trap life style.",
  "language": "English",
  "images": [
    "https://img-proxy.imgfo.com/?referer=https://manganelo.com&url=https://s7.mkklcdnv6temp.com/mangakakalot/a1/amaharakun/vol1_chapter_4/1.jpg",
    "https://img-proxy.imgfo.com/?referer=https://manganelo.com&url=https://s7.mkklcdnv6temp.com/mangakakalot/a1/amaharakun/vol1_chapter_4/2.jpg",
    "https://img-proxy.imgfo.com/?referer=https://manganelo.com&url=https://s7.mkklcdnv6temp.com/mangakakalot/a1/amaharakun/vol1_chapter_4/3.jpg",
    "https://img-proxy.imgfo.com/?referer=https://manganelo.com&url=https://s7.mkklcdnv6temp.com/mangakakalot/a1/amaharakun/vol1_chapter_4/4.jpg",
    "https://img-proxy.imgfo.com/?referer=https://manganelo.com&url=https://s7.mkklcdnv6temp.com/mangakakalot/a1/amaharakun/vol1_chapter_4/5.jpg",
    "https://img-proxy.imgfo.com/?referer=https://manganelo.com&url=https://s7.mkklcdnv6temp.com/mangakakalot/a1/amaharakun/vol1_chapter_4/6.jpg",
    "https://img-proxy.imgfo.com/?referer=https://manganelo.com&url=https://s7.mkklcdnv6temp.com/mangakakalot/a1/amaharakun/vol1_chapter_4/7.jpg",
    "https://img-proxy.imgfo.com/?referer=https://manganelo.com&url=https://s7.mkklcdnv6temp.com/mangakakalot/a1/amaharakun/vol1_chapter_4/8.jpg",
    "https://img-proxy.imgfo.com/?referer=https://manganelo.com&url=https://s7.mkklcdnv6temp.com/mangakakalot/a1/amaharakun/vol1_chapter_4/9.jpg",
    "https://img-proxy.imgfo.com/?referer=https://manganelo.com&url=https://s7.mkklcdnv6temp.com/mangakakalot/a1/amaharakun/vol1_chapter_4/10.jpg",
    "https://img-proxy.imgfo.com/?referer=https://manganelo.com&url=https://s7.mkklcdnv6temp.com/mangakakalot/a1/amaharakun/vol1_chapter_4/11.jpg",
    "https://img-proxy.imgfo.com/?referer=https://manganelo.com&url=https://s7.mkklcdnv6temp.com/mangakakalot/a1/amaharakun/vol1_chapter_4/12.jpg",
    "https://img-proxy.imgfo.com/?referer=https://manganelo.com&url=https://s7.mkklcdnv6temp.com/mangakakalot/a1/amaharakun/vol1_chapter_4/13.jpg",
    "https://img-proxy.imgfo.com/?referer=https://manganelo.com&url=https://s7.mkklcdnv6temp.com/mangakakalot/a1/amaharakun/vol1_chapter_4/14.jpg",
    "https://img-proxy.imgfo.com/?referer=https://manganelo.com&url=https://s7.mkklcdnv6temp.com/mangakakalot/a1/amaharakun/vol1_chapter_4/15.jpg",
    "https://img-proxy.imgfo.com/?referer=https://manganelo.com&url=https://s7.mkklcdnv6temp.com/mangakakalot/a1/amaharakun/vol1_chapter_4/16.jpg",
    "https://img-proxy.imgfo.com/?referer=https://manganelo.com&url=https://s7.mkklcdnv6temp.com/mangakakalot/a1/amaharakun/vol1_chapter_4/17.jpg",
    "https://img-proxy.imgfo.com/?referer=https://manganelo.com&url=https://s7.mkklcdnv6temp.com/mangakakalot/a1/amaharakun/vol1_chapter_4/18.jpg",
    "https://img-proxy.imgfo.com/?referer=https://manganelo.com&url=https://s7.mkklcdnv6temp.com/mangakakalot/a1/amaharakun/vol1_chapter_4/19.jpg",
    "https://img-proxy.imgfo.com/?referer=https://manganelo.com&url=https://s7.mkklcdnv6temp.com/mangakakalot/a1/amaharakun/vol1_chapter_4/20.jpg"
  ]
}