{
  "cover": "https://avt.mkklcdnv6.com/15/v/11-1583484587.jpg",
  "title": "A Revolutionist In The Afternoon",
  "original": "革命家の午後 ; Kakumeika no Gogo ; Takeyama's Life",
  "genre": "Drama, Fantasy, Historical, Psychological, Tragedy, Manga",
  "author": "Matsumoto Jiro",
  "status": "Completed",
  "backlink": "https://manganu.com/collections/matsumoto-jiro/a-revolutionist-in-the-afternoon/",
  "description": "Another short story collection from Jirô Matsumoto.Contains 5 stories:1. A Revolutionist in the Afternoon2. A Revolutionist in the Afternoon 2 (not a sequel to the first one)3. Desert Witch: A wounded man is being chased, but then he stumbles on cursed grounds4. Takeyama's Life: A vampire, who is not really into the whole gothic vampire thing.5. The Footmen Flee: Two men are in the battlefield, and all they want to do now is go home (without being killed by the opposing side)",
  "language": "English",
  "images": [
    "https://img-proxy.imgfo.com/?referer=https://manganelo.com&url=https://s7.mkklcdnv6temp.com/mangakakalot/a2/a_revolutionist_in_the_afternoon/vol1_chapter_5_the_footmen_flee/1.jpg",
    "https://img-proxy.imgfo.com/?referer=https://manganelo.com&url=https://s7.mkklcdnv6temp.com/mangakakalot/a2/a_revolutionist_in_the_afternoon/vol1_chapter_5_the_footmen_flee/2.jpg",
    "https://img-proxy.imgfo.com/?referer=https://manganelo.com&url=https://s7.mkklcdnv6temp.com/mangakakalot/a2/a_revolutionist_in_the_afternoon/vol1_chapter_5_the_footmen_flee/3.jpg",
    "https://img-proxy.imgfo.com/?referer=https://manganelo.com&url=https://s7.mkklcdnv6temp.com/mangakakalot/a2/a_revolutionist_in_the_afternoon/vol1_chapter_5_the_footmen_flee/4.jpg",
    "https://img-proxy.imgfo.com/?referer=https://manganelo.com&url=https://s7.mkklcdnv6temp.com/mangakakalot/a2/a_revolutionist_in_the_afternoon/vol1_chapter_5_the_footmen_flee/5.jpg",
    "https://img-proxy.imgfo.com/?referer=https://manganelo.com&url=https://s7.mkklcdnv6temp.com/mangakakalot/a2/a_revolutionist_in_the_afternoon/vol1_chapter_5_the_footmen_flee/6.jpg",
    "https://img-proxy.imgfo.com/?referer=https://manganelo.com&url=https://s7.mkklcdnv6temp.com/mangakakalot/a2/a_revolutionist_in_the_afternoon/vol1_chapter_5_the_footmen_flee/7.jpg",
    "https://img-proxy.imgfo.com/?referer=https://manganelo.com&url=https://s7.mkklcdnv6temp.com/mangakakalot/a2/a_revolutionist_in_the_afternoon/vol1_chapter_5_the_footmen_flee/8.jpg",
    "https://img-proxy.imgfo.com/?referer=https://manganelo.com&url=https://s7.mkklcdnv6temp.com/mangakakalot/a2/a_revolutionist_in_the_afternoon/vol1_chapter_5_the_footmen_flee/9.jpg",
    "https://img-proxy.imgfo.com/?referer=https://manganelo.com&url=https://s7.mkklcdnv6temp.com/mangakakalot/a2/a_revolutionist_in_the_afternoon/vol1_chapter_5_the_footmen_flee/10.jpg",
    "https://img-proxy.imgfo.com/?referer=https://manganelo.com&url=https://s7.mkklcdnv6temp.com/mangakakalot/a2/a_revolutionist_in_the_afternoon/vol1_chapter_5_the_footmen_flee/11.jpg",
    "https://img-proxy.imgfo.com/?referer=https://manganelo.com&url=https://s7.mkklcdnv6temp.com/mangakakalot/a2/a_revolutionist_in_the_afternoon/vol1_chapter_5_the_footmen_flee/12.jpg",
    "https://img-proxy.imgfo.com/?referer=https://manganelo.com&url=https://s7.mkklcdnv6temp.com/mangakakalot/a2/a_revolutionist_in_the_afternoon/vol1_chapter_5_the_footmen_flee/13.jpg",
    "https://img-proxy.imgfo.com/?referer=https://manganelo.com&url=https://s7.mkklcdnv6temp.com/mangakakalot/a2/a_revolutionist_in_the_afternoon/vol1_chapter_5_the_footmen_flee/14.jpg",
    "https://img-proxy.imgfo.com/?referer=https://manganelo.com&url=https://s7.mkklcdnv6temp.com/mangakakalot/a2/a_revolutionist_in_the_afternoon/vol1_chapter_5_the_footmen_flee/15.jpg",
    "https://img-proxy.imgfo.com/?referer=https://manganelo.com&url=https://s7.mkklcdnv6temp.com/mangakakalot/a2/a_revolutionist_in_the_afternoon/vol1_chapter_5_the_footmen_flee/16.jpg",
    "https://img-proxy.imgfo.com/?referer=https://manganelo.com&url=https://s7.mkklcdnv6temp.com/mangakakalot/a2/a_revolutionist_in_the_afternoon/vol1_chapter_5_the_footmen_flee/17.jpg",
    "https://img-proxy.imgfo.com/?referer=https://manganelo.com&url=https://s7.mkklcdnv6temp.com/mangakakalot/a2/a_revolutionist_in_the_afternoon/vol1_chapter_5_the_footmen_flee/18.jpg",
    "https://img-proxy.imgfo.com/?referer=https://manganelo.com&url=https://s7.mkklcdnv6temp.com/mangakakalot/a2/a_revolutionist_in_the_afternoon/vol1_chapter_5_the_footmen_flee/19.jpg",
    "https://img-proxy.imgfo.com/?referer=https://manganelo.com&url=https://s7.mkklcdnv6temp.com/mangakakalot/a2/a_revolutionist_in_the_afternoon/vol1_chapter_5_the_footmen_flee/20.jpg",
    "https://img-proxy.imgfo.com/?referer=https://manganelo.com&url=https://s7.mkklcdnv6temp.com/mangakakalot/a2/a_revolutionist_in_the_afternoon/vol1_chapter_5_the_footmen_flee/21.jpg",
    "https://img-proxy.imgfo.com/?referer=https://manganelo.com&url=https://s7.mkklcdnv6temp.com/mangakakalot/a2/a_revolutionist_in_the_afternoon/vol1_chapter_5_the_footmen_flee/22.jpg",
    "https://img-proxy.imgfo.com/?referer=https://manganelo.com&url=https://s7.mkklcdnv6temp.com/mangakakalot/a2/a_revolutionist_in_the_afternoon/vol1_chapter_5_the_footmen_flee/23.jpg",
    "https://img-proxy.imgfo.com/?referer=https://manganelo.com&url=https://s7.mkklcdnv6temp.com/mangakakalot/a2/a_revolutionist_in_the_afternoon/vol1_chapter_5_the_footmen_flee/24.jpg",
    "https://img-proxy.imgfo.com/?referer=https://manganelo.com&url=https://s7.mkklcdnv6temp.com/mangakakalot/a2/a_revolutionist_in_the_afternoon/vol1_chapter_5_the_footmen_flee/25.jpg",
    "https://img-proxy.imgfo.com/?referer=https://manganelo.com&url=https://s7.mkklcdnv6temp.com/mangakakalot/a2/a_revolutionist_in_the_afternoon/vol1_chapter_5_the_footmen_flee/26.jpg",
    "https://img-proxy.imgfo.com/?referer=https://manganelo.com&url=https://s7.mkklcdnv6temp.com/mangakakalot/a2/a_revolutionist_in_the_afternoon/vol1_chapter_5_the_footmen_flee/27.jpg",
    "https://img-proxy.imgfo.com/?referer=https://manganelo.com&url=https://s7.mkklcdnv6temp.com/mangakakalot/a2/a_revolutionist_in_the_afternoon/vol1_chapter_5_the_footmen_flee/28.jpg",
    "https://img-proxy.imgfo.com/?referer=https://manganelo.com&url=https://s7.mkklcdnv6temp.com/mangakakalot/a2/a_revolutionist_in_the_afternoon/vol1_chapter_5_the_footmen_flee/29.jpg",
    "https://img-proxy.imgfo.com/?referer=https://manganelo.com&url=https://s7.mkklcdnv6temp.com/mangakakalot/a2/a_revolutionist_in_the_afternoon/vol1_chapter_5_the_footmen_flee/30.jpg",
    "https://img-proxy.imgfo.com/?referer=https://manganelo.com&url=https://s7.mkklcdnv6temp.com/mangakakalot/a2/a_revolutionist_in_the_afternoon/vol1_chapter_5_the_footmen_flee/31.jpg",
    "https://img-proxy.imgfo.com/?referer=https://manganelo.com&url=https://s7.mkklcdnv6temp.com/mangakakalot/a2/a_revolutionist_in_the_afternoon/vol1_chapter_5_the_footmen_flee/32.jpg",
    "https://img-proxy.imgfo.com/?referer=https://manganelo.com&url=https://s7.mkklcdnv6temp.com/mangakakalot/a2/a_revolutionist_in_the_afternoon/vol1_chapter_5_the_footmen_flee/33.jpg",
    "https://img-proxy.imgfo.com/?referer=https://manganelo.com&url=https://s7.mkklcdnv6temp.com/mangakakalot/a2/a_revolutionist_in_the_afternoon/vol1_chapter_5_the_footmen_flee/34.jpg",
    "https://img-proxy.imgfo.com/?referer=https://manganelo.com&url=https://s7.mkklcdnv6temp.com/mangakakalot/a2/a_revolutionist_in_the_afternoon/vol1_chapter_5_the_footmen_flee/35.jpg",
    "https://img-proxy.imgfo.com/?referer=https://manganelo.com&url=https://s7.mkklcdnv6temp.com/mangakakalot/a2/a_revolutionist_in_the_afternoon/vol1_chapter_5_the_footmen_flee/36.jpg",
    "https://img-proxy.imgfo.com/?referer=https://manganelo.com&url=https://s7.mkklcdnv6temp.com/mangakakalot/a2/a_revolutionist_in_the_afternoon/vol1_chapter_5_the_footmen_flee/37.jpg",
    "https://img-proxy.imgfo.com/?referer=https://manganelo.com&url=https://s7.mkklcdnv6temp.com/mangakakalot/a2/a_revolutionist_in_the_afternoon/vol1_chapter_5_the_footmen_flee/38.jpg",
    "https://img-proxy.imgfo.com/?referer=https://manganelo.com&url=https://s7.mkklcdnv6temp.com/mangakakalot/a2/a_revolutionist_in_the_afternoon/vol1_chapter_5_the_footmen_flee/39.jpg",
    "https://img-proxy.imgfo.com/?referer=https://manganelo.com&url=https://s7.mkklcdnv6temp.com/mangakakalot/a2/a_revolutionist_in_the_afternoon/vol1_chapter_5_the_footmen_flee/40.jpg",
    "https://img-proxy.imgfo.com/?referer=https://manganelo.com&url=https://s7.mkklcdnv6temp.com/mangakakalot/a2/a_revolutionist_in_the_afternoon/vol1_chapter_5_the_footmen_flee/41.jpg",
    "https://img-proxy.imgfo.com/?referer=https://manganelo.com&url=https://s7.mkklcdnv6temp.com/mangakakalot/a2/a_revolutionist_in_the_afternoon/vol1_chapter_5_the_footmen_flee/42.jpg",
    "https://img-proxy.imgfo.com/?referer=https://manganelo.com&url=https://s7.mkklcdnv6temp.com/mangakakalot/a2/a_revolutionist_in_the_afternoon/vol1_chapter_5_the_footmen_flee/43.jpg",
    "https://img-proxy.imgfo.com/?referer=https://manganelo.com&url=https://s7.mkklcdnv6temp.com/mangakakalot/a2/a_revolutionist_in_the_afternoon/vol1_chapter_5_the_footmen_flee/44.jpg",
    "https://img-proxy.imgfo.com/?referer=https://manganelo.com&url=https://s7.mkklcdnv6temp.com/mangakakalot/a2/a_revolutionist_in_the_afternoon/vol1_chapter_5_the_footmen_flee/45.jpg",
    "https://img-proxy.imgfo.com/?referer=https://manganelo.com&url=https://s7.mkklcdnv6temp.com/mangakakalot/a2/a_revolutionist_in_the_afternoon/vol1_chapter_5_the_footmen_flee/46.jpg"
  ]
}