{
  "cover": "https://avt.mkklcdnv6.com/18/t/6-1583474902.jpg",
  "title": "Elfen Lied",
  "original": "エルフェンリート ; 妖精的旋律 ; 變異體少女 ; Elfenlied ; Elven Song",
  "genre": "Action, Drama, Ecchi, Horror, Mature, Psychological, Romance, Seinen, Supernatural, Tragedy, Manga",
  "author": "Okamoto Lynn",
  "status": "Completed",
  "backlink": "https://manganu.com/collections/okamoto-lynn/elfen-lied/",
  "description": "The story involves human mutations called &quot;dicloniuses&quot;, who grow horns on their heads and possess telekinetic powers, in the form of invisible &quot;arms&quot; called vectors. The tendency for violence among dicloniuses varies among characters. Certain scientists contain them in a Facility in cells where they are subject to inhumane experiments to test their abilities or where they await execution for being too dangerous. An infectious virus is also associated with the mutation. This virus is spread through non-lethal contact with the vectors of a diclonius. The main non-mutant character in the story is Kouta, who ends up becoming increasingly involved with these dicloniuses, as they seek refuge from the scientists. The main diclonius character is Lucy/Nyuu a killer whose alter ego is a hapless, and very cute child whose vocabulary and intelligence is quite limited. {Corrections from Silvermagic.} After a large amount of choice occurences the lives of these two characters becomes inexplicably intwined...",
  "language": "English",
  "images": [
    "https://img-proxy.imgfo.com/?referer=https://manganelo.com&url=https://s3.mkklcdnv6temp.com/mangakakalot/e1/elfen_lied/vol6_chapter_51_tears/1.jpg",
    "https://img-proxy.imgfo.com/?referer=https://manganelo.com&url=https://s3.mkklcdnv6temp.com/mangakakalot/e1/elfen_lied/vol6_chapter_51_tears/2.jpg",
    "https://img-proxy.imgfo.com/?referer=https://manganelo.com&url=https://s3.mkklcdnv6temp.com/mangakakalot/e1/elfen_lied/vol6_chapter_51_tears/3.jpg",
    "https://img-proxy.imgfo.com/?referer=https://manganelo.com&url=https://s3.mkklcdnv6temp.com/mangakakalot/e1/elfen_lied/vol6_chapter_51_tears/4.jpg",
    "https://img-proxy.imgfo.com/?referer=https://manganelo.com&url=https://s3.mkklcdnv6temp.com/mangakakalot/e1/elfen_lied/vol6_chapter_51_tears/5.jpg",
    "https://img-proxy.imgfo.com/?referer=https://manganelo.com&url=https://s3.mkklcdnv6temp.com/mangakakalot/e1/elfen_lied/vol6_chapter_51_tears/6.jpg",
    "https://img-proxy.imgfo.com/?referer=https://manganelo.com&url=https://s3.mkklcdnv6temp.com/mangakakalot/e1/elfen_lied/vol6_chapter_51_tears/7.jpg",
    "https://img-proxy.imgfo.com/?referer=https://manganelo.com&url=https://s3.mkklcdnv6temp.com/mangakakalot/e1/elfen_lied/vol6_chapter_51_tears/8.jpg",
    "https://img-proxy.imgfo.com/?referer=https://manganelo.com&url=https://s3.mkklcdnv6temp.com/mangakakalot/e1/elfen_lied/vol6_chapter_51_tears/9.jpg",
    "https://img-proxy.imgfo.com/?referer=https://manganelo.com&url=https://s3.mkklcdnv6temp.com/mangakakalot/e1/elfen_lied/vol6_chapter_51_tears/10.jpg",
    "https://img-proxy.imgfo.com/?referer=https://manganelo.com&url=https://s3.mkklcdnv6temp.com/mangakakalot/e1/elfen_lied/vol6_chapter_51_tears/11.jpg",
    "https://img-proxy.imgfo.com/?referer=https://manganelo.com&url=https://s3.mkklcdnv6temp.com/mangakakalot/e1/elfen_lied/vol6_chapter_51_tears/12.jpg",
    "https://img-proxy.imgfo.com/?referer=https://manganelo.com&url=https://s3.mkklcdnv6temp.com/mangakakalot/e1/elfen_lied/vol6_chapter_51_tears/13.jpg",
    "https://img-proxy.imgfo.com/?referer=https://manganelo.com&url=https://s3.mkklcdnv6temp.com/mangakakalot/e1/elfen_lied/vol6_chapter_51_tears/14.jpg",
    "https://img-proxy.imgfo.com/?referer=https://manganelo.com&url=https://s3.mkklcdnv6temp.com/mangakakalot/e1/elfen_lied/vol6_chapter_51_tears/15.jpg",
    "https://img-proxy.imgfo.com/?referer=https://manganelo.com&url=https://s3.mkklcdnv6temp.com/mangakakalot/e1/elfen_lied/vol6_chapter_51_tears/16.jpg",
    "https://img-proxy.imgfo.com/?referer=https://manganelo.com&url=https://s3.mkklcdnv6temp.com/mangakakalot/e1/elfen_lied/vol6_chapter_51_tears/17.jpg",
    "https://img-proxy.imgfo.com/?referer=https://manganelo.com&url=https://s3.mkklcdnv6temp.com/mangakakalot/e1/elfen_lied/vol6_chapter_51_tears/18.jpg",
    "https://img-proxy.imgfo.com/?referer=https://manganelo.com&url=https://s3.mkklcdnv6temp.com/mangakakalot/e1/elfen_lied/vol6_chapter_51_tears/19.jpg"
  ]
}