{
  "cover": "https://avt.mkklcdnv6.com/37/n/10-1583483528.jpg",
  "title": "Meroama Lecture",
  "original": "めろあま・レクチャー ; めろあま♥レクチャー ; Meroama Rekuchiya ; Meroama・Lecture ; 桃色讲义",
  "genre": "Romance, School life, Shoujo, Smut, Manga",
  "author": "Tsuzuki Moe",
  "status": "Completed",
  "backlink": "https://manganu.com/collections/tsuzuki-moe/meroama-lecture/",
  "description": "Kokone already broke up with 3 of her boyfriends because she can't do ecchi stuff. When she gets dumped for the third time, the first year prince of her school, the famous Fujioka Eiji has taken it to himself to teach Kokone how to do ecchi! Sparks will fly when these two are together. A romantic confusion ensues!Extra Stories:Amaku NureteLoving the Nude",
  "language": "English",
  "images": [
    "https://img-proxy.imgfo.com/?referer=https://manganelo.com&url=https://s6.mkklcdnv6temp.com/mangakakalot/m1/meroama_lecture/vol1_chapter_4_extra_story_1_amaku_nurete/1.jpg",
    "https://img-proxy.imgfo.com/?referer=https://manganelo.com&url=https://s6.mkklcdnv6temp.com/mangakakalot/m1/meroama_lecture/vol1_chapter_4_extra_story_1_amaku_nurete/2.jpg",
    "https://img-proxy.imgfo.com/?referer=https://manganelo.com&url=https://s6.mkklcdnv6temp.com/mangakakalot/m1/meroama_lecture/vol1_chapter_4_extra_story_1_amaku_nurete/3.jpg",
    "https://img-proxy.imgfo.com/?referer=https://manganelo.com&url=https://s6.mkklcdnv6temp.com/mangakakalot/m1/meroama_lecture/vol1_chapter_4_extra_story_1_amaku_nurete/4.jpg",
    "https://img-proxy.imgfo.com/?referer=https://manganelo.com&url=https://s6.mkklcdnv6temp.com/mangakakalot/m1/meroama_lecture/vol1_chapter_4_extra_story_1_amaku_nurete/5.jpg",
    "https://img-proxy.imgfo.com/?referer=https://manganelo.com&url=https://s6.mkklcdnv6temp.com/mangakakalot/m1/meroama_lecture/vol1_chapter_4_extra_story_1_amaku_nurete/6.jpg",
    "https://img-proxy.imgfo.com/?referer=https://manganelo.com&url=https://s6.mkklcdnv6temp.com/mangakakalot/m1/meroama_lecture/vol1_chapter_4_extra_story_1_amaku_nurete/7.jpg",
    "https://img-proxy.imgfo.com/?referer=https://manganelo.com&url=https://s6.mkklcdnv6temp.com/mangakakalot/m1/meroama_lecture/vol1_chapter_4_extra_story_1_amaku_nurete/8.jpg",
    "https://img-proxy.imgfo.com/?referer=https://manganelo.com&url=https://s6.mkklcdnv6temp.com/mangakakalot/m1/meroama_lecture/vol1_chapter_4_extra_story_1_amaku_nurete/9.jpg",
    "https://img-proxy.imgfo.com/?referer=https://manganelo.com&url=https://s6.mkklcdnv6temp.com/mangakakalot/m1/meroama_lecture/vol1_chapter_4_extra_story_1_amaku_nurete/10.jpg",
    "https://img-proxy.imgfo.com/?referer=https://manganelo.com&url=https://s6.mkklcdnv6temp.com/mangakakalot/m1/meroama_lecture/vol1_chapter_4_extra_story_1_amaku_nurete/11.jpg",
    "https://img-proxy.imgfo.com/?referer=https://manganelo.com&url=https://s6.mkklcdnv6temp.com/mangakakalot/m1/meroama_lecture/vol1_chapter_4_extra_story_1_amaku_nurete/12.jpg",
    "https://img-proxy.imgfo.com/?referer=https://manganelo.com&url=https://s6.mkklcdnv6temp.com/mangakakalot/m1/meroama_lecture/vol1_chapter_4_extra_story_1_amaku_nurete/13.jpg",
    "https://img-proxy.imgfo.com/?referer=https://manganelo.com&url=https://s6.mkklcdnv6temp.com/mangakakalot/m1/meroama_lecture/vol1_chapter_4_extra_story_1_amaku_nurete/14.jpg",
    "https://img-proxy.imgfo.com/?referer=https://manganelo.com&url=https://s6.mkklcdnv6temp.com/mangakakalot/m1/meroama_lecture/vol1_chapter_4_extra_story_1_amaku_nurete/15.jpg",
    "https://img-proxy.imgfo.com/?referer=https://manganelo.com&url=https://s6.mkklcdnv6temp.com/mangakakalot/m1/meroama_lecture/vol1_chapter_4_extra_story_1_amaku_nurete/16.jpg",
    "https://img-proxy.imgfo.com/?referer=https://manganelo.com&url=https://s6.mkklcdnv6temp.com/mangakakalot/m1/meroama_lecture/vol1_chapter_4_extra_story_1_amaku_nurete/17.jpg",
    "https://img-proxy.imgfo.com/?referer=https://manganelo.com&url=https://s6.mkklcdnv6temp.com/mangakakalot/m1/meroama_lecture/vol1_chapter_4_extra_story_1_amaku_nurete/18.jpg",
    "https://img-proxy.imgfo.com/?referer=https://manganelo.com&url=https://s6.mkklcdnv6temp.com/mangakakalot/m1/meroama_lecture/vol1_chapter_4_extra_story_1_amaku_nurete/19.jpg",
    "https://img-proxy.imgfo.com/?referer=https://manganelo.com&url=https://s6.mkklcdnv6temp.com/mangakakalot/m1/meroama_lecture/vol1_chapter_4_extra_story_1_amaku_nurete/20.jpg",
    "https://img-proxy.imgfo.com/?referer=https://manganelo.com&url=https://s6.mkklcdnv6temp.com/mangakakalot/m1/meroama_lecture/vol1_chapter_4_extra_story_1_amaku_nurete/21.jpg",
    "https://img-proxy.imgfo.com/?referer=https://manganelo.com&url=https://s6.mkklcdnv6temp.com/mangakakalot/m1/meroama_lecture/vol1_chapter_4_extra_story_1_amaku_nurete/22.jpg",
    "https://img-proxy.imgfo.com/?referer=https://manganelo.com&url=https://s6.mkklcdnv6temp.com/mangakakalot/m1/meroama_lecture/vol1_chapter_4_extra_story_1_amaku_nurete/23.jpg",
    "https://img-proxy.imgfo.com/?referer=https://manganelo.com&url=https://s6.mkklcdnv6temp.com/mangakakalot/m1/meroama_lecture/vol1_chapter_4_extra_story_1_amaku_nurete/24.jpg",
    "https://img-proxy.imgfo.com/?referer=https://manganelo.com&url=https://s6.mkklcdnv6temp.com/mangakakalot/m1/meroama_lecture/vol1_chapter_4_extra_story_1_amaku_nurete/25.jpg",
    "https://img-proxy.imgfo.com/?referer=https://manganelo.com&url=https://s6.mkklcdnv6temp.com/mangakakalot/m1/meroama_lecture/vol1_chapter_4_extra_story_1_amaku_nurete/26.jpg",
    "https://img-proxy.imgfo.com/?referer=https://manganelo.com&url=https://s6.mkklcdnv6temp.com/mangakakalot/m1/meroama_lecture/vol1_chapter_4_extra_story_1_amaku_nurete/27.jpg",
    "https://img-proxy.imgfo.com/?referer=https://manganelo.com&url=https://s6.mkklcdnv6temp.com/mangakakalot/m1/meroama_lecture/vol1_chapter_4_extra_story_1_amaku_nurete/28.jpg",
    "https://img-proxy.imgfo.com/?referer=https://manganelo.com&url=https://s6.mkklcdnv6temp.com/mangakakalot/m1/meroama_lecture/vol1_chapter_4_extra_story_1_amaku_nurete/29.jpg",
    "https://img-proxy.imgfo.com/?referer=https://manganelo.com&url=https://s6.mkklcdnv6temp.com/mangakakalot/m1/meroama_lecture/vol1_chapter_4_extra_story_1_amaku_nurete/30.jpg",
    "https://img-proxy.imgfo.com/?referer=https://manganelo.com&url=https://s6.mkklcdnv6temp.com/mangakakalot/m1/meroama_lecture/vol1_chapter_4_extra_story_1_amaku_nurete/31.jpg",
    "https://img-proxy.imgfo.com/?referer=https://manganelo.com&url=https://s6.mkklcdnv6temp.com/mangakakalot/m1/meroama_lecture/vol1_chapter_4_extra_story_1_amaku_nurete/32.jpg",
    "https://img-proxy.imgfo.com/?referer=https://manganelo.com&url=https://s6.mkklcdnv6temp.com/mangakakalot/m1/meroama_lecture/vol1_chapter_4_extra_story_1_amaku_nurete/33.jpg",
    "https://img-proxy.imgfo.com/?referer=https://manganelo.com&url=https://s6.mkklcdnv6temp.com/mangakakalot/m1/meroama_lecture/vol1_chapter_4_extra_story_1_amaku_nurete/34.jpg",
    "https://img-proxy.imgfo.com/?referer=https://manganelo.com&url=https://s6.mkklcdnv6temp.com/mangakakalot/m1/meroama_lecture/vol1_chapter_4_extra_story_1_amaku_nurete/35.jpg",
    "https://img-proxy.imgfo.com/?referer=https://manganelo.com&url=https://s6.mkklcdnv6temp.com/mangakakalot/m1/meroama_lecture/vol1_chapter_4_extra_story_1_amaku_nurete/36.jpg",
    "https://img-proxy.imgfo.com/?referer=https://manganelo.com&url=https://s6.mkklcdnv6temp.com/mangakakalot/m1/meroama_lecture/vol1_chapter_4_extra_story_1_amaku_nurete/37.jpg",
    "https://img-proxy.imgfo.com/?referer=https://manganelo.com&url=https://s6.mkklcdnv6temp.com/mangakakalot/m1/meroama_lecture/vol1_chapter_4_extra_story_1_amaku_nurete/38.jpg",
    "https://img-proxy.imgfo.com/?referer=https://manganelo.com&url=https://s6.mkklcdnv6temp.com/mangakakalot/m1/meroama_lecture/vol1_chapter_4_extra_story_1_amaku_nurete/39.jpg",
    "https://img-proxy.imgfo.com/?referer=https://manganelo.com&url=https://s6.mkklcdnv6temp.com/mangakakalot/m1/meroama_lecture/vol1_chapter_4_extra_story_1_amaku_nurete/40.jpg",
    "https://img-proxy.imgfo.com/?referer=https://manganelo.com&url=https://s6.mkklcdnv6temp.com/mangakakalot/m1/meroama_lecture/vol1_chapter_4_extra_story_1_amaku_nurete/41.jpg",
    "https://img-proxy.imgfo.com/?referer=https://manganelo.com&url=https://s6.mkklcdnv6temp.com/mangakakalot/m1/meroama_lecture/vol1_chapter_4_extra_story_1_amaku_nurete/42.jpg",
    "https://img-proxy.imgfo.com/?referer=https://manganelo.com&url=https://s6.mkklcdnv6temp.com/mangakakalot/m1/meroama_lecture/vol1_chapter_4_extra_story_1_amaku_nurete/43.jpg"
  ]
}