{
  "cover": "https://avt.mkklcdnv6.com/31/m/18-1583498304.jpg",
  "title": "Aijin Incubus",
  "original": "Mister Mistress; Любимый демон; 愛人・淫魔; 愛人☆淫魔; 愛人☆淫魔ｖｅｒ．ＰＩＮＫ; 愛人淫魔; 戀愛中毒; 纏你要你跟定你; 애인 ☆ 음마",
  "genre": "Comedy, School life, Smut, Supernatural, Yaoi, Manga",
  "author": "Shinba Rize",
  "status": "Completed",
  "backlink": "https://manganu.com/collections/shinba-rize/aijin-incubus/",
  "description": "Fujimaru is your average adolescent boy - horny and girl-crazed. Like many boys his age, he enjoys spending &lsquo;alone time&rsquo; in the bathroom with erotic magazines, doing&hellip; you know. Unlike many boys his age, Fujimaru has a demon incubus, Rei, lurking about his house. Rei wants nothing more than to feed off of Fujimaru&rsquo;s perverted mind! Now Fujimaru&rsquo;s life has become strained with being a normal boy whose raging hormones are the source of a demonic incubus&rsquo;s food.",
  "language": "English",
  "images": [
    "https://img-proxy.imgfo.com/?referer=https://manganelo.com&url=https://s5.mkklcdnv6temp.com/mangakakalot/l1/lh919421/vol1_chapter_2/1.jpg",
    "https://img-proxy.imgfo.com/?referer=https://manganelo.com&url=https://s5.mkklcdnv6temp.com/mangakakalot/l1/lh919421/vol1_chapter_2/2.jpg",
    "https://img-proxy.imgfo.com/?referer=https://manganelo.com&url=https://s5.mkklcdnv6temp.com/mangakakalot/l1/lh919421/vol1_chapter_2/3.jpg",
    "https://img-proxy.imgfo.com/?referer=https://manganelo.com&url=https://s5.mkklcdnv6temp.com/mangakakalot/l1/lh919421/vol1_chapter_2/4.jpg",
    "https://img-proxy.imgfo.com/?referer=https://manganelo.com&url=https://s5.mkklcdnv6temp.com/mangakakalot/l1/lh919421/vol1_chapter_2/5.jpg",
    "https://img-proxy.imgfo.com/?referer=https://manganelo.com&url=https://s5.mkklcdnv6temp.com/mangakakalot/l1/lh919421/vol1_chapter_2/6.jpg",
    "https://img-proxy.imgfo.com/?referer=https://manganelo.com&url=https://s5.mkklcdnv6temp.com/mangakakalot/l1/lh919421/vol1_chapter_2/7.jpg",
    "https://img-proxy.imgfo.com/?referer=https://manganelo.com&url=https://s5.mkklcdnv6temp.com/mangakakalot/l1/lh919421/vol1_chapter_2/8.jpg",
    "https://img-proxy.imgfo.com/?referer=https://manganelo.com&url=https://s5.mkklcdnv6temp.com/mangakakalot/l1/lh919421/vol1_chapter_2/9.jpg",
    "https://img-proxy.imgfo.com/?referer=https://manganelo.com&url=https://s5.mkklcdnv6temp.com/mangakakalot/l1/lh919421/vol1_chapter_2/10.jpg",
    "https://img-proxy.imgfo.com/?referer=https://manganelo.com&url=https://s5.mkklcdnv6temp.com/mangakakalot/l1/lh919421/vol1_chapter_2/11.jpg",
    "https://img-proxy.imgfo.com/?referer=https://manganelo.com&url=https://s5.mkklcdnv6temp.com/mangakakalot/l1/lh919421/vol1_chapter_2/12.jpg",
    "https://img-proxy.imgfo.com/?referer=https://manganelo.com&url=https://s5.mkklcdnv6temp.com/mangakakalot/l1/lh919421/vol1_chapter_2/13.jpg",
    "https://img-proxy.imgfo.com/?referer=https://manganelo.com&url=https://s5.mkklcdnv6temp.com/mangakakalot/l1/lh919421/vol1_chapter_2/14.jpg",
    "https://img-proxy.imgfo.com/?referer=https://manganelo.com&url=https://s5.mkklcdnv6temp.com/mangakakalot/l1/lh919421/vol1_chapter_2/15.jpg",
    "https://img-proxy.imgfo.com/?referer=https://manganelo.com&url=https://s5.mkklcdnv6temp.com/mangakakalot/l1/lh919421/vol1_chapter_2/16.jpg",
    "https://img-proxy.imgfo.com/?referer=https://manganelo.com&url=https://s5.mkklcdnv6temp.com/mangakakalot/l1/lh919421/vol1_chapter_2/17.jpg",
    "https://img-proxy.imgfo.com/?referer=https://manganelo.com&url=https://s5.mkklcdnv6temp.com/mangakakalot/l1/lh919421/vol1_chapter_2/18.jpg",
    "https://img-proxy.imgfo.com/?referer=https://manganelo.com&url=https://s5.mkklcdnv6temp.com/mangakakalot/l1/lh919421/vol1_chapter_2/19.jpg"
  ]
}