{
  "cover": "https://avt.mkklcdnv6.com/45/m/3-1583469464.jpg",
  "title": "Dakedo Happy Paradise",
  "original": "だけど ハッピー パラダイス ; だけど HAPPY PARADISE ; 快乐天堂 ; But It's a Happy Paradise ; Dakedo Happii Paradaisu ; Pero Si Es Un Paraiso Feliz (Spanish)",
  "genre": "Comedy, Drama, Harem, Shoujo, Manga",
  "author": "Takarada Iyo",
  "status": "Completed",
  "backlink": "https://manganu.com/collections/takarada-iyo/dakedo-happy-paradise/",
  "description": "Our heroine, Ruu MACHIDA, is having a hard time. Her mother died when she was little, and her father, with whom she had been living, has disappeared without a trace after getting into debt. Ruu is on her own.\nTo make ends meet, she takes a job as a live-in maid for a very wealthy household. To Ruu's surprise, the house she ends up working at is the home of three cute brothers, and she already knows one of them! They agree to let Ruu work there because they are often alone and they could use the help. Their parents are often away on business. Ruu moves in and works hard as a maid, and they all become very close. But things aren't always smooth sailing. Ruu has a lot of pressure on her because of her father's debts, and three very cute guys to deal with!",
  "language": "English",
  "images": [
    "https://img-proxy.imgfo.com/?referer=https://manganelo.com&url=https://s3.mkklcdnv6temp.com/mangakakalot/d1/dakedo_happy_paradise/vol2_chapter_8/1.jpg",
    "https://img-proxy.imgfo.com/?referer=https://manganelo.com&url=https://s3.mkklcdnv6temp.com/mangakakalot/d1/dakedo_happy_paradise/vol2_chapter_8/2.jpg",
    "https://img-proxy.imgfo.com/?referer=https://manganelo.com&url=https://s3.mkklcdnv6temp.com/mangakakalot/d1/dakedo_happy_paradise/vol2_chapter_8/3.jpg",
    "https://img-proxy.imgfo.com/?referer=https://manganelo.com&url=https://s3.mkklcdnv6temp.com/mangakakalot/d1/dakedo_happy_paradise/vol2_chapter_8/4.jpg",
    "https://img-proxy.imgfo.com/?referer=https://manganelo.com&url=https://s3.mkklcdnv6temp.com/mangakakalot/d1/dakedo_happy_paradise/vol2_chapter_8/5.jpg",
    "https://img-proxy.imgfo.com/?referer=https://manganelo.com&url=https://s3.mkklcdnv6temp.com/mangakakalot/d1/dakedo_happy_paradise/vol2_chapter_8/6.jpg",
    "https://img-proxy.imgfo.com/?referer=https://manganelo.com&url=https://s3.mkklcdnv6temp.com/mangakakalot/d1/dakedo_happy_paradise/vol2_chapter_8/7.jpg",
    "https://img-proxy.imgfo.com/?referer=https://manganelo.com&url=https://s3.mkklcdnv6temp.com/mangakakalot/d1/dakedo_happy_paradise/vol2_chapter_8/8.jpg",
    "https://img-proxy.imgfo.com/?referer=https://manganelo.com&url=https://s3.mkklcdnv6temp.com/mangakakalot/d1/dakedo_happy_paradise/vol2_chapter_8/9.jpg",
    "https://img-proxy.imgfo.com/?referer=https://manganelo.com&url=https://s3.mkklcdnv6temp.com/mangakakalot/d1/dakedo_happy_paradise/vol2_chapter_8/10.jpg",
    "https://img-proxy.imgfo.com/?referer=https://manganelo.com&url=https://s3.mkklcdnv6temp.com/mangakakalot/d1/dakedo_happy_paradise/vol2_chapter_8/11.jpg",
    "https://img-proxy.imgfo.com/?referer=https://manganelo.com&url=https://s3.mkklcdnv6temp.com/mangakakalot/d1/dakedo_happy_paradise/vol2_chapter_8/12.jpg",
    "https://img-proxy.imgfo.com/?referer=https://manganelo.com&url=https://s3.mkklcdnv6temp.com/mangakakalot/d1/dakedo_happy_paradise/vol2_chapter_8/13.jpg",
    "https://img-proxy.imgfo.com/?referer=https://manganelo.com&url=https://s3.mkklcdnv6temp.com/mangakakalot/d1/dakedo_happy_paradise/vol2_chapter_8/14.jpg",
    "https://img-proxy.imgfo.com/?referer=https://manganelo.com&url=https://s3.mkklcdnv6temp.com/mangakakalot/d1/dakedo_happy_paradise/vol2_chapter_8/15.jpg",
    "https://img-proxy.imgfo.com/?referer=https://manganelo.com&url=https://s3.mkklcdnv6temp.com/mangakakalot/d1/dakedo_happy_paradise/vol2_chapter_8/16.jpg",
    "https://img-proxy.imgfo.com/?referer=https://manganelo.com&url=https://s3.mkklcdnv6temp.com/mangakakalot/d1/dakedo_happy_paradise/vol2_chapter_8/17.jpg",
    "https://img-proxy.imgfo.com/?referer=https://manganelo.com&url=https://s3.mkklcdnv6temp.com/mangakakalot/d1/dakedo_happy_paradise/vol2_chapter_8/18.jpg",
    "https://img-proxy.imgfo.com/?referer=https://manganelo.com&url=https://s3.mkklcdnv6temp.com/mangakakalot/d1/dakedo_happy_paradise/vol2_chapter_8/19.jpg",
    "https://img-proxy.imgfo.com/?referer=https://manganelo.com&url=https://s3.mkklcdnv6temp.com/mangakakalot/d1/dakedo_happy_paradise/vol2_chapter_8/20.jpg",
    "https://img-proxy.imgfo.com/?referer=https://manganelo.com&url=https://s3.mkklcdnv6temp.com/mangakakalot/d1/dakedo_happy_paradise/vol2_chapter_8/21.jpg",
    "https://img-proxy.imgfo.com/?referer=https://manganelo.com&url=https://s3.mkklcdnv6temp.com/mangakakalot/d1/dakedo_happy_paradise/vol2_chapter_8/22.jpg",
    "https://img-proxy.imgfo.com/?referer=https://manganelo.com&url=https://s3.mkklcdnv6temp.com/mangakakalot/d1/dakedo_happy_paradise/vol2_chapter_8/23.jpg",
    "https://img-proxy.imgfo.com/?referer=https://manganelo.com&url=https://s3.mkklcdnv6temp.com/mangakakalot/d1/dakedo_happy_paradise/vol2_chapter_8/24.jpg",
    "https://img-proxy.imgfo.com/?referer=https://manganelo.com&url=https://s3.mkklcdnv6temp.com/mangakakalot/d1/dakedo_happy_paradise/vol2_chapter_8/25.jpg",
    "https://img-proxy.imgfo.com/?referer=https://manganelo.com&url=https://s3.mkklcdnv6temp.com/mangakakalot/d1/dakedo_happy_paradise/vol2_chapter_8/26.jpg",
    "https://img-proxy.imgfo.com/?referer=https://manganelo.com&url=https://s3.mkklcdnv6temp.com/mangakakalot/d1/dakedo_happy_paradise/vol2_chapter_8/27.jpg",
    "https://img-proxy.imgfo.com/?referer=https://manganelo.com&url=https://s3.mkklcdnv6temp.com/mangakakalot/d1/dakedo_happy_paradise/vol2_chapter_8/28.jpg",
    "https://img-proxy.imgfo.com/?referer=https://manganelo.com&url=https://s3.mkklcdnv6temp.com/mangakakalot/d1/dakedo_happy_paradise/vol2_chapter_8/29.jpg",
    "https://img-proxy.imgfo.com/?referer=https://manganelo.com&url=https://s3.mkklcdnv6temp.com/mangakakalot/d1/dakedo_happy_paradise/vol2_chapter_8/30.jpg",
    "https://img-proxy.imgfo.com/?referer=https://manganelo.com&url=https://s3.mkklcdnv6temp.com/mangakakalot/d1/dakedo_happy_paradise/vol2_chapter_8/31.jpg",
    "https://img-proxy.imgfo.com/?referer=https://manganelo.com&url=https://s3.mkklcdnv6temp.com/mangakakalot/d1/dakedo_happy_paradise/vol2_chapter_8/32.jpg",
    "https://img-proxy.imgfo.com/?referer=https://manganelo.com&url=https://s3.mkklcdnv6temp.com/mangakakalot/d1/dakedo_happy_paradise/vol2_chapter_8/33.jpg",
    "https://img-proxy.imgfo.com/?referer=https://manganelo.com&url=https://s3.mkklcdnv6temp.com/mangakakalot/d1/dakedo_happy_paradise/vol2_chapter_8/34.jpg",
    "https://img-proxy.imgfo.com/?referer=https://manganelo.com&url=https://s3.mkklcdnv6temp.com/mangakakalot/d1/dakedo_happy_paradise/vol2_chapter_8/35.jpg",
    "https://img-proxy.imgfo.com/?referer=https://manganelo.com&url=https://s3.mkklcdnv6temp.com/mangakakalot/d1/dakedo_happy_paradise/vol2_chapter_8/36.jpg",
    "https://img-proxy.imgfo.com/?referer=https://manganelo.com&url=https://s3.mkklcdnv6temp.com/mangakakalot/d1/dakedo_happy_paradise/vol2_chapter_8/37.jpg",
    "https://img-proxy.imgfo.com/?referer=https://manganelo.com&url=https://s3.mkklcdnv6temp.com/mangakakalot/d1/dakedo_happy_paradise/vol2_chapter_8/38.jpg",
    "https://img-proxy.imgfo.com/?referer=https://manganelo.com&url=https://s3.mkklcdnv6temp.com/mangakakalot/d1/dakedo_happy_paradise/vol2_chapter_8/39.jpg",
    "https://img-proxy.imgfo.com/?referer=https://manganelo.com&url=https://s3.mkklcdnv6temp.com/mangakakalot/d1/dakedo_happy_paradise/vol2_chapter_8/40.jpg",
    "https://img-proxy.imgfo.com/?referer=https://manganelo.com&url=https://s3.mkklcdnv6temp.com/mangakakalot/d1/dakedo_happy_paradise/vol2_chapter_8/41.jpg",
    "https://img-proxy.imgfo.com/?referer=https://manganelo.com&url=https://s3.mkklcdnv6temp.com/mangakakalot/d1/dakedo_happy_paradise/vol2_chapter_8/42.jpg"
  ]
}