{
  "cover": "https://avt.mkklcdnv6.com/40/r/17-1583496729.jpg",
  "title": "Jojo's Bizarre Adventure Part 6 - Stone Ocean",
  "original": "JoJo no Kimyō na Bōken; La Extraña Aventura de JoJo Parte 6: Stone Ocean; Sutōn Ō; ジョジョの奇妙な冒険; ストーンオーシャン",
  "genre": "Action, Adventure, Comedy, Drama, Mystery, Shounen, Supernatural, Manga",
  "author": "Araki Hirohiko",
  "status": "Completed",
  "backlink": "https://manganu.com/collections/araki-hirohiko/jojos-bizarre-adventure-part-6-stone-ocean/",
  "description": "Sixth story arc of JoJo no Kimyou na Bouken series.\n\nThe story of Jotaro kujo&#39;s daughter, Jolyne Cujoh. She is framed for a murder and ends up in the Green Dolphin Street Prison. She is given an amulet inherited from her father, which cuts her hand and unlocks her Stand ability, Stone Free, which allows her to unravel her body into living string. The string can form a humanoid Stand within 2 meters of her body, and can extend further as string. In the prison, she soon becomes uneasy allies with fellow convicts and Stand users Hermes (Kiss) and Foofighters.",
  "language": "English",
  "images": [
    "https://img-proxy.imgfo.com/?referer=https://manganelo.com&url=https://s7.mkklcdnv6temp.com/mangakakalot/b1/bi918289/vol10_chapter_90_white_snake_pursuer_part_2/1.jpg",
    "https://img-proxy.imgfo.com/?referer=https://manganelo.com&url=https://s7.mkklcdnv6temp.com/mangakakalot/b1/bi918289/vol10_chapter_90_white_snake_pursuer_part_2/2.jpg",
    "https://img-proxy.imgfo.com/?referer=https://manganelo.com&url=https://s7.mkklcdnv6temp.com/mangakakalot/b1/bi918289/vol10_chapter_90_white_snake_pursuer_part_2/3.jpg",
    "https://img-proxy.imgfo.com/?referer=https://manganelo.com&url=https://s7.mkklcdnv6temp.com/mangakakalot/b1/bi918289/vol10_chapter_90_white_snake_pursuer_part_2/4.jpg",
    "https://img-proxy.imgfo.com/?referer=https://manganelo.com&url=https://s7.mkklcdnv6temp.com/mangakakalot/b1/bi918289/vol10_chapter_90_white_snake_pursuer_part_2/5.jpg",
    "https://img-proxy.imgfo.com/?referer=https://manganelo.com&url=https://s7.mkklcdnv6temp.com/mangakakalot/b1/bi918289/vol10_chapter_90_white_snake_pursuer_part_2/6.jpg",
    "https://img-proxy.imgfo.com/?referer=https://manganelo.com&url=https://s7.mkklcdnv6temp.com/mangakakalot/b1/bi918289/vol10_chapter_90_white_snake_pursuer_part_2/7.jpg",
    "https://img-proxy.imgfo.com/?referer=https://manganelo.com&url=https://s7.mkklcdnv6temp.com/mangakakalot/b1/bi918289/vol10_chapter_90_white_snake_pursuer_part_2/8.jpg",
    "https://img-proxy.imgfo.com/?referer=https://manganelo.com&url=https://s7.mkklcdnv6temp.com/mangakakalot/b1/bi918289/vol10_chapter_90_white_snake_pursuer_part_2/9.jpg",
    "https://img-proxy.imgfo.com/?referer=https://manganelo.com&url=https://s7.mkklcdnv6temp.com/mangakakalot/b1/bi918289/vol10_chapter_90_white_snake_pursuer_part_2/10.jpg",
    "https://img-proxy.imgfo.com/?referer=https://manganelo.com&url=https://s7.mkklcdnv6temp.com/mangakakalot/b1/bi918289/vol10_chapter_90_white_snake_pursuer_part_2/11.jpg",
    "https://img-proxy.imgfo.com/?referer=https://manganelo.com&url=https://s7.mkklcdnv6temp.com/mangakakalot/b1/bi918289/vol10_chapter_90_white_snake_pursuer_part_2/12.jpg",
    "https://img-proxy.imgfo.com/?referer=https://manganelo.com&url=https://s7.mkklcdnv6temp.com/mangakakalot/b1/bi918289/vol10_chapter_90_white_snake_pursuer_part_2/13.jpg",
    "https://img-proxy.imgfo.com/?referer=https://manganelo.com&url=https://s7.mkklcdnv6temp.com/mangakakalot/b1/bi918289/vol10_chapter_90_white_snake_pursuer_part_2/14.jpg",
    "https://img-proxy.imgfo.com/?referer=https://manganelo.com&url=https://s7.mkklcdnv6temp.com/mangakakalot/b1/bi918289/vol10_chapter_90_white_snake_pursuer_part_2/15.jpg",
    "https://img-proxy.imgfo.com/?referer=https://manganelo.com&url=https://s7.mkklcdnv6temp.com/mangakakalot/b1/bi918289/vol10_chapter_90_white_snake_pursuer_part_2/16.jpg",
    "https://img-proxy.imgfo.com/?referer=https://manganelo.com&url=https://s7.mkklcdnv6temp.com/mangakakalot/b1/bi918289/vol10_chapter_90_white_snake_pursuer_part_2/17.jpg"
  ]
}