{
  "cover": "https://avt.mkklcdnv6.com/4/o/13-1583487893.jpg",
  "title": "Kemonotachi No Yoru",
  "original": "妖獸之夜 ; 獣たちの夜 ; Night of the Beasts ; Road Song (SHIOMI Chika) ; Tricky Area",
  "genre": "Action, Drama, Horror, Romance, Shoujo, Supernatural, Manga",
  "author": "Shiomi Chika",
  "status": "Completed",
  "backlink": "https://manganu.com/collections/shiomi-chika/kemonotachi-no-yoru/",
  "description": "High school tough girl Aria is notorious for taking on her school’s worst bullies. But punching out jerks is nothing compared to what happens when she finds herself inexplicably drawn to the demonically possessed Sakura, a guy who would as readily rip apart his own parents as seek her healing embrace. Sakura says Aria has the power to save him, but will she be able – or even willing to?",
  "language": "English",
  "images": [
    "https://img-proxy.imgfo.com/?referer=https://manganelo.com&url=https://s3.mkklcdnv6temp.com/mangakakalot/k1/kemonotachi_no_yoru/vol5_chapter_235_special_story_song_road/1.jpg",
    "https://img-proxy.imgfo.com/?referer=https://manganelo.com&url=https://s3.mkklcdnv6temp.com/mangakakalot/k1/kemonotachi_no_yoru/vol5_chapter_235_special_story_song_road/2.jpg",
    "https://img-proxy.imgfo.com/?referer=https://manganelo.com&url=https://s3.mkklcdnv6temp.com/mangakakalot/k1/kemonotachi_no_yoru/vol5_chapter_235_special_story_song_road/3.jpg",
    "https://img-proxy.imgfo.com/?referer=https://manganelo.com&url=https://s3.mkklcdnv6temp.com/mangakakalot/k1/kemonotachi_no_yoru/vol5_chapter_235_special_story_song_road/4.jpg",
    "https://img-proxy.imgfo.com/?referer=https://manganelo.com&url=https://s3.mkklcdnv6temp.com/mangakakalot/k1/kemonotachi_no_yoru/vol5_chapter_235_special_story_song_road/5.jpg",
    "https://img-proxy.imgfo.com/?referer=https://manganelo.com&url=https://s3.mkklcdnv6temp.com/mangakakalot/k1/kemonotachi_no_yoru/vol5_chapter_235_special_story_song_road/6.jpg",
    "https://img-proxy.imgfo.com/?referer=https://manganelo.com&url=https://s3.mkklcdnv6temp.com/mangakakalot/k1/kemonotachi_no_yoru/vol5_chapter_235_special_story_song_road/7.jpg",
    "https://img-proxy.imgfo.com/?referer=https://manganelo.com&url=https://s3.mkklcdnv6temp.com/mangakakalot/k1/kemonotachi_no_yoru/vol5_chapter_235_special_story_song_road/8.jpg",
    "https://img-proxy.imgfo.com/?referer=https://manganelo.com&url=https://s3.mkklcdnv6temp.com/mangakakalot/k1/kemonotachi_no_yoru/vol5_chapter_235_special_story_song_road/9.jpg",
    "https://img-proxy.imgfo.com/?referer=https://manganelo.com&url=https://s3.mkklcdnv6temp.com/mangakakalot/k1/kemonotachi_no_yoru/vol5_chapter_235_special_story_song_road/10.jpg",
    "https://img-proxy.imgfo.com/?referer=https://manganelo.com&url=https://s3.mkklcdnv6temp.com/mangakakalot/k1/kemonotachi_no_yoru/vol5_chapter_235_special_story_song_road/11.jpg",
    "https://img-proxy.imgfo.com/?referer=https://manganelo.com&url=https://s3.mkklcdnv6temp.com/mangakakalot/k1/kemonotachi_no_yoru/vol5_chapter_235_special_story_song_road/12.jpg",
    "https://img-proxy.imgfo.com/?referer=https://manganelo.com&url=https://s3.mkklcdnv6temp.com/mangakakalot/k1/kemonotachi_no_yoru/vol5_chapter_235_special_story_song_road/13.jpg",
    "https://img-proxy.imgfo.com/?referer=https://manganelo.com&url=https://s3.mkklcdnv6temp.com/mangakakalot/k1/kemonotachi_no_yoru/vol5_chapter_235_special_story_song_road/14.jpg",
    "https://img-proxy.imgfo.com/?referer=https://manganelo.com&url=https://s3.mkklcdnv6temp.com/mangakakalot/k1/kemonotachi_no_yoru/vol5_chapter_235_special_story_song_road/15.jpg",
    "https://img-proxy.imgfo.com/?referer=https://manganelo.com&url=https://s3.mkklcdnv6temp.com/mangakakalot/k1/kemonotachi_no_yoru/vol5_chapter_235_special_story_song_road/16.jpg",
    "https://img-proxy.imgfo.com/?referer=https://manganelo.com&url=https://s3.mkklcdnv6temp.com/mangakakalot/k1/kemonotachi_no_yoru/vol5_chapter_235_special_story_song_road/17.jpg",
    "https://img-proxy.imgfo.com/?referer=https://manganelo.com&url=https://s3.mkklcdnv6temp.com/mangakakalot/k1/kemonotachi_no_yoru/vol5_chapter_235_special_story_song_road/18.jpg",
    "https://img-proxy.imgfo.com/?referer=https://manganelo.com&url=https://s3.mkklcdnv6temp.com/mangakakalot/k1/kemonotachi_no_yoru/vol5_chapter_235_special_story_song_road/19.jpg",
    "https://img-proxy.imgfo.com/?referer=https://manganelo.com&url=https://s3.mkklcdnv6temp.com/mangakakalot/k1/kemonotachi_no_yoru/vol5_chapter_235_special_story_song_road/20.jpg",
    "https://img-proxy.imgfo.com/?referer=https://manganelo.com&url=https://s3.mkklcdnv6temp.com/mangakakalot/k1/kemonotachi_no_yoru/vol5_chapter_235_special_story_song_road/21.jpg",
    "https://img-proxy.imgfo.com/?referer=https://manganelo.com&url=https://s3.mkklcdnv6temp.com/mangakakalot/k1/kemonotachi_no_yoru/vol5_chapter_235_special_story_song_road/22.jpg",
    "https://img-proxy.imgfo.com/?referer=https://manganelo.com&url=https://s3.mkklcdnv6temp.com/mangakakalot/k1/kemonotachi_no_yoru/vol5_chapter_235_special_story_song_road/23.jpg",
    "https://img-proxy.imgfo.com/?referer=https://manganelo.com&url=https://s3.mkklcdnv6temp.com/mangakakalot/k1/kemonotachi_no_yoru/vol5_chapter_235_special_story_song_road/24.jpg",
    "https://img-proxy.imgfo.com/?referer=https://manganelo.com&url=https://s3.mkklcdnv6temp.com/mangakakalot/k1/kemonotachi_no_yoru/vol5_chapter_235_special_story_song_road/25.jpg",
    "https://img-proxy.imgfo.com/?referer=https://manganelo.com&url=https://s3.mkklcdnv6temp.com/mangakakalot/k1/kemonotachi_no_yoru/vol5_chapter_235_special_story_song_road/26.jpg",
    "https://img-proxy.imgfo.com/?referer=https://manganelo.com&url=https://s3.mkklcdnv6temp.com/mangakakalot/k1/kemonotachi_no_yoru/vol5_chapter_235_special_story_song_road/27.jpg",
    "https://img-proxy.imgfo.com/?referer=https://manganelo.com&url=https://s3.mkklcdnv6temp.com/mangakakalot/k1/kemonotachi_no_yoru/vol5_chapter_235_special_story_song_road/28.jpg",
    "https://img-proxy.imgfo.com/?referer=https://manganelo.com&url=https://s3.mkklcdnv6temp.com/mangakakalot/k1/kemonotachi_no_yoru/vol5_chapter_235_special_story_song_road/29.jpg",
    "https://img-proxy.imgfo.com/?referer=https://manganelo.com&url=https://s3.mkklcdnv6temp.com/mangakakalot/k1/kemonotachi_no_yoru/vol5_chapter_235_special_story_song_road/30.jpg",
    "https://img-proxy.imgfo.com/?referer=https://manganelo.com&url=https://s3.mkklcdnv6temp.com/mangakakalot/k1/kemonotachi_no_yoru/vol5_chapter_235_special_story_song_road/31.jpg",
    "https://img-proxy.imgfo.com/?referer=https://manganelo.com&url=https://s3.mkklcdnv6temp.com/mangakakalot/k1/kemonotachi_no_yoru/vol5_chapter_235_special_story_song_road/32.jpg",
    "https://img-proxy.imgfo.com/?referer=https://manganelo.com&url=https://s3.mkklcdnv6temp.com/mangakakalot/k1/kemonotachi_no_yoru/vol5_chapter_235_special_story_song_road/33.jpg",
    "https://img-proxy.imgfo.com/?referer=https://manganelo.com&url=https://s3.mkklcdnv6temp.com/mangakakalot/k1/kemonotachi_no_yoru/vol5_chapter_235_special_story_song_road/34.jpg",
    "https://img-proxy.imgfo.com/?referer=https://manganelo.com&url=https://s3.mkklcdnv6temp.com/mangakakalot/k1/kemonotachi_no_yoru/vol5_chapter_235_special_story_song_road/35.jpg",
    "https://img-proxy.imgfo.com/?referer=https://manganelo.com&url=https://s3.mkklcdnv6temp.com/mangakakalot/k1/kemonotachi_no_yoru/vol5_chapter_235_special_story_song_road/36.jpg",
    "https://img-proxy.imgfo.com/?referer=https://manganelo.com&url=https://s3.mkklcdnv6temp.com/mangakakalot/k1/kemonotachi_no_yoru/vol5_chapter_235_special_story_song_road/37.jpg",
    "https://img-proxy.imgfo.com/?referer=https://manganelo.com&url=https://s3.mkklcdnv6temp.com/mangakakalot/k1/kemonotachi_no_yoru/vol5_chapter_235_special_story_song_road/38.jpg",
    "https://img-proxy.imgfo.com/?referer=https://manganelo.com&url=https://s3.mkklcdnv6temp.com/mangakakalot/k1/kemonotachi_no_yoru/vol5_chapter_235_special_story_song_road/39.jpg",
    "https://img-proxy.imgfo.com/?referer=https://manganelo.com&url=https://s3.mkklcdnv6temp.com/mangakakalot/k1/kemonotachi_no_yoru/vol5_chapter_235_special_story_song_road/40.jpg"
  ]
}