{
  "cover": "https://avt.mkklcdnv6.com/20/e/11-1583484745.jpg",
  "title": "Yappa Ai Desho!?",
  "original": "やっぱ愛でしょ！？ ; Yappa ai deshou",
  "genre": "Oneshot, Yaoi, Manga",
  "author": "Atene",
  "status": "Completed",
  "backlink": "https://manganu.com/collections/atene/yappa-ai-desho/",
  "description": "Collection of One Shots.\n1)\n2) Which One Is The Cool One\n3)\n4)\n5)\n6) Step Brother\nAsaji Kouyo gains a new brother (Makoto) through his father remarriage. Asaji is wondering why Makoto is cold to him? When he learns the truth what will happen to their relationship?\n7)\nContinuation to Step Brother.\nAsaji and Makoto parents goes on a vacation. What will happen between them when their parents are away?\n8)\nToyota Ashashi and Akiyama Shigetomo meet each other at the convenience store. They are from the same class. They start to have a friendship. Akiyama starts to have feelings for Toyota. When Toyota learnes that Akiyama likes him will he accept Akiyama's feelings?\n9)",
  "language": "English",
  "images": [
    "https://img-proxy.imgfo.com/?referer=https://manganelo.com&url=https://s5.mkklcdnv6temp.com/mangakakalot/y1/yappa_ai_desho/vol1_chapter_7/1.jpg",
    "https://img-proxy.imgfo.com/?referer=https://manganelo.com&url=https://s5.mkklcdnv6temp.com/mangakakalot/y1/yappa_ai_desho/vol1_chapter_7/2.jpg",
    "https://img-proxy.imgfo.com/?referer=https://manganelo.com&url=https://s5.mkklcdnv6temp.com/mangakakalot/y1/yappa_ai_desho/vol1_chapter_7/3.jpg",
    "https://img-proxy.imgfo.com/?referer=https://manganelo.com&url=https://s5.mkklcdnv6temp.com/mangakakalot/y1/yappa_ai_desho/vol1_chapter_7/4.jpg",
    "https://img-proxy.imgfo.com/?referer=https://manganelo.com&url=https://s5.mkklcdnv6temp.com/mangakakalot/y1/yappa_ai_desho/vol1_chapter_7/5.jpg",
    "https://img-proxy.imgfo.com/?referer=https://manganelo.com&url=https://s5.mkklcdnv6temp.com/mangakakalot/y1/yappa_ai_desho/vol1_chapter_7/6.jpg",
    "https://img-proxy.imgfo.com/?referer=https://manganelo.com&url=https://s5.mkklcdnv6temp.com/mangakakalot/y1/yappa_ai_desho/vol1_chapter_7/7.jpg",
    "https://img-proxy.imgfo.com/?referer=https://manganelo.com&url=https://s5.mkklcdnv6temp.com/mangakakalot/y1/yappa_ai_desho/vol1_chapter_7/8.jpg",
    "https://img-proxy.imgfo.com/?referer=https://manganelo.com&url=https://s5.mkklcdnv6temp.com/mangakakalot/y1/yappa_ai_desho/vol1_chapter_7/9.jpg",
    "https://img-proxy.imgfo.com/?referer=https://manganelo.com&url=https://s5.mkklcdnv6temp.com/mangakakalot/y1/yappa_ai_desho/vol1_chapter_7/10.jpg",
    "https://img-proxy.imgfo.com/?referer=https://manganelo.com&url=https://s5.mkklcdnv6temp.com/mangakakalot/y1/yappa_ai_desho/vol1_chapter_7/11.jpg",
    "https://img-proxy.imgfo.com/?referer=https://manganelo.com&url=https://s5.mkklcdnv6temp.com/mangakakalot/y1/yappa_ai_desho/vol1_chapter_7/12.jpg",
    "https://img-proxy.imgfo.com/?referer=https://manganelo.com&url=https://s5.mkklcdnv6temp.com/mangakakalot/y1/yappa_ai_desho/vol1_chapter_7/13.jpg",
    "https://img-proxy.imgfo.com/?referer=https://manganelo.com&url=https://s5.mkklcdnv6temp.com/mangakakalot/y1/yappa_ai_desho/vol1_chapter_7/14.jpg",
    "https://img-proxy.imgfo.com/?referer=https://manganelo.com&url=https://s5.mkklcdnv6temp.com/mangakakalot/y1/yappa_ai_desho/vol1_chapter_7/15.jpg",
    "https://img-proxy.imgfo.com/?referer=https://manganelo.com&url=https://s5.mkklcdnv6temp.com/mangakakalot/y1/yappa_ai_desho/vol1_chapter_7/16.jpg",
    "https://img-proxy.imgfo.com/?referer=https://manganelo.com&url=https://s5.mkklcdnv6temp.com/mangakakalot/y1/yappa_ai_desho/vol1_chapter_7/17.jpg",
    "https://img-proxy.imgfo.com/?referer=https://manganelo.com&url=https://s5.mkklcdnv6temp.com/mangakakalot/y1/yappa_ai_desho/vol1_chapter_7/18.jpg",
    "https://img-proxy.imgfo.com/?referer=https://manganelo.com&url=https://s5.mkklcdnv6temp.com/mangakakalot/y1/yappa_ai_desho/vol1_chapter_7/19.jpg",
    "https://img-proxy.imgfo.com/?referer=https://manganelo.com&url=https://s5.mkklcdnv6temp.com/mangakakalot/y1/yappa_ai_desho/vol1_chapter_7/20.jpg",
    "https://img-proxy.imgfo.com/?referer=https://manganelo.com&url=https://s5.mkklcdnv6temp.com/mangakakalot/y1/yappa_ai_desho/vol1_chapter_7/21.jpg",
    "https://img-proxy.imgfo.com/?referer=https://manganelo.com&url=https://s5.mkklcdnv6temp.com/mangakakalot/y1/yappa_ai_desho/vol1_chapter_7/22.jpg",
    "https://img-proxy.imgfo.com/?referer=https://manganelo.com&url=https://s5.mkklcdnv6temp.com/mangakakalot/y1/yappa_ai_desho/vol1_chapter_7/23.jpg",
    "https://img-proxy.imgfo.com/?referer=https://manganelo.com&url=https://s5.mkklcdnv6temp.com/mangakakalot/y1/yappa_ai_desho/vol1_chapter_7/24.jpg",
    "https://img-proxy.imgfo.com/?referer=https://manganelo.com&url=https://s5.mkklcdnv6temp.com/mangakakalot/y1/yappa_ai_desho/vol1_chapter_7/25.jpg"
  ]
}