{
  "cover": "https://avt.mkklcdnv6.com/34/q/13-1583488981.jpg",
  "title": "Kabocha No Bouken",
  "original": "カボチャの冒険 ; Adventure of Kabocha ; Kabocha's Adventure ; Pumpkin's Adventure",
  "genre": "Seinen, Slice of life, Manga",
  "author": "Igarashi Daisuke",
  "status": "Completed",
  "backlink": "https://manganu.com/collections/igarashi-daisuke/kabocha-no-bouken/",
  "description": "The natural daily life of a cat and his owner. This manga is a diary of country living and it's perfect for cat lovers.",
  "language": "English",
  "images": [
    "https://img-proxy.imgfo.com/?referer=https://manganelo.com&url=https://s5.mkklcdnv6temp.com/mangakakalot/k1/kabocha_no_bouken/vol1_chapter_7/1.jpg",
    "https://img-proxy.imgfo.com/?referer=https://manganelo.com&url=https://s5.mkklcdnv6temp.com/mangakakalot/k1/kabocha_no_bouken/vol1_chapter_7/2.jpg",
    "https://img-proxy.imgfo.com/?referer=https://manganelo.com&url=https://s5.mkklcdnv6temp.com/mangakakalot/k1/kabocha_no_bouken/vol1_chapter_7/3.jpg",
    "https://img-proxy.imgfo.com/?referer=https://manganelo.com&url=https://s5.mkklcdnv6temp.com/mangakakalot/k1/kabocha_no_bouken/vol1_chapter_7/4.jpg",
    "https://img-proxy.imgfo.com/?referer=https://manganelo.com&url=https://s5.mkklcdnv6temp.com/mangakakalot/k1/kabocha_no_bouken/vol1_chapter_7/5.jpg",
    "https://img-proxy.imgfo.com/?referer=https://manganelo.com&url=https://s5.mkklcdnv6temp.com/mangakakalot/k1/kabocha_no_bouken/vol1_chapter_7/6.jpg",
    "https://img-proxy.imgfo.com/?referer=https://manganelo.com&url=https://s5.mkklcdnv6temp.com/mangakakalot/k1/kabocha_no_bouken/vol1_chapter_7/7.jpg",
    "https://img-proxy.imgfo.com/?referer=https://manganelo.com&url=https://s5.mkklcdnv6temp.com/mangakakalot/k1/kabocha_no_bouken/vol1_chapter_7/8.jpg"
  ]
}