{
  "cover": "https://avt.mkklcdnv6.com/47/w/4-1583471697.jpg",
  "title": "Lost Universe",
  "original": "ロスト・ユニバース",
  "genre": "Action, Comedy, Fantasy, Shounen, Manga",
  "author": "Kanzaka Hajime",
  "status": "Completed",
  "backlink": "https://manganu.com/collections/kanzaka-hajime/lost-universe/",
  "description": "Kane Blueriver and Canal, his AI companion, are trouble contractors who take jobs which require their special skills. This could go from armed escort, to patrol, to capturing dangerous criminals. Milly is a private eye who has to be the best at everything (uchuu ichi!!). When the three of them get together, they run into one mess after another, gradually uncovering more of a mystery that ties the legendary Lost Ships to all of their pasts, bringing them closer and closer to a discovery that something called Nightmare would rather not have them find...",
  "language": "English",
  "images": [
    "https://img-proxy.imgfo.com/?referer=https://manganelo.com&url=https://s3.mkklcdnv6temp.com/mangakakalot/l2/lost_universe/vol1_chapter_3_lost3_air_battle/1.jpg",
    "https://img-proxy.imgfo.com/?referer=https://manganelo.com&url=https://s3.mkklcdnv6temp.com/mangakakalot/l2/lost_universe/vol1_chapter_3_lost3_air_battle/2.jpg",
    "https://img-proxy.imgfo.com/?referer=https://manganelo.com&url=https://s3.mkklcdnv6temp.com/mangakakalot/l2/lost_universe/vol1_chapter_3_lost3_air_battle/3.jpg",
    "https://img-proxy.imgfo.com/?referer=https://manganelo.com&url=https://s3.mkklcdnv6temp.com/mangakakalot/l2/lost_universe/vol1_chapter_3_lost3_air_battle/4.jpg",
    "https://img-proxy.imgfo.com/?referer=https://manganelo.com&url=https://s3.mkklcdnv6temp.com/mangakakalot/l2/lost_universe/vol1_chapter_3_lost3_air_battle/5.jpg",
    "https://img-proxy.imgfo.com/?referer=https://manganelo.com&url=https://s3.mkklcdnv6temp.com/mangakakalot/l2/lost_universe/vol1_chapter_3_lost3_air_battle/6.jpg",
    "https://img-proxy.imgfo.com/?referer=https://manganelo.com&url=https://s3.mkklcdnv6temp.com/mangakakalot/l2/lost_universe/vol1_chapter_3_lost3_air_battle/7.jpg",
    "https://img-proxy.imgfo.com/?referer=https://manganelo.com&url=https://s3.mkklcdnv6temp.com/mangakakalot/l2/lost_universe/vol1_chapter_3_lost3_air_battle/8.jpg",
    "https://img-proxy.imgfo.com/?referer=https://manganelo.com&url=https://s3.mkklcdnv6temp.com/mangakakalot/l2/lost_universe/vol1_chapter_3_lost3_air_battle/9.jpg",
    "https://img-proxy.imgfo.com/?referer=https://manganelo.com&url=https://s3.mkklcdnv6temp.com/mangakakalot/l2/lost_universe/vol1_chapter_3_lost3_air_battle/10.jpg",
    "https://img-proxy.imgfo.com/?referer=https://manganelo.com&url=https://s3.mkklcdnv6temp.com/mangakakalot/l2/lost_universe/vol1_chapter_3_lost3_air_battle/11.jpg",
    "https://img-proxy.imgfo.com/?referer=https://manganelo.com&url=https://s3.mkklcdnv6temp.com/mangakakalot/l2/lost_universe/vol1_chapter_3_lost3_air_battle/12.jpg",
    "https://img-proxy.imgfo.com/?referer=https://manganelo.com&url=https://s3.mkklcdnv6temp.com/mangakakalot/l2/lost_universe/vol1_chapter_3_lost3_air_battle/13.jpg",
    "https://img-proxy.imgfo.com/?referer=https://manganelo.com&url=https://s3.mkklcdnv6temp.com/mangakakalot/l2/lost_universe/vol1_chapter_3_lost3_air_battle/14.jpg",
    "https://img-proxy.imgfo.com/?referer=https://manganelo.com&url=https://s3.mkklcdnv6temp.com/mangakakalot/l2/lost_universe/vol1_chapter_3_lost3_air_battle/15.jpg",
    "https://img-proxy.imgfo.com/?referer=https://manganelo.com&url=https://s3.mkklcdnv6temp.com/mangakakalot/l2/lost_universe/vol1_chapter_3_lost3_air_battle/16.jpg",
    "https://img-proxy.imgfo.com/?referer=https://manganelo.com&url=https://s3.mkklcdnv6temp.com/mangakakalot/l2/lost_universe/vol1_chapter_3_lost3_air_battle/17.jpg",
    "https://img-proxy.imgfo.com/?referer=https://manganelo.com&url=https://s3.mkklcdnv6temp.com/mangakakalot/l2/lost_universe/vol1_chapter_3_lost3_air_battle/18.jpg",
    "https://img-proxy.imgfo.com/?referer=https://manganelo.com&url=https://s3.mkklcdnv6temp.com/mangakakalot/l2/lost_universe/vol1_chapter_3_lost3_air_battle/19.jpg",
    "https://img-proxy.imgfo.com/?referer=https://manganelo.com&url=https://s3.mkklcdnv6temp.com/mangakakalot/l2/lost_universe/vol1_chapter_3_lost3_air_battle/20.jpg",
    "https://img-proxy.imgfo.com/?referer=https://manganelo.com&url=https://s3.mkklcdnv6temp.com/mangakakalot/l2/lost_universe/vol1_chapter_3_lost3_air_battle/21.jpg",
    "https://img-proxy.imgfo.com/?referer=https://manganelo.com&url=https://s3.mkklcdnv6temp.com/mangakakalot/l2/lost_universe/vol1_chapter_3_lost3_air_battle/22.jpg",
    "https://img-proxy.imgfo.com/?referer=https://manganelo.com&url=https://s3.mkklcdnv6temp.com/mangakakalot/l2/lost_universe/vol1_chapter_3_lost3_air_battle/23.jpg",
    "https://img-proxy.imgfo.com/?referer=https://manganelo.com&url=https://s3.mkklcdnv6temp.com/mangakakalot/l2/lost_universe/vol1_chapter_3_lost3_air_battle/24.jpg",
    "https://img-proxy.imgfo.com/?referer=https://manganelo.com&url=https://s3.mkklcdnv6temp.com/mangakakalot/l2/lost_universe/vol1_chapter_3_lost3_air_battle/25.jpg",
    "https://img-proxy.imgfo.com/?referer=https://manganelo.com&url=https://s3.mkklcdnv6temp.com/mangakakalot/l2/lost_universe/vol1_chapter_3_lost3_air_battle/26.jpg",
    "https://img-proxy.imgfo.com/?referer=https://manganelo.com&url=https://s3.mkklcdnv6temp.com/mangakakalot/l2/lost_universe/vol1_chapter_3_lost3_air_battle/27.jpg"
  ]
}