{
  "cover": "https://avt.mkklcdnv6.com/7/u/10-1583482453.jpg",
  "title": "Usotsuki Wa Dareda",
  "original": "嘘つきはだれだ ; 愛情騙子 ; Usotsuki wa dare da ; Who's the Liar",
  "genre": "Drama, Yaoi, Manga",
  "author": "Yukimura",
  "status": "Completed",
  "backlink": "https://manganu.com/collections/yukimura/usotsuki-wa-dareda/",
  "description": "Ichita and Hiromu are childhood friends and neighbors. But when Hiromu sees Ichita making out with another guy, he calls it \"disgusting\" and stops speaking to Ichita. Does Ichita just want his friend back? Or does he want something more from Hiromu?",
  "language": "English",
  "images": [
    "https://img-proxy.imgfo.com/?referer=https://manganelo.com&url=https://s41.mkklcdnv6temp.com/mangakakalot/u2/usotsuki_wa_dareda/vol1_chapter_6/1.jpg",
    "https://img-proxy.imgfo.com/?referer=https://manganelo.com&url=https://s41.mkklcdnv6temp.com/mangakakalot/u2/usotsuki_wa_dareda/vol1_chapter_6/2.jpg",
    "https://img-proxy.imgfo.com/?referer=https://manganelo.com&url=https://s41.mkklcdnv6temp.com/mangakakalot/u2/usotsuki_wa_dareda/vol1_chapter_6/3.jpg",
    "https://img-proxy.imgfo.com/?referer=https://manganelo.com&url=https://s41.mkklcdnv6temp.com/mangakakalot/u2/usotsuki_wa_dareda/vol1_chapter_6/4.jpg",
    "https://img-proxy.imgfo.com/?referer=https://manganelo.com&url=https://s41.mkklcdnv6temp.com/mangakakalot/u2/usotsuki_wa_dareda/vol1_chapter_6/5.jpg",
    "https://img-proxy.imgfo.com/?referer=https://manganelo.com&url=https://s41.mkklcdnv6temp.com/mangakakalot/u2/usotsuki_wa_dareda/vol1_chapter_6/6.jpg",
    "https://img-proxy.imgfo.com/?referer=https://manganelo.com&url=https://s41.mkklcdnv6temp.com/mangakakalot/u2/usotsuki_wa_dareda/vol1_chapter_6/7.jpg",
    "https://img-proxy.imgfo.com/?referer=https://manganelo.com&url=https://s41.mkklcdnv6temp.com/mangakakalot/u2/usotsuki_wa_dareda/vol1_chapter_6/8.jpg",
    "https://img-proxy.imgfo.com/?referer=https://manganelo.com&url=https://s41.mkklcdnv6temp.com/mangakakalot/u2/usotsuki_wa_dareda/vol1_chapter_6/9.jpg",
    "https://img-proxy.imgfo.com/?referer=https://manganelo.com&url=https://s41.mkklcdnv6temp.com/mangakakalot/u2/usotsuki_wa_dareda/vol1_chapter_6/10.jpg",
    "https://img-proxy.imgfo.com/?referer=https://manganelo.com&url=https://s41.mkklcdnv6temp.com/mangakakalot/u2/usotsuki_wa_dareda/vol1_chapter_6/11.jpg",
    "https://img-proxy.imgfo.com/?referer=https://manganelo.com&url=https://s41.mkklcdnv6temp.com/mangakakalot/u2/usotsuki_wa_dareda/vol1_chapter_6/12.jpg",
    "https://img-proxy.imgfo.com/?referer=https://manganelo.com&url=https://s41.mkklcdnv6temp.com/mangakakalot/u2/usotsuki_wa_dareda/vol1_chapter_6/13.jpg",
    "https://img-proxy.imgfo.com/?referer=https://manganelo.com&url=https://s41.mkklcdnv6temp.com/mangakakalot/u2/usotsuki_wa_dareda/vol1_chapter_6/14.jpg",
    "https://img-proxy.imgfo.com/?referer=https://manganelo.com&url=https://s41.mkklcdnv6temp.com/mangakakalot/u2/usotsuki_wa_dareda/vol1_chapter_6/15.jpg",
    "https://img-proxy.imgfo.com/?referer=https://manganelo.com&url=https://s41.mkklcdnv6temp.com/mangakakalot/u2/usotsuki_wa_dareda/vol1_chapter_6/16.jpg",
    "https://img-proxy.imgfo.com/?referer=https://manganelo.com&url=https://s41.mkklcdnv6temp.com/mangakakalot/u2/usotsuki_wa_dareda/vol1_chapter_6/17.jpg",
    "https://img-proxy.imgfo.com/?referer=https://manganelo.com&url=https://s41.mkklcdnv6temp.com/mangakakalot/u2/usotsuki_wa_dareda/vol1_chapter_6/18.jpg",
    "https://img-proxy.imgfo.com/?referer=https://manganelo.com&url=https://s41.mkklcdnv6temp.com/mangakakalot/u2/usotsuki_wa_dareda/vol1_chapter_6/19.jpg",
    "https://img-proxy.imgfo.com/?referer=https://manganelo.com&url=https://s41.mkklcdnv6temp.com/mangakakalot/u2/usotsuki_wa_dareda/vol1_chapter_6/20.jpg",
    "https://img-proxy.imgfo.com/?referer=https://manganelo.com&url=https://s41.mkklcdnv6temp.com/mangakakalot/u2/usotsuki_wa_dareda/vol1_chapter_6/21.jpg",
    "https://img-proxy.imgfo.com/?referer=https://manganelo.com&url=https://s41.mkklcdnv6temp.com/mangakakalot/u2/usotsuki_wa_dareda/vol1_chapter_6/22.jpg",
    "https://img-proxy.imgfo.com/?referer=https://manganelo.com&url=https://s41.mkklcdnv6temp.com/mangakakalot/u2/usotsuki_wa_dareda/vol1_chapter_6/23.jpg",
    "https://img-proxy.imgfo.com/?referer=https://manganelo.com&url=https://s41.mkklcdnv6temp.com/mangakakalot/u2/usotsuki_wa_dareda/vol1_chapter_6/24.jpg",
    "https://img-proxy.imgfo.com/?referer=https://manganelo.com&url=https://s41.mkklcdnv6temp.com/mangakakalot/u2/usotsuki_wa_dareda/vol1_chapter_6/25.jpg",
    "https://img-proxy.imgfo.com/?referer=https://manganelo.com&url=https://s41.mkklcdnv6temp.com/mangakakalot/u2/usotsuki_wa_dareda/vol1_chapter_6/26.jpg",
    "https://img-proxy.imgfo.com/?referer=https://manganelo.com&url=https://s41.mkklcdnv6temp.com/mangakakalot/u2/usotsuki_wa_dareda/vol1_chapter_6/27.jpg",
    "https://img-proxy.imgfo.com/?referer=https://manganelo.com&url=https://s41.mkklcdnv6temp.com/mangakakalot/u2/usotsuki_wa_dareda/vol1_chapter_6/28.jpg",
    "https://img-proxy.imgfo.com/?referer=https://manganelo.com&url=https://s41.mkklcdnv6temp.com/mangakakalot/u2/usotsuki_wa_dareda/vol1_chapter_6/29.jpg",
    "https://img-proxy.imgfo.com/?referer=https://manganelo.com&url=https://s41.mkklcdnv6temp.com/mangakakalot/u2/usotsuki_wa_dareda/vol1_chapter_6/30.jpg",
    "https://img-proxy.imgfo.com/?referer=https://manganelo.com&url=https://s41.mkklcdnv6temp.com/mangakakalot/u2/usotsuki_wa_dareda/vol1_chapter_6/31.jpg",
    "https://img-proxy.imgfo.com/?referer=https://manganelo.com&url=https://s41.mkklcdnv6temp.com/mangakakalot/u2/usotsuki_wa_dareda/vol1_chapter_6/32.jpg",
    "https://img-proxy.imgfo.com/?referer=https://manganelo.com&url=https://s41.mkklcdnv6temp.com/mangakakalot/u2/usotsuki_wa_dareda/vol1_chapter_6/33.jpg"
  ]
}