{
  "cover": "https://avt.mkklcdnv6.com/48/q/5-1583473791.jpg",
  "title": "Zombie Powder",
  "original": "ゾンビパウダー ; ＺＯＭＢＩＥＰＯＷＤＥＲ． ; ZOMBIE POWDER. ; ZOMBIEPOWDER ; ZOMBIEPOWDER.",
  "genre": "Action, Adult, Comedy, Shounen, Supernatural, Manga",
  "author": "Kubo Tite",
  "status": "Completed",
  "backlink": "https://manganu.com/collections/kubo-tite/zombie-powder/",
  "description": "Somewhere in the desert lies the world&#39;s greatest treasure: the 12 Rings of the Dead, the only source of the mysterious substance Zombie Powder, which can raise the dead and grant eternal life. Into this world stalks Gamma Akutabi, a man with a metal arm and a six-foot chainsaw, cybernetically enhanced master of the legendary martial art . But it takes more than one man to find the ultimate prize. You need a team: super-gunman C.T. Smith, knife-slinging teenager Elwood, and brilliant (and impossibly big-breasted) journalist Wolfgangina. Against an army of crooks and killers, against runaway trains and superpowered madmen, they&#39;ll need all their skills... but the most dangerous thing in the west might be the Rings themselves... NOTE: This series was never finished by Kubo Tite as it was dropped in favour of Bleach. As such it only has 4 volumes in total.",
  "language": "English",
  "images": [
    "https://img-proxy.imgfo.com/?referer=https://manganelo.com&url=https://s7.mkklcdnv6temp.com/mangakakalot/z2/zombie_powder/vol1_chapter_7_v2/1.jpg",
    "https://img-proxy.imgfo.com/?referer=https://manganelo.com&url=https://s7.mkklcdnv6temp.com/mangakakalot/z2/zombie_powder/vol1_chapter_7_v2/2.jpg",
    "https://img-proxy.imgfo.com/?referer=https://manganelo.com&url=https://s7.mkklcdnv6temp.com/mangakakalot/z2/zombie_powder/vol1_chapter_7_v2/3.jpg",
    "https://img-proxy.imgfo.com/?referer=https://manganelo.com&url=https://s7.mkklcdnv6temp.com/mangakakalot/z2/zombie_powder/vol1_chapter_7_v2/4.jpg",
    "https://img-proxy.imgfo.com/?referer=https://manganelo.com&url=https://s7.mkklcdnv6temp.com/mangakakalot/z2/zombie_powder/vol1_chapter_7_v2/5.jpg",
    "https://img-proxy.imgfo.com/?referer=https://manganelo.com&url=https://s7.mkklcdnv6temp.com/mangakakalot/z2/zombie_powder/vol1_chapter_7_v2/6.jpg",
    "https://img-proxy.imgfo.com/?referer=https://manganelo.com&url=https://s7.mkklcdnv6temp.com/mangakakalot/z2/zombie_powder/vol1_chapter_7_v2/7.jpg",
    "https://img-proxy.imgfo.com/?referer=https://manganelo.com&url=https://s7.mkklcdnv6temp.com/mangakakalot/z2/zombie_powder/vol1_chapter_7_v2/8.jpg",
    "https://img-proxy.imgfo.com/?referer=https://manganelo.com&url=https://s7.mkklcdnv6temp.com/mangakakalot/z2/zombie_powder/vol1_chapter_7_v2/9.jpg",
    "https://img-proxy.imgfo.com/?referer=https://manganelo.com&url=https://s7.mkklcdnv6temp.com/mangakakalot/z2/zombie_powder/vol1_chapter_7_v2/10.jpg",
    "https://img-proxy.imgfo.com/?referer=https://manganelo.com&url=https://s7.mkklcdnv6temp.com/mangakakalot/z2/zombie_powder/vol1_chapter_7_v2/11.jpg",
    "https://img-proxy.imgfo.com/?referer=https://manganelo.com&url=https://s7.mkklcdnv6temp.com/mangakakalot/z2/zombie_powder/vol1_chapter_7_v2/12.jpg",
    "https://img-proxy.imgfo.com/?referer=https://manganelo.com&url=https://s7.mkklcdnv6temp.com/mangakakalot/z2/zombie_powder/vol1_chapter_7_v2/13.jpg",
    "https://img-proxy.imgfo.com/?referer=https://manganelo.com&url=https://s7.mkklcdnv6temp.com/mangakakalot/z2/zombie_powder/vol1_chapter_7_v2/14.jpg",
    "https://img-proxy.imgfo.com/?referer=https://manganelo.com&url=https://s7.mkklcdnv6temp.com/mangakakalot/z2/zombie_powder/vol1_chapter_7_v2/15.jpg",
    "https://img-proxy.imgfo.com/?referer=https://manganelo.com&url=https://s7.mkklcdnv6temp.com/mangakakalot/z2/zombie_powder/vol1_chapter_7_v2/16.jpg",
    "https://img-proxy.imgfo.com/?referer=https://manganelo.com&url=https://s7.mkklcdnv6temp.com/mangakakalot/z2/zombie_powder/vol1_chapter_7_v2/17.jpg",
    "https://img-proxy.imgfo.com/?referer=https://manganelo.com&url=https://s7.mkklcdnv6temp.com/mangakakalot/z2/zombie_powder/vol1_chapter_7_v2/18.jpg",
    "https://img-proxy.imgfo.com/?referer=https://manganelo.com&url=https://s7.mkklcdnv6temp.com/mangakakalot/z2/zombie_powder/vol1_chapter_7_v2/19.jpg",
    "https://img-proxy.imgfo.com/?referer=https://manganelo.com&url=https://s7.mkklcdnv6temp.com/mangakakalot/z2/zombie_powder/vol1_chapter_7_v2/20.jpg",
    "https://img-proxy.imgfo.com/?referer=https://manganelo.com&url=https://s7.mkklcdnv6temp.com/mangakakalot/z2/zombie_powder/vol1_chapter_7_v2/21.jpg",
    "https://img-proxy.imgfo.com/?referer=https://manganelo.com&url=https://s7.mkklcdnv6temp.com/mangakakalot/z2/zombie_powder/vol1_chapter_7_v2/22.jpg",
    "https://img-proxy.imgfo.com/?referer=https://manganelo.com&url=https://s7.mkklcdnv6temp.com/mangakakalot/z2/zombie_powder/vol1_chapter_7_v2/23.jpg"
  ]
}