{
  "cover": "https://avt.mkklcdnv6.com/42/s/5-1583473568.jpg",
  "title": "It's Not Like That, Darling",
  "original": "そりゃないぜ ☆ ダーリン ; 同居達令 ; How Dare You-Darling ; It's Not Like That Darling ; So nicht, Darling ; Sorya Nai Ze Darling ; Sorya Nice Darling ; Soryanaize Darling ; Stress Pink",
  "genre": "Comedy, Drama, Josei, Romance, Smut, Supernatural, Manga",
  "author": "Nagae Tomomi",
  "status": "Completed",
  "backlink": "https://manganu.com/collections/nagae-tomomi/its-not-like-that-darling/",
  "description": "Maiko Ninomiya is college freshman again this year! All because of the accident a year ago that put her in the hospital for half a year. Not to let the fact that she was held back a year dishearten her, she made a complete recovery. But recently she keeps seeing erotic dreams... On top of that after meeting novelist Yukiya Nagase, strange things keep happening!?",
  "language": "English",
  "images": [
    "https://img-proxy.imgfo.com/?referer=https://manganelo.com&url=https://s41.mkklcdnv6temp.com/mangakakalot/i2/its_not_like_that_darling/vol1_chapter_11_the_unusual_and_unfortunate_meeting/1.jpg",
    "https://img-proxy.imgfo.com/?referer=https://manganelo.com&url=https://s41.mkklcdnv6temp.com/mangakakalot/i2/its_not_like_that_darling/vol1_chapter_11_the_unusual_and_unfortunate_meeting/2.jpg",
    "https://img-proxy.imgfo.com/?referer=https://manganelo.com&url=https://s41.mkklcdnv6temp.com/mangakakalot/i2/its_not_like_that_darling/vol1_chapter_11_the_unusual_and_unfortunate_meeting/3.jpg",
    "https://img-proxy.imgfo.com/?referer=https://manganelo.com&url=https://s41.mkklcdnv6temp.com/mangakakalot/i2/its_not_like_that_darling/vol1_chapter_11_the_unusual_and_unfortunate_meeting/4.jpg",
    "https://img-proxy.imgfo.com/?referer=https://manganelo.com&url=https://s41.mkklcdnv6temp.com/mangakakalot/i2/its_not_like_that_darling/vol1_chapter_11_the_unusual_and_unfortunate_meeting/5.jpg",
    "https://img-proxy.imgfo.com/?referer=https://manganelo.com&url=https://s41.mkklcdnv6temp.com/mangakakalot/i2/its_not_like_that_darling/vol1_chapter_11_the_unusual_and_unfortunate_meeting/6.jpg",
    "https://img-proxy.imgfo.com/?referer=https://manganelo.com&url=https://s41.mkklcdnv6temp.com/mangakakalot/i2/its_not_like_that_darling/vol1_chapter_11_the_unusual_and_unfortunate_meeting/7.jpg",
    "https://img-proxy.imgfo.com/?referer=https://manganelo.com&url=https://s41.mkklcdnv6temp.com/mangakakalot/i2/its_not_like_that_darling/vol1_chapter_11_the_unusual_and_unfortunate_meeting/8.jpg",
    "https://img-proxy.imgfo.com/?referer=https://manganelo.com&url=https://s41.mkklcdnv6temp.com/mangakakalot/i2/its_not_like_that_darling/vol1_chapter_11_the_unusual_and_unfortunate_meeting/9.jpg",
    "https://img-proxy.imgfo.com/?referer=https://manganelo.com&url=https://s41.mkklcdnv6temp.com/mangakakalot/i2/its_not_like_that_darling/vol1_chapter_11_the_unusual_and_unfortunate_meeting/10.jpg",
    "https://img-proxy.imgfo.com/?referer=https://manganelo.com&url=https://s41.mkklcdnv6temp.com/mangakakalot/i2/its_not_like_that_darling/vol1_chapter_11_the_unusual_and_unfortunate_meeting/11.jpg",
    "https://img-proxy.imgfo.com/?referer=https://manganelo.com&url=https://s41.mkklcdnv6temp.com/mangakakalot/i2/its_not_like_that_darling/vol1_chapter_11_the_unusual_and_unfortunate_meeting/12.jpg",
    "https://img-proxy.imgfo.com/?referer=https://manganelo.com&url=https://s41.mkklcdnv6temp.com/mangakakalot/i2/its_not_like_that_darling/vol1_chapter_11_the_unusual_and_unfortunate_meeting/13.jpg",
    "https://img-proxy.imgfo.com/?referer=https://manganelo.com&url=https://s41.mkklcdnv6temp.com/mangakakalot/i2/its_not_like_that_darling/vol1_chapter_11_the_unusual_and_unfortunate_meeting/14.jpg",
    "https://img-proxy.imgfo.com/?referer=https://manganelo.com&url=https://s41.mkklcdnv6temp.com/mangakakalot/i2/its_not_like_that_darling/vol1_chapter_11_the_unusual_and_unfortunate_meeting/15.jpg",
    "https://img-proxy.imgfo.com/?referer=https://manganelo.com&url=https://s41.mkklcdnv6temp.com/mangakakalot/i2/its_not_like_that_darling/vol1_chapter_11_the_unusual_and_unfortunate_meeting/16.jpg",
    "https://img-proxy.imgfo.com/?referer=https://manganelo.com&url=https://s41.mkklcdnv6temp.com/mangakakalot/i2/its_not_like_that_darling/vol1_chapter_11_the_unusual_and_unfortunate_meeting/17.jpg",
    "https://img-proxy.imgfo.com/?referer=https://manganelo.com&url=https://s41.mkklcdnv6temp.com/mangakakalot/i2/its_not_like_that_darling/vol1_chapter_11_the_unusual_and_unfortunate_meeting/18.jpg",
    "https://img-proxy.imgfo.com/?referer=https://manganelo.com&url=https://s41.mkklcdnv6temp.com/mangakakalot/i2/its_not_like_that_darling/vol1_chapter_11_the_unusual_and_unfortunate_meeting/19.jpg",
    "https://img-proxy.imgfo.com/?referer=https://manganelo.com&url=https://s41.mkklcdnv6temp.com/mangakakalot/i2/its_not_like_that_darling/vol1_chapter_11_the_unusual_and_unfortunate_meeting/20.jpg",
    "https://img-proxy.imgfo.com/?referer=https://manganelo.com&url=https://s41.mkklcdnv6temp.com/mangakakalot/i2/its_not_like_that_darling/vol1_chapter_11_the_unusual_and_unfortunate_meeting/21.jpg",
    "https://img-proxy.imgfo.com/?referer=https://manganelo.com&url=https://s41.mkklcdnv6temp.com/mangakakalot/i2/its_not_like_that_darling/vol1_chapter_11_the_unusual_and_unfortunate_meeting/22.jpg",
    "https://img-proxy.imgfo.com/?referer=https://manganelo.com&url=https://s41.mkklcdnv6temp.com/mangakakalot/i2/its_not_like_that_darling/vol1_chapter_11_the_unusual_and_unfortunate_meeting/23.jpg",
    "https://img-proxy.imgfo.com/?referer=https://manganelo.com&url=https://s41.mkklcdnv6temp.com/mangakakalot/i2/its_not_like_that_darling/vol1_chapter_11_the_unusual_and_unfortunate_meeting/24.jpg",
    "https://img-proxy.imgfo.com/?referer=https://manganelo.com&url=https://s41.mkklcdnv6temp.com/mangakakalot/i2/its_not_like_that_darling/vol1_chapter_11_the_unusual_and_unfortunate_meeting/25.jpg",
    "https://img-proxy.imgfo.com/?referer=https://manganelo.com&url=https://s41.mkklcdnv6temp.com/mangakakalot/i2/its_not_like_that_darling/vol1_chapter_11_the_unusual_and_unfortunate_meeting/26.jpg"
  ]
}