{
  "cover": "https://avt.mkklcdnv6.com/42/s/5-1583473568.jpg",
  "title": "It's Not Like That, Darling",
  "original": "そりゃないぜ ☆ ダーリン ; 同居達令 ; How Dare You-Darling ; It's Not Like That Darling ; So nicht, Darling ; Sorya Nai Ze Darling ; Sorya Nice Darling ; Soryanaize Darling ; Stress Pink",
  "genre": "Comedy, Drama, Josei, Romance, Smut, Supernatural, Manga",
  "author": "Nagae Tomomi",
  "status": "Completed",
  "backlink": "https://manganu.com/collections/nagae-tomomi/its-not-like-that-darling/",
  "description": "Maiko Ninomiya is college freshman again this year! All because of the accident a year ago that put her in the hospital for half a year. Not to let the fact that she was held back a year dishearten her, she made a complete recovery. But recently she keeps seeing erotic dreams... On top of that after meeting novelist Yukiya Nagase, strange things keep happening!?",
  "language": "English",
  "images": [
    "https://img-proxy.imgfo.com/?referer=https://manganelo.com&url=https://s41.mkklcdnv6temp.com/mangakakalot/i2/its_not_like_that_darling/vol2_chapter_10_melody_of_love/1.jpg",
    "https://img-proxy.imgfo.com/?referer=https://manganelo.com&url=https://s41.mkklcdnv6temp.com/mangakakalot/i2/its_not_like_that_darling/vol2_chapter_10_melody_of_love/2.jpg",
    "https://img-proxy.imgfo.com/?referer=https://manganelo.com&url=https://s41.mkklcdnv6temp.com/mangakakalot/i2/its_not_like_that_darling/vol2_chapter_10_melody_of_love/3.jpg",
    "https://img-proxy.imgfo.com/?referer=https://manganelo.com&url=https://s41.mkklcdnv6temp.com/mangakakalot/i2/its_not_like_that_darling/vol2_chapter_10_melody_of_love/4.jpg",
    "https://img-proxy.imgfo.com/?referer=https://manganelo.com&url=https://s41.mkklcdnv6temp.com/mangakakalot/i2/its_not_like_that_darling/vol2_chapter_10_melody_of_love/5.jpg",
    "https://img-proxy.imgfo.com/?referer=https://manganelo.com&url=https://s41.mkklcdnv6temp.com/mangakakalot/i2/its_not_like_that_darling/vol2_chapter_10_melody_of_love/6.jpg",
    "https://img-proxy.imgfo.com/?referer=https://manganelo.com&url=https://s41.mkklcdnv6temp.com/mangakakalot/i2/its_not_like_that_darling/vol2_chapter_10_melody_of_love/7.jpg",
    "https://img-proxy.imgfo.com/?referer=https://manganelo.com&url=https://s41.mkklcdnv6temp.com/mangakakalot/i2/its_not_like_that_darling/vol2_chapter_10_melody_of_love/8.jpg",
    "https://img-proxy.imgfo.com/?referer=https://manganelo.com&url=https://s41.mkklcdnv6temp.com/mangakakalot/i2/its_not_like_that_darling/vol2_chapter_10_melody_of_love/9.jpg",
    "https://img-proxy.imgfo.com/?referer=https://manganelo.com&url=https://s41.mkklcdnv6temp.com/mangakakalot/i2/its_not_like_that_darling/vol2_chapter_10_melody_of_love/10.jpg",
    "https://img-proxy.imgfo.com/?referer=https://manganelo.com&url=https://s41.mkklcdnv6temp.com/mangakakalot/i2/its_not_like_that_darling/vol2_chapter_10_melody_of_love/11.jpg",
    "https://img-proxy.imgfo.com/?referer=https://manganelo.com&url=https://s41.mkklcdnv6temp.com/mangakakalot/i2/its_not_like_that_darling/vol2_chapter_10_melody_of_love/12.jpg",
    "https://img-proxy.imgfo.com/?referer=https://manganelo.com&url=https://s41.mkklcdnv6temp.com/mangakakalot/i2/its_not_like_that_darling/vol2_chapter_10_melody_of_love/13.jpg",
    "https://img-proxy.imgfo.com/?referer=https://manganelo.com&url=https://s41.mkklcdnv6temp.com/mangakakalot/i2/its_not_like_that_darling/vol2_chapter_10_melody_of_love/14.jpg",
    "https://img-proxy.imgfo.com/?referer=https://manganelo.com&url=https://s41.mkklcdnv6temp.com/mangakakalot/i2/its_not_like_that_darling/vol2_chapter_10_melody_of_love/15.jpg",
    "https://img-proxy.imgfo.com/?referer=https://manganelo.com&url=https://s41.mkklcdnv6temp.com/mangakakalot/i2/its_not_like_that_darling/vol2_chapter_10_melody_of_love/16.jpg",
    "https://img-proxy.imgfo.com/?referer=https://manganelo.com&url=https://s41.mkklcdnv6temp.com/mangakakalot/i2/its_not_like_that_darling/vol2_chapter_10_melody_of_love/17.jpg",
    "https://img-proxy.imgfo.com/?referer=https://manganelo.com&url=https://s41.mkklcdnv6temp.com/mangakakalot/i2/its_not_like_that_darling/vol2_chapter_10_melody_of_love/18.jpg",
    "https://img-proxy.imgfo.com/?referer=https://manganelo.com&url=https://s41.mkklcdnv6temp.com/mangakakalot/i2/its_not_like_that_darling/vol2_chapter_10_melody_of_love/19.jpg",
    "https://img-proxy.imgfo.com/?referer=https://manganelo.com&url=https://s41.mkklcdnv6temp.com/mangakakalot/i2/its_not_like_that_darling/vol2_chapter_10_melody_of_love/20.jpg",
    "https://img-proxy.imgfo.com/?referer=https://manganelo.com&url=https://s41.mkklcdnv6temp.com/mangakakalot/i2/its_not_like_that_darling/vol2_chapter_10_melody_of_love/21.jpg",
    "https://img-proxy.imgfo.com/?referer=https://manganelo.com&url=https://s41.mkklcdnv6temp.com/mangakakalot/i2/its_not_like_that_darling/vol2_chapter_10_melody_of_love/22.jpg",
    "https://img-proxy.imgfo.com/?referer=https://manganelo.com&url=https://s41.mkklcdnv6temp.com/mangakakalot/i2/its_not_like_that_darling/vol2_chapter_10_melody_of_love/23.jpg",
    "https://img-proxy.imgfo.com/?referer=https://manganelo.com&url=https://s41.mkklcdnv6temp.com/mangakakalot/i2/its_not_like_that_darling/vol2_chapter_10_melody_of_love/24.jpg",
    "https://img-proxy.imgfo.com/?referer=https://manganelo.com&url=https://s41.mkklcdnv6temp.com/mangakakalot/i2/its_not_like_that_darling/vol2_chapter_10_melody_of_love/25.jpg",
    "https://img-proxy.imgfo.com/?referer=https://manganelo.com&url=https://s41.mkklcdnv6temp.com/mangakakalot/i2/its_not_like_that_darling/vol2_chapter_10_melody_of_love/26.jpg",
    "https://img-proxy.imgfo.com/?referer=https://manganelo.com&url=https://s41.mkklcdnv6temp.com/mangakakalot/i2/its_not_like_that_darling/vol2_chapter_10_melody_of_love/27.jpg",
    "https://img-proxy.imgfo.com/?referer=https://manganelo.com&url=https://s41.mkklcdnv6temp.com/mangakakalot/i2/its_not_like_that_darling/vol2_chapter_10_melody_of_love/28.jpg",
    "https://img-proxy.imgfo.com/?referer=https://manganelo.com&url=https://s41.mkklcdnv6temp.com/mangakakalot/i2/its_not_like_that_darling/vol2_chapter_10_melody_of_love/29.jpg",
    "https://img-proxy.imgfo.com/?referer=https://manganelo.com&url=https://s41.mkklcdnv6temp.com/mangakakalot/i2/its_not_like_that_darling/vol2_chapter_10_melody_of_love/30.jpg",
    "https://img-proxy.imgfo.com/?referer=https://manganelo.com&url=https://s41.mkklcdnv6temp.com/mangakakalot/i2/its_not_like_that_darling/vol2_chapter_10_melody_of_love/31.jpg",
    "https://img-proxy.imgfo.com/?referer=https://manganelo.com&url=https://s41.mkklcdnv6temp.com/mangakakalot/i2/its_not_like_that_darling/vol2_chapter_10_melody_of_love/32.jpg",
    "https://img-proxy.imgfo.com/?referer=https://manganelo.com&url=https://s41.mkklcdnv6temp.com/mangakakalot/i2/its_not_like_that_darling/vol2_chapter_10_melody_of_love/33.jpg",
    "https://img-proxy.imgfo.com/?referer=https://manganelo.com&url=https://s41.mkklcdnv6temp.com/mangakakalot/i2/its_not_like_that_darling/vol2_chapter_10_melody_of_love/34.jpg",
    "https://img-proxy.imgfo.com/?referer=https://manganelo.com&url=https://s41.mkklcdnv6temp.com/mangakakalot/i2/its_not_like_that_darling/vol2_chapter_10_melody_of_love/35.jpg",
    "https://img-proxy.imgfo.com/?referer=https://manganelo.com&url=https://s41.mkklcdnv6temp.com/mangakakalot/i2/its_not_like_that_darling/vol2_chapter_10_melody_of_love/36.jpg",
    "https://img-proxy.imgfo.com/?referer=https://manganelo.com&url=https://s41.mkklcdnv6temp.com/mangakakalot/i2/its_not_like_that_darling/vol2_chapter_10_melody_of_love/37.jpg",
    "https://img-proxy.imgfo.com/?referer=https://manganelo.com&url=https://s41.mkklcdnv6temp.com/mangakakalot/i2/its_not_like_that_darling/vol2_chapter_10_melody_of_love/38.jpg",
    "https://img-proxy.imgfo.com/?referer=https://manganelo.com&url=https://s41.mkklcdnv6temp.com/mangakakalot/i2/its_not_like_that_darling/vol2_chapter_10_melody_of_love/39.jpg",
    "https://img-proxy.imgfo.com/?referer=https://manganelo.com&url=https://s41.mkklcdnv6temp.com/mangakakalot/i2/its_not_like_that_darling/vol2_chapter_10_melody_of_love/40.jpg",
    "https://img-proxy.imgfo.com/?referer=https://manganelo.com&url=https://s41.mkklcdnv6temp.com/mangakakalot/i2/its_not_like_that_darling/vol2_chapter_10_melody_of_love/41.jpg",
    "https://img-proxy.imgfo.com/?referer=https://manganelo.com&url=https://s41.mkklcdnv6temp.com/mangakakalot/i2/its_not_like_that_darling/vol2_chapter_10_melody_of_love/42.jpg"
  ]
}