{
  "cover": "https://avt.mkklcdnv6.com/39/w/11-1583485447.jpg",
  "title": "Strain",
  "genre": "Action, Adult, Mature, Seinen, Manga",
  "author": "Buronson",
  "status": "Completed",
  "backlink": "https://manganu.com/collections/buronson/strain/",
  "description": "Mysterious assassin Mayo, a Japanese man in Malaysia, will kill anyone you want for just five dollars. Of course, he'll kill you for five dollars too, but doesn't that just even the score? With outcast allies at his side and formidable enemies against him, Mayo is the only one who can stop a conspiracy that stretches around the world!",
  "language": "English",
  "images": [
    "https://img-proxy.imgfo.com/?referer=https://manganelo.com&url=https://s7.mkklcdnv6temp.com/mangakakalot/s2/strain/vol04_chapter_4_the_performance/1.jpg",
    "https://img-proxy.imgfo.com/?referer=https://manganelo.com&url=https://s7.mkklcdnv6temp.com/mangakakalot/s2/strain/vol04_chapter_4_the_performance/2.jpg",
    "https://img-proxy.imgfo.com/?referer=https://manganelo.com&url=https://s7.mkklcdnv6temp.com/mangakakalot/s2/strain/vol04_chapter_4_the_performance/3.jpg",
    "https://img-proxy.imgfo.com/?referer=https://manganelo.com&url=https://s7.mkklcdnv6temp.com/mangakakalot/s2/strain/vol04_chapter_4_the_performance/4.jpg",
    "https://img-proxy.imgfo.com/?referer=https://manganelo.com&url=https://s7.mkklcdnv6temp.com/mangakakalot/s2/strain/vol04_chapter_4_the_performance/5.jpg",
    "https://img-proxy.imgfo.com/?referer=https://manganelo.com&url=https://s7.mkklcdnv6temp.com/mangakakalot/s2/strain/vol04_chapter_4_the_performance/6.jpg",
    "https://img-proxy.imgfo.com/?referer=https://manganelo.com&url=https://s7.mkklcdnv6temp.com/mangakakalot/s2/strain/vol04_chapter_4_the_performance/7.jpg",
    "https://img-proxy.imgfo.com/?referer=https://manganelo.com&url=https://s7.mkklcdnv6temp.com/mangakakalot/s2/strain/vol04_chapter_4_the_performance/8.jpg",
    "https://img-proxy.imgfo.com/?referer=https://manganelo.com&url=https://s7.mkklcdnv6temp.com/mangakakalot/s2/strain/vol04_chapter_4_the_performance/9.jpg",
    "https://img-proxy.imgfo.com/?referer=https://manganelo.com&url=https://s7.mkklcdnv6temp.com/mangakakalot/s2/strain/vol04_chapter_4_the_performance/10.jpg",
    "https://img-proxy.imgfo.com/?referer=https://manganelo.com&url=https://s7.mkklcdnv6temp.com/mangakakalot/s2/strain/vol04_chapter_4_the_performance/11.jpg",
    "https://img-proxy.imgfo.com/?referer=https://manganelo.com&url=https://s7.mkklcdnv6temp.com/mangakakalot/s2/strain/vol04_chapter_4_the_performance/12.jpg",
    "https://img-proxy.imgfo.com/?referer=https://manganelo.com&url=https://s7.mkklcdnv6temp.com/mangakakalot/s2/strain/vol04_chapter_4_the_performance/13.jpg",
    "https://img-proxy.imgfo.com/?referer=https://manganelo.com&url=https://s7.mkklcdnv6temp.com/mangakakalot/s2/strain/vol04_chapter_4_the_performance/14.jpg",
    "https://img-proxy.imgfo.com/?referer=https://manganelo.com&url=https://s7.mkklcdnv6temp.com/mangakakalot/s2/strain/vol04_chapter_4_the_performance/15.jpg",
    "https://img-proxy.imgfo.com/?referer=https://manganelo.com&url=https://s7.mkklcdnv6temp.com/mangakakalot/s2/strain/vol04_chapter_4_the_performance/16.jpg",
    "https://img-proxy.imgfo.com/?referer=https://manganelo.com&url=https://s7.mkklcdnv6temp.com/mangakakalot/s2/strain/vol04_chapter_4_the_performance/17.jpg",
    "https://img-proxy.imgfo.com/?referer=https://manganelo.com&url=https://s7.mkklcdnv6temp.com/mangakakalot/s2/strain/vol04_chapter_4_the_performance/18.jpg",
    "https://img-proxy.imgfo.com/?referer=https://manganelo.com&url=https://s7.mkklcdnv6temp.com/mangakakalot/s2/strain/vol04_chapter_4_the_performance/19.jpg",
    "https://img-proxy.imgfo.com/?referer=https://manganelo.com&url=https://s7.mkklcdnv6temp.com/mangakakalot/s2/strain/vol04_chapter_4_the_performance/20.jpg",
    "https://img-proxy.imgfo.com/?referer=https://manganelo.com&url=https://s7.mkklcdnv6temp.com/mangakakalot/s2/strain/vol04_chapter_4_the_performance/21.jpg",
    "https://img-proxy.imgfo.com/?referer=https://manganelo.com&url=https://s7.mkklcdnv6temp.com/mangakakalot/s2/strain/vol04_chapter_4_the_performance/22.jpg",
    "https://img-proxy.imgfo.com/?referer=https://manganelo.com&url=https://s7.mkklcdnv6temp.com/mangakakalot/s2/strain/vol04_chapter_4_the_performance/23.jpg",
    "https://img-proxy.imgfo.com/?referer=https://manganelo.com&url=https://s7.mkklcdnv6temp.com/mangakakalot/s2/strain/vol04_chapter_4_the_performance/24.jpg",
    "https://img-proxy.imgfo.com/?referer=https://manganelo.com&url=https://s7.mkklcdnv6temp.com/mangakakalot/s2/strain/vol04_chapter_4_the_performance/25.jpg",
    "https://img-proxy.imgfo.com/?referer=https://manganelo.com&url=https://s7.mkklcdnv6temp.com/mangakakalot/s2/strain/vol04_chapter_4_the_performance/26.jpg"
  ]
}