{
  "cover": "https://avt.mkklcdnv6.com/6/t/10-1583482417.jpg",
  "title": "Waltz Wa Shiroi Dress De",
  "original": "円舞曲は白いドレスで ; 白色圆舞曲 ; Waltz in A White Dress ; White Waltz",
  "genre": "Adventure, Drama, Historical, Mystery, Romance, Shoujo, Manga",
  "author": "Saitou Chiho",
  "status": "Completed",
  "backlink": "https://manganu.com/collections/saitou-chiho/waltz-wa-shiroi-dress-de/",
  "description": "At the beginning of the XX century, the relationship between England and Japan was strained. England wanted to extend its influence over Japan, and Japan wasn't willing to let any other culture pass its borders. Koto, though, a Japanese girl, didn't care if the people she meets have almond shaped eyes or not, or if they wear a kimono or a western dress. Actually, she is fascinated by this foreign way of life that brings so many innovations into Japan. More than anything else, it's the clothing that seems to grab her attention, as she wants to become a tailor and create dresses for women of every culture.Unfortunately though, she's a woman, so she knows her dream will end as soon as she gets married. She will have to start acting like a noble and a respectable woman would. In fact, she is betrothed to Masaomi Kidoin, the second born of one of the most important and oldest families of Japan. The day she's told she will marry Masaomi, Koto attends a ball at the British Embassy and meets Sagitto, a half English and half Indian spy that captures her imagination and heart. But can their love story have a happy ending when the British and the Japanese are tracking down Sagitto because they want him dead, and Koto is forced to live a life that doesn't fit her?Sequels:> Lilac Nocturne( http://mangapark.com/search?q=lilac-nocturne)> Magnolia Waltz ( http://mangapark.com/search?q=magnolia-waltz )",
  "language": "English",
  "images": [
    "https://img-proxy.imgfo.com/?referer=https://manganelo.com&url=https://s6.mkklcdnv6temp.com/mangakakalot/w1/waltz_wa_shiroi_dress_de/vol2_chapter_8/1.jpg",
    "https://img-proxy.imgfo.com/?referer=https://manganelo.com&url=https://s6.mkklcdnv6temp.com/mangakakalot/w1/waltz_wa_shiroi_dress_de/vol2_chapter_8/2.jpg",
    "https://img-proxy.imgfo.com/?referer=https://manganelo.com&url=https://s6.mkklcdnv6temp.com/mangakakalot/w1/waltz_wa_shiroi_dress_de/vol2_chapter_8/3.jpg",
    "https://img-proxy.imgfo.com/?referer=https://manganelo.com&url=https://s6.mkklcdnv6temp.com/mangakakalot/w1/waltz_wa_shiroi_dress_de/vol2_chapter_8/4.jpg",
    "https://img-proxy.imgfo.com/?referer=https://manganelo.com&url=https://s6.mkklcdnv6temp.com/mangakakalot/w1/waltz_wa_shiroi_dress_de/vol2_chapter_8/5.jpg",
    "https://img-proxy.imgfo.com/?referer=https://manganelo.com&url=https://s6.mkklcdnv6temp.com/mangakakalot/w1/waltz_wa_shiroi_dress_de/vol2_chapter_8/6.jpg",
    "https://img-proxy.imgfo.com/?referer=https://manganelo.com&url=https://s6.mkklcdnv6temp.com/mangakakalot/w1/waltz_wa_shiroi_dress_de/vol2_chapter_8/7.jpg",
    "https://img-proxy.imgfo.com/?referer=https://manganelo.com&url=https://s6.mkklcdnv6temp.com/mangakakalot/w1/waltz_wa_shiroi_dress_de/vol2_chapter_8/8.jpg",
    "https://img-proxy.imgfo.com/?referer=https://manganelo.com&url=https://s6.mkklcdnv6temp.com/mangakakalot/w1/waltz_wa_shiroi_dress_de/vol2_chapter_8/9.jpg",
    "https://img-proxy.imgfo.com/?referer=https://manganelo.com&url=https://s6.mkklcdnv6temp.com/mangakakalot/w1/waltz_wa_shiroi_dress_de/vol2_chapter_8/10.jpg",
    "https://img-proxy.imgfo.com/?referer=https://manganelo.com&url=https://s6.mkklcdnv6temp.com/mangakakalot/w1/waltz_wa_shiroi_dress_de/vol2_chapter_8/11.jpg",
    "https://img-proxy.imgfo.com/?referer=https://manganelo.com&url=https://s6.mkklcdnv6temp.com/mangakakalot/w1/waltz_wa_shiroi_dress_de/vol2_chapter_8/12.jpg",
    "https://img-proxy.imgfo.com/?referer=https://manganelo.com&url=https://s6.mkklcdnv6temp.com/mangakakalot/w1/waltz_wa_shiroi_dress_de/vol2_chapter_8/13.jpg",
    "https://img-proxy.imgfo.com/?referer=https://manganelo.com&url=https://s6.mkklcdnv6temp.com/mangakakalot/w1/waltz_wa_shiroi_dress_de/vol2_chapter_8/14.jpg",
    "https://img-proxy.imgfo.com/?referer=https://manganelo.com&url=https://s6.mkklcdnv6temp.com/mangakakalot/w1/waltz_wa_shiroi_dress_de/vol2_chapter_8/15.jpg",
    "https://img-proxy.imgfo.com/?referer=https://manganelo.com&url=https://s6.mkklcdnv6temp.com/mangakakalot/w1/waltz_wa_shiroi_dress_de/vol2_chapter_8/16.jpg",
    "https://img-proxy.imgfo.com/?referer=https://manganelo.com&url=https://s6.mkklcdnv6temp.com/mangakakalot/w1/waltz_wa_shiroi_dress_de/vol2_chapter_8/17.jpg",
    "https://img-proxy.imgfo.com/?referer=https://manganelo.com&url=https://s6.mkklcdnv6temp.com/mangakakalot/w1/waltz_wa_shiroi_dress_de/vol2_chapter_8/18.jpg",
    "https://img-proxy.imgfo.com/?referer=https://manganelo.com&url=https://s6.mkklcdnv6temp.com/mangakakalot/w1/waltz_wa_shiroi_dress_de/vol2_chapter_8/19.jpg",
    "https://img-proxy.imgfo.com/?referer=https://manganelo.com&url=https://s6.mkklcdnv6temp.com/mangakakalot/w1/waltz_wa_shiroi_dress_de/vol2_chapter_8/20.jpg",
    "https://img-proxy.imgfo.com/?referer=https://manganelo.com&url=https://s6.mkklcdnv6temp.com/mangakakalot/w1/waltz_wa_shiroi_dress_de/vol2_chapter_8/21.jpg",
    "https://img-proxy.imgfo.com/?referer=https://manganelo.com&url=https://s6.mkklcdnv6temp.com/mangakakalot/w1/waltz_wa_shiroi_dress_de/vol2_chapter_8/22.jpg",
    "https://img-proxy.imgfo.com/?referer=https://manganelo.com&url=https://s6.mkklcdnv6temp.com/mangakakalot/w1/waltz_wa_shiroi_dress_de/vol2_chapter_8/23.jpg",
    "https://img-proxy.imgfo.com/?referer=https://manganelo.com&url=https://s6.mkklcdnv6temp.com/mangakakalot/w1/waltz_wa_shiroi_dress_de/vol2_chapter_8/24.jpg",
    "https://img-proxy.imgfo.com/?referer=https://manganelo.com&url=https://s6.mkklcdnv6temp.com/mangakakalot/w1/waltz_wa_shiroi_dress_de/vol2_chapter_8/25.jpg",
    "https://img-proxy.imgfo.com/?referer=https://manganelo.com&url=https://s6.mkklcdnv6temp.com/mangakakalot/w1/waltz_wa_shiroi_dress_de/vol2_chapter_8/26.jpg",
    "https://img-proxy.imgfo.com/?referer=https://manganelo.com&url=https://s6.mkklcdnv6temp.com/mangakakalot/w1/waltz_wa_shiroi_dress_de/vol2_chapter_8/27.jpg",
    "https://img-proxy.imgfo.com/?referer=https://manganelo.com&url=https://s6.mkklcdnv6temp.com/mangakakalot/w1/waltz_wa_shiroi_dress_de/vol2_chapter_8/28.jpg",
    "https://img-proxy.imgfo.com/?referer=https://manganelo.com&url=https://s6.mkklcdnv6temp.com/mangakakalot/w1/waltz_wa_shiroi_dress_de/vol2_chapter_8/29.jpg"
  ]
}