{
  "cover": "https://avt.mkklcdnv6.com/4/i/3-1583467804.jpg",
  "title": "History's Strongest Disciple Kenichi",
  "original": "Сильнейший в истории ученик Кэнъичи (Русс; أفضل تلميذ في التاريخ كينشي(arabic); 史上最強の弟子ケンイチ; 史上最強弟子兼一; ลูกแกะพันธุ์เสือเค็นอิจิ; Ang Pinakamalakas na Disipulo sa Kasaysayan si Kenichi (Filipino); Histories Strongest Disciple Kenichi; History's Strongest Disciple Kenichi; HSD Kenichi; HSDK; Kenichi le disciple le plus fort de l'Histoire (French); Kenichi the mightiest disciple; Shijo Saikyo no Deshi Kenichi; Strongest Disciple Kenichi",
  "genre": "Action, Adventure, Comedy, Drama, Ecchi, Harem, Martial arts, Romance, School life, Shounen, Manga",
  "author": "Matsuena Syun",
  "status": "Completed",
  "backlink": "https://manganu.com/collections/matsuena-syun/historys-strongest-disciple-kenichi/",
  "description": "\nHistory&#39;s Strongest Disciple Kenichi Manga is a Japanese manga by Syun Matsuena serialized in the weekly manga magazine Shonen Sunday from August 2002 to September 2014.\nThe narrative focuses on a 16 Kenichi Shirahama -year old high school student as well as a longtime sufferer of intimidation. In the beginning of the story, he befriends want to eventually become more powerful; and transfer pupil Miu Furinji, he follows her a dojo home, to Ryozanpaku several masters of martial arts that are varied, directed by her grandpa Hayato Furinji.\n\n\n\nAfter learning principles from Miu, Kenichi beats a high ranking member of the karate club of the school, and becomes a goal for the delinquents in the institution. Kenichi becomes enamored of Miu, and finally becomes a complete disciple of Ryozanpaku while initially training to guard himself. Later, the day-to-day routine of Kenichi is broken up between training below his battles against the members, and the six masters of Ryozanpaku of &#39;Ragnarok&#39;, a gang of bullies trying alternately to recruit or to vanquish him. Miu and Kenichi are targeted by Yomi after Ragnarok is disbanded, several disciples personally trained by means of a master of an organization matching Ryozanpaku, Yami. While the masters of Ryozanpaku and their allies follow the principle of constantly sparing their adversaries&#39; lives (Katsujinken), the members of Yami consider that any means of defeating an adversary is valid, including homicide (Satsujin ken). While his masters face the members of Yami in the battle between both factions, Kenichi, Miu, as well as their allies fight the members of Yomi. The conflict between both factions culminate with all the ultimate battle to prevent Yami&#39;s major goal, which will be to usher a fresh age of turmoil and war on earth, also called &quot;The Eternal Sunset&quot;. Their principal leader is conquered and after the Eternal Sunset is prevented, Yomi and Yami are disbanded too. Kenichi subsequently continues to train at Ryozanpaku, and years after he becomes a renowned novelist, but it is also suggested that he also becomes a martial arts master as well as Miu&#39;s husband at the same time.\n\nMain characters in&nbsp;History&#39;s Strongest Disciple Kenichi Manga\n\nKenichi Shirahama is primary Protagonist and the name character of History&#39;s Strongest Disciple Kenichi. He could be the Disciple of the six masters of Ryozanpaku, examining martial arts from them to not only get more powerful, but to finally develop bravery and the strength needed to defend the individuals and values which are most imporant to him. He&#39;s additionally a member as well as the honorary &quot;co founder&quot; of the Shinpaku Alliance, alongside the creator Haruo Niijima (the after of which he&#39;s not completely happy about) and is now another year pupil at Koryo High School in course 2-E. In the final outcome of the show, he not only marries the love of his life, Miu Furinji, however he eventually becomes a Master himself.\n\n\nHistory&#39;s Strongest Disciple Kenichi AMW",
  "language": "English",
  "images": [
    "https://img-proxy.imgfo.com/?referer=https://manganelo.com&url=https://s41.mkklcdnv6temp.com/mangakakalot/r1/read_historys_strongest_disciple_kenichi_manga/vol42_chapter_415_battle_for_the_disc/1.jpg",
    "https://img-proxy.imgfo.com/?referer=https://manganelo.com&url=https://s41.mkklcdnv6temp.com/mangakakalot/r1/read_historys_strongest_disciple_kenichi_manga/vol42_chapter_415_battle_for_the_disc/2.jpg",
    "https://img-proxy.imgfo.com/?referer=https://manganelo.com&url=https://s41.mkklcdnv6temp.com/mangakakalot/r1/read_historys_strongest_disciple_kenichi_manga/vol42_chapter_415_battle_for_the_disc/3.jpg",
    "https://img-proxy.imgfo.com/?referer=https://manganelo.com&url=https://s41.mkklcdnv6temp.com/mangakakalot/r1/read_historys_strongest_disciple_kenichi_manga/vol42_chapter_415_battle_for_the_disc/4.jpg",
    "https://img-proxy.imgfo.com/?referer=https://manganelo.com&url=https://s41.mkklcdnv6temp.com/mangakakalot/r1/read_historys_strongest_disciple_kenichi_manga/vol42_chapter_415_battle_for_the_disc/5.jpg",
    "https://img-proxy.imgfo.com/?referer=https://manganelo.com&url=https://s41.mkklcdnv6temp.com/mangakakalot/r1/read_historys_strongest_disciple_kenichi_manga/vol42_chapter_415_battle_for_the_disc/6.jpg",
    "https://img-proxy.imgfo.com/?referer=https://manganelo.com&url=https://s41.mkklcdnv6temp.com/mangakakalot/r1/read_historys_strongest_disciple_kenichi_manga/vol42_chapter_415_battle_for_the_disc/7.jpg",
    "https://img-proxy.imgfo.com/?referer=https://manganelo.com&url=https://s41.mkklcdnv6temp.com/mangakakalot/r1/read_historys_strongest_disciple_kenichi_manga/vol42_chapter_415_battle_for_the_disc/8.jpg",
    "https://img-proxy.imgfo.com/?referer=https://manganelo.com&url=https://s41.mkklcdnv6temp.com/mangakakalot/r1/read_historys_strongest_disciple_kenichi_manga/vol42_chapter_415_battle_for_the_disc/9.jpg",
    "https://img-proxy.imgfo.com/?referer=https://manganelo.com&url=https://s41.mkklcdnv6temp.com/mangakakalot/r1/read_historys_strongest_disciple_kenichi_manga/vol42_chapter_415_battle_for_the_disc/10.jpg",
    "https://img-proxy.imgfo.com/?referer=https://manganelo.com&url=https://s41.mkklcdnv6temp.com/mangakakalot/r1/read_historys_strongest_disciple_kenichi_manga/vol42_chapter_415_battle_for_the_disc/11.jpg",
    "https://img-proxy.imgfo.com/?referer=https://manganelo.com&url=https://s41.mkklcdnv6temp.com/mangakakalot/r1/read_historys_strongest_disciple_kenichi_manga/vol42_chapter_415_battle_for_the_disc/12.jpg",
    "https://img-proxy.imgfo.com/?referer=https://manganelo.com&url=https://s41.mkklcdnv6temp.com/mangakakalot/r1/read_historys_strongest_disciple_kenichi_manga/vol42_chapter_415_battle_for_the_disc/13.jpg",
    "https://img-proxy.imgfo.com/?referer=https://manganelo.com&url=https://s41.mkklcdnv6temp.com/mangakakalot/r1/read_historys_strongest_disciple_kenichi_manga/vol42_chapter_415_battle_for_the_disc/14.jpg",
    "https://img-proxy.imgfo.com/?referer=https://manganelo.com&url=https://s41.mkklcdnv6temp.com/mangakakalot/r1/read_historys_strongest_disciple_kenichi_manga/vol42_chapter_415_battle_for_the_disc/15.jpg",
    "https://img-proxy.imgfo.com/?referer=https://manganelo.com&url=https://s41.mkklcdnv6temp.com/mangakakalot/r1/read_historys_strongest_disciple_kenichi_manga/vol42_chapter_415_battle_for_the_disc/16.jpg",
    "https://img-proxy.imgfo.com/?referer=https://manganelo.com&url=https://s41.mkklcdnv6temp.com/mangakakalot/r1/read_historys_strongest_disciple_kenichi_manga/vol42_chapter_415_battle_for_the_disc/17.jpg",
    "https://img-proxy.imgfo.com/?referer=https://manganelo.com&url=https://s41.mkklcdnv6temp.com/mangakakalot/r1/read_historys_strongest_disciple_kenichi_manga/vol42_chapter_415_battle_for_the_disc/18.jpg",
    "https://img-proxy.imgfo.com/?referer=https://manganelo.com&url=https://s41.mkklcdnv6temp.com/mangakakalot/r1/read_historys_strongest_disciple_kenichi_manga/vol42_chapter_415_battle_for_the_disc/19.jpg"
  ]
}