{
  "cover": "https://avt.mkklcdnv6.com/16/h/13-1583488339.jpg",
  "title": "Hisho Wa Shachou Ni Kudokareru",
  "original": "秘書は社長に口説かれる ; Kataomoi no Nouki",
  "genre": "Drama, Romance, Yaoi, Manga",
  "author": "Takakura Tomoko",
  "status": "Completed",
  "backlink": "https://manganu.com/collections/takakura-tomoko/hisho-wa-shachou-ni-kudokareru/",
  "description": "1.\nIn Secretary Kanzaki's eyes, President Shijou is a rich flirtatious guy! Having a good appearance and outstanding working abilities, there are no shortage of suitors for the President, either male or female. So why has he never seriously loved someone before? Could there be a reason?\n2. Kataomoi no Nouki\nIn the middle of the busiest time of work, Mura realizes he loves his chain-smoking boss, Shima (Shijou's brother), and confesses to him! How will Shima take the news?\n3.\nCouples 1 and 2 meet in a bar on Christmas Eve. How will things turn out? Get your mind out of the gutter.\n4.\nShibata has no luck with women, his latest girlfriend just broke up with him after three months. Maybe coworker Toudou can change his bad luck streak?\n5) Wakatsuki and Aihara are a dynamic work team. But Aihara is interested in more than just a business partnership.\n6) Amane's lover Keigo is very jealous. Will he drive Amane away with his possessiveness?\n7) Spoiled young man is being groomed to take over his family company. His ruthless secretary will make sure he's up to the job.",
  "language": "English",
  "images": [
    "https://img-proxy.imgfo.com/?referer=https://manganelo.com&url=https://s5.mkklcdnv6temp.com/mangakakalot/h1/hisho_wa_shachou_ni_kudokareru/vol1_chapter_4_if_only_you_love_me/1.jpg",
    "https://img-proxy.imgfo.com/?referer=https://manganelo.com&url=https://s5.mkklcdnv6temp.com/mangakakalot/h1/hisho_wa_shachou_ni_kudokareru/vol1_chapter_4_if_only_you_love_me/2.jpg",
    "https://img-proxy.imgfo.com/?referer=https://manganelo.com&url=https://s5.mkklcdnv6temp.com/mangakakalot/h1/hisho_wa_shachou_ni_kudokareru/vol1_chapter_4_if_only_you_love_me/3.jpg",
    "https://img-proxy.imgfo.com/?referer=https://manganelo.com&url=https://s5.mkklcdnv6temp.com/mangakakalot/h1/hisho_wa_shachou_ni_kudokareru/vol1_chapter_4_if_only_you_love_me/4.jpg",
    "https://img-proxy.imgfo.com/?referer=https://manganelo.com&url=https://s5.mkklcdnv6temp.com/mangakakalot/h1/hisho_wa_shachou_ni_kudokareru/vol1_chapter_4_if_only_you_love_me/5.jpg",
    "https://img-proxy.imgfo.com/?referer=https://manganelo.com&url=https://s5.mkklcdnv6temp.com/mangakakalot/h1/hisho_wa_shachou_ni_kudokareru/vol1_chapter_4_if_only_you_love_me/6.jpg",
    "https://img-proxy.imgfo.com/?referer=https://manganelo.com&url=https://s5.mkklcdnv6temp.com/mangakakalot/h1/hisho_wa_shachou_ni_kudokareru/vol1_chapter_4_if_only_you_love_me/7.jpg",
    "https://img-proxy.imgfo.com/?referer=https://manganelo.com&url=https://s5.mkklcdnv6temp.com/mangakakalot/h1/hisho_wa_shachou_ni_kudokareru/vol1_chapter_4_if_only_you_love_me/8.jpg",
    "https://img-proxy.imgfo.com/?referer=https://manganelo.com&url=https://s5.mkklcdnv6temp.com/mangakakalot/h1/hisho_wa_shachou_ni_kudokareru/vol1_chapter_4_if_only_you_love_me/9.jpg",
    "https://img-proxy.imgfo.com/?referer=https://manganelo.com&url=https://s5.mkklcdnv6temp.com/mangakakalot/h1/hisho_wa_shachou_ni_kudokareru/vol1_chapter_4_if_only_you_love_me/10.jpg",
    "https://img-proxy.imgfo.com/?referer=https://manganelo.com&url=https://s5.mkklcdnv6temp.com/mangakakalot/h1/hisho_wa_shachou_ni_kudokareru/vol1_chapter_4_if_only_you_love_me/11.jpg",
    "https://img-proxy.imgfo.com/?referer=https://manganelo.com&url=https://s5.mkklcdnv6temp.com/mangakakalot/h1/hisho_wa_shachou_ni_kudokareru/vol1_chapter_4_if_only_you_love_me/12.jpg",
    "https://img-proxy.imgfo.com/?referer=https://manganelo.com&url=https://s5.mkklcdnv6temp.com/mangakakalot/h1/hisho_wa_shachou_ni_kudokareru/vol1_chapter_4_if_only_you_love_me/13.jpg",
    "https://img-proxy.imgfo.com/?referer=https://manganelo.com&url=https://s5.mkklcdnv6temp.com/mangakakalot/h1/hisho_wa_shachou_ni_kudokareru/vol1_chapter_4_if_only_you_love_me/14.jpg",
    "https://img-proxy.imgfo.com/?referer=https://manganelo.com&url=https://s5.mkklcdnv6temp.com/mangakakalot/h1/hisho_wa_shachou_ni_kudokareru/vol1_chapter_4_if_only_you_love_me/15.jpg",
    "https://img-proxy.imgfo.com/?referer=https://manganelo.com&url=https://s5.mkklcdnv6temp.com/mangakakalot/h1/hisho_wa_shachou_ni_kudokareru/vol1_chapter_4_if_only_you_love_me/16.jpg",
    "https://img-proxy.imgfo.com/?referer=https://manganelo.com&url=https://s5.mkklcdnv6temp.com/mangakakalot/h1/hisho_wa_shachou_ni_kudokareru/vol1_chapter_4_if_only_you_love_me/17.jpg",
    "https://img-proxy.imgfo.com/?referer=https://manganelo.com&url=https://s5.mkklcdnv6temp.com/mangakakalot/h1/hisho_wa_shachou_ni_kudokareru/vol1_chapter_4_if_only_you_love_me/18.jpg",
    "https://img-proxy.imgfo.com/?referer=https://manganelo.com&url=https://s5.mkklcdnv6temp.com/mangakakalot/h1/hisho_wa_shachou_ni_kudokareru/vol1_chapter_4_if_only_you_love_me/19.jpg",
    "https://img-proxy.imgfo.com/?referer=https://manganelo.com&url=https://s5.mkklcdnv6temp.com/mangakakalot/h1/hisho_wa_shachou_ni_kudokareru/vol1_chapter_4_if_only_you_love_me/20.jpg",
    "https://img-proxy.imgfo.com/?referer=https://manganelo.com&url=https://s5.mkklcdnv6temp.com/mangakakalot/h1/hisho_wa_shachou_ni_kudokareru/vol1_chapter_4_if_only_you_love_me/21.jpg",
    "https://img-proxy.imgfo.com/?referer=https://manganelo.com&url=https://s5.mkklcdnv6temp.com/mangakakalot/h1/hisho_wa_shachou_ni_kudokareru/vol1_chapter_4_if_only_you_love_me/22.jpg",
    "https://img-proxy.imgfo.com/?referer=https://manganelo.com&url=https://s5.mkklcdnv6temp.com/mangakakalot/h1/hisho_wa_shachou_ni_kudokareru/vol1_chapter_4_if_only_you_love_me/23.jpg",
    "https://img-proxy.imgfo.com/?referer=https://manganelo.com&url=https://s5.mkklcdnv6temp.com/mangakakalot/h1/hisho_wa_shachou_ni_kudokareru/vol1_chapter_4_if_only_you_love_me/24.jpg",
    "https://img-proxy.imgfo.com/?referer=https://manganelo.com&url=https://s5.mkklcdnv6temp.com/mangakakalot/h1/hisho_wa_shachou_ni_kudokareru/vol1_chapter_4_if_only_you_love_me/25.jpg",
    "https://img-proxy.imgfo.com/?referer=https://manganelo.com&url=https://s5.mkklcdnv6temp.com/mangakakalot/h1/hisho_wa_shachou_ni_kudokareru/vol1_chapter_4_if_only_you_love_me/26.jpg",
    "https://img-proxy.imgfo.com/?referer=https://manganelo.com&url=https://s5.mkklcdnv6temp.com/mangakakalot/h1/hisho_wa_shachou_ni_kudokareru/vol1_chapter_4_if_only_you_love_me/27.jpg",
    "https://img-proxy.imgfo.com/?referer=https://manganelo.com&url=https://s5.mkklcdnv6temp.com/mangakakalot/h1/hisho_wa_shachou_ni_kudokareru/vol1_chapter_4_if_only_you_love_me/28.jpg",
    "https://img-proxy.imgfo.com/?referer=https://manganelo.com&url=https://s5.mkklcdnv6temp.com/mangakakalot/h1/hisho_wa_shachou_ni_kudokareru/vol1_chapter_4_if_only_you_love_me/29.jpg",
    "https://img-proxy.imgfo.com/?referer=https://manganelo.com&url=https://s5.mkklcdnv6temp.com/mangakakalot/h1/hisho_wa_shachou_ni_kudokareru/vol1_chapter_4_if_only_you_love_me/30.jpg",
    "https://img-proxy.imgfo.com/?referer=https://manganelo.com&url=https://s5.mkklcdnv6temp.com/mangakakalot/h1/hisho_wa_shachou_ni_kudokareru/vol1_chapter_4_if_only_you_love_me/31.jpg",
    "https://img-proxy.imgfo.com/?referer=https://manganelo.com&url=https://s5.mkklcdnv6temp.com/mangakakalot/h1/hisho_wa_shachou_ni_kudokareru/vol1_chapter_4_if_only_you_love_me/32.jpg",
    "https://img-proxy.imgfo.com/?referer=https://manganelo.com&url=https://s5.mkklcdnv6temp.com/mangakakalot/h1/hisho_wa_shachou_ni_kudokareru/vol1_chapter_4_if_only_you_love_me/33.jpg"
  ]
}