{
  "cover": "https://avt.mkklcdnv6.com/31/g/4-1583470972.jpg",
  "title": "Gon",
  "original": "ゴン ; ゴン–GON– ; Dino",
  "genre": "Adventure, Comedy, Historical, Seinen, Manga",
  "author": "Tanaka Masashi",
  "status": "Completed",
  "backlink": "https://manganu.com/collections/tanaka-masashi/gon/",
  "description": "Gon, a tiny dinosaur with a huge attitude, has adventures as he travels through forests and rivers, swims with fish and even flies with birds. Gon and his animal friends communicate without speaking, with Gon giving the occasional bite to teach a bully a lesson.\nFrom Baka-Updates:\nLong before the dawn of man, savage dinosaurs roamed the Earth. Now, only one remains — the smallest, wildest of them all! GON marches across the wilderness defending the friendly and furry from the mean and hungry. Told entirely without words, these stories highlight the amazingly detailed art and visual storytelling genius of creator Masashi Tanaka.",
  "language": "English",
  "images": [
    "https://img-proxy.imgfo.com/?referer=https://manganelo.com&url=https://s5.mkklcdnv6temp.com/mangakakalot/g2/gon/vol7_chapter_24_gon_collects_honey_with_his_friends_in_the_forest/1.jpg",
    "https://img-proxy.imgfo.com/?referer=https://manganelo.com&url=https://s5.mkklcdnv6temp.com/mangakakalot/g2/gon/vol7_chapter_24_gon_collects_honey_with_his_friends_in_the_forest/2.jpg",
    "https://img-proxy.imgfo.com/?referer=https://manganelo.com&url=https://s5.mkklcdnv6temp.com/mangakakalot/g2/gon/vol7_chapter_24_gon_collects_honey_with_his_friends_in_the_forest/3.jpg",
    "https://img-proxy.imgfo.com/?referer=https://manganelo.com&url=https://s5.mkklcdnv6temp.com/mangakakalot/g2/gon/vol7_chapter_24_gon_collects_honey_with_his_friends_in_the_forest/4.jpg",
    "https://img-proxy.imgfo.com/?referer=https://manganelo.com&url=https://s5.mkklcdnv6temp.com/mangakakalot/g2/gon/vol7_chapter_24_gon_collects_honey_with_his_friends_in_the_forest/5.jpg",
    "https://img-proxy.imgfo.com/?referer=https://manganelo.com&url=https://s5.mkklcdnv6temp.com/mangakakalot/g2/gon/vol7_chapter_24_gon_collects_honey_with_his_friends_in_the_forest/6.jpg",
    "https://img-proxy.imgfo.com/?referer=https://manganelo.com&url=https://s5.mkklcdnv6temp.com/mangakakalot/g2/gon/vol7_chapter_24_gon_collects_honey_with_his_friends_in_the_forest/7.jpg",
    "https://img-proxy.imgfo.com/?referer=https://manganelo.com&url=https://s5.mkklcdnv6temp.com/mangakakalot/g2/gon/vol7_chapter_24_gon_collects_honey_with_his_friends_in_the_forest/8.jpg",
    "https://img-proxy.imgfo.com/?referer=https://manganelo.com&url=https://s5.mkklcdnv6temp.com/mangakakalot/g2/gon/vol7_chapter_24_gon_collects_honey_with_his_friends_in_the_forest/9.jpg",
    "https://img-proxy.imgfo.com/?referer=https://manganelo.com&url=https://s5.mkklcdnv6temp.com/mangakakalot/g2/gon/vol7_chapter_24_gon_collects_honey_with_his_friends_in_the_forest/10.jpg",
    "https://img-proxy.imgfo.com/?referer=https://manganelo.com&url=https://s5.mkklcdnv6temp.com/mangakakalot/g2/gon/vol7_chapter_24_gon_collects_honey_with_his_friends_in_the_forest/11.jpg",
    "https://img-proxy.imgfo.com/?referer=https://manganelo.com&url=https://s5.mkklcdnv6temp.com/mangakakalot/g2/gon/vol7_chapter_24_gon_collects_honey_with_his_friends_in_the_forest/12.jpg",
    "https://img-proxy.imgfo.com/?referer=https://manganelo.com&url=https://s5.mkklcdnv6temp.com/mangakakalot/g2/gon/vol7_chapter_24_gon_collects_honey_with_his_friends_in_the_forest/13.jpg",
    "https://img-proxy.imgfo.com/?referer=https://manganelo.com&url=https://s5.mkklcdnv6temp.com/mangakakalot/g2/gon/vol7_chapter_24_gon_collects_honey_with_his_friends_in_the_forest/14.jpg",
    "https://img-proxy.imgfo.com/?referer=https://manganelo.com&url=https://s5.mkklcdnv6temp.com/mangakakalot/g2/gon/vol7_chapter_24_gon_collects_honey_with_his_friends_in_the_forest/15.jpg",
    "https://img-proxy.imgfo.com/?referer=https://manganelo.com&url=https://s5.mkklcdnv6temp.com/mangakakalot/g2/gon/vol7_chapter_24_gon_collects_honey_with_his_friends_in_the_forest/16.jpg",
    "https://img-proxy.imgfo.com/?referer=https://manganelo.com&url=https://s5.mkklcdnv6temp.com/mangakakalot/g2/gon/vol7_chapter_24_gon_collects_honey_with_his_friends_in_the_forest/17.jpg",
    "https://img-proxy.imgfo.com/?referer=https://manganelo.com&url=https://s5.mkklcdnv6temp.com/mangakakalot/g2/gon/vol7_chapter_24_gon_collects_honey_with_his_friends_in_the_forest/18.jpg",
    "https://img-proxy.imgfo.com/?referer=https://manganelo.com&url=https://s5.mkklcdnv6temp.com/mangakakalot/g2/gon/vol7_chapter_24_gon_collects_honey_with_his_friends_in_the_forest/19.jpg",
    "https://img-proxy.imgfo.com/?referer=https://manganelo.com&url=https://s5.mkklcdnv6temp.com/mangakakalot/g2/gon/vol7_chapter_24_gon_collects_honey_with_his_friends_in_the_forest/20.jpg",
    "https://img-proxy.imgfo.com/?referer=https://manganelo.com&url=https://s5.mkklcdnv6temp.com/mangakakalot/g2/gon/vol7_chapter_24_gon_collects_honey_with_his_friends_in_the_forest/21.jpg"
  ]
}