{
  "cover": "https://avt.mkklcdnv6.com/44/j/3-1583469421.jpg",
  "title": "Kono Oneesan Wa Fiction Desu!?",
  "original": "このお姉さんはフィクションです!? ; 姐姐不可能那么可爱 ; 这位姐姐很虚幻 ; 이 누나는 픽션입니다!? ; Тази кака не е илюзия? (Bulgarian) ; Фальшивая старшая сестра?! ; This Older Woman Is a Fiction!? ; Hermana mayor de ficción!?",
  "genre": "Comedy, Ecchi, Romance, Seinen, Slice of life, Manga",
  "author": "Mutsuki Tsutomu",
  "status": "Completed",
  "backlink": "https://manganu.com/collections/mutsuki-tsutomu/kono-oneesan-wa-fiction-desu/",
  "description": "Late one night when Jun was out on his bike, he came across a drunk, half-naked girl sprawled on the side of the road. She came to just enough to be uncomfortably affectionate, but Jun took her to his home to sleep it off with gentlemanly discretion. It turns out that she is Kawase Narumi, his author mother's new assistant. Unfortunately, she has no idea what she's doing in her new job, so Jun's going to have to coach her. He's also going to have to deal with her habit of getting drunk, mostly naked, and cuddly. Jun's life will never be the same! [From Baka-Updates]",
  "language": "English",
  "images": [
    "https://img-proxy.imgfo.com/?referer=https://manganelo.com&url=https://s41.mkklcdnv6temp.com/mangakakalot/k2/kono_oneesan_wa_fiction_desu/vol4_chapter_24/1.jpg",
    "https://img-proxy.imgfo.com/?referer=https://manganelo.com&url=https://s41.mkklcdnv6temp.com/mangakakalot/k2/kono_oneesan_wa_fiction_desu/vol4_chapter_24/2.jpg",
    "https://img-proxy.imgfo.com/?referer=https://manganelo.com&url=https://s41.mkklcdnv6temp.com/mangakakalot/k2/kono_oneesan_wa_fiction_desu/vol4_chapter_24/3.jpg",
    "https://img-proxy.imgfo.com/?referer=https://manganelo.com&url=https://s41.mkklcdnv6temp.com/mangakakalot/k2/kono_oneesan_wa_fiction_desu/vol4_chapter_24/4.jpg",
    "https://img-proxy.imgfo.com/?referer=https://manganelo.com&url=https://s41.mkklcdnv6temp.com/mangakakalot/k2/kono_oneesan_wa_fiction_desu/vol4_chapter_24/5.jpg",
    "https://img-proxy.imgfo.com/?referer=https://manganelo.com&url=https://s41.mkklcdnv6temp.com/mangakakalot/k2/kono_oneesan_wa_fiction_desu/vol4_chapter_24/6.jpg",
    "https://img-proxy.imgfo.com/?referer=https://manganelo.com&url=https://s41.mkklcdnv6temp.com/mangakakalot/k2/kono_oneesan_wa_fiction_desu/vol4_chapter_24/7.jpg",
    "https://img-proxy.imgfo.com/?referer=https://manganelo.com&url=https://s41.mkklcdnv6temp.com/mangakakalot/k2/kono_oneesan_wa_fiction_desu/vol4_chapter_24/8.jpg",
    "https://img-proxy.imgfo.com/?referer=https://manganelo.com&url=https://s41.mkklcdnv6temp.com/mangakakalot/k2/kono_oneesan_wa_fiction_desu/vol4_chapter_24/9.jpg",
    "https://img-proxy.imgfo.com/?referer=https://manganelo.com&url=https://s41.mkklcdnv6temp.com/mangakakalot/k2/kono_oneesan_wa_fiction_desu/vol4_chapter_24/10.jpg",
    "https://img-proxy.imgfo.com/?referer=https://manganelo.com&url=https://s41.mkklcdnv6temp.com/mangakakalot/k2/kono_oneesan_wa_fiction_desu/vol4_chapter_24/11.jpg",
    "https://img-proxy.imgfo.com/?referer=https://manganelo.com&url=https://s41.mkklcdnv6temp.com/mangakakalot/k2/kono_oneesan_wa_fiction_desu/vol4_chapter_24/12.jpg",
    "https://img-proxy.imgfo.com/?referer=https://manganelo.com&url=https://s41.mkklcdnv6temp.com/mangakakalot/k2/kono_oneesan_wa_fiction_desu/vol4_chapter_24/13.jpg",
    "https://img-proxy.imgfo.com/?referer=https://manganelo.com&url=https://s41.mkklcdnv6temp.com/mangakakalot/k2/kono_oneesan_wa_fiction_desu/vol4_chapter_24/14.jpg",
    "https://img-proxy.imgfo.com/?referer=https://manganelo.com&url=https://s41.mkklcdnv6temp.com/mangakakalot/k2/kono_oneesan_wa_fiction_desu/vol4_chapter_24/15.jpg",
    "https://img-proxy.imgfo.com/?referer=https://manganelo.com&url=https://s41.mkklcdnv6temp.com/mangakakalot/k2/kono_oneesan_wa_fiction_desu/vol4_chapter_24/16.jpg",
    "https://img-proxy.imgfo.com/?referer=https://manganelo.com&url=https://s41.mkklcdnv6temp.com/mangakakalot/k2/kono_oneesan_wa_fiction_desu/vol4_chapter_24/17.jpg",
    "https://img-proxy.imgfo.com/?referer=https://manganelo.com&url=https://s41.mkklcdnv6temp.com/mangakakalot/k2/kono_oneesan_wa_fiction_desu/vol4_chapter_24/18.jpg",
    "https://img-proxy.imgfo.com/?referer=https://manganelo.com&url=https://s41.mkklcdnv6temp.com/mangakakalot/k2/kono_oneesan_wa_fiction_desu/vol4_chapter_24/19.jpg",
    "https://img-proxy.imgfo.com/?referer=https://manganelo.com&url=https://s41.mkklcdnv6temp.com/mangakakalot/k2/kono_oneesan_wa_fiction_desu/vol4_chapter_24/20.jpg",
    "https://img-proxy.imgfo.com/?referer=https://manganelo.com&url=https://s41.mkklcdnv6temp.com/mangakakalot/k2/kono_oneesan_wa_fiction_desu/vol4_chapter_24/21.jpg",
    "https://img-proxy.imgfo.com/?referer=https://manganelo.com&url=https://s41.mkklcdnv6temp.com/mangakakalot/k2/kono_oneesan_wa_fiction_desu/vol4_chapter_24/22.jpg",
    "https://img-proxy.imgfo.com/?referer=https://manganelo.com&url=https://s41.mkklcdnv6temp.com/mangakakalot/k2/kono_oneesan_wa_fiction_desu/vol4_chapter_24/23.jpg",
    "https://img-proxy.imgfo.com/?referer=https://manganelo.com&url=https://s41.mkklcdnv6temp.com/mangakakalot/k2/kono_oneesan_wa_fiction_desu/vol4_chapter_24/24.jpg",
    "https://img-proxy.imgfo.com/?referer=https://manganelo.com&url=https://s41.mkklcdnv6temp.com/mangakakalot/k2/kono_oneesan_wa_fiction_desu/vol4_chapter_24/25.jpg",
    "https://img-proxy.imgfo.com/?referer=https://manganelo.com&url=https://s41.mkklcdnv6temp.com/mangakakalot/k2/kono_oneesan_wa_fiction_desu/vol4_chapter_24/26.jpg"
  ]
}