{
  "cover": "http://ww1.heaventoon.com/content/upload/images/3342-read_dragon_ball_manga_online_for_free2.jpg",
  "title": "Dragon Ball",
  "genre": "Action, Adventure, Comedy, Drama, Fantasy, Shounen, Manga",
  "author": "Toriyama Akira",
  "status": "Completed",
  "backlink": "https://manganu.com/collections/toriyama-akira/dragon-ball/",
  "description": "Dragon Ball follows the adventures of Goku from his childhood through adulthood as he trains in martial arts and explores the world in search of the seven mystical orbs known as the Dragon Balls, which can summon a wish-granting dragon when gathered. Along his journey, Goku makes several friends and battles a wide variety of villains, many of whom also seek the Dragon Balls for their own desires. Along the way becoming the strongest warrior in the universe.",
  "language": "English",
  "images": [
    "http://2.bp.blogspot.com/-a_MkTbyXNIw/WBZtci5Y1xI/AAAAAAEcEYE/PrJQIXGvITg/w1900/MR-19781-311577-1.jpg",
    "http://3.bp.blogspot.com/-urUqqCC-N8Y/WBZrWtTjQUI/AAAAAAEcCv4/PbUGErpzdw4/w1900/MR-19781-311577-2.jpg",
    "http://4.bp.blogspot.com/-Ip19fZgiP8E/WBZrVzTaobI/AAAAAAEcCvc/lsBP6tjnZQg/w1900/MR-19781-311577-3.jpg",
    "http://1.bp.blogspot.com/-VOi5uN_5Af0/WBZrVYrYOaI/AAAAAAEcCvE/S5y9JUwyFO4/w1900/MR-19781-311577-4.jpg",
    "http://2.bp.blogspot.com/-_Iww83Eizqg/WBZrU5xFP8I/AAAAAAEcCuk/7z-SqiDYx2o/w1900/MR-19781-311577-5.jpg",
    "http://3.bp.blogspot.com/-Cfxeu8A6-uk/WBZrUTFep3I/AAAAAAEcCuI/0wlyVDqH2FI/w1900/MR-19781-311577-6.jpg",
    "http://4.bp.blogspot.com/-pH9UVnEkSZg/WBZrT1dDWEI/AAAAAAEcCtk/RAUD6SawGHM/w1900/MR-19781-311577-7.jpg",
    "http://1.bp.blogspot.com/-YioM8sEMOko/WBZrTeNEYmI/AAAAAAEcCtE/9M-tSJ3c8nY/w1900/MR-19781-311577-8.jpg",
    "http://2.bp.blogspot.com/-SIdnH58D_kE/WBZrStImuhI/AAAAAAEcCss/1foaZVFzcXQ/w1900/MR-19781-311577-9.jpg",
    "http://3.bp.blogspot.com/-_F5w6xV08dA/WBZrRo--HoI/AAAAAAEcCsI/BEXTJXOV5BI/w1900/MR-19781-311577-10.jpg",
    "http://4.bp.blogspot.com/-P8pWSYbxPKE/WBZrRBWxTqI/AAAAAAEcCrs/4JYlJB57gkY/w1900/MR-19781-311577-11.jpg",
    "http://1.bp.blogspot.com/--CYU3QTvHv0/WBZrQhDCPPI/AAAAAAEcCrU/0Lw_WHw22EM/w1900/MR-19781-311577-12.jpg",
    "http://2.bp.blogspot.com/-3LqIVx0C38E/WBZrQJMzPHI/AAAAAAEcCq8/TmmTNUI3stI/w1900/MR-19781-311577-13.jpg",
    "http://3.bp.blogspot.com/-ioM46kj6rlY/WBZrPjsshgI/AAAAAAEcCqc/MHoJkt2l2jg/w1900/MR-19781-311577-14.jpg",
    "http://4.bp.blogspot.com/-0K_6Sg7TTW0/WBZrPJazYzI/AAAAAAEcCqA/xDUV2Nxjla8/w1900/MR-19781-311577-15.jpg"
  ]
}