{
  "cover": "http://ww1.heaventoon.com/content/upload/images/3342-read_dragon_ball_manga_online_for_free2.jpg",
  "title": "Dragon Ball",
  "genre": "Action, Adventure, Comedy, Drama, Fantasy, Shounen, Manga",
  "author": "Toriyama Akira",
  "status": "Completed",
  "backlink": "https://manganu.com/collections/toriyama-akira/dragon-ball/",
  "description": "Dragon Ball follows the adventures of Goku from his childhood through adulthood as he trains in martial arts and explores the world in search of the seven mystical orbs known as the Dragon Balls, which can summon a wish-granting dragon when gathered. Along his journey, Goku makes several friends and battles a wide variety of villains, many of whom also seek the Dragon Balls for their own desires. Along the way becoming the strongest warrior in the universe.",
  "language": "English",
  "images": [
    "http://2.bp.blogspot.com/-AX1JERdPndk/WBc3mMJl5UI/AAAAAAEeXjI/IB0PIk_ydSk/w1900/MR-19781-311479-1.jpg",
    "http://3.bp.blogspot.com/-L-RV82Hnwy0/WBc3liG_muI/AAAAAAEeXio/XtjU59KExXE/w1900/MR-19781-311479-2.jpg",
    "http://4.bp.blogspot.com/-kqLK2qRmLcw/WBc3lLeAeDI/AAAAAAEeXiI/ht-8l3-rA4U/w1900/MR-19781-311479-3.jpg",
    "http://1.bp.blogspot.com/-A_DLr4uuZ54/WBc3koV6DEI/AAAAAAEeXh0/GyAno-d--UA/w1900/MR-19781-311479-4.jpg",
    "http://2.bp.blogspot.com/-wI5QWmOVOLw/WBc3kNMVb3I/AAAAAAEeXhY/JtpH0UEw6xs/w1900/MR-19781-311479-5.jpg",
    "http://3.bp.blogspot.com/-Ww1z6k2BPtY/WBc3jhcpqjI/AAAAAAEeXg8/4gxjfrPIPwc/w1900/MR-19781-311479-6.jpg",
    "http://4.bp.blogspot.com/-8Jud3ycRqE8/WBc3i-MdGYI/AAAAAAEeXgc/CDge_cLzV-c/w1900/MR-19781-311479-7.jpg",
    "http://1.bp.blogspot.com/-K7KTk6-f0ic/WBc3iR0QwXI/AAAAAAEeXf4/dYZlQGGCz5w/w1900/MR-19781-311479-8.jpg",
    "http://2.bp.blogspot.com/-np4iPzwqPRY/WBc3h30olYI/AAAAAAEeXfU/lduvosYT-Rs/w1900/MR-19781-311479-9.jpg",
    "http://3.bp.blogspot.com/-2LI3iN5_LZ4/WBc3hXTcpPI/AAAAAAEeXe8/mhKwJxhBIWw/w1900/MR-19781-311479-10.jpg",
    "http://4.bp.blogspot.com/-SLD15CiFYjM/WBc3ggrLB2I/AAAAAAEeXeY/HI7t_G_UPvQ/w1900/MR-19781-311479-11.jpg",
    "http://1.bp.blogspot.com/-_lrMox102Tg/WBc3gJa9vNI/AAAAAAEeXds/LgBe5fjFUoo/w1900/MR-19781-311479-12.jpg",
    "http://2.bp.blogspot.com/-07eEAhPv5F4/WBc3fgSELWI/AAAAAAEeXdQ/7fcFv38_77I/w1900/MR-19781-311479-13.jpg",
    "http://3.bp.blogspot.com/-0TDhPeV6vgY/WBc3fC4bCCI/AAAAAAEeXcs/eyaP8sHpuJ4/w1900/MR-19781-311479-14.jpg",
    "http://4.bp.blogspot.com/-4SGbpiHFa_w/WBc3eeyasTI/AAAAAAEeXcI/Ak7Z2v0oJd8/w1900/MR-19781-311479-15.jpg",
    "http://1.bp.blogspot.com/-RF6dC6zY2c8/WBc3d5f_kYI/AAAAAAEeXbk/SPpT9_nTJUY/w1900/MR-19781-311479-16.jpg",
    "http://2.bp.blogspot.com/-wwPKBWhsRdE/WBc3deIorYI/AAAAAAEeXbE/KQQ7d_J3D2M/w1900/MR-19781-311479-17.jpg",
    "http://3.bp.blogspot.com/-D2iNLtIJuAE/WBc1fI1v2jI/AAAAAAEeV00/t5QGyKp04XU/w1900/MR-19781-311479-18.jpg",
    "http://4.bp.blogspot.com/-MONl1V1d7yw/WBc1ejHRNNI/AAAAAAEeV0U/058PiD0qf8Q/w1900/MR-19781-311479-19.jpg",
    "http://1.bp.blogspot.com/-FgiiS1uXgOY/WBc1eJXjOoI/AAAAAAEeVz0/6hhTUDCkwcg/w1900/MR-19781-311479-20.jpg",
    "http://2.bp.blogspot.com/-b-L4jGv-MNc/WBc1dXYSaRI/AAAAAAEeVzY/R2FI0_ItGNA/w1900/MR-19781-311479-21.jpg",
    "http://3.bp.blogspot.com/-RvRLG4g1n-U/WBc1c71R-WI/AAAAAAEeVy8/SrAQ1y_SA1k/w1900/MR-19781-311479-22.jpg",
    "http://4.bp.blogspot.com/-wGq_NoTcDpM/WBc1cdSyOJI/AAAAAAEeVys/-2TbHBI96QY/w1900/MR-19781-311479-23.jpg",
    "http://1.bp.blogspot.com/-5qoSybTUwyE/WBc1b2hjeuI/AAAAAAEeVyU/6gIM0-4iRQw/w1900/MR-19781-311479-24.jpg",
    "http://2.bp.blogspot.com/-4UjAlmZw0T0/WBc1bVDSHEI/AAAAAAEeVx4/SNoDVcrVzC8/w1900/MR-19781-311479-25.jpg",
    "http://3.bp.blogspot.com/-5ess9L9H_lU/WBc1a2jQvGI/AAAAAAEeVxg/sJwbEYKS2II/w1900/MR-19781-311479-26.jpg",
    "http://4.bp.blogspot.com/-5Pi9iiR_IxQ/WBc1aN-z9-I/AAAAAAEeVxE/gduL2pFMLHM/w1900/MR-19781-311479-27.jpg",
    "http://1.bp.blogspot.com/-mbuco4vlw3k/WBc1ZkRRt8I/AAAAAAEeVwk/tvPs76emJ7Y/w1900/MR-19781-311479-28.jpg",
    "http://2.bp.blogspot.com/-mRmkCsmGNq0/WBc1ZBgy1lI/AAAAAAEeVwM/JPOsrL1V9HQ/w1900/MR-19781-311479-29.jpg",
    "http://3.bp.blogspot.com/-LIskDFHzZ8o/WBc1Yl2-PPI/AAAAAAEeVvs/puj9xEHfQHQ/w1900/MR-19781-311479-30.jpg",
    "http://4.bp.blogspot.com/-kQwHcHMq9Cs/WBc1YNsD3VI/AAAAAAEeVvU/wz40J9OGQSg/w1900/MR-19781-311479-31.jpg",
    "http://1.bp.blogspot.com/-f9m7H6Hw8JY/WBc1XQS2UOI/AAAAAAEeVu8/_fAtExXE8qc/w1900/MR-19781-311479-32.jpg",
    "http://2.bp.blogspot.com/-mjW0gLENhbg/WBc1WwW1VjI/AAAAAAEeVuc/_Z49TtqxWKc/w1900/MR-19781-311479-33.jpg",
    "http://3.bp.blogspot.com/-NW5gSrdx5Lc/WBc1Wdy5UoI/AAAAAAEeVuA/-fYHLoW_79c/w1900/MR-19781-311479-34.jpg",
    "http://4.bp.blogspot.com/-NsATClWfTp8/WBc1V0oSe4I/AAAAAAEeVtg/EgZRmNPuP3Q/w1900/MR-19781-311479-35.jpg",
    "http://1.bp.blogspot.com/-dt1BmQr8adQ/WBc1Vdzh5mI/AAAAAAEeVtE/BmPUjCfjY2k/w1900/MR-19781-311479-36.jpg"
  ]
}