{
  "cover": "https://avt.mkklcdnv6.com/21/t/11-1583484802.jpg",
  "title": "Wolf Guy - Ookami No Monshou",
  "original": "ウルフガイ - 狼の紋章 ; 狼之纹章 ; 狼的紋章 ; Wolf Guy (TABATA Yoshiaki) ; Wolf Guy - Emblem of the Wolf ; Wolf Guy - Wolfen Crest",
  "genre": "Action, Adult, Drama, Fantasy, Horror, Mature, Psychological, Romance, School life, Seinen, Smut, Supernatural, Tragedy, Manga",
  "author": "Tabata Yoshiaki",
  "status": "Completed",
  "backlink": "https://manganu.com/collections/tabata-yoshiaki/wolf-guy-ookami-no-monshou/",
  "description": "Ms. Aoshika is not only divorced, but an underappreciated teacher at her job. But one drunken mishap leads her to witness firsthand the brutal assault and murder of a young man. However, after fainting, she awakens to discover that all of the assailants have been seriously wounded. And to her further surprise, the next day she discovers that not only is the young man, Akira, she met the night before alive, but he is now her new transfer student. This series is based off of a combination of the Wolf Guy manga and novel with aspects from &quot;Adult Wolf Guy &quot;Wolf Guy - Ookami no Monshou&quot; is a modern adaptation of &quot;Wolf Guy (SAKAGUCHI Hisashi)&quot; with a more violent and mature setting.",
  "language": "English",
  "images": [
    "https://img-proxy.imgfo.com/?referer=https://manganelo.com&url=https://s6.mkklcdnv6temp.com/mangakakalot/w2/wolf_guy_ookami_no_monshou/vol4_chapter_30_temptation/1.jpg",
    "https://img-proxy.imgfo.com/?referer=https://manganelo.com&url=https://s6.mkklcdnv6temp.com/mangakakalot/w2/wolf_guy_ookami_no_monshou/vol4_chapter_30_temptation/2.jpg",
    "https://img-proxy.imgfo.com/?referer=https://manganelo.com&url=https://s6.mkklcdnv6temp.com/mangakakalot/w2/wolf_guy_ookami_no_monshou/vol4_chapter_30_temptation/3.jpg",
    "https://img-proxy.imgfo.com/?referer=https://manganelo.com&url=https://s6.mkklcdnv6temp.com/mangakakalot/w2/wolf_guy_ookami_no_monshou/vol4_chapter_30_temptation/4.jpg",
    "https://img-proxy.imgfo.com/?referer=https://manganelo.com&url=https://s6.mkklcdnv6temp.com/mangakakalot/w2/wolf_guy_ookami_no_monshou/vol4_chapter_30_temptation/5.jpg",
    "https://img-proxy.imgfo.com/?referer=https://manganelo.com&url=https://s6.mkklcdnv6temp.com/mangakakalot/w2/wolf_guy_ookami_no_monshou/vol4_chapter_30_temptation/6.jpg",
    "https://img-proxy.imgfo.com/?referer=https://manganelo.com&url=https://s6.mkklcdnv6temp.com/mangakakalot/w2/wolf_guy_ookami_no_monshou/vol4_chapter_30_temptation/7.jpg",
    "https://img-proxy.imgfo.com/?referer=https://manganelo.com&url=https://s6.mkklcdnv6temp.com/mangakakalot/w2/wolf_guy_ookami_no_monshou/vol4_chapter_30_temptation/8.jpg",
    "https://img-proxy.imgfo.com/?referer=https://manganelo.com&url=https://s6.mkklcdnv6temp.com/mangakakalot/w2/wolf_guy_ookami_no_monshou/vol4_chapter_30_temptation/9.jpg",
    "https://img-proxy.imgfo.com/?referer=https://manganelo.com&url=https://s6.mkklcdnv6temp.com/mangakakalot/w2/wolf_guy_ookami_no_monshou/vol4_chapter_30_temptation/10.jpg",
    "https://img-proxy.imgfo.com/?referer=https://manganelo.com&url=https://s6.mkklcdnv6temp.com/mangakakalot/w2/wolf_guy_ookami_no_monshou/vol4_chapter_30_temptation/11.jpg",
    "https://img-proxy.imgfo.com/?referer=https://manganelo.com&url=https://s6.mkklcdnv6temp.com/mangakakalot/w2/wolf_guy_ookami_no_monshou/vol4_chapter_30_temptation/12.jpg",
    "https://img-proxy.imgfo.com/?referer=https://manganelo.com&url=https://s6.mkklcdnv6temp.com/mangakakalot/w2/wolf_guy_ookami_no_monshou/vol4_chapter_30_temptation/13.jpg",
    "https://img-proxy.imgfo.com/?referer=https://manganelo.com&url=https://s6.mkklcdnv6temp.com/mangakakalot/w2/wolf_guy_ookami_no_monshou/vol4_chapter_30_temptation/14.jpg",
    "https://img-proxy.imgfo.com/?referer=https://manganelo.com&url=https://s6.mkklcdnv6temp.com/mangakakalot/w2/wolf_guy_ookami_no_monshou/vol4_chapter_30_temptation/15.jpg",
    "https://img-proxy.imgfo.com/?referer=https://manganelo.com&url=https://s6.mkklcdnv6temp.com/mangakakalot/w2/wolf_guy_ookami_no_monshou/vol4_chapter_30_temptation/16.jpg",
    "https://img-proxy.imgfo.com/?referer=https://manganelo.com&url=https://s6.mkklcdnv6temp.com/mangakakalot/w2/wolf_guy_ookami_no_monshou/vol4_chapter_30_temptation/17.jpg",
    "https://img-proxy.imgfo.com/?referer=https://manganelo.com&url=https://s6.mkklcdnv6temp.com/mangakakalot/w2/wolf_guy_ookami_no_monshou/vol4_chapter_30_temptation/18.jpg",
    "https://img-proxy.imgfo.com/?referer=https://manganelo.com&url=https://s6.mkklcdnv6temp.com/mangakakalot/w2/wolf_guy_ookami_no_monshou/vol4_chapter_30_temptation/19.jpg",
    "https://img-proxy.imgfo.com/?referer=https://manganelo.com&url=https://s6.mkklcdnv6temp.com/mangakakalot/w2/wolf_guy_ookami_no_monshou/vol4_chapter_30_temptation/20.jpg",
    "https://img-proxy.imgfo.com/?referer=https://manganelo.com&url=https://s6.mkklcdnv6temp.com/mangakakalot/w2/wolf_guy_ookami_no_monshou/vol4_chapter_30_temptation/21.jpg",
    "https://img-proxy.imgfo.com/?referer=https://manganelo.com&url=https://s6.mkklcdnv6temp.com/mangakakalot/w2/wolf_guy_ookami_no_monshou/vol4_chapter_30_temptation/22.jpg",
    "https://img-proxy.imgfo.com/?referer=https://manganelo.com&url=https://s6.mkklcdnv6temp.com/mangakakalot/w2/wolf_guy_ookami_no_monshou/vol4_chapter_30_temptation/23.jpg"
  ]
}