{
  "cover": "https://avt.mkklcdnv6.com/49/i/9-1583482154.jpg",
  "title": "Hoshi No Furu Machi",
  "original": "ほしのふるまち ; 星星的故鄉 ; The Town the Stars Fall Upon",
  "genre": "Romance, School life, Seinen, Manga",
  "author": "Hara Hidenori",
  "status": "Completed",
  "backlink": "https://manganu.com/collections/hara-hidenori/hoshi-no-furu-machi/",
  "description": "\"The stars that don't shine in Tokyo surely do shine in a different town...\"\nTSUTSUMI Koutarou, who couldn't be a senior at a college-oriented high school in Tokyo, moves into Himi City, Toyama Prefecture with his relatives and spends one school year there.\n\"I wouldn't be able to shine for the rest of my life...\"\nHe's hurt, and depressed.\nHowever, his encounter with a girl named Nagisa changes his \"tomorrow\" little by little.\nNow, HARA Hidenori begins \"the sweetest 'starting-over' love story in the world\"...",
  "language": "English",
  "images": [
    "https://img-proxy.imgfo.com/?referer=https://manganelo.com&url=https://s6.mkklcdnv6temp.com/mangakakalot/h2/hoshi_no_furu_machi/vol2_chapter_14_heavy_burden/1.jpg",
    "https://img-proxy.imgfo.com/?referer=https://manganelo.com&url=https://s6.mkklcdnv6temp.com/mangakakalot/h2/hoshi_no_furu_machi/vol2_chapter_14_heavy_burden/2.jpg",
    "https://img-proxy.imgfo.com/?referer=https://manganelo.com&url=https://s6.mkklcdnv6temp.com/mangakakalot/h2/hoshi_no_furu_machi/vol2_chapter_14_heavy_burden/3.jpg",
    "https://img-proxy.imgfo.com/?referer=https://manganelo.com&url=https://s6.mkklcdnv6temp.com/mangakakalot/h2/hoshi_no_furu_machi/vol2_chapter_14_heavy_burden/4.jpg",
    "https://img-proxy.imgfo.com/?referer=https://manganelo.com&url=https://s6.mkklcdnv6temp.com/mangakakalot/h2/hoshi_no_furu_machi/vol2_chapter_14_heavy_burden/5.jpg",
    "https://img-proxy.imgfo.com/?referer=https://manganelo.com&url=https://s6.mkklcdnv6temp.com/mangakakalot/h2/hoshi_no_furu_machi/vol2_chapter_14_heavy_burden/6.jpg",
    "https://img-proxy.imgfo.com/?referer=https://manganelo.com&url=https://s6.mkklcdnv6temp.com/mangakakalot/h2/hoshi_no_furu_machi/vol2_chapter_14_heavy_burden/7.jpg",
    "https://img-proxy.imgfo.com/?referer=https://manganelo.com&url=https://s6.mkklcdnv6temp.com/mangakakalot/h2/hoshi_no_furu_machi/vol2_chapter_14_heavy_burden/8.jpg",
    "https://img-proxy.imgfo.com/?referer=https://manganelo.com&url=https://s6.mkklcdnv6temp.com/mangakakalot/h2/hoshi_no_furu_machi/vol2_chapter_14_heavy_burden/9.jpg",
    "https://img-proxy.imgfo.com/?referer=https://manganelo.com&url=https://s6.mkklcdnv6temp.com/mangakakalot/h2/hoshi_no_furu_machi/vol2_chapter_14_heavy_burden/10.jpg",
    "https://img-proxy.imgfo.com/?referer=https://manganelo.com&url=https://s6.mkklcdnv6temp.com/mangakakalot/h2/hoshi_no_furu_machi/vol2_chapter_14_heavy_burden/11.jpg",
    "https://img-proxy.imgfo.com/?referer=https://manganelo.com&url=https://s6.mkklcdnv6temp.com/mangakakalot/h2/hoshi_no_furu_machi/vol2_chapter_14_heavy_burden/12.jpg",
    "https://img-proxy.imgfo.com/?referer=https://manganelo.com&url=https://s6.mkklcdnv6temp.com/mangakakalot/h2/hoshi_no_furu_machi/vol2_chapter_14_heavy_burden/13.jpg",
    "https://img-proxy.imgfo.com/?referer=https://manganelo.com&url=https://s6.mkklcdnv6temp.com/mangakakalot/h2/hoshi_no_furu_machi/vol2_chapter_14_heavy_burden/14.jpg",
    "https://img-proxy.imgfo.com/?referer=https://manganelo.com&url=https://s6.mkklcdnv6temp.com/mangakakalot/h2/hoshi_no_furu_machi/vol2_chapter_14_heavy_burden/15.jpg",
    "https://img-proxy.imgfo.com/?referer=https://manganelo.com&url=https://s6.mkklcdnv6temp.com/mangakakalot/h2/hoshi_no_furu_machi/vol2_chapter_14_heavy_burden/16.jpg",
    "https://img-proxy.imgfo.com/?referer=https://manganelo.com&url=https://s6.mkklcdnv6temp.com/mangakakalot/h2/hoshi_no_furu_machi/vol2_chapter_14_heavy_burden/17.jpg",
    "https://img-proxy.imgfo.com/?referer=https://manganelo.com&url=https://s6.mkklcdnv6temp.com/mangakakalot/h2/hoshi_no_furu_machi/vol2_chapter_14_heavy_burden/18.jpg",
    "https://img-proxy.imgfo.com/?referer=https://manganelo.com&url=https://s6.mkklcdnv6temp.com/mangakakalot/h2/hoshi_no_furu_machi/vol2_chapter_14_heavy_burden/19.jpg",
    "https://img-proxy.imgfo.com/?referer=https://manganelo.com&url=https://s6.mkklcdnv6temp.com/mangakakalot/h2/hoshi_no_furu_machi/vol2_chapter_14_heavy_burden/20.jpg",
    "https://img-proxy.imgfo.com/?referer=https://manganelo.com&url=https://s6.mkklcdnv6temp.com/mangakakalot/h2/hoshi_no_furu_machi/vol2_chapter_14_heavy_burden/21.jpg",
    "https://img-proxy.imgfo.com/?referer=https://manganelo.com&url=https://s6.mkklcdnv6temp.com/mangakakalot/h2/hoshi_no_furu_machi/vol2_chapter_14_heavy_burden/22.jpg"
  ]
}