{
  "cover": "https://avt.mkklcdnv6.com/7/a/5-1583472140.jpg",
  "title": "Rizelmine",
  "original": "りぜるまいん",
  "genre": "Action, Adult, Comedy, Cooking, Fantasy, Romance, School life, Shounen",
  "author": "Sugisaki Yukiru",
  "status": "Completed",
  "backlink": "https://manganu.com/collections/sugisaki-yukiru/rizelmine/",
  "description": "The government has been conducting experiments to genetically engineer a human. Its first creation is a girl named Rizel, and the experiment is a success--sort of.While healthy and cheerful, 12-year-old Rizel also possesses the uncanny need for love to further her development. Saddened by this emptiness in her life, she sheds tears that can end up destroying a city block.So what&#39;s a girl to do ... except get married! Enter Iwaki Tomonori, your average 15-year-old boy. His world is turned upside-down the day he arrives home to find that the government has just announced that he&#39;s a married man!ITALIANOIl protagonista, Tomonori Iwaki, &egrave; un ragazzo con una tendenza particolare: riesce ad innamorarsi solo delle donne adulte. E&#39; innamorato della sua professoressa, che per&ograve; sta per sposarsi.Un giorno si ritrova in casa una ragazzina di 12 anni seguita da 3 uomini dall&#39;aspetto strano che gli propongono di firmare l&#39;atto matrimoniale con la ragazzina, Rizel.I genitori del ragazzo accetteranno la proposta, e da quel giorno in poi vivranno tutti insieme sotto lo stesso tetto e per Iwaki-kun sar&agrave; solo l&#39;inizio dei propri guai&hellip;(Piccola curiosit&agrave;: peculiarit&agrave; della ragazzina &egrave; che quando piange le sue lacrime fungono da esplosivo....XD)",
  "language": "English",
  "images": [
    "https://img-proxy.imgfo.com/?referer=https://manganelo.com&url=https://s7.mkklcdnv6temp.com/mangakakalot/r1/read_rizelmine_manga2/vol1_chapter_4_level_04_love_comes_with_a_rival/1.jpg",
    "https://img-proxy.imgfo.com/?referer=https://manganelo.com&url=https://s7.mkklcdnv6temp.com/mangakakalot/r1/read_rizelmine_manga2/vol1_chapter_4_level_04_love_comes_with_a_rival/2.jpg",
    "https://img-proxy.imgfo.com/?referer=https://manganelo.com&url=https://s7.mkklcdnv6temp.com/mangakakalot/r1/read_rizelmine_manga2/vol1_chapter_4_level_04_love_comes_with_a_rival/3.jpg",
    "https://img-proxy.imgfo.com/?referer=https://manganelo.com&url=https://s7.mkklcdnv6temp.com/mangakakalot/r1/read_rizelmine_manga2/vol1_chapter_4_level_04_love_comes_with_a_rival/4.jpg",
    "https://img-proxy.imgfo.com/?referer=https://manganelo.com&url=https://s7.mkklcdnv6temp.com/mangakakalot/r1/read_rizelmine_manga2/vol1_chapter_4_level_04_love_comes_with_a_rival/5.jpg",
    "https://img-proxy.imgfo.com/?referer=https://manganelo.com&url=https://s7.mkklcdnv6temp.com/mangakakalot/r1/read_rizelmine_manga2/vol1_chapter_4_level_04_love_comes_with_a_rival/6.jpg",
    "https://img-proxy.imgfo.com/?referer=https://manganelo.com&url=https://s7.mkklcdnv6temp.com/mangakakalot/r1/read_rizelmine_manga2/vol1_chapter_4_level_04_love_comes_with_a_rival/7.jpg",
    "https://img-proxy.imgfo.com/?referer=https://manganelo.com&url=https://s7.mkklcdnv6temp.com/mangakakalot/r1/read_rizelmine_manga2/vol1_chapter_4_level_04_love_comes_with_a_rival/8.jpg",
    "https://img-proxy.imgfo.com/?referer=https://manganelo.com&url=https://s7.mkklcdnv6temp.com/mangakakalot/r1/read_rizelmine_manga2/vol1_chapter_4_level_04_love_comes_with_a_rival/9.jpg",
    "https://img-proxy.imgfo.com/?referer=https://manganelo.com&url=https://s7.mkklcdnv6temp.com/mangakakalot/r1/read_rizelmine_manga2/vol1_chapter_4_level_04_love_comes_with_a_rival/10.jpg",
    "https://img-proxy.imgfo.com/?referer=https://manganelo.com&url=https://s7.mkklcdnv6temp.com/mangakakalot/r1/read_rizelmine_manga2/vol1_chapter_4_level_04_love_comes_with_a_rival/11.jpg",
    "https://img-proxy.imgfo.com/?referer=https://manganelo.com&url=https://s7.mkklcdnv6temp.com/mangakakalot/r1/read_rizelmine_manga2/vol1_chapter_4_level_04_love_comes_with_a_rival/12.jpg",
    "https://img-proxy.imgfo.com/?referer=https://manganelo.com&url=https://s7.mkklcdnv6temp.com/mangakakalot/r1/read_rizelmine_manga2/vol1_chapter_4_level_04_love_comes_with_a_rival/13.jpg",
    "https://img-proxy.imgfo.com/?referer=https://manganelo.com&url=https://s7.mkklcdnv6temp.com/mangakakalot/r1/read_rizelmine_manga2/vol1_chapter_4_level_04_love_comes_with_a_rival/14.jpg",
    "https://img-proxy.imgfo.com/?referer=https://manganelo.com&url=https://s7.mkklcdnv6temp.com/mangakakalot/r1/read_rizelmine_manga2/vol1_chapter_4_level_04_love_comes_with_a_rival/15.jpg",
    "https://img-proxy.imgfo.com/?referer=https://manganelo.com&url=https://s7.mkklcdnv6temp.com/mangakakalot/r1/read_rizelmine_manga2/vol1_chapter_4_level_04_love_comes_with_a_rival/16.jpg",
    "https://img-proxy.imgfo.com/?referer=https://manganelo.com&url=https://s7.mkklcdnv6temp.com/mangakakalot/r1/read_rizelmine_manga2/vol1_chapter_4_level_04_love_comes_with_a_rival/17.jpg",
    "https://img-proxy.imgfo.com/?referer=https://manganelo.com&url=https://s7.mkklcdnv6temp.com/mangakakalot/r1/read_rizelmine_manga2/vol1_chapter_4_level_04_love_comes_with_a_rival/18.jpg",
    "https://img-proxy.imgfo.com/?referer=https://manganelo.com&url=https://s7.mkklcdnv6temp.com/mangakakalot/r1/read_rizelmine_manga2/vol1_chapter_4_level_04_love_comes_with_a_rival/19.jpg",
    "https://img-proxy.imgfo.com/?referer=https://manganelo.com&url=https://s7.mkklcdnv6temp.com/mangakakalot/r1/read_rizelmine_manga2/vol1_chapter_4_level_04_love_comes_with_a_rival/20.jpg",
    "https://img-proxy.imgfo.com/?referer=https://manganelo.com&url=https://s7.mkklcdnv6temp.com/mangakakalot/r1/read_rizelmine_manga2/vol1_chapter_4_level_04_love_comes_with_a_rival/21.jpg"
  ]
}