{
  "cover": "https://avt.mkklcdnv6.com/42/x/5-1583473575.jpg",
  "title": "Inu Neko Jump",
  "original": "イヌっネコっジャンプ ; Dog Cat Jump ; Inu Neko Janpu!",
  "genre": "Comedy, Ecchi, Romance, Seinen, Sports, Manga",
  "author": "Hattori Mitsuru",
  "status": "Completed",
  "backlink": "https://manganu.com/collections/hattori-mitsuru/inu-neko-jump/",
  "description": "Ever since middle school, Takahiro Ozu was famous in the world of track and field as the \"long jump specialist”. But after losing his final competition in high school, he hung up his track shoes for good. Now in college, having taken up smoking, he just wants to get a girlfriend and lead a normal student life. Noriko Watsuki has had a crush on Takahiro since she first saw him jump and wants him to join the college track team so she can get close to him. Yuki \"The Headphone Girl\" Hoguchi, a high school student who likes to hang out at the university, claims Takahiro took her virginity 13 years ago when he was in kindergarten. She considers him her property to do with as she pleases. Throw in a full cast of zany and unique characters, sprinkle with fan service, and you have the world of Inu Neko Jump.\nFrom Animewaves",
  "language": "English",
  "images": [
    "https://img-proxy.imgfo.com/?referer=https://manganelo.com&url=https://s6.mkklcdnv6temp.com/mangakakalot/i1/inu_neko_jump/vol5_chapter_37_battle_at_the_festival_part_3/1.jpg",
    "https://img-proxy.imgfo.com/?referer=https://manganelo.com&url=https://s6.mkklcdnv6temp.com/mangakakalot/i1/inu_neko_jump/vol5_chapter_37_battle_at_the_festival_part_3/2.jpg",
    "https://img-proxy.imgfo.com/?referer=https://manganelo.com&url=https://s6.mkklcdnv6temp.com/mangakakalot/i1/inu_neko_jump/vol5_chapter_37_battle_at_the_festival_part_3/3.jpg",
    "https://img-proxy.imgfo.com/?referer=https://manganelo.com&url=https://s6.mkklcdnv6temp.com/mangakakalot/i1/inu_neko_jump/vol5_chapter_37_battle_at_the_festival_part_3/4.jpg",
    "https://img-proxy.imgfo.com/?referer=https://manganelo.com&url=https://s6.mkklcdnv6temp.com/mangakakalot/i1/inu_neko_jump/vol5_chapter_37_battle_at_the_festival_part_3/5.jpg",
    "https://img-proxy.imgfo.com/?referer=https://manganelo.com&url=https://s6.mkklcdnv6temp.com/mangakakalot/i1/inu_neko_jump/vol5_chapter_37_battle_at_the_festival_part_3/6.jpg",
    "https://img-proxy.imgfo.com/?referer=https://manganelo.com&url=https://s6.mkklcdnv6temp.com/mangakakalot/i1/inu_neko_jump/vol5_chapter_37_battle_at_the_festival_part_3/7.jpg",
    "https://img-proxy.imgfo.com/?referer=https://manganelo.com&url=https://s6.mkklcdnv6temp.com/mangakakalot/i1/inu_neko_jump/vol5_chapter_37_battle_at_the_festival_part_3/8.jpg",
    "https://img-proxy.imgfo.com/?referer=https://manganelo.com&url=https://s6.mkklcdnv6temp.com/mangakakalot/i1/inu_neko_jump/vol5_chapter_37_battle_at_the_festival_part_3/9.jpg",
    "https://img-proxy.imgfo.com/?referer=https://manganelo.com&url=https://s6.mkklcdnv6temp.com/mangakakalot/i1/inu_neko_jump/vol5_chapter_37_battle_at_the_festival_part_3/10.jpg",
    "https://img-proxy.imgfo.com/?referer=https://manganelo.com&url=https://s6.mkklcdnv6temp.com/mangakakalot/i1/inu_neko_jump/vol5_chapter_37_battle_at_the_festival_part_3/11.jpg",
    "https://img-proxy.imgfo.com/?referer=https://manganelo.com&url=https://s6.mkklcdnv6temp.com/mangakakalot/i1/inu_neko_jump/vol5_chapter_37_battle_at_the_festival_part_3/12.jpg",
    "https://img-proxy.imgfo.com/?referer=https://manganelo.com&url=https://s6.mkklcdnv6temp.com/mangakakalot/i1/inu_neko_jump/vol5_chapter_37_battle_at_the_festival_part_3/13.jpg",
    "https://img-proxy.imgfo.com/?referer=https://manganelo.com&url=https://s6.mkklcdnv6temp.com/mangakakalot/i1/inu_neko_jump/vol5_chapter_37_battle_at_the_festival_part_3/14.jpg",
    "https://img-proxy.imgfo.com/?referer=https://manganelo.com&url=https://s6.mkklcdnv6temp.com/mangakakalot/i1/inu_neko_jump/vol5_chapter_37_battle_at_the_festival_part_3/15.jpg",
    "https://img-proxy.imgfo.com/?referer=https://manganelo.com&url=https://s6.mkklcdnv6temp.com/mangakakalot/i1/inu_neko_jump/vol5_chapter_37_battle_at_the_festival_part_3/16.jpg",
    "https://img-proxy.imgfo.com/?referer=https://manganelo.com&url=https://s6.mkklcdnv6temp.com/mangakakalot/i1/inu_neko_jump/vol5_chapter_37_battle_at_the_festival_part_3/17.jpg",
    "https://img-proxy.imgfo.com/?referer=https://manganelo.com&url=https://s6.mkklcdnv6temp.com/mangakakalot/i1/inu_neko_jump/vol5_chapter_37_battle_at_the_festival_part_3/18.jpg",
    "https://img-proxy.imgfo.com/?referer=https://manganelo.com&url=https://s6.mkklcdnv6temp.com/mangakakalot/i1/inu_neko_jump/vol5_chapter_37_battle_at_the_festival_part_3/19.jpg",
    "https://img-proxy.imgfo.com/?referer=https://manganelo.com&url=https://s6.mkklcdnv6temp.com/mangakakalot/i1/inu_neko_jump/vol5_chapter_37_battle_at_the_festival_part_3/20.jpg",
    "https://img-proxy.imgfo.com/?referer=https://manganelo.com&url=https://s6.mkklcdnv6temp.com/mangakakalot/i1/inu_neko_jump/vol5_chapter_37_battle_at_the_festival_part_3/21.jpg",
    "https://img-proxy.imgfo.com/?referer=https://manganelo.com&url=https://s6.mkklcdnv6temp.com/mangakakalot/i1/inu_neko_jump/vol5_chapter_37_battle_at_the_festival_part_3/22.jpg",
    "https://img-proxy.imgfo.com/?referer=https://manganelo.com&url=https://s6.mkklcdnv6temp.com/mangakakalot/i1/inu_neko_jump/vol5_chapter_37_battle_at_the_festival_part_3/23.jpg"
  ]
}