{
  "cover": "https://avt.mkklcdnv6.com/43/t/9-1583481935.jpg",
  "title": "Muvluv Unlimited",
  "original": "マブラヴ アンリミテッド ; マブラヴアンリミテッド ; Muv-Luv Unlimited",
  "genre": "Action, Adventure, Ecchi, Fantasy, Harem, Mecha, Sci fi, Shounen, Manga",
  "author": "Age",
  "status": "Completed",
  "backlink": "https://manganu.com/collections/age/muvluv-unlimited/",
  "description": "Based on the game by Age, sequel to the original MuvLuv game, taking place in an alternate universe where the Earth is invaded by aliens.\nFrom Animaxis:\nOne day boarding school student Takeshi awakes to find himself in another world, one threatened by mysterious invaders. He soon learns that his only chance of returning home is to join forces with a group of beautiful female warriors, most of them mirror images of classmates and friends",
  "language": "English",
  "images": [
    "https://img-proxy.imgfo.com/?referer=https://manganelo.com&url=https://s41.mkklcdnv6temp.com/mangakakalot/m2/muvluv_unlimited/vol2_chapter_9/1.jpg",
    "https://img-proxy.imgfo.com/?referer=https://manganelo.com&url=https://s41.mkklcdnv6temp.com/mangakakalot/m2/muvluv_unlimited/vol2_chapter_9/2.jpg",
    "https://img-proxy.imgfo.com/?referer=https://manganelo.com&url=https://s41.mkklcdnv6temp.com/mangakakalot/m2/muvluv_unlimited/vol2_chapter_9/3.jpg",
    "https://img-proxy.imgfo.com/?referer=https://manganelo.com&url=https://s41.mkklcdnv6temp.com/mangakakalot/m2/muvluv_unlimited/vol2_chapter_9/4.jpg",
    "https://img-proxy.imgfo.com/?referer=https://manganelo.com&url=https://s41.mkklcdnv6temp.com/mangakakalot/m2/muvluv_unlimited/vol2_chapter_9/5.jpg",
    "https://img-proxy.imgfo.com/?referer=https://manganelo.com&url=https://s41.mkklcdnv6temp.com/mangakakalot/m2/muvluv_unlimited/vol2_chapter_9/6.jpg",
    "https://img-proxy.imgfo.com/?referer=https://manganelo.com&url=https://s41.mkklcdnv6temp.com/mangakakalot/m2/muvluv_unlimited/vol2_chapter_9/7.jpg",
    "https://img-proxy.imgfo.com/?referer=https://manganelo.com&url=https://s41.mkklcdnv6temp.com/mangakakalot/m2/muvluv_unlimited/vol2_chapter_9/8.jpg",
    "https://img-proxy.imgfo.com/?referer=https://manganelo.com&url=https://s41.mkklcdnv6temp.com/mangakakalot/m2/muvluv_unlimited/vol2_chapter_9/9.jpg",
    "https://img-proxy.imgfo.com/?referer=https://manganelo.com&url=https://s41.mkklcdnv6temp.com/mangakakalot/m2/muvluv_unlimited/vol2_chapter_9/10.jpg",
    "https://img-proxy.imgfo.com/?referer=https://manganelo.com&url=https://s41.mkklcdnv6temp.com/mangakakalot/m2/muvluv_unlimited/vol2_chapter_9/11.jpg",
    "https://img-proxy.imgfo.com/?referer=https://manganelo.com&url=https://s41.mkklcdnv6temp.com/mangakakalot/m2/muvluv_unlimited/vol2_chapter_9/12.jpg",
    "https://img-proxy.imgfo.com/?referer=https://manganelo.com&url=https://s41.mkklcdnv6temp.com/mangakakalot/m2/muvluv_unlimited/vol2_chapter_9/13.jpg",
    "https://img-proxy.imgfo.com/?referer=https://manganelo.com&url=https://s41.mkklcdnv6temp.com/mangakakalot/m2/muvluv_unlimited/vol2_chapter_9/14.jpg",
    "https://img-proxy.imgfo.com/?referer=https://manganelo.com&url=https://s41.mkklcdnv6temp.com/mangakakalot/m2/muvluv_unlimited/vol2_chapter_9/15.jpg",
    "https://img-proxy.imgfo.com/?referer=https://manganelo.com&url=https://s41.mkklcdnv6temp.com/mangakakalot/m2/muvluv_unlimited/vol2_chapter_9/16.jpg",
    "https://img-proxy.imgfo.com/?referer=https://manganelo.com&url=https://s41.mkklcdnv6temp.com/mangakakalot/m2/muvluv_unlimited/vol2_chapter_9/17.jpg",
    "https://img-proxy.imgfo.com/?referer=https://manganelo.com&url=https://s41.mkklcdnv6temp.com/mangakakalot/m2/muvluv_unlimited/vol2_chapter_9/18.jpg",
    "https://img-proxy.imgfo.com/?referer=https://manganelo.com&url=https://s41.mkklcdnv6temp.com/mangakakalot/m2/muvluv_unlimited/vol2_chapter_9/19.jpg",
    "https://img-proxy.imgfo.com/?referer=https://manganelo.com&url=https://s41.mkklcdnv6temp.com/mangakakalot/m2/muvluv_unlimited/vol2_chapter_9/20.jpg",
    "https://img-proxy.imgfo.com/?referer=https://manganelo.com&url=https://s41.mkklcdnv6temp.com/mangakakalot/m2/muvluv_unlimited/vol2_chapter_9/21.jpg",
    "https://img-proxy.imgfo.com/?referer=https://manganelo.com&url=https://s41.mkklcdnv6temp.com/mangakakalot/m2/muvluv_unlimited/vol2_chapter_9/22.jpg",
    "https://img-proxy.imgfo.com/?referer=https://manganelo.com&url=https://s41.mkklcdnv6temp.com/mangakakalot/m2/muvluv_unlimited/vol2_chapter_9/23.jpg",
    "https://img-proxy.imgfo.com/?referer=https://manganelo.com&url=https://s41.mkklcdnv6temp.com/mangakakalot/m2/muvluv_unlimited/vol2_chapter_9/24.jpg",
    "https://img-proxy.imgfo.com/?referer=https://manganelo.com&url=https://s41.mkklcdnv6temp.com/mangakakalot/m2/muvluv_unlimited/vol2_chapter_9/25.jpg",
    "https://img-proxy.imgfo.com/?referer=https://manganelo.com&url=https://s41.mkklcdnv6temp.com/mangakakalot/m2/muvluv_unlimited/vol2_chapter_9/26.jpg",
    "https://img-proxy.imgfo.com/?referer=https://manganelo.com&url=https://s41.mkklcdnv6temp.com/mangakakalot/m2/muvluv_unlimited/vol2_chapter_9/27.jpg",
    "https://img-proxy.imgfo.com/?referer=https://manganelo.com&url=https://s41.mkklcdnv6temp.com/mangakakalot/m2/muvluv_unlimited/vol2_chapter_9/28.jpg",
    "https://img-proxy.imgfo.com/?referer=https://manganelo.com&url=https://s41.mkklcdnv6temp.com/mangakakalot/m2/muvluv_unlimited/vol2_chapter_9/29.jpg",
    "https://img-proxy.imgfo.com/?referer=https://manganelo.com&url=https://s41.mkklcdnv6temp.com/mangakakalot/m2/muvluv_unlimited/vol2_chapter_9/30.jpg",
    "https://img-proxy.imgfo.com/?referer=https://manganelo.com&url=https://s41.mkklcdnv6temp.com/mangakakalot/m2/muvluv_unlimited/vol2_chapter_9/31.jpg",
    "https://img-proxy.imgfo.com/?referer=https://manganelo.com&url=https://s41.mkklcdnv6temp.com/mangakakalot/m2/muvluv_unlimited/vol2_chapter_9/32.jpg",
    "https://img-proxy.imgfo.com/?referer=https://manganelo.com&url=https://s41.mkklcdnv6temp.com/mangakakalot/m2/muvluv_unlimited/vol2_chapter_9/33.jpg",
    "https://img-proxy.imgfo.com/?referer=https://manganelo.com&url=https://s41.mkklcdnv6temp.com/mangakakalot/m2/muvluv_unlimited/vol2_chapter_9/34.jpg",
    "https://img-proxy.imgfo.com/?referer=https://manganelo.com&url=https://s41.mkklcdnv6temp.com/mangakakalot/m2/muvluv_unlimited/vol2_chapter_9/35.jpg",
    "https://img-proxy.imgfo.com/?referer=https://manganelo.com&url=https://s41.mkklcdnv6temp.com/mangakakalot/m2/muvluv_unlimited/vol2_chapter_9/36.jpg"
  ]
}