{
  "cover": "https://avt.mkklcdnv6.com/37/a/6-1583475636.jpg",
  "title": "Buzzer Beater",
  "original": "ブザービーター ; 零秒出手",
  "genre": "Sci fi, Shounen, Sports, Manga",
  "author": "Inoue Takehiko",
  "status": "Completed",
  "backlink": "https://manganu.com/collections/inoue-takehiko/buzzer-beater/",
  "description": "The year is 2XXX AD, and basketball has become the most popular sport in the universe. However, the Intergalactic League –- the pinnacle of professional basketball –- is completely dominated by extraterrestrials. The being widely renowned as the best of basketball is Gyuma, despite the fact he is merely 19-years-old.\nInto this arena steps Yoshimune, an old man who believes that it`s humans who should be number one in basketball. His plan is to collect the best team of pure humans there is, and attempt to win the Intergalactic League.\nWith this aim in mind, one of Yoshimune`s scouts –- Cha-che –- approach a 14-year-old prodigy named Hideyoshi, and offers him the chance to play in the Intergalactic league. His absolute self-confidence is what Yoshimune wants to drive his team to the top; right to Gyuma!",
  "language": "English",
  "images": [
    "https://img-proxy.imgfo.com/?referer=https://manganelo.com&url=https://s6.mkklcdnv6temp.com/mangakakalot/b2/buzzer_beater/vol2_chapter_21_includes_chapters_2140/1.jpg",
    "https://img-proxy.imgfo.com/?referer=https://manganelo.com&url=https://s6.mkklcdnv6temp.com/mangakakalot/b2/buzzer_beater/vol2_chapter_21_includes_chapters_2140/2.jpg",
    "https://img-proxy.imgfo.com/?referer=https://manganelo.com&url=https://s6.mkklcdnv6temp.com/mangakakalot/b2/buzzer_beater/vol2_chapter_21_includes_chapters_2140/3.jpg",
    "https://img-proxy.imgfo.com/?referer=https://manganelo.com&url=https://s6.mkklcdnv6temp.com/mangakakalot/b2/buzzer_beater/vol2_chapter_21_includes_chapters_2140/4.jpg",
    "https://img-proxy.imgfo.com/?referer=https://manganelo.com&url=https://s6.mkklcdnv6temp.com/mangakakalot/b2/buzzer_beater/vol2_chapter_21_includes_chapters_2140/5.jpg",
    "https://img-proxy.imgfo.com/?referer=https://manganelo.com&url=https://s6.mkklcdnv6temp.com/mangakakalot/b2/buzzer_beater/vol2_chapter_21_includes_chapters_2140/6.jpg",
    "https://img-proxy.imgfo.com/?referer=https://manganelo.com&url=https://s6.mkklcdnv6temp.com/mangakakalot/b2/buzzer_beater/vol2_chapter_21_includes_chapters_2140/7.jpg",
    "https://img-proxy.imgfo.com/?referer=https://manganelo.com&url=https://s6.mkklcdnv6temp.com/mangakakalot/b2/buzzer_beater/vol2_chapter_21_includes_chapters_2140/8.jpg",
    "https://img-proxy.imgfo.com/?referer=https://manganelo.com&url=https://s6.mkklcdnv6temp.com/mangakakalot/b2/buzzer_beater/vol2_chapter_21_includes_chapters_2140/9.jpg",
    "https://img-proxy.imgfo.com/?referer=https://manganelo.com&url=https://s6.mkklcdnv6temp.com/mangakakalot/b2/buzzer_beater/vol2_chapter_21_includes_chapters_2140/10.jpg",
    "https://img-proxy.imgfo.com/?referer=https://manganelo.com&url=https://s6.mkklcdnv6temp.com/mangakakalot/b2/buzzer_beater/vol2_chapter_21_includes_chapters_2140/11.jpg",
    "https://img-proxy.imgfo.com/?referer=https://manganelo.com&url=https://s6.mkklcdnv6temp.com/mangakakalot/b2/buzzer_beater/vol2_chapter_21_includes_chapters_2140/12.jpg",
    "https://img-proxy.imgfo.com/?referer=https://manganelo.com&url=https://s6.mkklcdnv6temp.com/mangakakalot/b2/buzzer_beater/vol2_chapter_21_includes_chapters_2140/13.jpg",
    "https://img-proxy.imgfo.com/?referer=https://manganelo.com&url=https://s6.mkklcdnv6temp.com/mangakakalot/b2/buzzer_beater/vol2_chapter_21_includes_chapters_2140/14.jpg",
    "https://img-proxy.imgfo.com/?referer=https://manganelo.com&url=https://s6.mkklcdnv6temp.com/mangakakalot/b2/buzzer_beater/vol2_chapter_21_includes_chapters_2140/15.jpg",
    "https://img-proxy.imgfo.com/?referer=https://manganelo.com&url=https://s6.mkklcdnv6temp.com/mangakakalot/b2/buzzer_beater/vol2_chapter_21_includes_chapters_2140/16.jpg",
    "https://img-proxy.imgfo.com/?referer=https://manganelo.com&url=https://s6.mkklcdnv6temp.com/mangakakalot/b2/buzzer_beater/vol2_chapter_21_includes_chapters_2140/17.jpg",
    "https://img-proxy.imgfo.com/?referer=https://manganelo.com&url=https://s6.mkklcdnv6temp.com/mangakakalot/b2/buzzer_beater/vol2_chapter_21_includes_chapters_2140/18.jpg",
    "https://img-proxy.imgfo.com/?referer=https://manganelo.com&url=https://s6.mkklcdnv6temp.com/mangakakalot/b2/buzzer_beater/vol2_chapter_21_includes_chapters_2140/19.jpg",
    "https://img-proxy.imgfo.com/?referer=https://manganelo.com&url=https://s6.mkklcdnv6temp.com/mangakakalot/b2/buzzer_beater/vol2_chapter_21_includes_chapters_2140/20.jpg",
    "https://img-proxy.imgfo.com/?referer=https://manganelo.com&url=https://s6.mkklcdnv6temp.com/mangakakalot/b2/buzzer_beater/vol2_chapter_21_includes_chapters_2140/21.jpg",
    "https://img-proxy.imgfo.com/?referer=https://manganelo.com&url=https://s6.mkklcdnv6temp.com/mangakakalot/b2/buzzer_beater/vol2_chapter_21_includes_chapters_2140/22.jpg",
    "https://img-proxy.imgfo.com/?referer=https://manganelo.com&url=https://s6.mkklcdnv6temp.com/mangakakalot/b2/buzzer_beater/vol2_chapter_21_includes_chapters_2140/23.jpg",
    "https://img-proxy.imgfo.com/?referer=https://manganelo.com&url=https://s6.mkklcdnv6temp.com/mangakakalot/b2/buzzer_beater/vol2_chapter_21_includes_chapters_2140/24.jpg",
    "https://img-proxy.imgfo.com/?referer=https://manganelo.com&url=https://s6.mkklcdnv6temp.com/mangakakalot/b2/buzzer_beater/vol2_chapter_21_includes_chapters_2140/25.jpg",
    "https://img-proxy.imgfo.com/?referer=https://manganelo.com&url=https://s6.mkklcdnv6temp.com/mangakakalot/b2/buzzer_beater/vol2_chapter_21_includes_chapters_2140/26.jpg",
    "https://img-proxy.imgfo.com/?referer=https://manganelo.com&url=https://s6.mkklcdnv6temp.com/mangakakalot/b2/buzzer_beater/vol2_chapter_21_includes_chapters_2140/27.jpg",
    "https://img-proxy.imgfo.com/?referer=https://manganelo.com&url=https://s6.mkklcdnv6temp.com/mangakakalot/b2/buzzer_beater/vol2_chapter_21_includes_chapters_2140/28.jpg",
    "https://img-proxy.imgfo.com/?referer=https://manganelo.com&url=https://s6.mkklcdnv6temp.com/mangakakalot/b2/buzzer_beater/vol2_chapter_21_includes_chapters_2140/29.jpg",
    "https://img-proxy.imgfo.com/?referer=https://manganelo.com&url=https://s6.mkklcdnv6temp.com/mangakakalot/b2/buzzer_beater/vol2_chapter_21_includes_chapters_2140/30.jpg",
    "https://img-proxy.imgfo.com/?referer=https://manganelo.com&url=https://s6.mkklcdnv6temp.com/mangakakalot/b2/buzzer_beater/vol2_chapter_21_includes_chapters_2140/31.jpg",
    "https://img-proxy.imgfo.com/?referer=https://manganelo.com&url=https://s6.mkklcdnv6temp.com/mangakakalot/b2/buzzer_beater/vol2_chapter_21_includes_chapters_2140/32.jpg",
    "https://img-proxy.imgfo.com/?referer=https://manganelo.com&url=https://s6.mkklcdnv6temp.com/mangakakalot/b2/buzzer_beater/vol2_chapter_21_includes_chapters_2140/33.jpg",
    "https://img-proxy.imgfo.com/?referer=https://manganelo.com&url=https://s6.mkklcdnv6temp.com/mangakakalot/b2/buzzer_beater/vol2_chapter_21_includes_chapters_2140/34.jpg",
    "https://img-proxy.imgfo.com/?referer=https://manganelo.com&url=https://s6.mkklcdnv6temp.com/mangakakalot/b2/buzzer_beater/vol2_chapter_21_includes_chapters_2140/35.jpg",
    "https://img-proxy.imgfo.com/?referer=https://manganelo.com&url=https://s6.mkklcdnv6temp.com/mangakakalot/b2/buzzer_beater/vol2_chapter_21_includes_chapters_2140/36.jpg",
    "https://img-proxy.imgfo.com/?referer=https://manganelo.com&url=https://s6.mkklcdnv6temp.com/mangakakalot/b2/buzzer_beater/vol2_chapter_21_includes_chapters_2140/37.jpg",
    "https://img-proxy.imgfo.com/?referer=https://manganelo.com&url=https://s6.mkklcdnv6temp.com/mangakakalot/b2/buzzer_beater/vol2_chapter_21_includes_chapters_2140/38.jpg",
    "https://img-proxy.imgfo.com/?referer=https://manganelo.com&url=https://s6.mkklcdnv6temp.com/mangakakalot/b2/buzzer_beater/vol2_chapter_21_includes_chapters_2140/39.jpg",
    "https://img-proxy.imgfo.com/?referer=https://manganelo.com&url=https://s6.mkklcdnv6temp.com/mangakakalot/b2/buzzer_beater/vol2_chapter_21_includes_chapters_2140/40.jpg",
    "https://img-proxy.imgfo.com/?referer=https://manganelo.com&url=https://s6.mkklcdnv6temp.com/mangakakalot/b2/buzzer_beater/vol2_chapter_21_includes_chapters_2140/41.jpg",
    "https://img-proxy.imgfo.com/?referer=https://manganelo.com&url=https://s6.mkklcdnv6temp.com/mangakakalot/b2/buzzer_beater/vol2_chapter_21_includes_chapters_2140/42.jpg",
    "https://img-proxy.imgfo.com/?referer=https://manganelo.com&url=https://s6.mkklcdnv6temp.com/mangakakalot/b2/buzzer_beater/vol2_chapter_21_includes_chapters_2140/43.jpg",
    "https://img-proxy.imgfo.com/?referer=https://manganelo.com&url=https://s6.mkklcdnv6temp.com/mangakakalot/b2/buzzer_beater/vol2_chapter_21_includes_chapters_2140/44.jpg",
    "https://img-proxy.imgfo.com/?referer=https://manganelo.com&url=https://s6.mkklcdnv6temp.com/mangakakalot/b2/buzzer_beater/vol2_chapter_21_includes_chapters_2140/45.jpg",
    "https://img-proxy.imgfo.com/?referer=https://manganelo.com&url=https://s6.mkklcdnv6temp.com/mangakakalot/b2/buzzer_beater/vol2_chapter_21_includes_chapters_2140/46.jpg",
    "https://img-proxy.imgfo.com/?referer=https://manganelo.com&url=https://s6.mkklcdnv6temp.com/mangakakalot/b2/buzzer_beater/vol2_chapter_21_includes_chapters_2140/47.jpg",
    "https://img-proxy.imgfo.com/?referer=https://manganelo.com&url=https://s6.mkklcdnv6temp.com/mangakakalot/b2/buzzer_beater/vol2_chapter_21_includes_chapters_2140/48.jpg",
    "https://img-proxy.imgfo.com/?referer=https://manganelo.com&url=https://s6.mkklcdnv6temp.com/mangakakalot/b2/buzzer_beater/vol2_chapter_21_includes_chapters_2140/49.jpg",
    "https://img-proxy.imgfo.com/?referer=https://manganelo.com&url=https://s6.mkklcdnv6temp.com/mangakakalot/b2/buzzer_beater/vol2_chapter_21_includes_chapters_2140/50.jpg",
    "https://img-proxy.imgfo.com/?referer=https://manganelo.com&url=https://s6.mkklcdnv6temp.com/mangakakalot/b2/buzzer_beater/vol2_chapter_21_includes_chapters_2140/51.jpg",
    "https://img-proxy.imgfo.com/?referer=https://manganelo.com&url=https://s6.mkklcdnv6temp.com/mangakakalot/b2/buzzer_beater/vol2_chapter_21_includes_chapters_2140/52.jpg",
    "https://img-proxy.imgfo.com/?referer=https://manganelo.com&url=https://s6.mkklcdnv6temp.com/mangakakalot/b2/buzzer_beater/vol2_chapter_21_includes_chapters_2140/53.jpg",
    "https://img-proxy.imgfo.com/?referer=https://manganelo.com&url=https://s6.mkklcdnv6temp.com/mangakakalot/b2/buzzer_beater/vol2_chapter_21_includes_chapters_2140/54.jpg",
    "https://img-proxy.imgfo.com/?referer=https://manganelo.com&url=https://s6.mkklcdnv6temp.com/mangakakalot/b2/buzzer_beater/vol2_chapter_21_includes_chapters_2140/55.jpg",
    "https://img-proxy.imgfo.com/?referer=https://manganelo.com&url=https://s6.mkklcdnv6temp.com/mangakakalot/b2/buzzer_beater/vol2_chapter_21_includes_chapters_2140/56.jpg",
    "https://img-proxy.imgfo.com/?referer=https://manganelo.com&url=https://s6.mkklcdnv6temp.com/mangakakalot/b2/buzzer_beater/vol2_chapter_21_includes_chapters_2140/57.jpg",
    "https://img-proxy.imgfo.com/?referer=https://manganelo.com&url=https://s6.mkklcdnv6temp.com/mangakakalot/b2/buzzer_beater/vol2_chapter_21_includes_chapters_2140/58.jpg",
    "https://img-proxy.imgfo.com/?referer=https://manganelo.com&url=https://s6.mkklcdnv6temp.com/mangakakalot/b2/buzzer_beater/vol2_chapter_21_includes_chapters_2140/59.jpg",
    "https://img-proxy.imgfo.com/?referer=https://manganelo.com&url=https://s6.mkklcdnv6temp.com/mangakakalot/b2/buzzer_beater/vol2_chapter_21_includes_chapters_2140/60.jpg",
    "https://img-proxy.imgfo.com/?referer=https://manganelo.com&url=https://s6.mkklcdnv6temp.com/mangakakalot/b2/buzzer_beater/vol2_chapter_21_includes_chapters_2140/61.jpg",
    "https://img-proxy.imgfo.com/?referer=https://manganelo.com&url=https://s6.mkklcdnv6temp.com/mangakakalot/b2/buzzer_beater/vol2_chapter_21_includes_chapters_2140/62.jpg",
    "https://img-proxy.imgfo.com/?referer=https://manganelo.com&url=https://s6.mkklcdnv6temp.com/mangakakalot/b2/buzzer_beater/vol2_chapter_21_includes_chapters_2140/63.jpg",
    "https://img-proxy.imgfo.com/?referer=https://manganelo.com&url=https://s6.mkklcdnv6temp.com/mangakakalot/b2/buzzer_beater/vol2_chapter_21_includes_chapters_2140/64.jpg",
    "https://img-proxy.imgfo.com/?referer=https://manganelo.com&url=https://s6.mkklcdnv6temp.com/mangakakalot/b2/buzzer_beater/vol2_chapter_21_includes_chapters_2140/65.jpg",
    "https://img-proxy.imgfo.com/?referer=https://manganelo.com&url=https://s6.mkklcdnv6temp.com/mangakakalot/b2/buzzer_beater/vol2_chapter_21_includes_chapters_2140/66.jpg",
    "https://img-proxy.imgfo.com/?referer=https://manganelo.com&url=https://s6.mkklcdnv6temp.com/mangakakalot/b2/buzzer_beater/vol2_chapter_21_includes_chapters_2140/67.jpg",
    "https://img-proxy.imgfo.com/?referer=https://manganelo.com&url=https://s6.mkklcdnv6temp.com/mangakakalot/b2/buzzer_beater/vol2_chapter_21_includes_chapters_2140/68.jpg",
    "https://img-proxy.imgfo.com/?referer=https://manganelo.com&url=https://s6.mkklcdnv6temp.com/mangakakalot/b2/buzzer_beater/vol2_chapter_21_includes_chapters_2140/69.jpg",
    "https://img-proxy.imgfo.com/?referer=https://manganelo.com&url=https://s6.mkklcdnv6temp.com/mangakakalot/b2/buzzer_beater/vol2_chapter_21_includes_chapters_2140/70.jpg",
    "https://img-proxy.imgfo.com/?referer=https://manganelo.com&url=https://s6.mkklcdnv6temp.com/mangakakalot/b2/buzzer_beater/vol2_chapter_21_includes_chapters_2140/71.jpg",
    "https://img-proxy.imgfo.com/?referer=https://manganelo.com&url=https://s6.mkklcdnv6temp.com/mangakakalot/b2/buzzer_beater/vol2_chapter_21_includes_chapters_2140/72.jpg",
    "https://img-proxy.imgfo.com/?referer=https://manganelo.com&url=https://s6.mkklcdnv6temp.com/mangakakalot/b2/buzzer_beater/vol2_chapter_21_includes_chapters_2140/73.jpg",
    "https://img-proxy.imgfo.com/?referer=https://manganelo.com&url=https://s6.mkklcdnv6temp.com/mangakakalot/b2/buzzer_beater/vol2_chapter_21_includes_chapters_2140/74.jpg",
    "https://img-proxy.imgfo.com/?referer=https://manganelo.com&url=https://s6.mkklcdnv6temp.com/mangakakalot/b2/buzzer_beater/vol2_chapter_21_includes_chapters_2140/75.jpg",
    "https://img-proxy.imgfo.com/?referer=https://manganelo.com&url=https://s6.mkklcdnv6temp.com/mangakakalot/b2/buzzer_beater/vol2_chapter_21_includes_chapters_2140/76.jpg",
    "https://img-proxy.imgfo.com/?referer=https://manganelo.com&url=https://s6.mkklcdnv6temp.com/mangakakalot/b2/buzzer_beater/vol2_chapter_21_includes_chapters_2140/77.jpg",
    "https://img-proxy.imgfo.com/?referer=https://manganelo.com&url=https://s6.mkklcdnv6temp.com/mangakakalot/b2/buzzer_beater/vol2_chapter_21_includes_chapters_2140/78.jpg",
    "https://img-proxy.imgfo.com/?referer=https://manganelo.com&url=https://s6.mkklcdnv6temp.com/mangakakalot/b2/buzzer_beater/vol2_chapter_21_includes_chapters_2140/79.jpg",
    "https://img-proxy.imgfo.com/?referer=https://manganelo.com&url=https://s6.mkklcdnv6temp.com/mangakakalot/b2/buzzer_beater/vol2_chapter_21_includes_chapters_2140/80.jpg",
    "https://img-proxy.imgfo.com/?referer=https://manganelo.com&url=https://s6.mkklcdnv6temp.com/mangakakalot/b2/buzzer_beater/vol2_chapter_21_includes_chapters_2140/81.jpg",
    "https://img-proxy.imgfo.com/?referer=https://manganelo.com&url=https://s6.mkklcdnv6temp.com/mangakakalot/b2/buzzer_beater/vol2_chapter_21_includes_chapters_2140/82.jpg",
    "https://img-proxy.imgfo.com/?referer=https://manganelo.com&url=https://s6.mkklcdnv6temp.com/mangakakalot/b2/buzzer_beater/vol2_chapter_21_includes_chapters_2140/83.jpg",
    "https://img-proxy.imgfo.com/?referer=https://manganelo.com&url=https://s6.mkklcdnv6temp.com/mangakakalot/b2/buzzer_beater/vol2_chapter_21_includes_chapters_2140/84.jpg",
    "https://img-proxy.imgfo.com/?referer=https://manganelo.com&url=https://s6.mkklcdnv6temp.com/mangakakalot/b2/buzzer_beater/vol2_chapter_21_includes_chapters_2140/85.jpg",
    "https://img-proxy.imgfo.com/?referer=https://manganelo.com&url=https://s6.mkklcdnv6temp.com/mangakakalot/b2/buzzer_beater/vol2_chapter_21_includes_chapters_2140/86.jpg",
    "https://img-proxy.imgfo.com/?referer=https://manganelo.com&url=https://s6.mkklcdnv6temp.com/mangakakalot/b2/buzzer_beater/vol2_chapter_21_includes_chapters_2140/87.jpg",
    "https://img-proxy.imgfo.com/?referer=https://manganelo.com&url=https://s6.mkklcdnv6temp.com/mangakakalot/b2/buzzer_beater/vol2_chapter_21_includes_chapters_2140/88.jpg",
    "https://img-proxy.imgfo.com/?referer=https://manganelo.com&url=https://s6.mkklcdnv6temp.com/mangakakalot/b2/buzzer_beater/vol2_chapter_21_includes_chapters_2140/89.jpg",
    "https://img-proxy.imgfo.com/?referer=https://manganelo.com&url=https://s6.mkklcdnv6temp.com/mangakakalot/b2/buzzer_beater/vol2_chapter_21_includes_chapters_2140/90.jpg",
    "https://img-proxy.imgfo.com/?referer=https://manganelo.com&url=https://s6.mkklcdnv6temp.com/mangakakalot/b2/buzzer_beater/vol2_chapter_21_includes_chapters_2140/91.jpg",
    "https://img-proxy.imgfo.com/?referer=https://manganelo.com&url=https://s6.mkklcdnv6temp.com/mangakakalot/b2/buzzer_beater/vol2_chapter_21_includes_chapters_2140/92.jpg",
    "https://img-proxy.imgfo.com/?referer=https://manganelo.com&url=https://s6.mkklcdnv6temp.com/mangakakalot/b2/buzzer_beater/vol2_chapter_21_includes_chapters_2140/93.jpg",
    "https://img-proxy.imgfo.com/?referer=https://manganelo.com&url=https://s6.mkklcdnv6temp.com/mangakakalot/b2/buzzer_beater/vol2_chapter_21_includes_chapters_2140/94.jpg",
    "https://img-proxy.imgfo.com/?referer=https://manganelo.com&url=https://s6.mkklcdnv6temp.com/mangakakalot/b2/buzzer_beater/vol2_chapter_21_includes_chapters_2140/95.jpg",
    "https://img-proxy.imgfo.com/?referer=https://manganelo.com&url=https://s6.mkklcdnv6temp.com/mangakakalot/b2/buzzer_beater/vol2_chapter_21_includes_chapters_2140/96.jpg",
    "https://img-proxy.imgfo.com/?referer=https://manganelo.com&url=https://s6.mkklcdnv6temp.com/mangakakalot/b2/buzzer_beater/vol2_chapter_21_includes_chapters_2140/97.jpg",
    "https://img-proxy.imgfo.com/?referer=https://manganelo.com&url=https://s6.mkklcdnv6temp.com/mangakakalot/b2/buzzer_beater/vol2_chapter_21_includes_chapters_2140/98.jpg",
    "https://img-proxy.imgfo.com/?referer=https://manganelo.com&url=https://s6.mkklcdnv6temp.com/mangakakalot/b2/buzzer_beater/vol2_chapter_21_includes_chapters_2140/99.jpg",
    "https://img-proxy.imgfo.com/?referer=https://manganelo.com&url=https://s6.mkklcdnv6temp.com/mangakakalot/b2/buzzer_beater/vol2_chapter_21_includes_chapters_2140/100.jpg",
    "https://img-proxy.imgfo.com/?referer=https://manganelo.com&url=https://s6.mkklcdnv6temp.com/mangakakalot/b2/buzzer_beater/vol2_chapter_21_includes_chapters_2140/101.jpg",
    "https://img-proxy.imgfo.com/?referer=https://manganelo.com&url=https://s6.mkklcdnv6temp.com/mangakakalot/b2/buzzer_beater/vol2_chapter_21_includes_chapters_2140/102.jpg",
    "https://img-proxy.imgfo.com/?referer=https://manganelo.com&url=https://s6.mkklcdnv6temp.com/mangakakalot/b2/buzzer_beater/vol2_chapter_21_includes_chapters_2140/103.jpg",
    "https://img-proxy.imgfo.com/?referer=https://manganelo.com&url=https://s6.mkklcdnv6temp.com/mangakakalot/b2/buzzer_beater/vol2_chapter_21_includes_chapters_2140/104.jpg",
    "https://img-proxy.imgfo.com/?referer=https://manganelo.com&url=https://s6.mkklcdnv6temp.com/mangakakalot/b2/buzzer_beater/vol2_chapter_21_includes_chapters_2140/105.jpg",
    "https://img-proxy.imgfo.com/?referer=https://manganelo.com&url=https://s6.mkklcdnv6temp.com/mangakakalot/b2/buzzer_beater/vol2_chapter_21_includes_chapters_2140/106.jpg",
    "https://img-proxy.imgfo.com/?referer=https://manganelo.com&url=https://s6.mkklcdnv6temp.com/mangakakalot/b2/buzzer_beater/vol2_chapter_21_includes_chapters_2140/107.jpg",
    "https://img-proxy.imgfo.com/?referer=https://manganelo.com&url=https://s6.mkklcdnv6temp.com/mangakakalot/b2/buzzer_beater/vol2_chapter_21_includes_chapters_2140/108.jpg",
    "https://img-proxy.imgfo.com/?referer=https://manganelo.com&url=https://s6.mkklcdnv6temp.com/mangakakalot/b2/buzzer_beater/vol2_chapter_21_includes_chapters_2140/109.jpg",
    "https://img-proxy.imgfo.com/?referer=https://manganelo.com&url=https://s6.mkklcdnv6temp.com/mangakakalot/b2/buzzer_beater/vol2_chapter_21_includes_chapters_2140/110.jpg",
    "https://img-proxy.imgfo.com/?referer=https://manganelo.com&url=https://s6.mkklcdnv6temp.com/mangakakalot/b2/buzzer_beater/vol2_chapter_21_includes_chapters_2140/111.jpg",
    "https://img-proxy.imgfo.com/?referer=https://manganelo.com&url=https://s6.mkklcdnv6temp.com/mangakakalot/b2/buzzer_beater/vol2_chapter_21_includes_chapters_2140/112.jpg",
    "https://img-proxy.imgfo.com/?referer=https://manganelo.com&url=https://s6.mkklcdnv6temp.com/mangakakalot/b2/buzzer_beater/vol2_chapter_21_includes_chapters_2140/113.jpg",
    "https://img-proxy.imgfo.com/?referer=https://manganelo.com&url=https://s6.mkklcdnv6temp.com/mangakakalot/b2/buzzer_beater/vol2_chapter_21_includes_chapters_2140/114.jpg",
    "https://img-proxy.imgfo.com/?referer=https://manganelo.com&url=https://s6.mkklcdnv6temp.com/mangakakalot/b2/buzzer_beater/vol2_chapter_21_includes_chapters_2140/115.jpg",
    "https://img-proxy.imgfo.com/?referer=https://manganelo.com&url=https://s6.mkklcdnv6temp.com/mangakakalot/b2/buzzer_beater/vol2_chapter_21_includes_chapters_2140/116.jpg",
    "https://img-proxy.imgfo.com/?referer=https://manganelo.com&url=https://s6.mkklcdnv6temp.com/mangakakalot/b2/buzzer_beater/vol2_chapter_21_includes_chapters_2140/117.jpg",
    "https://img-proxy.imgfo.com/?referer=https://manganelo.com&url=https://s6.mkklcdnv6temp.com/mangakakalot/b2/buzzer_beater/vol2_chapter_21_includes_chapters_2140/118.jpg",
    "https://img-proxy.imgfo.com/?referer=https://manganelo.com&url=https://s6.mkklcdnv6temp.com/mangakakalot/b2/buzzer_beater/vol2_chapter_21_includes_chapters_2140/119.jpg",
    "https://img-proxy.imgfo.com/?referer=https://manganelo.com&url=https://s6.mkklcdnv6temp.com/mangakakalot/b2/buzzer_beater/vol2_chapter_21_includes_chapters_2140/120.jpg",
    "https://img-proxy.imgfo.com/?referer=https://manganelo.com&url=https://s6.mkklcdnv6temp.com/mangakakalot/b2/buzzer_beater/vol2_chapter_21_includes_chapters_2140/121.jpg",
    "https://img-proxy.imgfo.com/?referer=https://manganelo.com&url=https://s6.mkklcdnv6temp.com/mangakakalot/b2/buzzer_beater/vol2_chapter_21_includes_chapters_2140/122.jpg",
    "https://img-proxy.imgfo.com/?referer=https://manganelo.com&url=https://s6.mkklcdnv6temp.com/mangakakalot/b2/buzzer_beater/vol2_chapter_21_includes_chapters_2140/123.jpg",
    "https://img-proxy.imgfo.com/?referer=https://manganelo.com&url=https://s6.mkklcdnv6temp.com/mangakakalot/b2/buzzer_beater/vol2_chapter_21_includes_chapters_2140/124.jpg"
  ]
}