{
  "cover": "https://avt.mkklcdnv6.com/16/l/5-1583472488.jpg",
  "title": "I Do I Do",
  "original": "아이 두 아이 두 ; I Do I Do - 아이 두 아이 두 ; I Do I Do - Two Children, Two Children ; Two Children, Two Children",
  "genre": "Comedy, Drama, Romance, School life, Shoujo, Manhwa",
  "author": "Han Yu-Rang",
  "status": "Completed",
  "backlink": "https://manganu.com/collections/han-yu-rang/i-do-i-do/",
  "description": "Mun Su is a strong girl with a weak heart. Wanting to pay off the debt of her uncle, she is going to work for the creditor. To her surprise, the guy she beaten up outside is...!!! (You can guess where this is going.)",
  "language": "English",
  "images": [
    "https://img-proxy.imgfo.com/?referer=https://manganelo.com&url=https://s5.mkklcdnv6temp.com/mangakakalot/i2/i_do_i_do/vol4_chapter_15/1.jpg",
    "https://img-proxy.imgfo.com/?referer=https://manganelo.com&url=https://s5.mkklcdnv6temp.com/mangakakalot/i2/i_do_i_do/vol4_chapter_15/2.jpg",
    "https://img-proxy.imgfo.com/?referer=https://manganelo.com&url=https://s5.mkklcdnv6temp.com/mangakakalot/i2/i_do_i_do/vol4_chapter_15/3.jpg",
    "https://img-proxy.imgfo.com/?referer=https://manganelo.com&url=https://s5.mkklcdnv6temp.com/mangakakalot/i2/i_do_i_do/vol4_chapter_15/4.jpg",
    "https://img-proxy.imgfo.com/?referer=https://manganelo.com&url=https://s5.mkklcdnv6temp.com/mangakakalot/i2/i_do_i_do/vol4_chapter_15/5.jpg",
    "https://img-proxy.imgfo.com/?referer=https://manganelo.com&url=https://s5.mkklcdnv6temp.com/mangakakalot/i2/i_do_i_do/vol4_chapter_15/6.jpg",
    "https://img-proxy.imgfo.com/?referer=https://manganelo.com&url=https://s5.mkklcdnv6temp.com/mangakakalot/i2/i_do_i_do/vol4_chapter_15/7.jpg",
    "https://img-proxy.imgfo.com/?referer=https://manganelo.com&url=https://s5.mkklcdnv6temp.com/mangakakalot/i2/i_do_i_do/vol4_chapter_15/8.jpg",
    "https://img-proxy.imgfo.com/?referer=https://manganelo.com&url=https://s5.mkklcdnv6temp.com/mangakakalot/i2/i_do_i_do/vol4_chapter_15/9.jpg",
    "https://img-proxy.imgfo.com/?referer=https://manganelo.com&url=https://s5.mkklcdnv6temp.com/mangakakalot/i2/i_do_i_do/vol4_chapter_15/10.jpg",
    "https://img-proxy.imgfo.com/?referer=https://manganelo.com&url=https://s5.mkklcdnv6temp.com/mangakakalot/i2/i_do_i_do/vol4_chapter_15/11.jpg",
    "https://img-proxy.imgfo.com/?referer=https://manganelo.com&url=https://s5.mkklcdnv6temp.com/mangakakalot/i2/i_do_i_do/vol4_chapter_15/12.jpg",
    "https://img-proxy.imgfo.com/?referer=https://manganelo.com&url=https://s5.mkklcdnv6temp.com/mangakakalot/i2/i_do_i_do/vol4_chapter_15/13.jpg",
    "https://img-proxy.imgfo.com/?referer=https://manganelo.com&url=https://s5.mkklcdnv6temp.com/mangakakalot/i2/i_do_i_do/vol4_chapter_15/14.jpg",
    "https://img-proxy.imgfo.com/?referer=https://manganelo.com&url=https://s5.mkklcdnv6temp.com/mangakakalot/i2/i_do_i_do/vol4_chapter_15/15.jpg",
    "https://img-proxy.imgfo.com/?referer=https://manganelo.com&url=https://s5.mkklcdnv6temp.com/mangakakalot/i2/i_do_i_do/vol4_chapter_15/16.jpg",
    "https://img-proxy.imgfo.com/?referer=https://manganelo.com&url=https://s5.mkklcdnv6temp.com/mangakakalot/i2/i_do_i_do/vol4_chapter_15/17.jpg",
    "https://img-proxy.imgfo.com/?referer=https://manganelo.com&url=https://s5.mkklcdnv6temp.com/mangakakalot/i2/i_do_i_do/vol4_chapter_15/18.jpg",
    "https://img-proxy.imgfo.com/?referer=https://manganelo.com&url=https://s5.mkklcdnv6temp.com/mangakakalot/i2/i_do_i_do/vol4_chapter_15/19.jpg",
    "https://img-proxy.imgfo.com/?referer=https://manganelo.com&url=https://s5.mkklcdnv6temp.com/mangakakalot/i2/i_do_i_do/vol4_chapter_15/20.jpg",
    "https://img-proxy.imgfo.com/?referer=https://manganelo.com&url=https://s5.mkklcdnv6temp.com/mangakakalot/i2/i_do_i_do/vol4_chapter_15/21.jpg",
    "https://img-proxy.imgfo.com/?referer=https://manganelo.com&url=https://s5.mkklcdnv6temp.com/mangakakalot/i2/i_do_i_do/vol4_chapter_15/22.jpg",
    "https://img-proxy.imgfo.com/?referer=https://manganelo.com&url=https://s5.mkklcdnv6temp.com/mangakakalot/i2/i_do_i_do/vol4_chapter_15/23.jpg",
    "https://img-proxy.imgfo.com/?referer=https://manganelo.com&url=https://s5.mkklcdnv6temp.com/mangakakalot/i2/i_do_i_do/vol4_chapter_15/24.jpg",
    "https://img-proxy.imgfo.com/?referer=https://manganelo.com&url=https://s5.mkklcdnv6temp.com/mangakakalot/i2/i_do_i_do/vol4_chapter_15/25.jpg",
    "https://img-proxy.imgfo.com/?referer=https://manganelo.com&url=https://s5.mkklcdnv6temp.com/mangakakalot/i2/i_do_i_do/vol4_chapter_15/26.jpg",
    "https://img-proxy.imgfo.com/?referer=https://manganelo.com&url=https://s5.mkklcdnv6temp.com/mangakakalot/i2/i_do_i_do/vol4_chapter_15/27.jpg",
    "https://img-proxy.imgfo.com/?referer=https://manganelo.com&url=https://s5.mkklcdnv6temp.com/mangakakalot/i2/i_do_i_do/vol4_chapter_15/28.jpg",
    "https://img-proxy.imgfo.com/?referer=https://manganelo.com&url=https://s5.mkklcdnv6temp.com/mangakakalot/i2/i_do_i_do/vol4_chapter_15/29.jpg",
    "https://img-proxy.imgfo.com/?referer=https://manganelo.com&url=https://s5.mkklcdnv6temp.com/mangakakalot/i2/i_do_i_do/vol4_chapter_15/30.jpg",
    "https://img-proxy.imgfo.com/?referer=https://manganelo.com&url=https://s5.mkklcdnv6temp.com/mangakakalot/i2/i_do_i_do/vol4_chapter_15/31.jpg",
    "https://img-proxy.imgfo.com/?referer=https://manganelo.com&url=https://s5.mkklcdnv6temp.com/mangakakalot/i2/i_do_i_do/vol4_chapter_15/32.jpg",
    "https://img-proxy.imgfo.com/?referer=https://manganelo.com&url=https://s5.mkklcdnv6temp.com/mangakakalot/i2/i_do_i_do/vol4_chapter_15/33.jpg",
    "https://img-proxy.imgfo.com/?referer=https://manganelo.com&url=https://s5.mkklcdnv6temp.com/mangakakalot/i2/i_do_i_do/vol4_chapter_15/34.jpg",
    "https://img-proxy.imgfo.com/?referer=https://manganelo.com&url=https://s5.mkklcdnv6temp.com/mangakakalot/i2/i_do_i_do/vol4_chapter_15/35.jpg",
    "https://img-proxy.imgfo.com/?referer=https://manganelo.com&url=https://s5.mkklcdnv6temp.com/mangakakalot/i2/i_do_i_do/vol4_chapter_15/36.jpg",
    "https://img-proxy.imgfo.com/?referer=https://manganelo.com&url=https://s5.mkklcdnv6temp.com/mangakakalot/i2/i_do_i_do/vol4_chapter_15/37.jpg",
    "https://img-proxy.imgfo.com/?referer=https://manganelo.com&url=https://s5.mkklcdnv6temp.com/mangakakalot/i2/i_do_i_do/vol4_chapter_15/38.jpg",
    "https://img-proxy.imgfo.com/?referer=https://manganelo.com&url=https://s5.mkklcdnv6temp.com/mangakakalot/i2/i_do_i_do/vol4_chapter_15/39.jpg",
    "https://img-proxy.imgfo.com/?referer=https://manganelo.com&url=https://s5.mkklcdnv6temp.com/mangakakalot/i2/i_do_i_do/vol4_chapter_15/40.jpg",
    "https://img-proxy.imgfo.com/?referer=https://manganelo.com&url=https://s5.mkklcdnv6temp.com/mangakakalot/i2/i_do_i_do/vol4_chapter_15/41.jpg"
  ]
}