{
  "cover": "https://avt.mkklcdnv6.com/16/l/5-1583472488.jpg",
  "title": "I Do I Do",
  "original": "아이 두 아이 두 ; I Do I Do - 아이 두 아이 두 ; I Do I Do - Two Children, Two Children ; Two Children, Two Children",
  "genre": "Comedy, Drama, Romance, School life, Shoujo, Manhwa",
  "author": "Han Yu-Rang",
  "status": "Completed",
  "backlink": "https://manganu.com/collections/han-yu-rang/i-do-i-do/",
  "description": "Mun Su is a strong girl with a weak heart. Wanting to pay off the debt of her uncle, she is going to work for the creditor. To her surprise, the guy she beaten up outside is...!!! (You can guess where this is going.)",
  "language": "English",
  "images": [
    "https://img-proxy.imgfo.com/?referer=https://manganelo.com&url=https://s5.mkklcdnv6temp.com/mangakakalot/i2/i_do_i_do/vol5_chapter_18/1.jpg",
    "https://img-proxy.imgfo.com/?referer=https://manganelo.com&url=https://s5.mkklcdnv6temp.com/mangakakalot/i2/i_do_i_do/vol5_chapter_18/2.jpg",
    "https://img-proxy.imgfo.com/?referer=https://manganelo.com&url=https://s5.mkklcdnv6temp.com/mangakakalot/i2/i_do_i_do/vol5_chapter_18/3.jpg",
    "https://img-proxy.imgfo.com/?referer=https://manganelo.com&url=https://s5.mkklcdnv6temp.com/mangakakalot/i2/i_do_i_do/vol5_chapter_18/4.jpg",
    "https://img-proxy.imgfo.com/?referer=https://manganelo.com&url=https://s5.mkklcdnv6temp.com/mangakakalot/i2/i_do_i_do/vol5_chapter_18/5.jpg",
    "https://img-proxy.imgfo.com/?referer=https://manganelo.com&url=https://s5.mkklcdnv6temp.com/mangakakalot/i2/i_do_i_do/vol5_chapter_18/6.jpg",
    "https://img-proxy.imgfo.com/?referer=https://manganelo.com&url=https://s5.mkklcdnv6temp.com/mangakakalot/i2/i_do_i_do/vol5_chapter_18/7.jpg",
    "https://img-proxy.imgfo.com/?referer=https://manganelo.com&url=https://s5.mkklcdnv6temp.com/mangakakalot/i2/i_do_i_do/vol5_chapter_18/8.jpg",
    "https://img-proxy.imgfo.com/?referer=https://manganelo.com&url=https://s5.mkklcdnv6temp.com/mangakakalot/i2/i_do_i_do/vol5_chapter_18/9.jpg",
    "https://img-proxy.imgfo.com/?referer=https://manganelo.com&url=https://s5.mkklcdnv6temp.com/mangakakalot/i2/i_do_i_do/vol5_chapter_18/10.jpg",
    "https://img-proxy.imgfo.com/?referer=https://manganelo.com&url=https://s5.mkklcdnv6temp.com/mangakakalot/i2/i_do_i_do/vol5_chapter_18/11.jpg",
    "https://img-proxy.imgfo.com/?referer=https://manganelo.com&url=https://s5.mkklcdnv6temp.com/mangakakalot/i2/i_do_i_do/vol5_chapter_18/12.jpg",
    "https://img-proxy.imgfo.com/?referer=https://manganelo.com&url=https://s5.mkklcdnv6temp.com/mangakakalot/i2/i_do_i_do/vol5_chapter_18/13.jpg",
    "https://img-proxy.imgfo.com/?referer=https://manganelo.com&url=https://s5.mkklcdnv6temp.com/mangakakalot/i2/i_do_i_do/vol5_chapter_18/14.jpg",
    "https://img-proxy.imgfo.com/?referer=https://manganelo.com&url=https://s5.mkklcdnv6temp.com/mangakakalot/i2/i_do_i_do/vol5_chapter_18/15.jpg",
    "https://img-proxy.imgfo.com/?referer=https://manganelo.com&url=https://s5.mkklcdnv6temp.com/mangakakalot/i2/i_do_i_do/vol5_chapter_18/16.jpg",
    "https://img-proxy.imgfo.com/?referer=https://manganelo.com&url=https://s5.mkklcdnv6temp.com/mangakakalot/i2/i_do_i_do/vol5_chapter_18/17.jpg",
    "https://img-proxy.imgfo.com/?referer=https://manganelo.com&url=https://s5.mkklcdnv6temp.com/mangakakalot/i2/i_do_i_do/vol5_chapter_18/18.jpg",
    "https://img-proxy.imgfo.com/?referer=https://manganelo.com&url=https://s5.mkklcdnv6temp.com/mangakakalot/i2/i_do_i_do/vol5_chapter_18/19.jpg",
    "https://img-proxy.imgfo.com/?referer=https://manganelo.com&url=https://s5.mkklcdnv6temp.com/mangakakalot/i2/i_do_i_do/vol5_chapter_18/20.jpg",
    "https://img-proxy.imgfo.com/?referer=https://manganelo.com&url=https://s5.mkklcdnv6temp.com/mangakakalot/i2/i_do_i_do/vol5_chapter_18/21.jpg",
    "https://img-proxy.imgfo.com/?referer=https://manganelo.com&url=https://s5.mkklcdnv6temp.com/mangakakalot/i2/i_do_i_do/vol5_chapter_18/22.jpg",
    "https://img-proxy.imgfo.com/?referer=https://manganelo.com&url=https://s5.mkklcdnv6temp.com/mangakakalot/i2/i_do_i_do/vol5_chapter_18/23.jpg",
    "https://img-proxy.imgfo.com/?referer=https://manganelo.com&url=https://s5.mkklcdnv6temp.com/mangakakalot/i2/i_do_i_do/vol5_chapter_18/24.jpg",
    "https://img-proxy.imgfo.com/?referer=https://manganelo.com&url=https://s5.mkklcdnv6temp.com/mangakakalot/i2/i_do_i_do/vol5_chapter_18/25.jpg",
    "https://img-proxy.imgfo.com/?referer=https://manganelo.com&url=https://s5.mkklcdnv6temp.com/mangakakalot/i2/i_do_i_do/vol5_chapter_18/26.jpg",
    "https://img-proxy.imgfo.com/?referer=https://manganelo.com&url=https://s5.mkklcdnv6temp.com/mangakakalot/i2/i_do_i_do/vol5_chapter_18/27.jpg",
    "https://img-proxy.imgfo.com/?referer=https://manganelo.com&url=https://s5.mkklcdnv6temp.com/mangakakalot/i2/i_do_i_do/vol5_chapter_18/28.jpg",
    "https://img-proxy.imgfo.com/?referer=https://manganelo.com&url=https://s5.mkklcdnv6temp.com/mangakakalot/i2/i_do_i_do/vol5_chapter_18/29.jpg",
    "https://img-proxy.imgfo.com/?referer=https://manganelo.com&url=https://s5.mkklcdnv6temp.com/mangakakalot/i2/i_do_i_do/vol5_chapter_18/30.jpg",
    "https://img-proxy.imgfo.com/?referer=https://manganelo.com&url=https://s5.mkklcdnv6temp.com/mangakakalot/i2/i_do_i_do/vol5_chapter_18/31.jpg",
    "https://img-proxy.imgfo.com/?referer=https://manganelo.com&url=https://s5.mkklcdnv6temp.com/mangakakalot/i2/i_do_i_do/vol5_chapter_18/32.jpg",
    "https://img-proxy.imgfo.com/?referer=https://manganelo.com&url=https://s5.mkklcdnv6temp.com/mangakakalot/i2/i_do_i_do/vol5_chapter_18/33.jpg",
    "https://img-proxy.imgfo.com/?referer=https://manganelo.com&url=https://s5.mkklcdnv6temp.com/mangakakalot/i2/i_do_i_do/vol5_chapter_18/34.jpg",
    "https://img-proxy.imgfo.com/?referer=https://manganelo.com&url=https://s5.mkklcdnv6temp.com/mangakakalot/i2/i_do_i_do/vol5_chapter_18/35.jpg",
    "https://img-proxy.imgfo.com/?referer=https://manganelo.com&url=https://s5.mkklcdnv6temp.com/mangakakalot/i2/i_do_i_do/vol5_chapter_18/36.jpg",
    "https://img-proxy.imgfo.com/?referer=https://manganelo.com&url=https://s5.mkklcdnv6temp.com/mangakakalot/i2/i_do_i_do/vol5_chapter_18/37.jpg",
    "https://img-proxy.imgfo.com/?referer=https://manganelo.com&url=https://s5.mkklcdnv6temp.com/mangakakalot/i2/i_do_i_do/vol5_chapter_18/38.jpg",
    "https://img-proxy.imgfo.com/?referer=https://manganelo.com&url=https://s5.mkklcdnv6temp.com/mangakakalot/i2/i_do_i_do/vol5_chapter_18/39.jpg"
  ]
}