{
  "cover": "https://avt.mkklcdnv6.com/20/o/5-1583472643.jpg",
  "title": "420 Renpai Girl",
  "original": "420連敗ガール ; yonhyakunijuu renpai gaaru",
  "genre": "Comedy, Romance, School life, Manga",
  "author": "Kiriyama Naruto",
  "status": "Completed",
  "backlink": "https://manganu.com/collections/kiriyama-naruto/420-renpai-girl/",
  "description": "420 Renpai Girl summary is updating. Come visit our website sometime to read the latest chapter of 420 Renpai Girl. If you have any question about this manga, Please don't hesitate to contact us or translate team. Hope you enjoy it.",
  "language": "English",
  "images": [
    "https://img-proxy.imgfo.com/?referer=https://manganelo.com&url=https://s6.mkklcdnv6temp.com/mangakakalot/02/420_renpai_girl/vol1_chapter_1_teaser/1.jpg",
    "https://img-proxy.imgfo.com/?referer=https://manganelo.com&url=https://s6.mkklcdnv6temp.com/mangakakalot/02/420_renpai_girl/vol1_chapter_1_teaser/2.jpg",
    "https://img-proxy.imgfo.com/?referer=https://manganelo.com&url=https://s6.mkklcdnv6temp.com/mangakakalot/02/420_renpai_girl/vol1_chapter_1_teaser/3.jpg",
    "https://img-proxy.imgfo.com/?referer=https://manganelo.com&url=https://s6.mkklcdnv6temp.com/mangakakalot/02/420_renpai_girl/vol1_chapter_1_teaser/4.jpg",
    "https://img-proxy.imgfo.com/?referer=https://manganelo.com&url=https://s6.mkklcdnv6temp.com/mangakakalot/02/420_renpai_girl/vol1_chapter_1_teaser/5.jpg",
    "https://img-proxy.imgfo.com/?referer=https://manganelo.com&url=https://s6.mkklcdnv6temp.com/mangakakalot/02/420_renpai_girl/vol1_chapter_1_teaser/6.jpg",
    "https://img-proxy.imgfo.com/?referer=https://manganelo.com&url=https://s6.mkklcdnv6temp.com/mangakakalot/02/420_renpai_girl/vol1_chapter_1_teaser/7.jpg",
    "https://img-proxy.imgfo.com/?referer=https://manganelo.com&url=https://s6.mkklcdnv6temp.com/mangakakalot/02/420_renpai_girl/vol1_chapter_1_teaser/8.jpg",
    "https://img-proxy.imgfo.com/?referer=https://manganelo.com&url=https://s6.mkklcdnv6temp.com/mangakakalot/02/420_renpai_girl/vol1_chapter_1_teaser/9.jpg",
    "https://img-proxy.imgfo.com/?referer=https://manganelo.com&url=https://s6.mkklcdnv6temp.com/mangakakalot/02/420_renpai_girl/vol1_chapter_1_teaser/10.jpg",
    "https://img-proxy.imgfo.com/?referer=https://manganelo.com&url=https://s6.mkklcdnv6temp.com/mangakakalot/02/420_renpai_girl/vol1_chapter_1_teaser/11.jpg",
    "https://img-proxy.imgfo.com/?referer=https://manganelo.com&url=https://s6.mkklcdnv6temp.com/mangakakalot/02/420_renpai_girl/vol1_chapter_1_teaser/12.jpg",
    "https://img-proxy.imgfo.com/?referer=https://manganelo.com&url=https://s6.mkklcdnv6temp.com/mangakakalot/02/420_renpai_girl/vol1_chapter_1_teaser/13.jpg",
    "https://img-proxy.imgfo.com/?referer=https://manganelo.com&url=https://s6.mkklcdnv6temp.com/mangakakalot/02/420_renpai_girl/vol1_chapter_1_teaser/14.jpg",
    "https://img-proxy.imgfo.com/?referer=https://manganelo.com&url=https://s6.mkklcdnv6temp.com/mangakakalot/02/420_renpai_girl/vol1_chapter_1_teaser/15.jpg",
    "https://img-proxy.imgfo.com/?referer=https://manganelo.com&url=https://s6.mkklcdnv6temp.com/mangakakalot/02/420_renpai_girl/vol1_chapter_1_teaser/16.jpg"
  ]
}