{
  "cover": "https://avt.mkklcdnv6.com/44/d/6-1583475981.jpg",
  "title": "Battle Royale Ii: Blitz Royale",
  "original": "ブリッツロワイアル ; Battle Royale 2 ; Battle Royale II ; Battle Royale II: Blitz Royale ; Blitz Royale ; BR2 ; BR2―ブリッツ・ロワイアル",
  "genre": "Action, Adult, Comedy, Drama, Psychological, Seinen, Manga",
  "author": "Takami Koushun",
  "status": "Completed",
  "backlink": "https://manganu.com/collections/takami-koushun/battle-royale-ii-blitz-royale/",
  "description": "Like the earlier Battle Royales, a class of middle school students are picked to compete in fights to the death on an island until there is only one left. The manga follows the point of view of Girl #10 Makoto Hashimoto, an unlucky girl who fears that her class will be chosen to participate in &quot;the program,&quot; a mysterious event that forces students to kill each other. Makoto attends Shikanotoride Junior High School. After the encouragement of her best friend Itou Yamamoto and her mother she decides to face the chances. Her fears are supposedly put to rest when word spreads that all 50 Programs had already been executed in the year making them 100% unlikely to participate... Taken from MangaUpdates This manga was released straight to tankobon (graphic novel) format, therefore there was no serialization. However, a thirty page preview ran in Akita Shoten&#39;s Young Champion Magazine. The problem with straight to tankobon manga is that there is no indication whatsoever of when the next volume might be released. Though the author is the same, the artist has changed from the original manga. The realistic grit of Masayuki Taguchi has been replaced by the lighthearted cartooniness of Hitoshi Tomizawa. Also, though it is still written by Koushun Takami, the original story is based on the universe of the films rather than that of the original novel. Taken from AnimeNewsNetwork.",
  "language": "English",
  "images": [
    "https://img-proxy.imgfo.com/?referer=https://manganelo.com&url=https://s3.mkklcdnv6temp.com/mangakakalot/r1/read_battle_royale_ii_blitz_royale/vol1_chapter_8_true_identity/1.jpg",
    "https://img-proxy.imgfo.com/?referer=https://manganelo.com&url=https://s3.mkklcdnv6temp.com/mangakakalot/r1/read_battle_royale_ii_blitz_royale/vol1_chapter_8_true_identity/2.jpg",
    "https://img-proxy.imgfo.com/?referer=https://manganelo.com&url=https://s3.mkklcdnv6temp.com/mangakakalot/r1/read_battle_royale_ii_blitz_royale/vol1_chapter_8_true_identity/3.jpg",
    "https://img-proxy.imgfo.com/?referer=https://manganelo.com&url=https://s3.mkklcdnv6temp.com/mangakakalot/r1/read_battle_royale_ii_blitz_royale/vol1_chapter_8_true_identity/4.jpg",
    "https://img-proxy.imgfo.com/?referer=https://manganelo.com&url=https://s3.mkklcdnv6temp.com/mangakakalot/r1/read_battle_royale_ii_blitz_royale/vol1_chapter_8_true_identity/5.jpg",
    "https://img-proxy.imgfo.com/?referer=https://manganelo.com&url=https://s3.mkklcdnv6temp.com/mangakakalot/r1/read_battle_royale_ii_blitz_royale/vol1_chapter_8_true_identity/6.jpg",
    "https://img-proxy.imgfo.com/?referer=https://manganelo.com&url=https://s3.mkklcdnv6temp.com/mangakakalot/r1/read_battle_royale_ii_blitz_royale/vol1_chapter_8_true_identity/7.jpg",
    "https://img-proxy.imgfo.com/?referer=https://manganelo.com&url=https://s3.mkklcdnv6temp.com/mangakakalot/r1/read_battle_royale_ii_blitz_royale/vol1_chapter_8_true_identity/8.jpg",
    "https://img-proxy.imgfo.com/?referer=https://manganelo.com&url=https://s3.mkklcdnv6temp.com/mangakakalot/r1/read_battle_royale_ii_blitz_royale/vol1_chapter_8_true_identity/9.jpg",
    "https://img-proxy.imgfo.com/?referer=https://manganelo.com&url=https://s3.mkklcdnv6temp.com/mangakakalot/r1/read_battle_royale_ii_blitz_royale/vol1_chapter_8_true_identity/10.jpg",
    "https://img-proxy.imgfo.com/?referer=https://manganelo.com&url=https://s3.mkklcdnv6temp.com/mangakakalot/r1/read_battle_royale_ii_blitz_royale/vol1_chapter_8_true_identity/11.jpg",
    "https://img-proxy.imgfo.com/?referer=https://manganelo.com&url=https://s3.mkklcdnv6temp.com/mangakakalot/r1/read_battle_royale_ii_blitz_royale/vol1_chapter_8_true_identity/12.jpg",
    "https://img-proxy.imgfo.com/?referer=https://manganelo.com&url=https://s3.mkklcdnv6temp.com/mangakakalot/r1/read_battle_royale_ii_blitz_royale/vol1_chapter_8_true_identity/13.jpg",
    "https://img-proxy.imgfo.com/?referer=https://manganelo.com&url=https://s3.mkklcdnv6temp.com/mangakakalot/r1/read_battle_royale_ii_blitz_royale/vol1_chapter_8_true_identity/14.jpg",
    "https://img-proxy.imgfo.com/?referer=https://manganelo.com&url=https://s3.mkklcdnv6temp.com/mangakakalot/r1/read_battle_royale_ii_blitz_royale/vol1_chapter_8_true_identity/15.jpg",
    "https://img-proxy.imgfo.com/?referer=https://manganelo.com&url=https://s3.mkklcdnv6temp.com/mangakakalot/r1/read_battle_royale_ii_blitz_royale/vol1_chapter_8_true_identity/16.jpg",
    "https://img-proxy.imgfo.com/?referer=https://manganelo.com&url=https://s3.mkklcdnv6temp.com/mangakakalot/r1/read_battle_royale_ii_blitz_royale/vol1_chapter_8_true_identity/17.jpg",
    "https://img-proxy.imgfo.com/?referer=https://manganelo.com&url=https://s3.mkklcdnv6temp.com/mangakakalot/r1/read_battle_royale_ii_blitz_royale/vol1_chapter_8_true_identity/18.jpg",
    "https://img-proxy.imgfo.com/?referer=https://manganelo.com&url=https://s3.mkklcdnv6temp.com/mangakakalot/r1/read_battle_royale_ii_blitz_royale/vol1_chapter_8_true_identity/19.jpg",
    "https://img-proxy.imgfo.com/?referer=https://manganelo.com&url=https://s3.mkklcdnv6temp.com/mangakakalot/r1/read_battle_royale_ii_blitz_royale/vol1_chapter_8_true_identity/20.jpg"
  ]
}