{
  "cover": "https://avt.mkklcdnv6.com/12/z/5-1583472356.jpg",
  "title": "Lucu Lucu",
  "original": "るくるく",
  "genre": "Comedy, Fantasy, Seinen, Slice of life, Manga",
  "author": "Asari Yoshitoo",
  "status": "Completed",
  "backlink": "https://manganu.com/collections/asari-yoshitoo/lucu-lucu/",
  "description": "Humans are a despicable lot, committing sin after sin, filling the endless boundaries of the underworld with tortured souls. Now, it would seem, Hell isn't so endless after all, and it has become dangerously close to filling, and then overflowing into the human realm. Princess Lucuha sees this imminent disaster and has a plan: save Hell by making humans decent again. Of course, the Angels can't simply allow Demons to roam freely on Earth, and they do their best to stop Lucu and her dastardly plans.\nNominated for the 12th Annual Osamu Tezuka Culture Award.",
  "language": "English",
  "images": [
    "https://img-proxy.imgfo.com/?referer=https://manganelo.com&url=https://s3.mkklcdnv6temp.com/mangakakalot/l2/lucu_lucu/vol7_chapter_59_demons_projector/1.jpg",
    "https://img-proxy.imgfo.com/?referer=https://manganelo.com&url=https://s3.mkklcdnv6temp.com/mangakakalot/l2/lucu_lucu/vol7_chapter_59_demons_projector/2.jpg",
    "https://img-proxy.imgfo.com/?referer=https://manganelo.com&url=https://s3.mkklcdnv6temp.com/mangakakalot/l2/lucu_lucu/vol7_chapter_59_demons_projector/3.jpg",
    "https://img-proxy.imgfo.com/?referer=https://manganelo.com&url=https://s3.mkklcdnv6temp.com/mangakakalot/l2/lucu_lucu/vol7_chapter_59_demons_projector/4.jpg",
    "https://img-proxy.imgfo.com/?referer=https://manganelo.com&url=https://s3.mkklcdnv6temp.com/mangakakalot/l2/lucu_lucu/vol7_chapter_59_demons_projector/5.jpg",
    "https://img-proxy.imgfo.com/?referer=https://manganelo.com&url=https://s3.mkklcdnv6temp.com/mangakakalot/l2/lucu_lucu/vol7_chapter_59_demons_projector/6.jpg",
    "https://img-proxy.imgfo.com/?referer=https://manganelo.com&url=https://s3.mkklcdnv6temp.com/mangakakalot/l2/lucu_lucu/vol7_chapter_59_demons_projector/7.jpg",
    "https://img-proxy.imgfo.com/?referer=https://manganelo.com&url=https://s3.mkklcdnv6temp.com/mangakakalot/l2/lucu_lucu/vol7_chapter_59_demons_projector/8.jpg",
    "https://img-proxy.imgfo.com/?referer=https://manganelo.com&url=https://s3.mkklcdnv6temp.com/mangakakalot/l2/lucu_lucu/vol7_chapter_59_demons_projector/9.jpg",
    "https://img-proxy.imgfo.com/?referer=https://manganelo.com&url=https://s3.mkklcdnv6temp.com/mangakakalot/l2/lucu_lucu/vol7_chapter_59_demons_projector/10.jpg",
    "https://img-proxy.imgfo.com/?referer=https://manganelo.com&url=https://s3.mkklcdnv6temp.com/mangakakalot/l2/lucu_lucu/vol7_chapter_59_demons_projector/11.jpg",
    "https://img-proxy.imgfo.com/?referer=https://manganelo.com&url=https://s3.mkklcdnv6temp.com/mangakakalot/l2/lucu_lucu/vol7_chapter_59_demons_projector/12.jpg",
    "https://img-proxy.imgfo.com/?referer=https://manganelo.com&url=https://s3.mkklcdnv6temp.com/mangakakalot/l2/lucu_lucu/vol7_chapter_59_demons_projector/13.jpg",
    "https://img-proxy.imgfo.com/?referer=https://manganelo.com&url=https://s3.mkklcdnv6temp.com/mangakakalot/l2/lucu_lucu/vol7_chapter_59_demons_projector/14.jpg",
    "https://img-proxy.imgfo.com/?referer=https://manganelo.com&url=https://s3.mkklcdnv6temp.com/mangakakalot/l2/lucu_lucu/vol7_chapter_59_demons_projector/15.jpg",
    "https://img-proxy.imgfo.com/?referer=https://manganelo.com&url=https://s3.mkklcdnv6temp.com/mangakakalot/l2/lucu_lucu/vol7_chapter_59_demons_projector/16.jpg",
    "https://img-proxy.imgfo.com/?referer=https://manganelo.com&url=https://s3.mkklcdnv6temp.com/mangakakalot/l2/lucu_lucu/vol7_chapter_59_demons_projector/17.jpg",
    "https://img-proxy.imgfo.com/?referer=https://manganelo.com&url=https://s3.mkklcdnv6temp.com/mangakakalot/l2/lucu_lucu/vol7_chapter_59_demons_projector/18.jpg",
    "https://img-proxy.imgfo.com/?referer=https://manganelo.com&url=https://s3.mkklcdnv6temp.com/mangakakalot/l2/lucu_lucu/vol7_chapter_59_demons_projector/19.jpg",
    "https://img-proxy.imgfo.com/?referer=https://manganelo.com&url=https://s3.mkklcdnv6temp.com/mangakakalot/l2/lucu_lucu/vol7_chapter_59_demons_projector/20.jpg"
  ]
}