{
  "cover": "https://avt.mkklcdnv6.com/8/n/6-1583474452.jpg",
  "title": "Kiben Gakuha, Yotsuya Senpai No Kaidan.",
  "original": "詭弁学派、四ッ谷先輩の怪談。 ; 詭弁学派、四ツ谷先輩の怪談 ; 诡弁学派-四谷前辈的怪谈 ; Kiben Gakuha Yotsuya Sempai no Kaidan ; Kiben Gakuha, Yotsuya Sensei no Kaidan",
  "genre": "Drama, Horror, Mystery, Psychological, School life, Shounen, Manga",
  "author": "Furudate Haruichi",
  "status": "Completed",
  "backlink": "https://manganu.com/collections/furudate-haruichi/kiben-gakuha-yotsuya-senpai-no-kaidan/",
  "description": "In the midst of a female-kidnapping serial killer incident, Makoto's best friend Hinano has vanished completely. Desperate to find her before it's too late, Makoto will try anything-- even invoking the resident phantom student of her middle school, Yotsuya-sempai!\nSurprisingly, Yotsuya-sempai appears to be an actual person. He's obsessed with creating the scariest stories ever, using the people and situations in Makoto's middle school to stage them. Though Yotsuya is mostly just interested making scary stories, Makoto finds that his stories tend to contain a kernel of truth and that they can reveal their terrible truth in the telling. But as Makoto helps Yotsuya stage his tales, can she convince him to tell the story of the whereabouts of her best friend?",
  "language": "English",
  "images": [
    "https://img-proxy.imgfo.com/?referer=https://manganelo.com&url=https://s6.mkklcdnv6temp.com/mangakakalot/k1/kiben_gakuha_yotsuya_senpai_no_kaidan/vol1_chapter_13_3_doubts/1.jpg",
    "https://img-proxy.imgfo.com/?referer=https://manganelo.com&url=https://s6.mkklcdnv6temp.com/mangakakalot/k1/kiben_gakuha_yotsuya_senpai_no_kaidan/vol1_chapter_13_3_doubts/2.jpg",
    "https://img-proxy.imgfo.com/?referer=https://manganelo.com&url=https://s6.mkklcdnv6temp.com/mangakakalot/k1/kiben_gakuha_yotsuya_senpai_no_kaidan/vol1_chapter_13_3_doubts/3.jpg",
    "https://img-proxy.imgfo.com/?referer=https://manganelo.com&url=https://s6.mkklcdnv6temp.com/mangakakalot/k1/kiben_gakuha_yotsuya_senpai_no_kaidan/vol1_chapter_13_3_doubts/4.jpg",
    "https://img-proxy.imgfo.com/?referer=https://manganelo.com&url=https://s6.mkklcdnv6temp.com/mangakakalot/k1/kiben_gakuha_yotsuya_senpai_no_kaidan/vol1_chapter_13_3_doubts/5.jpg",
    "https://img-proxy.imgfo.com/?referer=https://manganelo.com&url=https://s6.mkklcdnv6temp.com/mangakakalot/k1/kiben_gakuha_yotsuya_senpai_no_kaidan/vol1_chapter_13_3_doubts/6.jpg",
    "https://img-proxy.imgfo.com/?referer=https://manganelo.com&url=https://s6.mkklcdnv6temp.com/mangakakalot/k1/kiben_gakuha_yotsuya_senpai_no_kaidan/vol1_chapter_13_3_doubts/7.jpg",
    "https://img-proxy.imgfo.com/?referer=https://manganelo.com&url=https://s6.mkklcdnv6temp.com/mangakakalot/k1/kiben_gakuha_yotsuya_senpai_no_kaidan/vol1_chapter_13_3_doubts/8.jpg",
    "https://img-proxy.imgfo.com/?referer=https://manganelo.com&url=https://s6.mkklcdnv6temp.com/mangakakalot/k1/kiben_gakuha_yotsuya_senpai_no_kaidan/vol1_chapter_13_3_doubts/9.jpg",
    "https://img-proxy.imgfo.com/?referer=https://manganelo.com&url=https://s6.mkklcdnv6temp.com/mangakakalot/k1/kiben_gakuha_yotsuya_senpai_no_kaidan/vol1_chapter_13_3_doubts/10.jpg",
    "https://img-proxy.imgfo.com/?referer=https://manganelo.com&url=https://s6.mkklcdnv6temp.com/mangakakalot/k1/kiben_gakuha_yotsuya_senpai_no_kaidan/vol1_chapter_13_3_doubts/11.jpg",
    "https://img-proxy.imgfo.com/?referer=https://manganelo.com&url=https://s6.mkklcdnv6temp.com/mangakakalot/k1/kiben_gakuha_yotsuya_senpai_no_kaidan/vol1_chapter_13_3_doubts/12.jpg",
    "https://img-proxy.imgfo.com/?referer=https://manganelo.com&url=https://s6.mkklcdnv6temp.com/mangakakalot/k1/kiben_gakuha_yotsuya_senpai_no_kaidan/vol1_chapter_13_3_doubts/13.jpg",
    "https://img-proxy.imgfo.com/?referer=https://manganelo.com&url=https://s6.mkklcdnv6temp.com/mangakakalot/k1/kiben_gakuha_yotsuya_senpai_no_kaidan/vol1_chapter_13_3_doubts/14.jpg",
    "https://img-proxy.imgfo.com/?referer=https://manganelo.com&url=https://s6.mkklcdnv6temp.com/mangakakalot/k1/kiben_gakuha_yotsuya_senpai_no_kaidan/vol1_chapter_13_3_doubts/15.jpg",
    "https://img-proxy.imgfo.com/?referer=https://manganelo.com&url=https://s6.mkklcdnv6temp.com/mangakakalot/k1/kiben_gakuha_yotsuya_senpai_no_kaidan/vol1_chapter_13_3_doubts/16.jpg",
    "https://img-proxy.imgfo.com/?referer=https://manganelo.com&url=https://s6.mkklcdnv6temp.com/mangakakalot/k1/kiben_gakuha_yotsuya_senpai_no_kaidan/vol1_chapter_13_3_doubts/17.jpg",
    "https://img-proxy.imgfo.com/?referer=https://manganelo.com&url=https://s6.mkklcdnv6temp.com/mangakakalot/k1/kiben_gakuha_yotsuya_senpai_no_kaidan/vol1_chapter_13_3_doubts/18.jpg",
    "https://img-proxy.imgfo.com/?referer=https://manganelo.com&url=https://s6.mkklcdnv6temp.com/mangakakalot/k1/kiben_gakuha_yotsuya_senpai_no_kaidan/vol1_chapter_13_3_doubts/19.jpg",
    "https://img-proxy.imgfo.com/?referer=https://manganelo.com&url=https://s6.mkklcdnv6temp.com/mangakakalot/k1/kiben_gakuha_yotsuya_senpai_no_kaidan/vol1_chapter_13_3_doubts/20.jpg",
    "https://img-proxy.imgfo.com/?referer=https://manganelo.com&url=https://s6.mkklcdnv6temp.com/mangakakalot/k1/kiben_gakuha_yotsuya_senpai_no_kaidan/vol1_chapter_13_3_doubts/21.jpg"
  ]
}