{
  "cover": "https://avt.mkklcdnv6.com/50/w/4-1583471838.jpg",
  "title": "Yellow Dragon Ga Arawareta!",
  "original": "Appearance of the Yellow Dragon",
  "genre": "Adventure, Comedy, Fantasy, Shounen, Manga",
  "author": "Tamura Mitsuhisa",
  "status": "Completed",
  "backlink": "https://manganu.com/collections/tamura-mitsuhisa/yellow-dragon-ga-arawareta/",
  "description": "On Pomello Island, a wayward genius named Enji has finally decoded the Encyclopedia of Summoning and with it the knowledge to summon and control the dreaded Yellow Dragon. The power of the Yellow Dragon is to command all the animals of the world; and with it Enji plans to at last gain fame, respect, and the affections of his beloved Moegi-san. The conditions are right, the huge egg opens, and out walks... a little girl? Enji&#39;s plans for world domination and winning the love of Moegi-san just fell apart. Or have they...",
  "language": "English",
  "images": [
    "https://img-proxy.imgfo.com/?referer=https://manganelo.com&url=https://s7.mkklcdnv6temp.com/mangakakalot/y1/yellow_dragon_ga_arawareta/vol1_chapter_10_kidnapping_of_kimidori/1.jpg",
    "https://img-proxy.imgfo.com/?referer=https://manganelo.com&url=https://s7.mkklcdnv6temp.com/mangakakalot/y1/yellow_dragon_ga_arawareta/vol1_chapter_10_kidnapping_of_kimidori/2.jpg",
    "https://img-proxy.imgfo.com/?referer=https://manganelo.com&url=https://s7.mkklcdnv6temp.com/mangakakalot/y1/yellow_dragon_ga_arawareta/vol1_chapter_10_kidnapping_of_kimidori/3.jpg",
    "https://img-proxy.imgfo.com/?referer=https://manganelo.com&url=https://s7.mkklcdnv6temp.com/mangakakalot/y1/yellow_dragon_ga_arawareta/vol1_chapter_10_kidnapping_of_kimidori/4.jpg",
    "https://img-proxy.imgfo.com/?referer=https://manganelo.com&url=https://s7.mkklcdnv6temp.com/mangakakalot/y1/yellow_dragon_ga_arawareta/vol1_chapter_10_kidnapping_of_kimidori/5.jpg",
    "https://img-proxy.imgfo.com/?referer=https://manganelo.com&url=https://s7.mkklcdnv6temp.com/mangakakalot/y1/yellow_dragon_ga_arawareta/vol1_chapter_10_kidnapping_of_kimidori/6.jpg",
    "https://img-proxy.imgfo.com/?referer=https://manganelo.com&url=https://s7.mkklcdnv6temp.com/mangakakalot/y1/yellow_dragon_ga_arawareta/vol1_chapter_10_kidnapping_of_kimidori/7.jpg",
    "https://img-proxy.imgfo.com/?referer=https://manganelo.com&url=https://s7.mkklcdnv6temp.com/mangakakalot/y1/yellow_dragon_ga_arawareta/vol1_chapter_10_kidnapping_of_kimidori/8.jpg",
    "https://img-proxy.imgfo.com/?referer=https://manganelo.com&url=https://s7.mkklcdnv6temp.com/mangakakalot/y1/yellow_dragon_ga_arawareta/vol1_chapter_10_kidnapping_of_kimidori/9.jpg",
    "https://img-proxy.imgfo.com/?referer=https://manganelo.com&url=https://s7.mkklcdnv6temp.com/mangakakalot/y1/yellow_dragon_ga_arawareta/vol1_chapter_10_kidnapping_of_kimidori/10.jpg",
    "https://img-proxy.imgfo.com/?referer=https://manganelo.com&url=https://s7.mkklcdnv6temp.com/mangakakalot/y1/yellow_dragon_ga_arawareta/vol1_chapter_10_kidnapping_of_kimidori/11.jpg",
    "https://img-proxy.imgfo.com/?referer=https://manganelo.com&url=https://s7.mkklcdnv6temp.com/mangakakalot/y1/yellow_dragon_ga_arawareta/vol1_chapter_10_kidnapping_of_kimidori/12.jpg",
    "https://img-proxy.imgfo.com/?referer=https://manganelo.com&url=https://s7.mkklcdnv6temp.com/mangakakalot/y1/yellow_dragon_ga_arawareta/vol1_chapter_10_kidnapping_of_kimidori/13.jpg",
    "https://img-proxy.imgfo.com/?referer=https://manganelo.com&url=https://s7.mkklcdnv6temp.com/mangakakalot/y1/yellow_dragon_ga_arawareta/vol1_chapter_10_kidnapping_of_kimidori/14.jpg",
    "https://img-proxy.imgfo.com/?referer=https://manganelo.com&url=https://s7.mkklcdnv6temp.com/mangakakalot/y1/yellow_dragon_ga_arawareta/vol1_chapter_10_kidnapping_of_kimidori/15.jpg",
    "https://img-proxy.imgfo.com/?referer=https://manganelo.com&url=https://s7.mkklcdnv6temp.com/mangakakalot/y1/yellow_dragon_ga_arawareta/vol1_chapter_10_kidnapping_of_kimidori/16.jpg",
    "https://img-proxy.imgfo.com/?referer=https://manganelo.com&url=https://s7.mkklcdnv6temp.com/mangakakalot/y1/yellow_dragon_ga_arawareta/vol1_chapter_10_kidnapping_of_kimidori/17.jpg",
    "https://img-proxy.imgfo.com/?referer=https://manganelo.com&url=https://s7.mkklcdnv6temp.com/mangakakalot/y1/yellow_dragon_ga_arawareta/vol1_chapter_10_kidnapping_of_kimidori/18.jpg",
    "https://img-proxy.imgfo.com/?referer=https://manganelo.com&url=https://s7.mkklcdnv6temp.com/mangakakalot/y1/yellow_dragon_ga_arawareta/vol1_chapter_10_kidnapping_of_kimidori/19.jpg",
    "https://img-proxy.imgfo.com/?referer=https://manganelo.com&url=https://s7.mkklcdnv6temp.com/mangakakalot/y1/yellow_dragon_ga_arawareta/vol1_chapter_10_kidnapping_of_kimidori/20.jpg",
    "https://img-proxy.imgfo.com/?referer=https://manganelo.com&url=https://s7.mkklcdnv6temp.com/mangakakalot/y1/yellow_dragon_ga_arawareta/vol1_chapter_10_kidnapping_of_kimidori/21.jpg",
    "https://img-proxy.imgfo.com/?referer=https://manganelo.com&url=https://s7.mkklcdnv6temp.com/mangakakalot/y1/yellow_dragon_ga_arawareta/vol1_chapter_10_kidnapping_of_kimidori/22.jpg",
    "https://img-proxy.imgfo.com/?referer=https://manganelo.com&url=https://s7.mkklcdnv6temp.com/mangakakalot/y1/yellow_dragon_ga_arawareta/vol1_chapter_10_kidnapping_of_kimidori/23.jpg",
    "https://img-proxy.imgfo.com/?referer=https://manganelo.com&url=https://s7.mkklcdnv6temp.com/mangakakalot/y1/yellow_dragon_ga_arawareta/vol1_chapter_10_kidnapping_of_kimidori/24.jpg",
    "https://img-proxy.imgfo.com/?referer=https://manganelo.com&url=https://s7.mkklcdnv6temp.com/mangakakalot/y1/yellow_dragon_ga_arawareta/vol1_chapter_10_kidnapping_of_kimidori/25.jpg",
    "https://img-proxy.imgfo.com/?referer=https://manganelo.com&url=https://s7.mkklcdnv6temp.com/mangakakalot/y1/yellow_dragon_ga_arawareta/vol1_chapter_10_kidnapping_of_kimidori/26.jpg",
    "https://img-proxy.imgfo.com/?referer=https://manganelo.com&url=https://s7.mkklcdnv6temp.com/mangakakalot/y1/yellow_dragon_ga_arawareta/vol1_chapter_10_kidnapping_of_kimidori/27.jpg"
  ]
}