{
  "cover": "https://avt.mkklcdnv6.com/44/d/4-1583471524.jpg",
  "title": "Yakitate!! Japan",
  "original": "日式面包王 ; 烘焙王(日式面包王) ; 焼きたて!!ジャぱん ; 焼きたてジャぱん ; Fresh Made Japan ; Fresh-baked! Japan ; The King of Bread ; Yakitate ; Yakitate Japan ; Yakitate! Japan ; 따끈따끈베이커리 ; Vua Bánh mì(Vietnamese)",
  "genre": "Adult, Adventure, Comedy, Shounen, Slice of life, Manga",
  "author": "Hashiguchi Takashi",
  "status": "Completed",
  "backlink": "https://manganu.com/collections/hashiguchi-takashi/yakitate-japan/",
  "description": "From Viz: England. France. Germany. Denmark. What common thread binds these four nations together? Answer: each is famous for producing unique, distinctive, delicious bread. But what of the island nation of Japan, home to rice and delicacies of the sea? Is there not a doughy, gastronomic delight they can claim as their own? The answer is no...until now! Kazuma Azuma, a 16-year-old-boy blessed with otherworldly baking powers, has taken it upon himself to create Ja-pan, the national bread of the land of the rising sun!",
  "language": "English",
  "images": [
    "https://img-proxy.imgfo.com/?referer=https://manganelo.com&url=https://s5.mkklcdnv6temp.com/mangakakalot/y1/yakitate_japan/vol11_chapter_91/1.jpg",
    "https://img-proxy.imgfo.com/?referer=https://manganelo.com&url=https://s5.mkklcdnv6temp.com/mangakakalot/y1/yakitate_japan/vol11_chapter_91/2.jpg",
    "https://img-proxy.imgfo.com/?referer=https://manganelo.com&url=https://s5.mkklcdnv6temp.com/mangakakalot/y1/yakitate_japan/vol11_chapter_91/3.jpg",
    "https://img-proxy.imgfo.com/?referer=https://manganelo.com&url=https://s5.mkklcdnv6temp.com/mangakakalot/y1/yakitate_japan/vol11_chapter_91/4.jpg",
    "https://img-proxy.imgfo.com/?referer=https://manganelo.com&url=https://s5.mkklcdnv6temp.com/mangakakalot/y1/yakitate_japan/vol11_chapter_91/5.jpg",
    "https://img-proxy.imgfo.com/?referer=https://manganelo.com&url=https://s5.mkklcdnv6temp.com/mangakakalot/y1/yakitate_japan/vol11_chapter_91/6.jpg",
    "https://img-proxy.imgfo.com/?referer=https://manganelo.com&url=https://s5.mkklcdnv6temp.com/mangakakalot/y1/yakitate_japan/vol11_chapter_91/7.jpg",
    "https://img-proxy.imgfo.com/?referer=https://manganelo.com&url=https://s5.mkklcdnv6temp.com/mangakakalot/y1/yakitate_japan/vol11_chapter_91/8.jpg",
    "https://img-proxy.imgfo.com/?referer=https://manganelo.com&url=https://s5.mkklcdnv6temp.com/mangakakalot/y1/yakitate_japan/vol11_chapter_91/9.jpg",
    "https://img-proxy.imgfo.com/?referer=https://manganelo.com&url=https://s5.mkklcdnv6temp.com/mangakakalot/y1/yakitate_japan/vol11_chapter_91/10.jpg",
    "https://img-proxy.imgfo.com/?referer=https://manganelo.com&url=https://s5.mkklcdnv6temp.com/mangakakalot/y1/yakitate_japan/vol11_chapter_91/11.jpg",
    "https://img-proxy.imgfo.com/?referer=https://manganelo.com&url=https://s5.mkklcdnv6temp.com/mangakakalot/y1/yakitate_japan/vol11_chapter_91/12.jpg",
    "https://img-proxy.imgfo.com/?referer=https://manganelo.com&url=https://s5.mkklcdnv6temp.com/mangakakalot/y1/yakitate_japan/vol11_chapter_91/13.jpg",
    "https://img-proxy.imgfo.com/?referer=https://manganelo.com&url=https://s5.mkklcdnv6temp.com/mangakakalot/y1/yakitate_japan/vol11_chapter_91/14.jpg",
    "https://img-proxy.imgfo.com/?referer=https://manganelo.com&url=https://s5.mkklcdnv6temp.com/mangakakalot/y1/yakitate_japan/vol11_chapter_91/15.jpg",
    "https://img-proxy.imgfo.com/?referer=https://manganelo.com&url=https://s5.mkklcdnv6temp.com/mangakakalot/y1/yakitate_japan/vol11_chapter_91/16.jpg",
    "https://img-proxy.imgfo.com/?referer=https://manganelo.com&url=https://s5.mkklcdnv6temp.com/mangakakalot/y1/yakitate_japan/vol11_chapter_91/17.jpg",
    "https://img-proxy.imgfo.com/?referer=https://manganelo.com&url=https://s5.mkklcdnv6temp.com/mangakakalot/y1/yakitate_japan/vol11_chapter_91/18.jpg",
    "https://img-proxy.imgfo.com/?referer=https://manganelo.com&url=https://s5.mkklcdnv6temp.com/mangakakalot/y1/yakitate_japan/vol11_chapter_91/19.jpg",
    "https://img-proxy.imgfo.com/?referer=https://manganelo.com&url=https://s5.mkklcdnv6temp.com/mangakakalot/y1/yakitate_japan/vol11_chapter_91/20.jpg",
    "https://img-proxy.imgfo.com/?referer=https://manganelo.com&url=https://s5.mkklcdnv6temp.com/mangakakalot/y1/yakitate_japan/vol11_chapter_91/21.jpg"
  ]
}