{
  "cover": "https://avt.mkklcdnv6.com/44/d/4-1583471524.jpg",
  "title": "Yakitate!! Japan",
  "original": "日式面包王 ; 烘焙王(日式面包王) ; 焼きたて!!ジャぱん ; 焼きたてジャぱん ; Fresh Made Japan ; Fresh-baked! Japan ; The King of Bread ; Yakitate ; Yakitate Japan ; Yakitate! Japan ; 따끈따끈베이커리 ; Vua Bánh mì(Vietnamese)",
  "genre": "Adult, Adventure, Comedy, Shounen, Slice of life, Manga",
  "author": "Hashiguchi Takashi",
  "status": "Completed",
  "backlink": "https://manganu.com/collections/hashiguchi-takashi/yakitate-japan/",
  "description": "From Viz: England. France. Germany. Denmark. What common thread binds these four nations together? Answer: each is famous for producing unique, distinctive, delicious bread. But what of the island nation of Japan, home to rice and delicacies of the sea? Is there not a doughy, gastronomic delight they can claim as their own? The answer is no...until now! Kazuma Azuma, a 16-year-old-boy blessed with otherworldly baking powers, has taken it upon himself to create Ja-pan, the national bread of the land of the rising sun!",
  "language": "English",
  "images": [
    "https://img-proxy.imgfo.com/?referer=https://manganelo.com&url=https://s5.mkklcdnv6temp.com/mangakakalot/y1/yakitate_japan/vol2_chapter_7_good_enough_for_a_horse/1.jpg",
    "https://img-proxy.imgfo.com/?referer=https://manganelo.com&url=https://s5.mkklcdnv6temp.com/mangakakalot/y1/yakitate_japan/vol2_chapter_7_good_enough_for_a_horse/2.jpg",
    "https://img-proxy.imgfo.com/?referer=https://manganelo.com&url=https://s5.mkklcdnv6temp.com/mangakakalot/y1/yakitate_japan/vol2_chapter_7_good_enough_for_a_horse/3.jpg",
    "https://img-proxy.imgfo.com/?referer=https://manganelo.com&url=https://s5.mkklcdnv6temp.com/mangakakalot/y1/yakitate_japan/vol2_chapter_7_good_enough_for_a_horse/4.jpg",
    "https://img-proxy.imgfo.com/?referer=https://manganelo.com&url=https://s5.mkklcdnv6temp.com/mangakakalot/y1/yakitate_japan/vol2_chapter_7_good_enough_for_a_horse/5.jpg",
    "https://img-proxy.imgfo.com/?referer=https://manganelo.com&url=https://s5.mkklcdnv6temp.com/mangakakalot/y1/yakitate_japan/vol2_chapter_7_good_enough_for_a_horse/6.jpg",
    "https://img-proxy.imgfo.com/?referer=https://manganelo.com&url=https://s5.mkklcdnv6temp.com/mangakakalot/y1/yakitate_japan/vol2_chapter_7_good_enough_for_a_horse/7.jpg",
    "https://img-proxy.imgfo.com/?referer=https://manganelo.com&url=https://s5.mkklcdnv6temp.com/mangakakalot/y1/yakitate_japan/vol2_chapter_7_good_enough_for_a_horse/8.jpg",
    "https://img-proxy.imgfo.com/?referer=https://manganelo.com&url=https://s5.mkklcdnv6temp.com/mangakakalot/y1/yakitate_japan/vol2_chapter_7_good_enough_for_a_horse/9.jpg",
    "https://img-proxy.imgfo.com/?referer=https://manganelo.com&url=https://s5.mkklcdnv6temp.com/mangakakalot/y1/yakitate_japan/vol2_chapter_7_good_enough_for_a_horse/10.jpg",
    "https://img-proxy.imgfo.com/?referer=https://manganelo.com&url=https://s5.mkklcdnv6temp.com/mangakakalot/y1/yakitate_japan/vol2_chapter_7_good_enough_for_a_horse/11.jpg",
    "https://img-proxy.imgfo.com/?referer=https://manganelo.com&url=https://s5.mkklcdnv6temp.com/mangakakalot/y1/yakitate_japan/vol2_chapter_7_good_enough_for_a_horse/12.jpg",
    "https://img-proxy.imgfo.com/?referer=https://manganelo.com&url=https://s5.mkklcdnv6temp.com/mangakakalot/y1/yakitate_japan/vol2_chapter_7_good_enough_for_a_horse/13.jpg",
    "https://img-proxy.imgfo.com/?referer=https://manganelo.com&url=https://s5.mkklcdnv6temp.com/mangakakalot/y1/yakitate_japan/vol2_chapter_7_good_enough_for_a_horse/14.jpg",
    "https://img-proxy.imgfo.com/?referer=https://manganelo.com&url=https://s5.mkklcdnv6temp.com/mangakakalot/y1/yakitate_japan/vol2_chapter_7_good_enough_for_a_horse/15.jpg",
    "https://img-proxy.imgfo.com/?referer=https://manganelo.com&url=https://s5.mkklcdnv6temp.com/mangakakalot/y1/yakitate_japan/vol2_chapter_7_good_enough_for_a_horse/16.jpg",
    "https://img-proxy.imgfo.com/?referer=https://manganelo.com&url=https://s5.mkklcdnv6temp.com/mangakakalot/y1/yakitate_japan/vol2_chapter_7_good_enough_for_a_horse/17.jpg",
    "https://img-proxy.imgfo.com/?referer=https://manganelo.com&url=https://s5.mkklcdnv6temp.com/mangakakalot/y1/yakitate_japan/vol2_chapter_7_good_enough_for_a_horse/18.jpg",
    "https://img-proxy.imgfo.com/?referer=https://manganelo.com&url=https://s5.mkklcdnv6temp.com/mangakakalot/y1/yakitate_japan/vol2_chapter_7_good_enough_for_a_horse/19.jpg",
    "https://img-proxy.imgfo.com/?referer=https://manganelo.com&url=https://s5.mkklcdnv6temp.com/mangakakalot/y1/yakitate_japan/vol2_chapter_7_good_enough_for_a_horse/20.jpg",
    "https://img-proxy.imgfo.com/?referer=https://manganelo.com&url=https://s5.mkklcdnv6temp.com/mangakakalot/y1/yakitate_japan/vol2_chapter_7_good_enough_for_a_horse/21.jpg",
    "https://img-proxy.imgfo.com/?referer=https://manganelo.com&url=https://s5.mkklcdnv6temp.com/mangakakalot/y1/yakitate_japan/vol2_chapter_7_good_enough_for_a_horse/22.jpg",
    "https://img-proxy.imgfo.com/?referer=https://manganelo.com&url=https://s5.mkklcdnv6temp.com/mangakakalot/y1/yakitate_japan/vol2_chapter_7_good_enough_for_a_horse/23.jpg",
    "https://img-proxy.imgfo.com/?referer=https://manganelo.com&url=https://s5.mkklcdnv6temp.com/mangakakalot/y1/yakitate_japan/vol2_chapter_7_good_enough_for_a_horse/24.jpg",
    "https://img-proxy.imgfo.com/?referer=https://manganelo.com&url=https://s5.mkklcdnv6temp.com/mangakakalot/y1/yakitate_japan/vol2_chapter_7_good_enough_for_a_horse/25.jpg",
    "https://img-proxy.imgfo.com/?referer=https://manganelo.com&url=https://s5.mkklcdnv6temp.com/mangakakalot/y1/yakitate_japan/vol2_chapter_7_good_enough_for_a_horse/26.jpg",
    "https://img-proxy.imgfo.com/?referer=https://manganelo.com&url=https://s5.mkklcdnv6temp.com/mangakakalot/y1/yakitate_japan/vol2_chapter_7_good_enough_for_a_horse/27.jpg",
    "https://img-proxy.imgfo.com/?referer=https://manganelo.com&url=https://s5.mkklcdnv6temp.com/mangakakalot/y1/yakitate_japan/vol2_chapter_7_good_enough_for_a_horse/28.jpg",
    "https://img-proxy.imgfo.com/?referer=https://manganelo.com&url=https://s5.mkklcdnv6temp.com/mangakakalot/y1/yakitate_japan/vol2_chapter_7_good_enough_for_a_horse/29.jpg",
    "https://img-proxy.imgfo.com/?referer=https://manganelo.com&url=https://s5.mkklcdnv6temp.com/mangakakalot/y1/yakitate_japan/vol2_chapter_7_good_enough_for_a_horse/30.jpg"
  ]
}