{
  "cover": "https://avt.mkklcdnv6.com/23/f/4-1583470635.jpg",
  "title": "Inuyasha",
  "original": "戦国お伽草子–犬夜叉 (Japanese); 犬夜叉 (Chinese); 이누야샤 (Korean); InuYasha manga; Inu-Yasha; InuYasha, A Feudal Fairy Tale (English); Sengoku Otogi Zōshi InuYasha; อินุยาฉะ เทพอสูรจิ้งจอกเงิน (Thai); Пёс-демон; Инуяся (Russian); ",
  "genre": "Action, Adventure, Comedy, Drama, Fantasy, Historical, Romance, Shounen, Supernatural, Manga",
  "author": "Takahashi Rumiko",
  "status": "Completed",
  "backlink": "https://manganu.com/collections/takahashi-rumiko/inuyasha/",
  "description": "\nRead Inuyasha manga\n\nThe Jewel accidentally shatters into many bits which are dispersed across Japan when a beast from that age attempts to take the magical Shikon Jewel embodied in Kagome. Inuyasha and Kagome begin traveling to regain it before all the shards are found by the strong demon Naraku. Inuyasha and Kagome develop several allies throughout their journey, as Miroku, Shippo, Sango and Kirara. In sharp contrast to the usually comedic nature of much of the previous work of Takahashi, Inuyasha deals with subject matter that is darker, utilizing the setting of the Sengoku period to readily show the content that is violent.\n\n\nInuyasha manga\n\nThe narrative starts on the fifteenth birthday of Kagome Higurashi, a girl who lives with her mom, grandpa and little brother on the property of her family&#39;s hereditary Shinto shrine in Tokyo. When she goes to the good house to retrieve her cat, a centipede demon pulls the girl into it and bursts out of the enshrined Bone Eater&#39;s Well. The centipede demon is shown to have been after a magic jewel before being slain with a priestess named Kikyo, called the Shikon Jewel. Animated by the power in our time of the Shikon Jewel and mistaking her for Kikyo, the devil tries to kill the jewel to be gained by Kagome.\n\nThe youth is shown by the nearby villagers to be Inuyasha, a half-dog demon who had been sealed by way of a perishing Kikyo fifty years back after being seemingly betrayed by her and trying to take the Shikon Jewel (which allows any wish the bearer want) to be able to be a full demon. After his dad&#39;s sword Tetsusaiga is gained by Inuyasha and is subdued by a charming necklace to keep him in line, he helps Kagome in coping with all the hazards they cause and gathering the shards.\n\nThe two are joined in their own pursuit the somewhat revived Kikyo and from the young fox demon Shippo while coping with third parties groups like Inuyasha&#39;s older brother Sesshomaru, whose own version of what occurred years past brings the occasions into question. When joined a perverted monk whose bloodline is cursed, by Miroku, Kagome and Inuyasha learn the truth: the first disagreement between Kikyo and Inuyasha, disclosed to initially be fans, was due to a devious half-demon named Naraku. The developing Naraku is disclosed to have been born from your spirit of an evil guy named Onigumo inhabiting a body made within a pact by innumerable devils and who additionally put the hex on the family of Miroku. Sango, a devil slayer whose family was killed when her younger brother Kohaku fell under Naraku&#39;s control shortly joins after Inuyasha&#39;s group. Over time, Tetsusaiga abilities are enhanced by Inuyasha as he competes with Naraku&#39;s minion avatars like Kagura as well as the reanimated Band of Seven. The team of Inuyasha is broadly allied by Sesshomaru, Kikyo, as well as Koga who desires to avenge his comrades while flirting with Kagome was named by a wolf demon.\n\n\nCharacters in Inuyasha manga\n\nWhile his heart is briefly removed by Naraku in the type of the Infant, who after tries to overthrow Naraku through his boat Moryomaru, Kohaku recovers his freewill and memories, as he tries to help out of remorse for indirectly killing his dad. With Inuyasha, matters settle throughout that time to empower his brother to its best capabilities to perfect Tetsusaiga. Eventually, Koga is made to stand on the sidelines, Kikyo posthumously uses the last of her capacity to give a second chance at life to Kohaku, and the Shikon Jewel is eventually reassembled by Naraku. The gem means to have so Naraku and she is going to be immobilized in battle for perpetuity, Kagome make a selfish wish. But for the Shikon Jewel, Kagome wishes with Inuyasha by her side to vanish. The actions, though, causes Kagome to go back together with the Well sealed to her time, inducing Inuyasha and her to lose contact for 3 years.\n\nBecause point, the Sengoku period changes dramatically: Miroku and Sango have three kids together; Kohaku restarts his journey to be a devil slayer that is powerful as his company with Kirara; and the seventh position is attained by Shippo as a fox demon. Kagome returns to the Sengoku period where she becomes his wife and remains with Inuyasha.\n\nOther manga:\n+ Ajin manga\n+ Monster Soul manga",
  "language": "English",
  "images": [
    "https://img-proxy.imgfo.com/?referer=https://manganelo.com&url=https://s3.mkklcdnv6temp.com/mangakakalot/r1/read_inuyasha_manga/vol15_chapter_142/1.jpg",
    "https://img-proxy.imgfo.com/?referer=https://manganelo.com&url=https://s3.mkklcdnv6temp.com/mangakakalot/r1/read_inuyasha_manga/vol15_chapter_142/2.jpg",
    "https://img-proxy.imgfo.com/?referer=https://manganelo.com&url=https://s3.mkklcdnv6temp.com/mangakakalot/r1/read_inuyasha_manga/vol15_chapter_142/3.jpg",
    "https://img-proxy.imgfo.com/?referer=https://manganelo.com&url=https://s3.mkklcdnv6temp.com/mangakakalot/r1/read_inuyasha_manga/vol15_chapter_142/4.jpg",
    "https://img-proxy.imgfo.com/?referer=https://manganelo.com&url=https://s3.mkklcdnv6temp.com/mangakakalot/r1/read_inuyasha_manga/vol15_chapter_142/5.jpg",
    "https://img-proxy.imgfo.com/?referer=https://manganelo.com&url=https://s3.mkklcdnv6temp.com/mangakakalot/r1/read_inuyasha_manga/vol15_chapter_142/6.jpg",
    "https://img-proxy.imgfo.com/?referer=https://manganelo.com&url=https://s3.mkklcdnv6temp.com/mangakakalot/r1/read_inuyasha_manga/vol15_chapter_142/7.jpg",
    "https://img-proxy.imgfo.com/?referer=https://manganelo.com&url=https://s3.mkklcdnv6temp.com/mangakakalot/r1/read_inuyasha_manga/vol15_chapter_142/8.jpg",
    "https://img-proxy.imgfo.com/?referer=https://manganelo.com&url=https://s3.mkklcdnv6temp.com/mangakakalot/r1/read_inuyasha_manga/vol15_chapter_142/9.jpg",
    "https://img-proxy.imgfo.com/?referer=https://manganelo.com&url=https://s3.mkklcdnv6temp.com/mangakakalot/r1/read_inuyasha_manga/vol15_chapter_142/10.jpg",
    "https://img-proxy.imgfo.com/?referer=https://manganelo.com&url=https://s3.mkklcdnv6temp.com/mangakakalot/r1/read_inuyasha_manga/vol15_chapter_142/11.jpg",
    "https://img-proxy.imgfo.com/?referer=https://manganelo.com&url=https://s3.mkklcdnv6temp.com/mangakakalot/r1/read_inuyasha_manga/vol15_chapter_142/12.jpg",
    "https://img-proxy.imgfo.com/?referer=https://manganelo.com&url=https://s3.mkklcdnv6temp.com/mangakakalot/r1/read_inuyasha_manga/vol15_chapter_142/13.jpg",
    "https://img-proxy.imgfo.com/?referer=https://manganelo.com&url=https://s3.mkklcdnv6temp.com/mangakakalot/r1/read_inuyasha_manga/vol15_chapter_142/14.jpg",
    "https://img-proxy.imgfo.com/?referer=https://manganelo.com&url=https://s3.mkklcdnv6temp.com/mangakakalot/r1/read_inuyasha_manga/vol15_chapter_142/15.jpg",
    "https://img-proxy.imgfo.com/?referer=https://manganelo.com&url=https://s3.mkklcdnv6temp.com/mangakakalot/r1/read_inuyasha_manga/vol15_chapter_142/16.jpg",
    "https://img-proxy.imgfo.com/?referer=https://manganelo.com&url=https://s3.mkklcdnv6temp.com/mangakakalot/r1/read_inuyasha_manga/vol15_chapter_142/17.jpg",
    "https://img-proxy.imgfo.com/?referer=https://manganelo.com&url=https://s3.mkklcdnv6temp.com/mangakakalot/r1/read_inuyasha_manga/vol15_chapter_142/18.jpg"
  ]
}