{
  "cover": "https://avt.mkklcdnv6.com/31/p/12-1583487010.jpg",
  "title": "Lodoss Tousenki: Deedlit Monogatari",
  "original": "ディードリット物語 ; Dīdoritto Monogatari ; Deedlit's Tale ; Record of Lodoss War - Deedlit's Tale",
  "genre": "Action, Adventure, Fantasy, Romance, Shoujo, Manga",
  "author": "Mizuno Ryo",
  "status": "Completed",
  "backlink": "https://manganu.com/collections/mizuno-ryo/lodoss-tousenki-deedlit-monogatari/",
  "description": "Parn, the hotheaded young fighter and the main character of the \"Record of Lodoss War\", always rushed into actions for the good of Lodoss and pure justice. Therefore, he always took away all the focus from the more passive main character and yet his partner, Deedlit the Elf. As in the name, \"Deedlit's Tale\", this is totally contributed to this beloved character. Artworks were done by Setsuko Yoneyama. This Manga adapts the novel of the same name into a two book Manga sequence. While reading this Manga, readers will find themselves feeling the heart of a young girl (one hundred and seventy years old is considered to be young for a high elf) and witnessing the romantic story of these two great heroes.",
  "language": "English",
  "images": [
    "https://img-proxy.imgfo.com/?referer=https://manganelo.com&url=https://s6.mkklcdnv6temp.com/mangakakalot/l2/lodoss_tousenki_deedlit_monogatari/vol01_chapter_5/1.jpg",
    "https://img-proxy.imgfo.com/?referer=https://manganelo.com&url=https://s6.mkklcdnv6temp.com/mangakakalot/l2/lodoss_tousenki_deedlit_monogatari/vol01_chapter_5/2.jpg",
    "https://img-proxy.imgfo.com/?referer=https://manganelo.com&url=https://s6.mkklcdnv6temp.com/mangakakalot/l2/lodoss_tousenki_deedlit_monogatari/vol01_chapter_5/3.jpg",
    "https://img-proxy.imgfo.com/?referer=https://manganelo.com&url=https://s6.mkklcdnv6temp.com/mangakakalot/l2/lodoss_tousenki_deedlit_monogatari/vol01_chapter_5/4.jpg",
    "https://img-proxy.imgfo.com/?referer=https://manganelo.com&url=https://s6.mkklcdnv6temp.com/mangakakalot/l2/lodoss_tousenki_deedlit_monogatari/vol01_chapter_5/5.jpg",
    "https://img-proxy.imgfo.com/?referer=https://manganelo.com&url=https://s6.mkklcdnv6temp.com/mangakakalot/l2/lodoss_tousenki_deedlit_monogatari/vol01_chapter_5/6.jpg",
    "https://img-proxy.imgfo.com/?referer=https://manganelo.com&url=https://s6.mkklcdnv6temp.com/mangakakalot/l2/lodoss_tousenki_deedlit_monogatari/vol01_chapter_5/7.jpg",
    "https://img-proxy.imgfo.com/?referer=https://manganelo.com&url=https://s6.mkklcdnv6temp.com/mangakakalot/l2/lodoss_tousenki_deedlit_monogatari/vol01_chapter_5/8.jpg",
    "https://img-proxy.imgfo.com/?referer=https://manganelo.com&url=https://s6.mkklcdnv6temp.com/mangakakalot/l2/lodoss_tousenki_deedlit_monogatari/vol01_chapter_5/9.jpg",
    "https://img-proxy.imgfo.com/?referer=https://manganelo.com&url=https://s6.mkklcdnv6temp.com/mangakakalot/l2/lodoss_tousenki_deedlit_monogatari/vol01_chapter_5/10.jpg",
    "https://img-proxy.imgfo.com/?referer=https://manganelo.com&url=https://s6.mkklcdnv6temp.com/mangakakalot/l2/lodoss_tousenki_deedlit_monogatari/vol01_chapter_5/11.jpg",
    "https://img-proxy.imgfo.com/?referer=https://manganelo.com&url=https://s6.mkklcdnv6temp.com/mangakakalot/l2/lodoss_tousenki_deedlit_monogatari/vol01_chapter_5/12.jpg",
    "https://img-proxy.imgfo.com/?referer=https://manganelo.com&url=https://s6.mkklcdnv6temp.com/mangakakalot/l2/lodoss_tousenki_deedlit_monogatari/vol01_chapter_5/13.jpg",
    "https://img-proxy.imgfo.com/?referer=https://manganelo.com&url=https://s6.mkklcdnv6temp.com/mangakakalot/l2/lodoss_tousenki_deedlit_monogatari/vol01_chapter_5/14.jpg",
    "https://img-proxy.imgfo.com/?referer=https://manganelo.com&url=https://s6.mkklcdnv6temp.com/mangakakalot/l2/lodoss_tousenki_deedlit_monogatari/vol01_chapter_5/15.jpg",
    "https://img-proxy.imgfo.com/?referer=https://manganelo.com&url=https://s6.mkklcdnv6temp.com/mangakakalot/l2/lodoss_tousenki_deedlit_monogatari/vol01_chapter_5/16.jpg",
    "https://img-proxy.imgfo.com/?referer=https://manganelo.com&url=https://s6.mkklcdnv6temp.com/mangakakalot/l2/lodoss_tousenki_deedlit_monogatari/vol01_chapter_5/17.jpg",
    "https://img-proxy.imgfo.com/?referer=https://manganelo.com&url=https://s6.mkklcdnv6temp.com/mangakakalot/l2/lodoss_tousenki_deedlit_monogatari/vol01_chapter_5/18.jpg",
    "https://img-proxy.imgfo.com/?referer=https://manganelo.com&url=https://s6.mkklcdnv6temp.com/mangakakalot/l2/lodoss_tousenki_deedlit_monogatari/vol01_chapter_5/19.jpg",
    "https://img-proxy.imgfo.com/?referer=https://manganelo.com&url=https://s6.mkklcdnv6temp.com/mangakakalot/l2/lodoss_tousenki_deedlit_monogatari/vol01_chapter_5/20.jpg",
    "https://img-proxy.imgfo.com/?referer=https://manganelo.com&url=https://s6.mkklcdnv6temp.com/mangakakalot/l2/lodoss_tousenki_deedlit_monogatari/vol01_chapter_5/21.jpg",
    "https://img-proxy.imgfo.com/?referer=https://manganelo.com&url=https://s6.mkklcdnv6temp.com/mangakakalot/l2/lodoss_tousenki_deedlit_monogatari/vol01_chapter_5/22.jpg",
    "https://img-proxy.imgfo.com/?referer=https://manganelo.com&url=https://s6.mkklcdnv6temp.com/mangakakalot/l2/lodoss_tousenki_deedlit_monogatari/vol01_chapter_5/23.jpg",
    "https://img-proxy.imgfo.com/?referer=https://manganelo.com&url=https://s6.mkklcdnv6temp.com/mangakakalot/l2/lodoss_tousenki_deedlit_monogatari/vol01_chapter_5/24.jpg",
    "https://img-proxy.imgfo.com/?referer=https://manganelo.com&url=https://s6.mkklcdnv6temp.com/mangakakalot/l2/lodoss_tousenki_deedlit_monogatari/vol01_chapter_5/25.jpg",
    "https://img-proxy.imgfo.com/?referer=https://manganelo.com&url=https://s6.mkklcdnv6temp.com/mangakakalot/l2/lodoss_tousenki_deedlit_monogatari/vol01_chapter_5/26.jpg",
    "https://img-proxy.imgfo.com/?referer=https://manganelo.com&url=https://s6.mkklcdnv6temp.com/mangakakalot/l2/lodoss_tousenki_deedlit_monogatari/vol01_chapter_5/27.jpg"
  ]
}