{
  "cover": "https://avt.mkklcdnv6.com/43/b/9-1583481908.jpg",
  "title": "Nononono",
  "original": "ノノノノ",
  "genre": "Drama, Ecchi, Gender bender, Mature, Psychological, Romance, Seinen, Sports, Manga",
  "author": "Okamoto Lynn",
  "status": "Completed",
  "backlink": "https://manganu.com/collections/okamoto-lynn/nononono/",
  "description": "Nonomiya Yuuta, a ski Jumper aiming for Olympic gold, bursts onto the stage with his exceptional skills. However, his biggest problem is that he is not really a \"HE\"... The person claiming to be Nonomiya Yuuta is actually his twin sister, Nonomiya Nono... And with women's ski Jumping not being an official Olympic category, hiding her true identity is the only way for her to achieve the dreams of her father and brother and win Olympic gold.",
  "language": "English",
  "images": [
    "https://img-proxy.imgfo.com/?referer=https://manganelo.com&url=https://s3.mkklcdnv6temp.com/mangakakalot/n2/nononono/vol10_chapter_108_shut_up/1.jpg",
    "https://img-proxy.imgfo.com/?referer=https://manganelo.com&url=https://s3.mkklcdnv6temp.com/mangakakalot/n2/nononono/vol10_chapter_108_shut_up/2.jpg",
    "https://img-proxy.imgfo.com/?referer=https://manganelo.com&url=https://s3.mkklcdnv6temp.com/mangakakalot/n2/nononono/vol10_chapter_108_shut_up/3.jpg",
    "https://img-proxy.imgfo.com/?referer=https://manganelo.com&url=https://s3.mkklcdnv6temp.com/mangakakalot/n2/nononono/vol10_chapter_108_shut_up/4.jpg",
    "https://img-proxy.imgfo.com/?referer=https://manganelo.com&url=https://s3.mkklcdnv6temp.com/mangakakalot/n2/nononono/vol10_chapter_108_shut_up/5.jpg",
    "https://img-proxy.imgfo.com/?referer=https://manganelo.com&url=https://s3.mkklcdnv6temp.com/mangakakalot/n2/nononono/vol10_chapter_108_shut_up/6.jpg",
    "https://img-proxy.imgfo.com/?referer=https://manganelo.com&url=https://s3.mkklcdnv6temp.com/mangakakalot/n2/nononono/vol10_chapter_108_shut_up/7.jpg",
    "https://img-proxy.imgfo.com/?referer=https://manganelo.com&url=https://s3.mkklcdnv6temp.com/mangakakalot/n2/nononono/vol10_chapter_108_shut_up/8.jpg",
    "https://img-proxy.imgfo.com/?referer=https://manganelo.com&url=https://s3.mkklcdnv6temp.com/mangakakalot/n2/nononono/vol10_chapter_108_shut_up/9.jpg",
    "https://img-proxy.imgfo.com/?referer=https://manganelo.com&url=https://s3.mkklcdnv6temp.com/mangakakalot/n2/nononono/vol10_chapter_108_shut_up/10.jpg",
    "https://img-proxy.imgfo.com/?referer=https://manganelo.com&url=https://s3.mkklcdnv6temp.com/mangakakalot/n2/nononono/vol10_chapter_108_shut_up/11.jpg",
    "https://img-proxy.imgfo.com/?referer=https://manganelo.com&url=https://s3.mkklcdnv6temp.com/mangakakalot/n2/nononono/vol10_chapter_108_shut_up/12.jpg",
    "https://img-proxy.imgfo.com/?referer=https://manganelo.com&url=https://s3.mkklcdnv6temp.com/mangakakalot/n2/nononono/vol10_chapter_108_shut_up/13.jpg",
    "https://img-proxy.imgfo.com/?referer=https://manganelo.com&url=https://s3.mkklcdnv6temp.com/mangakakalot/n2/nononono/vol10_chapter_108_shut_up/14.jpg",
    "https://img-proxy.imgfo.com/?referer=https://manganelo.com&url=https://s3.mkklcdnv6temp.com/mangakakalot/n2/nononono/vol10_chapter_108_shut_up/15.jpg",
    "https://img-proxy.imgfo.com/?referer=https://manganelo.com&url=https://s3.mkklcdnv6temp.com/mangakakalot/n2/nononono/vol10_chapter_108_shut_up/16.jpg",
    "https://img-proxy.imgfo.com/?referer=https://manganelo.com&url=https://s3.mkklcdnv6temp.com/mangakakalot/n2/nononono/vol10_chapter_108_shut_up/17.jpg",
    "https://img-proxy.imgfo.com/?referer=https://manganelo.com&url=https://s3.mkklcdnv6temp.com/mangakakalot/n2/nononono/vol10_chapter_108_shut_up/18.jpg",
    "https://img-proxy.imgfo.com/?referer=https://manganelo.com&url=https://s3.mkklcdnv6temp.com/mangakakalot/n2/nononono/vol10_chapter_108_shut_up/19.jpg",
    "https://img-proxy.imgfo.com/?referer=https://manganelo.com&url=https://s3.mkklcdnv6temp.com/mangakakalot/n2/nononono/vol10_chapter_108_shut_up/20.jpg",
    "https://img-proxy.imgfo.com/?referer=https://manganelo.com&url=https://s3.mkklcdnv6temp.com/mangakakalot/n2/nononono/vol10_chapter_108_shut_up/21.jpg",
    "https://img-proxy.imgfo.com/?referer=https://manganelo.com&url=https://s3.mkklcdnv6temp.com/mangakakalot/n2/nononono/vol10_chapter_108_shut_up/22.jpg",
    "https://img-proxy.imgfo.com/?referer=https://manganelo.com&url=https://s3.mkklcdnv6temp.com/mangakakalot/n2/nononono/vol10_chapter_108_shut_up/23.jpg",
    "https://img-proxy.imgfo.com/?referer=https://manganelo.com&url=https://s3.mkklcdnv6temp.com/mangakakalot/n2/nononono/vol10_chapter_108_shut_up/24.jpg"
  ]
}