{
  "cover": "https://avt.mkklcdnv6.com/39/f/8-1583479672.jpg",
  "title": "Iiki No Ki",
  "original": "异域之鬼 ; 異域之鬼 ; Foreign Land of Ogres ; Iiki no Oni ; Iiki Noki",
  "genre": "Action, Horror, Romance, Shoujo, Supernatural, Manga",
  "author": "Yuki Kaori",
  "status": "Completed",
  "backlink": "https://manganu.com/collections/yuki-kaori/iiki-no-ki/",
  "description": "From Aerandria Scans:\nDuring the age of romanticism in Japan, the capital was leveled to the ground by a powerful earthquake. One of the many orphans it left was Sorato, who was taken in by Baron Kamichika. In his new home, the “Blood Blossom” Estate, Sorato meets the baron’s heir, Garan, and his fiancee, Kiyora, and the three swear their eternal friendship. But that promise is soon showered in blood because of secrets and desires nobody could have ever imagined to exist…",
  "language": "English",
  "images": [
    "https://img-proxy.imgfo.com/?referer=https://manganelo.com&url=https://s7.mkklcdnv6temp.com/mangakakalot/i1/iiki_no_ki/vol6_chapter_24/1.jpg",
    "https://img-proxy.imgfo.com/?referer=https://manganelo.com&url=https://s7.mkklcdnv6temp.com/mangakakalot/i1/iiki_no_ki/vol6_chapter_24/2.jpg",
    "https://img-proxy.imgfo.com/?referer=https://manganelo.com&url=https://s7.mkklcdnv6temp.com/mangakakalot/i1/iiki_no_ki/vol6_chapter_24/3.jpg",
    "https://img-proxy.imgfo.com/?referer=https://manganelo.com&url=https://s7.mkklcdnv6temp.com/mangakakalot/i1/iiki_no_ki/vol6_chapter_24/4.jpg",
    "https://img-proxy.imgfo.com/?referer=https://manganelo.com&url=https://s7.mkklcdnv6temp.com/mangakakalot/i1/iiki_no_ki/vol6_chapter_24/5.jpg",
    "https://img-proxy.imgfo.com/?referer=https://manganelo.com&url=https://s7.mkklcdnv6temp.com/mangakakalot/i1/iiki_no_ki/vol6_chapter_24/6.jpg",
    "https://img-proxy.imgfo.com/?referer=https://manganelo.com&url=https://s7.mkklcdnv6temp.com/mangakakalot/i1/iiki_no_ki/vol6_chapter_24/7.jpg",
    "https://img-proxy.imgfo.com/?referer=https://manganelo.com&url=https://s7.mkklcdnv6temp.com/mangakakalot/i1/iiki_no_ki/vol6_chapter_24/8.jpg",
    "https://img-proxy.imgfo.com/?referer=https://manganelo.com&url=https://s7.mkklcdnv6temp.com/mangakakalot/i1/iiki_no_ki/vol6_chapter_24/9.jpg",
    "https://img-proxy.imgfo.com/?referer=https://manganelo.com&url=https://s7.mkklcdnv6temp.com/mangakakalot/i1/iiki_no_ki/vol6_chapter_24/10.jpg",
    "https://img-proxy.imgfo.com/?referer=https://manganelo.com&url=https://s7.mkklcdnv6temp.com/mangakakalot/i1/iiki_no_ki/vol6_chapter_24/11.jpg",
    "https://img-proxy.imgfo.com/?referer=https://manganelo.com&url=https://s7.mkklcdnv6temp.com/mangakakalot/i1/iiki_no_ki/vol6_chapter_24/12.jpg",
    "https://img-proxy.imgfo.com/?referer=https://manganelo.com&url=https://s7.mkklcdnv6temp.com/mangakakalot/i1/iiki_no_ki/vol6_chapter_24/13.jpg",
    "https://img-proxy.imgfo.com/?referer=https://manganelo.com&url=https://s7.mkklcdnv6temp.com/mangakakalot/i1/iiki_no_ki/vol6_chapter_24/14.jpg",
    "https://img-proxy.imgfo.com/?referer=https://manganelo.com&url=https://s7.mkklcdnv6temp.com/mangakakalot/i1/iiki_no_ki/vol6_chapter_24/15.jpg",
    "https://img-proxy.imgfo.com/?referer=https://manganelo.com&url=https://s7.mkklcdnv6temp.com/mangakakalot/i1/iiki_no_ki/vol6_chapter_24/16.jpg",
    "https://img-proxy.imgfo.com/?referer=https://manganelo.com&url=https://s7.mkklcdnv6temp.com/mangakakalot/i1/iiki_no_ki/vol6_chapter_24/17.jpg",
    "https://img-proxy.imgfo.com/?referer=https://manganelo.com&url=https://s7.mkklcdnv6temp.com/mangakakalot/i1/iiki_no_ki/vol6_chapter_24/18.jpg",
    "https://img-proxy.imgfo.com/?referer=https://manganelo.com&url=https://s7.mkklcdnv6temp.com/mangakakalot/i1/iiki_no_ki/vol6_chapter_24/19.jpg",
    "https://img-proxy.imgfo.com/?referer=https://manganelo.com&url=https://s7.mkklcdnv6temp.com/mangakakalot/i1/iiki_no_ki/vol6_chapter_24/20.jpg",
    "https://img-proxy.imgfo.com/?referer=https://manganelo.com&url=https://s7.mkklcdnv6temp.com/mangakakalot/i1/iiki_no_ki/vol6_chapter_24/21.jpg",
    "https://img-proxy.imgfo.com/?referer=https://manganelo.com&url=https://s7.mkklcdnv6temp.com/mangakakalot/i1/iiki_no_ki/vol6_chapter_24/22.jpg",
    "https://img-proxy.imgfo.com/?referer=https://manganelo.com&url=https://s7.mkklcdnv6temp.com/mangakakalot/i1/iiki_no_ki/vol6_chapter_24/23.jpg",
    "https://img-proxy.imgfo.com/?referer=https://manganelo.com&url=https://s7.mkklcdnv6temp.com/mangakakalot/i1/iiki_no_ki/vol6_chapter_24/24.jpg",
    "https://img-proxy.imgfo.com/?referer=https://manganelo.com&url=https://s7.mkklcdnv6temp.com/mangakakalot/i1/iiki_no_ki/vol6_chapter_24/25.jpg",
    "https://img-proxy.imgfo.com/?referer=https://manganelo.com&url=https://s7.mkklcdnv6temp.com/mangakakalot/i1/iiki_no_ki/vol6_chapter_24/26.jpg",
    "https://img-proxy.imgfo.com/?referer=https://manganelo.com&url=https://s7.mkklcdnv6temp.com/mangakakalot/i1/iiki_no_ki/vol6_chapter_24/27.jpg",
    "https://img-proxy.imgfo.com/?referer=https://manganelo.com&url=https://s7.mkklcdnv6temp.com/mangakakalot/i1/iiki_no_ki/vol6_chapter_24/28.jpg",
    "https://img-proxy.imgfo.com/?referer=https://manganelo.com&url=https://s7.mkklcdnv6temp.com/mangakakalot/i1/iiki_no_ki/vol6_chapter_24/29.jpg",
    "https://img-proxy.imgfo.com/?referer=https://manganelo.com&url=https://s7.mkklcdnv6temp.com/mangakakalot/i1/iiki_no_ki/vol6_chapter_24/30.jpg",
    "https://img-proxy.imgfo.com/?referer=https://manganelo.com&url=https://s7.mkklcdnv6temp.com/mangakakalot/i1/iiki_no_ki/vol6_chapter_24/31.jpg",
    "https://img-proxy.imgfo.com/?referer=https://manganelo.com&url=https://s7.mkklcdnv6temp.com/mangakakalot/i1/iiki_no_ki/vol6_chapter_24/32.jpg",
    "https://img-proxy.imgfo.com/?referer=https://manganelo.com&url=https://s7.mkklcdnv6temp.com/mangakakalot/i1/iiki_no_ki/vol6_chapter_24/33.jpg",
    "https://img-proxy.imgfo.com/?referer=https://manganelo.com&url=https://s7.mkklcdnv6temp.com/mangakakalot/i1/iiki_no_ki/vol6_chapter_24/34.jpg",
    "https://img-proxy.imgfo.com/?referer=https://manganelo.com&url=https://s7.mkklcdnv6temp.com/mangakakalot/i1/iiki_no_ki/vol6_chapter_24/35.jpg",
    "https://img-proxy.imgfo.com/?referer=https://manganelo.com&url=https://s7.mkklcdnv6temp.com/mangakakalot/i1/iiki_no_ki/vol6_chapter_24/36.jpg",
    "https://img-proxy.imgfo.com/?referer=https://manganelo.com&url=https://s7.mkklcdnv6temp.com/mangakakalot/i1/iiki_no_ki/vol6_chapter_24/37.jpg",
    "https://img-proxy.imgfo.com/?referer=https://manganelo.com&url=https://s7.mkklcdnv6temp.com/mangakakalot/i1/iiki_no_ki/vol6_chapter_24/38.jpg",
    "https://img-proxy.imgfo.com/?referer=https://manganelo.com&url=https://s7.mkklcdnv6temp.com/mangakakalot/i1/iiki_no_ki/vol6_chapter_24/39.jpg",
    "https://img-proxy.imgfo.com/?referer=https://manganelo.com&url=https://s7.mkklcdnv6temp.com/mangakakalot/i1/iiki_no_ki/vol6_chapter_24/40.jpg",
    "https://img-proxy.imgfo.com/?referer=https://manganelo.com&url=https://s7.mkklcdnv6temp.com/mangakakalot/i1/iiki_no_ki/vol6_chapter_24/41.jpg",
    "https://img-proxy.imgfo.com/?referer=https://manganelo.com&url=https://s7.mkklcdnv6temp.com/mangakakalot/i1/iiki_no_ki/vol6_chapter_24/42.jpg",
    "https://img-proxy.imgfo.com/?referer=https://manganelo.com&url=https://s7.mkklcdnv6temp.com/mangakakalot/i1/iiki_no_ki/vol6_chapter_24/43.jpg",
    "https://img-proxy.imgfo.com/?referer=https://manganelo.com&url=https://s7.mkklcdnv6temp.com/mangakakalot/i1/iiki_no_ki/vol6_chapter_24/44.jpg",
    "https://img-proxy.imgfo.com/?referer=https://manganelo.com&url=https://s7.mkklcdnv6temp.com/mangakakalot/i1/iiki_no_ki/vol6_chapter_24/45.jpg"
  ]
}