{
  "cover": "https://avt.mkklcdnv6.com/39/f/8-1583479672.jpg",
  "title": "Iiki No Ki",
  "original": "异域之鬼 ; 異域之鬼 ; Foreign Land of Ogres ; Iiki no Oni ; Iiki Noki",
  "genre": "Action, Horror, Romance, Shoujo, Supernatural, Manga",
  "author": "Yuki Kaori",
  "status": "Completed",
  "backlink": "https://manganu.com/collections/yuki-kaori/iiki-no-ki/",
  "description": "From Aerandria Scans:\nDuring the age of romanticism in Japan, the capital was leveled to the ground by a powerful earthquake. One of the many orphans it left was Sorato, who was taken in by Baron Kamichika. In his new home, the “Blood Blossom” Estate, Sorato meets the baron’s heir, Garan, and his fiancee, Kiyora, and the three swear their eternal friendship. But that promise is soon showered in blood because of secrets and desires nobody could have ever imagined to exist…",
  "language": "English",
  "images": [
    "https://img-proxy.imgfo.com/?referer=https://manganelo.com&url=https://s7.mkklcdnv6temp.com/mangakakalot/i1/iiki_no_ki/vol5_chapter_15/1.jpg",
    "https://img-proxy.imgfo.com/?referer=https://manganelo.com&url=https://s7.mkklcdnv6temp.com/mangakakalot/i1/iiki_no_ki/vol5_chapter_15/2.jpg",
    "https://img-proxy.imgfo.com/?referer=https://manganelo.com&url=https://s7.mkklcdnv6temp.com/mangakakalot/i1/iiki_no_ki/vol5_chapter_15/3.jpg",
    "https://img-proxy.imgfo.com/?referer=https://manganelo.com&url=https://s7.mkklcdnv6temp.com/mangakakalot/i1/iiki_no_ki/vol5_chapter_15/4.jpg",
    "https://img-proxy.imgfo.com/?referer=https://manganelo.com&url=https://s7.mkklcdnv6temp.com/mangakakalot/i1/iiki_no_ki/vol5_chapter_15/5.jpg",
    "https://img-proxy.imgfo.com/?referer=https://manganelo.com&url=https://s7.mkklcdnv6temp.com/mangakakalot/i1/iiki_no_ki/vol5_chapter_15/6.jpg",
    "https://img-proxy.imgfo.com/?referer=https://manganelo.com&url=https://s7.mkklcdnv6temp.com/mangakakalot/i1/iiki_no_ki/vol5_chapter_15/7.jpg",
    "https://img-proxy.imgfo.com/?referer=https://manganelo.com&url=https://s7.mkklcdnv6temp.com/mangakakalot/i1/iiki_no_ki/vol5_chapter_15/8.jpg",
    "https://img-proxy.imgfo.com/?referer=https://manganelo.com&url=https://s7.mkklcdnv6temp.com/mangakakalot/i1/iiki_no_ki/vol5_chapter_15/9.jpg",
    "https://img-proxy.imgfo.com/?referer=https://manganelo.com&url=https://s7.mkklcdnv6temp.com/mangakakalot/i1/iiki_no_ki/vol5_chapter_15/10.jpg",
    "https://img-proxy.imgfo.com/?referer=https://manganelo.com&url=https://s7.mkklcdnv6temp.com/mangakakalot/i1/iiki_no_ki/vol5_chapter_15/11.jpg",
    "https://img-proxy.imgfo.com/?referer=https://manganelo.com&url=https://s7.mkklcdnv6temp.com/mangakakalot/i1/iiki_no_ki/vol5_chapter_15/12.jpg",
    "https://img-proxy.imgfo.com/?referer=https://manganelo.com&url=https://s7.mkklcdnv6temp.com/mangakakalot/i1/iiki_no_ki/vol5_chapter_15/13.jpg",
    "https://img-proxy.imgfo.com/?referer=https://manganelo.com&url=https://s7.mkklcdnv6temp.com/mangakakalot/i1/iiki_no_ki/vol5_chapter_15/14.jpg",
    "https://img-proxy.imgfo.com/?referer=https://manganelo.com&url=https://s7.mkklcdnv6temp.com/mangakakalot/i1/iiki_no_ki/vol5_chapter_15/15.jpg",
    "https://img-proxy.imgfo.com/?referer=https://manganelo.com&url=https://s7.mkklcdnv6temp.com/mangakakalot/i1/iiki_no_ki/vol5_chapter_15/16.jpg",
    "https://img-proxy.imgfo.com/?referer=https://manganelo.com&url=https://s7.mkklcdnv6temp.com/mangakakalot/i1/iiki_no_ki/vol5_chapter_15/17.jpg",
    "https://img-proxy.imgfo.com/?referer=https://manganelo.com&url=https://s7.mkklcdnv6temp.com/mangakakalot/i1/iiki_no_ki/vol5_chapter_15/18.jpg",
    "https://img-proxy.imgfo.com/?referer=https://manganelo.com&url=https://s7.mkklcdnv6temp.com/mangakakalot/i1/iiki_no_ki/vol5_chapter_15/19.jpg",
    "https://img-proxy.imgfo.com/?referer=https://manganelo.com&url=https://s7.mkklcdnv6temp.com/mangakakalot/i1/iiki_no_ki/vol5_chapter_15/20.jpg",
    "https://img-proxy.imgfo.com/?referer=https://manganelo.com&url=https://s7.mkklcdnv6temp.com/mangakakalot/i1/iiki_no_ki/vol5_chapter_15/21.jpg",
    "https://img-proxy.imgfo.com/?referer=https://manganelo.com&url=https://s7.mkklcdnv6temp.com/mangakakalot/i1/iiki_no_ki/vol5_chapter_15/22.jpg",
    "https://img-proxy.imgfo.com/?referer=https://manganelo.com&url=https://s7.mkklcdnv6temp.com/mangakakalot/i1/iiki_no_ki/vol5_chapter_15/23.jpg",
    "https://img-proxy.imgfo.com/?referer=https://manganelo.com&url=https://s7.mkklcdnv6temp.com/mangakakalot/i1/iiki_no_ki/vol5_chapter_15/24.jpg",
    "https://img-proxy.imgfo.com/?referer=https://manganelo.com&url=https://s7.mkklcdnv6temp.com/mangakakalot/i1/iiki_no_ki/vol5_chapter_15/25.jpg",
    "https://img-proxy.imgfo.com/?referer=https://manganelo.com&url=https://s7.mkklcdnv6temp.com/mangakakalot/i1/iiki_no_ki/vol5_chapter_15/26.jpg",
    "https://img-proxy.imgfo.com/?referer=https://manganelo.com&url=https://s7.mkklcdnv6temp.com/mangakakalot/i1/iiki_no_ki/vol5_chapter_15/27.jpg",
    "https://img-proxy.imgfo.com/?referer=https://manganelo.com&url=https://s7.mkklcdnv6temp.com/mangakakalot/i1/iiki_no_ki/vol5_chapter_15/28.jpg",
    "https://img-proxy.imgfo.com/?referer=https://manganelo.com&url=https://s7.mkklcdnv6temp.com/mangakakalot/i1/iiki_no_ki/vol5_chapter_15/29.jpg",
    "https://img-proxy.imgfo.com/?referer=https://manganelo.com&url=https://s7.mkklcdnv6temp.com/mangakakalot/i1/iiki_no_ki/vol5_chapter_15/30.jpg",
    "https://img-proxy.imgfo.com/?referer=https://manganelo.com&url=https://s7.mkklcdnv6temp.com/mangakakalot/i1/iiki_no_ki/vol5_chapter_15/31.jpg",
    "https://img-proxy.imgfo.com/?referer=https://manganelo.com&url=https://s7.mkklcdnv6temp.com/mangakakalot/i1/iiki_no_ki/vol5_chapter_15/32.jpg",
    "https://img-proxy.imgfo.com/?referer=https://manganelo.com&url=https://s7.mkklcdnv6temp.com/mangakakalot/i1/iiki_no_ki/vol5_chapter_15/33.jpg",
    "https://img-proxy.imgfo.com/?referer=https://manganelo.com&url=https://s7.mkklcdnv6temp.com/mangakakalot/i1/iiki_no_ki/vol5_chapter_15/34.jpg",
    "https://img-proxy.imgfo.com/?referer=https://manganelo.com&url=https://s7.mkklcdnv6temp.com/mangakakalot/i1/iiki_no_ki/vol5_chapter_15/35.jpg",
    "https://img-proxy.imgfo.com/?referer=https://manganelo.com&url=https://s7.mkklcdnv6temp.com/mangakakalot/i1/iiki_no_ki/vol5_chapter_15/36.jpg",
    "https://img-proxy.imgfo.com/?referer=https://manganelo.com&url=https://s7.mkklcdnv6temp.com/mangakakalot/i1/iiki_no_ki/vol5_chapter_15/37.jpg",
    "https://img-proxy.imgfo.com/?referer=https://manganelo.com&url=https://s7.mkklcdnv6temp.com/mangakakalot/i1/iiki_no_ki/vol5_chapter_15/38.jpg",
    "https://img-proxy.imgfo.com/?referer=https://manganelo.com&url=https://s7.mkklcdnv6temp.com/mangakakalot/i1/iiki_no_ki/vol5_chapter_15/39.jpg",
    "https://img-proxy.imgfo.com/?referer=https://manganelo.com&url=https://s7.mkklcdnv6temp.com/mangakakalot/i1/iiki_no_ki/vol5_chapter_15/40.jpg",
    "https://img-proxy.imgfo.com/?referer=https://manganelo.com&url=https://s7.mkklcdnv6temp.com/mangakakalot/i1/iiki_no_ki/vol5_chapter_15/41.jpg",
    "https://img-proxy.imgfo.com/?referer=https://manganelo.com&url=https://s7.mkklcdnv6temp.com/mangakakalot/i1/iiki_no_ki/vol5_chapter_15/42.jpg",
    "https://img-proxy.imgfo.com/?referer=https://manganelo.com&url=https://s7.mkklcdnv6temp.com/mangakakalot/i1/iiki_no_ki/vol5_chapter_15/43.jpg"
  ]
}