{
  "cover": "https://avt.mkklcdnv6.com/21/e/3-1583468505.jpg",
  "title": "Vampire Knight",
  "original": "ヴァンパイアナイト ; ヴァンパイア騎士 ; 吸血鬼骑士 ; แวมไพร์ไนท์ ; 뱀파이어 기사 ; فارس مصاصي الدماء ; Vampyras Riteris (Lithuanian) ; Cavalerul Vampir (Romanian) ; Ο βρυκόλακας Ιππότης, O Vrikolakas Ippotis (Greek)",
  "genre": "Action, Adult, Cooking, Doujinshi, Drama, Romance, School life, Shoujo, Supernatural, Tragedy, Manga",
  "author": "Hino Matsuri",
  "status": "Completed",
  "backlink": "https://manganu.com/collections/hino-matsuri/vampire-knight/",
  "description": "Yuuki&#39;s earliest memory is of a stormy night in winter, where she was attacked by a vampire... And then rescued by another. Now 10 years later, Cross Yuuki, the adopted daughter of the headmaster of Cross Academy, has grown up and become a guardian of the vampire race, protecting her childhood crush, Kaname, from discovery as he leads a group of vampires at the elite boarding school. But also at her side is Kiryuu Zero, a childhood friend who&rsquo;s hatred for the creatures that destroyed everything he held dear, is now determined never to trust them. This coexisting arrangement seems all well and good, but have the vampires truly renounced their murderous ways, or is there a darker truth behind their actions. Because in this world of secrets, nothing is as it seems. And the price of misplaced trust may even be worse than death.",
  "language": "English",
  "images": [
    "https://img-proxy.imgfo.com/?referer=https://manganelo.com&url=https://s6.mkklcdnv6temp.com/mangakakalot/r1/read_vampire_knight/vol19_chapter_933_i_like_you/1.jpg",
    "https://img-proxy.imgfo.com/?referer=https://manganelo.com&url=https://s6.mkklcdnv6temp.com/mangakakalot/r1/read_vampire_knight/vol19_chapter_933_i_like_you/2.jpg",
    "https://img-proxy.imgfo.com/?referer=https://manganelo.com&url=https://s6.mkklcdnv6temp.com/mangakakalot/r1/read_vampire_knight/vol19_chapter_933_i_like_you/3.jpg",
    "https://img-proxy.imgfo.com/?referer=https://manganelo.com&url=https://s6.mkklcdnv6temp.com/mangakakalot/r1/read_vampire_knight/vol19_chapter_933_i_like_you/4.jpg",
    "https://img-proxy.imgfo.com/?referer=https://manganelo.com&url=https://s6.mkklcdnv6temp.com/mangakakalot/r1/read_vampire_knight/vol19_chapter_933_i_like_you/5.jpg",
    "https://img-proxy.imgfo.com/?referer=https://manganelo.com&url=https://s6.mkklcdnv6temp.com/mangakakalot/r1/read_vampire_knight/vol19_chapter_933_i_like_you/6.jpg",
    "https://img-proxy.imgfo.com/?referer=https://manganelo.com&url=https://s6.mkklcdnv6temp.com/mangakakalot/r1/read_vampire_knight/vol19_chapter_933_i_like_you/7.jpg",
    "https://img-proxy.imgfo.com/?referer=https://manganelo.com&url=https://s6.mkklcdnv6temp.com/mangakakalot/r1/read_vampire_knight/vol19_chapter_933_i_like_you/8.jpg",
    "https://img-proxy.imgfo.com/?referer=https://manganelo.com&url=https://s6.mkklcdnv6temp.com/mangakakalot/r1/read_vampire_knight/vol19_chapter_933_i_like_you/9.jpg",
    "https://img-proxy.imgfo.com/?referer=https://manganelo.com&url=https://s6.mkklcdnv6temp.com/mangakakalot/r1/read_vampire_knight/vol19_chapter_933_i_like_you/10.jpg",
    "https://img-proxy.imgfo.com/?referer=https://manganelo.com&url=https://s6.mkklcdnv6temp.com/mangakakalot/r1/read_vampire_knight/vol19_chapter_933_i_like_you/11.jpg",
    "https://img-proxy.imgfo.com/?referer=https://manganelo.com&url=https://s6.mkklcdnv6temp.com/mangakakalot/r1/read_vampire_knight/vol19_chapter_933_i_like_you/12.jpg",
    "https://img-proxy.imgfo.com/?referer=https://manganelo.com&url=https://s6.mkklcdnv6temp.com/mangakakalot/r1/read_vampire_knight/vol19_chapter_933_i_like_you/13.jpg",
    "https://img-proxy.imgfo.com/?referer=https://manganelo.com&url=https://s6.mkklcdnv6temp.com/mangakakalot/r1/read_vampire_knight/vol19_chapter_933_i_like_you/14.jpg",
    "https://img-proxy.imgfo.com/?referer=https://manganelo.com&url=https://s6.mkklcdnv6temp.com/mangakakalot/r1/read_vampire_knight/vol19_chapter_933_i_like_you/15.jpg",
    "https://img-proxy.imgfo.com/?referer=https://manganelo.com&url=https://s6.mkklcdnv6temp.com/mangakakalot/r1/read_vampire_knight/vol19_chapter_933_i_like_you/16.jpg",
    "https://img-proxy.imgfo.com/?referer=https://manganelo.com&url=https://s6.mkklcdnv6temp.com/mangakakalot/r1/read_vampire_knight/vol19_chapter_933_i_like_you/17.jpg",
    "https://img-proxy.imgfo.com/?referer=https://manganelo.com&url=https://s6.mkklcdnv6temp.com/mangakakalot/r1/read_vampire_knight/vol19_chapter_933_i_like_you/18.jpg",
    "https://img-proxy.imgfo.com/?referer=https://manganelo.com&url=https://s6.mkklcdnv6temp.com/mangakakalot/r1/read_vampire_knight/vol19_chapter_933_i_like_you/19.jpg",
    "https://img-proxy.imgfo.com/?referer=https://manganelo.com&url=https://s6.mkklcdnv6temp.com/mangakakalot/r1/read_vampire_knight/vol19_chapter_933_i_like_you/20.jpg",
    "https://img-proxy.imgfo.com/?referer=https://manganelo.com&url=https://s6.mkklcdnv6temp.com/mangakakalot/r1/read_vampire_knight/vol19_chapter_933_i_like_you/21.jpg",
    "https://img-proxy.imgfo.com/?referer=https://manganelo.com&url=https://s6.mkklcdnv6temp.com/mangakakalot/r1/read_vampire_knight/vol19_chapter_933_i_like_you/22.jpg",
    "https://img-proxy.imgfo.com/?referer=https://manganelo.com&url=https://s6.mkklcdnv6temp.com/mangakakalot/r1/read_vampire_knight/vol19_chapter_933_i_like_you/23.jpg",
    "https://img-proxy.imgfo.com/?referer=https://manganelo.com&url=https://s6.mkklcdnv6temp.com/mangakakalot/r1/read_vampire_knight/vol19_chapter_933_i_like_you/24.jpg",
    "https://img-proxy.imgfo.com/?referer=https://manganelo.com&url=https://s6.mkklcdnv6temp.com/mangakakalot/r1/read_vampire_knight/vol19_chapter_933_i_like_you/25.jpg",
    "https://img-proxy.imgfo.com/?referer=https://manganelo.com&url=https://s6.mkklcdnv6temp.com/mangakakalot/r1/read_vampire_knight/vol19_chapter_933_i_like_you/26.jpg",
    "https://img-proxy.imgfo.com/?referer=https://manganelo.com&url=https://s6.mkklcdnv6temp.com/mangakakalot/r1/read_vampire_knight/vol19_chapter_933_i_like_you/27.jpg",
    "https://img-proxy.imgfo.com/?referer=https://manganelo.com&url=https://s6.mkklcdnv6temp.com/mangakakalot/r1/read_vampire_knight/vol19_chapter_933_i_like_you/28.jpg",
    "https://img-proxy.imgfo.com/?referer=https://manganelo.com&url=https://s6.mkklcdnv6temp.com/mangakakalot/r1/read_vampire_knight/vol19_chapter_933_i_like_you/29.jpg",
    "https://img-proxy.imgfo.com/?referer=https://manganelo.com&url=https://s6.mkklcdnv6temp.com/mangakakalot/r1/read_vampire_knight/vol19_chapter_933_i_like_you/30.jpg",
    "https://img-proxy.imgfo.com/?referer=https://manganelo.com&url=https://s6.mkklcdnv6temp.com/mangakakalot/r1/read_vampire_knight/vol19_chapter_933_i_like_you/31.jpg",
    "https://img-proxy.imgfo.com/?referer=https://manganelo.com&url=https://s6.mkklcdnv6temp.com/mangakakalot/r1/read_vampire_knight/vol19_chapter_933_i_like_you/32.jpg",
    "https://img-proxy.imgfo.com/?referer=https://manganelo.com&url=https://s6.mkklcdnv6temp.com/mangakakalot/r1/read_vampire_knight/vol19_chapter_933_i_like_you/33.jpg",
    "https://img-proxy.imgfo.com/?referer=https://manganelo.com&url=https://s6.mkklcdnv6temp.com/mangakakalot/r1/read_vampire_knight/vol19_chapter_933_i_like_you/34.jpg",
    "https://img-proxy.imgfo.com/?referer=https://manganelo.com&url=https://s6.mkklcdnv6temp.com/mangakakalot/r1/read_vampire_knight/vol19_chapter_933_i_like_you/35.jpg",
    "https://img-proxy.imgfo.com/?referer=https://manganelo.com&url=https://s6.mkklcdnv6temp.com/mangakakalot/r1/read_vampire_knight/vol19_chapter_933_i_like_you/36.jpg",
    "https://img-proxy.imgfo.com/?referer=https://manganelo.com&url=https://s6.mkklcdnv6temp.com/mangakakalot/r1/read_vampire_knight/vol19_chapter_933_i_like_you/37.jpg",
    "https://img-proxy.imgfo.com/?referer=https://manganelo.com&url=https://s6.mkklcdnv6temp.com/mangakakalot/r1/read_vampire_knight/vol19_chapter_933_i_like_you/38.jpg",
    "https://img-proxy.imgfo.com/?referer=https://manganelo.com&url=https://s6.mkklcdnv6temp.com/mangakakalot/r1/read_vampire_knight/vol19_chapter_933_i_like_you/39.jpg",
    "https://img-proxy.imgfo.com/?referer=https://manganelo.com&url=https://s6.mkklcdnv6temp.com/mangakakalot/r1/read_vampire_knight/vol19_chapter_933_i_like_you/40.jpg",
    "https://img-proxy.imgfo.com/?referer=https://manganelo.com&url=https://s6.mkklcdnv6temp.com/mangakakalot/r1/read_vampire_knight/vol19_chapter_933_i_like_you/41.jpg",
    "https://img-proxy.imgfo.com/?referer=https://manganelo.com&url=https://s6.mkklcdnv6temp.com/mangakakalot/r1/read_vampire_knight/vol19_chapter_933_i_like_you/42.jpg",
    "https://img-proxy.imgfo.com/?referer=https://manganelo.com&url=https://s6.mkklcdnv6temp.com/mangakakalot/r1/read_vampire_knight/vol19_chapter_933_i_like_you/43.jpg"
  ]
}