{
  "cover": "https://avt.mkklcdnv6.com/19/j/10-1583482859.jpg",
  "title": "Shoujo No Melancholy",
  "original": "少女のメランコリー ; 少女的忧郁 ; A Girl's Melancholy ; Kesayuan Seorang Gadis",
  "genre": "Drama, Romance, School life, Shoujo, Manga",
  "author": "Taamo",
  "status": "Completed",
  "backlink": "https://manganu.com/collections/taamo/shoujo-no-melancholy/",
  "description": "From Aerandria Scans:\n\"I want to become her friend.\"\n\"I want to see that person again.\"\n\"I don't want to grow up yet.\"\n\"If it was me, I wouldn't make her cry.\"\nOur every day is full of pure and sparkling feelings...",
  "language": "English",
  "images": [
    "https://img-proxy.imgfo.com/?referer=https://manganelo.com&url=https://s6.mkklcdnv6temp.com/mangakakalot/s1/shoujo_no_melancholy/vol1_chapter_45/1.jpg",
    "https://img-proxy.imgfo.com/?referer=https://manganelo.com&url=https://s6.mkklcdnv6temp.com/mangakakalot/s1/shoujo_no_melancholy/vol1_chapter_45/2.jpg",
    "https://img-proxy.imgfo.com/?referer=https://manganelo.com&url=https://s6.mkklcdnv6temp.com/mangakakalot/s1/shoujo_no_melancholy/vol1_chapter_45/3.jpg",
    "https://img-proxy.imgfo.com/?referer=https://manganelo.com&url=https://s6.mkklcdnv6temp.com/mangakakalot/s1/shoujo_no_melancholy/vol1_chapter_45/4.jpg",
    "https://img-proxy.imgfo.com/?referer=https://manganelo.com&url=https://s6.mkklcdnv6temp.com/mangakakalot/s1/shoujo_no_melancholy/vol1_chapter_45/5.jpg",
    "https://img-proxy.imgfo.com/?referer=https://manganelo.com&url=https://s6.mkklcdnv6temp.com/mangakakalot/s1/shoujo_no_melancholy/vol1_chapter_45/6.jpg",
    "https://img-proxy.imgfo.com/?referer=https://manganelo.com&url=https://s6.mkklcdnv6temp.com/mangakakalot/s1/shoujo_no_melancholy/vol1_chapter_45/7.jpg",
    "https://img-proxy.imgfo.com/?referer=https://manganelo.com&url=https://s6.mkklcdnv6temp.com/mangakakalot/s1/shoujo_no_melancholy/vol1_chapter_45/8.jpg",
    "https://img-proxy.imgfo.com/?referer=https://manganelo.com&url=https://s6.mkklcdnv6temp.com/mangakakalot/s1/shoujo_no_melancholy/vol1_chapter_45/9.jpg",
    "https://img-proxy.imgfo.com/?referer=https://manganelo.com&url=https://s6.mkklcdnv6temp.com/mangakakalot/s1/shoujo_no_melancholy/vol1_chapter_45/10.jpg",
    "https://img-proxy.imgfo.com/?referer=https://manganelo.com&url=https://s6.mkklcdnv6temp.com/mangakakalot/s1/shoujo_no_melancholy/vol1_chapter_45/11.jpg",
    "https://img-proxy.imgfo.com/?referer=https://manganelo.com&url=https://s6.mkklcdnv6temp.com/mangakakalot/s1/shoujo_no_melancholy/vol1_chapter_45/12.jpg",
    "https://img-proxy.imgfo.com/?referer=https://manganelo.com&url=https://s6.mkklcdnv6temp.com/mangakakalot/s1/shoujo_no_melancholy/vol1_chapter_45/13.jpg",
    "https://img-proxy.imgfo.com/?referer=https://manganelo.com&url=https://s6.mkklcdnv6temp.com/mangakakalot/s1/shoujo_no_melancholy/vol1_chapter_45/14.jpg"
  ]
}