{
  "cover": "https://avt.mkklcdnv6.com/31/b/3-1583468901.jpg",
  "title": "Mugen no Juunin",
  "original": "无限之住人 ; 无限的住人 ; 無限の住人 ; 無限之住人 ; 無限住人 ; 무한의 주인 ; Blade - A Lâmina do Imortal ; Blade of the Immortal ; Inhabitant of Infinity ; L'Habitant de L'Infini ; La Espada del Inmortal ; Meč nesmrteľného [Slovak] ; Miecz nieśmiertelnego ; Mugen no Jūnin",
  "genre": "Action, Adventure, Drama, Historical, Martial arts, Mature, Seinen, Tragedy, Manga",
  "author": "Samura Hiroaki",
  "status": "Completed",
  "backlink": "https://manganu.com/collections/samura-hiroaki/mugen-no-juunin/",
  "description": "\"To end his eternal suffering, he must slay one thousand enemies!\" Manji, a ronin warrior of feudal Japan, has been cursed with immortality. To rid himself of this curse and end his life of misery, he must slay one thousand evil men! His quest begins when a young girl seeks his help in taking revenge on her parents' killers... and his quest won't end until the blood of a thousand has spilled!\nWon the Media Arts Awards 1997 Excellence Prizes in Manga Division,\nWon the Best U.S. Edition of International Material for the Eisner Award in 2000.",
  "language": "English",
  "images": [
    "https://img-proxy.imgfo.com/?referer=https://manganelo.com&url=https://s5.mkklcdnv6temp.com/mangakakalot/m2/mugen_no_juunin/vol20_chapter_132_demons_lair_part_11/1.jpg",
    "https://img-proxy.imgfo.com/?referer=https://manganelo.com&url=https://s5.mkklcdnv6temp.com/mangakakalot/m2/mugen_no_juunin/vol20_chapter_132_demons_lair_part_11/2.jpg",
    "https://img-proxy.imgfo.com/?referer=https://manganelo.com&url=https://s5.mkklcdnv6temp.com/mangakakalot/m2/mugen_no_juunin/vol20_chapter_132_demons_lair_part_11/3.jpg",
    "https://img-proxy.imgfo.com/?referer=https://manganelo.com&url=https://s5.mkklcdnv6temp.com/mangakakalot/m2/mugen_no_juunin/vol20_chapter_132_demons_lair_part_11/4.jpg",
    "https://img-proxy.imgfo.com/?referer=https://manganelo.com&url=https://s5.mkklcdnv6temp.com/mangakakalot/m2/mugen_no_juunin/vol20_chapter_132_demons_lair_part_11/5.jpg",
    "https://img-proxy.imgfo.com/?referer=https://manganelo.com&url=https://s5.mkklcdnv6temp.com/mangakakalot/m2/mugen_no_juunin/vol20_chapter_132_demons_lair_part_11/6.jpg",
    "https://img-proxy.imgfo.com/?referer=https://manganelo.com&url=https://s5.mkklcdnv6temp.com/mangakakalot/m2/mugen_no_juunin/vol20_chapter_132_demons_lair_part_11/7.jpg",
    "https://img-proxy.imgfo.com/?referer=https://manganelo.com&url=https://s5.mkklcdnv6temp.com/mangakakalot/m2/mugen_no_juunin/vol20_chapter_132_demons_lair_part_11/8.jpg",
    "https://img-proxy.imgfo.com/?referer=https://manganelo.com&url=https://s5.mkklcdnv6temp.com/mangakakalot/m2/mugen_no_juunin/vol20_chapter_132_demons_lair_part_11/9.jpg",
    "https://img-proxy.imgfo.com/?referer=https://manganelo.com&url=https://s5.mkklcdnv6temp.com/mangakakalot/m2/mugen_no_juunin/vol20_chapter_132_demons_lair_part_11/10.jpg",
    "https://img-proxy.imgfo.com/?referer=https://manganelo.com&url=https://s5.mkklcdnv6temp.com/mangakakalot/m2/mugen_no_juunin/vol20_chapter_132_demons_lair_part_11/11.jpg",
    "https://img-proxy.imgfo.com/?referer=https://manganelo.com&url=https://s5.mkklcdnv6temp.com/mangakakalot/m2/mugen_no_juunin/vol20_chapter_132_demons_lair_part_11/12.jpg",
    "https://img-proxy.imgfo.com/?referer=https://manganelo.com&url=https://s5.mkklcdnv6temp.com/mangakakalot/m2/mugen_no_juunin/vol20_chapter_132_demons_lair_part_11/13.jpg",
    "https://img-proxy.imgfo.com/?referer=https://manganelo.com&url=https://s5.mkklcdnv6temp.com/mangakakalot/m2/mugen_no_juunin/vol20_chapter_132_demons_lair_part_11/14.jpg",
    "https://img-proxy.imgfo.com/?referer=https://manganelo.com&url=https://s5.mkklcdnv6temp.com/mangakakalot/m2/mugen_no_juunin/vol20_chapter_132_demons_lair_part_11/15.jpg",
    "https://img-proxy.imgfo.com/?referer=https://manganelo.com&url=https://s5.mkklcdnv6temp.com/mangakakalot/m2/mugen_no_juunin/vol20_chapter_132_demons_lair_part_11/16.jpg",
    "https://img-proxy.imgfo.com/?referer=https://manganelo.com&url=https://s5.mkklcdnv6temp.com/mangakakalot/m2/mugen_no_juunin/vol20_chapter_132_demons_lair_part_11/17.jpg",
    "https://img-proxy.imgfo.com/?referer=https://manganelo.com&url=https://s5.mkklcdnv6temp.com/mangakakalot/m2/mugen_no_juunin/vol20_chapter_132_demons_lair_part_11/18.jpg",
    "https://img-proxy.imgfo.com/?referer=https://manganelo.com&url=https://s5.mkklcdnv6temp.com/mangakakalot/m2/mugen_no_juunin/vol20_chapter_132_demons_lair_part_11/19.jpg",
    "https://img-proxy.imgfo.com/?referer=https://manganelo.com&url=https://s5.mkklcdnv6temp.com/mangakakalot/m2/mugen_no_juunin/vol20_chapter_132_demons_lair_part_11/20.jpg",
    "https://img-proxy.imgfo.com/?referer=https://manganelo.com&url=https://s5.mkklcdnv6temp.com/mangakakalot/m2/mugen_no_juunin/vol20_chapter_132_demons_lair_part_11/21.jpg",
    "https://img-proxy.imgfo.com/?referer=https://manganelo.com&url=https://s5.mkklcdnv6temp.com/mangakakalot/m2/mugen_no_juunin/vol20_chapter_132_demons_lair_part_11/22.jpg",
    "https://img-proxy.imgfo.com/?referer=https://manganelo.com&url=https://s5.mkklcdnv6temp.com/mangakakalot/m2/mugen_no_juunin/vol20_chapter_132_demons_lair_part_11/23.jpg",
    "https://img-proxy.imgfo.com/?referer=https://manganelo.com&url=https://s5.mkklcdnv6temp.com/mangakakalot/m2/mugen_no_juunin/vol20_chapter_132_demons_lair_part_11/24.jpg",
    "https://img-proxy.imgfo.com/?referer=https://manganelo.com&url=https://s5.mkklcdnv6temp.com/mangakakalot/m2/mugen_no_juunin/vol20_chapter_132_demons_lair_part_11/25.jpg",
    "https://img-proxy.imgfo.com/?referer=https://manganelo.com&url=https://s5.mkklcdnv6temp.com/mangakakalot/m2/mugen_no_juunin/vol20_chapter_132_demons_lair_part_11/26.jpg",
    "https://img-proxy.imgfo.com/?referer=https://manganelo.com&url=https://s5.mkklcdnv6temp.com/mangakakalot/m2/mugen_no_juunin/vol20_chapter_132_demons_lair_part_11/27.jpg",
    "https://img-proxy.imgfo.com/?referer=https://manganelo.com&url=https://s5.mkklcdnv6temp.com/mangakakalot/m2/mugen_no_juunin/vol20_chapter_132_demons_lair_part_11/28.jpg",
    "https://img-proxy.imgfo.com/?referer=https://manganelo.com&url=https://s5.mkklcdnv6temp.com/mangakakalot/m2/mugen_no_juunin/vol20_chapter_132_demons_lair_part_11/29.jpg",
    "https://img-proxy.imgfo.com/?referer=https://manganelo.com&url=https://s5.mkklcdnv6temp.com/mangakakalot/m2/mugen_no_juunin/vol20_chapter_132_demons_lair_part_11/30.jpg",
    "https://img-proxy.imgfo.com/?referer=https://manganelo.com&url=https://s5.mkklcdnv6temp.com/mangakakalot/m2/mugen_no_juunin/vol20_chapter_132_demons_lair_part_11/31.jpg"
  ]
}