{
  "cover": "https://avt.mkklcdnv6.com/45/v/3-1583469478.jpg",
  "title": "Kimi Wa Pet",
  "original": "きみはペット ; きみはペット L’intégrale ; 宠物爱人 ; 너는 펫 ; Au pied, chéri! (French) ; Kimi wa Petto ; My Pet Momo ; Sei il mio cucciolo (Italian) ; Thiên Sứ Đáng Yêu ; Tramps Like Us ; You Are My Pet",
  "genre": "Comedy, Drama, Josei, Romance, Slice of life, Manga",
  "author": "Ogawa Yayoi",
  "status": "Completed",
  "backlink": "https://manganu.com/collections/ogawa-yayoi/kimi-wa-pet/",
  "description": "Smart, successful and good-looking Iwaya Sumire works for a big newspaper. However, her boyfriend dumps her for being too \"perfect\" a woman. Feeling angry and dejected Iwaya returns home depressed, and most of all lonely. However, she finds an unconscious young man lying in a box out the front of her home and takes him in. He looks like a dog she used to own called Momo. She dubs him Momo and decides to \"keep him as a pet.\" It's the start of an unexpected life together as they overcome obstacles and become quite attached to one another. But can love like this exist?\nThis manga won the 2003 Kodansha Manga Award for sh?jo.",
  "language": "English",
  "images": [
    "https://img-proxy.imgfo.com/?referer=https://manganelo.com&url=https://s3.mkklcdnv6temp.com/mangakakalot/k1/kimi_wa_pet/vol2_chapter_7_cant_stand_being_alone/1.jpg",
    "https://img-proxy.imgfo.com/?referer=https://manganelo.com&url=https://s3.mkklcdnv6temp.com/mangakakalot/k1/kimi_wa_pet/vol2_chapter_7_cant_stand_being_alone/2.jpg",
    "https://img-proxy.imgfo.com/?referer=https://manganelo.com&url=https://s3.mkklcdnv6temp.com/mangakakalot/k1/kimi_wa_pet/vol2_chapter_7_cant_stand_being_alone/3.jpg",
    "https://img-proxy.imgfo.com/?referer=https://manganelo.com&url=https://s3.mkklcdnv6temp.com/mangakakalot/k1/kimi_wa_pet/vol2_chapter_7_cant_stand_being_alone/4.jpg",
    "https://img-proxy.imgfo.com/?referer=https://manganelo.com&url=https://s3.mkklcdnv6temp.com/mangakakalot/k1/kimi_wa_pet/vol2_chapter_7_cant_stand_being_alone/5.jpg",
    "https://img-proxy.imgfo.com/?referer=https://manganelo.com&url=https://s3.mkklcdnv6temp.com/mangakakalot/k1/kimi_wa_pet/vol2_chapter_7_cant_stand_being_alone/6.jpg",
    "https://img-proxy.imgfo.com/?referer=https://manganelo.com&url=https://s3.mkklcdnv6temp.com/mangakakalot/k1/kimi_wa_pet/vol2_chapter_7_cant_stand_being_alone/7.jpg",
    "https://img-proxy.imgfo.com/?referer=https://manganelo.com&url=https://s3.mkklcdnv6temp.com/mangakakalot/k1/kimi_wa_pet/vol2_chapter_7_cant_stand_being_alone/8.jpg",
    "https://img-proxy.imgfo.com/?referer=https://manganelo.com&url=https://s3.mkklcdnv6temp.com/mangakakalot/k1/kimi_wa_pet/vol2_chapter_7_cant_stand_being_alone/9.jpg",
    "https://img-proxy.imgfo.com/?referer=https://manganelo.com&url=https://s3.mkklcdnv6temp.com/mangakakalot/k1/kimi_wa_pet/vol2_chapter_7_cant_stand_being_alone/10.jpg",
    "https://img-proxy.imgfo.com/?referer=https://manganelo.com&url=https://s3.mkklcdnv6temp.com/mangakakalot/k1/kimi_wa_pet/vol2_chapter_7_cant_stand_being_alone/11.jpg",
    "https://img-proxy.imgfo.com/?referer=https://manganelo.com&url=https://s3.mkklcdnv6temp.com/mangakakalot/k1/kimi_wa_pet/vol2_chapter_7_cant_stand_being_alone/12.jpg",
    "https://img-proxy.imgfo.com/?referer=https://manganelo.com&url=https://s3.mkklcdnv6temp.com/mangakakalot/k1/kimi_wa_pet/vol2_chapter_7_cant_stand_being_alone/13.jpg",
    "https://img-proxy.imgfo.com/?referer=https://manganelo.com&url=https://s3.mkklcdnv6temp.com/mangakakalot/k1/kimi_wa_pet/vol2_chapter_7_cant_stand_being_alone/14.jpg",
    "https://img-proxy.imgfo.com/?referer=https://manganelo.com&url=https://s3.mkklcdnv6temp.com/mangakakalot/k1/kimi_wa_pet/vol2_chapter_7_cant_stand_being_alone/15.jpg",
    "https://img-proxy.imgfo.com/?referer=https://manganelo.com&url=https://s3.mkklcdnv6temp.com/mangakakalot/k1/kimi_wa_pet/vol2_chapter_7_cant_stand_being_alone/16.jpg",
    "https://img-proxy.imgfo.com/?referer=https://manganelo.com&url=https://s3.mkklcdnv6temp.com/mangakakalot/k1/kimi_wa_pet/vol2_chapter_7_cant_stand_being_alone/17.jpg",
    "https://img-proxy.imgfo.com/?referer=https://manganelo.com&url=https://s3.mkklcdnv6temp.com/mangakakalot/k1/kimi_wa_pet/vol2_chapter_7_cant_stand_being_alone/18.jpg",
    "https://img-proxy.imgfo.com/?referer=https://manganelo.com&url=https://s3.mkklcdnv6temp.com/mangakakalot/k1/kimi_wa_pet/vol2_chapter_7_cant_stand_being_alone/19.jpg",
    "https://img-proxy.imgfo.com/?referer=https://manganelo.com&url=https://s3.mkklcdnv6temp.com/mangakakalot/k1/kimi_wa_pet/vol2_chapter_7_cant_stand_being_alone/20.jpg",
    "https://img-proxy.imgfo.com/?referer=https://manganelo.com&url=https://s3.mkklcdnv6temp.com/mangakakalot/k1/kimi_wa_pet/vol2_chapter_7_cant_stand_being_alone/21.jpg",
    "https://img-proxy.imgfo.com/?referer=https://manganelo.com&url=https://s3.mkklcdnv6temp.com/mangakakalot/k1/kimi_wa_pet/vol2_chapter_7_cant_stand_being_alone/22.jpg",
    "https://img-proxy.imgfo.com/?referer=https://manganelo.com&url=https://s3.mkklcdnv6temp.com/mangakakalot/k1/kimi_wa_pet/vol2_chapter_7_cant_stand_being_alone/23.jpg",
    "https://img-proxy.imgfo.com/?referer=https://manganelo.com&url=https://s3.mkklcdnv6temp.com/mangakakalot/k1/kimi_wa_pet/vol2_chapter_7_cant_stand_being_alone/24.jpg",
    "https://img-proxy.imgfo.com/?referer=https://manganelo.com&url=https://s3.mkklcdnv6temp.com/mangakakalot/k1/kimi_wa_pet/vol2_chapter_7_cant_stand_being_alone/25.jpg",
    "https://img-proxy.imgfo.com/?referer=https://manganelo.com&url=https://s3.mkklcdnv6temp.com/mangakakalot/k1/kimi_wa_pet/vol2_chapter_7_cant_stand_being_alone/26.jpg",
    "https://img-proxy.imgfo.com/?referer=https://manganelo.com&url=https://s3.mkklcdnv6temp.com/mangakakalot/k1/kimi_wa_pet/vol2_chapter_7_cant_stand_being_alone/27.jpg",
    "https://img-proxy.imgfo.com/?referer=https://manganelo.com&url=https://s3.mkklcdnv6temp.com/mangakakalot/k1/kimi_wa_pet/vol2_chapter_7_cant_stand_being_alone/28.jpg",
    "https://img-proxy.imgfo.com/?referer=https://manganelo.com&url=https://s3.mkklcdnv6temp.com/mangakakalot/k1/kimi_wa_pet/vol2_chapter_7_cant_stand_being_alone/29.jpg",
    "https://img-proxy.imgfo.com/?referer=https://manganelo.com&url=https://s3.mkklcdnv6temp.com/mangakakalot/k1/kimi_wa_pet/vol2_chapter_7_cant_stand_being_alone/30.jpg"
  ]
}