{
  "cover": "https://avt.mkklcdnv6.com/44/c/1-1583465444.jpg",
  "title": "Maga Tsuki",
  "original": "まがつき (Japanese) ; 不被女神附体就会死吗? (Chinese) ; 마가츠키 (Korean) ; Maga-Tsuki ; Magatsuki",
  "genre": "Comedy, Ecchi, Harem, Mature, Romance, School life, Shounen, Supernatural, Manga",
  "author": "Taguchi Hoshino",
  "status": "Completed",
  "backlink": "https://manganu.com/collections/taguchi-hoshino/maga-tsuki/",
  "description": "Yasuke was working up the nerve to admit his feelings for his childhood buddy Akari one day. It was an ideal opportunity, because the both of them were planning to eat dinner together at the shrine of his family. Before dinner, he inadvertently breaks a holy mirror and runs through the day-to-day shrine rites.\n\nA goddess, who appears just like a girl that is cute, curses him if he is ever separated from her and he can perish. All too late, he learns that she is a goddess of misfortune, whenever she is worried and terrible things occur around her. Will he have the ability to get the goddess? And just how will he ever describe this to Akari?",
  "language": "English",
  "images": [
    "https://img-proxy.imgfo.com/?referer=https://manganelo.com&url=https://s41.mkklcdnv6temp.com/mangakakalot/m1/maga_tsuki/vol1_chapter_2_can_i_punch_you/1.jpg",
    "https://img-proxy.imgfo.com/?referer=https://manganelo.com&url=https://s41.mkklcdnv6temp.com/mangakakalot/m1/maga_tsuki/vol1_chapter_2_can_i_punch_you/2.jpg",
    "https://img-proxy.imgfo.com/?referer=https://manganelo.com&url=https://s41.mkklcdnv6temp.com/mangakakalot/m1/maga_tsuki/vol1_chapter_2_can_i_punch_you/3.jpg",
    "https://img-proxy.imgfo.com/?referer=https://manganelo.com&url=https://s41.mkklcdnv6temp.com/mangakakalot/m1/maga_tsuki/vol1_chapter_2_can_i_punch_you/4.jpg",
    "https://img-proxy.imgfo.com/?referer=https://manganelo.com&url=https://s41.mkklcdnv6temp.com/mangakakalot/m1/maga_tsuki/vol1_chapter_2_can_i_punch_you/5.jpg",
    "https://img-proxy.imgfo.com/?referer=https://manganelo.com&url=https://s41.mkklcdnv6temp.com/mangakakalot/m1/maga_tsuki/vol1_chapter_2_can_i_punch_you/6.jpg",
    "https://img-proxy.imgfo.com/?referer=https://manganelo.com&url=https://s41.mkklcdnv6temp.com/mangakakalot/m1/maga_tsuki/vol1_chapter_2_can_i_punch_you/7.jpg",
    "https://img-proxy.imgfo.com/?referer=https://manganelo.com&url=https://s41.mkklcdnv6temp.com/mangakakalot/m1/maga_tsuki/vol1_chapter_2_can_i_punch_you/8.jpg",
    "https://img-proxy.imgfo.com/?referer=https://manganelo.com&url=https://s41.mkklcdnv6temp.com/mangakakalot/m1/maga_tsuki/vol1_chapter_2_can_i_punch_you/9.jpg",
    "https://img-proxy.imgfo.com/?referer=https://manganelo.com&url=https://s41.mkklcdnv6temp.com/mangakakalot/m1/maga_tsuki/vol1_chapter_2_can_i_punch_you/10.jpg",
    "https://img-proxy.imgfo.com/?referer=https://manganelo.com&url=https://s41.mkklcdnv6temp.com/mangakakalot/m1/maga_tsuki/vol1_chapter_2_can_i_punch_you/11.jpg",
    "https://img-proxy.imgfo.com/?referer=https://manganelo.com&url=https://s41.mkklcdnv6temp.com/mangakakalot/m1/maga_tsuki/vol1_chapter_2_can_i_punch_you/12.jpg",
    "https://img-proxy.imgfo.com/?referer=https://manganelo.com&url=https://s41.mkklcdnv6temp.com/mangakakalot/m1/maga_tsuki/vol1_chapter_2_can_i_punch_you/13.jpg",
    "https://img-proxy.imgfo.com/?referer=https://manganelo.com&url=https://s41.mkklcdnv6temp.com/mangakakalot/m1/maga_tsuki/vol1_chapter_2_can_i_punch_you/14.jpg",
    "https://img-proxy.imgfo.com/?referer=https://manganelo.com&url=https://s41.mkklcdnv6temp.com/mangakakalot/m1/maga_tsuki/vol1_chapter_2_can_i_punch_you/15.jpg",
    "https://img-proxy.imgfo.com/?referer=https://manganelo.com&url=https://s41.mkklcdnv6temp.com/mangakakalot/m1/maga_tsuki/vol1_chapter_2_can_i_punch_you/16.jpg",
    "https://img-proxy.imgfo.com/?referer=https://manganelo.com&url=https://s41.mkklcdnv6temp.com/mangakakalot/m1/maga_tsuki/vol1_chapter_2_can_i_punch_you/17.jpg",
    "https://img-proxy.imgfo.com/?referer=https://manganelo.com&url=https://s41.mkklcdnv6temp.com/mangakakalot/m1/maga_tsuki/vol1_chapter_2_can_i_punch_you/18.jpg",
    "https://img-proxy.imgfo.com/?referer=https://manganelo.com&url=https://s41.mkklcdnv6temp.com/mangakakalot/m1/maga_tsuki/vol1_chapter_2_can_i_punch_you/19.jpg",
    "https://img-proxy.imgfo.com/?referer=https://manganelo.com&url=https://s41.mkklcdnv6temp.com/mangakakalot/m1/maga_tsuki/vol1_chapter_2_can_i_punch_you/20.jpg",
    "https://img-proxy.imgfo.com/?referer=https://manganelo.com&url=https://s41.mkklcdnv6temp.com/mangakakalot/m1/maga_tsuki/vol1_chapter_2_can_i_punch_you/21.jpg",
    "https://img-proxy.imgfo.com/?referer=https://manganelo.com&url=https://s41.mkklcdnv6temp.com/mangakakalot/m1/maga_tsuki/vol1_chapter_2_can_i_punch_you/22.jpg",
    "https://img-proxy.imgfo.com/?referer=https://manganelo.com&url=https://s41.mkklcdnv6temp.com/mangakakalot/m1/maga_tsuki/vol1_chapter_2_can_i_punch_you/23.jpg",
    "https://img-proxy.imgfo.com/?referer=https://manganelo.com&url=https://s41.mkklcdnv6temp.com/mangakakalot/m1/maga_tsuki/vol1_chapter_2_can_i_punch_you/24.jpg",
    "https://img-proxy.imgfo.com/?referer=https://manganelo.com&url=https://s41.mkklcdnv6temp.com/mangakakalot/m1/maga_tsuki/vol1_chapter_2_can_i_punch_you/25.jpg",
    "https://img-proxy.imgfo.com/?referer=https://manganelo.com&url=https://s41.mkklcdnv6temp.com/mangakakalot/m1/maga_tsuki/vol1_chapter_2_can_i_punch_you/26.jpg",
    "https://img-proxy.imgfo.com/?referer=https://manganelo.com&url=https://s41.mkklcdnv6temp.com/mangakakalot/m1/maga_tsuki/vol1_chapter_2_can_i_punch_you/27.jpg",
    "https://img-proxy.imgfo.com/?referer=https://manganelo.com&url=https://s41.mkklcdnv6temp.com/mangakakalot/m1/maga_tsuki/vol1_chapter_2_can_i_punch_you/28.jpg",
    "https://img-proxy.imgfo.com/?referer=https://manganelo.com&url=https://s41.mkklcdnv6temp.com/mangakakalot/m1/maga_tsuki/vol1_chapter_2_can_i_punch_you/29.jpg",
    "https://img-proxy.imgfo.com/?referer=https://manganelo.com&url=https://s41.mkklcdnv6temp.com/mangakakalot/m1/maga_tsuki/vol1_chapter_2_can_i_punch_you/30.jpg",
    "https://img-proxy.imgfo.com/?referer=https://manganelo.com&url=https://s41.mkklcdnv6temp.com/mangakakalot/m1/maga_tsuki/vol1_chapter_2_can_i_punch_you/31.jpg",
    "https://img-proxy.imgfo.com/?referer=https://manganelo.com&url=https://s41.mkklcdnv6temp.com/mangakakalot/m1/maga_tsuki/vol1_chapter_2_can_i_punch_you/32.jpg",
    "https://img-proxy.imgfo.com/?referer=https://manganelo.com&url=https://s41.mkklcdnv6temp.com/mangakakalot/m1/maga_tsuki/vol1_chapter_2_can_i_punch_you/33.jpg",
    "https://img-proxy.imgfo.com/?referer=https://manganelo.com&url=https://s41.mkklcdnv6temp.com/mangakakalot/m1/maga_tsuki/vol1_chapter_2_can_i_punch_you/34.jpg",
    "https://img-proxy.imgfo.com/?referer=https://manganelo.com&url=https://s41.mkklcdnv6temp.com/mangakakalot/m1/maga_tsuki/vol1_chapter_2_can_i_punch_you/35.jpg"
  ]
}