{
  "cover": "https://avt.mkklcdnv6.com/1/x/4-1583471894.jpg",
  "title": "Zettai Kareshi",
  "original": "絶対彼氏。 ; Absolute Boyfriend ; I Won't Let You Become A Star ; I Won't Let You Become a Star! ; Lui ou Rien ! (French) ; Shounen Aromatic ; Zekkare",
  "genre": "Action, Adult, Comedy, Cooking, Doujinshi, Drama, Romance, School life, Sci fi, Shoujo",
  "author": "Watase Yuu",
  "status": "Completed",
  "backlink": "https://manganu.com/collections/watase-yuu/zettai-kareshi/",
  "description": "From Viz: Rejected way too many times by good-looking (and unattainable) guys, shy Riiko Izawa goes online and signs up for a free trial of a mysterious Nightly Lover &quot;figure.&quot; The very next day a cute naked guy is delivered to her door, and he wants to be her boyfriend! Has Riiko died and gone to heaven? The cute guy turns out to be sweet, smart, a great cook, and lots more. And he looks like a million bucks, which is what he&#39;s going to cost Riiko if she doesn&#39;t return him in time... *Includes two other side stories in the last volume called: &bull; Ohoshisama ni wa Sasemasen! (I Won&#39;t Let You Become A Star!) - A special short story that was published in a freebie book put out in Sho-Comi. Sneaking into a boys&#39; school to exterminate ghosts! However, what is the boy Chima has always admired doing there...!? - ShoujoMagic &bull; Shounen Aromatic (Aromatic Boy) - Kabuki Takitsugu is a boy who has the family trait of smell. He can smell anyone&#39;s fragrance and find their perfect match. One day, a mysterious girl named Hatsune appears before him, asking him to find a match for her. But, for some strange reason.. Hatsune doesn&#39;t have a scent.",
  "language": "English",
  "images": [
    "https://img-proxy.imgfo.com/?referer=https://manganelo.com&url=https://s7.mkklcdnv6temp.com/mangakakalot/r1/read_zettai_kareshi/vol4_chapter_22_new_model/1.jpg",
    "https://img-proxy.imgfo.com/?referer=https://manganelo.com&url=https://s7.mkklcdnv6temp.com/mangakakalot/r1/read_zettai_kareshi/vol4_chapter_22_new_model/2.jpg",
    "https://img-proxy.imgfo.com/?referer=https://manganelo.com&url=https://s7.mkklcdnv6temp.com/mangakakalot/r1/read_zettai_kareshi/vol4_chapter_22_new_model/3.jpg",
    "https://img-proxy.imgfo.com/?referer=https://manganelo.com&url=https://s7.mkklcdnv6temp.com/mangakakalot/r1/read_zettai_kareshi/vol4_chapter_22_new_model/4.jpg",
    "https://img-proxy.imgfo.com/?referer=https://manganelo.com&url=https://s7.mkklcdnv6temp.com/mangakakalot/r1/read_zettai_kareshi/vol4_chapter_22_new_model/5.jpg",
    "https://img-proxy.imgfo.com/?referer=https://manganelo.com&url=https://s7.mkklcdnv6temp.com/mangakakalot/r1/read_zettai_kareshi/vol4_chapter_22_new_model/6.jpg",
    "https://img-proxy.imgfo.com/?referer=https://manganelo.com&url=https://s7.mkklcdnv6temp.com/mangakakalot/r1/read_zettai_kareshi/vol4_chapter_22_new_model/7.jpg",
    "https://img-proxy.imgfo.com/?referer=https://manganelo.com&url=https://s7.mkklcdnv6temp.com/mangakakalot/r1/read_zettai_kareshi/vol4_chapter_22_new_model/8.jpg",
    "https://img-proxy.imgfo.com/?referer=https://manganelo.com&url=https://s7.mkklcdnv6temp.com/mangakakalot/r1/read_zettai_kareshi/vol4_chapter_22_new_model/9.jpg",
    "https://img-proxy.imgfo.com/?referer=https://manganelo.com&url=https://s7.mkklcdnv6temp.com/mangakakalot/r1/read_zettai_kareshi/vol4_chapter_22_new_model/10.jpg",
    "https://img-proxy.imgfo.com/?referer=https://manganelo.com&url=https://s7.mkklcdnv6temp.com/mangakakalot/r1/read_zettai_kareshi/vol4_chapter_22_new_model/11.jpg",
    "https://img-proxy.imgfo.com/?referer=https://manganelo.com&url=https://s7.mkklcdnv6temp.com/mangakakalot/r1/read_zettai_kareshi/vol4_chapter_22_new_model/12.jpg",
    "https://img-proxy.imgfo.com/?referer=https://manganelo.com&url=https://s7.mkklcdnv6temp.com/mangakakalot/r1/read_zettai_kareshi/vol4_chapter_22_new_model/13.jpg",
    "https://img-proxy.imgfo.com/?referer=https://manganelo.com&url=https://s7.mkklcdnv6temp.com/mangakakalot/r1/read_zettai_kareshi/vol4_chapter_22_new_model/14.jpg",
    "https://img-proxy.imgfo.com/?referer=https://manganelo.com&url=https://s7.mkklcdnv6temp.com/mangakakalot/r1/read_zettai_kareshi/vol4_chapter_22_new_model/15.jpg",
    "https://img-proxy.imgfo.com/?referer=https://manganelo.com&url=https://s7.mkklcdnv6temp.com/mangakakalot/r1/read_zettai_kareshi/vol4_chapter_22_new_model/16.jpg",
    "https://img-proxy.imgfo.com/?referer=https://manganelo.com&url=https://s7.mkklcdnv6temp.com/mangakakalot/r1/read_zettai_kareshi/vol4_chapter_22_new_model/17.jpg",
    "https://img-proxy.imgfo.com/?referer=https://manganelo.com&url=https://s7.mkklcdnv6temp.com/mangakakalot/r1/read_zettai_kareshi/vol4_chapter_22_new_model/18.jpg",
    "https://img-proxy.imgfo.com/?referer=https://manganelo.com&url=https://s7.mkklcdnv6temp.com/mangakakalot/r1/read_zettai_kareshi/vol4_chapter_22_new_model/19.jpg",
    "https://img-proxy.imgfo.com/?referer=https://manganelo.com&url=https://s7.mkklcdnv6temp.com/mangakakalot/r1/read_zettai_kareshi/vol4_chapter_22_new_model/20.jpg",
    "https://img-proxy.imgfo.com/?referer=https://manganelo.com&url=https://s7.mkklcdnv6temp.com/mangakakalot/r1/read_zettai_kareshi/vol4_chapter_22_new_model/21.jpg",
    "https://img-proxy.imgfo.com/?referer=https://manganelo.com&url=https://s7.mkklcdnv6temp.com/mangakakalot/r1/read_zettai_kareshi/vol4_chapter_22_new_model/22.jpg",
    "https://img-proxy.imgfo.com/?referer=https://manganelo.com&url=https://s7.mkklcdnv6temp.com/mangakakalot/r1/read_zettai_kareshi/vol4_chapter_22_new_model/23.jpg",
    "https://img-proxy.imgfo.com/?referer=https://manganelo.com&url=https://s7.mkklcdnv6temp.com/mangakakalot/r1/read_zettai_kareshi/vol4_chapter_22_new_model/24.jpg",
    "https://img-proxy.imgfo.com/?referer=https://manganelo.com&url=https://s7.mkklcdnv6temp.com/mangakakalot/r1/read_zettai_kareshi/vol4_chapter_22_new_model/25.jpg",
    "https://img-proxy.imgfo.com/?referer=https://manganelo.com&url=https://s7.mkklcdnv6temp.com/mangakakalot/r1/read_zettai_kareshi/vol4_chapter_22_new_model/26.jpg",
    "https://img-proxy.imgfo.com/?referer=https://manganelo.com&url=https://s7.mkklcdnv6temp.com/mangakakalot/r1/read_zettai_kareshi/vol4_chapter_22_new_model/27.jpg",
    "https://img-proxy.imgfo.com/?referer=https://manganelo.com&url=https://s7.mkklcdnv6temp.com/mangakakalot/r1/read_zettai_kareshi/vol4_chapter_22_new_model/28.jpg",
    "https://img-proxy.imgfo.com/?referer=https://manganelo.com&url=https://s7.mkklcdnv6temp.com/mangakakalot/r1/read_zettai_kareshi/vol4_chapter_22_new_model/29.jpg",
    "https://img-proxy.imgfo.com/?referer=https://manganelo.com&url=https://s7.mkklcdnv6temp.com/mangakakalot/r1/read_zettai_kareshi/vol4_chapter_22_new_model/30.jpg",
    "https://img-proxy.imgfo.com/?referer=https://manganelo.com&url=https://s7.mkklcdnv6temp.com/mangakakalot/r1/read_zettai_kareshi/vol4_chapter_22_new_model/31.jpg",
    "https://img-proxy.imgfo.com/?referer=https://manganelo.com&url=https://s7.mkklcdnv6temp.com/mangakakalot/r1/read_zettai_kareshi/vol4_chapter_22_new_model/32.jpg",
    "https://img-proxy.imgfo.com/?referer=https://manganelo.com&url=https://s7.mkklcdnv6temp.com/mangakakalot/r1/read_zettai_kareshi/vol4_chapter_22_new_model/33.jpg",
    "https://img-proxy.imgfo.com/?referer=https://manganelo.com&url=https://s7.mkklcdnv6temp.com/mangakakalot/r1/read_zettai_kareshi/vol4_chapter_22_new_model/34.jpg",
    "https://img-proxy.imgfo.com/?referer=https://manganelo.com&url=https://s7.mkklcdnv6temp.com/mangakakalot/r1/read_zettai_kareshi/vol4_chapter_22_new_model/35.jpg"
  ]
}