{
  "cover": "https://avt.mkklcdnv6.com/27/w/13-1583488741.jpg",
  "title": "Koukaku Kidoutai",
  "original": "攻殻機動隊 ; Ghost in the Shell ; Kōkaku Kidōtai",
  "genre": "Action, Mature, Mecha, Psychological, Sci fi, Seinen, Manga",
  "author": "Shirow Masamune",
  "status": "Completed",
  "backlink": "https://manganu.com/collections/shirow-masamune/koukaku-kidoutai/",
  "description": "From Anime News Network:\nIn a near future, technology has firmly taken root into society at large. Cybernetic implants are nothing uncommon and robots roam as plentiful as humans, all connected through their \"ghosts\" to the electronic datastreams of the net. Major Kusanagi Motoko and the Public Security Section 9 find themselves in a constant battle with the newly created wave of technological terrorists and cyber-hackers. But things take a turn once Motoko gets involved in a certain case involving an extremely dangerous \"ghost\" hacker nicknamed the Puppeteer, as she dives deeper and deeper into the limitless reality of the net, to reach her own startling conclusions.",
  "language": "English",
  "images": [
    "https://img-proxy.imgfo.com/?referer=https://manganelo.com&url=https://s5.mkklcdnv6temp.com/mangakakalot/k2/koukaku_kidoutai/vol1_chapter_14/1.jpg",
    "https://img-proxy.imgfo.com/?referer=https://manganelo.com&url=https://s5.mkklcdnv6temp.com/mangakakalot/k2/koukaku_kidoutai/vol1_chapter_14/2.jpg",
    "https://img-proxy.imgfo.com/?referer=https://manganelo.com&url=https://s5.mkklcdnv6temp.com/mangakakalot/k2/koukaku_kidoutai/vol1_chapter_14/3.jpg",
    "https://img-proxy.imgfo.com/?referer=https://manganelo.com&url=https://s5.mkklcdnv6temp.com/mangakakalot/k2/koukaku_kidoutai/vol1_chapter_14/4.jpg",
    "https://img-proxy.imgfo.com/?referer=https://manganelo.com&url=https://s5.mkklcdnv6temp.com/mangakakalot/k2/koukaku_kidoutai/vol1_chapter_14/5.jpg",
    "https://img-proxy.imgfo.com/?referer=https://manganelo.com&url=https://s5.mkklcdnv6temp.com/mangakakalot/k2/koukaku_kidoutai/vol1_chapter_14/6.jpg",
    "https://img-proxy.imgfo.com/?referer=https://manganelo.com&url=https://s5.mkklcdnv6temp.com/mangakakalot/k2/koukaku_kidoutai/vol1_chapter_14/7.jpg",
    "https://img-proxy.imgfo.com/?referer=https://manganelo.com&url=https://s5.mkklcdnv6temp.com/mangakakalot/k2/koukaku_kidoutai/vol1_chapter_14/8.jpg",
    "https://img-proxy.imgfo.com/?referer=https://manganelo.com&url=https://s5.mkklcdnv6temp.com/mangakakalot/k2/koukaku_kidoutai/vol1_chapter_14/9.jpg",
    "https://img-proxy.imgfo.com/?referer=https://manganelo.com&url=https://s5.mkklcdnv6temp.com/mangakakalot/k2/koukaku_kidoutai/vol1_chapter_14/10.jpg",
    "https://img-proxy.imgfo.com/?referer=https://manganelo.com&url=https://s5.mkklcdnv6temp.com/mangakakalot/k2/koukaku_kidoutai/vol1_chapter_14/11.jpg",
    "https://img-proxy.imgfo.com/?referer=https://manganelo.com&url=https://s5.mkklcdnv6temp.com/mangakakalot/k2/koukaku_kidoutai/vol1_chapter_14/12.jpg",
    "https://img-proxy.imgfo.com/?referer=https://manganelo.com&url=https://s5.mkklcdnv6temp.com/mangakakalot/k2/koukaku_kidoutai/vol1_chapter_14/13.jpg",
    "https://img-proxy.imgfo.com/?referer=https://manganelo.com&url=https://s5.mkklcdnv6temp.com/mangakakalot/k2/koukaku_kidoutai/vol1_chapter_14/14.jpg",
    "https://img-proxy.imgfo.com/?referer=https://manganelo.com&url=https://s5.mkklcdnv6temp.com/mangakakalot/k2/koukaku_kidoutai/vol1_chapter_14/15.jpg",
    "https://img-proxy.imgfo.com/?referer=https://manganelo.com&url=https://s5.mkklcdnv6temp.com/mangakakalot/k2/koukaku_kidoutai/vol1_chapter_14/16.jpg",
    "https://img-proxy.imgfo.com/?referer=https://manganelo.com&url=https://s5.mkklcdnv6temp.com/mangakakalot/k2/koukaku_kidoutai/vol1_chapter_14/17.jpg",
    "https://img-proxy.imgfo.com/?referer=https://manganelo.com&url=https://s5.mkklcdnv6temp.com/mangakakalot/k2/koukaku_kidoutai/vol1_chapter_14/18.jpg",
    "https://img-proxy.imgfo.com/?referer=https://manganelo.com&url=https://s5.mkklcdnv6temp.com/mangakakalot/k2/koukaku_kidoutai/vol1_chapter_14/19.jpg",
    "https://img-proxy.imgfo.com/?referer=https://manganelo.com&url=https://s5.mkklcdnv6temp.com/mangakakalot/k2/koukaku_kidoutai/vol1_chapter_14/20.jpg",
    "https://img-proxy.imgfo.com/?referer=https://manganelo.com&url=https://s5.mkklcdnv6temp.com/mangakakalot/k2/koukaku_kidoutai/vol1_chapter_14/21.jpg",
    "https://img-proxy.imgfo.com/?referer=https://manganelo.com&url=https://s5.mkklcdnv6temp.com/mangakakalot/k2/koukaku_kidoutai/vol1_chapter_14/22.jpg",
    "https://img-proxy.imgfo.com/?referer=https://manganelo.com&url=https://s5.mkklcdnv6temp.com/mangakakalot/k2/koukaku_kidoutai/vol1_chapter_14/23.jpg",
    "https://img-proxy.imgfo.com/?referer=https://manganelo.com&url=https://s5.mkklcdnv6temp.com/mangakakalot/k2/koukaku_kidoutai/vol1_chapter_14/24.jpg",
    "https://img-proxy.imgfo.com/?referer=https://manganelo.com&url=https://s5.mkklcdnv6temp.com/mangakakalot/k2/koukaku_kidoutai/vol1_chapter_14/25.jpg",
    "https://img-proxy.imgfo.com/?referer=https://manganelo.com&url=https://s5.mkklcdnv6temp.com/mangakakalot/k2/koukaku_kidoutai/vol1_chapter_14/26.jpg",
    "https://img-proxy.imgfo.com/?referer=https://manganelo.com&url=https://s5.mkklcdnv6temp.com/mangakakalot/k2/koukaku_kidoutai/vol1_chapter_14/27.jpg",
    "https://img-proxy.imgfo.com/?referer=https://manganelo.com&url=https://s5.mkklcdnv6temp.com/mangakakalot/k2/koukaku_kidoutai/vol1_chapter_14/28.jpg",
    "https://img-proxy.imgfo.com/?referer=https://manganelo.com&url=https://s5.mkklcdnv6temp.com/mangakakalot/k2/koukaku_kidoutai/vol1_chapter_14/29.jpg",
    "https://img-proxy.imgfo.com/?referer=https://manganelo.com&url=https://s5.mkklcdnv6temp.com/mangakakalot/k2/koukaku_kidoutai/vol1_chapter_14/30.jpg",
    "https://img-proxy.imgfo.com/?referer=https://manganelo.com&url=https://s5.mkklcdnv6temp.com/mangakakalot/k2/koukaku_kidoutai/vol1_chapter_14/31.jpg",
    "https://img-proxy.imgfo.com/?referer=https://manganelo.com&url=https://s5.mkklcdnv6temp.com/mangakakalot/k2/koukaku_kidoutai/vol1_chapter_14/32.jpg",
    "https://img-proxy.imgfo.com/?referer=https://manganelo.com&url=https://s5.mkklcdnv6temp.com/mangakakalot/k2/koukaku_kidoutai/vol1_chapter_14/33.jpg",
    "https://img-proxy.imgfo.com/?referer=https://manganelo.com&url=https://s5.mkklcdnv6temp.com/mangakakalot/k2/koukaku_kidoutai/vol1_chapter_14/34.jpg",
    "https://img-proxy.imgfo.com/?referer=https://manganelo.com&url=https://s5.mkklcdnv6temp.com/mangakakalot/k2/koukaku_kidoutai/vol1_chapter_14/35.jpg",
    "https://img-proxy.imgfo.com/?referer=https://manganelo.com&url=https://s5.mkklcdnv6temp.com/mangakakalot/k2/koukaku_kidoutai/vol1_chapter_14/36.jpg",
    "https://img-proxy.imgfo.com/?referer=https://manganelo.com&url=https://s5.mkklcdnv6temp.com/mangakakalot/k2/koukaku_kidoutai/vol1_chapter_14/37.jpg"
  ]
}