{
  "cover": "https://avt.mkklcdnv6.com/10/o/20-1583501438.jpg",
  "title": "Hinomoto Sanshimai Wa Kamatte Hoshii",
  "original": "Hinomoto 3-shimai wa Kamatte Hoshii; Hinomoto Sanshimai wa Kamatte Hoshii; Hinomoto Sisters Want Attention!; Hinomoto-san Chi no 3 Shimai; Hinomoto-san Chi no Sanshimai; inomoto's 3 Sisters; 阳下三姐妹求关注; 陽下3姉妹はかまってほしい; 陽下さんちの3姉妹",
  "genre": "Comedy, Ecchi, Harem, Romance, School life, Seinen, Slice of life",
  "author": "Mattan Neko",
  "status": "Completed",
  "backlink": "https://manganu.com/collections/mattan-neko/hinomoto-sanshimai-wa-kamatte-hoshii/",
  "description": "Hinomoto Sanshimai wa Kamatte Hoshii summary is updating. Come visit MangaNelo.com sometime to read the latest chapter of Hinomoto Sanshimai wa Kamatte Hoshii. If you have any question about this manga, Please don't hesitate to contact us or translate team. Hope you enjoy it.",
  "language": "English",
  "images": [
    "https://img-proxy.imgfo.com/?referer=https://manganelo.com&url=https://s7.mkklcdnv6temp.com/mangakakalot/v1/vg921552/vol1_chapter_2_the_fierce_manjuu_war/1.jpg",
    "https://img-proxy.imgfo.com/?referer=https://manganelo.com&url=https://s7.mkklcdnv6temp.com/mangakakalot/v1/vg921552/vol1_chapter_2_the_fierce_manjuu_war/2.jpg",
    "https://img-proxy.imgfo.com/?referer=https://manganelo.com&url=https://s7.mkklcdnv6temp.com/mangakakalot/v1/vg921552/vol1_chapter_2_the_fierce_manjuu_war/3.jpg",
    "https://img-proxy.imgfo.com/?referer=https://manganelo.com&url=https://s7.mkklcdnv6temp.com/mangakakalot/v1/vg921552/vol1_chapter_2_the_fierce_manjuu_war/4.jpg",
    "https://img-proxy.imgfo.com/?referer=https://manganelo.com&url=https://s7.mkklcdnv6temp.com/mangakakalot/v1/vg921552/vol1_chapter_2_the_fierce_manjuu_war/5.jpg",
    "https://img-proxy.imgfo.com/?referer=https://manganelo.com&url=https://s7.mkklcdnv6temp.com/mangakakalot/v1/vg921552/vol1_chapter_2_the_fierce_manjuu_war/6.jpg",
    "https://img-proxy.imgfo.com/?referer=https://manganelo.com&url=https://s7.mkklcdnv6temp.com/mangakakalot/v1/vg921552/vol1_chapter_2_the_fierce_manjuu_war/7.jpg",
    "https://img-proxy.imgfo.com/?referer=https://manganelo.com&url=https://s7.mkklcdnv6temp.com/mangakakalot/v1/vg921552/vol1_chapter_2_the_fierce_manjuu_war/8.jpg",
    "https://img-proxy.imgfo.com/?referer=https://manganelo.com&url=https://s7.mkklcdnv6temp.com/mangakakalot/v1/vg921552/vol1_chapter_2_the_fierce_manjuu_war/9.jpg",
    "https://img-proxy.imgfo.com/?referer=https://manganelo.com&url=https://s7.mkklcdnv6temp.com/mangakakalot/v1/vg921552/vol1_chapter_2_the_fierce_manjuu_war/10.jpg",
    "https://img-proxy.imgfo.com/?referer=https://manganelo.com&url=https://s7.mkklcdnv6temp.com/mangakakalot/v1/vg921552/vol1_chapter_2_the_fierce_manjuu_war/11.jpg",
    "https://img-proxy.imgfo.com/?referer=https://manganelo.com&url=https://s7.mkklcdnv6temp.com/mangakakalot/v1/vg921552/vol1_chapter_2_the_fierce_manjuu_war/12.jpg"
  ]
}