{
  "cover": "https://avt.mkklcdnv6.com/10/z/11-1583484405.jpg",
  "title": "Gakkou De Atta Kowai Hanashi",
  "original": "呪いのたて笛 ; 呪信メール ; 学校であった怖い話 ; 希望の女神 ; 月女神の階段~黒の事件簿~ ; 未来ダイアリー ; Death Spiral ~永遠の呪縛~ ; Schoolhouse Horror Story ; Schoolhouse Horror ~ Curse of Forever",
  "genre": "Horror, Romance, Shoujo, Supernatural, Manga",
  "author": "Anthology",
  "status": "Completed",
  "backlink": "https://manganu.com/collections/anthology/gakkou-de-atta-kowai-hanashi/",
  "description": "Horror Anthology consists of 6 oneshots:\n1. Jushin Mail by Imai Yasue\n2. Kiboe no Megami by Shimizu Masumi\n3. Death Spiral - Eien no Jubaku by Komuro Eiko\n4. Mirai Diary by Sugawa Maki\n5. Noroi no Tatebue by Makihara Wakana\n6. Diana no Kaidan by Hayatsu Chisato",
  "language": "English",
  "images": [
    "https://img-proxy.imgfo.com/?referer=https://manganelo.com&url=https://s6.mkklcdnv6temp.com/mangakakalot/g1/gakkou_de_atta_kowai_hanashi/vol1_chapter_1_story_1/1.jpg",
    "https://img-proxy.imgfo.com/?referer=https://manganelo.com&url=https://s6.mkklcdnv6temp.com/mangakakalot/g1/gakkou_de_atta_kowai_hanashi/vol1_chapter_1_story_1/2.jpg",
    "https://img-proxy.imgfo.com/?referer=https://manganelo.com&url=https://s6.mkklcdnv6temp.com/mangakakalot/g1/gakkou_de_atta_kowai_hanashi/vol1_chapter_1_story_1/3.jpg",
    "https://img-proxy.imgfo.com/?referer=https://manganelo.com&url=https://s6.mkklcdnv6temp.com/mangakakalot/g1/gakkou_de_atta_kowai_hanashi/vol1_chapter_1_story_1/4.jpg",
    "https://img-proxy.imgfo.com/?referer=https://manganelo.com&url=https://s6.mkklcdnv6temp.com/mangakakalot/g1/gakkou_de_atta_kowai_hanashi/vol1_chapter_1_story_1/5.jpg",
    "https://img-proxy.imgfo.com/?referer=https://manganelo.com&url=https://s6.mkklcdnv6temp.com/mangakakalot/g1/gakkou_de_atta_kowai_hanashi/vol1_chapter_1_story_1/6.jpg",
    "https://img-proxy.imgfo.com/?referer=https://manganelo.com&url=https://s6.mkklcdnv6temp.com/mangakakalot/g1/gakkou_de_atta_kowai_hanashi/vol1_chapter_1_story_1/7.jpg",
    "https://img-proxy.imgfo.com/?referer=https://manganelo.com&url=https://s6.mkklcdnv6temp.com/mangakakalot/g1/gakkou_de_atta_kowai_hanashi/vol1_chapter_1_story_1/8.jpg",
    "https://img-proxy.imgfo.com/?referer=https://manganelo.com&url=https://s6.mkklcdnv6temp.com/mangakakalot/g1/gakkou_de_atta_kowai_hanashi/vol1_chapter_1_story_1/9.jpg",
    "https://img-proxy.imgfo.com/?referer=https://manganelo.com&url=https://s6.mkklcdnv6temp.com/mangakakalot/g1/gakkou_de_atta_kowai_hanashi/vol1_chapter_1_story_1/10.jpg",
    "https://img-proxy.imgfo.com/?referer=https://manganelo.com&url=https://s6.mkklcdnv6temp.com/mangakakalot/g1/gakkou_de_atta_kowai_hanashi/vol1_chapter_1_story_1/11.jpg",
    "https://img-proxy.imgfo.com/?referer=https://manganelo.com&url=https://s6.mkklcdnv6temp.com/mangakakalot/g1/gakkou_de_atta_kowai_hanashi/vol1_chapter_1_story_1/12.jpg",
    "https://img-proxy.imgfo.com/?referer=https://manganelo.com&url=https://s6.mkklcdnv6temp.com/mangakakalot/g1/gakkou_de_atta_kowai_hanashi/vol1_chapter_1_story_1/13.jpg",
    "https://img-proxy.imgfo.com/?referer=https://manganelo.com&url=https://s6.mkklcdnv6temp.com/mangakakalot/g1/gakkou_de_atta_kowai_hanashi/vol1_chapter_1_story_1/14.jpg",
    "https://img-proxy.imgfo.com/?referer=https://manganelo.com&url=https://s6.mkklcdnv6temp.com/mangakakalot/g1/gakkou_de_atta_kowai_hanashi/vol1_chapter_1_story_1/15.jpg",
    "https://img-proxy.imgfo.com/?referer=https://manganelo.com&url=https://s6.mkklcdnv6temp.com/mangakakalot/g1/gakkou_de_atta_kowai_hanashi/vol1_chapter_1_story_1/16.jpg",
    "https://img-proxy.imgfo.com/?referer=https://manganelo.com&url=https://s6.mkklcdnv6temp.com/mangakakalot/g1/gakkou_de_atta_kowai_hanashi/vol1_chapter_1_story_1/17.jpg",
    "https://img-proxy.imgfo.com/?referer=https://manganelo.com&url=https://s6.mkklcdnv6temp.com/mangakakalot/g1/gakkou_de_atta_kowai_hanashi/vol1_chapter_1_story_1/18.jpg",
    "https://img-proxy.imgfo.com/?referer=https://manganelo.com&url=https://s6.mkklcdnv6temp.com/mangakakalot/g1/gakkou_de_atta_kowai_hanashi/vol1_chapter_1_story_1/19.jpg",
    "https://img-proxy.imgfo.com/?referer=https://manganelo.com&url=https://s6.mkklcdnv6temp.com/mangakakalot/g1/gakkou_de_atta_kowai_hanashi/vol1_chapter_1_story_1/20.jpg",
    "https://img-proxy.imgfo.com/?referer=https://manganelo.com&url=https://s6.mkklcdnv6temp.com/mangakakalot/g1/gakkou_de_atta_kowai_hanashi/vol1_chapter_1_story_1/21.jpg",
    "https://img-proxy.imgfo.com/?referer=https://manganelo.com&url=https://s6.mkklcdnv6temp.com/mangakakalot/g1/gakkou_de_atta_kowai_hanashi/vol1_chapter_1_story_1/22.jpg",
    "https://img-proxy.imgfo.com/?referer=https://manganelo.com&url=https://s6.mkklcdnv6temp.com/mangakakalot/g1/gakkou_de_atta_kowai_hanashi/vol1_chapter_1_story_1/23.jpg",
    "https://img-proxy.imgfo.com/?referer=https://manganelo.com&url=https://s6.mkklcdnv6temp.com/mangakakalot/g1/gakkou_de_atta_kowai_hanashi/vol1_chapter_1_story_1/24.jpg",
    "https://img-proxy.imgfo.com/?referer=https://manganelo.com&url=https://s6.mkklcdnv6temp.com/mangakakalot/g1/gakkou_de_atta_kowai_hanashi/vol1_chapter_1_story_1/25.jpg",
    "https://img-proxy.imgfo.com/?referer=https://manganelo.com&url=https://s6.mkklcdnv6temp.com/mangakakalot/g1/gakkou_de_atta_kowai_hanashi/vol1_chapter_1_story_1/26.jpg",
    "https://img-proxy.imgfo.com/?referer=https://manganelo.com&url=https://s6.mkklcdnv6temp.com/mangakakalot/g1/gakkou_de_atta_kowai_hanashi/vol1_chapter_1_story_1/27.jpg",
    "https://img-proxy.imgfo.com/?referer=https://manganelo.com&url=https://s6.mkklcdnv6temp.com/mangakakalot/g1/gakkou_de_atta_kowai_hanashi/vol1_chapter_1_story_1/28.jpg",
    "https://img-proxy.imgfo.com/?referer=https://manganelo.com&url=https://s6.mkklcdnv6temp.com/mangakakalot/g1/gakkou_de_atta_kowai_hanashi/vol1_chapter_1_story_1/29.jpg",
    "https://img-proxy.imgfo.com/?referer=https://manganelo.com&url=https://s6.mkklcdnv6temp.com/mangakakalot/g1/gakkou_de_atta_kowai_hanashi/vol1_chapter_1_story_1/30.jpg",
    "https://img-proxy.imgfo.com/?referer=https://manganelo.com&url=https://s6.mkklcdnv6temp.com/mangakakalot/g1/gakkou_de_atta_kowai_hanashi/vol1_chapter_1_story_1/31.jpg",
    "https://img-proxy.imgfo.com/?referer=https://manganelo.com&url=https://s6.mkklcdnv6temp.com/mangakakalot/g1/gakkou_de_atta_kowai_hanashi/vol1_chapter_1_story_1/32.jpg",
    "https://img-proxy.imgfo.com/?referer=https://manganelo.com&url=https://s6.mkklcdnv6temp.com/mangakakalot/g1/gakkou_de_atta_kowai_hanashi/vol1_chapter_1_story_1/33.jpg",
    "https://img-proxy.imgfo.com/?referer=https://manganelo.com&url=https://s6.mkklcdnv6temp.com/mangakakalot/g1/gakkou_de_atta_kowai_hanashi/vol1_chapter_1_story_1/34.jpg",
    "https://img-proxy.imgfo.com/?referer=https://manganelo.com&url=https://s6.mkklcdnv6temp.com/mangakakalot/g1/gakkou_de_atta_kowai_hanashi/vol1_chapter_1_story_1/35.jpg",
    "https://img-proxy.imgfo.com/?referer=https://manganelo.com&url=https://s6.mkklcdnv6temp.com/mangakakalot/g1/gakkou_de_atta_kowai_hanashi/vol1_chapter_1_story_1/36.jpg",
    "https://img-proxy.imgfo.com/?referer=https://manganelo.com&url=https://s6.mkklcdnv6temp.com/mangakakalot/g1/gakkou_de_atta_kowai_hanashi/vol1_chapter_1_story_1/37.jpg",
    "https://img-proxy.imgfo.com/?referer=https://manganelo.com&url=https://s6.mkklcdnv6temp.com/mangakakalot/g1/gakkou_de_atta_kowai_hanashi/vol1_chapter_1_story_1/38.jpg",
    "https://img-proxy.imgfo.com/?referer=https://manganelo.com&url=https://s6.mkklcdnv6temp.com/mangakakalot/g1/gakkou_de_atta_kowai_hanashi/vol1_chapter_1_story_1/39.jpg",
    "https://img-proxy.imgfo.com/?referer=https://manganelo.com&url=https://s6.mkklcdnv6temp.com/mangakakalot/g1/gakkou_de_atta_kowai_hanashi/vol1_chapter_1_story_1/40.jpg",
    "https://img-proxy.imgfo.com/?referer=https://manganelo.com&url=https://s6.mkklcdnv6temp.com/mangakakalot/g1/gakkou_de_atta_kowai_hanashi/vol1_chapter_1_story_1/41.jpg",
    "https://img-proxy.imgfo.com/?referer=https://manganelo.com&url=https://s6.mkklcdnv6temp.com/mangakakalot/g1/gakkou_de_atta_kowai_hanashi/vol1_chapter_1_story_1/42.jpg",
    "https://img-proxy.imgfo.com/?referer=https://manganelo.com&url=https://s6.mkklcdnv6temp.com/mangakakalot/g1/gakkou_de_atta_kowai_hanashi/vol1_chapter_1_story_1/43.jpg",
    "https://img-proxy.imgfo.com/?referer=https://manganelo.com&url=https://s6.mkklcdnv6temp.com/mangakakalot/g1/gakkou_de_atta_kowai_hanashi/vol1_chapter_1_story_1/44.jpg",
    "https://img-proxy.imgfo.com/?referer=https://manganelo.com&url=https://s6.mkklcdnv6temp.com/mangakakalot/g1/gakkou_de_atta_kowai_hanashi/vol1_chapter_1_story_1/45.jpg",
    "https://img-proxy.imgfo.com/?referer=https://manganelo.com&url=https://s6.mkklcdnv6temp.com/mangakakalot/g1/gakkou_de_atta_kowai_hanashi/vol1_chapter_1_story_1/46.jpg",
    "https://img-proxy.imgfo.com/?referer=https://manganelo.com&url=https://s6.mkklcdnv6temp.com/mangakakalot/g1/gakkou_de_atta_kowai_hanashi/vol1_chapter_1_story_1/47.jpg"
  ]
}