{
  "cover": "https://avt.mkklcdnv6.com/10/z/11-1583484405.jpg",
  "title": "Gakkou De Atta Kowai Hanashi",
  "original": "呪いのたて笛 ; 呪信メール ; 学校であった怖い話 ; 希望の女神 ; 月女神の階段~黒の事件簿~ ; 未来ダイアリー ; Death Spiral ~永遠の呪縛~ ; Schoolhouse Horror Story ; Schoolhouse Horror ~ Curse of Forever",
  "genre": "Horror, Romance, Shoujo, Supernatural, Manga",
  "author": "Anthology",
  "status": "Completed",
  "backlink": "https://manganu.com/collections/anthology/gakkou-de-atta-kowai-hanashi/",
  "description": "Horror Anthology consists of 6 oneshots:\n1. Jushin Mail by Imai Yasue\n2. Kiboe no Megami by Shimizu Masumi\n3. Death Spiral - Eien no Jubaku by Komuro Eiko\n4. Mirai Diary by Sugawa Maki\n5. Noroi no Tatebue by Makihara Wakana\n6. Diana no Kaidan by Hayatsu Chisato",
  "language": "English",
  "images": [
    "https://img-proxy.imgfo.com/?referer=https://manganelo.com&url=https://s6.mkklcdnv6temp.com/mangakakalot/g1/gakkou_de_atta_kowai_hanashi/vol1_chapter_4/1.jpg",
    "https://img-proxy.imgfo.com/?referer=https://manganelo.com&url=https://s6.mkklcdnv6temp.com/mangakakalot/g1/gakkou_de_atta_kowai_hanashi/vol1_chapter_4/2.jpg",
    "https://img-proxy.imgfo.com/?referer=https://manganelo.com&url=https://s6.mkklcdnv6temp.com/mangakakalot/g1/gakkou_de_atta_kowai_hanashi/vol1_chapter_4/3.jpg",
    "https://img-proxy.imgfo.com/?referer=https://manganelo.com&url=https://s6.mkklcdnv6temp.com/mangakakalot/g1/gakkou_de_atta_kowai_hanashi/vol1_chapter_4/4.jpg",
    "https://img-proxy.imgfo.com/?referer=https://manganelo.com&url=https://s6.mkklcdnv6temp.com/mangakakalot/g1/gakkou_de_atta_kowai_hanashi/vol1_chapter_4/5.jpg",
    "https://img-proxy.imgfo.com/?referer=https://manganelo.com&url=https://s6.mkklcdnv6temp.com/mangakakalot/g1/gakkou_de_atta_kowai_hanashi/vol1_chapter_4/6.jpg",
    "https://img-proxy.imgfo.com/?referer=https://manganelo.com&url=https://s6.mkklcdnv6temp.com/mangakakalot/g1/gakkou_de_atta_kowai_hanashi/vol1_chapter_4/7.jpg",
    "https://img-proxy.imgfo.com/?referer=https://manganelo.com&url=https://s6.mkklcdnv6temp.com/mangakakalot/g1/gakkou_de_atta_kowai_hanashi/vol1_chapter_4/8.jpg",
    "https://img-proxy.imgfo.com/?referer=https://manganelo.com&url=https://s6.mkklcdnv6temp.com/mangakakalot/g1/gakkou_de_atta_kowai_hanashi/vol1_chapter_4/9.jpg",
    "https://img-proxy.imgfo.com/?referer=https://manganelo.com&url=https://s6.mkklcdnv6temp.com/mangakakalot/g1/gakkou_de_atta_kowai_hanashi/vol1_chapter_4/10.jpg",
    "https://img-proxy.imgfo.com/?referer=https://manganelo.com&url=https://s6.mkklcdnv6temp.com/mangakakalot/g1/gakkou_de_atta_kowai_hanashi/vol1_chapter_4/11.jpg",
    "https://img-proxy.imgfo.com/?referer=https://manganelo.com&url=https://s6.mkklcdnv6temp.com/mangakakalot/g1/gakkou_de_atta_kowai_hanashi/vol1_chapter_4/12.jpg",
    "https://img-proxy.imgfo.com/?referer=https://manganelo.com&url=https://s6.mkklcdnv6temp.com/mangakakalot/g1/gakkou_de_atta_kowai_hanashi/vol1_chapter_4/13.jpg",
    "https://img-proxy.imgfo.com/?referer=https://manganelo.com&url=https://s6.mkklcdnv6temp.com/mangakakalot/g1/gakkou_de_atta_kowai_hanashi/vol1_chapter_4/14.jpg",
    "https://img-proxy.imgfo.com/?referer=https://manganelo.com&url=https://s6.mkklcdnv6temp.com/mangakakalot/g1/gakkou_de_atta_kowai_hanashi/vol1_chapter_4/15.jpg",
    "https://img-proxy.imgfo.com/?referer=https://manganelo.com&url=https://s6.mkklcdnv6temp.com/mangakakalot/g1/gakkou_de_atta_kowai_hanashi/vol1_chapter_4/16.jpg",
    "https://img-proxy.imgfo.com/?referer=https://manganelo.com&url=https://s6.mkklcdnv6temp.com/mangakakalot/g1/gakkou_de_atta_kowai_hanashi/vol1_chapter_4/17.jpg",
    "https://img-proxy.imgfo.com/?referer=https://manganelo.com&url=https://s6.mkklcdnv6temp.com/mangakakalot/g1/gakkou_de_atta_kowai_hanashi/vol1_chapter_4/18.jpg",
    "https://img-proxy.imgfo.com/?referer=https://manganelo.com&url=https://s6.mkklcdnv6temp.com/mangakakalot/g1/gakkou_de_atta_kowai_hanashi/vol1_chapter_4/19.jpg",
    "https://img-proxy.imgfo.com/?referer=https://manganelo.com&url=https://s6.mkklcdnv6temp.com/mangakakalot/g1/gakkou_de_atta_kowai_hanashi/vol1_chapter_4/20.jpg",
    "https://img-proxy.imgfo.com/?referer=https://manganelo.com&url=https://s6.mkklcdnv6temp.com/mangakakalot/g1/gakkou_de_atta_kowai_hanashi/vol1_chapter_4/21.jpg",
    "https://img-proxy.imgfo.com/?referer=https://manganelo.com&url=https://s6.mkklcdnv6temp.com/mangakakalot/g1/gakkou_de_atta_kowai_hanashi/vol1_chapter_4/22.jpg",
    "https://img-proxy.imgfo.com/?referer=https://manganelo.com&url=https://s6.mkklcdnv6temp.com/mangakakalot/g1/gakkou_de_atta_kowai_hanashi/vol1_chapter_4/23.jpg",
    "https://img-proxy.imgfo.com/?referer=https://manganelo.com&url=https://s6.mkklcdnv6temp.com/mangakakalot/g1/gakkou_de_atta_kowai_hanashi/vol1_chapter_4/24.jpg",
    "https://img-proxy.imgfo.com/?referer=https://manganelo.com&url=https://s6.mkklcdnv6temp.com/mangakakalot/g1/gakkou_de_atta_kowai_hanashi/vol1_chapter_4/25.jpg",
    "https://img-proxy.imgfo.com/?referer=https://manganelo.com&url=https://s6.mkklcdnv6temp.com/mangakakalot/g1/gakkou_de_atta_kowai_hanashi/vol1_chapter_4/26.jpg",
    "https://img-proxy.imgfo.com/?referer=https://manganelo.com&url=https://s6.mkklcdnv6temp.com/mangakakalot/g1/gakkou_de_atta_kowai_hanashi/vol1_chapter_4/27.jpg",
    "https://img-proxy.imgfo.com/?referer=https://manganelo.com&url=https://s6.mkklcdnv6temp.com/mangakakalot/g1/gakkou_de_atta_kowai_hanashi/vol1_chapter_4/28.jpg",
    "https://img-proxy.imgfo.com/?referer=https://manganelo.com&url=https://s6.mkklcdnv6temp.com/mangakakalot/g1/gakkou_de_atta_kowai_hanashi/vol1_chapter_4/29.jpg",
    "https://img-proxy.imgfo.com/?referer=https://manganelo.com&url=https://s6.mkklcdnv6temp.com/mangakakalot/g1/gakkou_de_atta_kowai_hanashi/vol1_chapter_4/30.jpg",
    "https://img-proxy.imgfo.com/?referer=https://manganelo.com&url=https://s6.mkklcdnv6temp.com/mangakakalot/g1/gakkou_de_atta_kowai_hanashi/vol1_chapter_4/31.jpg",
    "https://img-proxy.imgfo.com/?referer=https://manganelo.com&url=https://s6.mkklcdnv6temp.com/mangakakalot/g1/gakkou_de_atta_kowai_hanashi/vol1_chapter_4/32.jpg",
    "https://img-proxy.imgfo.com/?referer=https://manganelo.com&url=https://s6.mkklcdnv6temp.com/mangakakalot/g1/gakkou_de_atta_kowai_hanashi/vol1_chapter_4/33.jpg"
  ]
}