{
  "cover": "https://avt.mkklcdnv6.com/45/k/10-1583483804.jpg",
  "title": "Knife",
  "original": "ナイフ ―尾崎かおり短篇集― ; ナイフ 尾崎かおり短篇集 １９９３‐１９９５ ; Knife: Ozaki Kaori's Short Story Collection",
  "genre": "Drama, Mature, Psychological, Romance, Shoujo, Tragedy, Manga",
  "author": "Ozaki Kaori",
  "status": "Completed",
  "backlink": "https://manganu.com/collections/ozaki-kaori/knife/",
  "description": "Collection of short stories by Kaori Ozaki (\"Immortal Rain\"), including her debut story. The earliest story in the volume was written when she was sixteen, and the last one when she was nineteen.\nCAUTION: There is quite a lot of nudity here; it's more art-house variety than hentai, but if you'd rather not deal with nudity period, this probably isn't the book for you. The stories are good, though.",
  "language": "English",
  "images": [
    "https://img-proxy.imgfo.com/?referer=https://manganelo.com&url=https://s7.mkklcdnv6temp.com/mangakakalot/k1/knife/vol1_chapter_1_the_value_of_a_kiss/1.jpg",
    "https://img-proxy.imgfo.com/?referer=https://manganelo.com&url=https://s7.mkklcdnv6temp.com/mangakakalot/k1/knife/vol1_chapter_1_the_value_of_a_kiss/2.jpg",
    "https://img-proxy.imgfo.com/?referer=https://manganelo.com&url=https://s7.mkklcdnv6temp.com/mangakakalot/k1/knife/vol1_chapter_1_the_value_of_a_kiss/3.jpg",
    "https://img-proxy.imgfo.com/?referer=https://manganelo.com&url=https://s7.mkklcdnv6temp.com/mangakakalot/k1/knife/vol1_chapter_1_the_value_of_a_kiss/4.jpg",
    "https://img-proxy.imgfo.com/?referer=https://manganelo.com&url=https://s7.mkklcdnv6temp.com/mangakakalot/k1/knife/vol1_chapter_1_the_value_of_a_kiss/5.jpg",
    "https://img-proxy.imgfo.com/?referer=https://manganelo.com&url=https://s7.mkklcdnv6temp.com/mangakakalot/k1/knife/vol1_chapter_1_the_value_of_a_kiss/6.jpg",
    "https://img-proxy.imgfo.com/?referer=https://manganelo.com&url=https://s7.mkklcdnv6temp.com/mangakakalot/k1/knife/vol1_chapter_1_the_value_of_a_kiss/7.jpg",
    "https://img-proxy.imgfo.com/?referer=https://manganelo.com&url=https://s7.mkklcdnv6temp.com/mangakakalot/k1/knife/vol1_chapter_1_the_value_of_a_kiss/8.jpg",
    "https://img-proxy.imgfo.com/?referer=https://manganelo.com&url=https://s7.mkklcdnv6temp.com/mangakakalot/k1/knife/vol1_chapter_1_the_value_of_a_kiss/9.jpg",
    "https://img-proxy.imgfo.com/?referer=https://manganelo.com&url=https://s7.mkklcdnv6temp.com/mangakakalot/k1/knife/vol1_chapter_1_the_value_of_a_kiss/10.jpg",
    "https://img-proxy.imgfo.com/?referer=https://manganelo.com&url=https://s7.mkklcdnv6temp.com/mangakakalot/k1/knife/vol1_chapter_1_the_value_of_a_kiss/11.jpg",
    "https://img-proxy.imgfo.com/?referer=https://manganelo.com&url=https://s7.mkklcdnv6temp.com/mangakakalot/k1/knife/vol1_chapter_1_the_value_of_a_kiss/12.jpg",
    "https://img-proxy.imgfo.com/?referer=https://manganelo.com&url=https://s7.mkklcdnv6temp.com/mangakakalot/k1/knife/vol1_chapter_1_the_value_of_a_kiss/13.jpg",
    "https://img-proxy.imgfo.com/?referer=https://manganelo.com&url=https://s7.mkklcdnv6temp.com/mangakakalot/k1/knife/vol1_chapter_1_the_value_of_a_kiss/14.jpg",
    "https://img-proxy.imgfo.com/?referer=https://manganelo.com&url=https://s7.mkklcdnv6temp.com/mangakakalot/k1/knife/vol1_chapter_1_the_value_of_a_kiss/15.jpg",
    "https://img-proxy.imgfo.com/?referer=https://manganelo.com&url=https://s7.mkklcdnv6temp.com/mangakakalot/k1/knife/vol1_chapter_1_the_value_of_a_kiss/16.jpg",
    "https://img-proxy.imgfo.com/?referer=https://manganelo.com&url=https://s7.mkklcdnv6temp.com/mangakakalot/k1/knife/vol1_chapter_1_the_value_of_a_kiss/17.jpg"
  ]
}