{
  "cover": "https://avt.mkklcdnv6.com/45/h/9-1583481995.jpg",
  "title": "Lives",
  "original": "ライブス ; LIVES―ライブス",
  "genre": "Action, Ecchi, Horror, Sci fi, Shounen, Supernatural, Manga",
  "author": "Taguchi Masayuki",
  "status": "Completed",
  "backlink": "https://manganu.com/collections/taguchi-masayuki/lives/",
  "description": "The peaceful lives of many are taken away as a freak meteor shower destroys the Kanto area of Japan. However, the lives of the victims aren't lost, as they start to awaken one by one into a strange pre-historic world. A girl named Kyoka awakens into this world, and is attacked by a monster, however she is saved by Shinma Shingo, another monster. She joins Shinma and his companion as they search to find a way back home.",
  "language": "English",
  "images": [
    "https://img-proxy.imgfo.com/?referer=https://manganelo.com&url=https://s41.mkklcdnv6temp.com/mangakakalot/l1/lives/vol1_chapter_0_catastrophe/1.jpg",
    "https://img-proxy.imgfo.com/?referer=https://manganelo.com&url=https://s41.mkklcdnv6temp.com/mangakakalot/l1/lives/vol1_chapter_0_catastrophe/2.jpg",
    "https://img-proxy.imgfo.com/?referer=https://manganelo.com&url=https://s41.mkklcdnv6temp.com/mangakakalot/l1/lives/vol1_chapter_0_catastrophe/3.jpg",
    "https://img-proxy.imgfo.com/?referer=https://manganelo.com&url=https://s41.mkklcdnv6temp.com/mangakakalot/l1/lives/vol1_chapter_0_catastrophe/4.jpg",
    "https://img-proxy.imgfo.com/?referer=https://manganelo.com&url=https://s41.mkklcdnv6temp.com/mangakakalot/l1/lives/vol1_chapter_0_catastrophe/5.jpg",
    "https://img-proxy.imgfo.com/?referer=https://manganelo.com&url=https://s41.mkklcdnv6temp.com/mangakakalot/l1/lives/vol1_chapter_0_catastrophe/6.jpg",
    "https://img-proxy.imgfo.com/?referer=https://manganelo.com&url=https://s41.mkklcdnv6temp.com/mangakakalot/l1/lives/vol1_chapter_0_catastrophe/7.jpg",
    "https://img-proxy.imgfo.com/?referer=https://manganelo.com&url=https://s41.mkklcdnv6temp.com/mangakakalot/l1/lives/vol1_chapter_0_catastrophe/8.jpg",
    "https://img-proxy.imgfo.com/?referer=https://manganelo.com&url=https://s41.mkklcdnv6temp.com/mangakakalot/l1/lives/vol1_chapter_0_catastrophe/9.jpg",
    "https://img-proxy.imgfo.com/?referer=https://manganelo.com&url=https://s41.mkklcdnv6temp.com/mangakakalot/l1/lives/vol1_chapter_0_catastrophe/10.jpg",
    "https://img-proxy.imgfo.com/?referer=https://manganelo.com&url=https://s41.mkklcdnv6temp.com/mangakakalot/l1/lives/vol1_chapter_0_catastrophe/11.jpg",
    "https://img-proxy.imgfo.com/?referer=https://manganelo.com&url=https://s41.mkklcdnv6temp.com/mangakakalot/l1/lives/vol1_chapter_0_catastrophe/12.jpg",
    "https://img-proxy.imgfo.com/?referer=https://manganelo.com&url=https://s41.mkklcdnv6temp.com/mangakakalot/l1/lives/vol1_chapter_0_catastrophe/13.jpg",
    "https://img-proxy.imgfo.com/?referer=https://manganelo.com&url=https://s41.mkklcdnv6temp.com/mangakakalot/l1/lives/vol1_chapter_0_catastrophe/14.jpg",
    "https://img-proxy.imgfo.com/?referer=https://manganelo.com&url=https://s41.mkklcdnv6temp.com/mangakakalot/l1/lives/vol1_chapter_0_catastrophe/15.jpg",
    "https://img-proxy.imgfo.com/?referer=https://manganelo.com&url=https://s41.mkklcdnv6temp.com/mangakakalot/l1/lives/vol1_chapter_0_catastrophe/16.jpg",
    "https://img-proxy.imgfo.com/?referer=https://manganelo.com&url=https://s41.mkklcdnv6temp.com/mangakakalot/l1/lives/vol1_chapter_0_catastrophe/17.jpg",
    "https://img-proxy.imgfo.com/?referer=https://manganelo.com&url=https://s41.mkklcdnv6temp.com/mangakakalot/l1/lives/vol1_chapter_0_catastrophe/18.jpg",
    "https://img-proxy.imgfo.com/?referer=https://manganelo.com&url=https://s41.mkklcdnv6temp.com/mangakakalot/l1/lives/vol1_chapter_0_catastrophe/19.jpg",
    "https://img-proxy.imgfo.com/?referer=https://manganelo.com&url=https://s41.mkklcdnv6temp.com/mangakakalot/l1/lives/vol1_chapter_0_catastrophe/20.jpg",
    "https://img-proxy.imgfo.com/?referer=https://manganelo.com&url=https://s41.mkklcdnv6temp.com/mangakakalot/l1/lives/vol1_chapter_0_catastrophe/21.jpg",
    "https://img-proxy.imgfo.com/?referer=https://manganelo.com&url=https://s41.mkklcdnv6temp.com/mangakakalot/l1/lives/vol1_chapter_0_catastrophe/22.jpg",
    "https://img-proxy.imgfo.com/?referer=https://manganelo.com&url=https://s41.mkklcdnv6temp.com/mangakakalot/l1/lives/vol1_chapter_0_catastrophe/23.jpg",
    "https://img-proxy.imgfo.com/?referer=https://manganelo.com&url=https://s41.mkklcdnv6temp.com/mangakakalot/l1/lives/vol1_chapter_0_catastrophe/24.jpg",
    "https://img-proxy.imgfo.com/?referer=https://manganelo.com&url=https://s41.mkklcdnv6temp.com/mangakakalot/l1/lives/vol1_chapter_0_catastrophe/25.jpg",
    "https://img-proxy.imgfo.com/?referer=https://manganelo.com&url=https://s41.mkklcdnv6temp.com/mangakakalot/l1/lives/vol1_chapter_0_catastrophe/26.jpg",
    "https://img-proxy.imgfo.com/?referer=https://manganelo.com&url=https://s41.mkklcdnv6temp.com/mangakakalot/l1/lives/vol1_chapter_0_catastrophe/27.jpg",
    "https://img-proxy.imgfo.com/?referer=https://manganelo.com&url=https://s41.mkklcdnv6temp.com/mangakakalot/l1/lives/vol1_chapter_0_catastrophe/28.jpg",
    "https://img-proxy.imgfo.com/?referer=https://manganelo.com&url=https://s41.mkklcdnv6temp.com/mangakakalot/l1/lives/vol1_chapter_0_catastrophe/29.jpg",
    "https://img-proxy.imgfo.com/?referer=https://manganelo.com&url=https://s41.mkklcdnv6temp.com/mangakakalot/l1/lives/vol1_chapter_0_catastrophe/30.jpg",
    "https://img-proxy.imgfo.com/?referer=https://manganelo.com&url=https://s41.mkklcdnv6temp.com/mangakakalot/l1/lives/vol1_chapter_0_catastrophe/31.jpg",
    "https://img-proxy.imgfo.com/?referer=https://manganelo.com&url=https://s41.mkklcdnv6temp.com/mangakakalot/l1/lives/vol1_chapter_0_catastrophe/32.jpg",
    "https://img-proxy.imgfo.com/?referer=https://manganelo.com&url=https://s41.mkklcdnv6temp.com/mangakakalot/l1/lives/vol1_chapter_0_catastrophe/33.jpg",
    "https://img-proxy.imgfo.com/?referer=https://manganelo.com&url=https://s41.mkklcdnv6temp.com/mangakakalot/l1/lives/vol1_chapter_0_catastrophe/34.jpg",
    "https://img-proxy.imgfo.com/?referer=https://manganelo.com&url=https://s41.mkklcdnv6temp.com/mangakakalot/l1/lives/vol1_chapter_0_catastrophe/35.jpg",
    "https://img-proxy.imgfo.com/?referer=https://manganelo.com&url=https://s41.mkklcdnv6temp.com/mangakakalot/l1/lives/vol1_chapter_0_catastrophe/36.jpg",
    "https://img-proxy.imgfo.com/?referer=https://manganelo.com&url=https://s41.mkklcdnv6temp.com/mangakakalot/l1/lives/vol1_chapter_0_catastrophe/37.jpg",
    "https://img-proxy.imgfo.com/?referer=https://manganelo.com&url=https://s41.mkklcdnv6temp.com/mangakakalot/l1/lives/vol1_chapter_0_catastrophe/38.jpg",
    "https://img-proxy.imgfo.com/?referer=https://manganelo.com&url=https://s41.mkklcdnv6temp.com/mangakakalot/l1/lives/vol1_chapter_0_catastrophe/39.jpg",
    "https://img-proxy.imgfo.com/?referer=https://manganelo.com&url=https://s41.mkklcdnv6temp.com/mangakakalot/l1/lives/vol1_chapter_0_catastrophe/40.jpg",
    "https://img-proxy.imgfo.com/?referer=https://manganelo.com&url=https://s41.mkklcdnv6temp.com/mangakakalot/l1/lives/vol1_chapter_0_catastrophe/41.jpg",
    "https://img-proxy.imgfo.com/?referer=https://manganelo.com&url=https://s41.mkklcdnv6temp.com/mangakakalot/l1/lives/vol1_chapter_0_catastrophe/42.jpg"
  ]
}