{
  "cover": "https://avt.mkklcdnv6.com/47/t/3-1583469558.jpg",
  "title": "Fullmetal Alchemist",
  "original": "แขนกล คนแปรธาตุ ; 鋼の錬金術師 ; 钢之炼金术师 ; 강철의 연금술사 ; FMA ; Full Metal Alchemist ; Fullmetal Alchemist Gaiden ; Giả kim thuật sư ; Hagane no Renkinjutsushi ; Hagaren; Read FullMetal Alchemist manga",
  "genre": "Action, Adult, Adventure, Comedy, Doujinshi, Drama, Fantasy, Historical, Mystery, Psychological, Sci fi, Shounen, Supernatural, Manga",
  "author": "Arakawa Hiromu",
  "status": "Completed",
  "backlink": "https://manganu.com/collections/arakawa-hiromu/fullmetal-alchemist/",
  "description": "The brothers perform the banned alchemic technique of human transmutation in a effort to resurrect her when Trisha dies of the plague. As a result, the transmutation backfires and in law with equal exchange, the left leg and Alphonse&#39;s whole body of Edward are ruined. Edward loses his right arm to save Alphonse&#39;s soul, binding it having a blood seal into a suit of armour. Roy Mustang invites Edward to become a method to restore Alphonse&#39;s body to be researched by a State Alchemist. Edward triumphs, becoming the name according to his prosthetic post limbs, the Fullmetal Alchemist.\n\nThree years on, the Elrics search for the legendary Philosopher&#39;s Stone to realize their aims. Marcoh sends his notes to be found by them, however they learn the essential factor to really make the Stone is human sacrifices. The buddy of Mustang, Maes Hughes, carries on their research, but is shot dead with a disguised Envy for finding the strategies of the Homunculi.\n\nSeeing with Izumi, the Elrics learn human transmutation was perpetrated by her on her stillborn child. The rogue homunculus Greed captures Alphonse, but is saved by Amestris&#39; president King Bradley, shown to function as homunculus Wrath. Greed is thus melted down by and reabsorbed inside the originator Father of the Homunculi. Winry and the Elrics return to Central City to go to with Hughes but learn of his passing. Lieutenant Maria Ross is framed for Hughes&#39; homicide, but is apparently killed by Mustang. Yet, Edward learns Ross&#39; departure was staged so she can be smuggled by Mustang from the united states to Xing, helped by Xingese prince Ling Yao. Hohenheim is reunited with by Edward but despises him for his long absence at residence.\n\nAs the narrative advances, the Homunculi are encountered by the protagonists repeatedly. Mustang kills lust; Mustang and Ling captures Gluttony, however he ends up consuming Envy into his null, and Edward, Ling -like belly. Gluttony takes Alphonse to meet Father, but Ling turns right into a homunculus, specifically the newest avatar of Greed, when the others escape from the belly of Gluttony. The Elrics are released to continue their pursuit provided that Father isn&#39;t opposed by them.\n\nLocating an underground tunnel beneath Briggs, General Olivier Armstrong find Father and the Elrics has been creating a national transmutation group and intends to give its citizens so he is able to ascend to godhood. Greed recovers betrays Father and his previous self&#39;s memories, teaming up with after, and Edward, the chimera minions of Kimblee Hohenheim. Hohenheim discloses to his sons individually that he&#39;s not mortal, turned right into a living Philosopher&#39;s Stone by Father four hundred years back.\n\nThe Promise Day arrives and Father prepares to begin his strategy having an eclipse and the ones who attempted human transmutation as his sacrifices that are essential. The various protagonists conflict with Father&#39;s minions, with all the Homunculi expiring. Following a forced Mustang, as well as the Elrics, Izumi, Hohenheim are collected as the causes dad activates the national transmutation. Nevertheless, Scar and Hohenheim activate the Amestrians to be saved by countermeasures. Greed is ruined by Father, although dad is faced above ground where the protagonists fight him to wear down his Philosopher&#39;s Stone.\n\nAlphonse, whose armour is all but ruined through the last conflict against Father, gives his spirit to regain the right arm, who in turn ruins Father&#39;s Stone, sending him back to the ethereal Gate of Truth of Edward. Edward loses his power to do alchemy to recover soul and Alphonse&#39;s body. Hohenheim sees the grave where he dies having a grin of Trisha.",
  "language": "English",
  "images": [
    "https://img-proxy.imgfo.com/?referer=https://manganelo.com&url=https://s3.mkklcdnv6temp.com/mangakakalot/r1/read_fullmetal_alchemist_manga/vol8_chapter_30_the_truth_inside_the_armor/1.jpg",
    "https://img-proxy.imgfo.com/?referer=https://manganelo.com&url=https://s3.mkklcdnv6temp.com/mangakakalot/r1/read_fullmetal_alchemist_manga/vol8_chapter_30_the_truth_inside_the_armor/2.jpg",
    "https://img-proxy.imgfo.com/?referer=https://manganelo.com&url=https://s3.mkklcdnv6temp.com/mangakakalot/r1/read_fullmetal_alchemist_manga/vol8_chapter_30_the_truth_inside_the_armor/3.jpg",
    "https://img-proxy.imgfo.com/?referer=https://manganelo.com&url=https://s3.mkklcdnv6temp.com/mangakakalot/r1/read_fullmetal_alchemist_manga/vol8_chapter_30_the_truth_inside_the_armor/4.jpg",
    "https://img-proxy.imgfo.com/?referer=https://manganelo.com&url=https://s3.mkklcdnv6temp.com/mangakakalot/r1/read_fullmetal_alchemist_manga/vol8_chapter_30_the_truth_inside_the_armor/5.jpg",
    "https://img-proxy.imgfo.com/?referer=https://manganelo.com&url=https://s3.mkklcdnv6temp.com/mangakakalot/r1/read_fullmetal_alchemist_manga/vol8_chapter_30_the_truth_inside_the_armor/6.jpg",
    "https://img-proxy.imgfo.com/?referer=https://manganelo.com&url=https://s3.mkklcdnv6temp.com/mangakakalot/r1/read_fullmetal_alchemist_manga/vol8_chapter_30_the_truth_inside_the_armor/7.jpg",
    "https://img-proxy.imgfo.com/?referer=https://manganelo.com&url=https://s3.mkklcdnv6temp.com/mangakakalot/r1/read_fullmetal_alchemist_manga/vol8_chapter_30_the_truth_inside_the_armor/8.jpg",
    "https://img-proxy.imgfo.com/?referer=https://manganelo.com&url=https://s3.mkklcdnv6temp.com/mangakakalot/r1/read_fullmetal_alchemist_manga/vol8_chapter_30_the_truth_inside_the_armor/9.jpg",
    "https://img-proxy.imgfo.com/?referer=https://manganelo.com&url=https://s3.mkklcdnv6temp.com/mangakakalot/r1/read_fullmetal_alchemist_manga/vol8_chapter_30_the_truth_inside_the_armor/10.jpg",
    "https://img-proxy.imgfo.com/?referer=https://manganelo.com&url=https://s3.mkklcdnv6temp.com/mangakakalot/r1/read_fullmetal_alchemist_manga/vol8_chapter_30_the_truth_inside_the_armor/11.jpg",
    "https://img-proxy.imgfo.com/?referer=https://manganelo.com&url=https://s3.mkklcdnv6temp.com/mangakakalot/r1/read_fullmetal_alchemist_manga/vol8_chapter_30_the_truth_inside_the_armor/12.jpg",
    "https://img-proxy.imgfo.com/?referer=https://manganelo.com&url=https://s3.mkklcdnv6temp.com/mangakakalot/r1/read_fullmetal_alchemist_manga/vol8_chapter_30_the_truth_inside_the_armor/13.jpg",
    "https://img-proxy.imgfo.com/?referer=https://manganelo.com&url=https://s3.mkklcdnv6temp.com/mangakakalot/r1/read_fullmetal_alchemist_manga/vol8_chapter_30_the_truth_inside_the_armor/14.jpg",
    "https://img-proxy.imgfo.com/?referer=https://manganelo.com&url=https://s3.mkklcdnv6temp.com/mangakakalot/r1/read_fullmetal_alchemist_manga/vol8_chapter_30_the_truth_inside_the_armor/15.jpg",
    "https://img-proxy.imgfo.com/?referer=https://manganelo.com&url=https://s3.mkklcdnv6temp.com/mangakakalot/r1/read_fullmetal_alchemist_manga/vol8_chapter_30_the_truth_inside_the_armor/16.jpg",
    "https://img-proxy.imgfo.com/?referer=https://manganelo.com&url=https://s3.mkklcdnv6temp.com/mangakakalot/r1/read_fullmetal_alchemist_manga/vol8_chapter_30_the_truth_inside_the_armor/17.jpg",
    "https://img-proxy.imgfo.com/?referer=https://manganelo.com&url=https://s3.mkklcdnv6temp.com/mangakakalot/r1/read_fullmetal_alchemist_manga/vol8_chapter_30_the_truth_inside_the_armor/18.jpg",
    "https://img-proxy.imgfo.com/?referer=https://manganelo.com&url=https://s3.mkklcdnv6temp.com/mangakakalot/r1/read_fullmetal_alchemist_manga/vol8_chapter_30_the_truth_inside_the_armor/19.jpg",
    "https://img-proxy.imgfo.com/?referer=https://manganelo.com&url=https://s3.mkklcdnv6temp.com/mangakakalot/r1/read_fullmetal_alchemist_manga/vol8_chapter_30_the_truth_inside_the_armor/20.jpg",
    "https://img-proxy.imgfo.com/?referer=https://manganelo.com&url=https://s3.mkklcdnv6temp.com/mangakakalot/r1/read_fullmetal_alchemist_manga/vol8_chapter_30_the_truth_inside_the_armor/21.jpg",
    "https://img-proxy.imgfo.com/?referer=https://manganelo.com&url=https://s3.mkklcdnv6temp.com/mangakakalot/r1/read_fullmetal_alchemist_manga/vol8_chapter_30_the_truth_inside_the_armor/22.jpg",
    "https://img-proxy.imgfo.com/?referer=https://manganelo.com&url=https://s3.mkklcdnv6temp.com/mangakakalot/r1/read_fullmetal_alchemist_manga/vol8_chapter_30_the_truth_inside_the_armor/23.jpg",
    "https://img-proxy.imgfo.com/?referer=https://manganelo.com&url=https://s3.mkklcdnv6temp.com/mangakakalot/r1/read_fullmetal_alchemist_manga/vol8_chapter_30_the_truth_inside_the_armor/24.jpg",
    "https://img-proxy.imgfo.com/?referer=https://manganelo.com&url=https://s3.mkklcdnv6temp.com/mangakakalot/r1/read_fullmetal_alchemist_manga/vol8_chapter_30_the_truth_inside_the_armor/25.jpg",
    "https://img-proxy.imgfo.com/?referer=https://manganelo.com&url=https://s3.mkklcdnv6temp.com/mangakakalot/r1/read_fullmetal_alchemist_manga/vol8_chapter_30_the_truth_inside_the_armor/26.jpg",
    "https://img-proxy.imgfo.com/?referer=https://manganelo.com&url=https://s3.mkklcdnv6temp.com/mangakakalot/r1/read_fullmetal_alchemist_manga/vol8_chapter_30_the_truth_inside_the_armor/27.jpg",
    "https://img-proxy.imgfo.com/?referer=https://manganelo.com&url=https://s3.mkklcdnv6temp.com/mangakakalot/r1/read_fullmetal_alchemist_manga/vol8_chapter_30_the_truth_inside_the_armor/28.jpg",
    "https://img-proxy.imgfo.com/?referer=https://manganelo.com&url=https://s3.mkklcdnv6temp.com/mangakakalot/r1/read_fullmetal_alchemist_manga/vol8_chapter_30_the_truth_inside_the_armor/29.jpg",
    "https://img-proxy.imgfo.com/?referer=https://manganelo.com&url=https://s3.mkklcdnv6temp.com/mangakakalot/r1/read_fullmetal_alchemist_manga/vol8_chapter_30_the_truth_inside_the_armor/30.jpg",
    "https://img-proxy.imgfo.com/?referer=https://manganelo.com&url=https://s3.mkklcdnv6temp.com/mangakakalot/r1/read_fullmetal_alchemist_manga/vol8_chapter_30_the_truth_inside_the_armor/31.jpg",
    "https://img-proxy.imgfo.com/?referer=https://manganelo.com&url=https://s3.mkklcdnv6temp.com/mangakakalot/r1/read_fullmetal_alchemist_manga/vol8_chapter_30_the_truth_inside_the_armor/32.jpg",
    "https://img-proxy.imgfo.com/?referer=https://manganelo.com&url=https://s3.mkklcdnv6temp.com/mangakakalot/r1/read_fullmetal_alchemist_manga/vol8_chapter_30_the_truth_inside_the_armor/33.jpg",
    "https://img-proxy.imgfo.com/?referer=https://manganelo.com&url=https://s3.mkklcdnv6temp.com/mangakakalot/r1/read_fullmetal_alchemist_manga/vol8_chapter_30_the_truth_inside_the_armor/34.jpg",
    "https://img-proxy.imgfo.com/?referer=https://manganelo.com&url=https://s3.mkklcdnv6temp.com/mangakakalot/r1/read_fullmetal_alchemist_manga/vol8_chapter_30_the_truth_inside_the_armor/35.jpg",
    "https://img-proxy.imgfo.com/?referer=https://manganelo.com&url=https://s3.mkklcdnv6temp.com/mangakakalot/r1/read_fullmetal_alchemist_manga/vol8_chapter_30_the_truth_inside_the_armor/36.jpg",
    "https://img-proxy.imgfo.com/?referer=https://manganelo.com&url=https://s3.mkklcdnv6temp.com/mangakakalot/r1/read_fullmetal_alchemist_manga/vol8_chapter_30_the_truth_inside_the_armor/37.jpg",
    "https://img-proxy.imgfo.com/?referer=https://manganelo.com&url=https://s3.mkklcdnv6temp.com/mangakakalot/r1/read_fullmetal_alchemist_manga/vol8_chapter_30_the_truth_inside_the_armor/38.jpg",
    "https://img-proxy.imgfo.com/?referer=https://manganelo.com&url=https://s3.mkklcdnv6temp.com/mangakakalot/r1/read_fullmetal_alchemist_manga/vol8_chapter_30_the_truth_inside_the_armor/39.jpg",
    "https://img-proxy.imgfo.com/?referer=https://manganelo.com&url=https://s3.mkklcdnv6temp.com/mangakakalot/r1/read_fullmetal_alchemist_manga/vol8_chapter_30_the_truth_inside_the_armor/40.jpg",
    "https://img-proxy.imgfo.com/?referer=https://manganelo.com&url=https://s3.mkklcdnv6temp.com/mangakakalot/r1/read_fullmetal_alchemist_manga/vol8_chapter_30_the_truth_inside_the_armor/41.jpg",
    "https://img-proxy.imgfo.com/?referer=https://manganelo.com&url=https://s3.mkklcdnv6temp.com/mangakakalot/r1/read_fullmetal_alchemist_manga/vol8_chapter_30_the_truth_inside_the_armor/42.jpg",
    "https://img-proxy.imgfo.com/?referer=https://manganelo.com&url=https://s3.mkklcdnv6temp.com/mangakakalot/r1/read_fullmetal_alchemist_manga/vol8_chapter_30_the_truth_inside_the_armor/43.jpg",
    "https://img-proxy.imgfo.com/?referer=https://manganelo.com&url=https://s3.mkklcdnv6temp.com/mangakakalot/r1/read_fullmetal_alchemist_manga/vol8_chapter_30_the_truth_inside_the_armor/44.jpg",
    "https://img-proxy.imgfo.com/?referer=https://manganelo.com&url=https://s3.mkklcdnv6temp.com/mangakakalot/r1/read_fullmetal_alchemist_manga/vol8_chapter_30_the_truth_inside_the_armor/45.jpg",
    "https://img-proxy.imgfo.com/?referer=https://manganelo.com&url=https://s3.mkklcdnv6temp.com/mangakakalot/r1/read_fullmetal_alchemist_manga/vol8_chapter_30_the_truth_inside_the_armor/46.jpg",
    "https://img-proxy.imgfo.com/?referer=https://manganelo.com&url=https://s3.mkklcdnv6temp.com/mangakakalot/r1/read_fullmetal_alchemist_manga/vol8_chapter_30_the_truth_inside_the_armor/47.jpg",
    "https://img-proxy.imgfo.com/?referer=https://manganelo.com&url=https://s3.mkklcdnv6temp.com/mangakakalot/r1/read_fullmetal_alchemist_manga/vol8_chapter_30_the_truth_inside_the_armor/48.jpg"
  ]
}