{
  "cover": "https://avt.mkklcdnv6.com/7/p/4-1583469984.jpg",
  "title": "Boku Dake Ni Kiss Wo Shite",
  "original": "ボクだけにキスをして ; Please Kiss Me",
  "genre": "Comedy, School life, Yaoi, Manga",
  "author": "Ichijou Lemon",
  "status": "Completed",
  "backlink": "https://manganu.com/collections/ichijou-lemon/boku-dake-ni-kiss-wo-shite/",
  "description": "1) Please Kiss Me\nWhy does Kei pick Setsu up everyday and then ignore him at school? Setsu wonders is he special or just a bother.\n2) Rag Doll Honey\nIt's been six months of dating why won't Kotori let Ryouta into his place?\n3) Sweet Life\nLiving together to save money is fine, but how long can one live under the same roof with the one they like without saying anything.\n4) You Are All Of Me\nMatsumoto is always getting into fights and Kanehara the student council president is always reprimanding him. Who'd guess these two are going out.\n5) Love, My Lover\nKouki is always left alone at home when Yukiya goes off traveling for long periods of time. He starts to really question how serious Yukiya is about him and it only intensifies when Kouki finds a pair of womens earings.\n6) He Is A Lovely Person\nSetsu and Kei have been dating for a month. Kei is always doing things for Setsu, it is now time for Kei to be selfish.",
  "language": "English",
  "images": [
    "https://img-proxy.imgfo.com/?referer=https://manganelo.com&url=https://s6.mkklcdnv6temp.com/mangakakalot/b2/boku_dake_ni_kiss_wo_shite/vol1_chapter_4_you_are_all_of_me/1.jpg",
    "https://img-proxy.imgfo.com/?referer=https://manganelo.com&url=https://s6.mkklcdnv6temp.com/mangakakalot/b2/boku_dake_ni_kiss_wo_shite/vol1_chapter_4_you_are_all_of_me/2.jpg",
    "https://img-proxy.imgfo.com/?referer=https://manganelo.com&url=https://s6.mkklcdnv6temp.com/mangakakalot/b2/boku_dake_ni_kiss_wo_shite/vol1_chapter_4_you_are_all_of_me/3.jpg",
    "https://img-proxy.imgfo.com/?referer=https://manganelo.com&url=https://s6.mkklcdnv6temp.com/mangakakalot/b2/boku_dake_ni_kiss_wo_shite/vol1_chapter_4_you_are_all_of_me/4.jpg",
    "https://img-proxy.imgfo.com/?referer=https://manganelo.com&url=https://s6.mkklcdnv6temp.com/mangakakalot/b2/boku_dake_ni_kiss_wo_shite/vol1_chapter_4_you_are_all_of_me/5.jpg",
    "https://img-proxy.imgfo.com/?referer=https://manganelo.com&url=https://s6.mkklcdnv6temp.com/mangakakalot/b2/boku_dake_ni_kiss_wo_shite/vol1_chapter_4_you_are_all_of_me/6.jpg",
    "https://img-proxy.imgfo.com/?referer=https://manganelo.com&url=https://s6.mkklcdnv6temp.com/mangakakalot/b2/boku_dake_ni_kiss_wo_shite/vol1_chapter_4_you_are_all_of_me/7.jpg",
    "https://img-proxy.imgfo.com/?referer=https://manganelo.com&url=https://s6.mkklcdnv6temp.com/mangakakalot/b2/boku_dake_ni_kiss_wo_shite/vol1_chapter_4_you_are_all_of_me/8.jpg",
    "https://img-proxy.imgfo.com/?referer=https://manganelo.com&url=https://s6.mkklcdnv6temp.com/mangakakalot/b2/boku_dake_ni_kiss_wo_shite/vol1_chapter_4_you_are_all_of_me/9.jpg",
    "https://img-proxy.imgfo.com/?referer=https://manganelo.com&url=https://s6.mkklcdnv6temp.com/mangakakalot/b2/boku_dake_ni_kiss_wo_shite/vol1_chapter_4_you_are_all_of_me/10.jpg",
    "https://img-proxy.imgfo.com/?referer=https://manganelo.com&url=https://s6.mkklcdnv6temp.com/mangakakalot/b2/boku_dake_ni_kiss_wo_shite/vol1_chapter_4_you_are_all_of_me/11.jpg",
    "https://img-proxy.imgfo.com/?referer=https://manganelo.com&url=https://s6.mkklcdnv6temp.com/mangakakalot/b2/boku_dake_ni_kiss_wo_shite/vol1_chapter_4_you_are_all_of_me/12.jpg",
    "https://img-proxy.imgfo.com/?referer=https://manganelo.com&url=https://s6.mkklcdnv6temp.com/mangakakalot/b2/boku_dake_ni_kiss_wo_shite/vol1_chapter_4_you_are_all_of_me/13.jpg",
    "https://img-proxy.imgfo.com/?referer=https://manganelo.com&url=https://s6.mkklcdnv6temp.com/mangakakalot/b2/boku_dake_ni_kiss_wo_shite/vol1_chapter_4_you_are_all_of_me/14.jpg",
    "https://img-proxy.imgfo.com/?referer=https://manganelo.com&url=https://s6.mkklcdnv6temp.com/mangakakalot/b2/boku_dake_ni_kiss_wo_shite/vol1_chapter_4_you_are_all_of_me/15.jpg",
    "https://img-proxy.imgfo.com/?referer=https://manganelo.com&url=https://s6.mkklcdnv6temp.com/mangakakalot/b2/boku_dake_ni_kiss_wo_shite/vol1_chapter_4_you_are_all_of_me/16.jpg",
    "https://img-proxy.imgfo.com/?referer=https://manganelo.com&url=https://s6.mkklcdnv6temp.com/mangakakalot/b2/boku_dake_ni_kiss_wo_shite/vol1_chapter_4_you_are_all_of_me/17.jpg",
    "https://img-proxy.imgfo.com/?referer=https://manganelo.com&url=https://s6.mkklcdnv6temp.com/mangakakalot/b2/boku_dake_ni_kiss_wo_shite/vol1_chapter_4_you_are_all_of_me/18.jpg",
    "https://img-proxy.imgfo.com/?referer=https://manganelo.com&url=https://s6.mkklcdnv6temp.com/mangakakalot/b2/boku_dake_ni_kiss_wo_shite/vol1_chapter_4_you_are_all_of_me/19.jpg",
    "https://img-proxy.imgfo.com/?referer=https://manganelo.com&url=https://s6.mkklcdnv6temp.com/mangakakalot/b2/boku_dake_ni_kiss_wo_shite/vol1_chapter_4_you_are_all_of_me/20.jpg",
    "https://img-proxy.imgfo.com/?referer=https://manganelo.com&url=https://s6.mkklcdnv6temp.com/mangakakalot/b2/boku_dake_ni_kiss_wo_shite/vol1_chapter_4_you_are_all_of_me/21.jpg",
    "https://img-proxy.imgfo.com/?referer=https://manganelo.com&url=https://s6.mkklcdnv6temp.com/mangakakalot/b2/boku_dake_ni_kiss_wo_shite/vol1_chapter_4_you_are_all_of_me/22.jpg",
    "https://img-proxy.imgfo.com/?referer=https://manganelo.com&url=https://s6.mkklcdnv6temp.com/mangakakalot/b2/boku_dake_ni_kiss_wo_shite/vol1_chapter_4_you_are_all_of_me/23.jpg",
    "https://img-proxy.imgfo.com/?referer=https://manganelo.com&url=https://s6.mkklcdnv6temp.com/mangakakalot/b2/boku_dake_ni_kiss_wo_shite/vol1_chapter_4_you_are_all_of_me/24.jpg",
    "https://img-proxy.imgfo.com/?referer=https://manganelo.com&url=https://s6.mkklcdnv6temp.com/mangakakalot/b2/boku_dake_ni_kiss_wo_shite/vol1_chapter_4_you_are_all_of_me/25.jpg",
    "https://img-proxy.imgfo.com/?referer=https://manganelo.com&url=https://s6.mkklcdnv6temp.com/mangakakalot/b2/boku_dake_ni_kiss_wo_shite/vol1_chapter_4_you_are_all_of_me/26.jpg",
    "https://img-proxy.imgfo.com/?referer=https://manganelo.com&url=https://s6.mkklcdnv6temp.com/mangakakalot/b2/boku_dake_ni_kiss_wo_shite/vol1_chapter_4_you_are_all_of_me/27.jpg",
    "https://img-proxy.imgfo.com/?referer=https://manganelo.com&url=https://s6.mkklcdnv6temp.com/mangakakalot/b2/boku_dake_ni_kiss_wo_shite/vol1_chapter_4_you_are_all_of_me/28.jpg",
    "https://img-proxy.imgfo.com/?referer=https://manganelo.com&url=https://s6.mkklcdnv6temp.com/mangakakalot/b2/boku_dake_ni_kiss_wo_shite/vol1_chapter_4_you_are_all_of_me/29.jpg",
    "https://img-proxy.imgfo.com/?referer=https://manganelo.com&url=https://s6.mkklcdnv6temp.com/mangakakalot/b2/boku_dake_ni_kiss_wo_shite/vol1_chapter_4_you_are_all_of_me/30.jpg",
    "https://img-proxy.imgfo.com/?referer=https://manganelo.com&url=https://s6.mkklcdnv6temp.com/mangakakalot/b2/boku_dake_ni_kiss_wo_shite/vol1_chapter_4_you_are_all_of_me/31.jpg",
    "https://img-proxy.imgfo.com/?referer=https://manganelo.com&url=https://s6.mkklcdnv6temp.com/mangakakalot/b2/boku_dake_ni_kiss_wo_shite/vol1_chapter_4_you_are_all_of_me/32.jpg"
  ]
}