{
  "cover": "https://avt.mkklcdnv6.com/49/m/9-1583482159.jpg",
  "title": "Hoozuki No Shima",
  "original": "鬼灯之岛 ; 鬼燈の島 -ホオズキノシマ- ; Hohzuki Island ; Hoozuki Island ; The Island of Hoozuki",
  "genre": "Action, Drama, Ecchi, Horror, Mature, Mystery, Psychological, Seinen, Manga",
  "author": "Sanbe Kei",
  "status": "Completed",
  "backlink": "https://manganu.com/collections/sanbe-kei/hoozuki-no-shima/",
  "description": "It’s about two children being sent to live on a basically deserted island. Deserted except for a few other kids and teachers. Suzuhara Kokoro and his blind little sister Yume find that all is not as it seems as they learn more from the other kids and see the actions of their teachers.",
  "language": "English",
  "images": [
    "https://img-proxy.imgfo.com/?referer=https://manganelo.com&url=https://s41.mkklcdnv6temp.com/mangakakalot/h2/hoozuki_no_shima/vol3_chapter_23_oreja_killed_tsutenai/1.jpg",
    "https://img-proxy.imgfo.com/?referer=https://manganelo.com&url=https://s41.mkklcdnv6temp.com/mangakakalot/h2/hoozuki_no_shima/vol3_chapter_23_oreja_killed_tsutenai/2.jpg",
    "https://img-proxy.imgfo.com/?referer=https://manganelo.com&url=https://s41.mkklcdnv6temp.com/mangakakalot/h2/hoozuki_no_shima/vol3_chapter_23_oreja_killed_tsutenai/3.jpg",
    "https://img-proxy.imgfo.com/?referer=https://manganelo.com&url=https://s41.mkklcdnv6temp.com/mangakakalot/h2/hoozuki_no_shima/vol3_chapter_23_oreja_killed_tsutenai/4.jpg",
    "https://img-proxy.imgfo.com/?referer=https://manganelo.com&url=https://s41.mkklcdnv6temp.com/mangakakalot/h2/hoozuki_no_shima/vol3_chapter_23_oreja_killed_tsutenai/5.jpg",
    "https://img-proxy.imgfo.com/?referer=https://manganelo.com&url=https://s41.mkklcdnv6temp.com/mangakakalot/h2/hoozuki_no_shima/vol3_chapter_23_oreja_killed_tsutenai/6.jpg",
    "https://img-proxy.imgfo.com/?referer=https://manganelo.com&url=https://s41.mkklcdnv6temp.com/mangakakalot/h2/hoozuki_no_shima/vol3_chapter_23_oreja_killed_tsutenai/7.jpg",
    "https://img-proxy.imgfo.com/?referer=https://manganelo.com&url=https://s41.mkklcdnv6temp.com/mangakakalot/h2/hoozuki_no_shima/vol3_chapter_23_oreja_killed_tsutenai/8.jpg",
    "https://img-proxy.imgfo.com/?referer=https://manganelo.com&url=https://s41.mkklcdnv6temp.com/mangakakalot/h2/hoozuki_no_shima/vol3_chapter_23_oreja_killed_tsutenai/9.jpg",
    "https://img-proxy.imgfo.com/?referer=https://manganelo.com&url=https://s41.mkklcdnv6temp.com/mangakakalot/h2/hoozuki_no_shima/vol3_chapter_23_oreja_killed_tsutenai/10.jpg",
    "https://img-proxy.imgfo.com/?referer=https://manganelo.com&url=https://s41.mkklcdnv6temp.com/mangakakalot/h2/hoozuki_no_shima/vol3_chapter_23_oreja_killed_tsutenai/11.jpg",
    "https://img-proxy.imgfo.com/?referer=https://manganelo.com&url=https://s41.mkklcdnv6temp.com/mangakakalot/h2/hoozuki_no_shima/vol3_chapter_23_oreja_killed_tsutenai/12.jpg",
    "https://img-proxy.imgfo.com/?referer=https://manganelo.com&url=https://s41.mkklcdnv6temp.com/mangakakalot/h2/hoozuki_no_shima/vol3_chapter_23_oreja_killed_tsutenai/13.jpg",
    "https://img-proxy.imgfo.com/?referer=https://manganelo.com&url=https://s41.mkklcdnv6temp.com/mangakakalot/h2/hoozuki_no_shima/vol3_chapter_23_oreja_killed_tsutenai/14.jpg",
    "https://img-proxy.imgfo.com/?referer=https://manganelo.com&url=https://s41.mkklcdnv6temp.com/mangakakalot/h2/hoozuki_no_shima/vol3_chapter_23_oreja_killed_tsutenai/15.jpg",
    "https://img-proxy.imgfo.com/?referer=https://manganelo.com&url=https://s41.mkklcdnv6temp.com/mangakakalot/h2/hoozuki_no_shima/vol3_chapter_23_oreja_killed_tsutenai/16.jpg",
    "https://img-proxy.imgfo.com/?referer=https://manganelo.com&url=https://s41.mkklcdnv6temp.com/mangakakalot/h2/hoozuki_no_shima/vol3_chapter_23_oreja_killed_tsutenai/17.jpg",
    "https://img-proxy.imgfo.com/?referer=https://manganelo.com&url=https://s41.mkklcdnv6temp.com/mangakakalot/h2/hoozuki_no_shima/vol3_chapter_23_oreja_killed_tsutenai/18.jpg",
    "https://img-proxy.imgfo.com/?referer=https://manganelo.com&url=https://s41.mkklcdnv6temp.com/mangakakalot/h2/hoozuki_no_shima/vol3_chapter_23_oreja_killed_tsutenai/19.jpg",
    "https://img-proxy.imgfo.com/?referer=https://manganelo.com&url=https://s41.mkklcdnv6temp.com/mangakakalot/h2/hoozuki_no_shima/vol3_chapter_23_oreja_killed_tsutenai/20.jpg",
    "https://img-proxy.imgfo.com/?referer=https://manganelo.com&url=https://s41.mkklcdnv6temp.com/mangakakalot/h2/hoozuki_no_shima/vol3_chapter_23_oreja_killed_tsutenai/21.jpg",
    "https://img-proxy.imgfo.com/?referer=https://manganelo.com&url=https://s41.mkklcdnv6temp.com/mangakakalot/h2/hoozuki_no_shima/vol3_chapter_23_oreja_killed_tsutenai/22.jpg",
    "https://img-proxy.imgfo.com/?referer=https://manganelo.com&url=https://s41.mkklcdnv6temp.com/mangakakalot/h2/hoozuki_no_shima/vol3_chapter_23_oreja_killed_tsutenai/23.jpg",
    "https://img-proxy.imgfo.com/?referer=https://manganelo.com&url=https://s41.mkklcdnv6temp.com/mangakakalot/h2/hoozuki_no_shima/vol3_chapter_23_oreja_killed_tsutenai/24.jpg"
  ]
}