{
  "cover": "https://avt.mkklcdnv6.com/26/t/19-1583500158.jpg",
  "title": "Mikisutori",
  "original": "Mextli ,Miquiztli ,Miquiztli - Reaper of the Sun ,Miquizztli - Taiyou no Shinigami ,ミキストリ ,ミキストリ -太陽の死神-,Miki Story ,Mextli - Taiyou no Shinigami",
  "genre": "Action, Adult, Ecchi, Seinen, Supernatural, Manga",
  "author": "Kouji Maki",
  "status": "Completed",
  "backlink": "https://manganu.com/collections/kouji-maki/mikisutori/",
  "description": "Yosuke Ejima and his wife Keiko are visiting Mexico to research ancient civilizations. Their bus is heading for the Teotihuacan ruins when they suddenly get involved in gang related violence. Can they survive...?!",
  "language": "English",
  "images": [
    "https://img-proxy.imgfo.com/?referer=https://manganelo.com&url=https://s41.mkklcdnv6temp.com/mangakakalot/i1/ih920650/vol12_the_war_god_tezcatlipoca/1.jpg",
    "https://img-proxy.imgfo.com/?referer=https://manganelo.com&url=https://s41.mkklcdnv6temp.com/mangakakalot/i1/ih920650/vol12_the_war_god_tezcatlipoca/2.jpg",
    "https://img-proxy.imgfo.com/?referer=https://manganelo.com&url=https://s41.mkklcdnv6temp.com/mangakakalot/i1/ih920650/vol12_the_war_god_tezcatlipoca/3.jpg",
    "https://img-proxy.imgfo.com/?referer=https://manganelo.com&url=https://s41.mkklcdnv6temp.com/mangakakalot/i1/ih920650/vol12_the_war_god_tezcatlipoca/4.jpg",
    "https://img-proxy.imgfo.com/?referer=https://manganelo.com&url=https://s41.mkklcdnv6temp.com/mangakakalot/i1/ih920650/vol12_the_war_god_tezcatlipoca/5.jpg",
    "https://img-proxy.imgfo.com/?referer=https://manganelo.com&url=https://s41.mkklcdnv6temp.com/mangakakalot/i1/ih920650/vol12_the_war_god_tezcatlipoca/6.jpg",
    "https://img-proxy.imgfo.com/?referer=https://manganelo.com&url=https://s41.mkklcdnv6temp.com/mangakakalot/i1/ih920650/vol12_the_war_god_tezcatlipoca/7.jpg",
    "https://img-proxy.imgfo.com/?referer=https://manganelo.com&url=https://s41.mkklcdnv6temp.com/mangakakalot/i1/ih920650/vol12_the_war_god_tezcatlipoca/8.jpg",
    "https://img-proxy.imgfo.com/?referer=https://manganelo.com&url=https://s41.mkklcdnv6temp.com/mangakakalot/i1/ih920650/vol12_the_war_god_tezcatlipoca/9.jpg",
    "https://img-proxy.imgfo.com/?referer=https://manganelo.com&url=https://s41.mkklcdnv6temp.com/mangakakalot/i1/ih920650/vol12_the_war_god_tezcatlipoca/10.jpg",
    "https://img-proxy.imgfo.com/?referer=https://manganelo.com&url=https://s41.mkklcdnv6temp.com/mangakakalot/i1/ih920650/vol12_the_war_god_tezcatlipoca/11.jpg",
    "https://img-proxy.imgfo.com/?referer=https://manganelo.com&url=https://s41.mkklcdnv6temp.com/mangakakalot/i1/ih920650/vol12_the_war_god_tezcatlipoca/12.jpg",
    "https://img-proxy.imgfo.com/?referer=https://manganelo.com&url=https://s41.mkklcdnv6temp.com/mangakakalot/i1/ih920650/vol12_the_war_god_tezcatlipoca/13.jpg",
    "https://img-proxy.imgfo.com/?referer=https://manganelo.com&url=https://s41.mkklcdnv6temp.com/mangakakalot/i1/ih920650/vol12_the_war_god_tezcatlipoca/14.jpg",
    "https://img-proxy.imgfo.com/?referer=https://manganelo.com&url=https://s41.mkklcdnv6temp.com/mangakakalot/i1/ih920650/vol12_the_war_god_tezcatlipoca/15.jpg",
    "https://img-proxy.imgfo.com/?referer=https://manganelo.com&url=https://s41.mkklcdnv6temp.com/mangakakalot/i1/ih920650/vol12_the_war_god_tezcatlipoca/16.jpg",
    "https://img-proxy.imgfo.com/?referer=https://manganelo.com&url=https://s41.mkklcdnv6temp.com/mangakakalot/i1/ih920650/vol12_the_war_god_tezcatlipoca/17.jpg",
    "https://img-proxy.imgfo.com/?referer=https://manganelo.com&url=https://s41.mkklcdnv6temp.com/mangakakalot/i1/ih920650/vol12_the_war_god_tezcatlipoca/18.jpg",
    "https://img-proxy.imgfo.com/?referer=https://manganelo.com&url=https://s41.mkklcdnv6temp.com/mangakakalot/i1/ih920650/vol12_the_war_god_tezcatlipoca/19.jpg",
    "https://img-proxy.imgfo.com/?referer=https://manganelo.com&url=https://s41.mkklcdnv6temp.com/mangakakalot/i1/ih920650/vol12_the_war_god_tezcatlipoca/20.jpg",
    "https://img-proxy.imgfo.com/?referer=https://manganelo.com&url=https://s41.mkklcdnv6temp.com/mangakakalot/i1/ih920650/vol12_the_war_god_tezcatlipoca/21.jpg",
    "https://img-proxy.imgfo.com/?referer=https://manganelo.com&url=https://s41.mkklcdnv6temp.com/mangakakalot/i1/ih920650/vol12_the_war_god_tezcatlipoca/22.jpg"
  ]
}