{
  "cover": "https://avt.mkklcdnv6.com/26/t/19-1583500158.jpg",
  "title": "Mikisutori",
  "original": "Mextli ,Miquiztli ,Miquiztli - Reaper of the Sun ,Miquizztli - Taiyou no Shinigami ,ミキストリ ,ミキストリ -太陽の死神-,Miki Story ,Mextli - Taiyou no Shinigami",
  "genre": "Action, Adult, Ecchi, Seinen, Supernatural, Manga",
  "author": "Kouji Maki",
  "status": "Completed",
  "backlink": "https://manganu.com/collections/kouji-maki/mikisutori/",
  "description": "Yosuke Ejima and his wife Keiko are visiting Mexico to research ancient civilizations. Their bus is heading for the Teotihuacan ruins when they suddenly get involved in gang related violence. Can they survive...?!",
  "language": "English",
  "images": [
    "https://img-proxy.imgfo.com/?referer=https://manganelo.com&url=https://s41.mkklcdnv6temp.com/mangakakalot/i1/ih920650/vol4_dr_loki/1.jpg",
    "https://img-proxy.imgfo.com/?referer=https://manganelo.com&url=https://s41.mkklcdnv6temp.com/mangakakalot/i1/ih920650/vol4_dr_loki/2.jpg",
    "https://img-proxy.imgfo.com/?referer=https://manganelo.com&url=https://s41.mkklcdnv6temp.com/mangakakalot/i1/ih920650/vol4_dr_loki/3.jpg",
    "https://img-proxy.imgfo.com/?referer=https://manganelo.com&url=https://s41.mkklcdnv6temp.com/mangakakalot/i1/ih920650/vol4_dr_loki/4.jpg",
    "https://img-proxy.imgfo.com/?referer=https://manganelo.com&url=https://s41.mkklcdnv6temp.com/mangakakalot/i1/ih920650/vol4_dr_loki/5.jpg",
    "https://img-proxy.imgfo.com/?referer=https://manganelo.com&url=https://s41.mkklcdnv6temp.com/mangakakalot/i1/ih920650/vol4_dr_loki/6.jpg",
    "https://img-proxy.imgfo.com/?referer=https://manganelo.com&url=https://s41.mkklcdnv6temp.com/mangakakalot/i1/ih920650/vol4_dr_loki/7.jpg",
    "https://img-proxy.imgfo.com/?referer=https://manganelo.com&url=https://s41.mkklcdnv6temp.com/mangakakalot/i1/ih920650/vol4_dr_loki/8.jpg",
    "https://img-proxy.imgfo.com/?referer=https://manganelo.com&url=https://s41.mkklcdnv6temp.com/mangakakalot/i1/ih920650/vol4_dr_loki/9.jpg",
    "https://img-proxy.imgfo.com/?referer=https://manganelo.com&url=https://s41.mkklcdnv6temp.com/mangakakalot/i1/ih920650/vol4_dr_loki/10.jpg",
    "https://img-proxy.imgfo.com/?referer=https://manganelo.com&url=https://s41.mkklcdnv6temp.com/mangakakalot/i1/ih920650/vol4_dr_loki/11.jpg",
    "https://img-proxy.imgfo.com/?referer=https://manganelo.com&url=https://s41.mkklcdnv6temp.com/mangakakalot/i1/ih920650/vol4_dr_loki/12.jpg",
    "https://img-proxy.imgfo.com/?referer=https://manganelo.com&url=https://s41.mkklcdnv6temp.com/mangakakalot/i1/ih920650/vol4_dr_loki/13.jpg",
    "https://img-proxy.imgfo.com/?referer=https://manganelo.com&url=https://s41.mkklcdnv6temp.com/mangakakalot/i1/ih920650/vol4_dr_loki/14.jpg",
    "https://img-proxy.imgfo.com/?referer=https://manganelo.com&url=https://s41.mkklcdnv6temp.com/mangakakalot/i1/ih920650/vol4_dr_loki/15.jpg",
    "https://img-proxy.imgfo.com/?referer=https://manganelo.com&url=https://s41.mkklcdnv6temp.com/mangakakalot/i1/ih920650/vol4_dr_loki/16.jpg",
    "https://img-proxy.imgfo.com/?referer=https://manganelo.com&url=https://s41.mkklcdnv6temp.com/mangakakalot/i1/ih920650/vol4_dr_loki/17.jpg",
    "https://img-proxy.imgfo.com/?referer=https://manganelo.com&url=https://s41.mkklcdnv6temp.com/mangakakalot/i1/ih920650/vol4_dr_loki/18.jpg",
    "https://img-proxy.imgfo.com/?referer=https://manganelo.com&url=https://s41.mkklcdnv6temp.com/mangakakalot/i1/ih920650/vol4_dr_loki/19.jpg",
    "https://img-proxy.imgfo.com/?referer=https://manganelo.com&url=https://s41.mkklcdnv6temp.com/mangakakalot/i1/ih920650/vol4_dr_loki/20.jpg",
    "https://img-proxy.imgfo.com/?referer=https://manganelo.com&url=https://s41.mkklcdnv6temp.com/mangakakalot/i1/ih920650/vol4_dr_loki/21.jpg",
    "https://img-proxy.imgfo.com/?referer=https://manganelo.com&url=https://s41.mkklcdnv6temp.com/mangakakalot/i1/ih920650/vol4_dr_loki/22.jpg",
    "https://img-proxy.imgfo.com/?referer=https://manganelo.com&url=https://s41.mkklcdnv6temp.com/mangakakalot/i1/ih920650/vol4_dr_loki/23.jpg",
    "https://img-proxy.imgfo.com/?referer=https://manganelo.com&url=https://s41.mkklcdnv6temp.com/mangakakalot/i1/ih920650/vol4_dr_loki/24.jpg",
    "https://img-proxy.imgfo.com/?referer=https://manganelo.com&url=https://s41.mkklcdnv6temp.com/mangakakalot/i1/ih920650/vol4_dr_loki/25.jpg",
    "https://img-proxy.imgfo.com/?referer=https://manganelo.com&url=https://s41.mkklcdnv6temp.com/mangakakalot/i1/ih920650/vol4_dr_loki/26.jpg",
    "https://img-proxy.imgfo.com/?referer=https://manganelo.com&url=https://s41.mkklcdnv6temp.com/mangakakalot/i1/ih920650/vol4_dr_loki/27.jpg",
    "https://img-proxy.imgfo.com/?referer=https://manganelo.com&url=https://s41.mkklcdnv6temp.com/mangakakalot/i1/ih920650/vol4_dr_loki/28.jpg"
  ]
}