{
  "cover": "https://avt.mkklcdnv6.com/42/c/6-1583475899.jpg",
  "title": "Black Rock Shooter: The Game",
  "original": "マジキュー４コマブラック★ロックシューターＴＨＥ ＧＡＭＥ ; Black Rock Shooter - The Game ; Black Rock Shooter the Game ; Black★Rockshooter the Game",
  "genre": "Shounen, Manga",
  "author": "Huke",
  "status": "Completed",
  "backlink": "https://manganu.com/collections/huke/black-rock-shooter-the-game/",
  "description": "In the year 2032, Earth suffers from a sudden invasion by alien forces. Nineteen years passed after that event, and with chaos ruling the globe, the only way to rescue the world from utter destruction is to survive and fight against those who force Earth into complete annihilation.\nBlack Rock Shooter (in the game a “living weapon” designated with the name BRS), is entrusted with the responsibility to protect mankind, possessing the abilities to fight against the invaders as the ultimate weapon. She emerges from the ruins of San Francisco, and witnesses an amassing of surviving troops which becomes her support throughout her mission.",
  "language": "English",
  "images": [
    "https://img-proxy.imgfo.com/?referer=https://manganelo.com&url=https://s5.mkklcdnv6temp.com/mangakakalot/b1/black_rock_shooter_the_game/vol1_chapter_65_black_rock_school/1.jpg",
    "https://img-proxy.imgfo.com/?referer=https://manganelo.com&url=https://s5.mkklcdnv6temp.com/mangakakalot/b1/black_rock_shooter_the_game/vol1_chapter_65_black_rock_school/2.jpg",
    "https://img-proxy.imgfo.com/?referer=https://manganelo.com&url=https://s5.mkklcdnv6temp.com/mangakakalot/b1/black_rock_shooter_the_game/vol1_chapter_65_black_rock_school/3.jpg",
    "https://img-proxy.imgfo.com/?referer=https://manganelo.com&url=https://s5.mkklcdnv6temp.com/mangakakalot/b1/black_rock_shooter_the_game/vol1_chapter_65_black_rock_school/4.jpg",
    "https://img-proxy.imgfo.com/?referer=https://manganelo.com&url=https://s5.mkklcdnv6temp.com/mangakakalot/b1/black_rock_shooter_the_game/vol1_chapter_65_black_rock_school/5.jpg",
    "https://img-proxy.imgfo.com/?referer=https://manganelo.com&url=https://s5.mkklcdnv6temp.com/mangakakalot/b1/black_rock_shooter_the_game/vol1_chapter_65_black_rock_school/6.jpg"
  ]
}