{
  "cover": "https://avt.mkklcdnv6.com/50/q/2-1583467650.jpg",
  "title": "To-Love-Ru",
  "original": "とらぶる ; 出包王女 ; To Love Ru ; To Love You ; To Love You - Trouble ; To LOVEる -とらぶる- ; To-LOVE-Ru ; To-LOVE-Ru - Trouble - ; To-Rabu-Ru ; Trouble - To-Rabu-Ru ; Trouble Love - To Rabu Ru ; To Love-Ru",
  "genre": "Comedy, Ecchi, Harem, Romance, School life, Sci fi, Shounen, Supernatural, Manga",
  "author": "Hasemi Saki",
  "status": "Completed",
  "backlink": "https://manganu.com/collections/hasemi-saki/to-love-ru/",
  "description": "Rito is a high-school boy who just can&#39;t confess to the girl of his dreams, Haruna-chan. One day when coming home and sulking in the bath-tub, a mysterious and barely clothed girl appears out of nowhere. Her name is Lala and she comes from another planet...",
  "language": "English",
  "images": [
    "https://img-proxy.imgfo.com/?referer=https://manganelo.com&url=https://s6.mkklcdnv6temp.com/mangakakalot/t2/toloveru/vol9_chapter_73_bad_mood_good_mood/1.jpg",
    "https://img-proxy.imgfo.com/?referer=https://manganelo.com&url=https://s6.mkklcdnv6temp.com/mangakakalot/t2/toloveru/vol9_chapter_73_bad_mood_good_mood/2.jpg",
    "https://img-proxy.imgfo.com/?referer=https://manganelo.com&url=https://s6.mkklcdnv6temp.com/mangakakalot/t2/toloveru/vol9_chapter_73_bad_mood_good_mood/3.jpg",
    "https://img-proxy.imgfo.com/?referer=https://manganelo.com&url=https://s6.mkklcdnv6temp.com/mangakakalot/t2/toloveru/vol9_chapter_73_bad_mood_good_mood/4.jpg",
    "https://img-proxy.imgfo.com/?referer=https://manganelo.com&url=https://s6.mkklcdnv6temp.com/mangakakalot/t2/toloveru/vol9_chapter_73_bad_mood_good_mood/5.jpg",
    "https://img-proxy.imgfo.com/?referer=https://manganelo.com&url=https://s6.mkklcdnv6temp.com/mangakakalot/t2/toloveru/vol9_chapter_73_bad_mood_good_mood/6.jpg",
    "https://img-proxy.imgfo.com/?referer=https://manganelo.com&url=https://s6.mkklcdnv6temp.com/mangakakalot/t2/toloveru/vol9_chapter_73_bad_mood_good_mood/7.jpg",
    "https://img-proxy.imgfo.com/?referer=https://manganelo.com&url=https://s6.mkklcdnv6temp.com/mangakakalot/t2/toloveru/vol9_chapter_73_bad_mood_good_mood/8.jpg",
    "https://img-proxy.imgfo.com/?referer=https://manganelo.com&url=https://s6.mkklcdnv6temp.com/mangakakalot/t2/toloveru/vol9_chapter_73_bad_mood_good_mood/9.jpg",
    "https://img-proxy.imgfo.com/?referer=https://manganelo.com&url=https://s6.mkklcdnv6temp.com/mangakakalot/t2/toloveru/vol9_chapter_73_bad_mood_good_mood/10.jpg",
    "https://img-proxy.imgfo.com/?referer=https://manganelo.com&url=https://s6.mkklcdnv6temp.com/mangakakalot/t2/toloveru/vol9_chapter_73_bad_mood_good_mood/11.jpg",
    "https://img-proxy.imgfo.com/?referer=https://manganelo.com&url=https://s6.mkklcdnv6temp.com/mangakakalot/t2/toloveru/vol9_chapter_73_bad_mood_good_mood/12.jpg",
    "https://img-proxy.imgfo.com/?referer=https://manganelo.com&url=https://s6.mkklcdnv6temp.com/mangakakalot/t2/toloveru/vol9_chapter_73_bad_mood_good_mood/13.jpg",
    "https://img-proxy.imgfo.com/?referer=https://manganelo.com&url=https://s6.mkklcdnv6temp.com/mangakakalot/t2/toloveru/vol9_chapter_73_bad_mood_good_mood/14.jpg",
    "https://img-proxy.imgfo.com/?referer=https://manganelo.com&url=https://s6.mkklcdnv6temp.com/mangakakalot/t2/toloveru/vol9_chapter_73_bad_mood_good_mood/15.jpg",
    "https://img-proxy.imgfo.com/?referer=https://manganelo.com&url=https://s6.mkklcdnv6temp.com/mangakakalot/t2/toloveru/vol9_chapter_73_bad_mood_good_mood/16.jpg",
    "https://img-proxy.imgfo.com/?referer=https://manganelo.com&url=https://s6.mkklcdnv6temp.com/mangakakalot/t2/toloveru/vol9_chapter_73_bad_mood_good_mood/17.jpg",
    "https://img-proxy.imgfo.com/?referer=https://manganelo.com&url=https://s6.mkklcdnv6temp.com/mangakakalot/t2/toloveru/vol9_chapter_73_bad_mood_good_mood/18.jpg",
    "https://img-proxy.imgfo.com/?referer=https://manganelo.com&url=https://s6.mkklcdnv6temp.com/mangakakalot/t2/toloveru/vol9_chapter_73_bad_mood_good_mood/19.jpg",
    "https://img-proxy.imgfo.com/?referer=https://manganelo.com&url=https://s6.mkklcdnv6temp.com/mangakakalot/t2/toloveru/vol9_chapter_73_bad_mood_good_mood/20.jpg",
    "https://img-proxy.imgfo.com/?referer=https://manganelo.com&url=https://s6.mkklcdnv6temp.com/mangakakalot/t2/toloveru/vol9_chapter_73_bad_mood_good_mood/21.jpg"
  ]
}