{
  "cover": "https://avt.mkklcdnv6.com/10/b/8-1583478559.jpg",
  "title": "Gunsmith Cats",
  "original": "ガンスミスキャッツ ; Gun Smith Cats",
  "genre": "Action, Adventure, Ecchi, Mature, Seinen, Manga",
  "author": "Sonoda Kenichi",
  "status": "Completed",
  "backlink": "https://manganu.com/collections/sonoda-kenichi/gunsmith-cats/",
  "description": "Taking place in a four year period, the story centers on two young women, 19-year old Irene \"Rally\" Vincent and her partner, 17-year old \"Minnie\" May Hopkins.\nRally and May operate the titular \"Gunsmith Cats\" gunshop in Chicago, Illinois. Rally also works as a bounty hunter, assisted by May, which is the impetus behind many of the stories.\nFrom Baka-Updates:\nGirls, guns, and grenades! Meet Rally Vincent and Minnie May. By day, they work at the Chicago gun shop that they own. By night (or holidays or week-ends), they moonlight as a pair of bounty hunters called the Gunsmith Cats. Rally is an expert at firearms, being able to judge the condition of a gun with a glance, and being an expert marksman. Minnie May is younger and less disciplined; and has an absolute fascination with explosives. Lots of explosives. Especially big ones. Together, they form an unbeatable team; much to the consternation of the local ATF bureau. Set in the city of Chicago, this action-adventure series features a lot of gunfights, car chases, and general mayhem.",
  "language": "English",
  "images": [
    "https://img-proxy.imgfo.com/?referer=https://manganelo.com&url=https://s3.mkklcdnv6temp.com/mangakakalot/g2/gunsmith_cats/vol4_chapter_6/1.jpg",
    "https://img-proxy.imgfo.com/?referer=https://manganelo.com&url=https://s3.mkklcdnv6temp.com/mangakakalot/g2/gunsmith_cats/vol4_chapter_6/2.jpg",
    "https://img-proxy.imgfo.com/?referer=https://manganelo.com&url=https://s3.mkklcdnv6temp.com/mangakakalot/g2/gunsmith_cats/vol4_chapter_6/3.jpg",
    "https://img-proxy.imgfo.com/?referer=https://manganelo.com&url=https://s3.mkklcdnv6temp.com/mangakakalot/g2/gunsmith_cats/vol4_chapter_6/4.jpg",
    "https://img-proxy.imgfo.com/?referer=https://manganelo.com&url=https://s3.mkklcdnv6temp.com/mangakakalot/g2/gunsmith_cats/vol4_chapter_6/5.jpg",
    "https://img-proxy.imgfo.com/?referer=https://manganelo.com&url=https://s3.mkklcdnv6temp.com/mangakakalot/g2/gunsmith_cats/vol4_chapter_6/6.jpg",
    "https://img-proxy.imgfo.com/?referer=https://manganelo.com&url=https://s3.mkklcdnv6temp.com/mangakakalot/g2/gunsmith_cats/vol4_chapter_6/7.jpg",
    "https://img-proxy.imgfo.com/?referer=https://manganelo.com&url=https://s3.mkklcdnv6temp.com/mangakakalot/g2/gunsmith_cats/vol4_chapter_6/8.jpg",
    "https://img-proxy.imgfo.com/?referer=https://manganelo.com&url=https://s3.mkklcdnv6temp.com/mangakakalot/g2/gunsmith_cats/vol4_chapter_6/9.jpg",
    "https://img-proxy.imgfo.com/?referer=https://manganelo.com&url=https://s3.mkklcdnv6temp.com/mangakakalot/g2/gunsmith_cats/vol4_chapter_6/10.jpg",
    "https://img-proxy.imgfo.com/?referer=https://manganelo.com&url=https://s3.mkklcdnv6temp.com/mangakakalot/g2/gunsmith_cats/vol4_chapter_6/11.jpg",
    "https://img-proxy.imgfo.com/?referer=https://manganelo.com&url=https://s3.mkklcdnv6temp.com/mangakakalot/g2/gunsmith_cats/vol4_chapter_6/12.jpg",
    "https://img-proxy.imgfo.com/?referer=https://manganelo.com&url=https://s3.mkklcdnv6temp.com/mangakakalot/g2/gunsmith_cats/vol4_chapter_6/13.jpg",
    "https://img-proxy.imgfo.com/?referer=https://manganelo.com&url=https://s3.mkklcdnv6temp.com/mangakakalot/g2/gunsmith_cats/vol4_chapter_6/14.jpg",
    "https://img-proxy.imgfo.com/?referer=https://manganelo.com&url=https://s3.mkklcdnv6temp.com/mangakakalot/g2/gunsmith_cats/vol4_chapter_6/15.jpg",
    "https://img-proxy.imgfo.com/?referer=https://manganelo.com&url=https://s3.mkklcdnv6temp.com/mangakakalot/g2/gunsmith_cats/vol4_chapter_6/16.jpg"
  ]
}