{
  "cover": "https://avt.mkklcdnv6.com/16/d/6-1583474802.jpg",
  "title": "Fever",
  "original": "FEVƎR",
  "genre": "Drama, School life, Shoujo, Slice of life, Manga",
  "author": "Park Hee Jung",
  "status": "Completed",
  "backlink": "https://manganu.com/collections/park-hee-jung/fever/",
  "description": "This series is not about romance exactly but does contain the element for it. This series mainly focuses on overcoming the main characters' hardships. Each characters have a different hardship. There is really nothing more to mention about the plot.\nIt starts with a school girl who has trouble with her surroundings. It all started when her classmate was bullied and eventually committed suicide. Being a part of the group that bullied the girl, she feels extremely guilty. Her life becomes meaningless and she wants to end it.",
  "language": "English",
  "images": [
    "https://img-proxy.imgfo.com/?referer=https://manganelo.com&url=https://s41.mkklcdnv6temp.com/mangakakalot/f1/fever/vol03_chapter_9/1.jpg",
    "https://img-proxy.imgfo.com/?referer=https://manganelo.com&url=https://s41.mkklcdnv6temp.com/mangakakalot/f1/fever/vol03_chapter_9/2.jpg",
    "https://img-proxy.imgfo.com/?referer=https://manganelo.com&url=https://s41.mkklcdnv6temp.com/mangakakalot/f1/fever/vol03_chapter_9/3.jpg",
    "https://img-proxy.imgfo.com/?referer=https://manganelo.com&url=https://s41.mkklcdnv6temp.com/mangakakalot/f1/fever/vol03_chapter_9/4.jpg",
    "https://img-proxy.imgfo.com/?referer=https://manganelo.com&url=https://s41.mkklcdnv6temp.com/mangakakalot/f1/fever/vol03_chapter_9/5.jpg",
    "https://img-proxy.imgfo.com/?referer=https://manganelo.com&url=https://s41.mkklcdnv6temp.com/mangakakalot/f1/fever/vol03_chapter_9/6.jpg",
    "https://img-proxy.imgfo.com/?referer=https://manganelo.com&url=https://s41.mkklcdnv6temp.com/mangakakalot/f1/fever/vol03_chapter_9/7.jpg",
    "https://img-proxy.imgfo.com/?referer=https://manganelo.com&url=https://s41.mkklcdnv6temp.com/mangakakalot/f1/fever/vol03_chapter_9/8.jpg",
    "https://img-proxy.imgfo.com/?referer=https://manganelo.com&url=https://s41.mkklcdnv6temp.com/mangakakalot/f1/fever/vol03_chapter_9/9.jpg",
    "https://img-proxy.imgfo.com/?referer=https://manganelo.com&url=https://s41.mkklcdnv6temp.com/mangakakalot/f1/fever/vol03_chapter_9/10.jpg",
    "https://img-proxy.imgfo.com/?referer=https://manganelo.com&url=https://s41.mkklcdnv6temp.com/mangakakalot/f1/fever/vol03_chapter_9/11.jpg",
    "https://img-proxy.imgfo.com/?referer=https://manganelo.com&url=https://s41.mkklcdnv6temp.com/mangakakalot/f1/fever/vol03_chapter_9/12.jpg",
    "https://img-proxy.imgfo.com/?referer=https://manganelo.com&url=https://s41.mkklcdnv6temp.com/mangakakalot/f1/fever/vol03_chapter_9/13.jpg",
    "https://img-proxy.imgfo.com/?referer=https://manganelo.com&url=https://s41.mkklcdnv6temp.com/mangakakalot/f1/fever/vol03_chapter_9/14.jpg",
    "https://img-proxy.imgfo.com/?referer=https://manganelo.com&url=https://s41.mkklcdnv6temp.com/mangakakalot/f1/fever/vol03_chapter_9/15.jpg",
    "https://img-proxy.imgfo.com/?referer=https://manganelo.com&url=https://s41.mkklcdnv6temp.com/mangakakalot/f1/fever/vol03_chapter_9/16.jpg"
  ]
}