{
  "cover": "https://avt.mkklcdnv6.com/47/c/3-1583469533.jpg",
  "title": "07-Ghost",
  "original": "セブンゴースト ; 神幻拍挡07 ; 07 Ghost ; 7-Ghost ; Sebun Gousuto ; Seven Ghosts ; الأشباح السبعة ; 七鬼神 ; Siete Fantasmas ; 07-Fantasmas ; Pitong - Multo (Filipino) ; 07-Fantômes; read 07 Ghost manga",
  "genre": "Action, Adult, Adventure, Comedy, Cooking, Doujinshi, Drama, Fantasy, Josei, Mystery, Supernatural, Tragedy, Manga",
  "author": "Amemiya Yuki",
  "status": "Completed",
  "backlink": "https://manganu.com/collections/amemiya-yuki/07-ghost/",
  "description": "Teito Klein is a former slave who now attends the Barsburg Empire&#39;s military academy because of his capability to use a sort of unnatural power, Zaiphon. The skill is uncommon and therefore highly prized.\n\nTeito is an amnesiac who often has dreams that are awful. The night time prior to Teito the graduation test and his only friend, Mikage, vow they&#39;ll not ever left each other. Teito overhears people talking about him, a day later. Ceasing to hear, he suddenly understands that Chief of Staff Ayanami, the loudspeaker, is the one who killed the guy that is recognizable in his fantasies: the king of the ruined Raggs Kingdom, his dad. One of his subordinates is found eavesdropping and attempts to assault Ayanami but immediately brings down Teito and sent to jail. Mikage comes to help him escape, and then discover that Teito has managed to fight by himself past the guards. The two flee through the creating but are cornered on a balcony. Although a Zaiphon blast wounds him that he is directed at by Ayanami Teito feigns to hold Mikage hostage, then makes his getaway. Three bishops in the nearby 7th District find the wounded Teito and consider him to a closeby church to recuperate, where he&#39;s shielded due to the law of safety of the 7th District.\n\nIn due time, it&#39;s found that Teito takes the Eye of Mikhail, a strong talisman for which his home land was ruined. This reality, along with a reunion that is fateful, catapults Teito in to a pursuit of vengeance from the Barsburg Empire as well as for information about his earlier. In once, he is thrown by his position as the bearer of the Eye of Mikhail in to the longstanding battle involving the bad Verloren the 07 Ghosts, and his adversaries.",
  "language": "English",
  "images": [
    "https://img-proxy.imgfo.com/?referer=https://manganelo.com&url=https://s6.mkklcdnv6temp.com/mangakakalot/02/07ghost/vol7_chapter_37_kapitel_37_recollection/1.jpg",
    "https://img-proxy.imgfo.com/?referer=https://manganelo.com&url=https://s6.mkklcdnv6temp.com/mangakakalot/02/07ghost/vol7_chapter_37_kapitel_37_recollection/2.jpg",
    "https://img-proxy.imgfo.com/?referer=https://manganelo.com&url=https://s6.mkklcdnv6temp.com/mangakakalot/02/07ghost/vol7_chapter_37_kapitel_37_recollection/3.jpg",
    "https://img-proxy.imgfo.com/?referer=https://manganelo.com&url=https://s6.mkklcdnv6temp.com/mangakakalot/02/07ghost/vol7_chapter_37_kapitel_37_recollection/4.jpg",
    "https://img-proxy.imgfo.com/?referer=https://manganelo.com&url=https://s6.mkklcdnv6temp.com/mangakakalot/02/07ghost/vol7_chapter_37_kapitel_37_recollection/5.jpg",
    "https://img-proxy.imgfo.com/?referer=https://manganelo.com&url=https://s6.mkklcdnv6temp.com/mangakakalot/02/07ghost/vol7_chapter_37_kapitel_37_recollection/6.jpg",
    "https://img-proxy.imgfo.com/?referer=https://manganelo.com&url=https://s6.mkklcdnv6temp.com/mangakakalot/02/07ghost/vol7_chapter_37_kapitel_37_recollection/7.jpg",
    "https://img-proxy.imgfo.com/?referer=https://manganelo.com&url=https://s6.mkklcdnv6temp.com/mangakakalot/02/07ghost/vol7_chapter_37_kapitel_37_recollection/8.jpg",
    "https://img-proxy.imgfo.com/?referer=https://manganelo.com&url=https://s6.mkklcdnv6temp.com/mangakakalot/02/07ghost/vol7_chapter_37_kapitel_37_recollection/9.jpg",
    "https://img-proxy.imgfo.com/?referer=https://manganelo.com&url=https://s6.mkklcdnv6temp.com/mangakakalot/02/07ghost/vol7_chapter_37_kapitel_37_recollection/10.jpg",
    "https://img-proxy.imgfo.com/?referer=https://manganelo.com&url=https://s6.mkklcdnv6temp.com/mangakakalot/02/07ghost/vol7_chapter_37_kapitel_37_recollection/11.jpg",
    "https://img-proxy.imgfo.com/?referer=https://manganelo.com&url=https://s6.mkklcdnv6temp.com/mangakakalot/02/07ghost/vol7_chapter_37_kapitel_37_recollection/12.jpg",
    "https://img-proxy.imgfo.com/?referer=https://manganelo.com&url=https://s6.mkklcdnv6temp.com/mangakakalot/02/07ghost/vol7_chapter_37_kapitel_37_recollection/13.jpg",
    "https://img-proxy.imgfo.com/?referer=https://manganelo.com&url=https://s6.mkklcdnv6temp.com/mangakakalot/02/07ghost/vol7_chapter_37_kapitel_37_recollection/14.jpg",
    "https://img-proxy.imgfo.com/?referer=https://manganelo.com&url=https://s6.mkklcdnv6temp.com/mangakakalot/02/07ghost/vol7_chapter_37_kapitel_37_recollection/15.jpg",
    "https://img-proxy.imgfo.com/?referer=https://manganelo.com&url=https://s6.mkklcdnv6temp.com/mangakakalot/02/07ghost/vol7_chapter_37_kapitel_37_recollection/16.jpg",
    "https://img-proxy.imgfo.com/?referer=https://manganelo.com&url=https://s6.mkklcdnv6temp.com/mangakakalot/02/07ghost/vol7_chapter_37_kapitel_37_recollection/17.jpg",
    "https://img-proxy.imgfo.com/?referer=https://manganelo.com&url=https://s6.mkklcdnv6temp.com/mangakakalot/02/07ghost/vol7_chapter_37_kapitel_37_recollection/18.jpg",
    "https://img-proxy.imgfo.com/?referer=https://manganelo.com&url=https://s6.mkklcdnv6temp.com/mangakakalot/02/07ghost/vol7_chapter_37_kapitel_37_recollection/19.jpg",
    "https://img-proxy.imgfo.com/?referer=https://manganelo.com&url=https://s6.mkklcdnv6temp.com/mangakakalot/02/07ghost/vol7_chapter_37_kapitel_37_recollection/20.jpg",
    "https://img-proxy.imgfo.com/?referer=https://manganelo.com&url=https://s6.mkklcdnv6temp.com/mangakakalot/02/07ghost/vol7_chapter_37_kapitel_37_recollection/21.jpg",
    "https://img-proxy.imgfo.com/?referer=https://manganelo.com&url=https://s6.mkklcdnv6temp.com/mangakakalot/02/07ghost/vol7_chapter_37_kapitel_37_recollection/22.jpg",
    "https://img-proxy.imgfo.com/?referer=https://manganelo.com&url=https://s6.mkklcdnv6temp.com/mangakakalot/02/07ghost/vol7_chapter_37_kapitel_37_recollection/23.jpg",
    "https://img-proxy.imgfo.com/?referer=https://manganelo.com&url=https://s6.mkklcdnv6temp.com/mangakakalot/02/07ghost/vol7_chapter_37_kapitel_37_recollection/24.jpg",
    "https://img-proxy.imgfo.com/?referer=https://manganelo.com&url=https://s6.mkklcdnv6temp.com/mangakakalot/02/07ghost/vol7_chapter_37_kapitel_37_recollection/25.jpg",
    "https://img-proxy.imgfo.com/?referer=https://manganelo.com&url=https://s6.mkklcdnv6temp.com/mangakakalot/02/07ghost/vol7_chapter_37_kapitel_37_recollection/26.jpg",
    "https://img-proxy.imgfo.com/?referer=https://manganelo.com&url=https://s6.mkklcdnv6temp.com/mangakakalot/02/07ghost/vol7_chapter_37_kapitel_37_recollection/27.jpg"
  ]
}