{
  "cover": "https://avt.mkklcdnv6.com/11/q/7-1583476724.jpg",
  "title": "100% Gokuama Kareshi!",
  "original": "100% Go Akuma Kareshi ; 100% Gokuama Kareshi ; 100% Gokuamai Kareshi! ; 100% Very Sweet Boyfriends! ; 100％極甘彼氏！",
  "genre": "Drama, Romance, School life, Shoujo, Tragedy, Manga",
  "author": "Anthology",
  "status": "Completed",
  "backlink": "https://manganu.com/collections/anthology/100percent-gokuama-kareshi/",
  "description": "From Midnight Scans:\nA sweet love story that will melt your heart!\nA gathering of the sweetest boyfriends.\n“No matter where you are or the time of day, I will protect you.”\nStory 1 Kodomo Jya, Naino (Yoshioka Ririko)\nNono and Ryou are childhood friends. When they were younger, Nono always saved Ryou, but...?!\nStory 2 Natsu ga Chikai (Kimura Ayako)\nI like Tsuji Hideto, and in order to be able to speak with him every day, I purposely violate school regulations.\nStory 3 HOLE - Kirameku Sekai (Takahashi Rie)\nI never confessed my feelings to my unrequited love. In order to change a life of regret now, she goes through the opening!\nStory 4 BURNIN' VALENTINE (Higurashi Kinoko)\nKazuki and Souma have been \"friends\" for three years. Kazuki has finally decided to make a love confession and she tries to give him handmade chocolates, but...?!\nStory 5 Koizaki (Higuchi Megumi)\nDestiny put us in the same class!! It is extremely dangerous to be in the same class as the one I like!! Will my love blossom like a cherry blossom?!\nStory 6 Mame to Kurasu (Okinoko)\nThe extremely sweet, lovey-dovey (?) relationship of the mysterious rabbit that shape shifts, Mame, and and the male high school student, Makoto, who live together, drawn in 4 frames!!",
  "language": "English",
  "images": [
    "https://img-proxy.imgfo.com/?referer=https://manganelo.com&url=https://s7.mkklcdnv6temp.com/mangakakalot/02/100_gokuama_kareshi/vol1_chapter_2/1.jpg",
    "https://img-proxy.imgfo.com/?referer=https://manganelo.com&url=https://s7.mkklcdnv6temp.com/mangakakalot/02/100_gokuama_kareshi/vol1_chapter_2/2.jpg",
    "https://img-proxy.imgfo.com/?referer=https://manganelo.com&url=https://s7.mkklcdnv6temp.com/mangakakalot/02/100_gokuama_kareshi/vol1_chapter_2/3.jpg",
    "https://img-proxy.imgfo.com/?referer=https://manganelo.com&url=https://s7.mkklcdnv6temp.com/mangakakalot/02/100_gokuama_kareshi/vol1_chapter_2/4.jpg",
    "https://img-proxy.imgfo.com/?referer=https://manganelo.com&url=https://s7.mkklcdnv6temp.com/mangakakalot/02/100_gokuama_kareshi/vol1_chapter_2/5.jpg",
    "https://img-proxy.imgfo.com/?referer=https://manganelo.com&url=https://s7.mkklcdnv6temp.com/mangakakalot/02/100_gokuama_kareshi/vol1_chapter_2/6.jpg",
    "https://img-proxy.imgfo.com/?referer=https://manganelo.com&url=https://s7.mkklcdnv6temp.com/mangakakalot/02/100_gokuama_kareshi/vol1_chapter_2/7.jpg",
    "https://img-proxy.imgfo.com/?referer=https://manganelo.com&url=https://s7.mkklcdnv6temp.com/mangakakalot/02/100_gokuama_kareshi/vol1_chapter_2/8.jpg",
    "https://img-proxy.imgfo.com/?referer=https://manganelo.com&url=https://s7.mkklcdnv6temp.com/mangakakalot/02/100_gokuama_kareshi/vol1_chapter_2/9.jpg",
    "https://img-proxy.imgfo.com/?referer=https://manganelo.com&url=https://s7.mkklcdnv6temp.com/mangakakalot/02/100_gokuama_kareshi/vol1_chapter_2/10.jpg",
    "https://img-proxy.imgfo.com/?referer=https://manganelo.com&url=https://s7.mkklcdnv6temp.com/mangakakalot/02/100_gokuama_kareshi/vol1_chapter_2/11.jpg",
    "https://img-proxy.imgfo.com/?referer=https://manganelo.com&url=https://s7.mkklcdnv6temp.com/mangakakalot/02/100_gokuama_kareshi/vol1_chapter_2/12.jpg",
    "https://img-proxy.imgfo.com/?referer=https://manganelo.com&url=https://s7.mkklcdnv6temp.com/mangakakalot/02/100_gokuama_kareshi/vol1_chapter_2/13.jpg",
    "https://img-proxy.imgfo.com/?referer=https://manganelo.com&url=https://s7.mkklcdnv6temp.com/mangakakalot/02/100_gokuama_kareshi/vol1_chapter_2/14.jpg",
    "https://img-proxy.imgfo.com/?referer=https://manganelo.com&url=https://s7.mkklcdnv6temp.com/mangakakalot/02/100_gokuama_kareshi/vol1_chapter_2/15.jpg",
    "https://img-proxy.imgfo.com/?referer=https://manganelo.com&url=https://s7.mkklcdnv6temp.com/mangakakalot/02/100_gokuama_kareshi/vol1_chapter_2/16.jpg",
    "https://img-proxy.imgfo.com/?referer=https://manganelo.com&url=https://s7.mkklcdnv6temp.com/mangakakalot/02/100_gokuama_kareshi/vol1_chapter_2/17.jpg",
    "https://img-proxy.imgfo.com/?referer=https://manganelo.com&url=https://s7.mkklcdnv6temp.com/mangakakalot/02/100_gokuama_kareshi/vol1_chapter_2/18.jpg",
    "https://img-proxy.imgfo.com/?referer=https://manganelo.com&url=https://s7.mkklcdnv6temp.com/mangakakalot/02/100_gokuama_kareshi/vol1_chapter_2/19.jpg",
    "https://img-proxy.imgfo.com/?referer=https://manganelo.com&url=https://s7.mkklcdnv6temp.com/mangakakalot/02/100_gokuama_kareshi/vol1_chapter_2/20.jpg",
    "https://img-proxy.imgfo.com/?referer=https://manganelo.com&url=https://s7.mkklcdnv6temp.com/mangakakalot/02/100_gokuama_kareshi/vol1_chapter_2/21.jpg",
    "https://img-proxy.imgfo.com/?referer=https://manganelo.com&url=https://s7.mkklcdnv6temp.com/mangakakalot/02/100_gokuama_kareshi/vol1_chapter_2/22.jpg",
    "https://img-proxy.imgfo.com/?referer=https://manganelo.com&url=https://s7.mkklcdnv6temp.com/mangakakalot/02/100_gokuama_kareshi/vol1_chapter_2/23.jpg",
    "https://img-proxy.imgfo.com/?referer=https://manganelo.com&url=https://s7.mkklcdnv6temp.com/mangakakalot/02/100_gokuama_kareshi/vol1_chapter_2/24.jpg",
    "https://img-proxy.imgfo.com/?referer=https://manganelo.com&url=https://s7.mkklcdnv6temp.com/mangakakalot/02/100_gokuama_kareshi/vol1_chapter_2/25.jpg",
    "https://img-proxy.imgfo.com/?referer=https://manganelo.com&url=https://s7.mkklcdnv6temp.com/mangakakalot/02/100_gokuama_kareshi/vol1_chapter_2/26.jpg",
    "https://img-proxy.imgfo.com/?referer=https://manganelo.com&url=https://s7.mkklcdnv6temp.com/mangakakalot/02/100_gokuama_kareshi/vol1_chapter_2/27.jpg",
    "https://img-proxy.imgfo.com/?referer=https://manganelo.com&url=https://s7.mkklcdnv6temp.com/mangakakalot/02/100_gokuama_kareshi/vol1_chapter_2/28.jpg",
    "https://img-proxy.imgfo.com/?referer=https://manganelo.com&url=https://s7.mkklcdnv6temp.com/mangakakalot/02/100_gokuama_kareshi/vol1_chapter_2/29.jpg",
    "https://img-proxy.imgfo.com/?referer=https://manganelo.com&url=https://s7.mkklcdnv6temp.com/mangakakalot/02/100_gokuama_kareshi/vol1_chapter_2/30.jpg",
    "https://img-proxy.imgfo.com/?referer=https://manganelo.com&url=https://s7.mkklcdnv6temp.com/mangakakalot/02/100_gokuama_kareshi/vol1_chapter_2/31.jpg",
    "https://img-proxy.imgfo.com/?referer=https://manganelo.com&url=https://s7.mkklcdnv6temp.com/mangakakalot/02/100_gokuama_kareshi/vol1_chapter_2/32.jpg",
    "https://img-proxy.imgfo.com/?referer=https://manganelo.com&url=https://s7.mkklcdnv6temp.com/mangakakalot/02/100_gokuama_kareshi/vol1_chapter_2/33.jpg",
    "https://img-proxy.imgfo.com/?referer=https://manganelo.com&url=https://s7.mkklcdnv6temp.com/mangakakalot/02/100_gokuama_kareshi/vol1_chapter_2/34.jpg",
    "https://img-proxy.imgfo.com/?referer=https://manganelo.com&url=https://s7.mkklcdnv6temp.com/mangakakalot/02/100_gokuama_kareshi/vol1_chapter_2/35.jpg",
    "https://img-proxy.imgfo.com/?referer=https://manganelo.com&url=https://s7.mkklcdnv6temp.com/mangakakalot/02/100_gokuama_kareshi/vol1_chapter_2/36.jpg",
    "https://img-proxy.imgfo.com/?referer=https://manganelo.com&url=https://s7.mkklcdnv6temp.com/mangakakalot/02/100_gokuama_kareshi/vol1_chapter_2/37.jpg",
    "https://img-proxy.imgfo.com/?referer=https://manganelo.com&url=https://s7.mkklcdnv6temp.com/mangakakalot/02/100_gokuama_kareshi/vol1_chapter_2/38.jpg",
    "https://img-proxy.imgfo.com/?referer=https://manganelo.com&url=https://s7.mkklcdnv6temp.com/mangakakalot/02/100_gokuama_kareshi/vol1_chapter_2/39.jpg",
    "https://img-proxy.imgfo.com/?referer=https://manganelo.com&url=https://s7.mkklcdnv6temp.com/mangakakalot/02/100_gokuama_kareshi/vol1_chapter_2/40.jpg",
    "https://img-proxy.imgfo.com/?referer=https://manganelo.com&url=https://s7.mkklcdnv6temp.com/mangakakalot/02/100_gokuama_kareshi/vol1_chapter_2/41.jpg",
    "https://img-proxy.imgfo.com/?referer=https://manganelo.com&url=https://s7.mkklcdnv6temp.com/mangakakalot/02/100_gokuama_kareshi/vol1_chapter_2/42.jpg",
    "https://img-proxy.imgfo.com/?referer=https://manganelo.com&url=https://s7.mkklcdnv6temp.com/mangakakalot/02/100_gokuama_kareshi/vol1_chapter_2/43.jpg",
    "https://img-proxy.imgfo.com/?referer=https://manganelo.com&url=https://s7.mkklcdnv6temp.com/mangakakalot/02/100_gokuama_kareshi/vol1_chapter_2/44.jpg",
    "https://img-proxy.imgfo.com/?referer=https://manganelo.com&url=https://s7.mkklcdnv6temp.com/mangakakalot/02/100_gokuama_kareshi/vol1_chapter_2/45.jpg"
  ]
}