{
  "cover": "https://avt.mkklcdnv6.com/31/g/11-1583485139.jpg",
  "title": "Tobaku Haouden Zero",
  "original": "賭博覇王伝ゼロ ; 賭博覇王伝零 ; Gambling Emperor Legend Zero ; Gambling Emperor Zero ; Tobaku Haōden Zero",
  "genre": "Drama, Psychological, Shounen, Sports, Manga",
  "author": "Fukumoto Nobuyuki",
  "status": "Completed",
  "backlink": "https://manganu.com/collections/fukumoto-nobuyuki/tobaku-haouden-zero/",
  "description": "Ukai Zero saves three troubled teens from a Suicide Website, and together chooses to work as 'Robin Hoods' of society. However, one of Zero's friends are caught by an organization he got in trouble with, and Zero is forced to enter a gambling competition hosted by a rich, rotten old man who is looking for talented gamblers to be his rep player. The reward money? ONE TRILLION YEN.",
  "language": "English",
  "images": [
    "https://img-proxy.imgfo.com/?referer=https://manganelo.com&url=https://s7.mkklcdnv6temp.com/mangakakalot/t2/tobaku_haouden_zero/vol6_chapter_50/1.jpg",
    "https://img-proxy.imgfo.com/?referer=https://manganelo.com&url=https://s7.mkklcdnv6temp.com/mangakakalot/t2/tobaku_haouden_zero/vol6_chapter_50/2.jpg",
    "https://img-proxy.imgfo.com/?referer=https://manganelo.com&url=https://s7.mkklcdnv6temp.com/mangakakalot/t2/tobaku_haouden_zero/vol6_chapter_50/3.jpg",
    "https://img-proxy.imgfo.com/?referer=https://manganelo.com&url=https://s7.mkklcdnv6temp.com/mangakakalot/t2/tobaku_haouden_zero/vol6_chapter_50/4.jpg",
    "https://img-proxy.imgfo.com/?referer=https://manganelo.com&url=https://s7.mkklcdnv6temp.com/mangakakalot/t2/tobaku_haouden_zero/vol6_chapter_50/5.jpg",
    "https://img-proxy.imgfo.com/?referer=https://manganelo.com&url=https://s7.mkklcdnv6temp.com/mangakakalot/t2/tobaku_haouden_zero/vol6_chapter_50/6.jpg",
    "https://img-proxy.imgfo.com/?referer=https://manganelo.com&url=https://s7.mkklcdnv6temp.com/mangakakalot/t2/tobaku_haouden_zero/vol6_chapter_50/7.jpg",
    "https://img-proxy.imgfo.com/?referer=https://manganelo.com&url=https://s7.mkklcdnv6temp.com/mangakakalot/t2/tobaku_haouden_zero/vol6_chapter_50/8.jpg",
    "https://img-proxy.imgfo.com/?referer=https://manganelo.com&url=https://s7.mkklcdnv6temp.com/mangakakalot/t2/tobaku_haouden_zero/vol6_chapter_50/9.jpg",
    "https://img-proxy.imgfo.com/?referer=https://manganelo.com&url=https://s7.mkklcdnv6temp.com/mangakakalot/t2/tobaku_haouden_zero/vol6_chapter_50/10.jpg",
    "https://img-proxy.imgfo.com/?referer=https://manganelo.com&url=https://s7.mkklcdnv6temp.com/mangakakalot/t2/tobaku_haouden_zero/vol6_chapter_50/11.jpg"
  ]
}