{
  "cover": "https://avt.mkklcdnv6.com/42/f/9-1583481851.jpg",
  "title": "Pluto",
  "original": "プルートウ ; PLUTO 豪華版",
  "genre": "Action, Drama, Mecha, Mystery, Psychological, Sci fi, Seinen, Manga",
  "author": "Urasawa Naoki",
  "status": "Completed",
  "backlink": "https://manganu.com/collections/urasawa-naoki/pluto/",
  "description": "From Amazon.com: Any pairing of two masterminds can elicit murmurs of approval&mdash;or of apprehension. But all readers can rest assured that in this case, the pairing of seinen manga suspense master Urasawa and legendary cartoonist Tezuka is a very, very good thing. In a distant future where sentient humanoid robots pass for human, someone or some thing is out to destroy the seven great robots of the world. Europol&rsquo;s top detective Gesicht is assigned to investigate these mysterious robot serial murders&mdash;the only catch is that he himself is one of the seven targets.",
  "language": "English",
  "images": [
    "https://img-proxy.imgfo.com/?referer=https://manganelo.com&url=https://s5.mkklcdnv6temp.com/mangakakalot/p1/pluto/vol8_chapter_63_a_wish_to_the_stars/1.jpg",
    "https://img-proxy.imgfo.com/?referer=https://manganelo.com&url=https://s5.mkklcdnv6temp.com/mangakakalot/p1/pluto/vol8_chapter_63_a_wish_to_the_stars/2.jpg",
    "https://img-proxy.imgfo.com/?referer=https://manganelo.com&url=https://s5.mkklcdnv6temp.com/mangakakalot/p1/pluto/vol8_chapter_63_a_wish_to_the_stars/3.jpg",
    "https://img-proxy.imgfo.com/?referer=https://manganelo.com&url=https://s5.mkklcdnv6temp.com/mangakakalot/p1/pluto/vol8_chapter_63_a_wish_to_the_stars/4.jpg",
    "https://img-proxy.imgfo.com/?referer=https://manganelo.com&url=https://s5.mkklcdnv6temp.com/mangakakalot/p1/pluto/vol8_chapter_63_a_wish_to_the_stars/5.jpg",
    "https://img-proxy.imgfo.com/?referer=https://manganelo.com&url=https://s5.mkklcdnv6temp.com/mangakakalot/p1/pluto/vol8_chapter_63_a_wish_to_the_stars/6.jpg",
    "https://img-proxy.imgfo.com/?referer=https://manganelo.com&url=https://s5.mkklcdnv6temp.com/mangakakalot/p1/pluto/vol8_chapter_63_a_wish_to_the_stars/7.jpg",
    "https://img-proxy.imgfo.com/?referer=https://manganelo.com&url=https://s5.mkklcdnv6temp.com/mangakakalot/p1/pluto/vol8_chapter_63_a_wish_to_the_stars/8.jpg",
    "https://img-proxy.imgfo.com/?referer=https://manganelo.com&url=https://s5.mkklcdnv6temp.com/mangakakalot/p1/pluto/vol8_chapter_63_a_wish_to_the_stars/9.jpg",
    "https://img-proxy.imgfo.com/?referer=https://manganelo.com&url=https://s5.mkklcdnv6temp.com/mangakakalot/p1/pluto/vol8_chapter_63_a_wish_to_the_stars/10.jpg",
    "https://img-proxy.imgfo.com/?referer=https://manganelo.com&url=https://s5.mkklcdnv6temp.com/mangakakalot/p1/pluto/vol8_chapter_63_a_wish_to_the_stars/11.jpg",
    "https://img-proxy.imgfo.com/?referer=https://manganelo.com&url=https://s5.mkklcdnv6temp.com/mangakakalot/p1/pluto/vol8_chapter_63_a_wish_to_the_stars/12.jpg",
    "https://img-proxy.imgfo.com/?referer=https://manganelo.com&url=https://s5.mkklcdnv6temp.com/mangakakalot/p1/pluto/vol8_chapter_63_a_wish_to_the_stars/13.jpg",
    "https://img-proxy.imgfo.com/?referer=https://manganelo.com&url=https://s5.mkklcdnv6temp.com/mangakakalot/p1/pluto/vol8_chapter_63_a_wish_to_the_stars/14.jpg",
    "https://img-proxy.imgfo.com/?referer=https://manganelo.com&url=https://s5.mkklcdnv6temp.com/mangakakalot/p1/pluto/vol8_chapter_63_a_wish_to_the_stars/15.jpg",
    "https://img-proxy.imgfo.com/?referer=https://manganelo.com&url=https://s5.mkklcdnv6temp.com/mangakakalot/p1/pluto/vol8_chapter_63_a_wish_to_the_stars/16.jpg",
    "https://img-proxy.imgfo.com/?referer=https://manganelo.com&url=https://s5.mkklcdnv6temp.com/mangakakalot/p1/pluto/vol8_chapter_63_a_wish_to_the_stars/17.jpg",
    "https://img-proxy.imgfo.com/?referer=https://manganelo.com&url=https://s5.mkklcdnv6temp.com/mangakakalot/p1/pluto/vol8_chapter_63_a_wish_to_the_stars/18.jpg",
    "https://img-proxy.imgfo.com/?referer=https://manganelo.com&url=https://s5.mkklcdnv6temp.com/mangakakalot/p1/pluto/vol8_chapter_63_a_wish_to_the_stars/19.jpg",
    "https://img-proxy.imgfo.com/?referer=https://manganelo.com&url=https://s5.mkklcdnv6temp.com/mangakakalot/p1/pluto/vol8_chapter_63_a_wish_to_the_stars/20.jpg",
    "https://img-proxy.imgfo.com/?referer=https://manganelo.com&url=https://s5.mkklcdnv6temp.com/mangakakalot/p1/pluto/vol8_chapter_63_a_wish_to_the_stars/21.jpg",
    "https://img-proxy.imgfo.com/?referer=https://manganelo.com&url=https://s5.mkklcdnv6temp.com/mangakakalot/p1/pluto/vol8_chapter_63_a_wish_to_the_stars/22.jpg",
    "https://img-proxy.imgfo.com/?referer=https://manganelo.com&url=https://s5.mkklcdnv6temp.com/mangakakalot/p1/pluto/vol8_chapter_63_a_wish_to_the_stars/23.jpg",
    "https://img-proxy.imgfo.com/?referer=https://manganelo.com&url=https://s5.mkklcdnv6temp.com/mangakakalot/p1/pluto/vol8_chapter_63_a_wish_to_the_stars/24.jpg",
    "https://img-proxy.imgfo.com/?referer=https://manganelo.com&url=https://s5.mkklcdnv6temp.com/mangakakalot/p1/pluto/vol8_chapter_63_a_wish_to_the_stars/25.jpg",
    "https://img-proxy.imgfo.com/?referer=https://manganelo.com&url=https://s5.mkklcdnv6temp.com/mangakakalot/p1/pluto/vol8_chapter_63_a_wish_to_the_stars/26.jpg"
  ]
}