{
  "cover": "https://avt.mkklcdnv6.com/42/f/9-1583481851.jpg",
  "title": "Pluto",
  "original": "プルートウ ; PLUTO 豪華版",
  "genre": "Action, Drama, Mecha, Mystery, Psychological, Sci fi, Seinen, Manga",
  "author": "Urasawa Naoki",
  "status": "Completed",
  "backlink": "https://manganu.com/collections/urasawa-naoki/pluto/",
  "description": "From Amazon.com: Any pairing of two masterminds can elicit murmurs of approval&mdash;or of apprehension. But all readers can rest assured that in this case, the pairing of seinen manga suspense master Urasawa and legendary cartoonist Tezuka is a very, very good thing. In a distant future where sentient humanoid robots pass for human, someone or some thing is out to destroy the seven great robots of the world. Europol&rsquo;s top detective Gesicht is assigned to investigate these mysterious robot serial murders&mdash;the only catch is that he himself is one of the seven targets.",
  "language": "English",
  "images": [
    "https://img-proxy.imgfo.com/?referer=https://manganelo.com&url=https://s5.mkklcdnv6temp.com/mangakakalot/p1/pluto/vol3_chapter_22_pluto/1.jpg",
    "https://img-proxy.imgfo.com/?referer=https://manganelo.com&url=https://s5.mkklcdnv6temp.com/mangakakalot/p1/pluto/vol3_chapter_22_pluto/2.jpg",
    "https://img-proxy.imgfo.com/?referer=https://manganelo.com&url=https://s5.mkklcdnv6temp.com/mangakakalot/p1/pluto/vol3_chapter_22_pluto/3.jpg",
    "https://img-proxy.imgfo.com/?referer=https://manganelo.com&url=https://s5.mkklcdnv6temp.com/mangakakalot/p1/pluto/vol3_chapter_22_pluto/4.jpg",
    "https://img-proxy.imgfo.com/?referer=https://manganelo.com&url=https://s5.mkklcdnv6temp.com/mangakakalot/p1/pluto/vol3_chapter_22_pluto/5.jpg",
    "https://img-proxy.imgfo.com/?referer=https://manganelo.com&url=https://s5.mkklcdnv6temp.com/mangakakalot/p1/pluto/vol3_chapter_22_pluto/6.jpg",
    "https://img-proxy.imgfo.com/?referer=https://manganelo.com&url=https://s5.mkklcdnv6temp.com/mangakakalot/p1/pluto/vol3_chapter_22_pluto/7.jpg",
    "https://img-proxy.imgfo.com/?referer=https://manganelo.com&url=https://s5.mkklcdnv6temp.com/mangakakalot/p1/pluto/vol3_chapter_22_pluto/8.jpg",
    "https://img-proxy.imgfo.com/?referer=https://manganelo.com&url=https://s5.mkklcdnv6temp.com/mangakakalot/p1/pluto/vol3_chapter_22_pluto/9.jpg",
    "https://img-proxy.imgfo.com/?referer=https://manganelo.com&url=https://s5.mkklcdnv6temp.com/mangakakalot/p1/pluto/vol3_chapter_22_pluto/10.jpg",
    "https://img-proxy.imgfo.com/?referer=https://manganelo.com&url=https://s5.mkklcdnv6temp.com/mangakakalot/p1/pluto/vol3_chapter_22_pluto/11.jpg",
    "https://img-proxy.imgfo.com/?referer=https://manganelo.com&url=https://s5.mkklcdnv6temp.com/mangakakalot/p1/pluto/vol3_chapter_22_pluto/12.jpg",
    "https://img-proxy.imgfo.com/?referer=https://manganelo.com&url=https://s5.mkklcdnv6temp.com/mangakakalot/p1/pluto/vol3_chapter_22_pluto/13.jpg",
    "https://img-proxy.imgfo.com/?referer=https://manganelo.com&url=https://s5.mkklcdnv6temp.com/mangakakalot/p1/pluto/vol3_chapter_22_pluto/14.jpg",
    "https://img-proxy.imgfo.com/?referer=https://manganelo.com&url=https://s5.mkklcdnv6temp.com/mangakakalot/p1/pluto/vol3_chapter_22_pluto/15.jpg",
    "https://img-proxy.imgfo.com/?referer=https://manganelo.com&url=https://s5.mkklcdnv6temp.com/mangakakalot/p1/pluto/vol3_chapter_22_pluto/16.jpg",
    "https://img-proxy.imgfo.com/?referer=https://manganelo.com&url=https://s5.mkklcdnv6temp.com/mangakakalot/p1/pluto/vol3_chapter_22_pluto/17.jpg",
    "https://img-proxy.imgfo.com/?referer=https://manganelo.com&url=https://s5.mkklcdnv6temp.com/mangakakalot/p1/pluto/vol3_chapter_22_pluto/18.jpg",
    "https://img-proxy.imgfo.com/?referer=https://manganelo.com&url=https://s5.mkklcdnv6temp.com/mangakakalot/p1/pluto/vol3_chapter_22_pluto/19.jpg",
    "https://img-proxy.imgfo.com/?referer=https://manganelo.com&url=https://s5.mkklcdnv6temp.com/mangakakalot/p1/pluto/vol3_chapter_22_pluto/20.jpg",
    "https://img-proxy.imgfo.com/?referer=https://manganelo.com&url=https://s5.mkklcdnv6temp.com/mangakakalot/p1/pluto/vol3_chapter_22_pluto/21.jpg",
    "https://img-proxy.imgfo.com/?referer=https://manganelo.com&url=https://s5.mkklcdnv6temp.com/mangakakalot/p1/pluto/vol3_chapter_22_pluto/22.jpg",
    "https://img-proxy.imgfo.com/?referer=https://manganelo.com&url=https://s5.mkklcdnv6temp.com/mangakakalot/p1/pluto/vol3_chapter_22_pluto/23.jpg",
    "https://img-proxy.imgfo.com/?referer=https://manganelo.com&url=https://s5.mkklcdnv6temp.com/mangakakalot/p1/pluto/vol3_chapter_22_pluto/24.jpg",
    "https://img-proxy.imgfo.com/?referer=https://manganelo.com&url=https://s5.mkklcdnv6temp.com/mangakakalot/p1/pluto/vol3_chapter_22_pluto/25.jpg"
  ]
}