{
  "cover": "https://avt.mkklcdnv6.com/9/n/5-1583472231.jpg",
  "title": "Ojiichan Wa Shounen Tantei",
  "original": "おじいちゃんは少年探偵 ; Grampa is a Boy Detective ; Ojii-chan is a shonen detective? ; Ojii-chan wa Shounen Tantei ; 我的爷爷是少年侦探",
  "genre": "Comedy, Ecchi, Mystery, Shounen, Supernatural, Manga",
  "author": "Inoue Yoshihisa",
  "status": "Completed",
  "backlink": "https://manganu.com/collections/inoue-yoshihisa/ojiichan-wa-shounen-tantei/",
  "description": "Basically, the teenage detective kiddo was frozen by some EVIL MASTERMIND PROFESSOR back in near-mid-1900’s, and gets unfrozen in the 2000’s by his granddaughter. Hilarity ensues as he encounters weird new stuff and does silly blunders in his daily life with his granddaughter, Hikari.",
  "language": "English",
  "images": [
    "https://img-proxy.imgfo.com/?referer=https://manganelo.com&url=https://s3.mkklcdnv6temp.com/mangakakalot/o1/ojiichan_wa_shounen_tantei/vol4_chapter_27/1.jpg",
    "https://img-proxy.imgfo.com/?referer=https://manganelo.com&url=https://s3.mkklcdnv6temp.com/mangakakalot/o1/ojiichan_wa_shounen_tantei/vol4_chapter_27/2.jpg",
    "https://img-proxy.imgfo.com/?referer=https://manganelo.com&url=https://s3.mkklcdnv6temp.com/mangakakalot/o1/ojiichan_wa_shounen_tantei/vol4_chapter_27/3.jpg",
    "https://img-proxy.imgfo.com/?referer=https://manganelo.com&url=https://s3.mkklcdnv6temp.com/mangakakalot/o1/ojiichan_wa_shounen_tantei/vol4_chapter_27/4.jpg",
    "https://img-proxy.imgfo.com/?referer=https://manganelo.com&url=https://s3.mkklcdnv6temp.com/mangakakalot/o1/ojiichan_wa_shounen_tantei/vol4_chapter_27/5.jpg",
    "https://img-proxy.imgfo.com/?referer=https://manganelo.com&url=https://s3.mkklcdnv6temp.com/mangakakalot/o1/ojiichan_wa_shounen_tantei/vol4_chapter_27/6.jpg",
    "https://img-proxy.imgfo.com/?referer=https://manganelo.com&url=https://s3.mkklcdnv6temp.com/mangakakalot/o1/ojiichan_wa_shounen_tantei/vol4_chapter_27/7.jpg",
    "https://img-proxy.imgfo.com/?referer=https://manganelo.com&url=https://s3.mkklcdnv6temp.com/mangakakalot/o1/ojiichan_wa_shounen_tantei/vol4_chapter_27/8.jpg",
    "https://img-proxy.imgfo.com/?referer=https://manganelo.com&url=https://s3.mkklcdnv6temp.com/mangakakalot/o1/ojiichan_wa_shounen_tantei/vol4_chapter_27/9.jpg",
    "https://img-proxy.imgfo.com/?referer=https://manganelo.com&url=https://s3.mkklcdnv6temp.com/mangakakalot/o1/ojiichan_wa_shounen_tantei/vol4_chapter_27/10.jpg",
    "https://img-proxy.imgfo.com/?referer=https://manganelo.com&url=https://s3.mkklcdnv6temp.com/mangakakalot/o1/ojiichan_wa_shounen_tantei/vol4_chapter_27/11.jpg",
    "https://img-proxy.imgfo.com/?referer=https://manganelo.com&url=https://s3.mkklcdnv6temp.com/mangakakalot/o1/ojiichan_wa_shounen_tantei/vol4_chapter_27/12.jpg",
    "https://img-proxy.imgfo.com/?referer=https://manganelo.com&url=https://s3.mkklcdnv6temp.com/mangakakalot/o1/ojiichan_wa_shounen_tantei/vol4_chapter_27/13.jpg",
    "https://img-proxy.imgfo.com/?referer=https://manganelo.com&url=https://s3.mkklcdnv6temp.com/mangakakalot/o1/ojiichan_wa_shounen_tantei/vol4_chapter_27/14.jpg",
    "https://img-proxy.imgfo.com/?referer=https://manganelo.com&url=https://s3.mkklcdnv6temp.com/mangakakalot/o1/ojiichan_wa_shounen_tantei/vol4_chapter_27/15.jpg",
    "https://img-proxy.imgfo.com/?referer=https://manganelo.com&url=https://s3.mkklcdnv6temp.com/mangakakalot/o1/ojiichan_wa_shounen_tantei/vol4_chapter_27/16.jpg",
    "https://img-proxy.imgfo.com/?referer=https://manganelo.com&url=https://s3.mkklcdnv6temp.com/mangakakalot/o1/ojiichan_wa_shounen_tantei/vol4_chapter_27/17.jpg",
    "https://img-proxy.imgfo.com/?referer=https://manganelo.com&url=https://s3.mkklcdnv6temp.com/mangakakalot/o1/ojiichan_wa_shounen_tantei/vol4_chapter_27/18.jpg",
    "https://img-proxy.imgfo.com/?referer=https://manganelo.com&url=https://s3.mkklcdnv6temp.com/mangakakalot/o1/ojiichan_wa_shounen_tantei/vol4_chapter_27/19.jpg",
    "https://img-proxy.imgfo.com/?referer=https://manganelo.com&url=https://s3.mkklcdnv6temp.com/mangakakalot/o1/ojiichan_wa_shounen_tantei/vol4_chapter_27/20.jpg",
    "https://img-proxy.imgfo.com/?referer=https://manganelo.com&url=https://s3.mkklcdnv6temp.com/mangakakalot/o1/ojiichan_wa_shounen_tantei/vol4_chapter_27/21.jpg",
    "https://img-proxy.imgfo.com/?referer=https://manganelo.com&url=https://s3.mkklcdnv6temp.com/mangakakalot/o1/ojiichan_wa_shounen_tantei/vol4_chapter_27/22.jpg",
    "https://img-proxy.imgfo.com/?referer=https://manganelo.com&url=https://s3.mkklcdnv6temp.com/mangakakalot/o1/ojiichan_wa_shounen_tantei/vol4_chapter_27/23.jpg",
    "https://img-proxy.imgfo.com/?referer=https://manganelo.com&url=https://s3.mkklcdnv6temp.com/mangakakalot/o1/ojiichan_wa_shounen_tantei/vol4_chapter_27/24.jpg",
    "https://img-proxy.imgfo.com/?referer=https://manganelo.com&url=https://s3.mkklcdnv6temp.com/mangakakalot/o1/ojiichan_wa_shounen_tantei/vol4_chapter_27/25.jpg",
    "https://img-proxy.imgfo.com/?referer=https://manganelo.com&url=https://s3.mkklcdnv6temp.com/mangakakalot/o1/ojiichan_wa_shounen_tantei/vol4_chapter_27/26.jpg",
    "https://img-proxy.imgfo.com/?referer=https://manganelo.com&url=https://s3.mkklcdnv6temp.com/mangakakalot/o1/ojiichan_wa_shounen_tantei/vol4_chapter_27/27.jpg",
    "https://img-proxy.imgfo.com/?referer=https://manganelo.com&url=https://s3.mkklcdnv6temp.com/mangakakalot/o1/ojiichan_wa_shounen_tantei/vol4_chapter_27/28.jpg",
    "https://img-proxy.imgfo.com/?referer=https://manganelo.com&url=https://s3.mkklcdnv6temp.com/mangakakalot/o1/ojiichan_wa_shounen_tantei/vol4_chapter_27/29.jpg",
    "https://img-proxy.imgfo.com/?referer=https://manganelo.com&url=https://s3.mkklcdnv6temp.com/mangakakalot/o1/ojiichan_wa_shounen_tantei/vol4_chapter_27/30.jpg"
  ]
}