{
  "cover": "https://avt.mkklcdnv6.com/48/f/8-1583480022.jpg",
  "title": "Happy Ice Cream!",
  "original": "ハッピーアイスクリーム！ ; Happy Ice Cream",
  "genre": "Fantasy, Harem, Romance, Shoujo, Manga",
  "author": "Kawamura Mika",
  "status": "Completed",
  "backlink": "https://manganu.com/collections/kawamura-mika/happy-ice-cream/",
  "description": "From Alice Dreams:\nMisaki Sakurako is a thirteen years old girl who loves ice cream and cherry blossoms. Living alone, she had a weird dream that told her she is the only savior to three young child boys... Strangely enough, she woke up to three handsome strangers who asked her to resolve their dear curse--their bodies will transform if they see any slightly \"perverted\" materials (posters, pictures, etc). The only way to prevent them from transforming would be...?",
  "language": "English",
  "images": [
    "https://img-proxy.imgfo.com/?referer=https://manganelo.com&url=https://s6.mkklcdnv6temp.com/mangakakalot/h1/happy_ice_cream/vol3_chapter_11/1.jpg",
    "https://img-proxy.imgfo.com/?referer=https://manganelo.com&url=https://s6.mkklcdnv6temp.com/mangakakalot/h1/happy_ice_cream/vol3_chapter_11/2.jpg",
    "https://img-proxy.imgfo.com/?referer=https://manganelo.com&url=https://s6.mkklcdnv6temp.com/mangakakalot/h1/happy_ice_cream/vol3_chapter_11/3.jpg",
    "https://img-proxy.imgfo.com/?referer=https://manganelo.com&url=https://s6.mkklcdnv6temp.com/mangakakalot/h1/happy_ice_cream/vol3_chapter_11/4.jpg",
    "https://img-proxy.imgfo.com/?referer=https://manganelo.com&url=https://s6.mkklcdnv6temp.com/mangakakalot/h1/happy_ice_cream/vol3_chapter_11/5.jpg",
    "https://img-proxy.imgfo.com/?referer=https://manganelo.com&url=https://s6.mkklcdnv6temp.com/mangakakalot/h1/happy_ice_cream/vol3_chapter_11/6.jpg",
    "https://img-proxy.imgfo.com/?referer=https://manganelo.com&url=https://s6.mkklcdnv6temp.com/mangakakalot/h1/happy_ice_cream/vol3_chapter_11/7.jpg",
    "https://img-proxy.imgfo.com/?referer=https://manganelo.com&url=https://s6.mkklcdnv6temp.com/mangakakalot/h1/happy_ice_cream/vol3_chapter_11/8.jpg",
    "https://img-proxy.imgfo.com/?referer=https://manganelo.com&url=https://s6.mkklcdnv6temp.com/mangakakalot/h1/happy_ice_cream/vol3_chapter_11/9.jpg",
    "https://img-proxy.imgfo.com/?referer=https://manganelo.com&url=https://s6.mkklcdnv6temp.com/mangakakalot/h1/happy_ice_cream/vol3_chapter_11/10.jpg",
    "https://img-proxy.imgfo.com/?referer=https://manganelo.com&url=https://s6.mkklcdnv6temp.com/mangakakalot/h1/happy_ice_cream/vol3_chapter_11/11.jpg",
    "https://img-proxy.imgfo.com/?referer=https://manganelo.com&url=https://s6.mkklcdnv6temp.com/mangakakalot/h1/happy_ice_cream/vol3_chapter_11/12.jpg",
    "https://img-proxy.imgfo.com/?referer=https://manganelo.com&url=https://s6.mkklcdnv6temp.com/mangakakalot/h1/happy_ice_cream/vol3_chapter_11/13.jpg",
    "https://img-proxy.imgfo.com/?referer=https://manganelo.com&url=https://s6.mkklcdnv6temp.com/mangakakalot/h1/happy_ice_cream/vol3_chapter_11/14.jpg",
    "https://img-proxy.imgfo.com/?referer=https://manganelo.com&url=https://s6.mkklcdnv6temp.com/mangakakalot/h1/happy_ice_cream/vol3_chapter_11/15.jpg",
    "https://img-proxy.imgfo.com/?referer=https://manganelo.com&url=https://s6.mkklcdnv6temp.com/mangakakalot/h1/happy_ice_cream/vol3_chapter_11/16.jpg",
    "https://img-proxy.imgfo.com/?referer=https://manganelo.com&url=https://s6.mkklcdnv6temp.com/mangakakalot/h1/happy_ice_cream/vol3_chapter_11/17.jpg",
    "https://img-proxy.imgfo.com/?referer=https://manganelo.com&url=https://s6.mkklcdnv6temp.com/mangakakalot/h1/happy_ice_cream/vol3_chapter_11/18.jpg",
    "https://img-proxy.imgfo.com/?referer=https://manganelo.com&url=https://s6.mkklcdnv6temp.com/mangakakalot/h1/happy_ice_cream/vol3_chapter_11/19.jpg",
    "https://img-proxy.imgfo.com/?referer=https://manganelo.com&url=https://s6.mkklcdnv6temp.com/mangakakalot/h1/happy_ice_cream/vol3_chapter_11/20.jpg",
    "https://img-proxy.imgfo.com/?referer=https://manganelo.com&url=https://s6.mkklcdnv6temp.com/mangakakalot/h1/happy_ice_cream/vol3_chapter_11/21.jpg",
    "https://img-proxy.imgfo.com/?referer=https://manganelo.com&url=https://s6.mkklcdnv6temp.com/mangakakalot/h1/happy_ice_cream/vol3_chapter_11/22.jpg",
    "https://img-proxy.imgfo.com/?referer=https://manganelo.com&url=https://s6.mkklcdnv6temp.com/mangakakalot/h1/happy_ice_cream/vol3_chapter_11/23.jpg",
    "https://img-proxy.imgfo.com/?referer=https://manganelo.com&url=https://s6.mkklcdnv6temp.com/mangakakalot/h1/happy_ice_cream/vol3_chapter_11/24.jpg",
    "https://img-proxy.imgfo.com/?referer=https://manganelo.com&url=https://s6.mkklcdnv6temp.com/mangakakalot/h1/happy_ice_cream/vol3_chapter_11/25.jpg",
    "https://img-proxy.imgfo.com/?referer=https://manganelo.com&url=https://s6.mkklcdnv6temp.com/mangakakalot/h1/happy_ice_cream/vol3_chapter_11/26.jpg",
    "https://img-proxy.imgfo.com/?referer=https://manganelo.com&url=https://s6.mkklcdnv6temp.com/mangakakalot/h1/happy_ice_cream/vol3_chapter_11/27.jpg",
    "https://img-proxy.imgfo.com/?referer=https://manganelo.com&url=https://s6.mkklcdnv6temp.com/mangakakalot/h1/happy_ice_cream/vol3_chapter_11/28.jpg",
    "https://img-proxy.imgfo.com/?referer=https://manganelo.com&url=https://s6.mkklcdnv6temp.com/mangakakalot/h1/happy_ice_cream/vol3_chapter_11/29.jpg",
    "https://img-proxy.imgfo.com/?referer=https://manganelo.com&url=https://s6.mkklcdnv6temp.com/mangakakalot/h1/happy_ice_cream/vol3_chapter_11/30.jpg",
    "https://img-proxy.imgfo.com/?referer=https://manganelo.com&url=https://s6.mkklcdnv6temp.com/mangakakalot/h1/happy_ice_cream/vol3_chapter_11/31.jpg",
    "https://img-proxy.imgfo.com/?referer=https://manganelo.com&url=https://s6.mkklcdnv6temp.com/mangakakalot/h1/happy_ice_cream/vol3_chapter_11/32.jpg",
    "https://img-proxy.imgfo.com/?referer=https://manganelo.com&url=https://s6.mkklcdnv6temp.com/mangakakalot/h1/happy_ice_cream/vol3_chapter_11/33.jpg",
    "https://img-proxy.imgfo.com/?referer=https://manganelo.com&url=https://s6.mkklcdnv6temp.com/mangakakalot/h1/happy_ice_cream/vol3_chapter_11/34.jpg"
  ]
}