{
  "cover": "https://avt.mkklcdnv6.com/44/e/6-1583475983.jpg",
  "title": "Battle Royale",
  "original": "バトル・ロワイアル ; Battle Royale manga",
  "genre": "Action, Adult, Comedy, Cooking, Doujinshi, Drama, Horror, Mature, Psychological, Romance, Seinen, Tragedy, Manga",
  "author": "Takami Koushun",
  "status": "Completed",
  "backlink": "https://manganu.com/collections/takami-koushun/battle-royale/",
  "description": "\nRead Battle Royale Manga\n\nBattle Royale Manga has been accommodated into a manga that was serialized, composed by Koushun Takami and Masayuki Taguchi, was released in Japan by Akita Publishing. Tokyopop consists of 15 volumes and distributes in English the manga. There&#39;s a manga sequel called Battle Royale II: Blitz Royale. At October 2007, a fresh special version of the manga will probably be published.\n&nbsp;\nThe manga follows the storyline of the novel fairly carefully, but additionally enlarges on the back story of all the pupils. Additionally it is much more sexually graphic as opposed to movie and novel versions, and can also be noted for the extreme violence.\n\n\n&nbsp;\nIn addition, the English version of manga alters the time the story is occur by nearly 10 years, utilizing the phrase &#39;in the close future&#39;, but on Shogo Kawada&#39;s account, it references the software 2005 period; he claims his last application was a year-ago, resulting in the supposition the manga establishes the story in 2006. In quantity among the English language variation, the information channel reporter as well as Shinji Mimura mentions the 2007 report of seven hours, three times and twenty two minutes. To the 2009 period, which will be the 2009 one Kamon refers in quantity 14. Not one of the dates are mentioned in the first Japanese version. Seemingly they were formulated by Keith Giffen through the variation (see below) along with a number of other particulars nonexistent in the authentic.\n&nbsp;\nThe manga revolves around seven main figures, for instance, righteous Shuya Nanahara, the tender and affectionate Noriko Nakagawa, the case-hardened expert Shogo Kawada, the pro Shinji Mimura, the kindhearted kungfu expert Hiroki Sugimura, the distressed Mitsuko Souma, as well as the cool, merciless Kazuo Kiriyama. As of January 2006, all 1-5 volumes are released in Japan. In Great Britain and the United States all 1-5 of the volumes are released as of April 2006.\n&nbsp;\n&nbsp;\nPrimary Character in Battle Royal manga\n\n\nShuya Nanahara is among the three primary protagonists plus a fictional Japanese pupil. Shuya, who&#39;s nicknamed &quot;Shu&quot;, lives in the fictional city Shiroiwa in Kagawa Prefecture.\n&nbsp;\n&nbsp;\nNoriko Nakagawa is the primary female protagonist of the show. She&#39;s among the class of third year pupils in Shuya&#39;s college. Noriko has a crush on Shuya, whom she admired for his songs and songwriting.\n\n\nBattle Royale Manga&#39;s Characters\n\nShogo Kawada is the victor of an earlier Program as well as a transfer pupil. In the start he joins up with all the both of these and satisfies Shuya and Noriko.\n\nKazuo Kiriyama is the main opponent, who attempts to win the Program (utilizing a coin toss to determine whether or not he performs), killing the most quantity of pupils in the class making him the biggest risk. It&#39;s afterwards mentioned he&#39;d experienced an automobile crash in a youthful age (where he watched his mother&#39;s passing), causing brain injury and resulting in too little emotions and sorrow.\n\nMitsuko Souma is the secondary antagonist, regarded among the very beautiful women in the system, she&#39;s also the female together with the most kills, along with the most deranged, in using her womanly wiles and power to feign feelings to falsify afterward kill her school mates triumphing. It&#39;s later shown that these emotional issues come from the following sexual abuse she received from her step-father in addition to physical abuse from her very own mom, as well as her dad after her parents divorced, leaving.",
  "language": "English",
  "images": [
    "https://img-proxy.imgfo.com/?referer=https://manganelo.com&url=https://s3.mkklcdnv6temp.com/mangakakalot/r1/read_battle_royale_manga_online_free/vol6_chapter_42_parting/1.jpg",
    "https://img-proxy.imgfo.com/?referer=https://manganelo.com&url=https://s3.mkklcdnv6temp.com/mangakakalot/r1/read_battle_royale_manga_online_free/vol6_chapter_42_parting/2.jpg",
    "https://img-proxy.imgfo.com/?referer=https://manganelo.com&url=https://s3.mkklcdnv6temp.com/mangakakalot/r1/read_battle_royale_manga_online_free/vol6_chapter_42_parting/3.jpg",
    "https://img-proxy.imgfo.com/?referer=https://manganelo.com&url=https://s3.mkklcdnv6temp.com/mangakakalot/r1/read_battle_royale_manga_online_free/vol6_chapter_42_parting/4.jpg",
    "https://img-proxy.imgfo.com/?referer=https://manganelo.com&url=https://s3.mkklcdnv6temp.com/mangakakalot/r1/read_battle_royale_manga_online_free/vol6_chapter_42_parting/5.jpg",
    "https://img-proxy.imgfo.com/?referer=https://manganelo.com&url=https://s3.mkklcdnv6temp.com/mangakakalot/r1/read_battle_royale_manga_online_free/vol6_chapter_42_parting/6.jpg",
    "https://img-proxy.imgfo.com/?referer=https://manganelo.com&url=https://s3.mkklcdnv6temp.com/mangakakalot/r1/read_battle_royale_manga_online_free/vol6_chapter_42_parting/7.jpg",
    "https://img-proxy.imgfo.com/?referer=https://manganelo.com&url=https://s3.mkklcdnv6temp.com/mangakakalot/r1/read_battle_royale_manga_online_free/vol6_chapter_42_parting/8.jpg",
    "https://img-proxy.imgfo.com/?referer=https://manganelo.com&url=https://s3.mkklcdnv6temp.com/mangakakalot/r1/read_battle_royale_manga_online_free/vol6_chapter_42_parting/9.jpg",
    "https://img-proxy.imgfo.com/?referer=https://manganelo.com&url=https://s3.mkklcdnv6temp.com/mangakakalot/r1/read_battle_royale_manga_online_free/vol6_chapter_42_parting/10.jpg",
    "https://img-proxy.imgfo.com/?referer=https://manganelo.com&url=https://s3.mkklcdnv6temp.com/mangakakalot/r1/read_battle_royale_manga_online_free/vol6_chapter_42_parting/11.jpg",
    "https://img-proxy.imgfo.com/?referer=https://manganelo.com&url=https://s3.mkklcdnv6temp.com/mangakakalot/r1/read_battle_royale_manga_online_free/vol6_chapter_42_parting/12.jpg",
    "https://img-proxy.imgfo.com/?referer=https://manganelo.com&url=https://s3.mkklcdnv6temp.com/mangakakalot/r1/read_battle_royale_manga_online_free/vol6_chapter_42_parting/13.jpg",
    "https://img-proxy.imgfo.com/?referer=https://manganelo.com&url=https://s3.mkklcdnv6temp.com/mangakakalot/r1/read_battle_royale_manga_online_free/vol6_chapter_42_parting/14.jpg",
    "https://img-proxy.imgfo.com/?referer=https://manganelo.com&url=https://s3.mkklcdnv6temp.com/mangakakalot/r1/read_battle_royale_manga_online_free/vol6_chapter_42_parting/15.jpg",
    "https://img-proxy.imgfo.com/?referer=https://manganelo.com&url=https://s3.mkklcdnv6temp.com/mangakakalot/r1/read_battle_royale_manga_online_free/vol6_chapter_42_parting/16.jpg",
    "https://img-proxy.imgfo.com/?referer=https://manganelo.com&url=https://s3.mkklcdnv6temp.com/mangakakalot/r1/read_battle_royale_manga_online_free/vol6_chapter_42_parting/17.jpg",
    "https://img-proxy.imgfo.com/?referer=https://manganelo.com&url=https://s3.mkklcdnv6temp.com/mangakakalot/r1/read_battle_royale_manga_online_free/vol6_chapter_42_parting/18.jpg",
    "https://img-proxy.imgfo.com/?referer=https://manganelo.com&url=https://s3.mkklcdnv6temp.com/mangakakalot/r1/read_battle_royale_manga_online_free/vol6_chapter_42_parting/19.jpg",
    "https://img-proxy.imgfo.com/?referer=https://manganelo.com&url=https://s3.mkklcdnv6temp.com/mangakakalot/r1/read_battle_royale_manga_online_free/vol6_chapter_42_parting/20.jpg",
    "https://img-proxy.imgfo.com/?referer=https://manganelo.com&url=https://s3.mkklcdnv6temp.com/mangakakalot/r1/read_battle_royale_manga_online_free/vol6_chapter_42_parting/21.jpg",
    "https://img-proxy.imgfo.com/?referer=https://manganelo.com&url=https://s3.mkklcdnv6temp.com/mangakakalot/r1/read_battle_royale_manga_online_free/vol6_chapter_42_parting/22.jpg",
    "https://img-proxy.imgfo.com/?referer=https://manganelo.com&url=https://s3.mkklcdnv6temp.com/mangakakalot/r1/read_battle_royale_manga_online_free/vol6_chapter_42_parting/23.jpg",
    "https://img-proxy.imgfo.com/?referer=https://manganelo.com&url=https://s3.mkklcdnv6temp.com/mangakakalot/r1/read_battle_royale_manga_online_free/vol6_chapter_42_parting/24.jpg"
  ]
}