{
  "cover": "https://avt.mkklcdnv6.com/21/j/5-1583472673.jpg",
  "title": "Yokubou Shounen",
  "original": "欲望少年 ; A Desire Boy ; Awakening Desires ; Obareru Kankei",
  "genre": "Comedy, Drama, Fantasy, Romance, School life, Smut, Supernatural, Yaoi, Manga",
  "author": "Naono Bohra",
  "status": "Completed",
  "backlink": "https://manganu.com/collections/naono-bohra/yokubou-shounen/",
  "description": "Consists of a collection of oneshots:\n1) A Desire Boy (Yokubou Shounen)\nShinobu Uesugi lives with his mother and two sisters, lacking any kind of male role model. At the age of seven, his family moves into an apartment complex and becomes neighbors with Saguru Matsunae. Saguru soon becomes Shinobu's 'onii-san' that he goes to for advice throughout the years. Shinobu, now seventeen, is clueless about anything involving relationships or his own body and Saguru offers to teach him...\n2) Sawaki's Case\nHideya Katsumata and Makoto Sawaki have been friends since entering high school, but Makoto has been hiding his true feelings towards his best friend for all that time. He believes his feelings will forever go unrequited as there's no way Hideya will ever fall in love with another man. When Makoto stumbles across Shinobu and Saguru (from the previous story) kissing, he starts to believe otherwise.\n3) Love Snatcher\nAfter getting fired from his job half Japanese Tanaka Tatsuaki drunkenly prays to the moon to take him away, and it does! He's been summoned to a land of shape-shifters to be the bride of Tigure, lord of the tigers. And he's expected to give birth?\n4) Love and Reticence (Ai to Chinmoku)\nNearly silent ghost writer Kisa has fallen in love with a small out of the way diner and the delicious food there. But handsome owner-san wants more from Kisa than his patronage.\n5) Drowning in Love (Oboreru Kankei)\nYoshino Keiichi's life has gotten a lot more interesting since single father Kayumi Takamasa and his two young children moved in next door. Keiichi's become a mother to the youngsters, but his relationship with their father is much more complex...",
  "language": "English",
  "images": [
    "https://img-proxy.imgfo.com/?referer=https://manganelo.com&url=https://s5.mkklcdnv6temp.com/mangakakalot/y2/yokubou_shounen/vol1_chapter_2_a_desire_boy_sawakis_situation/1.jpg",
    "https://img-proxy.imgfo.com/?referer=https://manganelo.com&url=https://s5.mkklcdnv6temp.com/mangakakalot/y2/yokubou_shounen/vol1_chapter_2_a_desire_boy_sawakis_situation/2.jpg",
    "https://img-proxy.imgfo.com/?referer=https://manganelo.com&url=https://s5.mkklcdnv6temp.com/mangakakalot/y2/yokubou_shounen/vol1_chapter_2_a_desire_boy_sawakis_situation/3.jpg",
    "https://img-proxy.imgfo.com/?referer=https://manganelo.com&url=https://s5.mkklcdnv6temp.com/mangakakalot/y2/yokubou_shounen/vol1_chapter_2_a_desire_boy_sawakis_situation/4.jpg",
    "https://img-proxy.imgfo.com/?referer=https://manganelo.com&url=https://s5.mkklcdnv6temp.com/mangakakalot/y2/yokubou_shounen/vol1_chapter_2_a_desire_boy_sawakis_situation/5.jpg",
    "https://img-proxy.imgfo.com/?referer=https://manganelo.com&url=https://s5.mkklcdnv6temp.com/mangakakalot/y2/yokubou_shounen/vol1_chapter_2_a_desire_boy_sawakis_situation/6.jpg",
    "https://img-proxy.imgfo.com/?referer=https://manganelo.com&url=https://s5.mkklcdnv6temp.com/mangakakalot/y2/yokubou_shounen/vol1_chapter_2_a_desire_boy_sawakis_situation/7.jpg",
    "https://img-proxy.imgfo.com/?referer=https://manganelo.com&url=https://s5.mkklcdnv6temp.com/mangakakalot/y2/yokubou_shounen/vol1_chapter_2_a_desire_boy_sawakis_situation/8.jpg",
    "https://img-proxy.imgfo.com/?referer=https://manganelo.com&url=https://s5.mkklcdnv6temp.com/mangakakalot/y2/yokubou_shounen/vol1_chapter_2_a_desire_boy_sawakis_situation/9.jpg",
    "https://img-proxy.imgfo.com/?referer=https://manganelo.com&url=https://s5.mkklcdnv6temp.com/mangakakalot/y2/yokubou_shounen/vol1_chapter_2_a_desire_boy_sawakis_situation/10.jpg",
    "https://img-proxy.imgfo.com/?referer=https://manganelo.com&url=https://s5.mkklcdnv6temp.com/mangakakalot/y2/yokubou_shounen/vol1_chapter_2_a_desire_boy_sawakis_situation/11.jpg",
    "https://img-proxy.imgfo.com/?referer=https://manganelo.com&url=https://s5.mkklcdnv6temp.com/mangakakalot/y2/yokubou_shounen/vol1_chapter_2_a_desire_boy_sawakis_situation/12.jpg",
    "https://img-proxy.imgfo.com/?referer=https://manganelo.com&url=https://s5.mkklcdnv6temp.com/mangakakalot/y2/yokubou_shounen/vol1_chapter_2_a_desire_boy_sawakis_situation/13.jpg",
    "https://img-proxy.imgfo.com/?referer=https://manganelo.com&url=https://s5.mkklcdnv6temp.com/mangakakalot/y2/yokubou_shounen/vol1_chapter_2_a_desire_boy_sawakis_situation/14.jpg",
    "https://img-proxy.imgfo.com/?referer=https://manganelo.com&url=https://s5.mkklcdnv6temp.com/mangakakalot/y2/yokubou_shounen/vol1_chapter_2_a_desire_boy_sawakis_situation/15.jpg",
    "https://img-proxy.imgfo.com/?referer=https://manganelo.com&url=https://s5.mkklcdnv6temp.com/mangakakalot/y2/yokubou_shounen/vol1_chapter_2_a_desire_boy_sawakis_situation/16.jpg",
    "https://img-proxy.imgfo.com/?referer=https://manganelo.com&url=https://s5.mkklcdnv6temp.com/mangakakalot/y2/yokubou_shounen/vol1_chapter_2_a_desire_boy_sawakis_situation/17.jpg",
    "https://img-proxy.imgfo.com/?referer=https://manganelo.com&url=https://s5.mkklcdnv6temp.com/mangakakalot/y2/yokubou_shounen/vol1_chapter_2_a_desire_boy_sawakis_situation/18.jpg",
    "https://img-proxy.imgfo.com/?referer=https://manganelo.com&url=https://s5.mkklcdnv6temp.com/mangakakalot/y2/yokubou_shounen/vol1_chapter_2_a_desire_boy_sawakis_situation/19.jpg",
    "https://img-proxy.imgfo.com/?referer=https://manganelo.com&url=https://s5.mkklcdnv6temp.com/mangakakalot/y2/yokubou_shounen/vol1_chapter_2_a_desire_boy_sawakis_situation/20.jpg",
    "https://img-proxy.imgfo.com/?referer=https://manganelo.com&url=https://s5.mkklcdnv6temp.com/mangakakalot/y2/yokubou_shounen/vol1_chapter_2_a_desire_boy_sawakis_situation/21.jpg",
    "https://img-proxy.imgfo.com/?referer=https://manganelo.com&url=https://s5.mkklcdnv6temp.com/mangakakalot/y2/yokubou_shounen/vol1_chapter_2_a_desire_boy_sawakis_situation/22.jpg",
    "https://img-proxy.imgfo.com/?referer=https://manganelo.com&url=https://s5.mkklcdnv6temp.com/mangakakalot/y2/yokubou_shounen/vol1_chapter_2_a_desire_boy_sawakis_situation/23.jpg",
    "https://img-proxy.imgfo.com/?referer=https://manganelo.com&url=https://s5.mkklcdnv6temp.com/mangakakalot/y2/yokubou_shounen/vol1_chapter_2_a_desire_boy_sawakis_situation/24.jpg",
    "https://img-proxy.imgfo.com/?referer=https://manganelo.com&url=https://s5.mkklcdnv6temp.com/mangakakalot/y2/yokubou_shounen/vol1_chapter_2_a_desire_boy_sawakis_situation/25.jpg",
    "https://img-proxy.imgfo.com/?referer=https://manganelo.com&url=https://s5.mkklcdnv6temp.com/mangakakalot/y2/yokubou_shounen/vol1_chapter_2_a_desire_boy_sawakis_situation/26.jpg",
    "https://img-proxy.imgfo.com/?referer=https://manganelo.com&url=https://s5.mkklcdnv6temp.com/mangakakalot/y2/yokubou_shounen/vol1_chapter_2_a_desire_boy_sawakis_situation/27.jpg",
    "https://img-proxy.imgfo.com/?referer=https://manganelo.com&url=https://s5.mkklcdnv6temp.com/mangakakalot/y2/yokubou_shounen/vol1_chapter_2_a_desire_boy_sawakis_situation/28.jpg",
    "https://img-proxy.imgfo.com/?referer=https://manganelo.com&url=https://s5.mkklcdnv6temp.com/mangakakalot/y2/yokubou_shounen/vol1_chapter_2_a_desire_boy_sawakis_situation/29.jpg",
    "https://img-proxy.imgfo.com/?referer=https://manganelo.com&url=https://s5.mkklcdnv6temp.com/mangakakalot/y2/yokubou_shounen/vol1_chapter_2_a_desire_boy_sawakis_situation/30.jpg",
    "https://img-proxy.imgfo.com/?referer=https://manganelo.com&url=https://s5.mkklcdnv6temp.com/mangakakalot/y2/yokubou_shounen/vol1_chapter_2_a_desire_boy_sawakis_situation/31.jpg",
    "https://img-proxy.imgfo.com/?referer=https://manganelo.com&url=https://s5.mkklcdnv6temp.com/mangakakalot/y2/yokubou_shounen/vol1_chapter_2_a_desire_boy_sawakis_situation/32.jpg",
    "https://img-proxy.imgfo.com/?referer=https://manganelo.com&url=https://s5.mkklcdnv6temp.com/mangakakalot/y2/yokubou_shounen/vol1_chapter_2_a_desire_boy_sawakis_situation/33.jpg",
    "https://img-proxy.imgfo.com/?referer=https://manganelo.com&url=https://s5.mkklcdnv6temp.com/mangakakalot/y2/yokubou_shounen/vol1_chapter_2_a_desire_boy_sawakis_situation/34.jpg",
    "https://img-proxy.imgfo.com/?referer=https://manganelo.com&url=https://s5.mkklcdnv6temp.com/mangakakalot/y2/yokubou_shounen/vol1_chapter_2_a_desire_boy_sawakis_situation/35.jpg",
    "https://img-proxy.imgfo.com/?referer=https://manganelo.com&url=https://s5.mkklcdnv6temp.com/mangakakalot/y2/yokubou_shounen/vol1_chapter_2_a_desire_boy_sawakis_situation/36.jpg",
    "https://img-proxy.imgfo.com/?referer=https://manganelo.com&url=https://s5.mkklcdnv6temp.com/mangakakalot/y2/yokubou_shounen/vol1_chapter_2_a_desire_boy_sawakis_situation/37.jpg",
    "https://img-proxy.imgfo.com/?referer=https://manganelo.com&url=https://s5.mkklcdnv6temp.com/mangakakalot/y2/yokubou_shounen/vol1_chapter_2_a_desire_boy_sawakis_situation/38.jpg",
    "https://img-proxy.imgfo.com/?referer=https://manganelo.com&url=https://s5.mkklcdnv6temp.com/mangakakalot/y2/yokubou_shounen/vol1_chapter_2_a_desire_boy_sawakis_situation/39.jpg",
    "https://img-proxy.imgfo.com/?referer=https://manganelo.com&url=https://s5.mkklcdnv6temp.com/mangakakalot/y2/yokubou_shounen/vol1_chapter_2_a_desire_boy_sawakis_situation/40.jpg",
    "https://img-proxy.imgfo.com/?referer=https://manganelo.com&url=https://s5.mkklcdnv6temp.com/mangakakalot/y2/yokubou_shounen/vol1_chapter_2_a_desire_boy_sawakis_situation/41.jpg",
    "https://img-proxy.imgfo.com/?referer=https://manganelo.com&url=https://s5.mkklcdnv6temp.com/mangakakalot/y2/yokubou_shounen/vol1_chapter_2_a_desire_boy_sawakis_situation/42.jpg",
    "https://img-proxy.imgfo.com/?referer=https://manganelo.com&url=https://s5.mkklcdnv6temp.com/mangakakalot/y2/yokubou_shounen/vol1_chapter_2_a_desire_boy_sawakis_situation/43.jpg",
    "https://img-proxy.imgfo.com/?referer=https://manganelo.com&url=https://s5.mkklcdnv6temp.com/mangakakalot/y2/yokubou_shounen/vol1_chapter_2_a_desire_boy_sawakis_situation/44.jpg",
    "https://img-proxy.imgfo.com/?referer=https://manganelo.com&url=https://s5.mkklcdnv6temp.com/mangakakalot/y2/yokubou_shounen/vol1_chapter_2_a_desire_boy_sawakis_situation/45.jpg",
    "https://img-proxy.imgfo.com/?referer=https://manganelo.com&url=https://s5.mkklcdnv6temp.com/mangakakalot/y2/yokubou_shounen/vol1_chapter_2_a_desire_boy_sawakis_situation/46.jpg"
  ]
}