{
  "cover": "https://avt.mkklcdnv6.com/16/e/5-1583472474.jpg",
  "title": "Inumimi",
  "original": "いぬみみ ; 同居犬耳娘 ; Dog Ears",
  "genre": "Comedy, Ecchi, Harem, Seinen, Slice of life, Manga",
  "author": "Nakajima Rei",
  "status": "Completed",
  "backlink": "https://manganu.com/collections/nakajima-rei/inumimi/",
  "description": "After spending half a year abroad, Kinosaki Yuichiro is in for a shocking homecoming when he discovers that his inventor/scientist father has given his 3 dogs the appearance and abilities of girls. Now he is in for a ton of grief as he tries to cope with these changes.",
  "language": "English",
  "images": [
    "https://img-proxy.imgfo.com/?referer=https://manganelo.com&url=https://s5.mkklcdnv6temp.com/mangakakalot/i1/inumimi/vol2_chapter_10/1.jpg",
    "https://img-proxy.imgfo.com/?referer=https://manganelo.com&url=https://s5.mkklcdnv6temp.com/mangakakalot/i1/inumimi/vol2_chapter_10/2.jpg",
    "https://img-proxy.imgfo.com/?referer=https://manganelo.com&url=https://s5.mkklcdnv6temp.com/mangakakalot/i1/inumimi/vol2_chapter_10/3.jpg",
    "https://img-proxy.imgfo.com/?referer=https://manganelo.com&url=https://s5.mkklcdnv6temp.com/mangakakalot/i1/inumimi/vol2_chapter_10/4.jpg",
    "https://img-proxy.imgfo.com/?referer=https://manganelo.com&url=https://s5.mkklcdnv6temp.com/mangakakalot/i1/inumimi/vol2_chapter_10/5.jpg",
    "https://img-proxy.imgfo.com/?referer=https://manganelo.com&url=https://s5.mkklcdnv6temp.com/mangakakalot/i1/inumimi/vol2_chapter_10/6.jpg",
    "https://img-proxy.imgfo.com/?referer=https://manganelo.com&url=https://s5.mkklcdnv6temp.com/mangakakalot/i1/inumimi/vol2_chapter_10/7.jpg",
    "https://img-proxy.imgfo.com/?referer=https://manganelo.com&url=https://s5.mkklcdnv6temp.com/mangakakalot/i1/inumimi/vol2_chapter_10/8.jpg",
    "https://img-proxy.imgfo.com/?referer=https://manganelo.com&url=https://s5.mkklcdnv6temp.com/mangakakalot/i1/inumimi/vol2_chapter_10/9.jpg",
    "https://img-proxy.imgfo.com/?referer=https://manganelo.com&url=https://s5.mkklcdnv6temp.com/mangakakalot/i1/inumimi/vol2_chapter_10/10.jpg",
    "https://img-proxy.imgfo.com/?referer=https://manganelo.com&url=https://s5.mkklcdnv6temp.com/mangakakalot/i1/inumimi/vol2_chapter_10/11.jpg",
    "https://img-proxy.imgfo.com/?referer=https://manganelo.com&url=https://s5.mkklcdnv6temp.com/mangakakalot/i1/inumimi/vol2_chapter_10/12.jpg",
    "https://img-proxy.imgfo.com/?referer=https://manganelo.com&url=https://s5.mkklcdnv6temp.com/mangakakalot/i1/inumimi/vol2_chapter_10/13.jpg",
    "https://img-proxy.imgfo.com/?referer=https://manganelo.com&url=https://s5.mkklcdnv6temp.com/mangakakalot/i1/inumimi/vol2_chapter_10/14.jpg",
    "https://img-proxy.imgfo.com/?referer=https://manganelo.com&url=https://s5.mkklcdnv6temp.com/mangakakalot/i1/inumimi/vol2_chapter_10/15.jpg",
    "https://img-proxy.imgfo.com/?referer=https://manganelo.com&url=https://s5.mkklcdnv6temp.com/mangakakalot/i1/inumimi/vol2_chapter_10/16.jpg",
    "https://img-proxy.imgfo.com/?referer=https://manganelo.com&url=https://s5.mkklcdnv6temp.com/mangakakalot/i1/inumimi/vol2_chapter_10/17.jpg",
    "https://img-proxy.imgfo.com/?referer=https://manganelo.com&url=https://s5.mkklcdnv6temp.com/mangakakalot/i1/inumimi/vol2_chapter_10/18.jpg",
    "https://img-proxy.imgfo.com/?referer=https://manganelo.com&url=https://s5.mkklcdnv6temp.com/mangakakalot/i1/inumimi/vol2_chapter_10/19.jpg",
    "https://img-proxy.imgfo.com/?referer=https://manganelo.com&url=https://s5.mkklcdnv6temp.com/mangakakalot/i1/inumimi/vol2_chapter_10/20.jpg",
    "https://img-proxy.imgfo.com/?referer=https://manganelo.com&url=https://s5.mkklcdnv6temp.com/mangakakalot/i1/inumimi/vol2_chapter_10/21.jpg",
    "https://img-proxy.imgfo.com/?referer=https://manganelo.com&url=https://s5.mkklcdnv6temp.com/mangakakalot/i1/inumimi/vol2_chapter_10/22.jpg",
    "https://img-proxy.imgfo.com/?referer=https://manganelo.com&url=https://s5.mkklcdnv6temp.com/mangakakalot/i1/inumimi/vol2_chapter_10/23.jpg",
    "https://img-proxy.imgfo.com/?referer=https://manganelo.com&url=https://s5.mkklcdnv6temp.com/mangakakalot/i1/inumimi/vol2_chapter_10/24.jpg",
    "https://img-proxy.imgfo.com/?referer=https://manganelo.com&url=https://s5.mkklcdnv6temp.com/mangakakalot/i1/inumimi/vol2_chapter_10/25.jpg"
  ]
}