{
  "cover": "https://avt.mkklcdnv6.com/5/l/4-1583469886.jpg",
  "title": "Change 123",
  "original": "ちぇんじひふみ ; ちぇんじ123 ; 变身123 ; Change Hifumi ; Change123",
  "genre": "Action, Comedy, Drama, Ecchi, Martial arts, Psychological, Romance, School life, Shounen, Manga",
  "author": "Sakaguchi Iku",
  "status": "Completed",
  "backlink": "https://manganu.com/collections/sakaguchi-iku/change-123/",
  "description": "Change 123 follows Motoko Gettou, a not-so-average teenage girl. Orphaned at an early age after the death of her mother, she was taken in by her \"three fathers,\" each a master of a different style of martial arts or combat-training. Under the care of each parent, a young Motoko was subjected to excessively rigorous training. So much was the physical and mental strain that Motoko developed three split-personalities, known as the HiFuMi, consisting of the ever hard-headed Hibiki, quick and agile Fujiko, and cute and immature Mikiri, each individually skilled in combat skills learned from each master. One day, a man begins to harass a terrified Motoko, now in high school, as he catches her alone down an alleyway. A classmate of hers, Teruharu Kosukegawa, tries to help Motoko, only in time to watch as an infuriated Hibiki kicks the harassing man directly across his path straight into a car. Returning to herself, a shocked Motoko promises Kosukegawa she will do anything if he doesn't tell her secret. From here poor Kosukegawa must manage a flurry of combat fighting and ecchi madness as he is brought along for the ride of his life into the chaotic lifestyle of HiFuMi. But what initially developed as a friendship seems to have become more to Kosukegawa as he longs to tell Motoko his feelings for her -- if he can manage to survive long enough to confess, let alone find the opportune moment. What will transpire?\nFrom Baka-Updates:\nIn Change 123, we meet Motoko, a girl with a very strange problem. In order to cope with her 3 adoptive fathers' incredibly intensive training methods, she developed multiple personalities, each with a different martial specialty. But what happens if none of them can beat her opponent on their own? And what further nugget of wisdom will be imparted by the great Kamen Raider?",
  "language": "English",
  "images": [
    "https://img-proxy.imgfo.com/?referer=https://manganelo.com&url=https://s41.mkklcdnv6temp.com/mangakakalot/c1/change_123/vol2_chapter_9_inner_toughts_a_outer_thoughts/1.jpg",
    "https://img-proxy.imgfo.com/?referer=https://manganelo.com&url=https://s41.mkklcdnv6temp.com/mangakakalot/c1/change_123/vol2_chapter_9_inner_toughts_a_outer_thoughts/2.jpg",
    "https://img-proxy.imgfo.com/?referer=https://manganelo.com&url=https://s41.mkklcdnv6temp.com/mangakakalot/c1/change_123/vol2_chapter_9_inner_toughts_a_outer_thoughts/3.jpg",
    "https://img-proxy.imgfo.com/?referer=https://manganelo.com&url=https://s41.mkklcdnv6temp.com/mangakakalot/c1/change_123/vol2_chapter_9_inner_toughts_a_outer_thoughts/4.jpg",
    "https://img-proxy.imgfo.com/?referer=https://manganelo.com&url=https://s41.mkklcdnv6temp.com/mangakakalot/c1/change_123/vol2_chapter_9_inner_toughts_a_outer_thoughts/5.jpg",
    "https://img-proxy.imgfo.com/?referer=https://manganelo.com&url=https://s41.mkklcdnv6temp.com/mangakakalot/c1/change_123/vol2_chapter_9_inner_toughts_a_outer_thoughts/6.jpg",
    "https://img-proxy.imgfo.com/?referer=https://manganelo.com&url=https://s41.mkklcdnv6temp.com/mangakakalot/c1/change_123/vol2_chapter_9_inner_toughts_a_outer_thoughts/7.jpg",
    "https://img-proxy.imgfo.com/?referer=https://manganelo.com&url=https://s41.mkklcdnv6temp.com/mangakakalot/c1/change_123/vol2_chapter_9_inner_toughts_a_outer_thoughts/8.jpg",
    "https://img-proxy.imgfo.com/?referer=https://manganelo.com&url=https://s41.mkklcdnv6temp.com/mangakakalot/c1/change_123/vol2_chapter_9_inner_toughts_a_outer_thoughts/9.jpg",
    "https://img-proxy.imgfo.com/?referer=https://manganelo.com&url=https://s41.mkklcdnv6temp.com/mangakakalot/c1/change_123/vol2_chapter_9_inner_toughts_a_outer_thoughts/10.jpg",
    "https://img-proxy.imgfo.com/?referer=https://manganelo.com&url=https://s41.mkklcdnv6temp.com/mangakakalot/c1/change_123/vol2_chapter_9_inner_toughts_a_outer_thoughts/11.jpg",
    "https://img-proxy.imgfo.com/?referer=https://manganelo.com&url=https://s41.mkklcdnv6temp.com/mangakakalot/c1/change_123/vol2_chapter_9_inner_toughts_a_outer_thoughts/12.jpg",
    "https://img-proxy.imgfo.com/?referer=https://manganelo.com&url=https://s41.mkklcdnv6temp.com/mangakakalot/c1/change_123/vol2_chapter_9_inner_toughts_a_outer_thoughts/13.jpg",
    "https://img-proxy.imgfo.com/?referer=https://manganelo.com&url=https://s41.mkklcdnv6temp.com/mangakakalot/c1/change_123/vol2_chapter_9_inner_toughts_a_outer_thoughts/14.jpg",
    "https://img-proxy.imgfo.com/?referer=https://manganelo.com&url=https://s41.mkklcdnv6temp.com/mangakakalot/c1/change_123/vol2_chapter_9_inner_toughts_a_outer_thoughts/15.jpg",
    "https://img-proxy.imgfo.com/?referer=https://manganelo.com&url=https://s41.mkklcdnv6temp.com/mangakakalot/c1/change_123/vol2_chapter_9_inner_toughts_a_outer_thoughts/16.jpg",
    "https://img-proxy.imgfo.com/?referer=https://manganelo.com&url=https://s41.mkklcdnv6temp.com/mangakakalot/c1/change_123/vol2_chapter_9_inner_toughts_a_outer_thoughts/17.jpg",
    "https://img-proxy.imgfo.com/?referer=https://manganelo.com&url=https://s41.mkklcdnv6temp.com/mangakakalot/c1/change_123/vol2_chapter_9_inner_toughts_a_outer_thoughts/18.jpg",
    "https://img-proxy.imgfo.com/?referer=https://manganelo.com&url=https://s41.mkklcdnv6temp.com/mangakakalot/c1/change_123/vol2_chapter_9_inner_toughts_a_outer_thoughts/19.jpg",
    "https://img-proxy.imgfo.com/?referer=https://manganelo.com&url=https://s41.mkklcdnv6temp.com/mangakakalot/c1/change_123/vol2_chapter_9_inner_toughts_a_outer_thoughts/20.jpg",
    "https://img-proxy.imgfo.com/?referer=https://manganelo.com&url=https://s41.mkklcdnv6temp.com/mangakakalot/c1/change_123/vol2_chapter_9_inner_toughts_a_outer_thoughts/21.jpg",
    "https://img-proxy.imgfo.com/?referer=https://manganelo.com&url=https://s41.mkklcdnv6temp.com/mangakakalot/c1/change_123/vol2_chapter_9_inner_toughts_a_outer_thoughts/22.jpg",
    "https://img-proxy.imgfo.com/?referer=https://manganelo.com&url=https://s41.mkklcdnv6temp.com/mangakakalot/c1/change_123/vol2_chapter_9_inner_toughts_a_outer_thoughts/23.jpg",
    "https://img-proxy.imgfo.com/?referer=https://manganelo.com&url=https://s41.mkklcdnv6temp.com/mangakakalot/c1/change_123/vol2_chapter_9_inner_toughts_a_outer_thoughts/24.jpg",
    "https://img-proxy.imgfo.com/?referer=https://manganelo.com&url=https://s41.mkklcdnv6temp.com/mangakakalot/c1/change_123/vol2_chapter_9_inner_toughts_a_outer_thoughts/25.jpg",
    "https://img-proxy.imgfo.com/?referer=https://manganelo.com&url=https://s41.mkklcdnv6temp.com/mangakakalot/c1/change_123/vol2_chapter_9_inner_toughts_a_outer_thoughts/26.jpg",
    "https://img-proxy.imgfo.com/?referer=https://manganelo.com&url=https://s41.mkklcdnv6temp.com/mangakakalot/c1/change_123/vol2_chapter_9_inner_toughts_a_outer_thoughts/27.jpg",
    "https://img-proxy.imgfo.com/?referer=https://manganelo.com&url=https://s41.mkklcdnv6temp.com/mangakakalot/c1/change_123/vol2_chapter_9_inner_toughts_a_outer_thoughts/28.jpg",
    "https://img-proxy.imgfo.com/?referer=https://manganelo.com&url=https://s41.mkklcdnv6temp.com/mangakakalot/c1/change_123/vol2_chapter_9_inner_toughts_a_outer_thoughts/29.jpg",
    "https://img-proxy.imgfo.com/?referer=https://manganelo.com&url=https://s41.mkklcdnv6temp.com/mangakakalot/c1/change_123/vol2_chapter_9_inner_toughts_a_outer_thoughts/30.jpg",
    "https://img-proxy.imgfo.com/?referer=https://manganelo.com&url=https://s41.mkklcdnv6temp.com/mangakakalot/c1/change_123/vol2_chapter_9_inner_toughts_a_outer_thoughts/31.jpg",
    "https://img-proxy.imgfo.com/?referer=https://manganelo.com&url=https://s41.mkklcdnv6temp.com/mangakakalot/c1/change_123/vol2_chapter_9_inner_toughts_a_outer_thoughts/32.jpg",
    "https://img-proxy.imgfo.com/?referer=https://manganelo.com&url=https://s41.mkklcdnv6temp.com/mangakakalot/c1/change_123/vol2_chapter_9_inner_toughts_a_outer_thoughts/33.jpg",
    "https://img-proxy.imgfo.com/?referer=https://manganelo.com&url=https://s41.mkklcdnv6temp.com/mangakakalot/c1/change_123/vol2_chapter_9_inner_toughts_a_outer_thoughts/34.jpg",
    "https://img-proxy.imgfo.com/?referer=https://manganelo.com&url=https://s41.mkklcdnv6temp.com/mangakakalot/c1/change_123/vol2_chapter_9_inner_toughts_a_outer_thoughts/35.jpg"
  ]
}