{
  "cover": "https://avt.mkklcdnv6.com/10/p/13-1583488134.jpg",
  "title": "Itoshi No Kana",
  "original": "愛しのかな ; My Lovely Ghost KANA",
  "genre": "Adult, Drama, Ecchi, Romance, Slice of life, Supernatural, Manga",
  "author": "Tanaka Yutaka",
  "status": "Completed",
  "backlink": "https://manganu.com/collections/tanaka-yutaka/itoshi-no-kana/",
  "description": "Though his name may mean good luck, Daikichi is far from lucky. Losing his home and his job, he narrowly avoids being homeless when he finds an old abandoned apartment building. But the apartment isn't nearly as abandoned as it first appeared, as it's being occupied by the ghost of a girl who committed suicide there many years prior. An ecchi romantic comedy from Tanaka Yutaka, mangaka of Ai-Ren.\n--from Solaris-SVU",
  "language": "English",
  "images": [
    "https://img-proxy.imgfo.com/?referer=https://manganelo.com&url=https://s41.mkklcdnv6temp.com/mangakakalot/i2/itoshi_no_kana/vol1_chapter_8_under_the_stars/1.jpg",
    "https://img-proxy.imgfo.com/?referer=https://manganelo.com&url=https://s41.mkklcdnv6temp.com/mangakakalot/i2/itoshi_no_kana/vol1_chapter_8_under_the_stars/2.jpg",
    "https://img-proxy.imgfo.com/?referer=https://manganelo.com&url=https://s41.mkklcdnv6temp.com/mangakakalot/i2/itoshi_no_kana/vol1_chapter_8_under_the_stars/3.jpg",
    "https://img-proxy.imgfo.com/?referer=https://manganelo.com&url=https://s41.mkklcdnv6temp.com/mangakakalot/i2/itoshi_no_kana/vol1_chapter_8_under_the_stars/4.jpg",
    "https://img-proxy.imgfo.com/?referer=https://manganelo.com&url=https://s41.mkklcdnv6temp.com/mangakakalot/i2/itoshi_no_kana/vol1_chapter_8_under_the_stars/5.jpg",
    "https://img-proxy.imgfo.com/?referer=https://manganelo.com&url=https://s41.mkklcdnv6temp.com/mangakakalot/i2/itoshi_no_kana/vol1_chapter_8_under_the_stars/6.jpg",
    "https://img-proxy.imgfo.com/?referer=https://manganelo.com&url=https://s41.mkklcdnv6temp.com/mangakakalot/i2/itoshi_no_kana/vol1_chapter_8_under_the_stars/7.jpg",
    "https://img-proxy.imgfo.com/?referer=https://manganelo.com&url=https://s41.mkklcdnv6temp.com/mangakakalot/i2/itoshi_no_kana/vol1_chapter_8_under_the_stars/8.jpg",
    "https://img-proxy.imgfo.com/?referer=https://manganelo.com&url=https://s41.mkklcdnv6temp.com/mangakakalot/i2/itoshi_no_kana/vol1_chapter_8_under_the_stars/9.jpg",
    "https://img-proxy.imgfo.com/?referer=https://manganelo.com&url=https://s41.mkklcdnv6temp.com/mangakakalot/i2/itoshi_no_kana/vol1_chapter_8_under_the_stars/10.jpg",
    "https://img-proxy.imgfo.com/?referer=https://manganelo.com&url=https://s41.mkklcdnv6temp.com/mangakakalot/i2/itoshi_no_kana/vol1_chapter_8_under_the_stars/11.jpg",
    "https://img-proxy.imgfo.com/?referer=https://manganelo.com&url=https://s41.mkklcdnv6temp.com/mangakakalot/i2/itoshi_no_kana/vol1_chapter_8_under_the_stars/12.jpg",
    "https://img-proxy.imgfo.com/?referer=https://manganelo.com&url=https://s41.mkklcdnv6temp.com/mangakakalot/i2/itoshi_no_kana/vol1_chapter_8_under_the_stars/13.jpg",
    "https://img-proxy.imgfo.com/?referer=https://manganelo.com&url=https://s41.mkklcdnv6temp.com/mangakakalot/i2/itoshi_no_kana/vol1_chapter_8_under_the_stars/14.jpg",
    "https://img-proxy.imgfo.com/?referer=https://manganelo.com&url=https://s41.mkklcdnv6temp.com/mangakakalot/i2/itoshi_no_kana/vol1_chapter_8_under_the_stars/15.jpg",
    "https://img-proxy.imgfo.com/?referer=https://manganelo.com&url=https://s41.mkklcdnv6temp.com/mangakakalot/i2/itoshi_no_kana/vol1_chapter_8_under_the_stars/16.jpg",
    "https://img-proxy.imgfo.com/?referer=https://manganelo.com&url=https://s41.mkklcdnv6temp.com/mangakakalot/i2/itoshi_no_kana/vol1_chapter_8_under_the_stars/17.jpg",
    "https://img-proxy.imgfo.com/?referer=https://manganelo.com&url=https://s41.mkklcdnv6temp.com/mangakakalot/i2/itoshi_no_kana/vol1_chapter_8_under_the_stars/18.jpg",
    "https://img-proxy.imgfo.com/?referer=https://manganelo.com&url=https://s41.mkklcdnv6temp.com/mangakakalot/i2/itoshi_no_kana/vol1_chapter_8_under_the_stars/19.jpg",
    "https://img-proxy.imgfo.com/?referer=https://manganelo.com&url=https://s41.mkklcdnv6temp.com/mangakakalot/i2/itoshi_no_kana/vol1_chapter_8_under_the_stars/20.jpg",
    "https://img-proxy.imgfo.com/?referer=https://manganelo.com&url=https://s41.mkklcdnv6temp.com/mangakakalot/i2/itoshi_no_kana/vol1_chapter_8_under_the_stars/21.jpg",
    "https://img-proxy.imgfo.com/?referer=https://manganelo.com&url=https://s41.mkklcdnv6temp.com/mangakakalot/i2/itoshi_no_kana/vol1_chapter_8_under_the_stars/22.jpg",
    "https://img-proxy.imgfo.com/?referer=https://manganelo.com&url=https://s41.mkklcdnv6temp.com/mangakakalot/i2/itoshi_no_kana/vol1_chapter_8_under_the_stars/23.jpg",
    "https://img-proxy.imgfo.com/?referer=https://manganelo.com&url=https://s41.mkklcdnv6temp.com/mangakakalot/i2/itoshi_no_kana/vol1_chapter_8_under_the_stars/24.jpg",
    "https://img-proxy.imgfo.com/?referer=https://manganelo.com&url=https://s41.mkklcdnv6temp.com/mangakakalot/i2/itoshi_no_kana/vol1_chapter_8_under_the_stars/25.jpg",
    "https://img-proxy.imgfo.com/?referer=https://manganelo.com&url=https://s41.mkklcdnv6temp.com/mangakakalot/i2/itoshi_no_kana/vol1_chapter_8_under_the_stars/26.jpg",
    "https://img-proxy.imgfo.com/?referer=https://manganelo.com&url=https://s41.mkklcdnv6temp.com/mangakakalot/i2/itoshi_no_kana/vol1_chapter_8_under_the_stars/27.jpg",
    "https://img-proxy.imgfo.com/?referer=https://manganelo.com&url=https://s41.mkklcdnv6temp.com/mangakakalot/i2/itoshi_no_kana/vol1_chapter_8_under_the_stars/28.jpg",
    "https://img-proxy.imgfo.com/?referer=https://manganelo.com&url=https://s41.mkklcdnv6temp.com/mangakakalot/i2/itoshi_no_kana/vol1_chapter_8_under_the_stars/29.jpg",
    "https://img-proxy.imgfo.com/?referer=https://manganelo.com&url=https://s41.mkklcdnv6temp.com/mangakakalot/i2/itoshi_no_kana/vol1_chapter_8_under_the_stars/30.jpg",
    "https://img-proxy.imgfo.com/?referer=https://manganelo.com&url=https://s41.mkklcdnv6temp.com/mangakakalot/i2/itoshi_no_kana/vol1_chapter_8_under_the_stars/31.jpg",
    "https://img-proxy.imgfo.com/?referer=https://manganelo.com&url=https://s41.mkklcdnv6temp.com/mangakakalot/i2/itoshi_no_kana/vol1_chapter_8_under_the_stars/32.jpg",
    "https://img-proxy.imgfo.com/?referer=https://manganelo.com&url=https://s41.mkklcdnv6temp.com/mangakakalot/i2/itoshi_no_kana/vol1_chapter_8_under_the_stars/33.jpg",
    "https://img-proxy.imgfo.com/?referer=https://manganelo.com&url=https://s41.mkklcdnv6temp.com/mangakakalot/i2/itoshi_no_kana/vol1_chapter_8_under_the_stars/34.jpg",
    "https://img-proxy.imgfo.com/?referer=https://manganelo.com&url=https://s41.mkklcdnv6temp.com/mangakakalot/i2/itoshi_no_kana/vol1_chapter_8_under_the_stars/35.jpg",
    "https://img-proxy.imgfo.com/?referer=https://manganelo.com&url=https://s41.mkklcdnv6temp.com/mangakakalot/i2/itoshi_no_kana/vol1_chapter_8_under_the_stars/36.jpg",
    "https://img-proxy.imgfo.com/?referer=https://manganelo.com&url=https://s41.mkklcdnv6temp.com/mangakakalot/i2/itoshi_no_kana/vol1_chapter_8_under_the_stars/37.jpg",
    "https://img-proxy.imgfo.com/?referer=https://manganelo.com&url=https://s41.mkklcdnv6temp.com/mangakakalot/i2/itoshi_no_kana/vol1_chapter_8_under_the_stars/38.jpg",
    "https://img-proxy.imgfo.com/?referer=https://manganelo.com&url=https://s41.mkklcdnv6temp.com/mangakakalot/i2/itoshi_no_kana/vol1_chapter_8_under_the_stars/39.jpg",
    "https://img-proxy.imgfo.com/?referer=https://manganelo.com&url=https://s41.mkklcdnv6temp.com/mangakakalot/i2/itoshi_no_kana/vol1_chapter_8_under_the_stars/40.jpg",
    "https://img-proxy.imgfo.com/?referer=https://manganelo.com&url=https://s41.mkklcdnv6temp.com/mangakakalot/i2/itoshi_no_kana/vol1_chapter_8_under_the_stars/41.jpg",
    "https://img-proxy.imgfo.com/?referer=https://manganelo.com&url=https://s41.mkklcdnv6temp.com/mangakakalot/i2/itoshi_no_kana/vol1_chapter_8_under_the_stars/42.jpg",
    "https://img-proxy.imgfo.com/?referer=https://manganelo.com&url=https://s41.mkklcdnv6temp.com/mangakakalot/i2/itoshi_no_kana/vol1_chapter_8_under_the_stars/43.jpg",
    "https://img-proxy.imgfo.com/?referer=https://manganelo.com&url=https://s41.mkklcdnv6temp.com/mangakakalot/i2/itoshi_no_kana/vol1_chapter_8_under_the_stars/44.jpg",
    "https://img-proxy.imgfo.com/?referer=https://manganelo.com&url=https://s41.mkklcdnv6temp.com/mangakakalot/i2/itoshi_no_kana/vol1_chapter_8_under_the_stars/45.jpg",
    "https://img-proxy.imgfo.com/?referer=https://manganelo.com&url=https://s41.mkklcdnv6temp.com/mangakakalot/i2/itoshi_no_kana/vol1_chapter_8_under_the_stars/46.jpg",
    "https://img-proxy.imgfo.com/?referer=https://manganelo.com&url=https://s41.mkklcdnv6temp.com/mangakakalot/i2/itoshi_no_kana/vol1_chapter_8_under_the_stars/47.jpg",
    "https://img-proxy.imgfo.com/?referer=https://manganelo.com&url=https://s41.mkklcdnv6temp.com/mangakakalot/i2/itoshi_no_kana/vol1_chapter_8_under_the_stars/48.jpg"
  ]
}