{
  "cover": "https://avt.mkklcdnv6.com/8/m/16-1583493772.jpg",
  "title": "Let's Get Married!",
  "original": "結婚しようよ (水上航) ; Kekkon Shiyouyo ; Kekkon Shou! ; Let's Get Married ; Kekkon Shiyou yo ; Hãy cưới đi! (Vietnamese)",
  "genre": "Comedy, Drama, Romance, School life, Shoujo, Slice of life, Manga",
  "author": "Mizukami Wataru",
  "status": "Completed",
  "backlink": "https://manganu.com/collections/mizukami-wataru/lets-get-married/",
  "description": "Touko has always heard stories about her dead grandfather and his lover and wishes to one day find a love like theirs. However, this dream is suddenly crushed as her grandfather's lover appears and forces Touko to take on her two grandsons as fiancés!",
  "language": "English",
  "images": [
    "https://img-proxy.imgfo.com/?referer=https://manganelo.com&url=https://s6.mkklcdnv6temp.com/mangakakalot/l1/lets_get_married/vol04_chapter_018/1.jpg",
    "https://img-proxy.imgfo.com/?referer=https://manganelo.com&url=https://s6.mkklcdnv6temp.com/mangakakalot/l1/lets_get_married/vol04_chapter_018/2.jpg",
    "https://img-proxy.imgfo.com/?referer=https://manganelo.com&url=https://s6.mkklcdnv6temp.com/mangakakalot/l1/lets_get_married/vol04_chapter_018/3.jpg",
    "https://img-proxy.imgfo.com/?referer=https://manganelo.com&url=https://s6.mkklcdnv6temp.com/mangakakalot/l1/lets_get_married/vol04_chapter_018/4.jpg",
    "https://img-proxy.imgfo.com/?referer=https://manganelo.com&url=https://s6.mkklcdnv6temp.com/mangakakalot/l1/lets_get_married/vol04_chapter_018/5.jpg",
    "https://img-proxy.imgfo.com/?referer=https://manganelo.com&url=https://s6.mkklcdnv6temp.com/mangakakalot/l1/lets_get_married/vol04_chapter_018/6.jpg",
    "https://img-proxy.imgfo.com/?referer=https://manganelo.com&url=https://s6.mkklcdnv6temp.com/mangakakalot/l1/lets_get_married/vol04_chapter_018/7.jpg",
    "https://img-proxy.imgfo.com/?referer=https://manganelo.com&url=https://s6.mkklcdnv6temp.com/mangakakalot/l1/lets_get_married/vol04_chapter_018/8.jpg",
    "https://img-proxy.imgfo.com/?referer=https://manganelo.com&url=https://s6.mkklcdnv6temp.com/mangakakalot/l1/lets_get_married/vol04_chapter_018/9.jpg",
    "https://img-proxy.imgfo.com/?referer=https://manganelo.com&url=https://s6.mkklcdnv6temp.com/mangakakalot/l1/lets_get_married/vol04_chapter_018/10.jpg",
    "https://img-proxy.imgfo.com/?referer=https://manganelo.com&url=https://s6.mkklcdnv6temp.com/mangakakalot/l1/lets_get_married/vol04_chapter_018/11.jpg",
    "https://img-proxy.imgfo.com/?referer=https://manganelo.com&url=https://s6.mkklcdnv6temp.com/mangakakalot/l1/lets_get_married/vol04_chapter_018/12.jpg",
    "https://img-proxy.imgfo.com/?referer=https://manganelo.com&url=https://s6.mkklcdnv6temp.com/mangakakalot/l1/lets_get_married/vol04_chapter_018/13.jpg",
    "https://img-proxy.imgfo.com/?referer=https://manganelo.com&url=https://s6.mkklcdnv6temp.com/mangakakalot/l1/lets_get_married/vol04_chapter_018/14.jpg",
    "https://img-proxy.imgfo.com/?referer=https://manganelo.com&url=https://s6.mkklcdnv6temp.com/mangakakalot/l1/lets_get_married/vol04_chapter_018/15.jpg",
    "https://img-proxy.imgfo.com/?referer=https://manganelo.com&url=https://s6.mkklcdnv6temp.com/mangakakalot/l1/lets_get_married/vol04_chapter_018/16.jpg",
    "https://img-proxy.imgfo.com/?referer=https://manganelo.com&url=https://s6.mkklcdnv6temp.com/mangakakalot/l1/lets_get_married/vol04_chapter_018/17.jpg",
    "https://img-proxy.imgfo.com/?referer=https://manganelo.com&url=https://s6.mkklcdnv6temp.com/mangakakalot/l1/lets_get_married/vol04_chapter_018/18.jpg",
    "https://img-proxy.imgfo.com/?referer=https://manganelo.com&url=https://s6.mkklcdnv6temp.com/mangakakalot/l1/lets_get_married/vol04_chapter_018/19.jpg",
    "https://img-proxy.imgfo.com/?referer=https://manganelo.com&url=https://s6.mkklcdnv6temp.com/mangakakalot/l1/lets_get_married/vol04_chapter_018/20.jpg",
    "https://img-proxy.imgfo.com/?referer=https://manganelo.com&url=https://s6.mkklcdnv6temp.com/mangakakalot/l1/lets_get_married/vol04_chapter_018/21.jpg",
    "https://img-proxy.imgfo.com/?referer=https://manganelo.com&url=https://s6.mkklcdnv6temp.com/mangakakalot/l1/lets_get_married/vol04_chapter_018/22.jpg",
    "https://img-proxy.imgfo.com/?referer=https://manganelo.com&url=https://s6.mkklcdnv6temp.com/mangakakalot/l1/lets_get_married/vol04_chapter_018/23.jpg",
    "https://img-proxy.imgfo.com/?referer=https://manganelo.com&url=https://s6.mkklcdnv6temp.com/mangakakalot/l1/lets_get_married/vol04_chapter_018/24.jpg",
    "https://img-proxy.imgfo.com/?referer=https://manganelo.com&url=https://s6.mkklcdnv6temp.com/mangakakalot/l1/lets_get_married/vol04_chapter_018/25.jpg",
    "https://img-proxy.imgfo.com/?referer=https://manganelo.com&url=https://s6.mkklcdnv6temp.com/mangakakalot/l1/lets_get_married/vol04_chapter_018/26.jpg",
    "https://img-proxy.imgfo.com/?referer=https://manganelo.com&url=https://s6.mkklcdnv6temp.com/mangakakalot/l1/lets_get_married/vol04_chapter_018/27.jpg",
    "https://img-proxy.imgfo.com/?referer=https://manganelo.com&url=https://s6.mkklcdnv6temp.com/mangakakalot/l1/lets_get_married/vol04_chapter_018/28.jpg",
    "https://img-proxy.imgfo.com/?referer=https://manganelo.com&url=https://s6.mkklcdnv6temp.com/mangakakalot/l1/lets_get_married/vol04_chapter_018/29.jpg",
    "https://img-proxy.imgfo.com/?referer=https://manganelo.com&url=https://s6.mkklcdnv6temp.com/mangakakalot/l1/lets_get_married/vol04_chapter_018/30.jpg",
    "https://img-proxy.imgfo.com/?referer=https://manganelo.com&url=https://s6.mkklcdnv6temp.com/mangakakalot/l1/lets_get_married/vol04_chapter_018/31.jpg",
    "https://img-proxy.imgfo.com/?referer=https://manganelo.com&url=https://s6.mkklcdnv6temp.com/mangakakalot/l1/lets_get_married/vol04_chapter_018/32.jpg",
    "https://img-proxy.imgfo.com/?referer=https://manganelo.com&url=https://s6.mkklcdnv6temp.com/mangakakalot/l1/lets_get_married/vol04_chapter_018/33.jpg"
  ]
}