{
  "cover": "https://avt.mkklcdnv6.com/45/k/3-1583469461.jpg",
  "title": "Hard Na Choukyoushi",
  "original": "ハードな調教師 ; 爱情调教师 ; A Hard Trainer",
  "genre": "Comedy, Drama, Josei, Romance, Smut, Manga",
  "author": "Takada Rie",
  "status": "Completed",
  "backlink": "https://manganu.com/collections/takada-rie/hard-na-choukyoushi/",
  "description": "(series of one-shots)\nSummaries from Baka-Updates:\nPlain House\nMinori wanted to be an interior designer so she applied for a job at “Sunhouse Residence” company. During the welcoming karaoke party she took the initiative and sang a song that the director was good at. As a result she was transferred to the show house, which proved to be also the residence of one interesting guy.\nLove Trainer\nAsami, who hates dishonesty, often causes troubles in the company where she's working. This time, she gets a client's director angry, and she receives a letter of transfer for the fourth time. She is appointed to a post in the department of technological development where the elite and honest staff are working. Kayato is her boss and hard trainer. She dislikes him, and wants to go back to the post as a receptionist.\nOrganic Boys\nOn the 20th birthday of Yuu-chan her best friends confess to her. Who will she choose? And how will she react?\nSakura Falling After 5\nRika had no time and no personal life. She worked everyday at her office until 5 and then she helped her father with his shop. One day an university student comes to eat at the shop and this is only the beginning.",
  "language": "English",
  "images": [
    "https://img-proxy.imgfo.com/?referer=https://manganelo.com&url=https://s41.mkklcdnv6temp.com/mangakakalot/h1/hard_na_choukyoushi/vol1_chapter_1_plain_house/1.jpg",
    "https://img-proxy.imgfo.com/?referer=https://manganelo.com&url=https://s41.mkklcdnv6temp.com/mangakakalot/h1/hard_na_choukyoushi/vol1_chapter_1_plain_house/2.jpg",
    "https://img-proxy.imgfo.com/?referer=https://manganelo.com&url=https://s41.mkklcdnv6temp.com/mangakakalot/h1/hard_na_choukyoushi/vol1_chapter_1_plain_house/3.jpg",
    "https://img-proxy.imgfo.com/?referer=https://manganelo.com&url=https://s41.mkklcdnv6temp.com/mangakakalot/h1/hard_na_choukyoushi/vol1_chapter_1_plain_house/4.jpg",
    "https://img-proxy.imgfo.com/?referer=https://manganelo.com&url=https://s41.mkklcdnv6temp.com/mangakakalot/h1/hard_na_choukyoushi/vol1_chapter_1_plain_house/5.jpg",
    "https://img-proxy.imgfo.com/?referer=https://manganelo.com&url=https://s41.mkklcdnv6temp.com/mangakakalot/h1/hard_na_choukyoushi/vol1_chapter_1_plain_house/6.jpg",
    "https://img-proxy.imgfo.com/?referer=https://manganelo.com&url=https://s41.mkklcdnv6temp.com/mangakakalot/h1/hard_na_choukyoushi/vol1_chapter_1_plain_house/7.jpg",
    "https://img-proxy.imgfo.com/?referer=https://manganelo.com&url=https://s41.mkklcdnv6temp.com/mangakakalot/h1/hard_na_choukyoushi/vol1_chapter_1_plain_house/8.jpg",
    "https://img-proxy.imgfo.com/?referer=https://manganelo.com&url=https://s41.mkklcdnv6temp.com/mangakakalot/h1/hard_na_choukyoushi/vol1_chapter_1_plain_house/9.jpg",
    "https://img-proxy.imgfo.com/?referer=https://manganelo.com&url=https://s41.mkklcdnv6temp.com/mangakakalot/h1/hard_na_choukyoushi/vol1_chapter_1_plain_house/10.jpg",
    "https://img-proxy.imgfo.com/?referer=https://manganelo.com&url=https://s41.mkklcdnv6temp.com/mangakakalot/h1/hard_na_choukyoushi/vol1_chapter_1_plain_house/11.jpg",
    "https://img-proxy.imgfo.com/?referer=https://manganelo.com&url=https://s41.mkklcdnv6temp.com/mangakakalot/h1/hard_na_choukyoushi/vol1_chapter_1_plain_house/12.jpg",
    "https://img-proxy.imgfo.com/?referer=https://manganelo.com&url=https://s41.mkklcdnv6temp.com/mangakakalot/h1/hard_na_choukyoushi/vol1_chapter_1_plain_house/13.jpg",
    "https://img-proxy.imgfo.com/?referer=https://manganelo.com&url=https://s41.mkklcdnv6temp.com/mangakakalot/h1/hard_na_choukyoushi/vol1_chapter_1_plain_house/14.jpg",
    "https://img-proxy.imgfo.com/?referer=https://manganelo.com&url=https://s41.mkklcdnv6temp.com/mangakakalot/h1/hard_na_choukyoushi/vol1_chapter_1_plain_house/15.jpg",
    "https://img-proxy.imgfo.com/?referer=https://manganelo.com&url=https://s41.mkklcdnv6temp.com/mangakakalot/h1/hard_na_choukyoushi/vol1_chapter_1_plain_house/16.jpg",
    "https://img-proxy.imgfo.com/?referer=https://manganelo.com&url=https://s41.mkklcdnv6temp.com/mangakakalot/h1/hard_na_choukyoushi/vol1_chapter_1_plain_house/17.jpg",
    "https://img-proxy.imgfo.com/?referer=https://manganelo.com&url=https://s41.mkklcdnv6temp.com/mangakakalot/h1/hard_na_choukyoushi/vol1_chapter_1_plain_house/18.jpg",
    "https://img-proxy.imgfo.com/?referer=https://manganelo.com&url=https://s41.mkklcdnv6temp.com/mangakakalot/h1/hard_na_choukyoushi/vol1_chapter_1_plain_house/19.jpg",
    "https://img-proxy.imgfo.com/?referer=https://manganelo.com&url=https://s41.mkklcdnv6temp.com/mangakakalot/h1/hard_na_choukyoushi/vol1_chapter_1_plain_house/20.jpg",
    "https://img-proxy.imgfo.com/?referer=https://manganelo.com&url=https://s41.mkklcdnv6temp.com/mangakakalot/h1/hard_na_choukyoushi/vol1_chapter_1_plain_house/21.jpg",
    "https://img-proxy.imgfo.com/?referer=https://manganelo.com&url=https://s41.mkklcdnv6temp.com/mangakakalot/h1/hard_na_choukyoushi/vol1_chapter_1_plain_house/22.jpg",
    "https://img-proxy.imgfo.com/?referer=https://manganelo.com&url=https://s41.mkklcdnv6temp.com/mangakakalot/h1/hard_na_choukyoushi/vol1_chapter_1_plain_house/23.jpg",
    "https://img-proxy.imgfo.com/?referer=https://manganelo.com&url=https://s41.mkklcdnv6temp.com/mangakakalot/h1/hard_na_choukyoushi/vol1_chapter_1_plain_house/24.jpg",
    "https://img-proxy.imgfo.com/?referer=https://manganelo.com&url=https://s41.mkklcdnv6temp.com/mangakakalot/h1/hard_na_choukyoushi/vol1_chapter_1_plain_house/25.jpg",
    "https://img-proxy.imgfo.com/?referer=https://manganelo.com&url=https://s41.mkklcdnv6temp.com/mangakakalot/h1/hard_na_choukyoushi/vol1_chapter_1_plain_house/26.jpg",
    "https://img-proxy.imgfo.com/?referer=https://manganelo.com&url=https://s41.mkklcdnv6temp.com/mangakakalot/h1/hard_na_choukyoushi/vol1_chapter_1_plain_house/27.jpg",
    "https://img-proxy.imgfo.com/?referer=https://manganelo.com&url=https://s41.mkklcdnv6temp.com/mangakakalot/h1/hard_na_choukyoushi/vol1_chapter_1_plain_house/28.jpg",
    "https://img-proxy.imgfo.com/?referer=https://manganelo.com&url=https://s41.mkklcdnv6temp.com/mangakakalot/h1/hard_na_choukyoushi/vol1_chapter_1_plain_house/29.jpg",
    "https://img-proxy.imgfo.com/?referer=https://manganelo.com&url=https://s41.mkklcdnv6temp.com/mangakakalot/h1/hard_na_choukyoushi/vol1_chapter_1_plain_house/30.jpg",
    "https://img-proxy.imgfo.com/?referer=https://manganelo.com&url=https://s41.mkklcdnv6temp.com/mangakakalot/h1/hard_na_choukyoushi/vol1_chapter_1_plain_house/31.jpg",
    "https://img-proxy.imgfo.com/?referer=https://manganelo.com&url=https://s41.mkklcdnv6temp.com/mangakakalot/h1/hard_na_choukyoushi/vol1_chapter_1_plain_house/32.jpg",
    "https://img-proxy.imgfo.com/?referer=https://manganelo.com&url=https://s41.mkklcdnv6temp.com/mangakakalot/h1/hard_na_choukyoushi/vol1_chapter_1_plain_house/33.jpg",
    "https://img-proxy.imgfo.com/?referer=https://manganelo.com&url=https://s41.mkklcdnv6temp.com/mangakakalot/h1/hard_na_choukyoushi/vol1_chapter_1_plain_house/34.jpg",
    "https://img-proxy.imgfo.com/?referer=https://manganelo.com&url=https://s41.mkklcdnv6temp.com/mangakakalot/h1/hard_na_choukyoushi/vol1_chapter_1_plain_house/35.jpg",
    "https://img-proxy.imgfo.com/?referer=https://manganelo.com&url=https://s41.mkklcdnv6temp.com/mangakakalot/h1/hard_na_choukyoushi/vol1_chapter_1_plain_house/36.jpg",
    "https://img-proxy.imgfo.com/?referer=https://manganelo.com&url=https://s41.mkklcdnv6temp.com/mangakakalot/h1/hard_na_choukyoushi/vol1_chapter_1_plain_house/37.jpg",
    "https://img-proxy.imgfo.com/?referer=https://manganelo.com&url=https://s41.mkklcdnv6temp.com/mangakakalot/h1/hard_na_choukyoushi/vol1_chapter_1_plain_house/38.jpg",
    "https://img-proxy.imgfo.com/?referer=https://manganelo.com&url=https://s41.mkklcdnv6temp.com/mangakakalot/h1/hard_na_choukyoushi/vol1_chapter_1_plain_house/39.jpg",
    "https://img-proxy.imgfo.com/?referer=https://manganelo.com&url=https://s41.mkklcdnv6temp.com/mangakakalot/h1/hard_na_choukyoushi/vol1_chapter_1_plain_house/40.jpg",
    "https://img-proxy.imgfo.com/?referer=https://manganelo.com&url=https://s41.mkklcdnv6temp.com/mangakakalot/h1/hard_na_choukyoushi/vol1_chapter_1_plain_house/41.jpg",
    "https://img-proxy.imgfo.com/?referer=https://manganelo.com&url=https://s41.mkklcdnv6temp.com/mangakakalot/h1/hard_na_choukyoushi/vol1_chapter_1_plain_house/42.jpg",
    "https://img-proxy.imgfo.com/?referer=https://manganelo.com&url=https://s41.mkklcdnv6temp.com/mangakakalot/h1/hard_na_choukyoushi/vol1_chapter_1_plain_house/43.jpg",
    "https://img-proxy.imgfo.com/?referer=https://manganelo.com&url=https://s41.mkklcdnv6temp.com/mangakakalot/h1/hard_na_choukyoushi/vol1_chapter_1_plain_house/44.jpg",
    "https://img-proxy.imgfo.com/?referer=https://manganelo.com&url=https://s41.mkklcdnv6temp.com/mangakakalot/h1/hard_na_choukyoushi/vol1_chapter_1_plain_house/45.jpg",
    "https://img-proxy.imgfo.com/?referer=https://manganelo.com&url=https://s41.mkklcdnv6temp.com/mangakakalot/h1/hard_na_choukyoushi/vol1_chapter_1_plain_house/46.jpg",
    "https://img-proxy.imgfo.com/?referer=https://manganelo.com&url=https://s41.mkklcdnv6temp.com/mangakakalot/h1/hard_na_choukyoushi/vol1_chapter_1_plain_house/47.jpg",
    "https://img-proxy.imgfo.com/?referer=https://manganelo.com&url=https://s41.mkklcdnv6temp.com/mangakakalot/h1/hard_na_choukyoushi/vol1_chapter_1_plain_house/48.jpg",
    "https://img-proxy.imgfo.com/?referer=https://manganelo.com&url=https://s41.mkklcdnv6temp.com/mangakakalot/h1/hard_na_choukyoushi/vol1_chapter_1_plain_house/49.jpg",
    "https://img-proxy.imgfo.com/?referer=https://manganelo.com&url=https://s41.mkklcdnv6temp.com/mangakakalot/h1/hard_na_choukyoushi/vol1_chapter_1_plain_house/50.jpg",
    "https://img-proxy.imgfo.com/?referer=https://manganelo.com&url=https://s41.mkklcdnv6temp.com/mangakakalot/h1/hard_na_choukyoushi/vol1_chapter_1_plain_house/51.jpg",
    "https://img-proxy.imgfo.com/?referer=https://manganelo.com&url=https://s41.mkklcdnv6temp.com/mangakakalot/h1/hard_na_choukyoushi/vol1_chapter_1_plain_house/52.jpg",
    "https://img-proxy.imgfo.com/?referer=https://manganelo.com&url=https://s41.mkklcdnv6temp.com/mangakakalot/h1/hard_na_choukyoushi/vol1_chapter_1_plain_house/53.jpg",
    "https://img-proxy.imgfo.com/?referer=https://manganelo.com&url=https://s41.mkklcdnv6temp.com/mangakakalot/h1/hard_na_choukyoushi/vol1_chapter_1_plain_house/54.jpg",
    "https://img-proxy.imgfo.com/?referer=https://manganelo.com&url=https://s41.mkklcdnv6temp.com/mangakakalot/h1/hard_na_choukyoushi/vol1_chapter_1_plain_house/55.jpg",
    "https://img-proxy.imgfo.com/?referer=https://manganelo.com&url=https://s41.mkklcdnv6temp.com/mangakakalot/h1/hard_na_choukyoushi/vol1_chapter_1_plain_house/56.jpg",
    "https://img-proxy.imgfo.com/?referer=https://manganelo.com&url=https://s41.mkklcdnv6temp.com/mangakakalot/h1/hard_na_choukyoushi/vol1_chapter_1_plain_house/57.jpg"
  ]
}