{
  "cover": "https://avt.mkklcdnv6.com/46/v/3-1583469521.jpg",
  "title": "Sakigake!! Cromartie Koukou",
  "original": "魁!!クロマティ高校 ; 魁！天兵高校 ; Cromartie High School",
  "genre": "Action, Comedy, School life, Shounen, Manga",
  "author": "Nonaka Eiji",
  "status": "Completed",
  "backlink": "https://manganu.com/collections/nonaka-eiji/sakigake-cromartie-koukou/",
  "description": "Sakigake!! Cromartie Koukou summary is updating. Come visit our website sometime to read the latest chapter of Sakigake!! Cromartie Koukou. If you have any question about this manga, Please don't hesitate to contact us or translate team. Hope you enjoy it.",
  "language": "English",
  "images": [
    "https://img-proxy.imgfo.com/?referer=https://manganelo.com&url=https://s5.mkklcdnv6temp.com/mangakakalot/s1/sakigake_cromartie_koukou/vol15_chapter_298_pet_shop_boy/1.jpg",
    "https://img-proxy.imgfo.com/?referer=https://manganelo.com&url=https://s5.mkklcdnv6temp.com/mangakakalot/s1/sakigake_cromartie_koukou/vol15_chapter_298_pet_shop_boy/2.jpg",
    "https://img-proxy.imgfo.com/?referer=https://manganelo.com&url=https://s5.mkklcdnv6temp.com/mangakakalot/s1/sakigake_cromartie_koukou/vol15_chapter_298_pet_shop_boy/3.jpg",
    "https://img-proxy.imgfo.com/?referer=https://manganelo.com&url=https://s5.mkklcdnv6temp.com/mangakakalot/s1/sakigake_cromartie_koukou/vol15_chapter_298_pet_shop_boy/4.jpg",
    "https://img-proxy.imgfo.com/?referer=https://manganelo.com&url=https://s5.mkklcdnv6temp.com/mangakakalot/s1/sakigake_cromartie_koukou/vol15_chapter_298_pet_shop_boy/5.jpg",
    "https://img-proxy.imgfo.com/?referer=https://manganelo.com&url=https://s5.mkklcdnv6temp.com/mangakakalot/s1/sakigake_cromartie_koukou/vol15_chapter_298_pet_shop_boy/6.jpg",
    "https://img-proxy.imgfo.com/?referer=https://manganelo.com&url=https://s5.mkklcdnv6temp.com/mangakakalot/s1/sakigake_cromartie_koukou/vol15_chapter_298_pet_shop_boy/7.jpg",
    "https://img-proxy.imgfo.com/?referer=https://manganelo.com&url=https://s5.mkklcdnv6temp.com/mangakakalot/s1/sakigake_cromartie_koukou/vol15_chapter_298_pet_shop_boy/8.jpg"
  ]
}