{
  "cover": "https://avt.mkklcdnv6.com/46/v/3-1583469521.jpg",
  "title": "Sakigake!! Cromartie Koukou",
  "original": "魁!!クロマティ高校 ; 魁！天兵高校 ; Cromartie High School",
  "genre": "Action, Comedy, School life, Shounen, Manga",
  "author": "Nonaka Eiji",
  "status": "Completed",
  "backlink": "https://manganu.com/collections/nonaka-eiji/sakigake-cromartie-koukou/",
  "description": "Sakigake!! Cromartie Koukou summary is updating. Come visit our website sometime to read the latest chapter of Sakigake!! Cromartie Koukou. If you have any question about this manga, Please don't hesitate to contact us or translate team. Hope you enjoy it.",
  "language": "English",
  "images": [
    "https://img-proxy.imgfo.com/?referer=https://manganelo.com&url=https://s5.mkklcdnv6temp.com/mangakakalot/s1/sakigake_cromartie_koukou/vol16_chapter_309_comical_brothers/1.jpg",
    "https://img-proxy.imgfo.com/?referer=https://manganelo.com&url=https://s5.mkklcdnv6temp.com/mangakakalot/s1/sakigake_cromartie_koukou/vol16_chapter_309_comical_brothers/2.jpg",
    "https://img-proxy.imgfo.com/?referer=https://manganelo.com&url=https://s5.mkklcdnv6temp.com/mangakakalot/s1/sakigake_cromartie_koukou/vol16_chapter_309_comical_brothers/3.jpg",
    "https://img-proxy.imgfo.com/?referer=https://manganelo.com&url=https://s5.mkklcdnv6temp.com/mangakakalot/s1/sakigake_cromartie_koukou/vol16_chapter_309_comical_brothers/4.jpg",
    "https://img-proxy.imgfo.com/?referer=https://manganelo.com&url=https://s5.mkklcdnv6temp.com/mangakakalot/s1/sakigake_cromartie_koukou/vol16_chapter_309_comical_brothers/5.jpg",
    "https://img-proxy.imgfo.com/?referer=https://manganelo.com&url=https://s5.mkklcdnv6temp.com/mangakakalot/s1/sakigake_cromartie_koukou/vol16_chapter_309_comical_brothers/6.jpg",
    "https://img-proxy.imgfo.com/?referer=https://manganelo.com&url=https://s5.mkklcdnv6temp.com/mangakakalot/s1/sakigake_cromartie_koukou/vol16_chapter_309_comical_brothers/7.jpg",
    "https://img-proxy.imgfo.com/?referer=https://manganelo.com&url=https://s5.mkklcdnv6temp.com/mangakakalot/s1/sakigake_cromartie_koukou/vol16_chapter_309_comical_brothers/8.jpg",
    "https://img-proxy.imgfo.com/?referer=https://manganelo.com&url=https://s5.mkklcdnv6temp.com/mangakakalot/s1/sakigake_cromartie_koukou/vol16_chapter_309_comical_brothers/9.jpg",
    "https://img-proxy.imgfo.com/?referer=https://manganelo.com&url=https://s5.mkklcdnv6temp.com/mangakakalot/s1/sakigake_cromartie_koukou/vol16_chapter_309_comical_brothers/10.jpg",
    "https://img-proxy.imgfo.com/?referer=https://manganelo.com&url=https://s5.mkklcdnv6temp.com/mangakakalot/s1/sakigake_cromartie_koukou/vol16_chapter_309_comical_brothers/11.jpg",
    "https://img-proxy.imgfo.com/?referer=https://manganelo.com&url=https://s5.mkklcdnv6temp.com/mangakakalot/s1/sakigake_cromartie_koukou/vol16_chapter_309_comical_brothers/12.jpg",
    "https://img-proxy.imgfo.com/?referer=https://manganelo.com&url=https://s5.mkklcdnv6temp.com/mangakakalot/s1/sakigake_cromartie_koukou/vol16_chapter_309_comical_brothers/13.jpg",
    "https://img-proxy.imgfo.com/?referer=https://manganelo.com&url=https://s5.mkklcdnv6temp.com/mangakakalot/s1/sakigake_cromartie_koukou/vol16_chapter_309_comical_brothers/14.jpg",
    "https://img-proxy.imgfo.com/?referer=https://manganelo.com&url=https://s5.mkklcdnv6temp.com/mangakakalot/s1/sakigake_cromartie_koukou/vol16_chapter_309_comical_brothers/15.jpg",
    "https://img-proxy.imgfo.com/?referer=https://manganelo.com&url=https://s5.mkklcdnv6temp.com/mangakakalot/s1/sakigake_cromartie_koukou/vol16_chapter_309_comical_brothers/16.jpg",
    "https://img-proxy.imgfo.com/?referer=https://manganelo.com&url=https://s5.mkklcdnv6temp.com/mangakakalot/s1/sakigake_cromartie_koukou/vol16_chapter_309_comical_brothers/17.jpg",
    "https://img-proxy.imgfo.com/?referer=https://manganelo.com&url=https://s5.mkklcdnv6temp.com/mangakakalot/s1/sakigake_cromartie_koukou/vol16_chapter_309_comical_brothers/18.jpg",
    "https://img-proxy.imgfo.com/?referer=https://manganelo.com&url=https://s5.mkklcdnv6temp.com/mangakakalot/s1/sakigake_cromartie_koukou/vol16_chapter_309_comical_brothers/19.jpg",
    "https://img-proxy.imgfo.com/?referer=https://manganelo.com&url=https://s5.mkklcdnv6temp.com/mangakakalot/s1/sakigake_cromartie_koukou/vol16_chapter_309_comical_brothers/20.jpg",
    "https://img-proxy.imgfo.com/?referer=https://manganelo.com&url=https://s5.mkklcdnv6temp.com/mangakakalot/s1/sakigake_cromartie_koukou/vol16_chapter_309_comical_brothers/21.jpg"
  ]
}