{
  "cover": "https://avt.mkklcdnv6.com/17/x/5-1583472548.jpg",
  "title": "Hand Which",
  "original": "牵你的手 ; The Hand Which",
  "genre": "Comedy, Romance, Slice of life, Yaoi, Manga",
  "author": "Suzuki Tsuta",
  "status": "Completed",
  "backlink": "https://manganu.com/collections/suzuki-tsuta/hand-which/",
  "description": "From Dangerous Pleasure:\nAfter being forced to quit his job and getting dumped by his girlfriend in the same day, Sawazu went out drinking with his four university friends to vent his depression. The day just after he announced, \"I shall become gay,\" he woke up to find himself naked and lying beside his good friend Udaka. And after telling the stunned Sawazu, \"I've always liked you,\" and \"I won't see you anymore,\" Udaka left...\nHand Which is a set of stories portraying friendship and love between men. Besides its stunning debut, it also includes extra one-shots that are popular amongst fans.",
  "language": "English",
  "images": [
    "https://img-proxy.imgfo.com/?referer=https://manganelo.com&url=https://s5.mkklcdnv6temp.com/mangakakalot/h1/hand_which/vol1_chapter_7_chokusenjou_ni_shite_8_metoru_8_meters_straight_up_extra_ha/1.jpg",
    "https://img-proxy.imgfo.com/?referer=https://manganelo.com&url=https://s5.mkklcdnv6temp.com/mangakakalot/h1/hand_which/vol1_chapter_7_chokusenjou_ni_shite_8_metoru_8_meters_straight_up_extra_ha/2.jpg",
    "https://img-proxy.imgfo.com/?referer=https://manganelo.com&url=https://s5.mkklcdnv6temp.com/mangakakalot/h1/hand_which/vol1_chapter_7_chokusenjou_ni_shite_8_metoru_8_meters_straight_up_extra_ha/3.jpg",
    "https://img-proxy.imgfo.com/?referer=https://manganelo.com&url=https://s5.mkklcdnv6temp.com/mangakakalot/h1/hand_which/vol1_chapter_7_chokusenjou_ni_shite_8_metoru_8_meters_straight_up_extra_ha/4.jpg",
    "https://img-proxy.imgfo.com/?referer=https://manganelo.com&url=https://s5.mkklcdnv6temp.com/mangakakalot/h1/hand_which/vol1_chapter_7_chokusenjou_ni_shite_8_metoru_8_meters_straight_up_extra_ha/5.jpg",
    "https://img-proxy.imgfo.com/?referer=https://manganelo.com&url=https://s5.mkklcdnv6temp.com/mangakakalot/h1/hand_which/vol1_chapter_7_chokusenjou_ni_shite_8_metoru_8_meters_straight_up_extra_ha/6.jpg",
    "https://img-proxy.imgfo.com/?referer=https://manganelo.com&url=https://s5.mkklcdnv6temp.com/mangakakalot/h1/hand_which/vol1_chapter_7_chokusenjou_ni_shite_8_metoru_8_meters_straight_up_extra_ha/7.jpg",
    "https://img-proxy.imgfo.com/?referer=https://manganelo.com&url=https://s5.mkklcdnv6temp.com/mangakakalot/h1/hand_which/vol1_chapter_7_chokusenjou_ni_shite_8_metoru_8_meters_straight_up_extra_ha/8.jpg",
    "https://img-proxy.imgfo.com/?referer=https://manganelo.com&url=https://s5.mkklcdnv6temp.com/mangakakalot/h1/hand_which/vol1_chapter_7_chokusenjou_ni_shite_8_metoru_8_meters_straight_up_extra_ha/9.jpg",
    "https://img-proxy.imgfo.com/?referer=https://manganelo.com&url=https://s5.mkklcdnv6temp.com/mangakakalot/h1/hand_which/vol1_chapter_7_chokusenjou_ni_shite_8_metoru_8_meters_straight_up_extra_ha/10.jpg",
    "https://img-proxy.imgfo.com/?referer=https://manganelo.com&url=https://s5.mkklcdnv6temp.com/mangakakalot/h1/hand_which/vol1_chapter_7_chokusenjou_ni_shite_8_metoru_8_meters_straight_up_extra_ha/11.jpg",
    "https://img-proxy.imgfo.com/?referer=https://manganelo.com&url=https://s5.mkklcdnv6temp.com/mangakakalot/h1/hand_which/vol1_chapter_7_chokusenjou_ni_shite_8_metoru_8_meters_straight_up_extra_ha/12.jpg",
    "https://img-proxy.imgfo.com/?referer=https://manganelo.com&url=https://s5.mkklcdnv6temp.com/mangakakalot/h1/hand_which/vol1_chapter_7_chokusenjou_ni_shite_8_metoru_8_meters_straight_up_extra_ha/13.jpg",
    "https://img-proxy.imgfo.com/?referer=https://manganelo.com&url=https://s5.mkklcdnv6temp.com/mangakakalot/h1/hand_which/vol1_chapter_7_chokusenjou_ni_shite_8_metoru_8_meters_straight_up_extra_ha/14.jpg",
    "https://img-proxy.imgfo.com/?referer=https://manganelo.com&url=https://s5.mkklcdnv6temp.com/mangakakalot/h1/hand_which/vol1_chapter_7_chokusenjou_ni_shite_8_metoru_8_meters_straight_up_extra_ha/15.jpg",
    "https://img-proxy.imgfo.com/?referer=https://manganelo.com&url=https://s5.mkklcdnv6temp.com/mangakakalot/h1/hand_which/vol1_chapter_7_chokusenjou_ni_shite_8_metoru_8_meters_straight_up_extra_ha/16.jpg",
    "https://img-proxy.imgfo.com/?referer=https://manganelo.com&url=https://s5.mkklcdnv6temp.com/mangakakalot/h1/hand_which/vol1_chapter_7_chokusenjou_ni_shite_8_metoru_8_meters_straight_up_extra_ha/17.jpg",
    "https://img-proxy.imgfo.com/?referer=https://manganelo.com&url=https://s5.mkklcdnv6temp.com/mangakakalot/h1/hand_which/vol1_chapter_7_chokusenjou_ni_shite_8_metoru_8_meters_straight_up_extra_ha/18.jpg",
    "https://img-proxy.imgfo.com/?referer=https://manganelo.com&url=https://s5.mkklcdnv6temp.com/mangakakalot/h1/hand_which/vol1_chapter_7_chokusenjou_ni_shite_8_metoru_8_meters_straight_up_extra_ha/19.jpg",
    "https://img-proxy.imgfo.com/?referer=https://manganelo.com&url=https://s5.mkklcdnv6temp.com/mangakakalot/h1/hand_which/vol1_chapter_7_chokusenjou_ni_shite_8_metoru_8_meters_straight_up_extra_ha/20.jpg",
    "https://img-proxy.imgfo.com/?referer=https://manganelo.com&url=https://s5.mkklcdnv6temp.com/mangakakalot/h1/hand_which/vol1_chapter_7_chokusenjou_ni_shite_8_metoru_8_meters_straight_up_extra_ha/21.jpg",
    "https://img-proxy.imgfo.com/?referer=https://manganelo.com&url=https://s5.mkklcdnv6temp.com/mangakakalot/h1/hand_which/vol1_chapter_7_chokusenjou_ni_shite_8_metoru_8_meters_straight_up_extra_ha/22.jpg",
    "https://img-proxy.imgfo.com/?referer=https://manganelo.com&url=https://s5.mkklcdnv6temp.com/mangakakalot/h1/hand_which/vol1_chapter_7_chokusenjou_ni_shite_8_metoru_8_meters_straight_up_extra_ha/23.jpg",
    "https://img-proxy.imgfo.com/?referer=https://manganelo.com&url=https://s5.mkklcdnv6temp.com/mangakakalot/h1/hand_which/vol1_chapter_7_chokusenjou_ni_shite_8_metoru_8_meters_straight_up_extra_ha/24.jpg",
    "https://img-proxy.imgfo.com/?referer=https://manganelo.com&url=https://s5.mkklcdnv6temp.com/mangakakalot/h1/hand_which/vol1_chapter_7_chokusenjou_ni_shite_8_metoru_8_meters_straight_up_extra_ha/25.jpg",
    "https://img-proxy.imgfo.com/?referer=https://manganelo.com&url=https://s5.mkklcdnv6temp.com/mangakakalot/h1/hand_which/vol1_chapter_7_chokusenjou_ni_shite_8_metoru_8_meters_straight_up_extra_ha/26.jpg",
    "https://img-proxy.imgfo.com/?referer=https://manganelo.com&url=https://s5.mkklcdnv6temp.com/mangakakalot/h1/hand_which/vol1_chapter_7_chokusenjou_ni_shite_8_metoru_8_meters_straight_up_extra_ha/27.jpg",
    "https://img-proxy.imgfo.com/?referer=https://manganelo.com&url=https://s5.mkklcdnv6temp.com/mangakakalot/h1/hand_which/vol1_chapter_7_chokusenjou_ni_shite_8_metoru_8_meters_straight_up_extra_ha/28.jpg"
  ]
}