{
  "cover": "https://avt.mkklcdnv6.com/45/d/6-1583476082.jpg",
  "title": "Bambino!",
  "original": "バンビーノ! ; バンビ～ノ! ; 料理新人王 ; 料理新鮮人",
  "genre": "Drama, Seinen, Slice of life, Manga",
  "author": "Sekiya Tetsuji",
  "status": "Completed",
  "backlink": "https://manganu.com/collections/sekiya-tetsuji/bambino/",
  "description": "Shogo Ban, a college student from Fukuoka, likes to cook. Thanks to the owner of the restaurant where he works part-time, he finds himself working at the line of Roppongi's best Italian restaurant, Trattoria Baccanale, and discovers that the real deal isn't quite as easy as he'd thought. The manga follows Ban as he struggles to keep up with the hectic workload and his co-workers, along with issues outside the kitchen like his relationship with his girlfriend Eri, who he left behind in Fukuoka.\nBambino! received the 2008 Shogakukan Manga Award for seinen/general manga along with Takeshi Natsuhara's and Kuromaru's Kurosagi.",
  "language": "English",
  "images": [
    "https://img-proxy.imgfo.com/?referer=https://manganelo.com&url=https://s5.mkklcdnv6temp.com/mangakakalot/b1/bambino/vol7_chapter_67_legare_8_connect/1.jpg",
    "https://img-proxy.imgfo.com/?referer=https://manganelo.com&url=https://s5.mkklcdnv6temp.com/mangakakalot/b1/bambino/vol7_chapter_67_legare_8_connect/2.jpg",
    "https://img-proxy.imgfo.com/?referer=https://manganelo.com&url=https://s5.mkklcdnv6temp.com/mangakakalot/b1/bambino/vol7_chapter_67_legare_8_connect/3.jpg",
    "https://img-proxy.imgfo.com/?referer=https://manganelo.com&url=https://s5.mkklcdnv6temp.com/mangakakalot/b1/bambino/vol7_chapter_67_legare_8_connect/4.jpg",
    "https://img-proxy.imgfo.com/?referer=https://manganelo.com&url=https://s5.mkklcdnv6temp.com/mangakakalot/b1/bambino/vol7_chapter_67_legare_8_connect/5.jpg",
    "https://img-proxy.imgfo.com/?referer=https://manganelo.com&url=https://s5.mkklcdnv6temp.com/mangakakalot/b1/bambino/vol7_chapter_67_legare_8_connect/6.jpg",
    "https://img-proxy.imgfo.com/?referer=https://manganelo.com&url=https://s5.mkklcdnv6temp.com/mangakakalot/b1/bambino/vol7_chapter_67_legare_8_connect/7.jpg",
    "https://img-proxy.imgfo.com/?referer=https://manganelo.com&url=https://s5.mkklcdnv6temp.com/mangakakalot/b1/bambino/vol7_chapter_67_legare_8_connect/8.jpg",
    "https://img-proxy.imgfo.com/?referer=https://manganelo.com&url=https://s5.mkklcdnv6temp.com/mangakakalot/b1/bambino/vol7_chapter_67_legare_8_connect/9.jpg",
    "https://img-proxy.imgfo.com/?referer=https://manganelo.com&url=https://s5.mkklcdnv6temp.com/mangakakalot/b1/bambino/vol7_chapter_67_legare_8_connect/10.jpg",
    "https://img-proxy.imgfo.com/?referer=https://manganelo.com&url=https://s5.mkklcdnv6temp.com/mangakakalot/b1/bambino/vol7_chapter_67_legare_8_connect/11.jpg",
    "https://img-proxy.imgfo.com/?referer=https://manganelo.com&url=https://s5.mkklcdnv6temp.com/mangakakalot/b1/bambino/vol7_chapter_67_legare_8_connect/12.jpg",
    "https://img-proxy.imgfo.com/?referer=https://manganelo.com&url=https://s5.mkklcdnv6temp.com/mangakakalot/b1/bambino/vol7_chapter_67_legare_8_connect/13.jpg",
    "https://img-proxy.imgfo.com/?referer=https://manganelo.com&url=https://s5.mkklcdnv6temp.com/mangakakalot/b1/bambino/vol7_chapter_67_legare_8_connect/14.jpg",
    "https://img-proxy.imgfo.com/?referer=https://manganelo.com&url=https://s5.mkklcdnv6temp.com/mangakakalot/b1/bambino/vol7_chapter_67_legare_8_connect/15.jpg",
    "https://img-proxy.imgfo.com/?referer=https://manganelo.com&url=https://s5.mkklcdnv6temp.com/mangakakalot/b1/bambino/vol7_chapter_67_legare_8_connect/16.jpg",
    "https://img-proxy.imgfo.com/?referer=https://manganelo.com&url=https://s5.mkklcdnv6temp.com/mangakakalot/b1/bambino/vol7_chapter_67_legare_8_connect/17.jpg",
    "https://img-proxy.imgfo.com/?referer=https://manganelo.com&url=https://s5.mkklcdnv6temp.com/mangakakalot/b1/bambino/vol7_chapter_67_legare_8_connect/18.jpg"
  ]
}