{
  "cover": "https://avt.mkklcdnv6.com/39/u/4-1583471323.jpg",
  "title": "Whistle!",
  "original": "ホイッスル!",
  "genre": "Action, Adult, Comedy, Cooking, School life, Shounen, Slice of life, Sports, Manga",
  "author": "Higuchi Daisuke",
  "status": "Completed",
  "backlink": "https://manganu.com/collections/higuchi-daisuke/whistle/",
  "description": "Whistle! is about a boy named Shō Kazamatsuri. He transfers from Musashinomori School to Sakura Josui Junior High School for better hopes to make the soccer team, since he never got a game at his old school due to his small stature. Yūko Katori, his teacher, introduces him as a former star of the famed Musashinomori team, causing his classmates to be wrongly ecstatic. Right after that, one of the players, Tatsuya Mizuno, reveals that he was never a regular. In other words, since he never got the chance to play, Shō is a poor player. Shō struggles to improve his skill so he can make the team at his new school and to ignore the drastic disadvantage he has due to his height.",
  "language": "English",
  "images": [
    "https://img-proxy.imgfo.com/?referer=https://manganelo.com&url=https://s5.mkklcdnv6temp.com/mangakakalot/r1/read_whistle_manga_online/vol22_chapter_200_the_calm_before_the_storm/1.jpg",
    "https://img-proxy.imgfo.com/?referer=https://manganelo.com&url=https://s5.mkklcdnv6temp.com/mangakakalot/r1/read_whistle_manga_online/vol22_chapter_200_the_calm_before_the_storm/2.jpg",
    "https://img-proxy.imgfo.com/?referer=https://manganelo.com&url=https://s5.mkklcdnv6temp.com/mangakakalot/r1/read_whistle_manga_online/vol22_chapter_200_the_calm_before_the_storm/3.jpg",
    "https://img-proxy.imgfo.com/?referer=https://manganelo.com&url=https://s5.mkklcdnv6temp.com/mangakakalot/r1/read_whistle_manga_online/vol22_chapter_200_the_calm_before_the_storm/4.jpg",
    "https://img-proxy.imgfo.com/?referer=https://manganelo.com&url=https://s5.mkklcdnv6temp.com/mangakakalot/r1/read_whistle_manga_online/vol22_chapter_200_the_calm_before_the_storm/5.jpg",
    "https://img-proxy.imgfo.com/?referer=https://manganelo.com&url=https://s5.mkklcdnv6temp.com/mangakakalot/r1/read_whistle_manga_online/vol22_chapter_200_the_calm_before_the_storm/6.jpg",
    "https://img-proxy.imgfo.com/?referer=https://manganelo.com&url=https://s5.mkklcdnv6temp.com/mangakakalot/r1/read_whistle_manga_online/vol22_chapter_200_the_calm_before_the_storm/7.jpg",
    "https://img-proxy.imgfo.com/?referer=https://manganelo.com&url=https://s5.mkklcdnv6temp.com/mangakakalot/r1/read_whistle_manga_online/vol22_chapter_200_the_calm_before_the_storm/8.jpg",
    "https://img-proxy.imgfo.com/?referer=https://manganelo.com&url=https://s5.mkklcdnv6temp.com/mangakakalot/r1/read_whistle_manga_online/vol22_chapter_200_the_calm_before_the_storm/9.jpg",
    "https://img-proxy.imgfo.com/?referer=https://manganelo.com&url=https://s5.mkklcdnv6temp.com/mangakakalot/r1/read_whistle_manga_online/vol22_chapter_200_the_calm_before_the_storm/10.jpg",
    "https://img-proxy.imgfo.com/?referer=https://manganelo.com&url=https://s5.mkklcdnv6temp.com/mangakakalot/r1/read_whistle_manga_online/vol22_chapter_200_the_calm_before_the_storm/11.jpg",
    "https://img-proxy.imgfo.com/?referer=https://manganelo.com&url=https://s5.mkklcdnv6temp.com/mangakakalot/r1/read_whistle_manga_online/vol22_chapter_200_the_calm_before_the_storm/12.jpg",
    "https://img-proxy.imgfo.com/?referer=https://manganelo.com&url=https://s5.mkklcdnv6temp.com/mangakakalot/r1/read_whistle_manga_online/vol22_chapter_200_the_calm_before_the_storm/13.jpg",
    "https://img-proxy.imgfo.com/?referer=https://manganelo.com&url=https://s5.mkklcdnv6temp.com/mangakakalot/r1/read_whistle_manga_online/vol22_chapter_200_the_calm_before_the_storm/14.jpg",
    "https://img-proxy.imgfo.com/?referer=https://manganelo.com&url=https://s5.mkklcdnv6temp.com/mangakakalot/r1/read_whistle_manga_online/vol22_chapter_200_the_calm_before_the_storm/15.jpg",
    "https://img-proxy.imgfo.com/?referer=https://manganelo.com&url=https://s5.mkklcdnv6temp.com/mangakakalot/r1/read_whistle_manga_online/vol22_chapter_200_the_calm_before_the_storm/16.jpg",
    "https://img-proxy.imgfo.com/?referer=https://manganelo.com&url=https://s5.mkklcdnv6temp.com/mangakakalot/r1/read_whistle_manga_online/vol22_chapter_200_the_calm_before_the_storm/17.jpg",
    "https://img-proxy.imgfo.com/?referer=https://manganelo.com&url=https://s5.mkklcdnv6temp.com/mangakakalot/r1/read_whistle_manga_online/vol22_chapter_200_the_calm_before_the_storm/18.jpg",
    "https://img-proxy.imgfo.com/?referer=https://manganelo.com&url=https://s5.mkklcdnv6temp.com/mangakakalot/r1/read_whistle_manga_online/vol22_chapter_200_the_calm_before_the_storm/19.jpg",
    "https://img-proxy.imgfo.com/?referer=https://manganelo.com&url=https://s5.mkklcdnv6temp.com/mangakakalot/r1/read_whistle_manga_online/vol22_chapter_200_the_calm_before_the_storm/20.jpg",
    "https://img-proxy.imgfo.com/?referer=https://manganelo.com&url=https://s5.mkklcdnv6temp.com/mangakakalot/r1/read_whistle_manga_online/vol22_chapter_200_the_calm_before_the_storm/21.jpg",
    "https://img-proxy.imgfo.com/?referer=https://manganelo.com&url=https://s5.mkklcdnv6temp.com/mangakakalot/r1/read_whistle_manga_online/vol22_chapter_200_the_calm_before_the_storm/22.jpg",
    "https://img-proxy.imgfo.com/?referer=https://manganelo.com&url=https://s5.mkklcdnv6temp.com/mangakakalot/r1/read_whistle_manga_online/vol22_chapter_200_the_calm_before_the_storm/23.jpg"
  ]
}