{
  "cover": "https://avt.mkklcdnv6.com/3/t/4-1583469803.jpg",
  "title": "Corseltel No Ryuujitsushi",
  "original": "コーセルテルの竜術士 ; 魔法龍術士 ; 魔法龙术士 ; Corseltel no Ryujitsushi ; Dragon Mages of Corseltel",
  "genre": "Comedy, Fantasy, Josei, Slice of life, Manga",
  "author": "Isurugi Ayuma",
  "status": "Completed",
  "backlink": "https://manganu.com/collections/isurugi-ayuma/corseltel-no-ryuujitsushi/",
  "description": "Corseltel, a sacred land where dragons and beastmen reside.\nProtected from the outside world by valleys and mountains, it's inhabitants, including Dragon Mages (ryujitsushi), live in harmony.\nThe Dragon Mages are able to borrow and utilise the dragon's magics, but have to care for and look after the dragons as an exchange.\nSeveral years ago, the late wind Dragon Mage picked up a child floating down stream in a crate. Now, the child has grown into Corseltel's greatest dragon mage, able to utilise all 7 dragon's magics: fire, earth, wood, water, wind, light, and dark. More like a dragon baby sitter, caring after 7 baby dragons, these are the adventures they face.",
  "language": "English",
  "images": [
    "https://img-proxy.imgfo.com/?referer=https://manganelo.com&url=https://s6.mkklcdnv6temp.com/mangakakalot/c2/corseltel_no_ryuujitsushi/vol1_chapter_6_the_wind_ryuujutsushi/1.jpg",
    "https://img-proxy.imgfo.com/?referer=https://manganelo.com&url=https://s6.mkklcdnv6temp.com/mangakakalot/c2/corseltel_no_ryuujitsushi/vol1_chapter_6_the_wind_ryuujutsushi/2.jpg",
    "https://img-proxy.imgfo.com/?referer=https://manganelo.com&url=https://s6.mkklcdnv6temp.com/mangakakalot/c2/corseltel_no_ryuujitsushi/vol1_chapter_6_the_wind_ryuujutsushi/3.jpg",
    "https://img-proxy.imgfo.com/?referer=https://manganelo.com&url=https://s6.mkklcdnv6temp.com/mangakakalot/c2/corseltel_no_ryuujitsushi/vol1_chapter_6_the_wind_ryuujutsushi/4.jpg",
    "https://img-proxy.imgfo.com/?referer=https://manganelo.com&url=https://s6.mkklcdnv6temp.com/mangakakalot/c2/corseltel_no_ryuujitsushi/vol1_chapter_6_the_wind_ryuujutsushi/5.jpg",
    "https://img-proxy.imgfo.com/?referer=https://manganelo.com&url=https://s6.mkklcdnv6temp.com/mangakakalot/c2/corseltel_no_ryuujitsushi/vol1_chapter_6_the_wind_ryuujutsushi/6.jpg",
    "https://img-proxy.imgfo.com/?referer=https://manganelo.com&url=https://s6.mkklcdnv6temp.com/mangakakalot/c2/corseltel_no_ryuujitsushi/vol1_chapter_6_the_wind_ryuujutsushi/7.jpg",
    "https://img-proxy.imgfo.com/?referer=https://manganelo.com&url=https://s6.mkklcdnv6temp.com/mangakakalot/c2/corseltel_no_ryuujitsushi/vol1_chapter_6_the_wind_ryuujutsushi/8.jpg",
    "https://img-proxy.imgfo.com/?referer=https://manganelo.com&url=https://s6.mkklcdnv6temp.com/mangakakalot/c2/corseltel_no_ryuujitsushi/vol1_chapter_6_the_wind_ryuujutsushi/9.jpg",
    "https://img-proxy.imgfo.com/?referer=https://manganelo.com&url=https://s6.mkklcdnv6temp.com/mangakakalot/c2/corseltel_no_ryuujitsushi/vol1_chapter_6_the_wind_ryuujutsushi/10.jpg",
    "https://img-proxy.imgfo.com/?referer=https://manganelo.com&url=https://s6.mkklcdnv6temp.com/mangakakalot/c2/corseltel_no_ryuujitsushi/vol1_chapter_6_the_wind_ryuujutsushi/11.jpg",
    "https://img-proxy.imgfo.com/?referer=https://manganelo.com&url=https://s6.mkklcdnv6temp.com/mangakakalot/c2/corseltel_no_ryuujitsushi/vol1_chapter_6_the_wind_ryuujutsushi/12.jpg",
    "https://img-proxy.imgfo.com/?referer=https://manganelo.com&url=https://s6.mkklcdnv6temp.com/mangakakalot/c2/corseltel_no_ryuujitsushi/vol1_chapter_6_the_wind_ryuujutsushi/13.jpg",
    "https://img-proxy.imgfo.com/?referer=https://manganelo.com&url=https://s6.mkklcdnv6temp.com/mangakakalot/c2/corseltel_no_ryuujitsushi/vol1_chapter_6_the_wind_ryuujutsushi/14.jpg",
    "https://img-proxy.imgfo.com/?referer=https://manganelo.com&url=https://s6.mkklcdnv6temp.com/mangakakalot/c2/corseltel_no_ryuujitsushi/vol1_chapter_6_the_wind_ryuujutsushi/15.jpg",
    "https://img-proxy.imgfo.com/?referer=https://manganelo.com&url=https://s6.mkklcdnv6temp.com/mangakakalot/c2/corseltel_no_ryuujitsushi/vol1_chapter_6_the_wind_ryuujutsushi/16.jpg",
    "https://img-proxy.imgfo.com/?referer=https://manganelo.com&url=https://s6.mkklcdnv6temp.com/mangakakalot/c2/corseltel_no_ryuujitsushi/vol1_chapter_6_the_wind_ryuujutsushi/17.jpg",
    "https://img-proxy.imgfo.com/?referer=https://manganelo.com&url=https://s6.mkklcdnv6temp.com/mangakakalot/c2/corseltel_no_ryuujitsushi/vol1_chapter_6_the_wind_ryuujutsushi/18.jpg",
    "https://img-proxy.imgfo.com/?referer=https://manganelo.com&url=https://s6.mkklcdnv6temp.com/mangakakalot/c2/corseltel_no_ryuujitsushi/vol1_chapter_6_the_wind_ryuujutsushi/19.jpg",
    "https://img-proxy.imgfo.com/?referer=https://manganelo.com&url=https://s6.mkklcdnv6temp.com/mangakakalot/c2/corseltel_no_ryuujitsushi/vol1_chapter_6_the_wind_ryuujutsushi/20.jpg",
    "https://img-proxy.imgfo.com/?referer=https://manganelo.com&url=https://s6.mkklcdnv6temp.com/mangakakalot/c2/corseltel_no_ryuujitsushi/vol1_chapter_6_the_wind_ryuujutsushi/21.jpg",
    "https://img-proxy.imgfo.com/?referer=https://manganelo.com&url=https://s6.mkklcdnv6temp.com/mangakakalot/c2/corseltel_no_ryuujitsushi/vol1_chapter_6_the_wind_ryuujutsushi/22.jpg",
    "https://img-proxy.imgfo.com/?referer=https://manganelo.com&url=https://s6.mkklcdnv6temp.com/mangakakalot/c2/corseltel_no_ryuujitsushi/vol1_chapter_6_the_wind_ryuujutsushi/23.jpg",
    "https://img-proxy.imgfo.com/?referer=https://manganelo.com&url=https://s6.mkklcdnv6temp.com/mangakakalot/c2/corseltel_no_ryuujitsushi/vol1_chapter_6_the_wind_ryuujutsushi/24.jpg",
    "https://img-proxy.imgfo.com/?referer=https://manganelo.com&url=https://s6.mkklcdnv6temp.com/mangakakalot/c2/corseltel_no_ryuujitsushi/vol1_chapter_6_the_wind_ryuujutsushi/25.jpg"
  ]
}