{
  "cover": "https://avt.mkklcdnv6.com/18/x/3-1583468404.jpg",
  "title": "Rozen Maiden Ii",
  "original": "ローゼンメイデン ; 新蔷薇少女 ; Rozen Maiden Tales",
  "genre": "Adventure, Drama, Fantasy, Psychological, Seinen, Supernatural, Manga",
  "author": "Peach-Pit",
  "status": "Completed",
  "backlink": "https://manganu.com/collections/peach-pit/rozen-maiden-ii/",
  "description": "As a continuation of Rozen Maiden, the story starts with an older Jun, who is now a university student. While working at a bookstore as his part time job, he finds an unaddressed copy of the first issue of a weekly magazine &quot;How to Make a Girl&quot; containing a spring. He brings it home, and soon starts receiving further issues of the magazine by post, each issue having one part of a doll&#39;s body as a gift. One day, after putting much effort into assembling the fifth Rozen Maiden doll Shinku, he receives a notification that the publication has been cancelled, leaving him with an incomplete doll. Suddenly, he receives a mysterious text message from his old number, claiming to be the Jun Sakurada asking for help against the seventh Rozen Maiden doll Kirakisho... Note: The official title of this Shueisha edition in Japanese is ローゼンメイデン in katakana, in order to set it apart from the title of the &quot;original&quot; Gentosha edition, which was &quot;Rozen Maiden&quot; in Latin letters while katakana only served as a pronunciation aid (furigana).",
  "language": "English",
  "images": [
    "https://img-proxy.imgfo.com/?referer=https://manganelo.com&url=https://s3.mkklcdnv6temp.com/mangakakalot/r2/rozen_maiden_ii/vol9_chapter_52_wonderland/1.jpg",
    "https://img-proxy.imgfo.com/?referer=https://manganelo.com&url=https://s3.mkklcdnv6temp.com/mangakakalot/r2/rozen_maiden_ii/vol9_chapter_52_wonderland/2.jpg",
    "https://img-proxy.imgfo.com/?referer=https://manganelo.com&url=https://s3.mkklcdnv6temp.com/mangakakalot/r2/rozen_maiden_ii/vol9_chapter_52_wonderland/3.jpg",
    "https://img-proxy.imgfo.com/?referer=https://manganelo.com&url=https://s3.mkklcdnv6temp.com/mangakakalot/r2/rozen_maiden_ii/vol9_chapter_52_wonderland/4.jpg",
    "https://img-proxy.imgfo.com/?referer=https://manganelo.com&url=https://s3.mkklcdnv6temp.com/mangakakalot/r2/rozen_maiden_ii/vol9_chapter_52_wonderland/5.jpg",
    "https://img-proxy.imgfo.com/?referer=https://manganelo.com&url=https://s3.mkklcdnv6temp.com/mangakakalot/r2/rozen_maiden_ii/vol9_chapter_52_wonderland/6.jpg",
    "https://img-proxy.imgfo.com/?referer=https://manganelo.com&url=https://s3.mkklcdnv6temp.com/mangakakalot/r2/rozen_maiden_ii/vol9_chapter_52_wonderland/7.jpg",
    "https://img-proxy.imgfo.com/?referer=https://manganelo.com&url=https://s3.mkklcdnv6temp.com/mangakakalot/r2/rozen_maiden_ii/vol9_chapter_52_wonderland/8.jpg",
    "https://img-proxy.imgfo.com/?referer=https://manganelo.com&url=https://s3.mkklcdnv6temp.com/mangakakalot/r2/rozen_maiden_ii/vol9_chapter_52_wonderland/9.jpg",
    "https://img-proxy.imgfo.com/?referer=https://manganelo.com&url=https://s3.mkklcdnv6temp.com/mangakakalot/r2/rozen_maiden_ii/vol9_chapter_52_wonderland/10.jpg",
    "https://img-proxy.imgfo.com/?referer=https://manganelo.com&url=https://s3.mkklcdnv6temp.com/mangakakalot/r2/rozen_maiden_ii/vol9_chapter_52_wonderland/11.jpg",
    "https://img-proxy.imgfo.com/?referer=https://manganelo.com&url=https://s3.mkklcdnv6temp.com/mangakakalot/r2/rozen_maiden_ii/vol9_chapter_52_wonderland/12.jpg",
    "https://img-proxy.imgfo.com/?referer=https://manganelo.com&url=https://s3.mkklcdnv6temp.com/mangakakalot/r2/rozen_maiden_ii/vol9_chapter_52_wonderland/13.jpg",
    "https://img-proxy.imgfo.com/?referer=https://manganelo.com&url=https://s3.mkklcdnv6temp.com/mangakakalot/r2/rozen_maiden_ii/vol9_chapter_52_wonderland/14.jpg",
    "https://img-proxy.imgfo.com/?referer=https://manganelo.com&url=https://s3.mkklcdnv6temp.com/mangakakalot/r2/rozen_maiden_ii/vol9_chapter_52_wonderland/15.jpg",
    "https://img-proxy.imgfo.com/?referer=https://manganelo.com&url=https://s3.mkklcdnv6temp.com/mangakakalot/r2/rozen_maiden_ii/vol9_chapter_52_wonderland/16.jpg",
    "https://img-proxy.imgfo.com/?referer=https://manganelo.com&url=https://s3.mkklcdnv6temp.com/mangakakalot/r2/rozen_maiden_ii/vol9_chapter_52_wonderland/17.jpg",
    "https://img-proxy.imgfo.com/?referer=https://manganelo.com&url=https://s3.mkklcdnv6temp.com/mangakakalot/r2/rozen_maiden_ii/vol9_chapter_52_wonderland/18.jpg",
    "https://img-proxy.imgfo.com/?referer=https://manganelo.com&url=https://s3.mkklcdnv6temp.com/mangakakalot/r2/rozen_maiden_ii/vol9_chapter_52_wonderland/19.jpg",
    "https://img-proxy.imgfo.com/?referer=https://manganelo.com&url=https://s3.mkklcdnv6temp.com/mangakakalot/r2/rozen_maiden_ii/vol9_chapter_52_wonderland/20.jpg",
    "https://img-proxy.imgfo.com/?referer=https://manganelo.com&url=https://s3.mkklcdnv6temp.com/mangakakalot/r2/rozen_maiden_ii/vol9_chapter_52_wonderland/21.jpg"
  ]
}