{
  "cover": "https://avt.mkklcdnv6.com/15/m/4-1583470300.jpg",
  "title": "Sora No Otoshimono",
  "original": "そらのおとしもの ; 天降之物 ; Heaven's Lost Property ; Lost Continent of the Sky ; Misplaced by Heaven ; Angeloid ; La Propiedad Perdidad del Cielo (Español); read Sora no Otoshimono manga",
  "genre": "Action, Adult, Adventure, Comedy, Cooking, Doujinshi, Drama, Ecchi, Harem, Mystery, Psychological, Romance, School life, Sci fi, Shounen, Supernatural, Tragedy, Manga",
  "author": "Minazuki Suu",
  "status": "Completed",
  "backlink": "https://manganu.com/collections/minazuki-suu/sora-no-otoshimono/",
  "description": "Tomoki Sakurai is a perverted teen boy whose slogan is &quot;Peace and quiet are the best,&quot; and frequently has goals of meeting an angel. He finds it almost impossible to reside in relaxation when he must put up with Sohara Mitsuki, his next door neighbor with a killer karate chop; Eishiro Sugata, a strange pseudo-scientist bent on finding the &quot;New World&quot;; and Mikako Satsukitane, their college sadistic student council president. One night, while he was watching a peculiar anomaly in the heavens, a UMA (Unidentified Mysterious Animal) crash lands near-by. Tomoki finds that what fell in the skies is a winged feminine humanoid named Ikaros from an unfamiliar world of Synapse, who shortly declares herself to be the servant of Tomoki. From then on, more creatures identified as &quot;Angeloids&quot; arrive; with this, he loses his solace, but in the exact same time discovers nice matters the Angeloids bring him, and battle the forces that drop up on Earth.\n\nTomoki Sakurai\nTomoki is a teen lad[a] who desires nothing over a tranquil and peaceful existence in Sorami City. He&#39;s experienced a recurring dream where he meets an angel, who will be taking off off to the heavens, much to his disappointment, since youth.[ch. 1][b] His existence is forever altered when he meets Ikaros, an angel-like animal who falls from the heavens and becomes his servant.[ch. 1] Despite being a shameless pervert,[c] a characteristic greatly affected by his grandfather and mom,[ch. 7,33,36,49] Tomoki is explained as a-kind and honest man. He strives to make Ikaros and also the resident Angeloids act more like people by having them-not be so focused on compliance, and telling them to make their particular choices.[ch. 9] Although he consents to be Nymph&#39;s grasp, he declines to formalize that bond-like he did with Ikaros.[ch. 3 9] He is normally drawn with superb deformed parameters, except when he&#39;s serious or relaxed.Tomoki sometimes uses a device to change himself in to a lady named Tomoko (???), therefore he can slip into girls locker-room. But when he&#39;s excessively sexually aroused or anxious, these devices will breakdown and he changes back.[ch. 11,33] His lecherous actions and strategies frequently end in failure and mischief.",
  "language": "English",
  "images": [
    "https://img-proxy.imgfo.com/?referer=https://manganelo.com&url=https://s6.mkklcdnv6temp.com/mangakakalot/s2/sora_no_otoshimono/vol3_chapter_12_school/1.jpg",
    "https://img-proxy.imgfo.com/?referer=https://manganelo.com&url=https://s6.mkklcdnv6temp.com/mangakakalot/s2/sora_no_otoshimono/vol3_chapter_12_school/2.jpg",
    "https://img-proxy.imgfo.com/?referer=https://manganelo.com&url=https://s6.mkklcdnv6temp.com/mangakakalot/s2/sora_no_otoshimono/vol3_chapter_12_school/3.jpg",
    "https://img-proxy.imgfo.com/?referer=https://manganelo.com&url=https://s6.mkklcdnv6temp.com/mangakakalot/s2/sora_no_otoshimono/vol3_chapter_12_school/4.jpg",
    "https://img-proxy.imgfo.com/?referer=https://manganelo.com&url=https://s6.mkklcdnv6temp.com/mangakakalot/s2/sora_no_otoshimono/vol3_chapter_12_school/5.jpg",
    "https://img-proxy.imgfo.com/?referer=https://manganelo.com&url=https://s6.mkklcdnv6temp.com/mangakakalot/s2/sora_no_otoshimono/vol3_chapter_12_school/6.jpg",
    "https://img-proxy.imgfo.com/?referer=https://manganelo.com&url=https://s6.mkklcdnv6temp.com/mangakakalot/s2/sora_no_otoshimono/vol3_chapter_12_school/7.jpg",
    "https://img-proxy.imgfo.com/?referer=https://manganelo.com&url=https://s6.mkklcdnv6temp.com/mangakakalot/s2/sora_no_otoshimono/vol3_chapter_12_school/8.jpg",
    "https://img-proxy.imgfo.com/?referer=https://manganelo.com&url=https://s6.mkklcdnv6temp.com/mangakakalot/s2/sora_no_otoshimono/vol3_chapter_12_school/9.jpg",
    "https://img-proxy.imgfo.com/?referer=https://manganelo.com&url=https://s6.mkklcdnv6temp.com/mangakakalot/s2/sora_no_otoshimono/vol3_chapter_12_school/10.jpg",
    "https://img-proxy.imgfo.com/?referer=https://manganelo.com&url=https://s6.mkklcdnv6temp.com/mangakakalot/s2/sora_no_otoshimono/vol3_chapter_12_school/11.jpg",
    "https://img-proxy.imgfo.com/?referer=https://manganelo.com&url=https://s6.mkklcdnv6temp.com/mangakakalot/s2/sora_no_otoshimono/vol3_chapter_12_school/12.jpg",
    "https://img-proxy.imgfo.com/?referer=https://manganelo.com&url=https://s6.mkklcdnv6temp.com/mangakakalot/s2/sora_no_otoshimono/vol3_chapter_12_school/13.jpg",
    "https://img-proxy.imgfo.com/?referer=https://manganelo.com&url=https://s6.mkklcdnv6temp.com/mangakakalot/s2/sora_no_otoshimono/vol3_chapter_12_school/14.jpg",
    "https://img-proxy.imgfo.com/?referer=https://manganelo.com&url=https://s6.mkklcdnv6temp.com/mangakakalot/s2/sora_no_otoshimono/vol3_chapter_12_school/15.jpg",
    "https://img-proxy.imgfo.com/?referer=https://manganelo.com&url=https://s6.mkklcdnv6temp.com/mangakakalot/s2/sora_no_otoshimono/vol3_chapter_12_school/16.jpg",
    "https://img-proxy.imgfo.com/?referer=https://manganelo.com&url=https://s6.mkklcdnv6temp.com/mangakakalot/s2/sora_no_otoshimono/vol3_chapter_12_school/17.jpg",
    "https://img-proxy.imgfo.com/?referer=https://manganelo.com&url=https://s6.mkklcdnv6temp.com/mangakakalot/s2/sora_no_otoshimono/vol3_chapter_12_school/18.jpg",
    "https://img-proxy.imgfo.com/?referer=https://manganelo.com&url=https://s6.mkklcdnv6temp.com/mangakakalot/s2/sora_no_otoshimono/vol3_chapter_12_school/19.jpg",
    "https://img-proxy.imgfo.com/?referer=https://manganelo.com&url=https://s6.mkklcdnv6temp.com/mangakakalot/s2/sora_no_otoshimono/vol3_chapter_12_school/20.jpg",
    "https://img-proxy.imgfo.com/?referer=https://manganelo.com&url=https://s6.mkklcdnv6temp.com/mangakakalot/s2/sora_no_otoshimono/vol3_chapter_12_school/21.jpg",
    "https://img-proxy.imgfo.com/?referer=https://manganelo.com&url=https://s6.mkklcdnv6temp.com/mangakakalot/s2/sora_no_otoshimono/vol3_chapter_12_school/22.jpg",
    "https://img-proxy.imgfo.com/?referer=https://manganelo.com&url=https://s6.mkklcdnv6temp.com/mangakakalot/s2/sora_no_otoshimono/vol3_chapter_12_school/23.jpg",
    "https://img-proxy.imgfo.com/?referer=https://manganelo.com&url=https://s6.mkklcdnv6temp.com/mangakakalot/s2/sora_no_otoshimono/vol3_chapter_12_school/24.jpg",
    "https://img-proxy.imgfo.com/?referer=https://manganelo.com&url=https://s6.mkklcdnv6temp.com/mangakakalot/s2/sora_no_otoshimono/vol3_chapter_12_school/25.jpg",
    "https://img-proxy.imgfo.com/?referer=https://manganelo.com&url=https://s6.mkklcdnv6temp.com/mangakakalot/s2/sora_no_otoshimono/vol3_chapter_12_school/26.jpg",
    "https://img-proxy.imgfo.com/?referer=https://manganelo.com&url=https://s6.mkklcdnv6temp.com/mangakakalot/s2/sora_no_otoshimono/vol3_chapter_12_school/27.jpg",
    "https://img-proxy.imgfo.com/?referer=https://manganelo.com&url=https://s6.mkklcdnv6temp.com/mangakakalot/s2/sora_no_otoshimono/vol3_chapter_12_school/28.jpg",
    "https://img-proxy.imgfo.com/?referer=https://manganelo.com&url=https://s6.mkklcdnv6temp.com/mangakakalot/s2/sora_no_otoshimono/vol3_chapter_12_school/29.jpg",
    "https://img-proxy.imgfo.com/?referer=https://manganelo.com&url=https://s6.mkklcdnv6temp.com/mangakakalot/s2/sora_no_otoshimono/vol3_chapter_12_school/30.jpg",
    "https://img-proxy.imgfo.com/?referer=https://manganelo.com&url=https://s6.mkklcdnv6temp.com/mangakakalot/s2/sora_no_otoshimono/vol3_chapter_12_school/31.jpg",
    "https://img-proxy.imgfo.com/?referer=https://manganelo.com&url=https://s6.mkklcdnv6temp.com/mangakakalot/s2/sora_no_otoshimono/vol3_chapter_12_school/32.jpg",
    "https://img-proxy.imgfo.com/?referer=https://manganelo.com&url=https://s6.mkklcdnv6temp.com/mangakakalot/s2/sora_no_otoshimono/vol3_chapter_12_school/33.jpg",
    "https://img-proxy.imgfo.com/?referer=https://manganelo.com&url=https://s6.mkklcdnv6temp.com/mangakakalot/s2/sora_no_otoshimono/vol3_chapter_12_school/34.jpg",
    "https://img-proxy.imgfo.com/?referer=https://manganelo.com&url=https://s6.mkklcdnv6temp.com/mangakakalot/s2/sora_no_otoshimono/vol3_chapter_12_school/35.jpg",
    "https://img-proxy.imgfo.com/?referer=https://manganelo.com&url=https://s6.mkklcdnv6temp.com/mangakakalot/s2/sora_no_otoshimono/vol3_chapter_12_school/36.jpg"
  ]
}