{
  "cover": "https://avt.mkklcdnv6.com/9/e/13-1583488080.jpg",
  "title": "Joushi No Okiniiri",
  "original": "上司のお気に入り ; Boss' Favorite",
  "genre": "Oneshot, Yaoi, Manga",
  "author": "Yoshihara Yuuka",
  "status": "Completed",
  "backlink": "https://manganu.com/collections/yoshihara-yuuka/joushi-no-okiniiri/",
  "description": "[From Fantasyshrine]\nCollection of oneshots:\nSakurai is a new hire who is having a secret relationship with his boss, Chief Akimoto. Even though the chief is gentle, suave, and unexpectedly, a pro when it comes to the H-department, he’s still an “old man” in Sakurai’s eyes! However, Akimoto sees right through the rather naive Sakurai and spoils him to the point that keeps him demanding for more… until they both come to regret it!\nThis is the debut of Yoshihara Yuuka’s salary-man romance!\nQuick Reference of story titles and pages they begin at:\n1.Boss’ Favorite (pg 10); 2.Secrets Under the Suit (pg. 36); 3.Until There’s Love (pg. 60); 4.Cat Lover (pg. 84); 5.Butterfly and Flower Lovers (pg. 120); 6.Secretary’s Choice (pg. 144); 7.The Favorite Subordinate (pg. 170)",
  "language": "English",
  "images": [
    "https://img-proxy.imgfo.com/?referer=https://manganelo.com&url=https://s6.mkklcdnv6temp.com/mangakakalot/j2/joushi_no_okiniiri/vol1_chapter_6/1.jpg",
    "https://img-proxy.imgfo.com/?referer=https://manganelo.com&url=https://s6.mkklcdnv6temp.com/mangakakalot/j2/joushi_no_okiniiri/vol1_chapter_6/2.jpg",
    "https://img-proxy.imgfo.com/?referer=https://manganelo.com&url=https://s6.mkklcdnv6temp.com/mangakakalot/j2/joushi_no_okiniiri/vol1_chapter_6/3.jpg",
    "https://img-proxy.imgfo.com/?referer=https://manganelo.com&url=https://s6.mkklcdnv6temp.com/mangakakalot/j2/joushi_no_okiniiri/vol1_chapter_6/4.jpg",
    "https://img-proxy.imgfo.com/?referer=https://manganelo.com&url=https://s6.mkklcdnv6temp.com/mangakakalot/j2/joushi_no_okiniiri/vol1_chapter_6/5.jpg",
    "https://img-proxy.imgfo.com/?referer=https://manganelo.com&url=https://s6.mkklcdnv6temp.com/mangakakalot/j2/joushi_no_okiniiri/vol1_chapter_6/6.jpg",
    "https://img-proxy.imgfo.com/?referer=https://manganelo.com&url=https://s6.mkklcdnv6temp.com/mangakakalot/j2/joushi_no_okiniiri/vol1_chapter_6/7.jpg",
    "https://img-proxy.imgfo.com/?referer=https://manganelo.com&url=https://s6.mkklcdnv6temp.com/mangakakalot/j2/joushi_no_okiniiri/vol1_chapter_6/8.jpg",
    "https://img-proxy.imgfo.com/?referer=https://manganelo.com&url=https://s6.mkklcdnv6temp.com/mangakakalot/j2/joushi_no_okiniiri/vol1_chapter_6/9.jpg",
    "https://img-proxy.imgfo.com/?referer=https://manganelo.com&url=https://s6.mkklcdnv6temp.com/mangakakalot/j2/joushi_no_okiniiri/vol1_chapter_6/10.jpg",
    "https://img-proxy.imgfo.com/?referer=https://manganelo.com&url=https://s6.mkklcdnv6temp.com/mangakakalot/j2/joushi_no_okiniiri/vol1_chapter_6/11.jpg",
    "https://img-proxy.imgfo.com/?referer=https://manganelo.com&url=https://s6.mkklcdnv6temp.com/mangakakalot/j2/joushi_no_okiniiri/vol1_chapter_6/12.jpg",
    "https://img-proxy.imgfo.com/?referer=https://manganelo.com&url=https://s6.mkklcdnv6temp.com/mangakakalot/j2/joushi_no_okiniiri/vol1_chapter_6/13.jpg",
    "https://img-proxy.imgfo.com/?referer=https://manganelo.com&url=https://s6.mkklcdnv6temp.com/mangakakalot/j2/joushi_no_okiniiri/vol1_chapter_6/14.jpg",
    "https://img-proxy.imgfo.com/?referer=https://manganelo.com&url=https://s6.mkklcdnv6temp.com/mangakakalot/j2/joushi_no_okiniiri/vol1_chapter_6/15.jpg",
    "https://img-proxy.imgfo.com/?referer=https://manganelo.com&url=https://s6.mkklcdnv6temp.com/mangakakalot/j2/joushi_no_okiniiri/vol1_chapter_6/16.jpg",
    "https://img-proxy.imgfo.com/?referer=https://manganelo.com&url=https://s6.mkklcdnv6temp.com/mangakakalot/j2/joushi_no_okiniiri/vol1_chapter_6/17.jpg",
    "https://img-proxy.imgfo.com/?referer=https://manganelo.com&url=https://s6.mkklcdnv6temp.com/mangakakalot/j2/joushi_no_okiniiri/vol1_chapter_6/18.jpg",
    "https://img-proxy.imgfo.com/?referer=https://manganelo.com&url=https://s6.mkklcdnv6temp.com/mangakakalot/j2/joushi_no_okiniiri/vol1_chapter_6/19.jpg",
    "https://img-proxy.imgfo.com/?referer=https://manganelo.com&url=https://s6.mkklcdnv6temp.com/mangakakalot/j2/joushi_no_okiniiri/vol1_chapter_6/20.jpg",
    "https://img-proxy.imgfo.com/?referer=https://manganelo.com&url=https://s6.mkklcdnv6temp.com/mangakakalot/j2/joushi_no_okiniiri/vol1_chapter_6/21.jpg",
    "https://img-proxy.imgfo.com/?referer=https://manganelo.com&url=https://s6.mkklcdnv6temp.com/mangakakalot/j2/joushi_no_okiniiri/vol1_chapter_6/22.jpg",
    "https://img-proxy.imgfo.com/?referer=https://manganelo.com&url=https://s6.mkklcdnv6temp.com/mangakakalot/j2/joushi_no_okiniiri/vol1_chapter_6/23.jpg",
    "https://img-proxy.imgfo.com/?referer=https://manganelo.com&url=https://s6.mkklcdnv6temp.com/mangakakalot/j2/joushi_no_okiniiri/vol1_chapter_6/24.jpg",
    "https://img-proxy.imgfo.com/?referer=https://manganelo.com&url=https://s6.mkklcdnv6temp.com/mangakakalot/j2/joushi_no_okiniiri/vol1_chapter_6/25.jpg",
    "https://img-proxy.imgfo.com/?referer=https://manganelo.com&url=https://s6.mkklcdnv6temp.com/mangakakalot/j2/joushi_no_okiniiri/vol1_chapter_6/26.jpg"
  ]
}