{
  "cover": "https://avt.mkklcdnv6.com/48/t/4-1583471732.jpg",
  "title": "Kanokon",
  "original": "かのこん ; 我的狐仙女友",
  "genre": "Comedy, Ecchi, Harem, Romance, School life, Seinen, Supernatural, Manga",
  "author": "Nishino Katsumi",
  "status": "Completed",
  "backlink": "https://manganu.com/collections/nishino-katsumi/kanokon/",
  "description": "On the very first day that innocent country boy, Oyamada Kouta, transfers to a city high school, the prettiest girl in school asks him to meet her alone. They meet in the music room, all alone. Her shining hair and entreating eyes! Her flushed cheeks! Her sweet lips! Her... fox tail?!!\nWho is this mysterious and alluring girl and just what does she want with unsuspecting Kouta?",
  "language": "English",
  "images": [
    "https://img-proxy.imgfo.com/?referer=https://manganelo.com&url=https://s6.mkklcdnv6temp.com/mangakakalot/k1/kanokon/vol6_chapter_29_spring_cherry_blossoms_boobs/1.jpg",
    "https://img-proxy.imgfo.com/?referer=https://manganelo.com&url=https://s6.mkklcdnv6temp.com/mangakakalot/k1/kanokon/vol6_chapter_29_spring_cherry_blossoms_boobs/2.jpg",
    "https://img-proxy.imgfo.com/?referer=https://manganelo.com&url=https://s6.mkklcdnv6temp.com/mangakakalot/k1/kanokon/vol6_chapter_29_spring_cherry_blossoms_boobs/3.jpg",
    "https://img-proxy.imgfo.com/?referer=https://manganelo.com&url=https://s6.mkklcdnv6temp.com/mangakakalot/k1/kanokon/vol6_chapter_29_spring_cherry_blossoms_boobs/4.jpg",
    "https://img-proxy.imgfo.com/?referer=https://manganelo.com&url=https://s6.mkklcdnv6temp.com/mangakakalot/k1/kanokon/vol6_chapter_29_spring_cherry_blossoms_boobs/5.jpg",
    "https://img-proxy.imgfo.com/?referer=https://manganelo.com&url=https://s6.mkklcdnv6temp.com/mangakakalot/k1/kanokon/vol6_chapter_29_spring_cherry_blossoms_boobs/6.jpg",
    "https://img-proxy.imgfo.com/?referer=https://manganelo.com&url=https://s6.mkklcdnv6temp.com/mangakakalot/k1/kanokon/vol6_chapter_29_spring_cherry_blossoms_boobs/7.jpg",
    "https://img-proxy.imgfo.com/?referer=https://manganelo.com&url=https://s6.mkklcdnv6temp.com/mangakakalot/k1/kanokon/vol6_chapter_29_spring_cherry_blossoms_boobs/8.jpg",
    "https://img-proxy.imgfo.com/?referer=https://manganelo.com&url=https://s6.mkklcdnv6temp.com/mangakakalot/k1/kanokon/vol6_chapter_29_spring_cherry_blossoms_boobs/9.jpg",
    "https://img-proxy.imgfo.com/?referer=https://manganelo.com&url=https://s6.mkklcdnv6temp.com/mangakakalot/k1/kanokon/vol6_chapter_29_spring_cherry_blossoms_boobs/10.jpg",
    "https://img-proxy.imgfo.com/?referer=https://manganelo.com&url=https://s6.mkklcdnv6temp.com/mangakakalot/k1/kanokon/vol6_chapter_29_spring_cherry_blossoms_boobs/11.jpg",
    "https://img-proxy.imgfo.com/?referer=https://manganelo.com&url=https://s6.mkklcdnv6temp.com/mangakakalot/k1/kanokon/vol6_chapter_29_spring_cherry_blossoms_boobs/12.jpg",
    "https://img-proxy.imgfo.com/?referer=https://manganelo.com&url=https://s6.mkklcdnv6temp.com/mangakakalot/k1/kanokon/vol6_chapter_29_spring_cherry_blossoms_boobs/13.jpg",
    "https://img-proxy.imgfo.com/?referer=https://manganelo.com&url=https://s6.mkklcdnv6temp.com/mangakakalot/k1/kanokon/vol6_chapter_29_spring_cherry_blossoms_boobs/14.jpg",
    "https://img-proxy.imgfo.com/?referer=https://manganelo.com&url=https://s6.mkklcdnv6temp.com/mangakakalot/k1/kanokon/vol6_chapter_29_spring_cherry_blossoms_boobs/15.jpg",
    "https://img-proxy.imgfo.com/?referer=https://manganelo.com&url=https://s6.mkklcdnv6temp.com/mangakakalot/k1/kanokon/vol6_chapter_29_spring_cherry_blossoms_boobs/16.jpg",
    "https://img-proxy.imgfo.com/?referer=https://manganelo.com&url=https://s6.mkklcdnv6temp.com/mangakakalot/k1/kanokon/vol6_chapter_29_spring_cherry_blossoms_boobs/17.jpg",
    "https://img-proxy.imgfo.com/?referer=https://manganelo.com&url=https://s6.mkklcdnv6temp.com/mangakakalot/k1/kanokon/vol6_chapter_29_spring_cherry_blossoms_boobs/18.jpg",
    "https://img-proxy.imgfo.com/?referer=https://manganelo.com&url=https://s6.mkklcdnv6temp.com/mangakakalot/k1/kanokon/vol6_chapter_29_spring_cherry_blossoms_boobs/19.jpg",
    "https://img-proxy.imgfo.com/?referer=https://manganelo.com&url=https://s6.mkklcdnv6temp.com/mangakakalot/k1/kanokon/vol6_chapter_29_spring_cherry_blossoms_boobs/20.jpg",
    "https://img-proxy.imgfo.com/?referer=https://manganelo.com&url=https://s6.mkklcdnv6temp.com/mangakakalot/k1/kanokon/vol6_chapter_29_spring_cherry_blossoms_boobs/21.jpg",
    "https://img-proxy.imgfo.com/?referer=https://manganelo.com&url=https://s6.mkklcdnv6temp.com/mangakakalot/k1/kanokon/vol6_chapter_29_spring_cherry_blossoms_boobs/22.jpg",
    "https://img-proxy.imgfo.com/?referer=https://manganelo.com&url=https://s6.mkklcdnv6temp.com/mangakakalot/k1/kanokon/vol6_chapter_29_spring_cherry_blossoms_boobs/23.jpg",
    "https://img-proxy.imgfo.com/?referer=https://manganelo.com&url=https://s6.mkklcdnv6temp.com/mangakakalot/k1/kanokon/vol6_chapter_29_spring_cherry_blossoms_boobs/24.jpg",
    "https://img-proxy.imgfo.com/?referer=https://manganelo.com&url=https://s6.mkklcdnv6temp.com/mangakakalot/k1/kanokon/vol6_chapter_29_spring_cherry_blossoms_boobs/25.jpg",
    "https://img-proxy.imgfo.com/?referer=https://manganelo.com&url=https://s6.mkklcdnv6temp.com/mangakakalot/k1/kanokon/vol6_chapter_29_spring_cherry_blossoms_boobs/26.jpg",
    "https://img-proxy.imgfo.com/?referer=https://manganelo.com&url=https://s6.mkklcdnv6temp.com/mangakakalot/k1/kanokon/vol6_chapter_29_spring_cherry_blossoms_boobs/27.jpg",
    "https://img-proxy.imgfo.com/?referer=https://manganelo.com&url=https://s6.mkklcdnv6temp.com/mangakakalot/k1/kanokon/vol6_chapter_29_spring_cherry_blossoms_boobs/28.jpg",
    "https://img-proxy.imgfo.com/?referer=https://manganelo.com&url=https://s6.mkklcdnv6temp.com/mangakakalot/k1/kanokon/vol6_chapter_29_spring_cherry_blossoms_boobs/29.jpg",
    "https://img-proxy.imgfo.com/?referer=https://manganelo.com&url=https://s6.mkklcdnv6temp.com/mangakakalot/k1/kanokon/vol6_chapter_29_spring_cherry_blossoms_boobs/30.jpg",
    "https://img-proxy.imgfo.com/?referer=https://manganelo.com&url=https://s6.mkklcdnv6temp.com/mangakakalot/k1/kanokon/vol6_chapter_29_spring_cherry_blossoms_boobs/31.jpg",
    "https://img-proxy.imgfo.com/?referer=https://manganelo.com&url=https://s6.mkklcdnv6temp.com/mangakakalot/k1/kanokon/vol6_chapter_29_spring_cherry_blossoms_boobs/32.jpg",
    "https://img-proxy.imgfo.com/?referer=https://manganelo.com&url=https://s6.mkklcdnv6temp.com/mangakakalot/k1/kanokon/vol6_chapter_29_spring_cherry_blossoms_boobs/33.jpg",
    "https://img-proxy.imgfo.com/?referer=https://manganelo.com&url=https://s6.mkklcdnv6temp.com/mangakakalot/k1/kanokon/vol6_chapter_29_spring_cherry_blossoms_boobs/34.jpg",
    "https://img-proxy.imgfo.com/?referer=https://manganelo.com&url=https://s6.mkklcdnv6temp.com/mangakakalot/k1/kanokon/vol6_chapter_29_spring_cherry_blossoms_boobs/35.jpg"
  ]
}