{
  "cover": "https://avt.mkklcdnv6.com/19/k/20-1583501770.jpg",
  "title": "Legend Of The End-Of-Century Gambling Wolf Saga",
  "original": "Seikimatsu Bakurouden Saga, 世紀末博狼伝サガ",
  "genre": "Drama, Manga",
  "author": "Miyashita Akira",
  "status": "Completed",
  "backlink": "https://manganu.com/collections/miyashita-akira/legend-of-the-end-of-century-gambling-wolf-saga/",
  "description": "Legend of the End-of-Century Gambling Wolf Saga summary is updating. Come visit our website sometime to read the latest chapter of Legend of the End-of-Century Gambling Wolf Saga. If you have any question about this manga, Please don't hesitate to contact us or translate team. Hope you enjoy it.",
  "language": "English",
  "images": [
    "https://img-proxy.imgfo.com/?referer=https://manganelo.com&url=https://s6.mkklcdnv6temp.com/mangakakalot/u1/ui921789/vol2_chapter_13_the_vagrant_genius_pachinko_player_part_6/1.jpg",
    "https://img-proxy.imgfo.com/?referer=https://manganelo.com&url=https://s6.mkklcdnv6temp.com/mangakakalot/u1/ui921789/vol2_chapter_13_the_vagrant_genius_pachinko_player_part_6/2.jpg",
    "https://img-proxy.imgfo.com/?referer=https://manganelo.com&url=https://s6.mkklcdnv6temp.com/mangakakalot/u1/ui921789/vol2_chapter_13_the_vagrant_genius_pachinko_player_part_6/3.jpg",
    "https://img-proxy.imgfo.com/?referer=https://manganelo.com&url=https://s6.mkklcdnv6temp.com/mangakakalot/u1/ui921789/vol2_chapter_13_the_vagrant_genius_pachinko_player_part_6/4.jpg",
    "https://img-proxy.imgfo.com/?referer=https://manganelo.com&url=https://s6.mkklcdnv6temp.com/mangakakalot/u1/ui921789/vol2_chapter_13_the_vagrant_genius_pachinko_player_part_6/5.jpg",
    "https://img-proxy.imgfo.com/?referer=https://manganelo.com&url=https://s6.mkklcdnv6temp.com/mangakakalot/u1/ui921789/vol2_chapter_13_the_vagrant_genius_pachinko_player_part_6/6.jpg",
    "https://img-proxy.imgfo.com/?referer=https://manganelo.com&url=https://s6.mkklcdnv6temp.com/mangakakalot/u1/ui921789/vol2_chapter_13_the_vagrant_genius_pachinko_player_part_6/7.jpg",
    "https://img-proxy.imgfo.com/?referer=https://manganelo.com&url=https://s6.mkklcdnv6temp.com/mangakakalot/u1/ui921789/vol2_chapter_13_the_vagrant_genius_pachinko_player_part_6/8.jpg",
    "https://img-proxy.imgfo.com/?referer=https://manganelo.com&url=https://s6.mkklcdnv6temp.com/mangakakalot/u1/ui921789/vol2_chapter_13_the_vagrant_genius_pachinko_player_part_6/9.jpg",
    "https://img-proxy.imgfo.com/?referer=https://manganelo.com&url=https://s6.mkklcdnv6temp.com/mangakakalot/u1/ui921789/vol2_chapter_13_the_vagrant_genius_pachinko_player_part_6/10.jpg",
    "https://img-proxy.imgfo.com/?referer=https://manganelo.com&url=https://s6.mkklcdnv6temp.com/mangakakalot/u1/ui921789/vol2_chapter_13_the_vagrant_genius_pachinko_player_part_6/11.jpg",
    "https://img-proxy.imgfo.com/?referer=https://manganelo.com&url=https://s6.mkklcdnv6temp.com/mangakakalot/u1/ui921789/vol2_chapter_13_the_vagrant_genius_pachinko_player_part_6/12.jpg",
    "https://img-proxy.imgfo.com/?referer=https://manganelo.com&url=https://s6.mkklcdnv6temp.com/mangakakalot/u1/ui921789/vol2_chapter_13_the_vagrant_genius_pachinko_player_part_6/13.jpg",
    "https://img-proxy.imgfo.com/?referer=https://manganelo.com&url=https://s6.mkklcdnv6temp.com/mangakakalot/u1/ui921789/vol2_chapter_13_the_vagrant_genius_pachinko_player_part_6/14.jpg",
    "https://img-proxy.imgfo.com/?referer=https://manganelo.com&url=https://s6.mkklcdnv6temp.com/mangakakalot/u1/ui921789/vol2_chapter_13_the_vagrant_genius_pachinko_player_part_6/15.jpg",
    "https://img-proxy.imgfo.com/?referer=https://manganelo.com&url=https://s6.mkklcdnv6temp.com/mangakakalot/u1/ui921789/vol2_chapter_13_the_vagrant_genius_pachinko_player_part_6/16.jpg",
    "https://img-proxy.imgfo.com/?referer=https://manganelo.com&url=https://s6.mkklcdnv6temp.com/mangakakalot/u1/ui921789/vol2_chapter_13_the_vagrant_genius_pachinko_player_part_6/17.jpg",
    "https://img-proxy.imgfo.com/?referer=https://manganelo.com&url=https://s6.mkklcdnv6temp.com/mangakakalot/u1/ui921789/vol2_chapter_13_the_vagrant_genius_pachinko_player_part_6/18.jpg",
    "https://img-proxy.imgfo.com/?referer=https://manganelo.com&url=https://s6.mkklcdnv6temp.com/mangakakalot/u1/ui921789/vol2_chapter_13_the_vagrant_genius_pachinko_player_part_6/19.jpg",
    "https://img-proxy.imgfo.com/?referer=https://manganelo.com&url=https://s6.mkklcdnv6temp.com/mangakakalot/u1/ui921789/vol2_chapter_13_the_vagrant_genius_pachinko_player_part_6/20.jpg",
    "https://img-proxy.imgfo.com/?referer=https://manganelo.com&url=https://s6.mkklcdnv6temp.com/mangakakalot/u1/ui921789/vol2_chapter_13_the_vagrant_genius_pachinko_player_part_6/21.jpg",
    "https://img-proxy.imgfo.com/?referer=https://manganelo.com&url=https://s6.mkklcdnv6temp.com/mangakakalot/u1/ui921789/vol2_chapter_13_the_vagrant_genius_pachinko_player_part_6/22.jpg",
    "https://img-proxy.imgfo.com/?referer=https://manganelo.com&url=https://s6.mkklcdnv6temp.com/mangakakalot/u1/ui921789/vol2_chapter_13_the_vagrant_genius_pachinko_player_part_6/23.jpg",
    "https://img-proxy.imgfo.com/?referer=https://manganelo.com&url=https://s6.mkklcdnv6temp.com/mangakakalot/u1/ui921789/vol2_chapter_13_the_vagrant_genius_pachinko_player_part_6/24.jpg",
    "https://img-proxy.imgfo.com/?referer=https://manganelo.com&url=https://s6.mkklcdnv6temp.com/mangakakalot/u1/ui921789/vol2_chapter_13_the_vagrant_genius_pachinko_player_part_6/25.jpg"
  ]
}