{
  "cover": "https://avt.mkklcdnv6.com/39/e/1-1583465241.jpg",
  "title": "Stravaganza - Isai No Hime",
  "original": "ストラヴァガンツァ-異彩の姫- ; 异彩的公主 ; La Stravaganza",
  "genre": "Action, Comedy, Ecchi, Fantasy, Mature, Seinen, Manga",
  "author": "Tomi Akihito",
  "status": "Completed",
  "backlink": "https://manganu.com/collections/tomi-akihito/stravaganza-isai-no-hime/",
  "description": "Humans live mostly behind safe walls, protected from the many non-human creatures outside. In this kingdom&#39;s walled capital city of Mitera lives an unusual young warrior woman known as Claria. The story begins as she takes a potentially deadly walk alone in the woods, encountering various dangerous creatures-- most notably a lizardman that treats her surprisingly kindly. But what no one knows about Claria is that she is secretly this kingdom&#39;s ruler, Queen Vivian! [tethysdust]",
  "language": "English",
  "images": [
    "https://img-proxy.imgfo.com/?referer=https://manganelo.com&url=https://s3.mkklcdnv6temp.com/mangakakalot/s2/stravaganza_isai_no_hime/vol2_chapter_10_the_line_between_life_and_death/1.jpg",
    "https://img-proxy.imgfo.com/?referer=https://manganelo.com&url=https://s3.mkklcdnv6temp.com/mangakakalot/s2/stravaganza_isai_no_hime/vol2_chapter_10_the_line_between_life_and_death/2.jpg",
    "https://img-proxy.imgfo.com/?referer=https://manganelo.com&url=https://s3.mkklcdnv6temp.com/mangakakalot/s2/stravaganza_isai_no_hime/vol2_chapter_10_the_line_between_life_and_death/3.jpg",
    "https://img-proxy.imgfo.com/?referer=https://manganelo.com&url=https://s3.mkklcdnv6temp.com/mangakakalot/s2/stravaganza_isai_no_hime/vol2_chapter_10_the_line_between_life_and_death/4.jpg",
    "https://img-proxy.imgfo.com/?referer=https://manganelo.com&url=https://s3.mkklcdnv6temp.com/mangakakalot/s2/stravaganza_isai_no_hime/vol2_chapter_10_the_line_between_life_and_death/5.jpg",
    "https://img-proxy.imgfo.com/?referer=https://manganelo.com&url=https://s3.mkklcdnv6temp.com/mangakakalot/s2/stravaganza_isai_no_hime/vol2_chapter_10_the_line_between_life_and_death/6.jpg",
    "https://img-proxy.imgfo.com/?referer=https://manganelo.com&url=https://s3.mkklcdnv6temp.com/mangakakalot/s2/stravaganza_isai_no_hime/vol2_chapter_10_the_line_between_life_and_death/7.jpg",
    "https://img-proxy.imgfo.com/?referer=https://manganelo.com&url=https://s3.mkklcdnv6temp.com/mangakakalot/s2/stravaganza_isai_no_hime/vol2_chapter_10_the_line_between_life_and_death/8.jpg",
    "https://img-proxy.imgfo.com/?referer=https://manganelo.com&url=https://s3.mkklcdnv6temp.com/mangakakalot/s2/stravaganza_isai_no_hime/vol2_chapter_10_the_line_between_life_and_death/9.jpg",
    "https://img-proxy.imgfo.com/?referer=https://manganelo.com&url=https://s3.mkklcdnv6temp.com/mangakakalot/s2/stravaganza_isai_no_hime/vol2_chapter_10_the_line_between_life_and_death/10.jpg",
    "https://img-proxy.imgfo.com/?referer=https://manganelo.com&url=https://s3.mkklcdnv6temp.com/mangakakalot/s2/stravaganza_isai_no_hime/vol2_chapter_10_the_line_between_life_and_death/11.jpg",
    "https://img-proxy.imgfo.com/?referer=https://manganelo.com&url=https://s3.mkklcdnv6temp.com/mangakakalot/s2/stravaganza_isai_no_hime/vol2_chapter_10_the_line_between_life_and_death/12.jpg",
    "https://img-proxy.imgfo.com/?referer=https://manganelo.com&url=https://s3.mkklcdnv6temp.com/mangakakalot/s2/stravaganza_isai_no_hime/vol2_chapter_10_the_line_between_life_and_death/13.jpg",
    "https://img-proxy.imgfo.com/?referer=https://manganelo.com&url=https://s3.mkklcdnv6temp.com/mangakakalot/s2/stravaganza_isai_no_hime/vol2_chapter_10_the_line_between_life_and_death/14.jpg",
    "https://img-proxy.imgfo.com/?referer=https://manganelo.com&url=https://s3.mkklcdnv6temp.com/mangakakalot/s2/stravaganza_isai_no_hime/vol2_chapter_10_the_line_between_life_and_death/15.jpg",
    "https://img-proxy.imgfo.com/?referer=https://manganelo.com&url=https://s3.mkklcdnv6temp.com/mangakakalot/s2/stravaganza_isai_no_hime/vol2_chapter_10_the_line_between_life_and_death/16.jpg",
    "https://img-proxy.imgfo.com/?referer=https://manganelo.com&url=https://s3.mkklcdnv6temp.com/mangakakalot/s2/stravaganza_isai_no_hime/vol2_chapter_10_the_line_between_life_and_death/17.jpg",
    "https://img-proxy.imgfo.com/?referer=https://manganelo.com&url=https://s3.mkklcdnv6temp.com/mangakakalot/s2/stravaganza_isai_no_hime/vol2_chapter_10_the_line_between_life_and_death/18.jpg",
    "https://img-proxy.imgfo.com/?referer=https://manganelo.com&url=https://s3.mkklcdnv6temp.com/mangakakalot/s2/stravaganza_isai_no_hime/vol2_chapter_10_the_line_between_life_and_death/19.jpg",
    "https://img-proxy.imgfo.com/?referer=https://manganelo.com&url=https://s3.mkklcdnv6temp.com/mangakakalot/s2/stravaganza_isai_no_hime/vol2_chapter_10_the_line_between_life_and_death/20.jpg",
    "https://img-proxy.imgfo.com/?referer=https://manganelo.com&url=https://s3.mkklcdnv6temp.com/mangakakalot/s2/stravaganza_isai_no_hime/vol2_chapter_10_the_line_between_life_and_death/21.jpg",
    "https://img-proxy.imgfo.com/?referer=https://manganelo.com&url=https://s3.mkklcdnv6temp.com/mangakakalot/s2/stravaganza_isai_no_hime/vol2_chapter_10_the_line_between_life_and_death/22.jpg",
    "https://img-proxy.imgfo.com/?referer=https://manganelo.com&url=https://s3.mkklcdnv6temp.com/mangakakalot/s2/stravaganza_isai_no_hime/vol2_chapter_10_the_line_between_life_and_death/23.jpg",
    "https://img-proxy.imgfo.com/?referer=https://manganelo.com&url=https://s3.mkklcdnv6temp.com/mangakakalot/s2/stravaganza_isai_no_hime/vol2_chapter_10_the_line_between_life_and_death/24.jpg",
    "https://img-proxy.imgfo.com/?referer=https://manganelo.com&url=https://s3.mkklcdnv6temp.com/mangakakalot/s2/stravaganza_isai_no_hime/vol2_chapter_10_the_line_between_life_and_death/25.jpg"
  ]
}