{
  "cover": "https://avt.mkklcdnv6.com/39/e/1-1583465241.jpg",
  "title": "Stravaganza - Isai No Hime",
  "original": "ストラヴァガンツァ-異彩の姫- ; 异彩的公主 ; La Stravaganza",
  "genre": "Action, Comedy, Ecchi, Fantasy, Mature, Seinen, Manga",
  "author": "Tomi Akihito",
  "status": "Completed",
  "backlink": "https://manganu.com/collections/tomi-akihito/stravaganza-isai-no-hime/",
  "description": "Humans live mostly behind safe walls, protected from the many non-human creatures outside. In this kingdom&#39;s walled capital city of Mitera lives an unusual young warrior woman known as Claria. The story begins as she takes a potentially deadly walk alone in the woods, encountering various dangerous creatures-- most notably a lizardman that treats her surprisingly kindly. But what no one knows about Claria is that she is secretly this kingdom&#39;s ruler, Queen Vivian! [tethysdust]",
  "language": "English",
  "images": [
    "https://img-proxy.imgfo.com/?referer=https://manganelo.com&url=https://s3.mkklcdnv6temp.com/mangakakalot/s2/stravaganza_isai_no_hime/vol6_chapter_31_the_dilemma/1.jpg",
    "https://img-proxy.imgfo.com/?referer=https://manganelo.com&url=https://s3.mkklcdnv6temp.com/mangakakalot/s2/stravaganza_isai_no_hime/vol6_chapter_31_the_dilemma/2.jpg",
    "https://img-proxy.imgfo.com/?referer=https://manganelo.com&url=https://s3.mkklcdnv6temp.com/mangakakalot/s2/stravaganza_isai_no_hime/vol6_chapter_31_the_dilemma/3.jpg",
    "https://img-proxy.imgfo.com/?referer=https://manganelo.com&url=https://s3.mkklcdnv6temp.com/mangakakalot/s2/stravaganza_isai_no_hime/vol6_chapter_31_the_dilemma/4.jpg",
    "https://img-proxy.imgfo.com/?referer=https://manganelo.com&url=https://s3.mkklcdnv6temp.com/mangakakalot/s2/stravaganza_isai_no_hime/vol6_chapter_31_the_dilemma/5.jpg",
    "https://img-proxy.imgfo.com/?referer=https://manganelo.com&url=https://s3.mkklcdnv6temp.com/mangakakalot/s2/stravaganza_isai_no_hime/vol6_chapter_31_the_dilemma/6.jpg",
    "https://img-proxy.imgfo.com/?referer=https://manganelo.com&url=https://s3.mkklcdnv6temp.com/mangakakalot/s2/stravaganza_isai_no_hime/vol6_chapter_31_the_dilemma/7.jpg",
    "https://img-proxy.imgfo.com/?referer=https://manganelo.com&url=https://s3.mkklcdnv6temp.com/mangakakalot/s2/stravaganza_isai_no_hime/vol6_chapter_31_the_dilemma/8.jpg",
    "https://img-proxy.imgfo.com/?referer=https://manganelo.com&url=https://s3.mkklcdnv6temp.com/mangakakalot/s2/stravaganza_isai_no_hime/vol6_chapter_31_the_dilemma/9.jpg",
    "https://img-proxy.imgfo.com/?referer=https://manganelo.com&url=https://s3.mkklcdnv6temp.com/mangakakalot/s2/stravaganza_isai_no_hime/vol6_chapter_31_the_dilemma/10.jpg",
    "https://img-proxy.imgfo.com/?referer=https://manganelo.com&url=https://s3.mkklcdnv6temp.com/mangakakalot/s2/stravaganza_isai_no_hime/vol6_chapter_31_the_dilemma/11.jpg",
    "https://img-proxy.imgfo.com/?referer=https://manganelo.com&url=https://s3.mkklcdnv6temp.com/mangakakalot/s2/stravaganza_isai_no_hime/vol6_chapter_31_the_dilemma/12.jpg",
    "https://img-proxy.imgfo.com/?referer=https://manganelo.com&url=https://s3.mkklcdnv6temp.com/mangakakalot/s2/stravaganza_isai_no_hime/vol6_chapter_31_the_dilemma/13.jpg",
    "https://img-proxy.imgfo.com/?referer=https://manganelo.com&url=https://s3.mkklcdnv6temp.com/mangakakalot/s2/stravaganza_isai_no_hime/vol6_chapter_31_the_dilemma/14.jpg",
    "https://img-proxy.imgfo.com/?referer=https://manganelo.com&url=https://s3.mkklcdnv6temp.com/mangakakalot/s2/stravaganza_isai_no_hime/vol6_chapter_31_the_dilemma/15.jpg",
    "https://img-proxy.imgfo.com/?referer=https://manganelo.com&url=https://s3.mkklcdnv6temp.com/mangakakalot/s2/stravaganza_isai_no_hime/vol6_chapter_31_the_dilemma/16.jpg",
    "https://img-proxy.imgfo.com/?referer=https://manganelo.com&url=https://s3.mkklcdnv6temp.com/mangakakalot/s2/stravaganza_isai_no_hime/vol6_chapter_31_the_dilemma/17.jpg",
    "https://img-proxy.imgfo.com/?referer=https://manganelo.com&url=https://s3.mkklcdnv6temp.com/mangakakalot/s2/stravaganza_isai_no_hime/vol6_chapter_31_the_dilemma/18.jpg",
    "https://img-proxy.imgfo.com/?referer=https://manganelo.com&url=https://s3.mkklcdnv6temp.com/mangakakalot/s2/stravaganza_isai_no_hime/vol6_chapter_31_the_dilemma/19.jpg",
    "https://img-proxy.imgfo.com/?referer=https://manganelo.com&url=https://s3.mkklcdnv6temp.com/mangakakalot/s2/stravaganza_isai_no_hime/vol6_chapter_31_the_dilemma/20.jpg",
    "https://img-proxy.imgfo.com/?referer=https://manganelo.com&url=https://s3.mkklcdnv6temp.com/mangakakalot/s2/stravaganza_isai_no_hime/vol6_chapter_31_the_dilemma/21.jpg",
    "https://img-proxy.imgfo.com/?referer=https://manganelo.com&url=https://s3.mkklcdnv6temp.com/mangakakalot/s2/stravaganza_isai_no_hime/vol6_chapter_31_the_dilemma/22.jpg",
    "https://img-proxy.imgfo.com/?referer=https://manganelo.com&url=https://s3.mkklcdnv6temp.com/mangakakalot/s2/stravaganza_isai_no_hime/vol6_chapter_31_the_dilemma/23.jpg",
    "https://img-proxy.imgfo.com/?referer=https://manganelo.com&url=https://s3.mkklcdnv6temp.com/mangakakalot/s2/stravaganza_isai_no_hime/vol6_chapter_31_the_dilemma/24.jpg",
    "https://img-proxy.imgfo.com/?referer=https://manganelo.com&url=https://s3.mkklcdnv6temp.com/mangakakalot/s2/stravaganza_isai_no_hime/vol6_chapter_31_the_dilemma/25.jpg",
    "https://img-proxy.imgfo.com/?referer=https://manganelo.com&url=https://s3.mkklcdnv6temp.com/mangakakalot/s2/stravaganza_isai_no_hime/vol6_chapter_31_the_dilemma/26.jpg",
    "https://img-proxy.imgfo.com/?referer=https://manganelo.com&url=https://s3.mkklcdnv6temp.com/mangakakalot/s2/stravaganza_isai_no_hime/vol6_chapter_31_the_dilemma/27.jpg",
    "https://img-proxy.imgfo.com/?referer=https://manganelo.com&url=https://s3.mkklcdnv6temp.com/mangakakalot/s2/stravaganza_isai_no_hime/vol6_chapter_31_the_dilemma/28.jpg",
    "https://img-proxy.imgfo.com/?referer=https://manganelo.com&url=https://s3.mkklcdnv6temp.com/mangakakalot/s2/stravaganza_isai_no_hime/vol6_chapter_31_the_dilemma/29.jpg",
    "https://img-proxy.imgfo.com/?referer=https://manganelo.com&url=https://s3.mkklcdnv6temp.com/mangakakalot/s2/stravaganza_isai_no_hime/vol6_chapter_31_the_dilemma/30.jpg",
    "https://img-proxy.imgfo.com/?referer=https://manganelo.com&url=https://s3.mkklcdnv6temp.com/mangakakalot/s2/stravaganza_isai_no_hime/vol6_chapter_31_the_dilemma/31.jpg",
    "https://img-proxy.imgfo.com/?referer=https://manganelo.com&url=https://s3.mkklcdnv6temp.com/mangakakalot/s2/stravaganza_isai_no_hime/vol6_chapter_31_the_dilemma/32.jpg",
    "https://img-proxy.imgfo.com/?referer=https://manganelo.com&url=https://s3.mkklcdnv6temp.com/mangakakalot/s2/stravaganza_isai_no_hime/vol6_chapter_31_the_dilemma/33.jpg",
    "https://img-proxy.imgfo.com/?referer=https://manganelo.com&url=https://s3.mkklcdnv6temp.com/mangakakalot/s2/stravaganza_isai_no_hime/vol6_chapter_31_the_dilemma/34.jpg",
    "https://img-proxy.imgfo.com/?referer=https://manganelo.com&url=https://s3.mkklcdnv6temp.com/mangakakalot/s2/stravaganza_isai_no_hime/vol6_chapter_31_the_dilemma/35.jpg",
    "https://img-proxy.imgfo.com/?referer=https://manganelo.com&url=https://s3.mkklcdnv6temp.com/mangakakalot/s2/stravaganza_isai_no_hime/vol6_chapter_31_the_dilemma/36.jpg"
  ]
}