{
  "cover": "https://avt.mkklcdnv6.com/49/l/5-1583473850.jpg",
  "title": "Chrome Shelled Regios",
  "original": "鋼殻のレギオス ; 鋼殻(こうかく)のレギオス ; Kōkaku no Regios ; Koukaku no Regios",
  "genre": "Action, Adventure, Fantasy, Martial arts, School life, Sci fi, Shounen, Supernatural, Manga",
  "author": "Amagi Shuusuke",
  "status": "Completed",
  "backlink": "https://manganu.com/collections/amagi-shuusuke/chrome-shelled-regios/",
  "description": "In this school fantasy story set in the distant future, creatures contaminated by pollution have overtaken the land, forcing humanity to live in isolated mobile cities called Regios. One such city named Czerni is a self-contained school in which freshman Reifon Aruseifu has just enrolled. Reifon reluctantly joins the 17th Martial Arts Studies Unit led by the third-year student Nina Ant?ku and embarks on a series of adventures. It is an original side story that focuses more on Nina.",
  "language": "English",
  "images": [
    "https://img-proxy.imgfo.com/?referer=https://manganelo.com&url=https://s6.mkklcdnv6temp.com/mangakakalot/c1/chrome_shelled_regios/vol1_chapter_3_a_leaders_lesson/1.jpg",
    "https://img-proxy.imgfo.com/?referer=https://manganelo.com&url=https://s6.mkklcdnv6temp.com/mangakakalot/c1/chrome_shelled_regios/vol1_chapter_3_a_leaders_lesson/2.jpg",
    "https://img-proxy.imgfo.com/?referer=https://manganelo.com&url=https://s6.mkklcdnv6temp.com/mangakakalot/c1/chrome_shelled_regios/vol1_chapter_3_a_leaders_lesson/3.jpg",
    "https://img-proxy.imgfo.com/?referer=https://manganelo.com&url=https://s6.mkklcdnv6temp.com/mangakakalot/c1/chrome_shelled_regios/vol1_chapter_3_a_leaders_lesson/4.jpg",
    "https://img-proxy.imgfo.com/?referer=https://manganelo.com&url=https://s6.mkklcdnv6temp.com/mangakakalot/c1/chrome_shelled_regios/vol1_chapter_3_a_leaders_lesson/5.jpg",
    "https://img-proxy.imgfo.com/?referer=https://manganelo.com&url=https://s6.mkklcdnv6temp.com/mangakakalot/c1/chrome_shelled_regios/vol1_chapter_3_a_leaders_lesson/6.jpg",
    "https://img-proxy.imgfo.com/?referer=https://manganelo.com&url=https://s6.mkklcdnv6temp.com/mangakakalot/c1/chrome_shelled_regios/vol1_chapter_3_a_leaders_lesson/7.jpg",
    "https://img-proxy.imgfo.com/?referer=https://manganelo.com&url=https://s6.mkklcdnv6temp.com/mangakakalot/c1/chrome_shelled_regios/vol1_chapter_3_a_leaders_lesson/8.jpg",
    "https://img-proxy.imgfo.com/?referer=https://manganelo.com&url=https://s6.mkklcdnv6temp.com/mangakakalot/c1/chrome_shelled_regios/vol1_chapter_3_a_leaders_lesson/9.jpg",
    "https://img-proxy.imgfo.com/?referer=https://manganelo.com&url=https://s6.mkklcdnv6temp.com/mangakakalot/c1/chrome_shelled_regios/vol1_chapter_3_a_leaders_lesson/10.jpg",
    "https://img-proxy.imgfo.com/?referer=https://manganelo.com&url=https://s6.mkklcdnv6temp.com/mangakakalot/c1/chrome_shelled_regios/vol1_chapter_3_a_leaders_lesson/11.jpg",
    "https://img-proxy.imgfo.com/?referer=https://manganelo.com&url=https://s6.mkklcdnv6temp.com/mangakakalot/c1/chrome_shelled_regios/vol1_chapter_3_a_leaders_lesson/12.jpg",
    "https://img-proxy.imgfo.com/?referer=https://manganelo.com&url=https://s6.mkklcdnv6temp.com/mangakakalot/c1/chrome_shelled_regios/vol1_chapter_3_a_leaders_lesson/13.jpg",
    "https://img-proxy.imgfo.com/?referer=https://manganelo.com&url=https://s6.mkklcdnv6temp.com/mangakakalot/c1/chrome_shelled_regios/vol1_chapter_3_a_leaders_lesson/14.jpg",
    "https://img-proxy.imgfo.com/?referer=https://manganelo.com&url=https://s6.mkklcdnv6temp.com/mangakakalot/c1/chrome_shelled_regios/vol1_chapter_3_a_leaders_lesson/15.jpg",
    "https://img-proxy.imgfo.com/?referer=https://manganelo.com&url=https://s6.mkklcdnv6temp.com/mangakakalot/c1/chrome_shelled_regios/vol1_chapter_3_a_leaders_lesson/16.jpg",
    "https://img-proxy.imgfo.com/?referer=https://manganelo.com&url=https://s6.mkklcdnv6temp.com/mangakakalot/c1/chrome_shelled_regios/vol1_chapter_3_a_leaders_lesson/17.jpg",
    "https://img-proxy.imgfo.com/?referer=https://manganelo.com&url=https://s6.mkklcdnv6temp.com/mangakakalot/c1/chrome_shelled_regios/vol1_chapter_3_a_leaders_lesson/18.jpg",
    "https://img-proxy.imgfo.com/?referer=https://manganelo.com&url=https://s6.mkklcdnv6temp.com/mangakakalot/c1/chrome_shelled_regios/vol1_chapter_3_a_leaders_lesson/19.jpg",
    "https://img-proxy.imgfo.com/?referer=https://manganelo.com&url=https://s6.mkklcdnv6temp.com/mangakakalot/c1/chrome_shelled_regios/vol1_chapter_3_a_leaders_lesson/20.jpg",
    "https://img-proxy.imgfo.com/?referer=https://manganelo.com&url=https://s6.mkklcdnv6temp.com/mangakakalot/c1/chrome_shelled_regios/vol1_chapter_3_a_leaders_lesson/21.jpg",
    "https://img-proxy.imgfo.com/?referer=https://manganelo.com&url=https://s6.mkklcdnv6temp.com/mangakakalot/c1/chrome_shelled_regios/vol1_chapter_3_a_leaders_lesson/22.jpg",
    "https://img-proxy.imgfo.com/?referer=https://manganelo.com&url=https://s6.mkklcdnv6temp.com/mangakakalot/c1/chrome_shelled_regios/vol1_chapter_3_a_leaders_lesson/23.jpg",
    "https://img-proxy.imgfo.com/?referer=https://manganelo.com&url=https://s6.mkklcdnv6temp.com/mangakakalot/c1/chrome_shelled_regios/vol1_chapter_3_a_leaders_lesson/24.jpg",
    "https://img-proxy.imgfo.com/?referer=https://manganelo.com&url=https://s6.mkklcdnv6temp.com/mangakakalot/c1/chrome_shelled_regios/vol1_chapter_3_a_leaders_lesson/25.jpg",
    "https://img-proxy.imgfo.com/?referer=https://manganelo.com&url=https://s6.mkklcdnv6temp.com/mangakakalot/c1/chrome_shelled_regios/vol1_chapter_3_a_leaders_lesson/26.jpg",
    "https://img-proxy.imgfo.com/?referer=https://manganelo.com&url=https://s6.mkklcdnv6temp.com/mangakakalot/c1/chrome_shelled_regios/vol1_chapter_3_a_leaders_lesson/27.jpg",
    "https://img-proxy.imgfo.com/?referer=https://manganelo.com&url=https://s6.mkklcdnv6temp.com/mangakakalot/c1/chrome_shelled_regios/vol1_chapter_3_a_leaders_lesson/28.jpg",
    "https://img-proxy.imgfo.com/?referer=https://manganelo.com&url=https://s6.mkklcdnv6temp.com/mangakakalot/c1/chrome_shelled_regios/vol1_chapter_3_a_leaders_lesson/29.jpg",
    "https://img-proxy.imgfo.com/?referer=https://manganelo.com&url=https://s6.mkklcdnv6temp.com/mangakakalot/c1/chrome_shelled_regios/vol1_chapter_3_a_leaders_lesson/30.jpg",
    "https://img-proxy.imgfo.com/?referer=https://manganelo.com&url=https://s6.mkklcdnv6temp.com/mangakakalot/c1/chrome_shelled_regios/vol1_chapter_3_a_leaders_lesson/31.jpg"
  ]
}