{
  "cover": "https://avt.mkklcdnv6.com/14/v/11-1583484549.jpg",
  "title": "Ao No Fuuin",
  "original": "Blue Seal ; 蒼の封印 ; 蒼之封印",
  "genre": "Action, Drama, Fantasy, Horror, Mystery, Romance, Shoujo, Manga",
  "author": "Shinohara Chie",
  "status": "Completed",
  "backlink": "https://manganu.com/collections/shinohara-chie/ao-no-fuuin/",
  "description": "Soko starts feeling sick soon after moving to a new city, apparently for no reason. As beautiful as she is, a lot of guys start to bother her, especially Kashi. While trying to rape her, Kashi disappears and after a few days another guy shows up pretending to be Kashi. And everyone but Soko believes him!He tells her he is Akira the Byakko, from the family of the West. Because she is the reincarnation of Souryo, the queen of the Oni from the family of the East, a monster that eats humans to stay alive, he must destroy her and erase her genes from Earth. He is the only one who can kill her and the one that must do so. Soko is desperate. Is she really a monster? Why does she have human memories? Why does she have to die? Will she be able to change her destiny and stay alive? from SIH",
  "language": "English",
  "images": [
    "https://img-proxy.imgfo.com/?referer=https://manganelo.com&url=https://s7.mkklcdnv6temp.com/mangakakalot/a2/ao_no_fuuin/vol5_chapter_28/1.jpg",
    "https://img-proxy.imgfo.com/?referer=https://manganelo.com&url=https://s7.mkklcdnv6temp.com/mangakakalot/a2/ao_no_fuuin/vol5_chapter_28/2.jpg",
    "https://img-proxy.imgfo.com/?referer=https://manganelo.com&url=https://s7.mkklcdnv6temp.com/mangakakalot/a2/ao_no_fuuin/vol5_chapter_28/3.jpg",
    "https://img-proxy.imgfo.com/?referer=https://manganelo.com&url=https://s7.mkklcdnv6temp.com/mangakakalot/a2/ao_no_fuuin/vol5_chapter_28/4.jpg",
    "https://img-proxy.imgfo.com/?referer=https://manganelo.com&url=https://s7.mkklcdnv6temp.com/mangakakalot/a2/ao_no_fuuin/vol5_chapter_28/5.jpg",
    "https://img-proxy.imgfo.com/?referer=https://manganelo.com&url=https://s7.mkklcdnv6temp.com/mangakakalot/a2/ao_no_fuuin/vol5_chapter_28/6.jpg",
    "https://img-proxy.imgfo.com/?referer=https://manganelo.com&url=https://s7.mkklcdnv6temp.com/mangakakalot/a2/ao_no_fuuin/vol5_chapter_28/7.jpg",
    "https://img-proxy.imgfo.com/?referer=https://manganelo.com&url=https://s7.mkklcdnv6temp.com/mangakakalot/a2/ao_no_fuuin/vol5_chapter_28/8.jpg",
    "https://img-proxy.imgfo.com/?referer=https://manganelo.com&url=https://s7.mkklcdnv6temp.com/mangakakalot/a2/ao_no_fuuin/vol5_chapter_28/9.jpg",
    "https://img-proxy.imgfo.com/?referer=https://manganelo.com&url=https://s7.mkklcdnv6temp.com/mangakakalot/a2/ao_no_fuuin/vol5_chapter_28/10.jpg",
    "https://img-proxy.imgfo.com/?referer=https://manganelo.com&url=https://s7.mkklcdnv6temp.com/mangakakalot/a2/ao_no_fuuin/vol5_chapter_28/11.jpg",
    "https://img-proxy.imgfo.com/?referer=https://manganelo.com&url=https://s7.mkklcdnv6temp.com/mangakakalot/a2/ao_no_fuuin/vol5_chapter_28/12.jpg",
    "https://img-proxy.imgfo.com/?referer=https://manganelo.com&url=https://s7.mkklcdnv6temp.com/mangakakalot/a2/ao_no_fuuin/vol5_chapter_28/13.jpg",
    "https://img-proxy.imgfo.com/?referer=https://manganelo.com&url=https://s7.mkklcdnv6temp.com/mangakakalot/a2/ao_no_fuuin/vol5_chapter_28/14.jpg",
    "https://img-proxy.imgfo.com/?referer=https://manganelo.com&url=https://s7.mkklcdnv6temp.com/mangakakalot/a2/ao_no_fuuin/vol5_chapter_28/15.jpg",
    "https://img-proxy.imgfo.com/?referer=https://manganelo.com&url=https://s7.mkklcdnv6temp.com/mangakakalot/a2/ao_no_fuuin/vol5_chapter_28/16.jpg",
    "https://img-proxy.imgfo.com/?referer=https://manganelo.com&url=https://s7.mkklcdnv6temp.com/mangakakalot/a2/ao_no_fuuin/vol5_chapter_28/17.jpg",
    "https://img-proxy.imgfo.com/?referer=https://manganelo.com&url=https://s7.mkklcdnv6temp.com/mangakakalot/a2/ao_no_fuuin/vol5_chapter_28/18.jpg",
    "https://img-proxy.imgfo.com/?referer=https://manganelo.com&url=https://s7.mkklcdnv6temp.com/mangakakalot/a2/ao_no_fuuin/vol5_chapter_28/19.jpg",
    "https://img-proxy.imgfo.com/?referer=https://manganelo.com&url=https://s7.mkklcdnv6temp.com/mangakakalot/a2/ao_no_fuuin/vol5_chapter_28/20.jpg",
    "https://img-proxy.imgfo.com/?referer=https://manganelo.com&url=https://s7.mkklcdnv6temp.com/mangakakalot/a2/ao_no_fuuin/vol5_chapter_28/21.jpg",
    "https://img-proxy.imgfo.com/?referer=https://manganelo.com&url=https://s7.mkklcdnv6temp.com/mangakakalot/a2/ao_no_fuuin/vol5_chapter_28/22.jpg",
    "https://img-proxy.imgfo.com/?referer=https://manganelo.com&url=https://s7.mkklcdnv6temp.com/mangakakalot/a2/ao_no_fuuin/vol5_chapter_28/23.jpg",
    "https://img-proxy.imgfo.com/?referer=https://manganelo.com&url=https://s7.mkklcdnv6temp.com/mangakakalot/a2/ao_no_fuuin/vol5_chapter_28/24.jpg",
    "https://img-proxy.imgfo.com/?referer=https://manganelo.com&url=https://s7.mkklcdnv6temp.com/mangakakalot/a2/ao_no_fuuin/vol5_chapter_28/25.jpg",
    "https://img-proxy.imgfo.com/?referer=https://manganelo.com&url=https://s7.mkklcdnv6temp.com/mangakakalot/a2/ao_no_fuuin/vol5_chapter_28/26.jpg",
    "https://img-proxy.imgfo.com/?referer=https://manganelo.com&url=https://s7.mkklcdnv6temp.com/mangakakalot/a2/ao_no_fuuin/vol5_chapter_28/27.jpg",
    "https://img-proxy.imgfo.com/?referer=https://manganelo.com&url=https://s7.mkklcdnv6temp.com/mangakakalot/a2/ao_no_fuuin/vol5_chapter_28/28.jpg",
    "https://img-proxy.imgfo.com/?referer=https://manganelo.com&url=https://s7.mkklcdnv6temp.com/mangakakalot/a2/ao_no_fuuin/vol5_chapter_28/29.jpg",
    "https://img-proxy.imgfo.com/?referer=https://manganelo.com&url=https://s7.mkklcdnv6temp.com/mangakakalot/a2/ao_no_fuuin/vol5_chapter_28/30.jpg",
    "https://img-proxy.imgfo.com/?referer=https://manganelo.com&url=https://s7.mkklcdnv6temp.com/mangakakalot/a2/ao_no_fuuin/vol5_chapter_28/31.jpg",
    "https://img-proxy.imgfo.com/?referer=https://manganelo.com&url=https://s7.mkklcdnv6temp.com/mangakakalot/a2/ao_no_fuuin/vol5_chapter_28/32.jpg",
    "https://img-proxy.imgfo.com/?referer=https://manganelo.com&url=https://s7.mkklcdnv6temp.com/mangakakalot/a2/ao_no_fuuin/vol5_chapter_28/33.jpg",
    "https://img-proxy.imgfo.com/?referer=https://manganelo.com&url=https://s7.mkklcdnv6temp.com/mangakakalot/a2/ao_no_fuuin/vol5_chapter_28/34.jpg",
    "https://img-proxy.imgfo.com/?referer=https://manganelo.com&url=https://s7.mkklcdnv6temp.com/mangakakalot/a2/ao_no_fuuin/vol5_chapter_28/35.jpg",
    "https://img-proxy.imgfo.com/?referer=https://manganelo.com&url=https://s7.mkklcdnv6temp.com/mangakakalot/a2/ao_no_fuuin/vol5_chapter_28/36.jpg",
    "https://img-proxy.imgfo.com/?referer=https://manganelo.com&url=https://s7.mkklcdnv6temp.com/mangakakalot/a2/ao_no_fuuin/vol5_chapter_28/37.jpg",
    "https://img-proxy.imgfo.com/?referer=https://manganelo.com&url=https://s7.mkklcdnv6temp.com/mangakakalot/a2/ao_no_fuuin/vol5_chapter_28/38.jpg",
    "https://img-proxy.imgfo.com/?referer=https://manganelo.com&url=https://s7.mkklcdnv6temp.com/mangakakalot/a2/ao_no_fuuin/vol5_chapter_28/39.jpg",
    "https://img-proxy.imgfo.com/?referer=https://manganelo.com&url=https://s7.mkklcdnv6temp.com/mangakakalot/a2/ao_no_fuuin/vol5_chapter_28/40.jpg",
    "https://img-proxy.imgfo.com/?referer=https://manganelo.com&url=https://s7.mkklcdnv6temp.com/mangakakalot/a2/ao_no_fuuin/vol5_chapter_28/41.jpg",
    "https://img-proxy.imgfo.com/?referer=https://manganelo.com&url=https://s7.mkklcdnv6temp.com/mangakakalot/a2/ao_no_fuuin/vol5_chapter_28/42.jpg",
    "https://img-proxy.imgfo.com/?referer=https://manganelo.com&url=https://s7.mkklcdnv6temp.com/mangakakalot/a2/ao_no_fuuin/vol5_chapter_28/43.jpg",
    "https://img-proxy.imgfo.com/?referer=https://manganelo.com&url=https://s7.mkklcdnv6temp.com/mangakakalot/a2/ao_no_fuuin/vol5_chapter_28/44.jpg",
    "https://img-proxy.imgfo.com/?referer=https://manganelo.com&url=https://s7.mkklcdnv6temp.com/mangakakalot/a2/ao_no_fuuin/vol5_chapter_28/45.jpg",
    "https://img-proxy.imgfo.com/?referer=https://manganelo.com&url=https://s7.mkklcdnv6temp.com/mangakakalot/a2/ao_no_fuuin/vol5_chapter_28/46.jpg",
    "https://img-proxy.imgfo.com/?referer=https://manganelo.com&url=https://s7.mkklcdnv6temp.com/mangakakalot/a2/ao_no_fuuin/vol5_chapter_28/47.jpg",
    "https://img-proxy.imgfo.com/?referer=https://manganelo.com&url=https://s7.mkklcdnv6temp.com/mangakakalot/a2/ao_no_fuuin/vol5_chapter_28/48.jpg",
    "https://img-proxy.imgfo.com/?referer=https://manganelo.com&url=https://s7.mkklcdnv6temp.com/mangakakalot/a2/ao_no_fuuin/vol5_chapter_28/49.jpg",
    "https://img-proxy.imgfo.com/?referer=https://manganelo.com&url=https://s7.mkklcdnv6temp.com/mangakakalot/a2/ao_no_fuuin/vol5_chapter_28/50.jpg",
    "https://img-proxy.imgfo.com/?referer=https://manganelo.com&url=https://s7.mkklcdnv6temp.com/mangakakalot/a2/ao_no_fuuin/vol5_chapter_28/51.jpg",
    "https://img-proxy.imgfo.com/?referer=https://manganelo.com&url=https://s7.mkklcdnv6temp.com/mangakakalot/a2/ao_no_fuuin/vol5_chapter_28/52.jpg",
    "https://img-proxy.imgfo.com/?referer=https://manganelo.com&url=https://s7.mkklcdnv6temp.com/mangakakalot/a2/ao_no_fuuin/vol5_chapter_28/53.jpg",
    "https://img-proxy.imgfo.com/?referer=https://manganelo.com&url=https://s7.mkklcdnv6temp.com/mangakakalot/a2/ao_no_fuuin/vol5_chapter_28/54.jpg",
    "https://img-proxy.imgfo.com/?referer=https://manganelo.com&url=https://s7.mkklcdnv6temp.com/mangakakalot/a2/ao_no_fuuin/vol5_chapter_28/55.jpg",
    "https://img-proxy.imgfo.com/?referer=https://manganelo.com&url=https://s7.mkklcdnv6temp.com/mangakakalot/a2/ao_no_fuuin/vol5_chapter_28/56.jpg",
    "https://img-proxy.imgfo.com/?referer=https://manganelo.com&url=https://s7.mkklcdnv6temp.com/mangakakalot/a2/ao_no_fuuin/vol5_chapter_28/57.jpg"
  ]
}