{
  "cover": "https://avt.mkklcdnv6.com/1/m/3-1583469707.jpg",
  "title": "Diotima",
  "original": "제멋대로 함선 디오티마 ; Diotima, The Random Space Vessel",
  "genre": "Comedy, Drama, Josei, Psychological, Romance, Sci fi, Slice of life, Tragedy, Manga",
  "author": "Kwon Gyo-Jung",
  "status": "Completed",
  "backlink": "https://manganu.com/collections/kwon-gyo-jung/diotima/",
  "description": "Diotima is set in 2092, far in the future. This manhwa is considered sci-fi for that. However, the manhwa's plot is \"life\". The episodes involve lives of captain Namer Joon and her crew onboard the space vessel, Diotima. The plot goes a little further and tries to convey conflicts between Earthians and Moon settlers. There are clearly some mysteries about Namer Joon, Diotima, and its creators.",
  "language": "English",
  "images": [
    "https://img-proxy.imgfo.com/?referer=https://manganelo.com&url=https://s7.mkklcdnv6temp.com/mangakakalot/d1/diotima/vol2_chapter_12/1.jpg",
    "https://img-proxy.imgfo.com/?referer=https://manganelo.com&url=https://s7.mkklcdnv6temp.com/mangakakalot/d1/diotima/vol2_chapter_12/2.jpg",
    "https://img-proxy.imgfo.com/?referer=https://manganelo.com&url=https://s7.mkklcdnv6temp.com/mangakakalot/d1/diotima/vol2_chapter_12/3.jpg",
    "https://img-proxy.imgfo.com/?referer=https://manganelo.com&url=https://s7.mkklcdnv6temp.com/mangakakalot/d1/diotima/vol2_chapter_12/4.jpg",
    "https://img-proxy.imgfo.com/?referer=https://manganelo.com&url=https://s7.mkklcdnv6temp.com/mangakakalot/d1/diotima/vol2_chapter_12/5.jpg",
    "https://img-proxy.imgfo.com/?referer=https://manganelo.com&url=https://s7.mkklcdnv6temp.com/mangakakalot/d1/diotima/vol2_chapter_12/6.jpg",
    "https://img-proxy.imgfo.com/?referer=https://manganelo.com&url=https://s7.mkklcdnv6temp.com/mangakakalot/d1/diotima/vol2_chapter_12/7.jpg",
    "https://img-proxy.imgfo.com/?referer=https://manganelo.com&url=https://s7.mkklcdnv6temp.com/mangakakalot/d1/diotima/vol2_chapter_12/8.jpg",
    "https://img-proxy.imgfo.com/?referer=https://manganelo.com&url=https://s7.mkklcdnv6temp.com/mangakakalot/d1/diotima/vol2_chapter_12/9.jpg",
    "https://img-proxy.imgfo.com/?referer=https://manganelo.com&url=https://s7.mkklcdnv6temp.com/mangakakalot/d1/diotima/vol2_chapter_12/10.jpg",
    "https://img-proxy.imgfo.com/?referer=https://manganelo.com&url=https://s7.mkklcdnv6temp.com/mangakakalot/d1/diotima/vol2_chapter_12/11.jpg",
    "https://img-proxy.imgfo.com/?referer=https://manganelo.com&url=https://s7.mkklcdnv6temp.com/mangakakalot/d1/diotima/vol2_chapter_12/12.jpg",
    "https://img-proxy.imgfo.com/?referer=https://manganelo.com&url=https://s7.mkklcdnv6temp.com/mangakakalot/d1/diotima/vol2_chapter_12/13.jpg",
    "https://img-proxy.imgfo.com/?referer=https://manganelo.com&url=https://s7.mkklcdnv6temp.com/mangakakalot/d1/diotima/vol2_chapter_12/14.jpg"
  ]
}