{
  "cover": "https://avt.mkklcdnv6.com/50/q/10-1583484008.jpg",
  "title": "Kasa No Shita, Futari",
  "original": "傘の下、ふたり ; 雨傘下、兩個人 ; Under the Umbrella, With You ; Under the Umbrella, Together ; Two People, Under the Umbrella",
  "genre": "Drama, Romance, Slice of life, Yaoi, Manga",
  "author": "Junko",
  "status": "Completed",
  "backlink": "https://manganu.com/collections/junko/kasa-no-shita-futari/",
  "description": "Mio Keisuke is a high-schooler who leads a rather dull, boring life. He can&rsquo;t keep a girlfriend&mdash;because being a kept man is too much of a hassle, and he can&rsquo;t bring himself to fall in love and want to please his woman. Then&mdash;one day he seeks shelter from a sudden downpour under the awning of an apartment owned by Yugi Kakeru&hellip; and suddenly his life isn&rsquo;t so dull anymore as he finds himself falling for his aloof and yet obviously lonely friend.",
  "language": "English",
  "images": [
    "https://img-proxy.imgfo.com/?referer=https://manganelo.com&url=https://s5.mkklcdnv6temp.com/mangakakalot/k1/kasa_no_shita_futari/vol1_chapter_56_when_you_wish_upon_a_star/1.jpg",
    "https://img-proxy.imgfo.com/?referer=https://manganelo.com&url=https://s5.mkklcdnv6temp.com/mangakakalot/k1/kasa_no_shita_futari/vol1_chapter_56_when_you_wish_upon_a_star/2.jpg",
    "https://img-proxy.imgfo.com/?referer=https://manganelo.com&url=https://s5.mkklcdnv6temp.com/mangakakalot/k1/kasa_no_shita_futari/vol1_chapter_56_when_you_wish_upon_a_star/3.jpg",
    "https://img-proxy.imgfo.com/?referer=https://manganelo.com&url=https://s5.mkklcdnv6temp.com/mangakakalot/k1/kasa_no_shita_futari/vol1_chapter_56_when_you_wish_upon_a_star/4.jpg",
    "https://img-proxy.imgfo.com/?referer=https://manganelo.com&url=https://s5.mkklcdnv6temp.com/mangakakalot/k1/kasa_no_shita_futari/vol1_chapter_56_when_you_wish_upon_a_star/5.jpg",
    "https://img-proxy.imgfo.com/?referer=https://manganelo.com&url=https://s5.mkklcdnv6temp.com/mangakakalot/k1/kasa_no_shita_futari/vol1_chapter_56_when_you_wish_upon_a_star/6.jpg",
    "https://img-proxy.imgfo.com/?referer=https://manganelo.com&url=https://s5.mkklcdnv6temp.com/mangakakalot/k1/kasa_no_shita_futari/vol1_chapter_56_when_you_wish_upon_a_star/7.jpg",
    "https://img-proxy.imgfo.com/?referer=https://manganelo.com&url=https://s5.mkklcdnv6temp.com/mangakakalot/k1/kasa_no_shita_futari/vol1_chapter_56_when_you_wish_upon_a_star/8.jpg",
    "https://img-proxy.imgfo.com/?referer=https://manganelo.com&url=https://s5.mkklcdnv6temp.com/mangakakalot/k1/kasa_no_shita_futari/vol1_chapter_56_when_you_wish_upon_a_star/9.jpg"
  ]
}