{
  "cover": "https://avt.mkklcdnv6.com/48/w/3-1583469603.jpg",
  "title": "Fight No Akatsuki",
  "original": "ふぁいとの暁 ; 篮球乐翻天 ; Akatsuki's Fight ; Basketball Fighter ; Faito No Akatsuki ; Fighter Akatsuki ; The Fight of Akatsuki",
  "genre": "Action, Comedy, School life, Shounen, Sports, Manga",
  "author": "Aoyagi Takao",
  "status": "Completed",
  "backlink": "https://manganu.com/collections/aoyagi-takao/fight-no-akatsuki/",
  "description": "Akatsuki and his good friend Kiyoharu (called Kiyo-chan by Akatsuki) have been playing 'two player' basketball for quite sometime. Unfortunately, things started to change after they have joined in a very strong basketball team in their new school. Both of them were forced to separate into two groups: Kiyoharu was in the 'B' group and poor Akatsuki was put under 'F' group, which is known as the 'Failure' group. However, Akatsuki was not discouraged at all. He continues to train hard and always has a smile on his face. Will Akatsuki succeeded in his promise to Kiyoharu to become an official player? And what is blocking the path towards reaching his goal?",
  "language": "English",
  "images": [
    "https://img-proxy.imgfo.com/?referer=https://manganelo.com&url=https://s7.mkklcdnv6temp.com/mangakakalot/f1/fight_no_akatsuki/vol2_chapter_12_one_month_later/1.jpg",
    "https://img-proxy.imgfo.com/?referer=https://manganelo.com&url=https://s7.mkklcdnv6temp.com/mangakakalot/f1/fight_no_akatsuki/vol2_chapter_12_one_month_later/2.jpg",
    "https://img-proxy.imgfo.com/?referer=https://manganelo.com&url=https://s7.mkklcdnv6temp.com/mangakakalot/f1/fight_no_akatsuki/vol2_chapter_12_one_month_later/3.jpg",
    "https://img-proxy.imgfo.com/?referer=https://manganelo.com&url=https://s7.mkklcdnv6temp.com/mangakakalot/f1/fight_no_akatsuki/vol2_chapter_12_one_month_later/4.jpg",
    "https://img-proxy.imgfo.com/?referer=https://manganelo.com&url=https://s7.mkklcdnv6temp.com/mangakakalot/f1/fight_no_akatsuki/vol2_chapter_12_one_month_later/5.jpg",
    "https://img-proxy.imgfo.com/?referer=https://manganelo.com&url=https://s7.mkklcdnv6temp.com/mangakakalot/f1/fight_no_akatsuki/vol2_chapter_12_one_month_later/6.jpg",
    "https://img-proxy.imgfo.com/?referer=https://manganelo.com&url=https://s7.mkklcdnv6temp.com/mangakakalot/f1/fight_no_akatsuki/vol2_chapter_12_one_month_later/7.jpg",
    "https://img-proxy.imgfo.com/?referer=https://manganelo.com&url=https://s7.mkklcdnv6temp.com/mangakakalot/f1/fight_no_akatsuki/vol2_chapter_12_one_month_later/8.jpg",
    "https://img-proxy.imgfo.com/?referer=https://manganelo.com&url=https://s7.mkklcdnv6temp.com/mangakakalot/f1/fight_no_akatsuki/vol2_chapter_12_one_month_later/9.jpg",
    "https://img-proxy.imgfo.com/?referer=https://manganelo.com&url=https://s7.mkklcdnv6temp.com/mangakakalot/f1/fight_no_akatsuki/vol2_chapter_12_one_month_later/10.jpg",
    "https://img-proxy.imgfo.com/?referer=https://manganelo.com&url=https://s7.mkklcdnv6temp.com/mangakakalot/f1/fight_no_akatsuki/vol2_chapter_12_one_month_later/11.jpg",
    "https://img-proxy.imgfo.com/?referer=https://manganelo.com&url=https://s7.mkklcdnv6temp.com/mangakakalot/f1/fight_no_akatsuki/vol2_chapter_12_one_month_later/12.jpg",
    "https://img-proxy.imgfo.com/?referer=https://manganelo.com&url=https://s7.mkklcdnv6temp.com/mangakakalot/f1/fight_no_akatsuki/vol2_chapter_12_one_month_later/13.jpg",
    "https://img-proxy.imgfo.com/?referer=https://manganelo.com&url=https://s7.mkklcdnv6temp.com/mangakakalot/f1/fight_no_akatsuki/vol2_chapter_12_one_month_later/14.jpg",
    "https://img-proxy.imgfo.com/?referer=https://manganelo.com&url=https://s7.mkklcdnv6temp.com/mangakakalot/f1/fight_no_akatsuki/vol2_chapter_12_one_month_later/15.jpg",
    "https://img-proxy.imgfo.com/?referer=https://manganelo.com&url=https://s7.mkklcdnv6temp.com/mangakakalot/f1/fight_no_akatsuki/vol2_chapter_12_one_month_later/16.jpg",
    "https://img-proxy.imgfo.com/?referer=https://manganelo.com&url=https://s7.mkklcdnv6temp.com/mangakakalot/f1/fight_no_akatsuki/vol2_chapter_12_one_month_later/17.jpg",
    "https://img-proxy.imgfo.com/?referer=https://manganelo.com&url=https://s7.mkklcdnv6temp.com/mangakakalot/f1/fight_no_akatsuki/vol2_chapter_12_one_month_later/18.jpg",
    "https://img-proxy.imgfo.com/?referer=https://manganelo.com&url=https://s7.mkklcdnv6temp.com/mangakakalot/f1/fight_no_akatsuki/vol2_chapter_12_one_month_later/19.jpg"
  ]
}