{
  "cover": "https://avt.mkklcdnv6.com/47/b/5-1583473732.jpg",
  "title": "Get Love!!",
  "original": "恋爱得分 ; 戀愛得分 ; ★ゲットラブ★★ ; ★ゲットラブ★★~フィールドの王子さま~ ; Get Goal!! ; Get Love!! Field no Oujisama ; Get Love!! Field Prince ; Get Love!! Soccer Prince ; Get Love!! The Prince of Soccer ; GET LOVE!!~フィールドの王子さま~",
  "genre": "Comedy, Drama, Mature, Romance, School life, Shoujo, Sports, Manga",
  "author": "Ikeyamada Go",
  "status": "Completed",
  "backlink": "https://manganu.com/collections/ikeyamada-go/get-love/",
  "description": "[From Condensation]:\nSagara Yuki is a high school student who's shorter than all the other guys in his class. Moriyama Miki is the girl who admires him despite his small stature. Follow the hijinks and the romance between Sagara and Moriyama as they become closer and conquer the obstacles to their love! Was soccer mentioned?\nThis is a super cute and funny manga. Volume 01 is a prequel to the actual series which begins in Volume 02.\n* Contains the following short stories:\n• I Want to Protect You (Volume 1)\nYuka is in love with her childhood friend, Haruki. The problem is that Haruki has a peculiar body condition - when people get near him, he gets attacked because of his pheromones. What will happen when they start dating?\n• Valentine Nanka Kowakunai!? (Volume 4)\nMoe-chan plans to give Kyou-kun her homemade chocolate, but will she be able to when the rest of the male student population are after it too?\n• Mousou Otome (The Delusional Virgin) (Volume 6)\nHigh school girl Chihiro is, in fact, a shoujo manga author! She bases her manga on her wild ideas with her first boyfriend, Izumi-kun, but she's keeping it a secret from him...?\n(1st oneshot in Megane - Hazushitemo Ii desu ka?)",
  "language": "English",
  "images": [
    "https://img-proxy.imgfo.com/?referer=https://manganelo.com&url=https://s41.mkklcdnv6temp.com/mangakakalot/g1/get_love/vol6_chapter_25/1.jpg",
    "https://img-proxy.imgfo.com/?referer=https://manganelo.com&url=https://s41.mkklcdnv6temp.com/mangakakalot/g1/get_love/vol6_chapter_25/2.jpg",
    "https://img-proxy.imgfo.com/?referer=https://manganelo.com&url=https://s41.mkklcdnv6temp.com/mangakakalot/g1/get_love/vol6_chapter_25/3.jpg",
    "https://img-proxy.imgfo.com/?referer=https://manganelo.com&url=https://s41.mkklcdnv6temp.com/mangakakalot/g1/get_love/vol6_chapter_25/4.jpg",
    "https://img-proxy.imgfo.com/?referer=https://manganelo.com&url=https://s41.mkklcdnv6temp.com/mangakakalot/g1/get_love/vol6_chapter_25/5.jpg",
    "https://img-proxy.imgfo.com/?referer=https://manganelo.com&url=https://s41.mkklcdnv6temp.com/mangakakalot/g1/get_love/vol6_chapter_25/6.jpg",
    "https://img-proxy.imgfo.com/?referer=https://manganelo.com&url=https://s41.mkklcdnv6temp.com/mangakakalot/g1/get_love/vol6_chapter_25/7.jpg",
    "https://img-proxy.imgfo.com/?referer=https://manganelo.com&url=https://s41.mkklcdnv6temp.com/mangakakalot/g1/get_love/vol6_chapter_25/8.jpg",
    "https://img-proxy.imgfo.com/?referer=https://manganelo.com&url=https://s41.mkklcdnv6temp.com/mangakakalot/g1/get_love/vol6_chapter_25/9.jpg",
    "https://img-proxy.imgfo.com/?referer=https://manganelo.com&url=https://s41.mkklcdnv6temp.com/mangakakalot/g1/get_love/vol6_chapter_25/10.jpg",
    "https://img-proxy.imgfo.com/?referer=https://manganelo.com&url=https://s41.mkklcdnv6temp.com/mangakakalot/g1/get_love/vol6_chapter_25/11.jpg",
    "https://img-proxy.imgfo.com/?referer=https://manganelo.com&url=https://s41.mkklcdnv6temp.com/mangakakalot/g1/get_love/vol6_chapter_25/12.jpg",
    "https://img-proxy.imgfo.com/?referer=https://manganelo.com&url=https://s41.mkklcdnv6temp.com/mangakakalot/g1/get_love/vol6_chapter_25/13.jpg",
    "https://img-proxy.imgfo.com/?referer=https://manganelo.com&url=https://s41.mkklcdnv6temp.com/mangakakalot/g1/get_love/vol6_chapter_25/14.jpg",
    "https://img-proxy.imgfo.com/?referer=https://manganelo.com&url=https://s41.mkklcdnv6temp.com/mangakakalot/g1/get_love/vol6_chapter_25/15.jpg",
    "https://img-proxy.imgfo.com/?referer=https://manganelo.com&url=https://s41.mkklcdnv6temp.com/mangakakalot/g1/get_love/vol6_chapter_25/16.jpg",
    "https://img-proxy.imgfo.com/?referer=https://manganelo.com&url=https://s41.mkklcdnv6temp.com/mangakakalot/g1/get_love/vol6_chapter_25/17.jpg",
    "https://img-proxy.imgfo.com/?referer=https://manganelo.com&url=https://s41.mkklcdnv6temp.com/mangakakalot/g1/get_love/vol6_chapter_25/18.jpg",
    "https://img-proxy.imgfo.com/?referer=https://manganelo.com&url=https://s41.mkklcdnv6temp.com/mangakakalot/g1/get_love/vol6_chapter_25/19.jpg",
    "https://img-proxy.imgfo.com/?referer=https://manganelo.com&url=https://s41.mkklcdnv6temp.com/mangakakalot/g1/get_love/vol6_chapter_25/20.jpg",
    "https://img-proxy.imgfo.com/?referer=https://manganelo.com&url=https://s41.mkklcdnv6temp.com/mangakakalot/g1/get_love/vol6_chapter_25/21.jpg",
    "https://img-proxy.imgfo.com/?referer=https://manganelo.com&url=https://s41.mkklcdnv6temp.com/mangakakalot/g1/get_love/vol6_chapter_25/22.jpg",
    "https://img-proxy.imgfo.com/?referer=https://manganelo.com&url=https://s41.mkklcdnv6temp.com/mangakakalot/g1/get_love/vol6_chapter_25/23.jpg",
    "https://img-proxy.imgfo.com/?referer=https://manganelo.com&url=https://s41.mkklcdnv6temp.com/mangakakalot/g1/get_love/vol6_chapter_25/24.jpg",
    "https://img-proxy.imgfo.com/?referer=https://manganelo.com&url=https://s41.mkklcdnv6temp.com/mangakakalot/g1/get_love/vol6_chapter_25/25.jpg",
    "https://img-proxy.imgfo.com/?referer=https://manganelo.com&url=https://s41.mkklcdnv6temp.com/mangakakalot/g1/get_love/vol6_chapter_25/26.jpg",
    "https://img-proxy.imgfo.com/?referer=https://manganelo.com&url=https://s41.mkklcdnv6temp.com/mangakakalot/g1/get_love/vol6_chapter_25/27.jpg",
    "https://img-proxy.imgfo.com/?referer=https://manganelo.com&url=https://s41.mkklcdnv6temp.com/mangakakalot/g1/get_love/vol6_chapter_25/28.jpg",
    "https://img-proxy.imgfo.com/?referer=https://manganelo.com&url=https://s41.mkklcdnv6temp.com/mangakakalot/g1/get_love/vol6_chapter_25/29.jpg",
    "https://img-proxy.imgfo.com/?referer=https://manganelo.com&url=https://s41.mkklcdnv6temp.com/mangakakalot/g1/get_love/vol6_chapter_25/30.jpg",
    "https://img-proxy.imgfo.com/?referer=https://manganelo.com&url=https://s41.mkklcdnv6temp.com/mangakakalot/g1/get_love/vol6_chapter_25/31.jpg",
    "https://img-proxy.imgfo.com/?referer=https://manganelo.com&url=https://s41.mkklcdnv6temp.com/mangakakalot/g1/get_love/vol6_chapter_25/32.jpg",
    "https://img-proxy.imgfo.com/?referer=https://manganelo.com&url=https://s41.mkklcdnv6temp.com/mangakakalot/g1/get_love/vol6_chapter_25/33.jpg",
    "https://img-proxy.imgfo.com/?referer=https://manganelo.com&url=https://s41.mkklcdnv6temp.com/mangakakalot/g1/get_love/vol6_chapter_25/34.jpg",
    "https://img-proxy.imgfo.com/?referer=https://manganelo.com&url=https://s41.mkklcdnv6temp.com/mangakakalot/g1/get_love/vol6_chapter_25/35.jpg",
    "https://img-proxy.imgfo.com/?referer=https://manganelo.com&url=https://s41.mkklcdnv6temp.com/mangakakalot/g1/get_love/vol6_chapter_25/36.jpg"
  ]
}