{
  "cover": "https://avt.mkklcdnv6.com/39/m/6-1583475759.jpg",
  "title": "Boku Wa Imouto Ni Koi Wo Suru",
  "original": "僕は妹に恋をする (Japanese); Secret Sweethearts; 妹妹恋人; 我爱上了妹妹 (Chinese); Boku wa Imouto ni Koi wo Suru ; Boku wa Imouto ni Koi wo Suru - Secret Sweethearts ; I Love My Little Sister ; I Love My Little Sister - Secret Sweethearts (English); I love my younger sister ; I love my little sister ; I love my sister ; I love my twin sister ; Влюбен съм в сестра ми (Bulgarian) ; Iniibig ko ang sarili kong kapatid (Filipino) ; Lazos Prohibidos (Spanish) ; Secret Sweethearts (French);",
  "genre": "Comedy, Drama, Mature, Romance, School life, Shoujo, Smut, Manga",
  "author": "Aoki Kotomi",
  "status": "Completed",
  "backlink": "https://manganu.com/collections/aoki-kotomi/boku-wa-imouto-ni-koi-wo-suru/",
  "description": "Yori and Iku are twin brother and sister. Their parents mostly work hard for their best education. Mostly Yori, Iku&#39;s brother, has good intelligence and looks. And as for Iku well... Iku&#39;s character is kind of a kid one she mostly acts like a kid towards Yori and her parents but she has a cute face. Iku and Yori had been together since childhood they&#39;ve been together their whole lives. But lately Yori acts differently.. he gives Iku the cold shoulder and gets mad at her is as if he wants to be apart from her. Iku worries and thinks that her brother Yori hates her. But the real truth about Yori&#39;s doing&#39;s are far more being a &quot;Big Brother&quot; to sweet little Iku. Now, Yori risks different things anything and everything to have Iku. Iku loves her big brother Yori enough that she would risk losing him and she&#39;ll do what it takes to keep them together. But Yori doesn&#39;t want her that way towards him... as a loyal twin sister dedicated to her own twin. Is it possible that Iku will love Yori not as her big brother but as a man? From ShoujoMagic: Yori&#39;s attitude has changed. He and his twin sister, Iku, used to be inseparable as children, but lately Yori&#39;s been different -- eager to be apart from Iku. Iku worries that he hates her, but the truth is far more scandalous. Now, Yori would risk losing everything to have his little sister. Iku loves her big brother enough that she would never risk losing him, and so she&#39;ll do what it takes to keep them together... but Yori doesn&#39;t want to have her that way -- as a sister dedicated to her twin. Can Iku ever love Yori not as a brother but as a man? Boku wa Imouto ni Koiwosuru received the Shogakukan Manga Award for sh?jo manga in 2008.",
  "language": "English",
  "images": [
    "https://img-proxy.imgfo.com/?referer=https://manganelo.com&url=https://s41.mkklcdnv6temp.com/mangakakalot/b2/boku_wa_imouto_ni_koi_wo_suru/vol9_chapter_48_v2_passing_by_each_other/1.jpg",
    "https://img-proxy.imgfo.com/?referer=https://manganelo.com&url=https://s41.mkklcdnv6temp.com/mangakakalot/b2/boku_wa_imouto_ni_koi_wo_suru/vol9_chapter_48_v2_passing_by_each_other/2.jpg",
    "https://img-proxy.imgfo.com/?referer=https://manganelo.com&url=https://s41.mkklcdnv6temp.com/mangakakalot/b2/boku_wa_imouto_ni_koi_wo_suru/vol9_chapter_48_v2_passing_by_each_other/3.jpg",
    "https://img-proxy.imgfo.com/?referer=https://manganelo.com&url=https://s41.mkklcdnv6temp.com/mangakakalot/b2/boku_wa_imouto_ni_koi_wo_suru/vol9_chapter_48_v2_passing_by_each_other/4.jpg",
    "https://img-proxy.imgfo.com/?referer=https://manganelo.com&url=https://s41.mkklcdnv6temp.com/mangakakalot/b2/boku_wa_imouto_ni_koi_wo_suru/vol9_chapter_48_v2_passing_by_each_other/5.jpg",
    "https://img-proxy.imgfo.com/?referer=https://manganelo.com&url=https://s41.mkklcdnv6temp.com/mangakakalot/b2/boku_wa_imouto_ni_koi_wo_suru/vol9_chapter_48_v2_passing_by_each_other/6.jpg",
    "https://img-proxy.imgfo.com/?referer=https://manganelo.com&url=https://s41.mkklcdnv6temp.com/mangakakalot/b2/boku_wa_imouto_ni_koi_wo_suru/vol9_chapter_48_v2_passing_by_each_other/7.jpg",
    "https://img-proxy.imgfo.com/?referer=https://manganelo.com&url=https://s41.mkklcdnv6temp.com/mangakakalot/b2/boku_wa_imouto_ni_koi_wo_suru/vol9_chapter_48_v2_passing_by_each_other/8.jpg",
    "https://img-proxy.imgfo.com/?referer=https://manganelo.com&url=https://s41.mkklcdnv6temp.com/mangakakalot/b2/boku_wa_imouto_ni_koi_wo_suru/vol9_chapter_48_v2_passing_by_each_other/9.jpg",
    "https://img-proxy.imgfo.com/?referer=https://manganelo.com&url=https://s41.mkklcdnv6temp.com/mangakakalot/b2/boku_wa_imouto_ni_koi_wo_suru/vol9_chapter_48_v2_passing_by_each_other/10.jpg",
    "https://img-proxy.imgfo.com/?referer=https://manganelo.com&url=https://s41.mkklcdnv6temp.com/mangakakalot/b2/boku_wa_imouto_ni_koi_wo_suru/vol9_chapter_48_v2_passing_by_each_other/11.jpg",
    "https://img-proxy.imgfo.com/?referer=https://manganelo.com&url=https://s41.mkklcdnv6temp.com/mangakakalot/b2/boku_wa_imouto_ni_koi_wo_suru/vol9_chapter_48_v2_passing_by_each_other/12.jpg",
    "https://img-proxy.imgfo.com/?referer=https://manganelo.com&url=https://s41.mkklcdnv6temp.com/mangakakalot/b2/boku_wa_imouto_ni_koi_wo_suru/vol9_chapter_48_v2_passing_by_each_other/13.jpg",
    "https://img-proxy.imgfo.com/?referer=https://manganelo.com&url=https://s41.mkklcdnv6temp.com/mangakakalot/b2/boku_wa_imouto_ni_koi_wo_suru/vol9_chapter_48_v2_passing_by_each_other/14.jpg",
    "https://img-proxy.imgfo.com/?referer=https://manganelo.com&url=https://s41.mkklcdnv6temp.com/mangakakalot/b2/boku_wa_imouto_ni_koi_wo_suru/vol9_chapter_48_v2_passing_by_each_other/15.jpg",
    "https://img-proxy.imgfo.com/?referer=https://manganelo.com&url=https://s41.mkklcdnv6temp.com/mangakakalot/b2/boku_wa_imouto_ni_koi_wo_suru/vol9_chapter_48_v2_passing_by_each_other/16.jpg",
    "https://img-proxy.imgfo.com/?referer=https://manganelo.com&url=https://s41.mkklcdnv6temp.com/mangakakalot/b2/boku_wa_imouto_ni_koi_wo_suru/vol9_chapter_48_v2_passing_by_each_other/17.jpg",
    "https://img-proxy.imgfo.com/?referer=https://manganelo.com&url=https://s41.mkklcdnv6temp.com/mangakakalot/b2/boku_wa_imouto_ni_koi_wo_suru/vol9_chapter_48_v2_passing_by_each_other/18.jpg",
    "https://img-proxy.imgfo.com/?referer=https://manganelo.com&url=https://s41.mkklcdnv6temp.com/mangakakalot/b2/boku_wa_imouto_ni_koi_wo_suru/vol9_chapter_48_v2_passing_by_each_other/19.jpg",
    "https://img-proxy.imgfo.com/?referer=https://manganelo.com&url=https://s41.mkklcdnv6temp.com/mangakakalot/b2/boku_wa_imouto_ni_koi_wo_suru/vol9_chapter_48_v2_passing_by_each_other/20.jpg",
    "https://img-proxy.imgfo.com/?referer=https://manganelo.com&url=https://s41.mkklcdnv6temp.com/mangakakalot/b2/boku_wa_imouto_ni_koi_wo_suru/vol9_chapter_48_v2_passing_by_each_other/21.jpg",
    "https://img-proxy.imgfo.com/?referer=https://manganelo.com&url=https://s41.mkklcdnv6temp.com/mangakakalot/b2/boku_wa_imouto_ni_koi_wo_suru/vol9_chapter_48_v2_passing_by_each_other/22.jpg",
    "https://img-proxy.imgfo.com/?referer=https://manganelo.com&url=https://s41.mkklcdnv6temp.com/mangakakalot/b2/boku_wa_imouto_ni_koi_wo_suru/vol9_chapter_48_v2_passing_by_each_other/23.jpg",
    "https://img-proxy.imgfo.com/?referer=https://manganelo.com&url=https://s41.mkklcdnv6temp.com/mangakakalot/b2/boku_wa_imouto_ni_koi_wo_suru/vol9_chapter_48_v2_passing_by_each_other/24.jpg",
    "https://img-proxy.imgfo.com/?referer=https://manganelo.com&url=https://s41.mkklcdnv6temp.com/mangakakalot/b2/boku_wa_imouto_ni_koi_wo_suru/vol9_chapter_48_v2_passing_by_each_other/25.jpg",
    "https://img-proxy.imgfo.com/?referer=https://manganelo.com&url=https://s41.mkklcdnv6temp.com/mangakakalot/b2/boku_wa_imouto_ni_koi_wo_suru/vol9_chapter_48_v2_passing_by_each_other/26.jpg",
    "https://img-proxy.imgfo.com/?referer=https://manganelo.com&url=https://s41.mkklcdnv6temp.com/mangakakalot/b2/boku_wa_imouto_ni_koi_wo_suru/vol9_chapter_48_v2_passing_by_each_other/27.jpg",
    "https://img-proxy.imgfo.com/?referer=https://manganelo.com&url=https://s41.mkklcdnv6temp.com/mangakakalot/b2/boku_wa_imouto_ni_koi_wo_suru/vol9_chapter_48_v2_passing_by_each_other/28.jpg",
    "https://img-proxy.imgfo.com/?referer=https://manganelo.com&url=https://s41.mkklcdnv6temp.com/mangakakalot/b2/boku_wa_imouto_ni_koi_wo_suru/vol9_chapter_48_v2_passing_by_each_other/29.jpg",
    "https://img-proxy.imgfo.com/?referer=https://manganelo.com&url=https://s41.mkklcdnv6temp.com/mangakakalot/b2/boku_wa_imouto_ni_koi_wo_suru/vol9_chapter_48_v2_passing_by_each_other/30.jpg",
    "https://img-proxy.imgfo.com/?referer=https://manganelo.com&url=https://s41.mkklcdnv6temp.com/mangakakalot/b2/boku_wa_imouto_ni_koi_wo_suru/vol9_chapter_48_v2_passing_by_each_other/31.jpg",
    "https://img-proxy.imgfo.com/?referer=https://manganelo.com&url=https://s41.mkklcdnv6temp.com/mangakakalot/b2/boku_wa_imouto_ni_koi_wo_suru/vol9_chapter_48_v2_passing_by_each_other/32.jpg",
    "https://img-proxy.imgfo.com/?referer=https://manganelo.com&url=https://s41.mkklcdnv6temp.com/mangakakalot/b2/boku_wa_imouto_ni_koi_wo_suru/vol9_chapter_48_v2_passing_by_each_other/33.jpg",
    "https://img-proxy.imgfo.com/?referer=https://manganelo.com&url=https://s41.mkklcdnv6temp.com/mangakakalot/b2/boku_wa_imouto_ni_koi_wo_suru/vol9_chapter_48_v2_passing_by_each_other/34.jpg",
    "https://img-proxy.imgfo.com/?referer=https://manganelo.com&url=https://s41.mkklcdnv6temp.com/mangakakalot/b2/boku_wa_imouto_ni_koi_wo_suru/vol9_chapter_48_v2_passing_by_each_other/35.jpg",
    "https://img-proxy.imgfo.com/?referer=https://manganelo.com&url=https://s41.mkklcdnv6temp.com/mangakakalot/b2/boku_wa_imouto_ni_koi_wo_suru/vol9_chapter_48_v2_passing_by_each_other/36.jpg",
    "https://img-proxy.imgfo.com/?referer=https://manganelo.com&url=https://s41.mkklcdnv6temp.com/mangakakalot/b2/boku_wa_imouto_ni_koi_wo_suru/vol9_chapter_48_v2_passing_by_each_other/37.jpg",
    "https://img-proxy.imgfo.com/?referer=https://manganelo.com&url=https://s41.mkklcdnv6temp.com/mangakakalot/b2/boku_wa_imouto_ni_koi_wo_suru/vol9_chapter_48_v2_passing_by_each_other/38.jpg",
    "https://img-proxy.imgfo.com/?referer=https://manganelo.com&url=https://s41.mkklcdnv6temp.com/mangakakalot/b2/boku_wa_imouto_ni_koi_wo_suru/vol9_chapter_48_v2_passing_by_each_other/39.jpg"
  ]
}