{
  "cover": "https://avt.mkklcdnv6.com/44/j/9-1583481960.jpg",
  "title": "Mayple-San No Koucha Jikan",
  "original": "メイプルさんの紅茶時間 ; Maple-san no Kocha Jikan ; Mayple-san no Tea Time ; Mis. Mayple's Afternoon Tea Time",
  "genre": "Drama, Sci fi, Seinen, Slice of life, Tragedy, Manga",
  "author": "Aoi Kuuta",
  "status": "Completed",
  "backlink": "https://manganu.com/collections/aoi-kuuta/mayple-san-no-koucha-jikan/",
  "description": "From MangaHelpers:\nThe story opens several years after a devastating war, where incredibly strong 'mechanical dolls' slaughtered many, many people. These robot weapons, which look exactly like humans, are still feared and hated. During a storm, Craw finds one of these 'dolls.' She is nothing like the weapon he would expect, but is instead gentle, cheerful, and very eager to be of use to the people around her. She claims her name is Mayple, and she seems to be programmed as a maid and cook.\nSoon, Craw has set up a cafe for Mayple to run, where she can cook sweets and tea for everyone in town. It's going to be a rough road ahead of her, as many townspeople hate her on principle and will not shrink from violence against her. But maybe Mayple, who always keeps a sunny attitude, will be able to find a way through the prejudice and make a place for herself in the post-war world. [tethysdust]",
  "language": "English",
  "images": [
    "https://img-proxy.imgfo.com/?referer=https://manganelo.com&url=https://s6.mkklcdnv6temp.com/mangakakalot/m1/mayplesan_no_koucha_jikan/vol2_chapter_10_the_endless_tea_time_end/1.jpg",
    "https://img-proxy.imgfo.com/?referer=https://manganelo.com&url=https://s6.mkklcdnv6temp.com/mangakakalot/m1/mayplesan_no_koucha_jikan/vol2_chapter_10_the_endless_tea_time_end/2.jpg",
    "https://img-proxy.imgfo.com/?referer=https://manganelo.com&url=https://s6.mkklcdnv6temp.com/mangakakalot/m1/mayplesan_no_koucha_jikan/vol2_chapter_10_the_endless_tea_time_end/3.jpg",
    "https://img-proxy.imgfo.com/?referer=https://manganelo.com&url=https://s6.mkklcdnv6temp.com/mangakakalot/m1/mayplesan_no_koucha_jikan/vol2_chapter_10_the_endless_tea_time_end/4.jpg",
    "https://img-proxy.imgfo.com/?referer=https://manganelo.com&url=https://s6.mkklcdnv6temp.com/mangakakalot/m1/mayplesan_no_koucha_jikan/vol2_chapter_10_the_endless_tea_time_end/5.jpg",
    "https://img-proxy.imgfo.com/?referer=https://manganelo.com&url=https://s6.mkklcdnv6temp.com/mangakakalot/m1/mayplesan_no_koucha_jikan/vol2_chapter_10_the_endless_tea_time_end/6.jpg",
    "https://img-proxy.imgfo.com/?referer=https://manganelo.com&url=https://s6.mkklcdnv6temp.com/mangakakalot/m1/mayplesan_no_koucha_jikan/vol2_chapter_10_the_endless_tea_time_end/7.jpg",
    "https://img-proxy.imgfo.com/?referer=https://manganelo.com&url=https://s6.mkklcdnv6temp.com/mangakakalot/m1/mayplesan_no_koucha_jikan/vol2_chapter_10_the_endless_tea_time_end/8.jpg",
    "https://img-proxy.imgfo.com/?referer=https://manganelo.com&url=https://s6.mkklcdnv6temp.com/mangakakalot/m1/mayplesan_no_koucha_jikan/vol2_chapter_10_the_endless_tea_time_end/9.jpg",
    "https://img-proxy.imgfo.com/?referer=https://manganelo.com&url=https://s6.mkklcdnv6temp.com/mangakakalot/m1/mayplesan_no_koucha_jikan/vol2_chapter_10_the_endless_tea_time_end/10.jpg",
    "https://img-proxy.imgfo.com/?referer=https://manganelo.com&url=https://s6.mkklcdnv6temp.com/mangakakalot/m1/mayplesan_no_koucha_jikan/vol2_chapter_10_the_endless_tea_time_end/11.jpg",
    "https://img-proxy.imgfo.com/?referer=https://manganelo.com&url=https://s6.mkklcdnv6temp.com/mangakakalot/m1/mayplesan_no_koucha_jikan/vol2_chapter_10_the_endless_tea_time_end/12.jpg",
    "https://img-proxy.imgfo.com/?referer=https://manganelo.com&url=https://s6.mkklcdnv6temp.com/mangakakalot/m1/mayplesan_no_koucha_jikan/vol2_chapter_10_the_endless_tea_time_end/13.jpg",
    "https://img-proxy.imgfo.com/?referer=https://manganelo.com&url=https://s6.mkklcdnv6temp.com/mangakakalot/m1/mayplesan_no_koucha_jikan/vol2_chapter_10_the_endless_tea_time_end/14.jpg",
    "https://img-proxy.imgfo.com/?referer=https://manganelo.com&url=https://s6.mkklcdnv6temp.com/mangakakalot/m1/mayplesan_no_koucha_jikan/vol2_chapter_10_the_endless_tea_time_end/15.jpg",
    "https://img-proxy.imgfo.com/?referer=https://manganelo.com&url=https://s6.mkklcdnv6temp.com/mangakakalot/m1/mayplesan_no_koucha_jikan/vol2_chapter_10_the_endless_tea_time_end/16.jpg",
    "https://img-proxy.imgfo.com/?referer=https://manganelo.com&url=https://s6.mkklcdnv6temp.com/mangakakalot/m1/mayplesan_no_koucha_jikan/vol2_chapter_10_the_endless_tea_time_end/17.jpg",
    "https://img-proxy.imgfo.com/?referer=https://manganelo.com&url=https://s6.mkklcdnv6temp.com/mangakakalot/m1/mayplesan_no_koucha_jikan/vol2_chapter_10_the_endless_tea_time_end/18.jpg",
    "https://img-proxy.imgfo.com/?referer=https://manganelo.com&url=https://s6.mkklcdnv6temp.com/mangakakalot/m1/mayplesan_no_koucha_jikan/vol2_chapter_10_the_endless_tea_time_end/19.jpg",
    "https://img-proxy.imgfo.com/?referer=https://manganelo.com&url=https://s6.mkklcdnv6temp.com/mangakakalot/m1/mayplesan_no_koucha_jikan/vol2_chapter_10_the_endless_tea_time_end/20.jpg",
    "https://img-proxy.imgfo.com/?referer=https://manganelo.com&url=https://s6.mkklcdnv6temp.com/mangakakalot/m1/mayplesan_no_koucha_jikan/vol2_chapter_10_the_endless_tea_time_end/21.jpg",
    "https://img-proxy.imgfo.com/?referer=https://manganelo.com&url=https://s6.mkklcdnv6temp.com/mangakakalot/m1/mayplesan_no_koucha_jikan/vol2_chapter_10_the_endless_tea_time_end/22.jpg",
    "https://img-proxy.imgfo.com/?referer=https://manganelo.com&url=https://s6.mkklcdnv6temp.com/mangakakalot/m1/mayplesan_no_koucha_jikan/vol2_chapter_10_the_endless_tea_time_end/23.jpg",
    "https://img-proxy.imgfo.com/?referer=https://manganelo.com&url=https://s6.mkklcdnv6temp.com/mangakakalot/m1/mayplesan_no_koucha_jikan/vol2_chapter_10_the_endless_tea_time_end/24.jpg",
    "https://img-proxy.imgfo.com/?referer=https://manganelo.com&url=https://s6.mkklcdnv6temp.com/mangakakalot/m1/mayplesan_no_koucha_jikan/vol2_chapter_10_the_endless_tea_time_end/25.jpg",
    "https://img-proxy.imgfo.com/?referer=https://manganelo.com&url=https://s6.mkklcdnv6temp.com/mangakakalot/m1/mayplesan_no_koucha_jikan/vol2_chapter_10_the_endless_tea_time_end/26.jpg",
    "https://img-proxy.imgfo.com/?referer=https://manganelo.com&url=https://s6.mkklcdnv6temp.com/mangakakalot/m1/mayplesan_no_koucha_jikan/vol2_chapter_10_the_endless_tea_time_end/27.jpg",
    "https://img-proxy.imgfo.com/?referer=https://manganelo.com&url=https://s6.mkklcdnv6temp.com/mangakakalot/m1/mayplesan_no_koucha_jikan/vol2_chapter_10_the_endless_tea_time_end/28.jpg",
    "https://img-proxy.imgfo.com/?referer=https://manganelo.com&url=https://s6.mkklcdnv6temp.com/mangakakalot/m1/mayplesan_no_koucha_jikan/vol2_chapter_10_the_endless_tea_time_end/29.jpg",
    "https://img-proxy.imgfo.com/?referer=https://manganelo.com&url=https://s6.mkklcdnv6temp.com/mangakakalot/m1/mayplesan_no_koucha_jikan/vol2_chapter_10_the_endless_tea_time_end/30.jpg",
    "https://img-proxy.imgfo.com/?referer=https://manganelo.com&url=https://s6.mkklcdnv6temp.com/mangakakalot/m1/mayplesan_no_koucha_jikan/vol2_chapter_10_the_endless_tea_time_end/31.jpg",
    "https://img-proxy.imgfo.com/?referer=https://manganelo.com&url=https://s6.mkklcdnv6temp.com/mangakakalot/m1/mayplesan_no_koucha_jikan/vol2_chapter_10_the_endless_tea_time_end/32.jpg",
    "https://img-proxy.imgfo.com/?referer=https://manganelo.com&url=https://s6.mkklcdnv6temp.com/mangakakalot/m1/mayplesan_no_koucha_jikan/vol2_chapter_10_the_endless_tea_time_end/33.jpg",
    "https://img-proxy.imgfo.com/?referer=https://manganelo.com&url=https://s6.mkklcdnv6temp.com/mangakakalot/m1/mayplesan_no_koucha_jikan/vol2_chapter_10_the_endless_tea_time_end/34.jpg",
    "https://img-proxy.imgfo.com/?referer=https://manganelo.com&url=https://s6.mkklcdnv6temp.com/mangakakalot/m1/mayplesan_no_koucha_jikan/vol2_chapter_10_the_endless_tea_time_end/35.jpg",
    "https://img-proxy.imgfo.com/?referer=https://manganelo.com&url=https://s6.mkklcdnv6temp.com/mangakakalot/m1/mayplesan_no_koucha_jikan/vol2_chapter_10_the_endless_tea_time_end/36.jpg",
    "https://img-proxy.imgfo.com/?referer=https://manganelo.com&url=https://s6.mkklcdnv6temp.com/mangakakalot/m1/mayplesan_no_koucha_jikan/vol2_chapter_10_the_endless_tea_time_end/37.jpg",
    "https://img-proxy.imgfo.com/?referer=https://manganelo.com&url=https://s6.mkklcdnv6temp.com/mangakakalot/m1/mayplesan_no_koucha_jikan/vol2_chapter_10_the_endless_tea_time_end/38.jpg",
    "https://img-proxy.imgfo.com/?referer=https://manganelo.com&url=https://s6.mkklcdnv6temp.com/mangakakalot/m1/mayplesan_no_koucha_jikan/vol2_chapter_10_the_endless_tea_time_end/39.jpg",
    "https://img-proxy.imgfo.com/?referer=https://manganelo.com&url=https://s6.mkklcdnv6temp.com/mangakakalot/m1/mayplesan_no_koucha_jikan/vol2_chapter_10_the_endless_tea_time_end/40.jpg",
    "https://img-proxy.imgfo.com/?referer=https://manganelo.com&url=https://s6.mkklcdnv6temp.com/mangakakalot/m1/mayplesan_no_koucha_jikan/vol2_chapter_10_the_endless_tea_time_end/41.jpg",
    "https://img-proxy.imgfo.com/?referer=https://manganelo.com&url=https://s6.mkklcdnv6temp.com/mangakakalot/m1/mayplesan_no_koucha_jikan/vol2_chapter_10_the_endless_tea_time_end/42.jpg",
    "https://img-proxy.imgfo.com/?referer=https://manganelo.com&url=https://s6.mkklcdnv6temp.com/mangakakalot/m1/mayplesan_no_koucha_jikan/vol2_chapter_10_the_endless_tea_time_end/43.jpg",
    "https://img-proxy.imgfo.com/?referer=https://manganelo.com&url=https://s6.mkklcdnv6temp.com/mangakakalot/m1/mayplesan_no_koucha_jikan/vol2_chapter_10_the_endless_tea_time_end/44.jpg",
    "https://img-proxy.imgfo.com/?referer=https://manganelo.com&url=https://s6.mkklcdnv6temp.com/mangakakalot/m1/mayplesan_no_koucha_jikan/vol2_chapter_10_the_endless_tea_time_end/45.jpg",
    "https://img-proxy.imgfo.com/?referer=https://manganelo.com&url=https://s6.mkklcdnv6temp.com/mangakakalot/m1/mayplesan_no_koucha_jikan/vol2_chapter_10_the_endless_tea_time_end/46.jpg",
    "https://img-proxy.imgfo.com/?referer=https://manganelo.com&url=https://s6.mkklcdnv6temp.com/mangakakalot/m1/mayplesan_no_koucha_jikan/vol2_chapter_10_the_endless_tea_time_end/47.jpg",
    "https://img-proxy.imgfo.com/?referer=https://manganelo.com&url=https://s6.mkklcdnv6temp.com/mangakakalot/m1/mayplesan_no_koucha_jikan/vol2_chapter_10_the_endless_tea_time_end/48.jpg"
  ]
}