{
  "cover": "https://avt.mkklcdnv6.com/46/f/9-1583482039.jpg",
  "title": "Kurozuka",
  "original": "KUROZUKA-黒塚",
  "genre": "Action, Adult, Horror, Romance, Sci fi, Seinen, Supernatural, Manga",
  "author": "Yumemakura Baku",
  "status": "Completed",
  "backlink": "https://manganu.com/collections/yumemakura-baku/kurozuka/",
  "description": "From Izumo no Ryuu:\nA story of obsessive love and constant pursue told over a 1000 year period.\nNote: Contains nudity and gore warning.\nFrom Evil Empire:\nEscaping from a brother who had just ascended the throne, Yoshitsune, along with his servant, comes across a house in the middle of a desolate mountain. Oddly enough, only a young woman lives there, who seems to possess a very dark and ominous past.\nThis long over 1000 years journey focuses on our main protagonist Kurou. This may be a tad bit confusing at the beginning, but once you understand the plot this story can be quite entertaining, but the main story goes as such: It starts with out with Kurou meeting the beautiful women by the name of Kuromitsu, thus began a relationship which transcends life and memories. A journey of immortals and those who chase after it. The majority of this story takes place a few centuries into the future where Kurou is separated from Kuromitsu and without memories and he then searches for answers to who is and why he does not die and who was the women he is so transfixed upon.",
  "language": "English",
  "images": [
    "https://img-proxy.imgfo.com/?referer=https://manganelo.com&url=https://s7.mkklcdnv6temp.com/mangakakalot/k2/kurozuka/vol9_chapter_36_juukai_no_kessen_desicive_battle_in_the_sea_of_trees/1.jpg",
    "https://img-proxy.imgfo.com/?referer=https://manganelo.com&url=https://s7.mkklcdnv6temp.com/mangakakalot/k2/kurozuka/vol9_chapter_36_juukai_no_kessen_desicive_battle_in_the_sea_of_trees/2.jpg",
    "https://img-proxy.imgfo.com/?referer=https://manganelo.com&url=https://s7.mkklcdnv6temp.com/mangakakalot/k2/kurozuka/vol9_chapter_36_juukai_no_kessen_desicive_battle_in_the_sea_of_trees/3.jpg",
    "https://img-proxy.imgfo.com/?referer=https://manganelo.com&url=https://s7.mkklcdnv6temp.com/mangakakalot/k2/kurozuka/vol9_chapter_36_juukai_no_kessen_desicive_battle_in_the_sea_of_trees/4.jpg",
    "https://img-proxy.imgfo.com/?referer=https://manganelo.com&url=https://s7.mkklcdnv6temp.com/mangakakalot/k2/kurozuka/vol9_chapter_36_juukai_no_kessen_desicive_battle_in_the_sea_of_trees/5.jpg",
    "https://img-proxy.imgfo.com/?referer=https://manganelo.com&url=https://s7.mkklcdnv6temp.com/mangakakalot/k2/kurozuka/vol9_chapter_36_juukai_no_kessen_desicive_battle_in_the_sea_of_trees/6.jpg",
    "https://img-proxy.imgfo.com/?referer=https://manganelo.com&url=https://s7.mkklcdnv6temp.com/mangakakalot/k2/kurozuka/vol9_chapter_36_juukai_no_kessen_desicive_battle_in_the_sea_of_trees/7.jpg",
    "https://img-proxy.imgfo.com/?referer=https://manganelo.com&url=https://s7.mkklcdnv6temp.com/mangakakalot/k2/kurozuka/vol9_chapter_36_juukai_no_kessen_desicive_battle_in_the_sea_of_trees/8.jpg",
    "https://img-proxy.imgfo.com/?referer=https://manganelo.com&url=https://s7.mkklcdnv6temp.com/mangakakalot/k2/kurozuka/vol9_chapter_36_juukai_no_kessen_desicive_battle_in_the_sea_of_trees/9.jpg",
    "https://img-proxy.imgfo.com/?referer=https://manganelo.com&url=https://s7.mkklcdnv6temp.com/mangakakalot/k2/kurozuka/vol9_chapter_36_juukai_no_kessen_desicive_battle_in_the_sea_of_trees/10.jpg",
    "https://img-proxy.imgfo.com/?referer=https://manganelo.com&url=https://s7.mkklcdnv6temp.com/mangakakalot/k2/kurozuka/vol9_chapter_36_juukai_no_kessen_desicive_battle_in_the_sea_of_trees/11.jpg",
    "https://img-proxy.imgfo.com/?referer=https://manganelo.com&url=https://s7.mkklcdnv6temp.com/mangakakalot/k2/kurozuka/vol9_chapter_36_juukai_no_kessen_desicive_battle_in_the_sea_of_trees/12.jpg",
    "https://img-proxy.imgfo.com/?referer=https://manganelo.com&url=https://s7.mkklcdnv6temp.com/mangakakalot/k2/kurozuka/vol9_chapter_36_juukai_no_kessen_desicive_battle_in_the_sea_of_trees/13.jpg",
    "https://img-proxy.imgfo.com/?referer=https://manganelo.com&url=https://s7.mkklcdnv6temp.com/mangakakalot/k2/kurozuka/vol9_chapter_36_juukai_no_kessen_desicive_battle_in_the_sea_of_trees/14.jpg",
    "https://img-proxy.imgfo.com/?referer=https://manganelo.com&url=https://s7.mkklcdnv6temp.com/mangakakalot/k2/kurozuka/vol9_chapter_36_juukai_no_kessen_desicive_battle_in_the_sea_of_trees/15.jpg",
    "https://img-proxy.imgfo.com/?referer=https://manganelo.com&url=https://s7.mkklcdnv6temp.com/mangakakalot/k2/kurozuka/vol9_chapter_36_juukai_no_kessen_desicive_battle_in_the_sea_of_trees/16.jpg",
    "https://img-proxy.imgfo.com/?referer=https://manganelo.com&url=https://s7.mkklcdnv6temp.com/mangakakalot/k2/kurozuka/vol9_chapter_36_juukai_no_kessen_desicive_battle_in_the_sea_of_trees/17.jpg",
    "https://img-proxy.imgfo.com/?referer=https://manganelo.com&url=https://s7.mkklcdnv6temp.com/mangakakalot/k2/kurozuka/vol9_chapter_36_juukai_no_kessen_desicive_battle_in_the_sea_of_trees/18.jpg",
    "https://img-proxy.imgfo.com/?referer=https://manganelo.com&url=https://s7.mkklcdnv6temp.com/mangakakalot/k2/kurozuka/vol9_chapter_36_juukai_no_kessen_desicive_battle_in_the_sea_of_trees/19.jpg",
    "https://img-proxy.imgfo.com/?referer=https://manganelo.com&url=https://s7.mkklcdnv6temp.com/mangakakalot/k2/kurozuka/vol9_chapter_36_juukai_no_kessen_desicive_battle_in_the_sea_of_trees/20.jpg",
    "https://img-proxy.imgfo.com/?referer=https://manganelo.com&url=https://s7.mkklcdnv6temp.com/mangakakalot/k2/kurozuka/vol9_chapter_36_juukai_no_kessen_desicive_battle_in_the_sea_of_trees/21.jpg",
    "https://img-proxy.imgfo.com/?referer=https://manganelo.com&url=https://s7.mkklcdnv6temp.com/mangakakalot/k2/kurozuka/vol9_chapter_36_juukai_no_kessen_desicive_battle_in_the_sea_of_trees/22.jpg",
    "https://img-proxy.imgfo.com/?referer=https://manganelo.com&url=https://s7.mkklcdnv6temp.com/mangakakalot/k2/kurozuka/vol9_chapter_36_juukai_no_kessen_desicive_battle_in_the_sea_of_trees/23.jpg",
    "https://img-proxy.imgfo.com/?referer=https://manganelo.com&url=https://s7.mkklcdnv6temp.com/mangakakalot/k2/kurozuka/vol9_chapter_36_juukai_no_kessen_desicive_battle_in_the_sea_of_trees/24.jpg",
    "https://img-proxy.imgfo.com/?referer=https://manganelo.com&url=https://s7.mkklcdnv6temp.com/mangakakalot/k2/kurozuka/vol9_chapter_36_juukai_no_kessen_desicive_battle_in_the_sea_of_trees/25.jpg",
    "https://img-proxy.imgfo.com/?referer=https://manganelo.com&url=https://s7.mkklcdnv6temp.com/mangakakalot/k2/kurozuka/vol9_chapter_36_juukai_no_kessen_desicive_battle_in_the_sea_of_trees/26.jpg",
    "https://img-proxy.imgfo.com/?referer=https://manganelo.com&url=https://s7.mkklcdnv6temp.com/mangakakalot/k2/kurozuka/vol9_chapter_36_juukai_no_kessen_desicive_battle_in_the_sea_of_trees/27.jpg",
    "https://img-proxy.imgfo.com/?referer=https://manganelo.com&url=https://s7.mkklcdnv6temp.com/mangakakalot/k2/kurozuka/vol9_chapter_36_juukai_no_kessen_desicive_battle_in_the_sea_of_trees/28.jpg",
    "https://img-proxy.imgfo.com/?referer=https://manganelo.com&url=https://s7.mkklcdnv6temp.com/mangakakalot/k2/kurozuka/vol9_chapter_36_juukai_no_kessen_desicive_battle_in_the_sea_of_trees/29.jpg",
    "https://img-proxy.imgfo.com/?referer=https://manganelo.com&url=https://s7.mkklcdnv6temp.com/mangakakalot/k2/kurozuka/vol9_chapter_36_juukai_no_kessen_desicive_battle_in_the_sea_of_trees/30.jpg",
    "https://img-proxy.imgfo.com/?referer=https://manganelo.com&url=https://s7.mkklcdnv6temp.com/mangakakalot/k2/kurozuka/vol9_chapter_36_juukai_no_kessen_desicive_battle_in_the_sea_of_trees/31.jpg",
    "https://img-proxy.imgfo.com/?referer=https://manganelo.com&url=https://s7.mkklcdnv6temp.com/mangakakalot/k2/kurozuka/vol9_chapter_36_juukai_no_kessen_desicive_battle_in_the_sea_of_trees/32.jpg",
    "https://img-proxy.imgfo.com/?referer=https://manganelo.com&url=https://s7.mkklcdnv6temp.com/mangakakalot/k2/kurozuka/vol9_chapter_36_juukai_no_kessen_desicive_battle_in_the_sea_of_trees/33.jpg",
    "https://img-proxy.imgfo.com/?referer=https://manganelo.com&url=https://s7.mkklcdnv6temp.com/mangakakalot/k2/kurozuka/vol9_chapter_36_juukai_no_kessen_desicive_battle_in_the_sea_of_trees/34.jpg",
    "https://img-proxy.imgfo.com/?referer=https://manganelo.com&url=https://s7.mkklcdnv6temp.com/mangakakalot/k2/kurozuka/vol9_chapter_36_juukai_no_kessen_desicive_battle_in_the_sea_of_trees/35.jpg",
    "https://img-proxy.imgfo.com/?referer=https://manganelo.com&url=https://s7.mkklcdnv6temp.com/mangakakalot/k2/kurozuka/vol9_chapter_36_juukai_no_kessen_desicive_battle_in_the_sea_of_trees/36.jpg",
    "https://img-proxy.imgfo.com/?referer=https://manganelo.com&url=https://s7.mkklcdnv6temp.com/mangakakalot/k2/kurozuka/vol9_chapter_36_juukai_no_kessen_desicive_battle_in_the_sea_of_trees/37.jpg",
    "https://img-proxy.imgfo.com/?referer=https://manganelo.com&url=https://s7.mkklcdnv6temp.com/mangakakalot/k2/kurozuka/vol9_chapter_36_juukai_no_kessen_desicive_battle_in_the_sea_of_trees/38.jpg",
    "https://img-proxy.imgfo.com/?referer=https://manganelo.com&url=https://s7.mkklcdnv6temp.com/mangakakalot/k2/kurozuka/vol9_chapter_36_juukai_no_kessen_desicive_battle_in_the_sea_of_trees/39.jpg",
    "https://img-proxy.imgfo.com/?referer=https://manganelo.com&url=https://s7.mkklcdnv6temp.com/mangakakalot/k2/kurozuka/vol9_chapter_36_juukai_no_kessen_desicive_battle_in_the_sea_of_trees/40.jpg",
    "https://img-proxy.imgfo.com/?referer=https://manganelo.com&url=https://s7.mkklcdnv6temp.com/mangakakalot/k2/kurozuka/vol9_chapter_36_juukai_no_kessen_desicive_battle_in_the_sea_of_trees/41.jpg",
    "https://img-proxy.imgfo.com/?referer=https://manganelo.com&url=https://s7.mkklcdnv6temp.com/mangakakalot/k2/kurozuka/vol9_chapter_36_juukai_no_kessen_desicive_battle_in_the_sea_of_trees/42.jpg",
    "https://img-proxy.imgfo.com/?referer=https://manganelo.com&url=https://s7.mkklcdnv6temp.com/mangakakalot/k2/kurozuka/vol9_chapter_36_juukai_no_kessen_desicive_battle_in_the_sea_of_trees/43.jpg",
    "https://img-proxy.imgfo.com/?referer=https://manganelo.com&url=https://s7.mkklcdnv6temp.com/mangakakalot/k2/kurozuka/vol9_chapter_36_juukai_no_kessen_desicive_battle_in_the_sea_of_trees/44.jpg",
    "https://img-proxy.imgfo.com/?referer=https://manganelo.com&url=https://s7.mkklcdnv6temp.com/mangakakalot/k2/kurozuka/vol9_chapter_36_juukai_no_kessen_desicive_battle_in_the_sea_of_trees/45.jpg",
    "https://img-proxy.imgfo.com/?referer=https://manganelo.com&url=https://s7.mkklcdnv6temp.com/mangakakalot/k2/kurozuka/vol9_chapter_36_juukai_no_kessen_desicive_battle_in_the_sea_of_trees/46.jpg",
    "https://img-proxy.imgfo.com/?referer=https://manganelo.com&url=https://s7.mkklcdnv6temp.com/mangakakalot/k2/kurozuka/vol9_chapter_36_juukai_no_kessen_desicive_battle_in_the_sea_of_trees/47.jpg",
    "https://img-proxy.imgfo.com/?referer=https://manganelo.com&url=https://s7.mkklcdnv6temp.com/mangakakalot/k2/kurozuka/vol9_chapter_36_juukai_no_kessen_desicive_battle_in_the_sea_of_trees/48.jpg",
    "https://img-proxy.imgfo.com/?referer=https://manganelo.com&url=https://s7.mkklcdnv6temp.com/mangakakalot/k2/kurozuka/vol9_chapter_36_juukai_no_kessen_desicive_battle_in_the_sea_of_trees/49.jpg",
    "https://img-proxy.imgfo.com/?referer=https://manganelo.com&url=https://s7.mkklcdnv6temp.com/mangakakalot/k2/kurozuka/vol9_chapter_36_juukai_no_kessen_desicive_battle_in_the_sea_of_trees/50.jpg",
    "https://img-proxy.imgfo.com/?referer=https://manganelo.com&url=https://s7.mkklcdnv6temp.com/mangakakalot/k2/kurozuka/vol9_chapter_36_juukai_no_kessen_desicive_battle_in_the_sea_of_trees/51.jpg",
    "https://img-proxy.imgfo.com/?referer=https://manganelo.com&url=https://s7.mkklcdnv6temp.com/mangakakalot/k2/kurozuka/vol9_chapter_36_juukai_no_kessen_desicive_battle_in_the_sea_of_trees/52.jpg"
  ]
}