{
  "cover": "https://avt.mkklcdnv6.com/31/u/19-1583500348.jpg",
  "title": "Count Fujiwara's Suffering",
  "original": "Fujiwara Hakushaku no Junan ,藤原伯爵の受難",
  "genre": "Comedy, Ecchi, Shoujo, Slice of life, Manga",
  "author": "Mahito Aobe",
  "status": "Completed",
  "backlink": "https://manganu.com/collections/mahito-aobe/count-fujiwaras-suffering/",
  "description": "Hakushaku is the 5-year-old male tortoiseshell cat in residence at the Fujiwara home. He has a tough job trying to keep the two daughters, Shizuka and Yumeko, in line, and he often ends up suffering for his efforts. Shizuka is a high-school-age girl who has stopped going to school and has become a shut-in. Hakushaku tries to encourage her, but sometimes he has to stop her from doing embarrassing things, like showing her boobs on the internet. Yumeko is the younger sister, a middle school girl who has a huge crush on Shizuka. Hakushaku doesn&#39;t know how to handle this sister complex! A cat has a hard job in a household with such unusual girls!",
  "language": "English",
  "images": [
    "https://img-proxy.imgfo.com/?referer=https://manganelo.com&url=https://s3.mkklcdnv6temp.com/mangakakalot/m2/mw920790/vol3_chapter_18_the_count_and_the_fall_encroaching/1.jpg",
    "https://img-proxy.imgfo.com/?referer=https://manganelo.com&url=https://s3.mkklcdnv6temp.com/mangakakalot/m2/mw920790/vol3_chapter_18_the_count_and_the_fall_encroaching/2.jpg",
    "https://img-proxy.imgfo.com/?referer=https://manganelo.com&url=https://s3.mkklcdnv6temp.com/mangakakalot/m2/mw920790/vol3_chapter_18_the_count_and_the_fall_encroaching/3.jpg",
    "https://img-proxy.imgfo.com/?referer=https://manganelo.com&url=https://s3.mkklcdnv6temp.com/mangakakalot/m2/mw920790/vol3_chapter_18_the_count_and_the_fall_encroaching/4.jpg",
    "https://img-proxy.imgfo.com/?referer=https://manganelo.com&url=https://s3.mkklcdnv6temp.com/mangakakalot/m2/mw920790/vol3_chapter_18_the_count_and_the_fall_encroaching/5.jpg",
    "https://img-proxy.imgfo.com/?referer=https://manganelo.com&url=https://s3.mkklcdnv6temp.com/mangakakalot/m2/mw920790/vol3_chapter_18_the_count_and_the_fall_encroaching/6.jpg",
    "https://img-proxy.imgfo.com/?referer=https://manganelo.com&url=https://s3.mkklcdnv6temp.com/mangakakalot/m2/mw920790/vol3_chapter_18_the_count_and_the_fall_encroaching/7.jpg",
    "https://img-proxy.imgfo.com/?referer=https://manganelo.com&url=https://s3.mkklcdnv6temp.com/mangakakalot/m2/mw920790/vol3_chapter_18_the_count_and_the_fall_encroaching/8.jpg",
    "https://img-proxy.imgfo.com/?referer=https://manganelo.com&url=https://s3.mkklcdnv6temp.com/mangakakalot/m2/mw920790/vol3_chapter_18_the_count_and_the_fall_encroaching/9.jpg",
    "https://img-proxy.imgfo.com/?referer=https://manganelo.com&url=https://s3.mkklcdnv6temp.com/mangakakalot/m2/mw920790/vol3_chapter_18_the_count_and_the_fall_encroaching/10.jpg",
    "https://img-proxy.imgfo.com/?referer=https://manganelo.com&url=https://s3.mkklcdnv6temp.com/mangakakalot/m2/mw920790/vol3_chapter_18_the_count_and_the_fall_encroaching/11.jpg",
    "https://img-proxy.imgfo.com/?referer=https://manganelo.com&url=https://s3.mkklcdnv6temp.com/mangakakalot/m2/mw920790/vol3_chapter_18_the_count_and_the_fall_encroaching/12.jpg",
    "https://img-proxy.imgfo.com/?referer=https://manganelo.com&url=https://s3.mkklcdnv6temp.com/mangakakalot/m2/mw920790/vol3_chapter_18_the_count_and_the_fall_encroaching/13.jpg",
    "https://img-proxy.imgfo.com/?referer=https://manganelo.com&url=https://s3.mkklcdnv6temp.com/mangakakalot/m2/mw920790/vol3_chapter_18_the_count_and_the_fall_encroaching/14.jpg",
    "https://img-proxy.imgfo.com/?referer=https://manganelo.com&url=https://s3.mkklcdnv6temp.com/mangakakalot/m2/mw920790/vol3_chapter_18_the_count_and_the_fall_encroaching/15.jpg",
    "https://img-proxy.imgfo.com/?referer=https://manganelo.com&url=https://s3.mkklcdnv6temp.com/mangakakalot/m2/mw920790/vol3_chapter_18_the_count_and_the_fall_encroaching/16.jpg",
    "https://img-proxy.imgfo.com/?referer=https://manganelo.com&url=https://s3.mkklcdnv6temp.com/mangakakalot/m2/mw920790/vol3_chapter_18_the_count_and_the_fall_encroaching/17.jpg",
    "https://img-proxy.imgfo.com/?referer=https://manganelo.com&url=https://s3.mkklcdnv6temp.com/mangakakalot/m2/mw920790/vol3_chapter_18_the_count_and_the_fall_encroaching/18.jpg",
    "https://img-proxy.imgfo.com/?referer=https://manganelo.com&url=https://s3.mkklcdnv6temp.com/mangakakalot/m2/mw920790/vol3_chapter_18_the_count_and_the_fall_encroaching/19.jpg",
    "https://img-proxy.imgfo.com/?referer=https://manganelo.com&url=https://s3.mkklcdnv6temp.com/mangakakalot/m2/mw920790/vol3_chapter_18_the_count_and_the_fall_encroaching/20.jpg"
  ]
}