{
  "cover": "https://avt.mkklcdnv6.com/6/y/13-1583487981.jpg",
  "title": "Kami No Kodomo",
  "original": "神の子供 ; God's Child",
  "genre": "Horror, Josei, Mature, Psychological, Yaoi, Manga",
  "author": "Nishioka Kyoudai",
  "status": "Completed",
  "backlink": "https://manganu.com/collections/nishioka-kyoudai/kami-no-kodomo/",
  "description": "The twisted and deeply disturbing tale of a psychopathic serial killer...",
  "language": "English",
  "images": [
    "https://img-proxy.imgfo.com/?referer=https://manganelo.com&url=https://s5.mkklcdnv6temp.com/mangakakalot/k1/kami_no_kodomo/vol1_chapter_8_the_path_of_freedom/1.jpg",
    "https://img-proxy.imgfo.com/?referer=https://manganelo.com&url=https://s5.mkklcdnv6temp.com/mangakakalot/k1/kami_no_kodomo/vol1_chapter_8_the_path_of_freedom/2.jpg",
    "https://img-proxy.imgfo.com/?referer=https://manganelo.com&url=https://s5.mkklcdnv6temp.com/mangakakalot/k1/kami_no_kodomo/vol1_chapter_8_the_path_of_freedom/3.jpg",
    "https://img-proxy.imgfo.com/?referer=https://manganelo.com&url=https://s5.mkklcdnv6temp.com/mangakakalot/k1/kami_no_kodomo/vol1_chapter_8_the_path_of_freedom/4.jpg",
    "https://img-proxy.imgfo.com/?referer=https://manganelo.com&url=https://s5.mkklcdnv6temp.com/mangakakalot/k1/kami_no_kodomo/vol1_chapter_8_the_path_of_freedom/5.jpg",
    "https://img-proxy.imgfo.com/?referer=https://manganelo.com&url=https://s5.mkklcdnv6temp.com/mangakakalot/k1/kami_no_kodomo/vol1_chapter_8_the_path_of_freedom/6.jpg",
    "https://img-proxy.imgfo.com/?referer=https://manganelo.com&url=https://s5.mkklcdnv6temp.com/mangakakalot/k1/kami_no_kodomo/vol1_chapter_8_the_path_of_freedom/7.jpg",
    "https://img-proxy.imgfo.com/?referer=https://manganelo.com&url=https://s5.mkklcdnv6temp.com/mangakakalot/k1/kami_no_kodomo/vol1_chapter_8_the_path_of_freedom/8.jpg",
    "https://img-proxy.imgfo.com/?referer=https://manganelo.com&url=https://s5.mkklcdnv6temp.com/mangakakalot/k1/kami_no_kodomo/vol1_chapter_8_the_path_of_freedom/9.jpg",
    "https://img-proxy.imgfo.com/?referer=https://manganelo.com&url=https://s5.mkklcdnv6temp.com/mangakakalot/k1/kami_no_kodomo/vol1_chapter_8_the_path_of_freedom/10.jpg",
    "https://img-proxy.imgfo.com/?referer=https://manganelo.com&url=https://s5.mkklcdnv6temp.com/mangakakalot/k1/kami_no_kodomo/vol1_chapter_8_the_path_of_freedom/11.jpg",
    "https://img-proxy.imgfo.com/?referer=https://manganelo.com&url=https://s5.mkklcdnv6temp.com/mangakakalot/k1/kami_no_kodomo/vol1_chapter_8_the_path_of_freedom/12.jpg",
    "https://img-proxy.imgfo.com/?referer=https://manganelo.com&url=https://s5.mkklcdnv6temp.com/mangakakalot/k1/kami_no_kodomo/vol1_chapter_8_the_path_of_freedom/13.jpg",
    "https://img-proxy.imgfo.com/?referer=https://manganelo.com&url=https://s5.mkklcdnv6temp.com/mangakakalot/k1/kami_no_kodomo/vol1_chapter_8_the_path_of_freedom/14.jpg",
    "https://img-proxy.imgfo.com/?referer=https://manganelo.com&url=https://s5.mkklcdnv6temp.com/mangakakalot/k1/kami_no_kodomo/vol1_chapter_8_the_path_of_freedom/15.jpg",
    "https://img-proxy.imgfo.com/?referer=https://manganelo.com&url=https://s5.mkklcdnv6temp.com/mangakakalot/k1/kami_no_kodomo/vol1_chapter_8_the_path_of_freedom/16.jpg",
    "https://img-proxy.imgfo.com/?referer=https://manganelo.com&url=https://s5.mkklcdnv6temp.com/mangakakalot/k1/kami_no_kodomo/vol1_chapter_8_the_path_of_freedom/17.jpg",
    "https://img-proxy.imgfo.com/?referer=https://manganelo.com&url=https://s5.mkklcdnv6temp.com/mangakakalot/k1/kami_no_kodomo/vol1_chapter_8_the_path_of_freedom/18.jpg",
    "https://img-proxy.imgfo.com/?referer=https://manganelo.com&url=https://s5.mkklcdnv6temp.com/mangakakalot/k1/kami_no_kodomo/vol1_chapter_8_the_path_of_freedom/19.jpg"
  ]
}