{
  "cover": "https://avt.mkklcdnv6.com/5/f/11-1583484183.jpg",
  "title": "Hikitateyaku No Koi",
  "original": "ひきたて役の恋 ; 最佳女配角之恋 ; Hikitate Yaku no Koi ; Hikitate-yaku no Koi ; Isshun no Tsuki ; Koibito Kyoukaisen ; Dokodemo Issho",
  "genre": "Drama, Romance, School life, Shoujo, Manga",
  "author": "Shimaki Ako",
  "status": "Completed",
  "backlink": "https://manganu.com/collections/shimaki-ako/hikitateyaku-no-koi/",
  "description": "A collection of short stories:\n1) Hikitate Yaku no Koi\nChie's always played second. Friends with pretty Chika-chan she's only ever attracted the attention of boys seeking the role of Chika-chan's boyfriend. No one sees her for herself. But is that the case with Horikawa-kun?\n2) Isshun no Tsuki\nMizuho is in love with Shugo-sempai, and even manages to kiss him secretly under the cover of darkness. Only one problem. Shugo is the boyfriend of Mizuho's older sister!\n3) Koibito Kyoukaisen\nAya is still a high school student. There is no way she is going to attend an Omiai (matchmaking) meeting with some strange guy! No matter how great this Keisuke guy seems to be...\n4) Doko Demo Issho\nManami is always teased by her classmates for being ugly. Only Satoru-kun defends her. In fact, he declares he loves her! But this world is so cruel... they will have to find another world to live in!",
  "language": "English",
  "images": [
    "https://img-proxy.imgfo.com/?referer=https://manganelo.com&url=https://s7.mkklcdnv6temp.com/mangakakalot/h1/hikitateyaku_no_koi/vol1_chapter_4_together_forever/1.jpg",
    "https://img-proxy.imgfo.com/?referer=https://manganelo.com&url=https://s7.mkklcdnv6temp.com/mangakakalot/h1/hikitateyaku_no_koi/vol1_chapter_4_together_forever/2.jpg",
    "https://img-proxy.imgfo.com/?referer=https://manganelo.com&url=https://s7.mkklcdnv6temp.com/mangakakalot/h1/hikitateyaku_no_koi/vol1_chapter_4_together_forever/3.jpg",
    "https://img-proxy.imgfo.com/?referer=https://manganelo.com&url=https://s7.mkklcdnv6temp.com/mangakakalot/h1/hikitateyaku_no_koi/vol1_chapter_4_together_forever/4.jpg",
    "https://img-proxy.imgfo.com/?referer=https://manganelo.com&url=https://s7.mkklcdnv6temp.com/mangakakalot/h1/hikitateyaku_no_koi/vol1_chapter_4_together_forever/5.jpg",
    "https://img-proxy.imgfo.com/?referer=https://manganelo.com&url=https://s7.mkklcdnv6temp.com/mangakakalot/h1/hikitateyaku_no_koi/vol1_chapter_4_together_forever/6.jpg",
    "https://img-proxy.imgfo.com/?referer=https://manganelo.com&url=https://s7.mkklcdnv6temp.com/mangakakalot/h1/hikitateyaku_no_koi/vol1_chapter_4_together_forever/7.jpg",
    "https://img-proxy.imgfo.com/?referer=https://manganelo.com&url=https://s7.mkklcdnv6temp.com/mangakakalot/h1/hikitateyaku_no_koi/vol1_chapter_4_together_forever/8.jpg",
    "https://img-proxy.imgfo.com/?referer=https://manganelo.com&url=https://s7.mkklcdnv6temp.com/mangakakalot/h1/hikitateyaku_no_koi/vol1_chapter_4_together_forever/9.jpg",
    "https://img-proxy.imgfo.com/?referer=https://manganelo.com&url=https://s7.mkklcdnv6temp.com/mangakakalot/h1/hikitateyaku_no_koi/vol1_chapter_4_together_forever/10.jpg",
    "https://img-proxy.imgfo.com/?referer=https://manganelo.com&url=https://s7.mkklcdnv6temp.com/mangakakalot/h1/hikitateyaku_no_koi/vol1_chapter_4_together_forever/11.jpg",
    "https://img-proxy.imgfo.com/?referer=https://manganelo.com&url=https://s7.mkklcdnv6temp.com/mangakakalot/h1/hikitateyaku_no_koi/vol1_chapter_4_together_forever/12.jpg",
    "https://img-proxy.imgfo.com/?referer=https://manganelo.com&url=https://s7.mkklcdnv6temp.com/mangakakalot/h1/hikitateyaku_no_koi/vol1_chapter_4_together_forever/13.jpg",
    "https://img-proxy.imgfo.com/?referer=https://manganelo.com&url=https://s7.mkklcdnv6temp.com/mangakakalot/h1/hikitateyaku_no_koi/vol1_chapter_4_together_forever/14.jpg",
    "https://img-proxy.imgfo.com/?referer=https://manganelo.com&url=https://s7.mkklcdnv6temp.com/mangakakalot/h1/hikitateyaku_no_koi/vol1_chapter_4_together_forever/15.jpg",
    "https://img-proxy.imgfo.com/?referer=https://manganelo.com&url=https://s7.mkklcdnv6temp.com/mangakakalot/h1/hikitateyaku_no_koi/vol1_chapter_4_together_forever/16.jpg",
    "https://img-proxy.imgfo.com/?referer=https://manganelo.com&url=https://s7.mkklcdnv6temp.com/mangakakalot/h1/hikitateyaku_no_koi/vol1_chapter_4_together_forever/17.jpg",
    "https://img-proxy.imgfo.com/?referer=https://manganelo.com&url=https://s7.mkklcdnv6temp.com/mangakakalot/h1/hikitateyaku_no_koi/vol1_chapter_4_together_forever/18.jpg",
    "https://img-proxy.imgfo.com/?referer=https://manganelo.com&url=https://s7.mkklcdnv6temp.com/mangakakalot/h1/hikitateyaku_no_koi/vol1_chapter_4_together_forever/19.jpg"
  ]
}