{
  "cover": "https://avt.mkklcdnv6.com/14/w/5-1583472425.jpg",
  "title": "Kimikiss - Various Heroines",
  "original": "キミキス- various heroines ; キミキス-various heroines- ; 君吻 ; Kimi Kiss",
  "genre": "Comedy, Ecchi, Romance, School life, Seinen, Manga",
  "author": "Shinonome Taro",
  "status": "Completed",
  "backlink": "https://manganu.com/collections/shinonome-taro/kimikiss-various-heroines/",
  "description": "Volume 1: Kouichi and Mao are childhood friends, but as they enter High School, they become more and more distant. And as Mao becomes more popular and beautiful, Kouichi wishes he could be popular too, and eventually get a girlfriend. Mao decides to help him... (Written by Aymie) Based on a bishoujo game. As per the title, &quot;Various Heroines&quot;, each volume of this manga focuses on a different girl Kouichi can eventually end up with when you play the game. So, think of each volume as a story separate from the rest.",
  "language": "English",
  "images": [
    "https://img-proxy.imgfo.com/?referer=https://manganelo.com&url=https://s7.mkklcdnv6temp.com/mangakakalot/k1/kimikiss_various_heroines/vol5_chapter_44_yuumi_8th_kiss_dont_look_at_me_so_muchapter/1.jpg",
    "https://img-proxy.imgfo.com/?referer=https://manganelo.com&url=https://s7.mkklcdnv6temp.com/mangakakalot/k1/kimikiss_various_heroines/vol5_chapter_44_yuumi_8th_kiss_dont_look_at_me_so_muchapter/2.jpg",
    "https://img-proxy.imgfo.com/?referer=https://manganelo.com&url=https://s7.mkklcdnv6temp.com/mangakakalot/k1/kimikiss_various_heroines/vol5_chapter_44_yuumi_8th_kiss_dont_look_at_me_so_muchapter/3.jpg",
    "https://img-proxy.imgfo.com/?referer=https://manganelo.com&url=https://s7.mkklcdnv6temp.com/mangakakalot/k1/kimikiss_various_heroines/vol5_chapter_44_yuumi_8th_kiss_dont_look_at_me_so_muchapter/4.jpg",
    "https://img-proxy.imgfo.com/?referer=https://manganelo.com&url=https://s7.mkklcdnv6temp.com/mangakakalot/k1/kimikiss_various_heroines/vol5_chapter_44_yuumi_8th_kiss_dont_look_at_me_so_muchapter/5.jpg",
    "https://img-proxy.imgfo.com/?referer=https://manganelo.com&url=https://s7.mkklcdnv6temp.com/mangakakalot/k1/kimikiss_various_heroines/vol5_chapter_44_yuumi_8th_kiss_dont_look_at_me_so_muchapter/6.jpg",
    "https://img-proxy.imgfo.com/?referer=https://manganelo.com&url=https://s7.mkklcdnv6temp.com/mangakakalot/k1/kimikiss_various_heroines/vol5_chapter_44_yuumi_8th_kiss_dont_look_at_me_so_muchapter/7.jpg",
    "https://img-proxy.imgfo.com/?referer=https://manganelo.com&url=https://s7.mkklcdnv6temp.com/mangakakalot/k1/kimikiss_various_heroines/vol5_chapter_44_yuumi_8th_kiss_dont_look_at_me_so_muchapter/8.jpg",
    "https://img-proxy.imgfo.com/?referer=https://manganelo.com&url=https://s7.mkklcdnv6temp.com/mangakakalot/k1/kimikiss_various_heroines/vol5_chapter_44_yuumi_8th_kiss_dont_look_at_me_so_muchapter/9.jpg",
    "https://img-proxy.imgfo.com/?referer=https://manganelo.com&url=https://s7.mkklcdnv6temp.com/mangakakalot/k1/kimikiss_various_heroines/vol5_chapter_44_yuumi_8th_kiss_dont_look_at_me_so_muchapter/10.jpg",
    "https://img-proxy.imgfo.com/?referer=https://manganelo.com&url=https://s7.mkklcdnv6temp.com/mangakakalot/k1/kimikiss_various_heroines/vol5_chapter_44_yuumi_8th_kiss_dont_look_at_me_so_muchapter/11.jpg",
    "https://img-proxy.imgfo.com/?referer=https://manganelo.com&url=https://s7.mkklcdnv6temp.com/mangakakalot/k1/kimikiss_various_heroines/vol5_chapter_44_yuumi_8th_kiss_dont_look_at_me_so_muchapter/12.jpg",
    "https://img-proxy.imgfo.com/?referer=https://manganelo.com&url=https://s7.mkklcdnv6temp.com/mangakakalot/k1/kimikiss_various_heroines/vol5_chapter_44_yuumi_8th_kiss_dont_look_at_me_so_muchapter/13.jpg",
    "https://img-proxy.imgfo.com/?referer=https://manganelo.com&url=https://s7.mkklcdnv6temp.com/mangakakalot/k1/kimikiss_various_heroines/vol5_chapter_44_yuumi_8th_kiss_dont_look_at_me_so_muchapter/14.jpg",
    "https://img-proxy.imgfo.com/?referer=https://manganelo.com&url=https://s7.mkklcdnv6temp.com/mangakakalot/k1/kimikiss_various_heroines/vol5_chapter_44_yuumi_8th_kiss_dont_look_at_me_so_muchapter/15.jpg",
    "https://img-proxy.imgfo.com/?referer=https://manganelo.com&url=https://s7.mkklcdnv6temp.com/mangakakalot/k1/kimikiss_various_heroines/vol5_chapter_44_yuumi_8th_kiss_dont_look_at_me_so_muchapter/16.jpg",
    "https://img-proxy.imgfo.com/?referer=https://manganelo.com&url=https://s7.mkklcdnv6temp.com/mangakakalot/k1/kimikiss_various_heroines/vol5_chapter_44_yuumi_8th_kiss_dont_look_at_me_so_muchapter/17.jpg",
    "https://img-proxy.imgfo.com/?referer=https://manganelo.com&url=https://s7.mkklcdnv6temp.com/mangakakalot/k1/kimikiss_various_heroines/vol5_chapter_44_yuumi_8th_kiss_dont_look_at_me_so_muchapter/18.jpg",
    "https://img-proxy.imgfo.com/?referer=https://manganelo.com&url=https://s7.mkklcdnv6temp.com/mangakakalot/k1/kimikiss_various_heroines/vol5_chapter_44_yuumi_8th_kiss_dont_look_at_me_so_muchapter/19.jpg",
    "https://img-proxy.imgfo.com/?referer=https://manganelo.com&url=https://s7.mkklcdnv6temp.com/mangakakalot/k1/kimikiss_various_heroines/vol5_chapter_44_yuumi_8th_kiss_dont_look_at_me_so_muchapter/20.jpg"
  ]
}