{
  "cover": "https://avt.mkklcdnv6.com/18/c/13-1583488403.jpg",
  "title": "Haru Yo, Koi",
  "original": "思春期少女 ; 春よ、来い ; Women wish for a Spring Romance",
  "genre": "Adult, Drama, Ecchi, Romance, Seinen, Slice of life, Manga",
  "author": "Saki Kaori",
  "status": "Completed",
  "backlink": "https://manganu.com/collections/saki-kaori/haru-yo-koi/",
  "description": "From Manga Jouhou:\nTakashi Sone is living on his own while he is attending college. Out of the blue, his parents tell him that his sister, Mafuyu, is moving in to live with him and that she will be attending a high school in his area.\nWhen she arrives, he finds out that she was kicked out of her old school for getting caught making out with another girl. Soon afterwards, the other girl arrives, having thrown away everything she owns in order to run away and live with Mafuyu.\nVolume 11 has a unreleated 2 chapter story at the end called Frills",
  "language": "English",
  "images": [
    "https://img-proxy.imgfo.com/?referer=https://manganelo.com&url=https://s7.mkklcdnv6temp.com/mangakakalot/h1/haru_yo_koi/vol7_chapter_56_the_shameful_person/1.jpg",
    "https://img-proxy.imgfo.com/?referer=https://manganelo.com&url=https://s7.mkklcdnv6temp.com/mangakakalot/h1/haru_yo_koi/vol7_chapter_56_the_shameful_person/2.jpg",
    "https://img-proxy.imgfo.com/?referer=https://manganelo.com&url=https://s7.mkklcdnv6temp.com/mangakakalot/h1/haru_yo_koi/vol7_chapter_56_the_shameful_person/3.jpg",
    "https://img-proxy.imgfo.com/?referer=https://manganelo.com&url=https://s7.mkklcdnv6temp.com/mangakakalot/h1/haru_yo_koi/vol7_chapter_56_the_shameful_person/4.jpg",
    "https://img-proxy.imgfo.com/?referer=https://manganelo.com&url=https://s7.mkklcdnv6temp.com/mangakakalot/h1/haru_yo_koi/vol7_chapter_56_the_shameful_person/5.jpg",
    "https://img-proxy.imgfo.com/?referer=https://manganelo.com&url=https://s7.mkklcdnv6temp.com/mangakakalot/h1/haru_yo_koi/vol7_chapter_56_the_shameful_person/6.jpg",
    "https://img-proxy.imgfo.com/?referer=https://manganelo.com&url=https://s7.mkklcdnv6temp.com/mangakakalot/h1/haru_yo_koi/vol7_chapter_56_the_shameful_person/7.jpg",
    "https://img-proxy.imgfo.com/?referer=https://manganelo.com&url=https://s7.mkklcdnv6temp.com/mangakakalot/h1/haru_yo_koi/vol7_chapter_56_the_shameful_person/8.jpg",
    "https://img-proxy.imgfo.com/?referer=https://manganelo.com&url=https://s7.mkklcdnv6temp.com/mangakakalot/h1/haru_yo_koi/vol7_chapter_56_the_shameful_person/9.jpg",
    "https://img-proxy.imgfo.com/?referer=https://manganelo.com&url=https://s7.mkklcdnv6temp.com/mangakakalot/h1/haru_yo_koi/vol7_chapter_56_the_shameful_person/10.jpg",
    "https://img-proxy.imgfo.com/?referer=https://manganelo.com&url=https://s7.mkklcdnv6temp.com/mangakakalot/h1/haru_yo_koi/vol7_chapter_56_the_shameful_person/11.jpg",
    "https://img-proxy.imgfo.com/?referer=https://manganelo.com&url=https://s7.mkklcdnv6temp.com/mangakakalot/h1/haru_yo_koi/vol7_chapter_56_the_shameful_person/12.jpg",
    "https://img-proxy.imgfo.com/?referer=https://manganelo.com&url=https://s7.mkklcdnv6temp.com/mangakakalot/h1/haru_yo_koi/vol7_chapter_56_the_shameful_person/13.jpg",
    "https://img-proxy.imgfo.com/?referer=https://manganelo.com&url=https://s7.mkklcdnv6temp.com/mangakakalot/h1/haru_yo_koi/vol7_chapter_56_the_shameful_person/14.jpg",
    "https://img-proxy.imgfo.com/?referer=https://manganelo.com&url=https://s7.mkklcdnv6temp.com/mangakakalot/h1/haru_yo_koi/vol7_chapter_56_the_shameful_person/15.jpg",
    "https://img-proxy.imgfo.com/?referer=https://manganelo.com&url=https://s7.mkklcdnv6temp.com/mangakakalot/h1/haru_yo_koi/vol7_chapter_56_the_shameful_person/16.jpg",
    "https://img-proxy.imgfo.com/?referer=https://manganelo.com&url=https://s7.mkklcdnv6temp.com/mangakakalot/h1/haru_yo_koi/vol7_chapter_56_the_shameful_person/17.jpg",
    "https://img-proxy.imgfo.com/?referer=https://manganelo.com&url=https://s7.mkklcdnv6temp.com/mangakakalot/h1/haru_yo_koi/vol7_chapter_56_the_shameful_person/18.jpg",
    "https://img-proxy.imgfo.com/?referer=https://manganelo.com&url=https://s7.mkklcdnv6temp.com/mangakakalot/h1/haru_yo_koi/vol7_chapter_56_the_shameful_person/19.jpg",
    "https://img-proxy.imgfo.com/?referer=https://manganelo.com&url=https://s7.mkklcdnv6temp.com/mangakakalot/h1/haru_yo_koi/vol7_chapter_56_the_shameful_person/20.jpg",
    "https://img-proxy.imgfo.com/?referer=https://manganelo.com&url=https://s7.mkklcdnv6temp.com/mangakakalot/h1/haru_yo_koi/vol7_chapter_56_the_shameful_person/21.jpg",
    "https://img-proxy.imgfo.com/?referer=https://manganelo.com&url=https://s7.mkklcdnv6temp.com/mangakakalot/h1/haru_yo_koi/vol7_chapter_56_the_shameful_person/22.jpg",
    "https://img-proxy.imgfo.com/?referer=https://manganelo.com&url=https://s7.mkklcdnv6temp.com/mangakakalot/h1/haru_yo_koi/vol7_chapter_56_the_shameful_person/23.jpg",
    "https://img-proxy.imgfo.com/?referer=https://manganelo.com&url=https://s7.mkklcdnv6temp.com/mangakakalot/h1/haru_yo_koi/vol7_chapter_56_the_shameful_person/24.jpg",
    "https://img-proxy.imgfo.com/?referer=https://manganelo.com&url=https://s7.mkklcdnv6temp.com/mangakakalot/h1/haru_yo_koi/vol7_chapter_56_the_shameful_person/25.jpg"
  ]
}