{
  "cover": "https://avt.mkklcdnv6.com/50/m/5-1583471821.jpg",
  "title": "Yozora No Ouji To Asayake No Hime",
  "original": "夜空の王子と朝焼けの姫 ; The Prince of the Night Sky and the Princess of the Morning Glow ; Yoruzora no Ouji to Asayake no Hime",
  "genre": "Comedy, Romance, School life, Shoujo ai, Manga",
  "author": "Hakamada Mera",
  "status": "Completed",
  "backlink": "https://manganu.com/collections/hakamada-mera/yozora-no-ouji-to-asayake-no-hime/",
  "description": "A collection of stories:\n1. The Boundary Between Archer and Scorpion\n2. The Long, Far Road\n3. Giraffes' Necks Are Too Long\n4. The Land of Imagination\n5. Flowers Forming a Parabola\n6. Her Cat Wards Off My Bad Dreams\n7. Itoshii no Maid-sama (Miss Beloved Maid)\n8. Capturing You\n9. The Crow Woman\n10. A Love Song in a Nameless Country\n11. The Prince of the Night Sky and the Princess of the Morning Glow",
  "language": "English",
  "images": [
    "https://img-proxy.imgfo.com/?referer=https://manganelo.com&url=https://s3.mkklcdnv6temp.com/mangakakalot/y2/yozora_no_ouji_to_asayake_no_hime/vol1_chapter_5_flowers_forming_a_parabola/1.jpg",
    "https://img-proxy.imgfo.com/?referer=https://manganelo.com&url=https://s3.mkklcdnv6temp.com/mangakakalot/y2/yozora_no_ouji_to_asayake_no_hime/vol1_chapter_5_flowers_forming_a_parabola/2.jpg",
    "https://img-proxy.imgfo.com/?referer=https://manganelo.com&url=https://s3.mkklcdnv6temp.com/mangakakalot/y2/yozora_no_ouji_to_asayake_no_hime/vol1_chapter_5_flowers_forming_a_parabola/3.jpg",
    "https://img-proxy.imgfo.com/?referer=https://manganelo.com&url=https://s3.mkklcdnv6temp.com/mangakakalot/y2/yozora_no_ouji_to_asayake_no_hime/vol1_chapter_5_flowers_forming_a_parabola/4.jpg",
    "https://img-proxy.imgfo.com/?referer=https://manganelo.com&url=https://s3.mkklcdnv6temp.com/mangakakalot/y2/yozora_no_ouji_to_asayake_no_hime/vol1_chapter_5_flowers_forming_a_parabola/5.jpg",
    "https://img-proxy.imgfo.com/?referer=https://manganelo.com&url=https://s3.mkklcdnv6temp.com/mangakakalot/y2/yozora_no_ouji_to_asayake_no_hime/vol1_chapter_5_flowers_forming_a_parabola/6.jpg",
    "https://img-proxy.imgfo.com/?referer=https://manganelo.com&url=https://s3.mkklcdnv6temp.com/mangakakalot/y2/yozora_no_ouji_to_asayake_no_hime/vol1_chapter_5_flowers_forming_a_parabola/7.jpg",
    "https://img-proxy.imgfo.com/?referer=https://manganelo.com&url=https://s3.mkklcdnv6temp.com/mangakakalot/y2/yozora_no_ouji_to_asayake_no_hime/vol1_chapter_5_flowers_forming_a_parabola/8.jpg",
    "https://img-proxy.imgfo.com/?referer=https://manganelo.com&url=https://s3.mkklcdnv6temp.com/mangakakalot/y2/yozora_no_ouji_to_asayake_no_hime/vol1_chapter_5_flowers_forming_a_parabola/9.jpg",
    "https://img-proxy.imgfo.com/?referer=https://manganelo.com&url=https://s3.mkklcdnv6temp.com/mangakakalot/y2/yozora_no_ouji_to_asayake_no_hime/vol1_chapter_5_flowers_forming_a_parabola/10.jpg",
    "https://img-proxy.imgfo.com/?referer=https://manganelo.com&url=https://s3.mkklcdnv6temp.com/mangakakalot/y2/yozora_no_ouji_to_asayake_no_hime/vol1_chapter_5_flowers_forming_a_parabola/11.jpg",
    "https://img-proxy.imgfo.com/?referer=https://manganelo.com&url=https://s3.mkklcdnv6temp.com/mangakakalot/y2/yozora_no_ouji_to_asayake_no_hime/vol1_chapter_5_flowers_forming_a_parabola/12.jpg",
    "https://img-proxy.imgfo.com/?referer=https://manganelo.com&url=https://s3.mkklcdnv6temp.com/mangakakalot/y2/yozora_no_ouji_to_asayake_no_hime/vol1_chapter_5_flowers_forming_a_parabola/13.jpg",
    "https://img-proxy.imgfo.com/?referer=https://manganelo.com&url=https://s3.mkklcdnv6temp.com/mangakakalot/y2/yozora_no_ouji_to_asayake_no_hime/vol1_chapter_5_flowers_forming_a_parabola/14.jpg",
    "https://img-proxy.imgfo.com/?referer=https://manganelo.com&url=https://s3.mkklcdnv6temp.com/mangakakalot/y2/yozora_no_ouji_to_asayake_no_hime/vol1_chapter_5_flowers_forming_a_parabola/15.jpg",
    "https://img-proxy.imgfo.com/?referer=https://manganelo.com&url=https://s3.mkklcdnv6temp.com/mangakakalot/y2/yozora_no_ouji_to_asayake_no_hime/vol1_chapter_5_flowers_forming_a_parabola/16.jpg",
    "https://img-proxy.imgfo.com/?referer=https://manganelo.com&url=https://s3.mkklcdnv6temp.com/mangakakalot/y2/yozora_no_ouji_to_asayake_no_hime/vol1_chapter_5_flowers_forming_a_parabola/17.jpg",
    "https://img-proxy.imgfo.com/?referer=https://manganelo.com&url=https://s3.mkklcdnv6temp.com/mangakakalot/y2/yozora_no_ouji_to_asayake_no_hime/vol1_chapter_5_flowers_forming_a_parabola/18.jpg",
    "https://img-proxy.imgfo.com/?referer=https://manganelo.com&url=https://s3.mkklcdnv6temp.com/mangakakalot/y2/yozora_no_ouji_to_asayake_no_hime/vol1_chapter_5_flowers_forming_a_parabola/19.jpg"
  ]
}