{
  "cover": "https://avt.mkklcdnv6.com/35/b/6-1583475544.jpg",
  "title": "Cerberus",
  "original": "ケルベロス ; 墓守战记 ; Ceroberos ; Kerberos ; Keruberosu ; Zerberus ; คู่ต่างเผ่ารวมพลังฟัด",
  "genre": "Action, Shounen, Supernatural, Manga",
  "author": "Fukui Takumi",
  "status": "Completed",
  "backlink": "https://manganu.com/collections/fukui-takumi/cerberus/",
  "description": "Kei often gets involved in fights, despite of him being weak and always end up losing… One day, while helping a friend to bring some textbooks to an old building of his school, he and his childhood friend, Tomoe, are attacked by a monster. In order to save his friend, Kei will choose to become a Grave Protector!\n* Cerberus in ancient Greek mythology was a three headed hell hound with a snake tail that guarded the gates of the Underworld preventing those who have crossed the river Styx from ever escaping.\nfrom Easy Going Scans",
  "language": "English",
  "images": [
    "https://img-proxy.imgfo.com/?referer=https://manganelo.com&url=https://s3.mkklcdnv6temp.com/mangakakalot/c1/cerberus/vol7_chapter_52_the_beauty_of_the_demonic_bird/1.jpg",
    "https://img-proxy.imgfo.com/?referer=https://manganelo.com&url=https://s3.mkklcdnv6temp.com/mangakakalot/c1/cerberus/vol7_chapter_52_the_beauty_of_the_demonic_bird/2.jpg",
    "https://img-proxy.imgfo.com/?referer=https://manganelo.com&url=https://s3.mkklcdnv6temp.com/mangakakalot/c1/cerberus/vol7_chapter_52_the_beauty_of_the_demonic_bird/3.jpg",
    "https://img-proxy.imgfo.com/?referer=https://manganelo.com&url=https://s3.mkklcdnv6temp.com/mangakakalot/c1/cerberus/vol7_chapter_52_the_beauty_of_the_demonic_bird/4.jpg",
    "https://img-proxy.imgfo.com/?referer=https://manganelo.com&url=https://s3.mkklcdnv6temp.com/mangakakalot/c1/cerberus/vol7_chapter_52_the_beauty_of_the_demonic_bird/5.jpg",
    "https://img-proxy.imgfo.com/?referer=https://manganelo.com&url=https://s3.mkklcdnv6temp.com/mangakakalot/c1/cerberus/vol7_chapter_52_the_beauty_of_the_demonic_bird/6.jpg",
    "https://img-proxy.imgfo.com/?referer=https://manganelo.com&url=https://s3.mkklcdnv6temp.com/mangakakalot/c1/cerberus/vol7_chapter_52_the_beauty_of_the_demonic_bird/7.jpg",
    "https://img-proxy.imgfo.com/?referer=https://manganelo.com&url=https://s3.mkklcdnv6temp.com/mangakakalot/c1/cerberus/vol7_chapter_52_the_beauty_of_the_demonic_bird/8.jpg",
    "https://img-proxy.imgfo.com/?referer=https://manganelo.com&url=https://s3.mkklcdnv6temp.com/mangakakalot/c1/cerberus/vol7_chapter_52_the_beauty_of_the_demonic_bird/9.jpg",
    "https://img-proxy.imgfo.com/?referer=https://manganelo.com&url=https://s3.mkklcdnv6temp.com/mangakakalot/c1/cerberus/vol7_chapter_52_the_beauty_of_the_demonic_bird/10.jpg",
    "https://img-proxy.imgfo.com/?referer=https://manganelo.com&url=https://s3.mkklcdnv6temp.com/mangakakalot/c1/cerberus/vol7_chapter_52_the_beauty_of_the_demonic_bird/11.jpg",
    "https://img-proxy.imgfo.com/?referer=https://manganelo.com&url=https://s3.mkklcdnv6temp.com/mangakakalot/c1/cerberus/vol7_chapter_52_the_beauty_of_the_demonic_bird/12.jpg",
    "https://img-proxy.imgfo.com/?referer=https://manganelo.com&url=https://s3.mkklcdnv6temp.com/mangakakalot/c1/cerberus/vol7_chapter_52_the_beauty_of_the_demonic_bird/13.jpg",
    "https://img-proxy.imgfo.com/?referer=https://manganelo.com&url=https://s3.mkklcdnv6temp.com/mangakakalot/c1/cerberus/vol7_chapter_52_the_beauty_of_the_demonic_bird/14.jpg",
    "https://img-proxy.imgfo.com/?referer=https://manganelo.com&url=https://s3.mkklcdnv6temp.com/mangakakalot/c1/cerberus/vol7_chapter_52_the_beauty_of_the_demonic_bird/15.jpg",
    "https://img-proxy.imgfo.com/?referer=https://manganelo.com&url=https://s3.mkklcdnv6temp.com/mangakakalot/c1/cerberus/vol7_chapter_52_the_beauty_of_the_demonic_bird/16.jpg",
    "https://img-proxy.imgfo.com/?referer=https://manganelo.com&url=https://s3.mkklcdnv6temp.com/mangakakalot/c1/cerberus/vol7_chapter_52_the_beauty_of_the_demonic_bird/17.jpg",
    "https://img-proxy.imgfo.com/?referer=https://manganelo.com&url=https://s3.mkklcdnv6temp.com/mangakakalot/c1/cerberus/vol7_chapter_52_the_beauty_of_the_demonic_bird/18.jpg",
    "https://img-proxy.imgfo.com/?referer=https://manganelo.com&url=https://s3.mkklcdnv6temp.com/mangakakalot/c1/cerberus/vol7_chapter_52_the_beauty_of_the_demonic_bird/19.jpg",
    "https://img-proxy.imgfo.com/?referer=https://manganelo.com&url=https://s3.mkklcdnv6temp.com/mangakakalot/c1/cerberus/vol7_chapter_52_the_beauty_of_the_demonic_bird/20.jpg",
    "https://img-proxy.imgfo.com/?referer=https://manganelo.com&url=https://s3.mkklcdnv6temp.com/mangakakalot/c1/cerberus/vol7_chapter_52_the_beauty_of_the_demonic_bird/21.jpg",
    "https://img-proxy.imgfo.com/?referer=https://manganelo.com&url=https://s3.mkklcdnv6temp.com/mangakakalot/c1/cerberus/vol7_chapter_52_the_beauty_of_the_demonic_bird/22.jpg",
    "https://img-proxy.imgfo.com/?referer=https://manganelo.com&url=https://s3.mkklcdnv6temp.com/mangakakalot/c1/cerberus/vol7_chapter_52_the_beauty_of_the_demonic_bird/23.jpg",
    "https://img-proxy.imgfo.com/?referer=https://manganelo.com&url=https://s3.mkklcdnv6temp.com/mangakakalot/c1/cerberus/vol7_chapter_52_the_beauty_of_the_demonic_bird/24.jpg"
  ]
}