{
  "cover": "https://avt.mkklcdnv6.com/25/o/2-1583466689.jpg",
  "title": "Kanpeki Na Kanojo",
  "original": "カンペキな彼女 ; Perfect Girlfriend ; She Is a Perfect Girl Friend ; ฉันนี่ล่ะ สวย เลิศ เชิด สมบูรณ์แบบ",
  "genre": "Comedy, Romance, School life, Seinen, Manga",
  "author": "Akizuki Wataru",
  "status": "Completed",
  "backlink": "https://manganu.com/collections/akizuki-wataru/kanpeki-na-kanojo/",
  "description": "Suwa is perfect. She has perfect grades, perfect looks and is the idol of everyone at her school. However this \"perfection\" has created an odd distance between her and her fellow classmates. That is except for Takeda, the boy who sits in front of her in class. It seems Takeda is the only person that is able to speak to Suwa normally and much to her chagrin he is starting to think she is not all that perfect.\nfrom mangaupdates.com",
  "language": "English",
  "images": [
    "https://img-proxy.imgfo.com/?referer=https://manganelo.com&url=https://s7.mkklcdnv6temp.com/mangakakalot/k1/kanpeki_na_kanojo/vol5_chapter_26/1.jpg",
    "https://img-proxy.imgfo.com/?referer=https://manganelo.com&url=https://s7.mkklcdnv6temp.com/mangakakalot/k1/kanpeki_na_kanojo/vol5_chapter_26/2.jpg",
    "https://img-proxy.imgfo.com/?referer=https://manganelo.com&url=https://s7.mkklcdnv6temp.com/mangakakalot/k1/kanpeki_na_kanojo/vol5_chapter_26/3.jpg",
    "https://img-proxy.imgfo.com/?referer=https://manganelo.com&url=https://s7.mkklcdnv6temp.com/mangakakalot/k1/kanpeki_na_kanojo/vol5_chapter_26/4.jpg",
    "https://img-proxy.imgfo.com/?referer=https://manganelo.com&url=https://s7.mkklcdnv6temp.com/mangakakalot/k1/kanpeki_na_kanojo/vol5_chapter_26/5.jpg",
    "https://img-proxy.imgfo.com/?referer=https://manganelo.com&url=https://s7.mkklcdnv6temp.com/mangakakalot/k1/kanpeki_na_kanojo/vol5_chapter_26/6.jpg",
    "https://img-proxy.imgfo.com/?referer=https://manganelo.com&url=https://s7.mkklcdnv6temp.com/mangakakalot/k1/kanpeki_na_kanojo/vol5_chapter_26/7.jpg",
    "https://img-proxy.imgfo.com/?referer=https://manganelo.com&url=https://s7.mkklcdnv6temp.com/mangakakalot/k1/kanpeki_na_kanojo/vol5_chapter_26/8.jpg",
    "https://img-proxy.imgfo.com/?referer=https://manganelo.com&url=https://s7.mkklcdnv6temp.com/mangakakalot/k1/kanpeki_na_kanojo/vol5_chapter_26/9.jpg",
    "https://img-proxy.imgfo.com/?referer=https://manganelo.com&url=https://s7.mkklcdnv6temp.com/mangakakalot/k1/kanpeki_na_kanojo/vol5_chapter_26/10.jpg",
    "https://img-proxy.imgfo.com/?referer=https://manganelo.com&url=https://s7.mkklcdnv6temp.com/mangakakalot/k1/kanpeki_na_kanojo/vol5_chapter_26/11.jpg",
    "https://img-proxy.imgfo.com/?referer=https://manganelo.com&url=https://s7.mkklcdnv6temp.com/mangakakalot/k1/kanpeki_na_kanojo/vol5_chapter_26/12.jpg",
    "https://img-proxy.imgfo.com/?referer=https://manganelo.com&url=https://s7.mkklcdnv6temp.com/mangakakalot/k1/kanpeki_na_kanojo/vol5_chapter_26/13.jpg",
    "https://img-proxy.imgfo.com/?referer=https://manganelo.com&url=https://s7.mkklcdnv6temp.com/mangakakalot/k1/kanpeki_na_kanojo/vol5_chapter_26/14.jpg",
    "https://img-proxy.imgfo.com/?referer=https://manganelo.com&url=https://s7.mkklcdnv6temp.com/mangakakalot/k1/kanpeki_na_kanojo/vol5_chapter_26/15.jpg",
    "https://img-proxy.imgfo.com/?referer=https://manganelo.com&url=https://s7.mkklcdnv6temp.com/mangakakalot/k1/kanpeki_na_kanojo/vol5_chapter_26/16.jpg",
    "https://img-proxy.imgfo.com/?referer=https://manganelo.com&url=https://s7.mkklcdnv6temp.com/mangakakalot/k1/kanpeki_na_kanojo/vol5_chapter_26/17.jpg",
    "https://img-proxy.imgfo.com/?referer=https://manganelo.com&url=https://s7.mkklcdnv6temp.com/mangakakalot/k1/kanpeki_na_kanojo/vol5_chapter_26/18.jpg",
    "https://img-proxy.imgfo.com/?referer=https://manganelo.com&url=https://s7.mkklcdnv6temp.com/mangakakalot/k1/kanpeki_na_kanojo/vol5_chapter_26/19.jpg",
    "https://img-proxy.imgfo.com/?referer=https://manganelo.com&url=https://s7.mkklcdnv6temp.com/mangakakalot/k1/kanpeki_na_kanojo/vol5_chapter_26/20.jpg",
    "https://img-proxy.imgfo.com/?referer=https://manganelo.com&url=https://s7.mkklcdnv6temp.com/mangakakalot/k1/kanpeki_na_kanojo/vol5_chapter_26/21.jpg",
    "https://img-proxy.imgfo.com/?referer=https://manganelo.com&url=https://s7.mkklcdnv6temp.com/mangakakalot/k1/kanpeki_na_kanojo/vol5_chapter_26/22.jpg",
    "https://img-proxy.imgfo.com/?referer=https://manganelo.com&url=https://s7.mkklcdnv6temp.com/mangakakalot/k1/kanpeki_na_kanojo/vol5_chapter_26/23.jpg",
    "https://img-proxy.imgfo.com/?referer=https://manganelo.com&url=https://s7.mkklcdnv6temp.com/mangakakalot/k1/kanpeki_na_kanojo/vol5_chapter_26/24.jpg",
    "https://img-proxy.imgfo.com/?referer=https://manganelo.com&url=https://s7.mkklcdnv6temp.com/mangakakalot/k1/kanpeki_na_kanojo/vol5_chapter_26/25.jpg",
    "https://img-proxy.imgfo.com/?referer=https://manganelo.com&url=https://s7.mkklcdnv6temp.com/mangakakalot/k1/kanpeki_na_kanojo/vol5_chapter_26/26.jpg"
  ]
}