{
  "cover": "https://avt.mkklcdnv6.com/6/r/7-1583476548.jpg",
  "title": "Ai O Tomenaide",
  "original": "愛をとめないで ; Don't Stop Loving Me ; Dreamt of Cinderella ; I Saw Cinderella's Dream ; Love Never Stops ; Shinderera no Yume o Mita",
  "genre": "Drama, Romance, Shoujo, Smut, Manga",
  "author": "Fujiomi Miyako",
  "status": "Completed",
  "backlink": "https://manganu.com/collections/fujiomi-miyako/ai-o-tomenaide/",
  "description": "Don&#39;t Stop Loving Me / Love Never Stops Kio is a happily married woman... until she meets Chihaya. Chihaya wants Kio, but Kio tells him that she can&#39;t because she is married, but Kio is more and more attracted to Chiharu. Dreamt of Cinderella Erika loves brand name things, and surrounds herself with them, even if she doesn&#39;t have much money. But when she meets the famous hairstylist Takuto, this changes...",
  "language": "English",
  "images": [
    "https://img-proxy.imgfo.com/?referer=https://manganelo.com&url=https://s3.mkklcdnv6temp.com/mangakakalot/a1/ai_o_tomenaide/vol1_chapter_3_dreamt_of_cinderella/1.jpg",
    "https://img-proxy.imgfo.com/?referer=https://manganelo.com&url=https://s3.mkklcdnv6temp.com/mangakakalot/a1/ai_o_tomenaide/vol1_chapter_3_dreamt_of_cinderella/2.jpg",
    "https://img-proxy.imgfo.com/?referer=https://manganelo.com&url=https://s3.mkklcdnv6temp.com/mangakakalot/a1/ai_o_tomenaide/vol1_chapter_3_dreamt_of_cinderella/3.jpg",
    "https://img-proxy.imgfo.com/?referer=https://manganelo.com&url=https://s3.mkklcdnv6temp.com/mangakakalot/a1/ai_o_tomenaide/vol1_chapter_3_dreamt_of_cinderella/4.jpg",
    "https://img-proxy.imgfo.com/?referer=https://manganelo.com&url=https://s3.mkklcdnv6temp.com/mangakakalot/a1/ai_o_tomenaide/vol1_chapter_3_dreamt_of_cinderella/5.jpg",
    "https://img-proxy.imgfo.com/?referer=https://manganelo.com&url=https://s3.mkklcdnv6temp.com/mangakakalot/a1/ai_o_tomenaide/vol1_chapter_3_dreamt_of_cinderella/6.jpg",
    "https://img-proxy.imgfo.com/?referer=https://manganelo.com&url=https://s3.mkklcdnv6temp.com/mangakakalot/a1/ai_o_tomenaide/vol1_chapter_3_dreamt_of_cinderella/7.jpg",
    "https://img-proxy.imgfo.com/?referer=https://manganelo.com&url=https://s3.mkklcdnv6temp.com/mangakakalot/a1/ai_o_tomenaide/vol1_chapter_3_dreamt_of_cinderella/8.jpg",
    "https://img-proxy.imgfo.com/?referer=https://manganelo.com&url=https://s3.mkklcdnv6temp.com/mangakakalot/a1/ai_o_tomenaide/vol1_chapter_3_dreamt_of_cinderella/9.jpg",
    "https://img-proxy.imgfo.com/?referer=https://manganelo.com&url=https://s3.mkklcdnv6temp.com/mangakakalot/a1/ai_o_tomenaide/vol1_chapter_3_dreamt_of_cinderella/10.jpg",
    "https://img-proxy.imgfo.com/?referer=https://manganelo.com&url=https://s3.mkklcdnv6temp.com/mangakakalot/a1/ai_o_tomenaide/vol1_chapter_3_dreamt_of_cinderella/11.jpg",
    "https://img-proxy.imgfo.com/?referer=https://manganelo.com&url=https://s3.mkklcdnv6temp.com/mangakakalot/a1/ai_o_tomenaide/vol1_chapter_3_dreamt_of_cinderella/12.jpg",
    "https://img-proxy.imgfo.com/?referer=https://manganelo.com&url=https://s3.mkklcdnv6temp.com/mangakakalot/a1/ai_o_tomenaide/vol1_chapter_3_dreamt_of_cinderella/13.jpg",
    "https://img-proxy.imgfo.com/?referer=https://manganelo.com&url=https://s3.mkklcdnv6temp.com/mangakakalot/a1/ai_o_tomenaide/vol1_chapter_3_dreamt_of_cinderella/14.jpg",
    "https://img-proxy.imgfo.com/?referer=https://manganelo.com&url=https://s3.mkklcdnv6temp.com/mangakakalot/a1/ai_o_tomenaide/vol1_chapter_3_dreamt_of_cinderella/15.jpg",
    "https://img-proxy.imgfo.com/?referer=https://manganelo.com&url=https://s3.mkklcdnv6temp.com/mangakakalot/a1/ai_o_tomenaide/vol1_chapter_3_dreamt_of_cinderella/16.jpg",
    "https://img-proxy.imgfo.com/?referer=https://manganelo.com&url=https://s3.mkklcdnv6temp.com/mangakakalot/a1/ai_o_tomenaide/vol1_chapter_3_dreamt_of_cinderella/17.jpg",
    "https://img-proxy.imgfo.com/?referer=https://manganelo.com&url=https://s3.mkklcdnv6temp.com/mangakakalot/a1/ai_o_tomenaide/vol1_chapter_3_dreamt_of_cinderella/18.jpg",
    "https://img-proxy.imgfo.com/?referer=https://manganelo.com&url=https://s3.mkklcdnv6temp.com/mangakakalot/a1/ai_o_tomenaide/vol1_chapter_3_dreamt_of_cinderella/19.jpg",
    "https://img-proxy.imgfo.com/?referer=https://manganelo.com&url=https://s3.mkklcdnv6temp.com/mangakakalot/a1/ai_o_tomenaide/vol1_chapter_3_dreamt_of_cinderella/20.jpg",
    "https://img-proxy.imgfo.com/?referer=https://manganelo.com&url=https://s3.mkklcdnv6temp.com/mangakakalot/a1/ai_o_tomenaide/vol1_chapter_3_dreamt_of_cinderella/21.jpg",
    "https://img-proxy.imgfo.com/?referer=https://manganelo.com&url=https://s3.mkklcdnv6temp.com/mangakakalot/a1/ai_o_tomenaide/vol1_chapter_3_dreamt_of_cinderella/22.jpg",
    "https://img-proxy.imgfo.com/?referer=https://manganelo.com&url=https://s3.mkklcdnv6temp.com/mangakakalot/a1/ai_o_tomenaide/vol1_chapter_3_dreamt_of_cinderella/23.jpg",
    "https://img-proxy.imgfo.com/?referer=https://manganelo.com&url=https://s3.mkklcdnv6temp.com/mangakakalot/a1/ai_o_tomenaide/vol1_chapter_3_dreamt_of_cinderella/24.jpg",
    "https://img-proxy.imgfo.com/?referer=https://manganelo.com&url=https://s3.mkklcdnv6temp.com/mangakakalot/a1/ai_o_tomenaide/vol1_chapter_3_dreamt_of_cinderella/25.jpg",
    "https://img-proxy.imgfo.com/?referer=https://manganelo.com&url=https://s3.mkklcdnv6temp.com/mangakakalot/a1/ai_o_tomenaide/vol1_chapter_3_dreamt_of_cinderella/26.jpg",
    "https://img-proxy.imgfo.com/?referer=https://manganelo.com&url=https://s3.mkklcdnv6temp.com/mangakakalot/a1/ai_o_tomenaide/vol1_chapter_3_dreamt_of_cinderella/27.jpg",
    "https://img-proxy.imgfo.com/?referer=https://manganelo.com&url=https://s3.mkklcdnv6temp.com/mangakakalot/a1/ai_o_tomenaide/vol1_chapter_3_dreamt_of_cinderella/28.jpg",
    "https://img-proxy.imgfo.com/?referer=https://manganelo.com&url=https://s3.mkklcdnv6temp.com/mangakakalot/a1/ai_o_tomenaide/vol1_chapter_3_dreamt_of_cinderella/29.jpg",
    "https://img-proxy.imgfo.com/?referer=https://manganelo.com&url=https://s3.mkklcdnv6temp.com/mangakakalot/a1/ai_o_tomenaide/vol1_chapter_3_dreamt_of_cinderella/30.jpg",
    "https://img-proxy.imgfo.com/?referer=https://manganelo.com&url=https://s3.mkklcdnv6temp.com/mangakakalot/a1/ai_o_tomenaide/vol1_chapter_3_dreamt_of_cinderella/31.jpg",
    "https://img-proxy.imgfo.com/?referer=https://manganelo.com&url=https://s3.mkklcdnv6temp.com/mangakakalot/a1/ai_o_tomenaide/vol1_chapter_3_dreamt_of_cinderella/32.jpg",
    "https://img-proxy.imgfo.com/?referer=https://manganelo.com&url=https://s3.mkklcdnv6temp.com/mangakakalot/a1/ai_o_tomenaide/vol1_chapter_3_dreamt_of_cinderella/33.jpg",
    "https://img-proxy.imgfo.com/?referer=https://manganelo.com&url=https://s3.mkklcdnv6temp.com/mangakakalot/a1/ai_o_tomenaide/vol1_chapter_3_dreamt_of_cinderella/34.jpg",
    "https://img-proxy.imgfo.com/?referer=https://manganelo.com&url=https://s3.mkklcdnv6temp.com/mangakakalot/a1/ai_o_tomenaide/vol1_chapter_3_dreamt_of_cinderella/35.jpg",
    "https://img-proxy.imgfo.com/?referer=https://manganelo.com&url=https://s3.mkklcdnv6temp.com/mangakakalot/a1/ai_o_tomenaide/vol1_chapter_3_dreamt_of_cinderella/36.jpg",
    "https://img-proxy.imgfo.com/?referer=https://manganelo.com&url=https://s3.mkklcdnv6temp.com/mangakakalot/a1/ai_o_tomenaide/vol1_chapter_3_dreamt_of_cinderella/37.jpg",
    "https://img-proxy.imgfo.com/?referer=https://manganelo.com&url=https://s3.mkklcdnv6temp.com/mangakakalot/a1/ai_o_tomenaide/vol1_chapter_3_dreamt_of_cinderella/38.jpg",
    "https://img-proxy.imgfo.com/?referer=https://manganelo.com&url=https://s3.mkklcdnv6temp.com/mangakakalot/a1/ai_o_tomenaide/vol1_chapter_3_dreamt_of_cinderella/39.jpg",
    "https://img-proxy.imgfo.com/?referer=https://manganelo.com&url=https://s3.mkklcdnv6temp.com/mangakakalot/a1/ai_o_tomenaide/vol1_chapter_3_dreamt_of_cinderella/40.jpg",
    "https://img-proxy.imgfo.com/?referer=https://manganelo.com&url=https://s3.mkklcdnv6temp.com/mangakakalot/a1/ai_o_tomenaide/vol1_chapter_3_dreamt_of_cinderella/41.jpg",
    "https://img-proxy.imgfo.com/?referer=https://manganelo.com&url=https://s3.mkklcdnv6temp.com/mangakakalot/a1/ai_o_tomenaide/vol1_chapter_3_dreamt_of_cinderella/42.jpg",
    "https://img-proxy.imgfo.com/?referer=https://manganelo.com&url=https://s3.mkklcdnv6temp.com/mangakakalot/a1/ai_o_tomenaide/vol1_chapter_3_dreamt_of_cinderella/43.jpg",
    "https://img-proxy.imgfo.com/?referer=https://manganelo.com&url=https://s3.mkklcdnv6temp.com/mangakakalot/a1/ai_o_tomenaide/vol1_chapter_3_dreamt_of_cinderella/44.jpg",
    "https://img-proxy.imgfo.com/?referer=https://manganelo.com&url=https://s3.mkklcdnv6temp.com/mangakakalot/a1/ai_o_tomenaide/vol1_chapter_3_dreamt_of_cinderella/45.jpg",
    "https://img-proxy.imgfo.com/?referer=https://manganelo.com&url=https://s3.mkklcdnv6temp.com/mangakakalot/a1/ai_o_tomenaide/vol1_chapter_3_dreamt_of_cinderella/46.jpg",
    "https://img-proxy.imgfo.com/?referer=https://manganelo.com&url=https://s3.mkklcdnv6temp.com/mangakakalot/a1/ai_o_tomenaide/vol1_chapter_3_dreamt_of_cinderella/47.jpg",
    "https://img-proxy.imgfo.com/?referer=https://manganelo.com&url=https://s3.mkklcdnv6temp.com/mangakakalot/a1/ai_o_tomenaide/vol1_chapter_3_dreamt_of_cinderella/48.jpg",
    "https://img-proxy.imgfo.com/?referer=https://manganelo.com&url=https://s3.mkklcdnv6temp.com/mangakakalot/a1/ai_o_tomenaide/vol1_chapter_3_dreamt_of_cinderella/49.jpg",
    "https://img-proxy.imgfo.com/?referer=https://manganelo.com&url=https://s3.mkklcdnv6temp.com/mangakakalot/a1/ai_o_tomenaide/vol1_chapter_3_dreamt_of_cinderella/50.jpg"
  ]
}