{
  "cover": "https://avt.mkklcdnv6.com/9/h/9-1583480450.jpg",
  "title": "Menkui!",
  "original": "メンクイ！ ; Menkui ; Menkui !",
  "genre": "School life, Shounen ai, Supernatural, Manga",
  "author": "Tanaka Suzuki",
  "status": "Completed",
  "backlink": "https://manganu.com/collections/tanaka-suzuki/menkui/",
  "description": "From Blu:\nIt’s hard to be in high school, especially when you live in the shadow of your stunningly attractive older brother. It only gets worse when the really cute guy from the class next to yours starts hanging around your house, presumably to catch a glimpse of said older brother. But things are not always as they seem! Kotori is often teased for being superficial, and with a brother like Kujaku, you can’t really blame him for thinking that looks are everything. However, once Akaiwa steps into his life, Kotori is heading for a lesson in deep trust and abiding love. There’s a lot more under the surface that he’s finally about to get a chance to see!\n(Menkui means to be attracted by physical looks only.)",
  "language": "English",
  "images": [
    "https://img-proxy.imgfo.com/?referer=https://manganelo.com&url=https://s3.mkklcdnv6temp.com/mangakakalot/m1/menkui/vol01_chapter_8/1.jpg",
    "https://img-proxy.imgfo.com/?referer=https://manganelo.com&url=https://s3.mkklcdnv6temp.com/mangakakalot/m1/menkui/vol01_chapter_8/2.jpg",
    "https://img-proxy.imgfo.com/?referer=https://manganelo.com&url=https://s3.mkklcdnv6temp.com/mangakakalot/m1/menkui/vol01_chapter_8/3.jpg",
    "https://img-proxy.imgfo.com/?referer=https://manganelo.com&url=https://s3.mkklcdnv6temp.com/mangakakalot/m1/menkui/vol01_chapter_8/4.jpg",
    "https://img-proxy.imgfo.com/?referer=https://manganelo.com&url=https://s3.mkklcdnv6temp.com/mangakakalot/m1/menkui/vol01_chapter_8/5.jpg",
    "https://img-proxy.imgfo.com/?referer=https://manganelo.com&url=https://s3.mkklcdnv6temp.com/mangakakalot/m1/menkui/vol01_chapter_8/6.jpg",
    "https://img-proxy.imgfo.com/?referer=https://manganelo.com&url=https://s3.mkklcdnv6temp.com/mangakakalot/m1/menkui/vol01_chapter_8/7.jpg",
    "https://img-proxy.imgfo.com/?referer=https://manganelo.com&url=https://s3.mkklcdnv6temp.com/mangakakalot/m1/menkui/vol01_chapter_8/8.jpg",
    "https://img-proxy.imgfo.com/?referer=https://manganelo.com&url=https://s3.mkklcdnv6temp.com/mangakakalot/m1/menkui/vol01_chapter_8/9.jpg",
    "https://img-proxy.imgfo.com/?referer=https://manganelo.com&url=https://s3.mkklcdnv6temp.com/mangakakalot/m1/menkui/vol01_chapter_8/10.jpg",
    "https://img-proxy.imgfo.com/?referer=https://manganelo.com&url=https://s3.mkklcdnv6temp.com/mangakakalot/m1/menkui/vol01_chapter_8/11.jpg",
    "https://img-proxy.imgfo.com/?referer=https://manganelo.com&url=https://s3.mkklcdnv6temp.com/mangakakalot/m1/menkui/vol01_chapter_8/12.jpg",
    "https://img-proxy.imgfo.com/?referer=https://manganelo.com&url=https://s3.mkklcdnv6temp.com/mangakakalot/m1/menkui/vol01_chapter_8/13.jpg",
    "https://img-proxy.imgfo.com/?referer=https://manganelo.com&url=https://s3.mkklcdnv6temp.com/mangakakalot/m1/menkui/vol01_chapter_8/14.jpg",
    "https://img-proxy.imgfo.com/?referer=https://manganelo.com&url=https://s3.mkklcdnv6temp.com/mangakakalot/m1/menkui/vol01_chapter_8/15.jpg",
    "https://img-proxy.imgfo.com/?referer=https://manganelo.com&url=https://s3.mkklcdnv6temp.com/mangakakalot/m1/menkui/vol01_chapter_8/16.jpg",
    "https://img-proxy.imgfo.com/?referer=https://manganelo.com&url=https://s3.mkklcdnv6temp.com/mangakakalot/m1/menkui/vol01_chapter_8/17.jpg",
    "https://img-proxy.imgfo.com/?referer=https://manganelo.com&url=https://s3.mkklcdnv6temp.com/mangakakalot/m1/menkui/vol01_chapter_8/18.jpg",
    "https://img-proxy.imgfo.com/?referer=https://manganelo.com&url=https://s3.mkklcdnv6temp.com/mangakakalot/m1/menkui/vol01_chapter_8/19.jpg",
    "https://img-proxy.imgfo.com/?referer=https://manganelo.com&url=https://s3.mkklcdnv6temp.com/mangakakalot/m1/menkui/vol01_chapter_8/20.jpg",
    "https://img-proxy.imgfo.com/?referer=https://manganelo.com&url=https://s3.mkklcdnv6temp.com/mangakakalot/m1/menkui/vol01_chapter_8/21.jpg",
    "https://img-proxy.imgfo.com/?referer=https://manganelo.com&url=https://s3.mkklcdnv6temp.com/mangakakalot/m1/menkui/vol01_chapter_8/22.jpg",
    "https://img-proxy.imgfo.com/?referer=https://manganelo.com&url=https://s3.mkklcdnv6temp.com/mangakakalot/m1/menkui/vol01_chapter_8/23.jpg",
    "https://img-proxy.imgfo.com/?referer=https://manganelo.com&url=https://s3.mkklcdnv6temp.com/mangakakalot/m1/menkui/vol01_chapter_8/24.jpg"
  ]
}