{
  "cover": "https://avt.mkklcdnv6.com/7/d/4-1583469964.jpg",
  "title": "Boku To Kanojo No Xxx",
  "original": "僕と彼女の××× ; 我和她的XXX ; 我爱野蛮女友 ; My Barbaric Girlfriend ; Dein und mein Geheimnis ; Será nuestro secreto ; Ang Siga kong Nobya ; Your and My Secret ; Un SegretoX2 ; صديقتي البربرية",
  "genre": "Comedy, Gender bender, Romance, School life, Shoujo, Supernatural, Manga",
  "author": "Morinaga Ai",
  "status": "Completed",
  "backlink": "https://manganu.com/collections/morinaga-ai/boku-to-kanojo-no-xxx/",
  "description": "Two teens see how the other half lives!\nWhen her mad scientist grandfather accidentally switches their bodies. Akira Uehara is mortified when his best buddy starts hitting on \"him,\" and is embarrassed to look at \"himself\" in the mirror in her underwear! He can't wait to get back to being a boy. But Nanako Momoi has other ideas--she is starting to enjoy life in Akira's body!\nFrom Tokyopop:\nRude girl and effeminate boy switch bodies and find that it might be a better fit for both of them. Lots of crazy comedy. Nanako Momoi is the belle of high school... as long as she stays quiet. Once she shows her true self, guys' dreams are shattered for she is a true tomboy. Akira Uehara has the looks and brains, but, unfortunately, his personality is so dull it overcasts a shadow, and nobody notices him. One day, Nanako's grandfather comes up with a crazy invention, and Nanako and Akira trade Bodies! She's him, and he's her!",
  "language": "English",
  "images": [
    "https://img-proxy.imgfo.com/?referer=https://manganelo.com&url=https://s7.mkklcdnv6temp.com/mangakakalot/b2/boku_to_kanojo_no_xxx/vol1_chapter_4_excitement/1.jpg",
    "https://img-proxy.imgfo.com/?referer=https://manganelo.com&url=https://s7.mkklcdnv6temp.com/mangakakalot/b2/boku_to_kanojo_no_xxx/vol1_chapter_4_excitement/2.jpg",
    "https://img-proxy.imgfo.com/?referer=https://manganelo.com&url=https://s7.mkklcdnv6temp.com/mangakakalot/b2/boku_to_kanojo_no_xxx/vol1_chapter_4_excitement/3.jpg",
    "https://img-proxy.imgfo.com/?referer=https://manganelo.com&url=https://s7.mkklcdnv6temp.com/mangakakalot/b2/boku_to_kanojo_no_xxx/vol1_chapter_4_excitement/4.jpg",
    "https://img-proxy.imgfo.com/?referer=https://manganelo.com&url=https://s7.mkklcdnv6temp.com/mangakakalot/b2/boku_to_kanojo_no_xxx/vol1_chapter_4_excitement/5.jpg",
    "https://img-proxy.imgfo.com/?referer=https://manganelo.com&url=https://s7.mkklcdnv6temp.com/mangakakalot/b2/boku_to_kanojo_no_xxx/vol1_chapter_4_excitement/6.jpg",
    "https://img-proxy.imgfo.com/?referer=https://manganelo.com&url=https://s7.mkklcdnv6temp.com/mangakakalot/b2/boku_to_kanojo_no_xxx/vol1_chapter_4_excitement/7.jpg",
    "https://img-proxy.imgfo.com/?referer=https://manganelo.com&url=https://s7.mkklcdnv6temp.com/mangakakalot/b2/boku_to_kanojo_no_xxx/vol1_chapter_4_excitement/8.jpg",
    "https://img-proxy.imgfo.com/?referer=https://manganelo.com&url=https://s7.mkklcdnv6temp.com/mangakakalot/b2/boku_to_kanojo_no_xxx/vol1_chapter_4_excitement/9.jpg",
    "https://img-proxy.imgfo.com/?referer=https://manganelo.com&url=https://s7.mkklcdnv6temp.com/mangakakalot/b2/boku_to_kanojo_no_xxx/vol1_chapter_4_excitement/10.jpg",
    "https://img-proxy.imgfo.com/?referer=https://manganelo.com&url=https://s7.mkklcdnv6temp.com/mangakakalot/b2/boku_to_kanojo_no_xxx/vol1_chapter_4_excitement/11.jpg",
    "https://img-proxy.imgfo.com/?referer=https://manganelo.com&url=https://s7.mkklcdnv6temp.com/mangakakalot/b2/boku_to_kanojo_no_xxx/vol1_chapter_4_excitement/12.jpg",
    "https://img-proxy.imgfo.com/?referer=https://manganelo.com&url=https://s7.mkklcdnv6temp.com/mangakakalot/b2/boku_to_kanojo_no_xxx/vol1_chapter_4_excitement/13.jpg",
    "https://img-proxy.imgfo.com/?referer=https://manganelo.com&url=https://s7.mkklcdnv6temp.com/mangakakalot/b2/boku_to_kanojo_no_xxx/vol1_chapter_4_excitement/14.jpg",
    "https://img-proxy.imgfo.com/?referer=https://manganelo.com&url=https://s7.mkklcdnv6temp.com/mangakakalot/b2/boku_to_kanojo_no_xxx/vol1_chapter_4_excitement/15.jpg",
    "https://img-proxy.imgfo.com/?referer=https://manganelo.com&url=https://s7.mkklcdnv6temp.com/mangakakalot/b2/boku_to_kanojo_no_xxx/vol1_chapter_4_excitement/16.jpg",
    "https://img-proxy.imgfo.com/?referer=https://manganelo.com&url=https://s7.mkklcdnv6temp.com/mangakakalot/b2/boku_to_kanojo_no_xxx/vol1_chapter_4_excitement/17.jpg"
  ]
}