{
  "cover": "https://avt.mkklcdnv6.com/42/w/6-1583475929.jpg",
  "title": "Bio-Meat: Nectar",
  "original": "ビーエムネクタール ; 究极生物 ; Bio Meat ; Bio Meat: Nectar ; Bio-Meat ; BioMeat: Nectar ; BM ネクタール ; BM: Nectar",
  "genre": "Action, Adventure, Horror, Sci fi, Shounen, Manga",
  "author": "Fujisawa Yuki",
  "status": "Completed",
  "backlink": "https://manganu.com/collections/fujisawa-yuki/bio-meat-nectar/",
  "description": "The basic idea is that man is having a hard time finding food and getting rid of their trash, so science comes up with a bio-engineered animal that survives by eating trash, and is then killed to feed humanity. You can guess what may happen if a self-replicating, endlessly hungry killing machine got loose in Tokyo.",
  "language": "English",
  "images": [
    "https://img-proxy.imgfo.com/?referer=https://manganelo.com&url=https://s5.mkklcdnv6temp.com/mangakakalot/b1/biomeat_nectar/vol2_chapter_14_revived_nightmare/1.jpg",
    "https://img-proxy.imgfo.com/?referer=https://manganelo.com&url=https://s5.mkklcdnv6temp.com/mangakakalot/b1/biomeat_nectar/vol2_chapter_14_revived_nightmare/2.jpg",
    "https://img-proxy.imgfo.com/?referer=https://manganelo.com&url=https://s5.mkklcdnv6temp.com/mangakakalot/b1/biomeat_nectar/vol2_chapter_14_revived_nightmare/3.jpg",
    "https://img-proxy.imgfo.com/?referer=https://manganelo.com&url=https://s5.mkklcdnv6temp.com/mangakakalot/b1/biomeat_nectar/vol2_chapter_14_revived_nightmare/4.jpg",
    "https://img-proxy.imgfo.com/?referer=https://manganelo.com&url=https://s5.mkklcdnv6temp.com/mangakakalot/b1/biomeat_nectar/vol2_chapter_14_revived_nightmare/5.jpg",
    "https://img-proxy.imgfo.com/?referer=https://manganelo.com&url=https://s5.mkklcdnv6temp.com/mangakakalot/b1/biomeat_nectar/vol2_chapter_14_revived_nightmare/6.jpg",
    "https://img-proxy.imgfo.com/?referer=https://manganelo.com&url=https://s5.mkklcdnv6temp.com/mangakakalot/b1/biomeat_nectar/vol2_chapter_14_revived_nightmare/7.jpg",
    "https://img-proxy.imgfo.com/?referer=https://manganelo.com&url=https://s5.mkklcdnv6temp.com/mangakakalot/b1/biomeat_nectar/vol2_chapter_14_revived_nightmare/8.jpg",
    "https://img-proxy.imgfo.com/?referer=https://manganelo.com&url=https://s5.mkklcdnv6temp.com/mangakakalot/b1/biomeat_nectar/vol2_chapter_14_revived_nightmare/9.jpg",
    "https://img-proxy.imgfo.com/?referer=https://manganelo.com&url=https://s5.mkklcdnv6temp.com/mangakakalot/b1/biomeat_nectar/vol2_chapter_14_revived_nightmare/10.jpg",
    "https://img-proxy.imgfo.com/?referer=https://manganelo.com&url=https://s5.mkklcdnv6temp.com/mangakakalot/b1/biomeat_nectar/vol2_chapter_14_revived_nightmare/11.jpg",
    "https://img-proxy.imgfo.com/?referer=https://manganelo.com&url=https://s5.mkklcdnv6temp.com/mangakakalot/b1/biomeat_nectar/vol2_chapter_14_revived_nightmare/12.jpg",
    "https://img-proxy.imgfo.com/?referer=https://manganelo.com&url=https://s5.mkklcdnv6temp.com/mangakakalot/b1/biomeat_nectar/vol2_chapter_14_revived_nightmare/13.jpg",
    "https://img-proxy.imgfo.com/?referer=https://manganelo.com&url=https://s5.mkklcdnv6temp.com/mangakakalot/b1/biomeat_nectar/vol2_chapter_14_revived_nightmare/14.jpg",
    "https://img-proxy.imgfo.com/?referer=https://manganelo.com&url=https://s5.mkklcdnv6temp.com/mangakakalot/b1/biomeat_nectar/vol2_chapter_14_revived_nightmare/15.jpg",
    "https://img-proxy.imgfo.com/?referer=https://manganelo.com&url=https://s5.mkklcdnv6temp.com/mangakakalot/b1/biomeat_nectar/vol2_chapter_14_revived_nightmare/16.jpg",
    "https://img-proxy.imgfo.com/?referer=https://manganelo.com&url=https://s5.mkklcdnv6temp.com/mangakakalot/b1/biomeat_nectar/vol2_chapter_14_revived_nightmare/17.jpg",
    "https://img-proxy.imgfo.com/?referer=https://manganelo.com&url=https://s5.mkklcdnv6temp.com/mangakakalot/b1/biomeat_nectar/vol2_chapter_14_revived_nightmare/18.jpg",
    "https://img-proxy.imgfo.com/?referer=https://manganelo.com&url=https://s5.mkklcdnv6temp.com/mangakakalot/b1/biomeat_nectar/vol2_chapter_14_revived_nightmare/19.jpg",
    "https://img-proxy.imgfo.com/?referer=https://manganelo.com&url=https://s5.mkklcdnv6temp.com/mangakakalot/b1/biomeat_nectar/vol2_chapter_14_revived_nightmare/20.jpg",
    "https://img-proxy.imgfo.com/?referer=https://manganelo.com&url=https://s5.mkklcdnv6temp.com/mangakakalot/b1/biomeat_nectar/vol2_chapter_14_revived_nightmare/21.jpg",
    "https://img-proxy.imgfo.com/?referer=https://manganelo.com&url=https://s5.mkklcdnv6temp.com/mangakakalot/b1/biomeat_nectar/vol2_chapter_14_revived_nightmare/22.jpg"
  ]
}