{
  "cover": "https://avt.mkklcdnv6.com/17/v/5-1583472545.jpg",
  "title": "Happy World!",
  "original": "ハッピーワールド ; 해피월드 ; Happi Warudo ; Happy World",
  "genre": "Comedy, Ecchi, Harem, Romance, Seinen, Supernatural, Manga",
  "author": "Takeshita Kenjirou",
  "status": "Completed",
  "backlink": "https://manganu.com/collections/takeshita-kenjirou/happy-world/",
  "description": "Oomura Takeshi is one unlucky fellow. He has had this case of bad luck ever since he was little. One day, while on his normal runs with bad luck, he meets an Angel named Elle, and he finds out that his father wished the curse of bad luck upon him. Takeshi has the oppurtunity to pass on the curse, but accepts it to save a young girl. For his noble act, Elle becomes human and lives with Takeshi to protect him from the curse, which is something Takeshi isn't particularly happy with.\nWARNING: contains some mild incest and mild sexual images",
  "language": "English",
  "images": [
    "https://img-proxy.imgfo.com/?referer=https://manganelo.com&url=https://s6.mkklcdnv6temp.com/mangakakalot/h1/happy_world/vol9_chapter_58_the_man_who_brings_storms/1.jpg",
    "https://img-proxy.imgfo.com/?referer=https://manganelo.com&url=https://s6.mkklcdnv6temp.com/mangakakalot/h1/happy_world/vol9_chapter_58_the_man_who_brings_storms/2.jpg",
    "https://img-proxy.imgfo.com/?referer=https://manganelo.com&url=https://s6.mkklcdnv6temp.com/mangakakalot/h1/happy_world/vol9_chapter_58_the_man_who_brings_storms/3.jpg",
    "https://img-proxy.imgfo.com/?referer=https://manganelo.com&url=https://s6.mkklcdnv6temp.com/mangakakalot/h1/happy_world/vol9_chapter_58_the_man_who_brings_storms/4.jpg",
    "https://img-proxy.imgfo.com/?referer=https://manganelo.com&url=https://s6.mkklcdnv6temp.com/mangakakalot/h1/happy_world/vol9_chapter_58_the_man_who_brings_storms/5.jpg",
    "https://img-proxy.imgfo.com/?referer=https://manganelo.com&url=https://s6.mkklcdnv6temp.com/mangakakalot/h1/happy_world/vol9_chapter_58_the_man_who_brings_storms/6.jpg",
    "https://img-proxy.imgfo.com/?referer=https://manganelo.com&url=https://s6.mkklcdnv6temp.com/mangakakalot/h1/happy_world/vol9_chapter_58_the_man_who_brings_storms/7.jpg",
    "https://img-proxy.imgfo.com/?referer=https://manganelo.com&url=https://s6.mkklcdnv6temp.com/mangakakalot/h1/happy_world/vol9_chapter_58_the_man_who_brings_storms/8.jpg",
    "https://img-proxy.imgfo.com/?referer=https://manganelo.com&url=https://s6.mkklcdnv6temp.com/mangakakalot/h1/happy_world/vol9_chapter_58_the_man_who_brings_storms/9.jpg",
    "https://img-proxy.imgfo.com/?referer=https://manganelo.com&url=https://s6.mkklcdnv6temp.com/mangakakalot/h1/happy_world/vol9_chapter_58_the_man_who_brings_storms/10.jpg",
    "https://img-proxy.imgfo.com/?referer=https://manganelo.com&url=https://s6.mkklcdnv6temp.com/mangakakalot/h1/happy_world/vol9_chapter_58_the_man_who_brings_storms/11.jpg",
    "https://img-proxy.imgfo.com/?referer=https://manganelo.com&url=https://s6.mkklcdnv6temp.com/mangakakalot/h1/happy_world/vol9_chapter_58_the_man_who_brings_storms/12.jpg",
    "https://img-proxy.imgfo.com/?referer=https://manganelo.com&url=https://s6.mkklcdnv6temp.com/mangakakalot/h1/happy_world/vol9_chapter_58_the_man_who_brings_storms/13.jpg",
    "https://img-proxy.imgfo.com/?referer=https://manganelo.com&url=https://s6.mkklcdnv6temp.com/mangakakalot/h1/happy_world/vol9_chapter_58_the_man_who_brings_storms/14.jpg",
    "https://img-proxy.imgfo.com/?referer=https://manganelo.com&url=https://s6.mkklcdnv6temp.com/mangakakalot/h1/happy_world/vol9_chapter_58_the_man_who_brings_storms/15.jpg",
    "https://img-proxy.imgfo.com/?referer=https://manganelo.com&url=https://s6.mkklcdnv6temp.com/mangakakalot/h1/happy_world/vol9_chapter_58_the_man_who_brings_storms/16.jpg",
    "https://img-proxy.imgfo.com/?referer=https://manganelo.com&url=https://s6.mkklcdnv6temp.com/mangakakalot/h1/happy_world/vol9_chapter_58_the_man_who_brings_storms/17.jpg",
    "https://img-proxy.imgfo.com/?referer=https://manganelo.com&url=https://s6.mkklcdnv6temp.com/mangakakalot/h1/happy_world/vol9_chapter_58_the_man_who_brings_storms/18.jpg",
    "https://img-proxy.imgfo.com/?referer=https://manganelo.com&url=https://s6.mkklcdnv6temp.com/mangakakalot/h1/happy_world/vol9_chapter_58_the_man_who_brings_storms/19.jpg",
    "https://img-proxy.imgfo.com/?referer=https://manganelo.com&url=https://s6.mkklcdnv6temp.com/mangakakalot/h1/happy_world/vol9_chapter_58_the_man_who_brings_storms/20.jpg",
    "https://img-proxy.imgfo.com/?referer=https://manganelo.com&url=https://s6.mkklcdnv6temp.com/mangakakalot/h1/happy_world/vol9_chapter_58_the_man_who_brings_storms/21.jpg",
    "https://img-proxy.imgfo.com/?referer=https://manganelo.com&url=https://s6.mkklcdnv6temp.com/mangakakalot/h1/happy_world/vol9_chapter_58_the_man_who_brings_storms/22.jpg",
    "https://img-proxy.imgfo.com/?referer=https://manganelo.com&url=https://s6.mkklcdnv6temp.com/mangakakalot/h1/happy_world/vol9_chapter_58_the_man_who_brings_storms/23.jpg",
    "https://img-proxy.imgfo.com/?referer=https://manganelo.com&url=https://s6.mkklcdnv6temp.com/mangakakalot/h1/happy_world/vol9_chapter_58_the_man_who_brings_storms/24.jpg",
    "https://img-proxy.imgfo.com/?referer=https://manganelo.com&url=https://s6.mkklcdnv6temp.com/mangakakalot/h1/happy_world/vol9_chapter_58_the_man_who_brings_storms/25.jpg",
    "https://img-proxy.imgfo.com/?referer=https://manganelo.com&url=https://s6.mkklcdnv6temp.com/mangakakalot/h1/happy_world/vol9_chapter_58_the_man_who_brings_storms/26.jpg",
    "https://img-proxy.imgfo.com/?referer=https://manganelo.com&url=https://s6.mkklcdnv6temp.com/mangakakalot/h1/happy_world/vol9_chapter_58_the_man_who_brings_storms/27.jpg",
    "https://img-proxy.imgfo.com/?referer=https://manganelo.com&url=https://s6.mkklcdnv6temp.com/mangakakalot/h1/happy_world/vol9_chapter_58_the_man_who_brings_storms/28.jpg",
    "https://img-proxy.imgfo.com/?referer=https://manganelo.com&url=https://s6.mkklcdnv6temp.com/mangakakalot/h1/happy_world/vol9_chapter_58_the_man_who_brings_storms/29.jpg",
    "https://img-proxy.imgfo.com/?referer=https://manganelo.com&url=https://s6.mkklcdnv6temp.com/mangakakalot/h1/happy_world/vol9_chapter_58_the_man_who_brings_storms/30.jpg",
    "https://img-proxy.imgfo.com/?referer=https://manganelo.com&url=https://s6.mkklcdnv6temp.com/mangakakalot/h1/happy_world/vol9_chapter_58_the_man_who_brings_storms/31.jpg",
    "https://img-proxy.imgfo.com/?referer=https://manganelo.com&url=https://s6.mkklcdnv6temp.com/mangakakalot/h1/happy_world/vol9_chapter_58_the_man_who_brings_storms/32.jpg",
    "https://img-proxy.imgfo.com/?referer=https://manganelo.com&url=https://s6.mkklcdnv6temp.com/mangakakalot/h1/happy_world/vol9_chapter_58_the_man_who_brings_storms/33.jpg"
  ]
}