{
  "cover": "https://avt.mkklcdnv6.com/17/v/5-1583472545.jpg",
  "title": "Happy World!",
  "original": "ハッピーワールド ; 해피월드 ; Happi Warudo ; Happy World",
  "genre": "Comedy, Ecchi, Harem, Romance, Seinen, Supernatural, Manga",
  "author": "Takeshita Kenjirou",
  "status": "Completed",
  "backlink": "https://manganu.com/collections/takeshita-kenjirou/happy-world/",
  "description": "Oomura Takeshi is one unlucky fellow. He has had this case of bad luck ever since he was little. One day, while on his normal runs with bad luck, he meets an Angel named Elle, and he finds out that his father wished the curse of bad luck upon him. Takeshi has the oppurtunity to pass on the curse, but accepts it to save a young girl. For his noble act, Elle becomes human and lives with Takeshi to protect him from the curse, which is something Takeshi isn't particularly happy with.\nWARNING: contains some mild incest and mild sexual images",
  "language": "English",
  "images": [
    "https://img-proxy.imgfo.com/?referer=https://manganelo.com&url=https://s6.mkklcdnv6temp.com/mangakakalot/h1/happy_world/vol2_chapter_9_looking_at_flowers/1.jpg",
    "https://img-proxy.imgfo.com/?referer=https://manganelo.com&url=https://s6.mkklcdnv6temp.com/mangakakalot/h1/happy_world/vol2_chapter_9_looking_at_flowers/2.jpg",
    "https://img-proxy.imgfo.com/?referer=https://manganelo.com&url=https://s6.mkklcdnv6temp.com/mangakakalot/h1/happy_world/vol2_chapter_9_looking_at_flowers/3.jpg",
    "https://img-proxy.imgfo.com/?referer=https://manganelo.com&url=https://s6.mkklcdnv6temp.com/mangakakalot/h1/happy_world/vol2_chapter_9_looking_at_flowers/4.jpg",
    "https://img-proxy.imgfo.com/?referer=https://manganelo.com&url=https://s6.mkklcdnv6temp.com/mangakakalot/h1/happy_world/vol2_chapter_9_looking_at_flowers/5.jpg",
    "https://img-proxy.imgfo.com/?referer=https://manganelo.com&url=https://s6.mkklcdnv6temp.com/mangakakalot/h1/happy_world/vol2_chapter_9_looking_at_flowers/6.jpg",
    "https://img-proxy.imgfo.com/?referer=https://manganelo.com&url=https://s6.mkklcdnv6temp.com/mangakakalot/h1/happy_world/vol2_chapter_9_looking_at_flowers/7.jpg",
    "https://img-proxy.imgfo.com/?referer=https://manganelo.com&url=https://s6.mkklcdnv6temp.com/mangakakalot/h1/happy_world/vol2_chapter_9_looking_at_flowers/8.jpg",
    "https://img-proxy.imgfo.com/?referer=https://manganelo.com&url=https://s6.mkklcdnv6temp.com/mangakakalot/h1/happy_world/vol2_chapter_9_looking_at_flowers/9.jpg",
    "https://img-proxy.imgfo.com/?referer=https://manganelo.com&url=https://s6.mkklcdnv6temp.com/mangakakalot/h1/happy_world/vol2_chapter_9_looking_at_flowers/10.jpg",
    "https://img-proxy.imgfo.com/?referer=https://manganelo.com&url=https://s6.mkklcdnv6temp.com/mangakakalot/h1/happy_world/vol2_chapter_9_looking_at_flowers/11.jpg",
    "https://img-proxy.imgfo.com/?referer=https://manganelo.com&url=https://s6.mkklcdnv6temp.com/mangakakalot/h1/happy_world/vol2_chapter_9_looking_at_flowers/12.jpg",
    "https://img-proxy.imgfo.com/?referer=https://manganelo.com&url=https://s6.mkklcdnv6temp.com/mangakakalot/h1/happy_world/vol2_chapter_9_looking_at_flowers/13.jpg",
    "https://img-proxy.imgfo.com/?referer=https://manganelo.com&url=https://s6.mkklcdnv6temp.com/mangakakalot/h1/happy_world/vol2_chapter_9_looking_at_flowers/14.jpg",
    "https://img-proxy.imgfo.com/?referer=https://manganelo.com&url=https://s6.mkklcdnv6temp.com/mangakakalot/h1/happy_world/vol2_chapter_9_looking_at_flowers/15.jpg",
    "https://img-proxy.imgfo.com/?referer=https://manganelo.com&url=https://s6.mkklcdnv6temp.com/mangakakalot/h1/happy_world/vol2_chapter_9_looking_at_flowers/16.jpg",
    "https://img-proxy.imgfo.com/?referer=https://manganelo.com&url=https://s6.mkklcdnv6temp.com/mangakakalot/h1/happy_world/vol2_chapter_9_looking_at_flowers/17.jpg",
    "https://img-proxy.imgfo.com/?referer=https://manganelo.com&url=https://s6.mkklcdnv6temp.com/mangakakalot/h1/happy_world/vol2_chapter_9_looking_at_flowers/18.jpg",
    "https://img-proxy.imgfo.com/?referer=https://manganelo.com&url=https://s6.mkklcdnv6temp.com/mangakakalot/h1/happy_world/vol2_chapter_9_looking_at_flowers/19.jpg",
    "https://img-proxy.imgfo.com/?referer=https://manganelo.com&url=https://s6.mkklcdnv6temp.com/mangakakalot/h1/happy_world/vol2_chapter_9_looking_at_flowers/20.jpg",
    "https://img-proxy.imgfo.com/?referer=https://manganelo.com&url=https://s6.mkklcdnv6temp.com/mangakakalot/h1/happy_world/vol2_chapter_9_looking_at_flowers/21.jpg",
    "https://img-proxy.imgfo.com/?referer=https://manganelo.com&url=https://s6.mkklcdnv6temp.com/mangakakalot/h1/happy_world/vol2_chapter_9_looking_at_flowers/22.jpg",
    "https://img-proxy.imgfo.com/?referer=https://manganelo.com&url=https://s6.mkklcdnv6temp.com/mangakakalot/h1/happy_world/vol2_chapter_9_looking_at_flowers/23.jpg",
    "https://img-proxy.imgfo.com/?referer=https://manganelo.com&url=https://s6.mkklcdnv6temp.com/mangakakalot/h1/happy_world/vol2_chapter_9_looking_at_flowers/24.jpg",
    "https://img-proxy.imgfo.com/?referer=https://manganelo.com&url=https://s6.mkklcdnv6temp.com/mangakakalot/h1/happy_world/vol2_chapter_9_looking_at_flowers/25.jpg",
    "https://img-proxy.imgfo.com/?referer=https://manganelo.com&url=https://s6.mkklcdnv6temp.com/mangakakalot/h1/happy_world/vol2_chapter_9_looking_at_flowers/26.jpg",
    "https://img-proxy.imgfo.com/?referer=https://manganelo.com&url=https://s6.mkklcdnv6temp.com/mangakakalot/h1/happy_world/vol2_chapter_9_looking_at_flowers/27.jpg",
    "https://img-proxy.imgfo.com/?referer=https://manganelo.com&url=https://s6.mkklcdnv6temp.com/mangakakalot/h1/happy_world/vol2_chapter_9_looking_at_flowers/28.jpg",
    "https://img-proxy.imgfo.com/?referer=https://manganelo.com&url=https://s6.mkklcdnv6temp.com/mangakakalot/h1/happy_world/vol2_chapter_9_looking_at_flowers/29.jpg",
    "https://img-proxy.imgfo.com/?referer=https://manganelo.com&url=https://s6.mkklcdnv6temp.com/mangakakalot/h1/happy_world/vol2_chapter_9_looking_at_flowers/30.jpg"
  ]
}