{
  "cover": "https://avt.mkklcdnv6.com/26/h/8-1583479178.jpg",
  "title": "Garouden",
  "original": "餓狼伝 ; Ga-Ro-Den ; Ga-rou-den ; Legend of the Hungry Wolves",
  "genre": "Action, Martial arts, Seinen, Manga",
  "author": "Yumemakura Baku",
  "status": "Completed",
  "backlink": "https://manganu.com/collections/yumemakura-baku/garouden/",
  "description": "What does it mean to be strong? What attracts men to fight in hand to hand combat? These and many other questions are explained and detailed in Garouden, a novel series by Yomemakura Baku (illustrated by celebrity manga author Itagaki Keisuke).",
  "language": "English",
  "images": [
    "https://img-proxy.imgfo.com/?referer=https://manganelo.com&url=https://s41.mkklcdnv6temp.com/mangakakalot/g1/garouden/vol16_chapter_141/1.jpg",
    "https://img-proxy.imgfo.com/?referer=https://manganelo.com&url=https://s41.mkklcdnv6temp.com/mangakakalot/g1/garouden/vol16_chapter_141/2.jpg",
    "https://img-proxy.imgfo.com/?referer=https://manganelo.com&url=https://s41.mkklcdnv6temp.com/mangakakalot/g1/garouden/vol16_chapter_141/3.jpg",
    "https://img-proxy.imgfo.com/?referer=https://manganelo.com&url=https://s41.mkklcdnv6temp.com/mangakakalot/g1/garouden/vol16_chapter_141/4.jpg",
    "https://img-proxy.imgfo.com/?referer=https://manganelo.com&url=https://s41.mkklcdnv6temp.com/mangakakalot/g1/garouden/vol16_chapter_141/5.jpg",
    "https://img-proxy.imgfo.com/?referer=https://manganelo.com&url=https://s41.mkklcdnv6temp.com/mangakakalot/g1/garouden/vol16_chapter_141/6.jpg",
    "https://img-proxy.imgfo.com/?referer=https://manganelo.com&url=https://s41.mkklcdnv6temp.com/mangakakalot/g1/garouden/vol16_chapter_141/7.jpg",
    "https://img-proxy.imgfo.com/?referer=https://manganelo.com&url=https://s41.mkklcdnv6temp.com/mangakakalot/g1/garouden/vol16_chapter_141/8.jpg",
    "https://img-proxy.imgfo.com/?referer=https://manganelo.com&url=https://s41.mkklcdnv6temp.com/mangakakalot/g1/garouden/vol16_chapter_141/9.jpg",
    "https://img-proxy.imgfo.com/?referer=https://manganelo.com&url=https://s41.mkklcdnv6temp.com/mangakakalot/g1/garouden/vol16_chapter_141/10.jpg",
    "https://img-proxy.imgfo.com/?referer=https://manganelo.com&url=https://s41.mkklcdnv6temp.com/mangakakalot/g1/garouden/vol16_chapter_141/11.jpg",
    "https://img-proxy.imgfo.com/?referer=https://manganelo.com&url=https://s41.mkklcdnv6temp.com/mangakakalot/g1/garouden/vol16_chapter_141/12.jpg",
    "https://img-proxy.imgfo.com/?referer=https://manganelo.com&url=https://s41.mkklcdnv6temp.com/mangakakalot/g1/garouden/vol16_chapter_141/13.jpg",
    "https://img-proxy.imgfo.com/?referer=https://manganelo.com&url=https://s41.mkklcdnv6temp.com/mangakakalot/g1/garouden/vol16_chapter_141/14.jpg",
    "https://img-proxy.imgfo.com/?referer=https://manganelo.com&url=https://s41.mkklcdnv6temp.com/mangakakalot/g1/garouden/vol16_chapter_141/15.jpg",
    "https://img-proxy.imgfo.com/?referer=https://manganelo.com&url=https://s41.mkklcdnv6temp.com/mangakakalot/g1/garouden/vol16_chapter_141/16.jpg"
  ]
}