{
  "cover": "https://avt.mkklcdnv6.com/20/u/5-1583472652.jpg",
  "title": "Yurara No Tsuki",
  "original": "ゆららの月 ; 朦胧的月 ; Yurara's Moon ; Yurara",
  "genre": "Comedy, Romance, School life, Shoujo, Supernatural, Manga",
  "author": "Shiomi Chika",
  "status": "Completed",
  "backlink": "https://manganu.com/collections/shiomi-chika/yurara-no-tsuki/",
  "description": "Yurara just wanted to live a normal life, that is to say... a life without needing to worry about ghosts. But that proves to be hard when her current school is filled with them. All of a sudden, she's being targetted by a ghost that lingers over her desk. What's worst is that super popular guys, Meiwa and Yakou, started paying attention to her as well. Between dodging dagger looks from girls and surviving ghost attacks, Yurara is about to unleash her other personality and her true hidden powers. How is Yurara suppose live the normal life that she dreamt of for so long?\nNote: Prequel of Rasetsu no Hana",
  "language": "English",
  "images": [
    "https://img-proxy.imgfo.com/?referer=https://manganelo.com&url=https://s7.mkklcdnv6temp.com/mangakakalot/y2/yurara_no_tsuki/vol3_chapter_11/1.jpg",
    "https://img-proxy.imgfo.com/?referer=https://manganelo.com&url=https://s7.mkklcdnv6temp.com/mangakakalot/y2/yurara_no_tsuki/vol3_chapter_11/2.jpg",
    "https://img-proxy.imgfo.com/?referer=https://manganelo.com&url=https://s7.mkklcdnv6temp.com/mangakakalot/y2/yurara_no_tsuki/vol3_chapter_11/3.jpg",
    "https://img-proxy.imgfo.com/?referer=https://manganelo.com&url=https://s7.mkklcdnv6temp.com/mangakakalot/y2/yurara_no_tsuki/vol3_chapter_11/4.jpg",
    "https://img-proxy.imgfo.com/?referer=https://manganelo.com&url=https://s7.mkklcdnv6temp.com/mangakakalot/y2/yurara_no_tsuki/vol3_chapter_11/5.jpg",
    "https://img-proxy.imgfo.com/?referer=https://manganelo.com&url=https://s7.mkklcdnv6temp.com/mangakakalot/y2/yurara_no_tsuki/vol3_chapter_11/6.jpg",
    "https://img-proxy.imgfo.com/?referer=https://manganelo.com&url=https://s7.mkklcdnv6temp.com/mangakakalot/y2/yurara_no_tsuki/vol3_chapter_11/7.jpg",
    "https://img-proxy.imgfo.com/?referer=https://manganelo.com&url=https://s7.mkklcdnv6temp.com/mangakakalot/y2/yurara_no_tsuki/vol3_chapter_11/8.jpg",
    "https://img-proxy.imgfo.com/?referer=https://manganelo.com&url=https://s7.mkklcdnv6temp.com/mangakakalot/y2/yurara_no_tsuki/vol3_chapter_11/9.jpg",
    "https://img-proxy.imgfo.com/?referer=https://manganelo.com&url=https://s7.mkklcdnv6temp.com/mangakakalot/y2/yurara_no_tsuki/vol3_chapter_11/10.jpg",
    "https://img-proxy.imgfo.com/?referer=https://manganelo.com&url=https://s7.mkklcdnv6temp.com/mangakakalot/y2/yurara_no_tsuki/vol3_chapter_11/11.jpg",
    "https://img-proxy.imgfo.com/?referer=https://manganelo.com&url=https://s7.mkklcdnv6temp.com/mangakakalot/y2/yurara_no_tsuki/vol3_chapter_11/12.jpg",
    "https://img-proxy.imgfo.com/?referer=https://manganelo.com&url=https://s7.mkklcdnv6temp.com/mangakakalot/y2/yurara_no_tsuki/vol3_chapter_11/13.jpg",
    "https://img-proxy.imgfo.com/?referer=https://manganelo.com&url=https://s7.mkklcdnv6temp.com/mangakakalot/y2/yurara_no_tsuki/vol3_chapter_11/14.jpg",
    "https://img-proxy.imgfo.com/?referer=https://manganelo.com&url=https://s7.mkklcdnv6temp.com/mangakakalot/y2/yurara_no_tsuki/vol3_chapter_11/15.jpg",
    "https://img-proxy.imgfo.com/?referer=https://manganelo.com&url=https://s7.mkklcdnv6temp.com/mangakakalot/y2/yurara_no_tsuki/vol3_chapter_11/16.jpg",
    "https://img-proxy.imgfo.com/?referer=https://manganelo.com&url=https://s7.mkklcdnv6temp.com/mangakakalot/y2/yurara_no_tsuki/vol3_chapter_11/17.jpg",
    "https://img-proxy.imgfo.com/?referer=https://manganelo.com&url=https://s7.mkklcdnv6temp.com/mangakakalot/y2/yurara_no_tsuki/vol3_chapter_11/18.jpg",
    "https://img-proxy.imgfo.com/?referer=https://manganelo.com&url=https://s7.mkklcdnv6temp.com/mangakakalot/y2/yurara_no_tsuki/vol3_chapter_11/19.jpg",
    "https://img-proxy.imgfo.com/?referer=https://manganelo.com&url=https://s7.mkklcdnv6temp.com/mangakakalot/y2/yurara_no_tsuki/vol3_chapter_11/20.jpg",
    "https://img-proxy.imgfo.com/?referer=https://manganelo.com&url=https://s7.mkklcdnv6temp.com/mangakakalot/y2/yurara_no_tsuki/vol3_chapter_11/21.jpg",
    "https://img-proxy.imgfo.com/?referer=https://manganelo.com&url=https://s7.mkklcdnv6temp.com/mangakakalot/y2/yurara_no_tsuki/vol3_chapter_11/22.jpg",
    "https://img-proxy.imgfo.com/?referer=https://manganelo.com&url=https://s7.mkklcdnv6temp.com/mangakakalot/y2/yurara_no_tsuki/vol3_chapter_11/23.jpg",
    "https://img-proxy.imgfo.com/?referer=https://manganelo.com&url=https://s7.mkklcdnv6temp.com/mangakakalot/y2/yurara_no_tsuki/vol3_chapter_11/24.jpg",
    "https://img-proxy.imgfo.com/?referer=https://manganelo.com&url=https://s7.mkklcdnv6temp.com/mangakakalot/y2/yurara_no_tsuki/vol3_chapter_11/25.jpg",
    "https://img-proxy.imgfo.com/?referer=https://manganelo.com&url=https://s7.mkklcdnv6temp.com/mangakakalot/y2/yurara_no_tsuki/vol3_chapter_11/26.jpg",
    "https://img-proxy.imgfo.com/?referer=https://manganelo.com&url=https://s7.mkklcdnv6temp.com/mangakakalot/y2/yurara_no_tsuki/vol3_chapter_11/27.jpg",
    "https://img-proxy.imgfo.com/?referer=https://manganelo.com&url=https://s7.mkklcdnv6temp.com/mangakakalot/y2/yurara_no_tsuki/vol3_chapter_11/28.jpg",
    "https://img-proxy.imgfo.com/?referer=https://manganelo.com&url=https://s7.mkklcdnv6temp.com/mangakakalot/y2/yurara_no_tsuki/vol3_chapter_11/29.jpg",
    "https://img-proxy.imgfo.com/?referer=https://manganelo.com&url=https://s7.mkklcdnv6temp.com/mangakakalot/y2/yurara_no_tsuki/vol3_chapter_11/30.jpg",
    "https://img-proxy.imgfo.com/?referer=https://manganelo.com&url=https://s7.mkklcdnv6temp.com/mangakakalot/y2/yurara_no_tsuki/vol3_chapter_11/31.jpg",
    "https://img-proxy.imgfo.com/?referer=https://manganelo.com&url=https://s7.mkklcdnv6temp.com/mangakakalot/y2/yurara_no_tsuki/vol3_chapter_11/32.jpg",
    "https://img-proxy.imgfo.com/?referer=https://manganelo.com&url=https://s7.mkklcdnv6temp.com/mangakakalot/y2/yurara_no_tsuki/vol3_chapter_11/33.jpg",
    "https://img-proxy.imgfo.com/?referer=https://manganelo.com&url=https://s7.mkklcdnv6temp.com/mangakakalot/y2/yurara_no_tsuki/vol3_chapter_11/34.jpg",
    "https://img-proxy.imgfo.com/?referer=https://manganelo.com&url=https://s7.mkklcdnv6temp.com/mangakakalot/y2/yurara_no_tsuki/vol3_chapter_11/35.jpg",
    "https://img-proxy.imgfo.com/?referer=https://manganelo.com&url=https://s7.mkklcdnv6temp.com/mangakakalot/y2/yurara_no_tsuki/vol3_chapter_11/36.jpg",
    "https://img-proxy.imgfo.com/?referer=https://manganelo.com&url=https://s7.mkklcdnv6temp.com/mangakakalot/y2/yurara_no_tsuki/vol3_chapter_11/37.jpg",
    "https://img-proxy.imgfo.com/?referer=https://manganelo.com&url=https://s7.mkklcdnv6temp.com/mangakakalot/y2/yurara_no_tsuki/vol3_chapter_11/38.jpg",
    "https://img-proxy.imgfo.com/?referer=https://manganelo.com&url=https://s7.mkklcdnv6temp.com/mangakakalot/y2/yurara_no_tsuki/vol3_chapter_11/39.jpg",
    "https://img-proxy.imgfo.com/?referer=https://manganelo.com&url=https://s7.mkklcdnv6temp.com/mangakakalot/y2/yurara_no_tsuki/vol3_chapter_11/40.jpg",
    "https://img-proxy.imgfo.com/?referer=https://manganelo.com&url=https://s7.mkklcdnv6temp.com/mangakakalot/y2/yurara_no_tsuki/vol3_chapter_11/41.jpg",
    "https://img-proxy.imgfo.com/?referer=https://manganelo.com&url=https://s7.mkklcdnv6temp.com/mangakakalot/y2/yurara_no_tsuki/vol3_chapter_11/42.jpg"
  ]
}