{
  "cover": "https://avt.mkklcdnv6.com/49/r/10-1583483971.jpg",
  "title": "K No Souretsu",
  "original": "A Funeral Procession of K ; Funeral Procession of K ; Kの葬列 ; The Funeral Procession of K",
  "genre": "Drama, Josei, Mystery, Psychological, Manga",
  "author": "Kusumoto Maki",
  "status": "Completed",
  "backlink": "https://manganu.com/collections/kusumoto-maki/k-no-souretsu/",
  "description": "The funeral bells are ringing the day that Mikaya moves into his new apartment. However, once he arrives, he learns a startling fact: the room he's moving into belonged to the dead man, K. Strangely enough, no one ever found K's body. Where is the body, and which of his eccentric neighbors was the one who killed K...?",
  "language": "English",
  "images": [
    "https://img-proxy.imgfo.com/?referer=https://manganelo.com&url=https://s7.mkklcdnv6temp.com/mangakakalot/k2/k_no_souretsu/vol1_chapter_4/1.jpg",
    "https://img-proxy.imgfo.com/?referer=https://manganelo.com&url=https://s7.mkklcdnv6temp.com/mangakakalot/k2/k_no_souretsu/vol1_chapter_4/2.jpg",
    "https://img-proxy.imgfo.com/?referer=https://manganelo.com&url=https://s7.mkklcdnv6temp.com/mangakakalot/k2/k_no_souretsu/vol1_chapter_4/3.jpg",
    "https://img-proxy.imgfo.com/?referer=https://manganelo.com&url=https://s7.mkklcdnv6temp.com/mangakakalot/k2/k_no_souretsu/vol1_chapter_4/4.jpg",
    "https://img-proxy.imgfo.com/?referer=https://manganelo.com&url=https://s7.mkklcdnv6temp.com/mangakakalot/k2/k_no_souretsu/vol1_chapter_4/5.jpg",
    "https://img-proxy.imgfo.com/?referer=https://manganelo.com&url=https://s7.mkklcdnv6temp.com/mangakakalot/k2/k_no_souretsu/vol1_chapter_4/6.jpg",
    "https://img-proxy.imgfo.com/?referer=https://manganelo.com&url=https://s7.mkklcdnv6temp.com/mangakakalot/k2/k_no_souretsu/vol1_chapter_4/7.jpg",
    "https://img-proxy.imgfo.com/?referer=https://manganelo.com&url=https://s7.mkklcdnv6temp.com/mangakakalot/k2/k_no_souretsu/vol1_chapter_4/8.jpg",
    "https://img-proxy.imgfo.com/?referer=https://manganelo.com&url=https://s7.mkklcdnv6temp.com/mangakakalot/k2/k_no_souretsu/vol1_chapter_4/9.jpg"
  ]
}