{
  "cover": "https://avt.mkklcdnv6.com/31/v/3-1583468929.jpg",
  "title": "Seven Days",
  "original": "セブンデイズ ; 星期戀人 ; Seven Days ; سبعة أيام - ; Siete Dias (Spanish) ; Pitong Araw (Filipino) ; Syv dage (Danish) ; सात दिनr ; Sapte Zile (Romanian)",
  "genre": "Drama, Romance, School life, Shounen ai, Slice of life, Manga",
  "author": "Tachibana Benio",
  "status": "Completed",
  "backlink": "https://manganu.com/collections/tachibana-benio/seven-days/",
  "description": "From Vices and Devices:\nBright and early one Monday morning, Shino Yuzuru asks Seryou Touji out on a lark when they run into each other at the school gate. Seryou, who's immensely popular, has the odd habit of going out with anyone who asks him out first at the beginning of the week, then promptly dumping them at the end of it. \"Anyone\" apparently includes male upperclassmen like Shino, and as a boyfriend, Seryou is perfect--unfailingly thoughtful and kind. Shino, obviously, has no intention of being in a serious relationship with Seryou. It's not like it's actually love or anything like that. ...Right?",
  "language": "English",
  "images": [
    "https://img-proxy.imgfo.com/?referer=https://manganelo.com&url=https://s3.mkklcdnv6temp.com/mangakakalot/s1/seven_days/vol1_chapter_5_thursday/1.jpg",
    "https://img-proxy.imgfo.com/?referer=https://manganelo.com&url=https://s3.mkklcdnv6temp.com/mangakakalot/s1/seven_days/vol1_chapter_5_thursday/2.jpg",
    "https://img-proxy.imgfo.com/?referer=https://manganelo.com&url=https://s3.mkklcdnv6temp.com/mangakakalot/s1/seven_days/vol1_chapter_5_thursday/3.jpg",
    "https://img-proxy.imgfo.com/?referer=https://manganelo.com&url=https://s3.mkklcdnv6temp.com/mangakakalot/s1/seven_days/vol1_chapter_5_thursday/4.jpg",
    "https://img-proxy.imgfo.com/?referer=https://manganelo.com&url=https://s3.mkklcdnv6temp.com/mangakakalot/s1/seven_days/vol1_chapter_5_thursday/5.jpg",
    "https://img-proxy.imgfo.com/?referer=https://manganelo.com&url=https://s3.mkklcdnv6temp.com/mangakakalot/s1/seven_days/vol1_chapter_5_thursday/6.jpg",
    "https://img-proxy.imgfo.com/?referer=https://manganelo.com&url=https://s3.mkklcdnv6temp.com/mangakakalot/s1/seven_days/vol1_chapter_5_thursday/7.jpg",
    "https://img-proxy.imgfo.com/?referer=https://manganelo.com&url=https://s3.mkklcdnv6temp.com/mangakakalot/s1/seven_days/vol1_chapter_5_thursday/8.jpg",
    "https://img-proxy.imgfo.com/?referer=https://manganelo.com&url=https://s3.mkklcdnv6temp.com/mangakakalot/s1/seven_days/vol1_chapter_5_thursday/9.jpg",
    "https://img-proxy.imgfo.com/?referer=https://manganelo.com&url=https://s3.mkklcdnv6temp.com/mangakakalot/s1/seven_days/vol1_chapter_5_thursday/10.jpg",
    "https://img-proxy.imgfo.com/?referer=https://manganelo.com&url=https://s3.mkklcdnv6temp.com/mangakakalot/s1/seven_days/vol1_chapter_5_thursday/11.jpg",
    "https://img-proxy.imgfo.com/?referer=https://manganelo.com&url=https://s3.mkklcdnv6temp.com/mangakakalot/s1/seven_days/vol1_chapter_5_thursday/12.jpg",
    "https://img-proxy.imgfo.com/?referer=https://manganelo.com&url=https://s3.mkklcdnv6temp.com/mangakakalot/s1/seven_days/vol1_chapter_5_thursday/13.jpg",
    "https://img-proxy.imgfo.com/?referer=https://manganelo.com&url=https://s3.mkklcdnv6temp.com/mangakakalot/s1/seven_days/vol1_chapter_5_thursday/14.jpg",
    "https://img-proxy.imgfo.com/?referer=https://manganelo.com&url=https://s3.mkklcdnv6temp.com/mangakakalot/s1/seven_days/vol1_chapter_5_thursday/15.jpg",
    "https://img-proxy.imgfo.com/?referer=https://manganelo.com&url=https://s3.mkklcdnv6temp.com/mangakakalot/s1/seven_days/vol1_chapter_5_thursday/16.jpg",
    "https://img-proxy.imgfo.com/?referer=https://manganelo.com&url=https://s3.mkklcdnv6temp.com/mangakakalot/s1/seven_days/vol1_chapter_5_thursday/17.jpg",
    "https://img-proxy.imgfo.com/?referer=https://manganelo.com&url=https://s3.mkklcdnv6temp.com/mangakakalot/s1/seven_days/vol1_chapter_5_thursday/18.jpg",
    "https://img-proxy.imgfo.com/?referer=https://manganelo.com&url=https://s3.mkklcdnv6temp.com/mangakakalot/s1/seven_days/vol1_chapter_5_thursday/19.jpg",
    "https://img-proxy.imgfo.com/?referer=https://manganelo.com&url=https://s3.mkklcdnv6temp.com/mangakakalot/s1/seven_days/vol1_chapter_5_thursday/20.jpg",
    "https://img-proxy.imgfo.com/?referer=https://manganelo.com&url=https://s3.mkklcdnv6temp.com/mangakakalot/s1/seven_days/vol1_chapter_5_thursday/21.jpg",
    "https://img-proxy.imgfo.com/?referer=https://manganelo.com&url=https://s3.mkklcdnv6temp.com/mangakakalot/s1/seven_days/vol1_chapter_5_thursday/22.jpg",
    "https://img-proxy.imgfo.com/?referer=https://manganelo.com&url=https://s3.mkklcdnv6temp.com/mangakakalot/s1/seven_days/vol1_chapter_5_thursday/23.jpg",
    "https://img-proxy.imgfo.com/?referer=https://manganelo.com&url=https://s3.mkklcdnv6temp.com/mangakakalot/s1/seven_days/vol1_chapter_5_thursday/24.jpg",
    "https://img-proxy.imgfo.com/?referer=https://manganelo.com&url=https://s3.mkklcdnv6temp.com/mangakakalot/s1/seven_days/vol1_chapter_5_thursday/25.jpg",
    "https://img-proxy.imgfo.com/?referer=https://manganelo.com&url=https://s3.mkklcdnv6temp.com/mangakakalot/s1/seven_days/vol1_chapter_5_thursday/26.jpg",
    "https://img-proxy.imgfo.com/?referer=https://manganelo.com&url=https://s3.mkklcdnv6temp.com/mangakakalot/s1/seven_days/vol1_chapter_5_thursday/27.jpg",
    "https://img-proxy.imgfo.com/?referer=https://manganelo.com&url=https://s3.mkklcdnv6temp.com/mangakakalot/s1/seven_days/vol1_chapter_5_thursday/28.jpg",
    "https://img-proxy.imgfo.com/?referer=https://manganelo.com&url=https://s3.mkklcdnv6temp.com/mangakakalot/s1/seven_days/vol1_chapter_5_thursday/29.jpg",
    "https://img-proxy.imgfo.com/?referer=https://manganelo.com&url=https://s3.mkklcdnv6temp.com/mangakakalot/s1/seven_days/vol1_chapter_5_thursday/30.jpg",
    "https://img-proxy.imgfo.com/?referer=https://manganelo.com&url=https://s3.mkklcdnv6temp.com/mangakakalot/s1/seven_days/vol1_chapter_5_thursday/31.jpg",
    "https://img-proxy.imgfo.com/?referer=https://manganelo.com&url=https://s3.mkklcdnv6temp.com/mangakakalot/s1/seven_days/vol1_chapter_5_thursday/32.jpg",
    "https://img-proxy.imgfo.com/?referer=https://manganelo.com&url=https://s3.mkklcdnv6temp.com/mangakakalot/s1/seven_days/vol1_chapter_5_thursday/33.jpg",
    "https://img-proxy.imgfo.com/?referer=https://manganelo.com&url=https://s3.mkklcdnv6temp.com/mangakakalot/s1/seven_days/vol1_chapter_5_thursday/34.jpg"
  ]
}