{
  "cover": "https://avt.mkklcdnv6.com/31/m/10-1583483305.jpg",
  "title": "Onmyou Taisenki",
  "original": "陰陽大戦記 ; Onmyō Taisenki",
  "genre": "Action, Historical, Shounen, Manga",
  "author": "Kaidou Hiroyuki",
  "status": "Completed",
  "backlink": "https://manganu.com/collections/kaidou-hiroyuki/onmyou-taisenki/",
  "description": "[From Wikipedia]:\nThe Onmyou Taisenki manga does not tell the same history as the anime. The story happens years before the events in the anime.\nThe main character, Yakumo (who also appears on the anime, as a teenager) is the son of Monju, the chef priest of the Taihaku Temple, in Kyoto. Yakumo also trains the In, with a baseball ball. In this temple, a Toujinshi (闘神土, literally 'god of war'), and Monju's former teacher, Mahoroba, is imprisioned.\nThe problems start when Mahoroba escapes, gains power, and transforms Monju into stone. Yakumo is called by a Zero Drive, which was one of the treasures of the temple. This Zero Drive handles Byakko no Kogenta. The story of the manga is about Yakumo's first steps with a Shikigami, training with Idzuna (Taihaku Temple's shrine maiden) and seeking Mahoroba through various Japanese historical dates. Famous Japanese historical characters such as Oda Nobunaga can be seen on the manga.",
  "language": "English",
  "images": [
    "https://img-proxy.imgfo.com/?referer=https://manganelo.com&url=https://s7.mkklcdnv6temp.com/mangakakalot/o1/onmyou_taisenki/vol3_chapter_19_v2_in_19_angry_sisters_enoki_no_sanemaro_houjo_no_nene_houjou_no_r/1.jpg",
    "https://img-proxy.imgfo.com/?referer=https://manganelo.com&url=https://s7.mkklcdnv6temp.com/mangakakalot/o1/onmyou_taisenki/vol3_chapter_19_v2_in_19_angry_sisters_enoki_no_sanemaro_houjo_no_nene_houjou_no_r/2.jpg",
    "https://img-proxy.imgfo.com/?referer=https://manganelo.com&url=https://s7.mkklcdnv6temp.com/mangakakalot/o1/onmyou_taisenki/vol3_chapter_19_v2_in_19_angry_sisters_enoki_no_sanemaro_houjo_no_nene_houjou_no_r/3.jpg",
    "https://img-proxy.imgfo.com/?referer=https://manganelo.com&url=https://s7.mkklcdnv6temp.com/mangakakalot/o1/onmyou_taisenki/vol3_chapter_19_v2_in_19_angry_sisters_enoki_no_sanemaro_houjo_no_nene_houjou_no_r/4.jpg",
    "https://img-proxy.imgfo.com/?referer=https://manganelo.com&url=https://s7.mkklcdnv6temp.com/mangakakalot/o1/onmyou_taisenki/vol3_chapter_19_v2_in_19_angry_sisters_enoki_no_sanemaro_houjo_no_nene_houjou_no_r/5.jpg",
    "https://img-proxy.imgfo.com/?referer=https://manganelo.com&url=https://s7.mkklcdnv6temp.com/mangakakalot/o1/onmyou_taisenki/vol3_chapter_19_v2_in_19_angry_sisters_enoki_no_sanemaro_houjo_no_nene_houjou_no_r/6.jpg",
    "https://img-proxy.imgfo.com/?referer=https://manganelo.com&url=https://s7.mkklcdnv6temp.com/mangakakalot/o1/onmyou_taisenki/vol3_chapter_19_v2_in_19_angry_sisters_enoki_no_sanemaro_houjo_no_nene_houjou_no_r/7.jpg",
    "https://img-proxy.imgfo.com/?referer=https://manganelo.com&url=https://s7.mkklcdnv6temp.com/mangakakalot/o1/onmyou_taisenki/vol3_chapter_19_v2_in_19_angry_sisters_enoki_no_sanemaro_houjo_no_nene_houjou_no_r/8.jpg",
    "https://img-proxy.imgfo.com/?referer=https://manganelo.com&url=https://s7.mkklcdnv6temp.com/mangakakalot/o1/onmyou_taisenki/vol3_chapter_19_v2_in_19_angry_sisters_enoki_no_sanemaro_houjo_no_nene_houjou_no_r/9.jpg",
    "https://img-proxy.imgfo.com/?referer=https://manganelo.com&url=https://s7.mkklcdnv6temp.com/mangakakalot/o1/onmyou_taisenki/vol3_chapter_19_v2_in_19_angry_sisters_enoki_no_sanemaro_houjo_no_nene_houjou_no_r/10.jpg",
    "https://img-proxy.imgfo.com/?referer=https://manganelo.com&url=https://s7.mkklcdnv6temp.com/mangakakalot/o1/onmyou_taisenki/vol3_chapter_19_v2_in_19_angry_sisters_enoki_no_sanemaro_houjo_no_nene_houjou_no_r/11.jpg",
    "https://img-proxy.imgfo.com/?referer=https://manganelo.com&url=https://s7.mkklcdnv6temp.com/mangakakalot/o1/onmyou_taisenki/vol3_chapter_19_v2_in_19_angry_sisters_enoki_no_sanemaro_houjo_no_nene_houjou_no_r/12.jpg",
    "https://img-proxy.imgfo.com/?referer=https://manganelo.com&url=https://s7.mkklcdnv6temp.com/mangakakalot/o1/onmyou_taisenki/vol3_chapter_19_v2_in_19_angry_sisters_enoki_no_sanemaro_houjo_no_nene_houjou_no_r/13.jpg",
    "https://img-proxy.imgfo.com/?referer=https://manganelo.com&url=https://s7.mkklcdnv6temp.com/mangakakalot/o1/onmyou_taisenki/vol3_chapter_19_v2_in_19_angry_sisters_enoki_no_sanemaro_houjo_no_nene_houjou_no_r/14.jpg",
    "https://img-proxy.imgfo.com/?referer=https://manganelo.com&url=https://s7.mkklcdnv6temp.com/mangakakalot/o1/onmyou_taisenki/vol3_chapter_19_v2_in_19_angry_sisters_enoki_no_sanemaro_houjo_no_nene_houjou_no_r/15.jpg",
    "https://img-proxy.imgfo.com/?referer=https://manganelo.com&url=https://s7.mkklcdnv6temp.com/mangakakalot/o1/onmyou_taisenki/vol3_chapter_19_v2_in_19_angry_sisters_enoki_no_sanemaro_houjo_no_nene_houjou_no_r/16.jpg",
    "https://img-proxy.imgfo.com/?referer=https://manganelo.com&url=https://s7.mkklcdnv6temp.com/mangakakalot/o1/onmyou_taisenki/vol3_chapter_19_v2_in_19_angry_sisters_enoki_no_sanemaro_houjo_no_nene_houjou_no_r/17.jpg",
    "https://img-proxy.imgfo.com/?referer=https://manganelo.com&url=https://s7.mkklcdnv6temp.com/mangakakalot/o1/onmyou_taisenki/vol3_chapter_19_v2_in_19_angry_sisters_enoki_no_sanemaro_houjo_no_nene_houjou_no_r/18.jpg",
    "https://img-proxy.imgfo.com/?referer=https://manganelo.com&url=https://s7.mkklcdnv6temp.com/mangakakalot/o1/onmyou_taisenki/vol3_chapter_19_v2_in_19_angry_sisters_enoki_no_sanemaro_houjo_no_nene_houjou_no_r/19.jpg",
    "https://img-proxy.imgfo.com/?referer=https://manganelo.com&url=https://s7.mkklcdnv6temp.com/mangakakalot/o1/onmyou_taisenki/vol3_chapter_19_v2_in_19_angry_sisters_enoki_no_sanemaro_houjo_no_nene_houjou_no_r/20.jpg",
    "https://img-proxy.imgfo.com/?referer=https://manganelo.com&url=https://s7.mkklcdnv6temp.com/mangakakalot/o1/onmyou_taisenki/vol3_chapter_19_v2_in_19_angry_sisters_enoki_no_sanemaro_houjo_no_nene_houjou_no_r/21.jpg",
    "https://img-proxy.imgfo.com/?referer=https://manganelo.com&url=https://s7.mkklcdnv6temp.com/mangakakalot/o1/onmyou_taisenki/vol3_chapter_19_v2_in_19_angry_sisters_enoki_no_sanemaro_houjo_no_nene_houjou_no_r/22.jpg",
    "https://img-proxy.imgfo.com/?referer=https://manganelo.com&url=https://s7.mkklcdnv6temp.com/mangakakalot/o1/onmyou_taisenki/vol3_chapter_19_v2_in_19_angry_sisters_enoki_no_sanemaro_houjo_no_nene_houjou_no_r/23.jpg",
    "https://img-proxy.imgfo.com/?referer=https://manganelo.com&url=https://s7.mkklcdnv6temp.com/mangakakalot/o1/onmyou_taisenki/vol3_chapter_19_v2_in_19_angry_sisters_enoki_no_sanemaro_houjo_no_nene_houjou_no_r/24.jpg"
  ]
}