{
  "cover": "https://avt.mkklcdnv6.com/1/p/6-1583476335.jpg",
  "title": "Angel/dust",
  "original": "エンジェル/ダスト ; 天使之尘",
  "genre": "Drama, Fantasy, Shoujo ai, Tragedy, Manga",
  "author": "Nanase Aoi",
  "status": "Completed",
  "backlink": "https://manganu.com/collections/nanase-aoi/angel-dust/",
  "description": "A mysterious creature has fallen from the sky and landed right at young Yuina's feet! Branded as the master of this new angelic being, Yuina is forced into an otherworldly pact, one that will take her beyond the clouds and into battle against a new and yet hauntingly familiar evil, one that patiently waits in the shadows.",
  "language": "English",
  "images": [
    "https://img-proxy.imgfo.com/?referer=https://manganelo.com&url=https://s41.mkklcdnv6temp.com/mangakakalot/a1/angeldust/vol1_chapter_3_childhood_friend/1.jpg",
    "https://img-proxy.imgfo.com/?referer=https://manganelo.com&url=https://s41.mkklcdnv6temp.com/mangakakalot/a1/angeldust/vol1_chapter_3_childhood_friend/2.jpg",
    "https://img-proxy.imgfo.com/?referer=https://manganelo.com&url=https://s41.mkklcdnv6temp.com/mangakakalot/a1/angeldust/vol1_chapter_3_childhood_friend/3.jpg",
    "https://img-proxy.imgfo.com/?referer=https://manganelo.com&url=https://s41.mkklcdnv6temp.com/mangakakalot/a1/angeldust/vol1_chapter_3_childhood_friend/4.jpg",
    "https://img-proxy.imgfo.com/?referer=https://manganelo.com&url=https://s41.mkklcdnv6temp.com/mangakakalot/a1/angeldust/vol1_chapter_3_childhood_friend/5.jpg",
    "https://img-proxy.imgfo.com/?referer=https://manganelo.com&url=https://s41.mkklcdnv6temp.com/mangakakalot/a1/angeldust/vol1_chapter_3_childhood_friend/6.jpg",
    "https://img-proxy.imgfo.com/?referer=https://manganelo.com&url=https://s41.mkklcdnv6temp.com/mangakakalot/a1/angeldust/vol1_chapter_3_childhood_friend/7.jpg",
    "https://img-proxy.imgfo.com/?referer=https://manganelo.com&url=https://s41.mkklcdnv6temp.com/mangakakalot/a1/angeldust/vol1_chapter_3_childhood_friend/8.jpg",
    "https://img-proxy.imgfo.com/?referer=https://manganelo.com&url=https://s41.mkklcdnv6temp.com/mangakakalot/a1/angeldust/vol1_chapter_3_childhood_friend/9.jpg",
    "https://img-proxy.imgfo.com/?referer=https://manganelo.com&url=https://s41.mkklcdnv6temp.com/mangakakalot/a1/angeldust/vol1_chapter_3_childhood_friend/10.jpg",
    "https://img-proxy.imgfo.com/?referer=https://manganelo.com&url=https://s41.mkklcdnv6temp.com/mangakakalot/a1/angeldust/vol1_chapter_3_childhood_friend/11.jpg",
    "https://img-proxy.imgfo.com/?referer=https://manganelo.com&url=https://s41.mkklcdnv6temp.com/mangakakalot/a1/angeldust/vol1_chapter_3_childhood_friend/12.jpg",
    "https://img-proxy.imgfo.com/?referer=https://manganelo.com&url=https://s41.mkklcdnv6temp.com/mangakakalot/a1/angeldust/vol1_chapter_3_childhood_friend/13.jpg",
    "https://img-proxy.imgfo.com/?referer=https://manganelo.com&url=https://s41.mkklcdnv6temp.com/mangakakalot/a1/angeldust/vol1_chapter_3_childhood_friend/14.jpg",
    "https://img-proxy.imgfo.com/?referer=https://manganelo.com&url=https://s41.mkklcdnv6temp.com/mangakakalot/a1/angeldust/vol1_chapter_3_childhood_friend/15.jpg",
    "https://img-proxy.imgfo.com/?referer=https://manganelo.com&url=https://s41.mkklcdnv6temp.com/mangakakalot/a1/angeldust/vol1_chapter_3_childhood_friend/16.jpg"
  ]
}