{
  "cover": "https://avt.mkklcdnv6.com/13/s/4-1583470230.jpg",
  "title": "Ai Yori Aoshi",
  "original": "未婚關係 ; 藍より青し ; 青出于蓝 ; 쪽보다 푸른 (천생연분) ; Azul ; Bleu Indigo ; Bluer than Indigo",
  "genre": "Comedy, Drama, Ecchi, Harem, Romance, Seinen, Slice of life, Manga",
  "author": "Fumizuki Kou",
  "status": "Completed",
  "backlink": "https://manganu.com/collections/fumizuki-kou/ai-yori-aoshi/",
  "description": "Despite her family&#39;s protests, Aoi Sakuraba decides that she is going to marry Kaoru Hanabishi, her love of eighteen years. Once he realizes that her intentions are genuine - and that she&#39;s not just trying to get him to reconcile with his estranged (and domineering) family - he begins to definitely warm up to the idea, too. What obstacles must the two overcome in order to be together?",
  "language": "English",
  "images": [
    "https://img-proxy.imgfo.com/?referer=https://manganelo.com&url=https://s41.mkklcdnv6temp.com/mangakakalot/a1/ai_yori_aoshi/vol15_chapter_121_kokuhaku_confession/1.jpg",
    "https://img-proxy.imgfo.com/?referer=https://manganelo.com&url=https://s41.mkklcdnv6temp.com/mangakakalot/a1/ai_yori_aoshi/vol15_chapter_121_kokuhaku_confession/2.jpg",
    "https://img-proxy.imgfo.com/?referer=https://manganelo.com&url=https://s41.mkklcdnv6temp.com/mangakakalot/a1/ai_yori_aoshi/vol15_chapter_121_kokuhaku_confession/3.jpg",
    "https://img-proxy.imgfo.com/?referer=https://manganelo.com&url=https://s41.mkklcdnv6temp.com/mangakakalot/a1/ai_yori_aoshi/vol15_chapter_121_kokuhaku_confession/4.jpg",
    "https://img-proxy.imgfo.com/?referer=https://manganelo.com&url=https://s41.mkklcdnv6temp.com/mangakakalot/a1/ai_yori_aoshi/vol15_chapter_121_kokuhaku_confession/5.jpg",
    "https://img-proxy.imgfo.com/?referer=https://manganelo.com&url=https://s41.mkklcdnv6temp.com/mangakakalot/a1/ai_yori_aoshi/vol15_chapter_121_kokuhaku_confession/6.jpg",
    "https://img-proxy.imgfo.com/?referer=https://manganelo.com&url=https://s41.mkklcdnv6temp.com/mangakakalot/a1/ai_yori_aoshi/vol15_chapter_121_kokuhaku_confession/7.jpg",
    "https://img-proxy.imgfo.com/?referer=https://manganelo.com&url=https://s41.mkklcdnv6temp.com/mangakakalot/a1/ai_yori_aoshi/vol15_chapter_121_kokuhaku_confession/8.jpg",
    "https://img-proxy.imgfo.com/?referer=https://manganelo.com&url=https://s41.mkklcdnv6temp.com/mangakakalot/a1/ai_yori_aoshi/vol15_chapter_121_kokuhaku_confession/9.jpg",
    "https://img-proxy.imgfo.com/?referer=https://manganelo.com&url=https://s41.mkklcdnv6temp.com/mangakakalot/a1/ai_yori_aoshi/vol15_chapter_121_kokuhaku_confession/10.jpg"
  ]
}