{
  "cover": "https://avt.mkklcdnv6.com/43/y/6-1583475973.jpg",
  "title": "Beautiful Fascination Is Better Than Love",
  "original": "比愛更美的誘惑 ; 사랑보다 아름다운 유혹 ; Beautiful Seduction Is Better Than Love ; Beautiful Seduction Than Love ; Cám Dỗ ; Seduction Is More Beautiful Than Love ; Seduction More Beautiful Than Love ; Plus beau que l'amour (French) ; Liebe (German)",
  "genre": "Drama, Romance, School life, Shoujo, Slice of life, Manhwa",
  "author": "Lee Hyeon-Sook",
  "status": "Completed",
  "backlink": "https://manganu.com/collections/lee-hyeon-sook/beautiful-fascination-is-better-than-love/",
  "description": "A new teacher, Miss Jung, has a student she particularly worries about. Ryu Min is the top student in the school; he's tall, smart, and handsome. He shocks her by telling her that he wonders what it would feel like to kiss her. What is she to do about him?",
  "language": "English",
  "images": [
    "https://img-proxy.imgfo.com/?referer=https://manganelo.com&url=https://s6.mkklcdnv6temp.com/mangakakalot/b1/beautiful_fascination_is_better_than_love/vol2_chapter_91_unbutton_his_shirt_part_1/1.jpg",
    "https://img-proxy.imgfo.com/?referer=https://manganelo.com&url=https://s6.mkklcdnv6temp.com/mangakakalot/b1/beautiful_fascination_is_better_than_love/vol2_chapter_91_unbutton_his_shirt_part_1/2.jpg",
    "https://img-proxy.imgfo.com/?referer=https://manganelo.com&url=https://s6.mkklcdnv6temp.com/mangakakalot/b1/beautiful_fascination_is_better_than_love/vol2_chapter_91_unbutton_his_shirt_part_1/3.jpg",
    "https://img-proxy.imgfo.com/?referer=https://manganelo.com&url=https://s6.mkklcdnv6temp.com/mangakakalot/b1/beautiful_fascination_is_better_than_love/vol2_chapter_91_unbutton_his_shirt_part_1/4.jpg",
    "https://img-proxy.imgfo.com/?referer=https://manganelo.com&url=https://s6.mkklcdnv6temp.com/mangakakalot/b1/beautiful_fascination_is_better_than_love/vol2_chapter_91_unbutton_his_shirt_part_1/5.jpg",
    "https://img-proxy.imgfo.com/?referer=https://manganelo.com&url=https://s6.mkklcdnv6temp.com/mangakakalot/b1/beautiful_fascination_is_better_than_love/vol2_chapter_91_unbutton_his_shirt_part_1/6.jpg",
    "https://img-proxy.imgfo.com/?referer=https://manganelo.com&url=https://s6.mkklcdnv6temp.com/mangakakalot/b1/beautiful_fascination_is_better_than_love/vol2_chapter_91_unbutton_his_shirt_part_1/7.jpg",
    "https://img-proxy.imgfo.com/?referer=https://manganelo.com&url=https://s6.mkklcdnv6temp.com/mangakakalot/b1/beautiful_fascination_is_better_than_love/vol2_chapter_91_unbutton_his_shirt_part_1/8.jpg",
    "https://img-proxy.imgfo.com/?referer=https://manganelo.com&url=https://s6.mkklcdnv6temp.com/mangakakalot/b1/beautiful_fascination_is_better_than_love/vol2_chapter_91_unbutton_his_shirt_part_1/9.jpg",
    "https://img-proxy.imgfo.com/?referer=https://manganelo.com&url=https://s6.mkklcdnv6temp.com/mangakakalot/b1/beautiful_fascination_is_better_than_love/vol2_chapter_91_unbutton_his_shirt_part_1/10.jpg",
    "https://img-proxy.imgfo.com/?referer=https://manganelo.com&url=https://s6.mkklcdnv6temp.com/mangakakalot/b1/beautiful_fascination_is_better_than_love/vol2_chapter_91_unbutton_his_shirt_part_1/11.jpg",
    "https://img-proxy.imgfo.com/?referer=https://manganelo.com&url=https://s6.mkklcdnv6temp.com/mangakakalot/b1/beautiful_fascination_is_better_than_love/vol2_chapter_91_unbutton_his_shirt_part_1/12.jpg",
    "https://img-proxy.imgfo.com/?referer=https://manganelo.com&url=https://s6.mkklcdnv6temp.com/mangakakalot/b1/beautiful_fascination_is_better_than_love/vol2_chapter_91_unbutton_his_shirt_part_1/13.jpg",
    "https://img-proxy.imgfo.com/?referer=https://manganelo.com&url=https://s6.mkklcdnv6temp.com/mangakakalot/b1/beautiful_fascination_is_better_than_love/vol2_chapter_91_unbutton_his_shirt_part_1/14.jpg",
    "https://img-proxy.imgfo.com/?referer=https://manganelo.com&url=https://s6.mkklcdnv6temp.com/mangakakalot/b1/beautiful_fascination_is_better_than_love/vol2_chapter_91_unbutton_his_shirt_part_1/15.jpg",
    "https://img-proxy.imgfo.com/?referer=https://manganelo.com&url=https://s6.mkklcdnv6temp.com/mangakakalot/b1/beautiful_fascination_is_better_than_love/vol2_chapter_91_unbutton_his_shirt_part_1/16.jpg",
    "https://img-proxy.imgfo.com/?referer=https://manganelo.com&url=https://s6.mkklcdnv6temp.com/mangakakalot/b1/beautiful_fascination_is_better_than_love/vol2_chapter_91_unbutton_his_shirt_part_1/17.jpg",
    "https://img-proxy.imgfo.com/?referer=https://manganelo.com&url=https://s6.mkklcdnv6temp.com/mangakakalot/b1/beautiful_fascination_is_better_than_love/vol2_chapter_91_unbutton_his_shirt_part_1/18.jpg",
    "https://img-proxy.imgfo.com/?referer=https://manganelo.com&url=https://s6.mkklcdnv6temp.com/mangakakalot/b1/beautiful_fascination_is_better_than_love/vol2_chapter_91_unbutton_his_shirt_part_1/19.jpg",
    "https://img-proxy.imgfo.com/?referer=https://manganelo.com&url=https://s6.mkklcdnv6temp.com/mangakakalot/b1/beautiful_fascination_is_better_than_love/vol2_chapter_91_unbutton_his_shirt_part_1/20.jpg",
    "https://img-proxy.imgfo.com/?referer=https://manganelo.com&url=https://s6.mkklcdnv6temp.com/mangakakalot/b1/beautiful_fascination_is_better_than_love/vol2_chapter_91_unbutton_his_shirt_part_1/21.jpg",
    "https://img-proxy.imgfo.com/?referer=https://manganelo.com&url=https://s6.mkklcdnv6temp.com/mangakakalot/b1/beautiful_fascination_is_better_than_love/vol2_chapter_91_unbutton_his_shirt_part_1/22.jpg",
    "https://img-proxy.imgfo.com/?referer=https://manganelo.com&url=https://s6.mkklcdnv6temp.com/mangakakalot/b1/beautiful_fascination_is_better_than_love/vol2_chapter_91_unbutton_his_shirt_part_1/23.jpg",
    "https://img-proxy.imgfo.com/?referer=https://manganelo.com&url=https://s6.mkklcdnv6temp.com/mangakakalot/b1/beautiful_fascination_is_better_than_love/vol2_chapter_91_unbutton_his_shirt_part_1/24.jpg",
    "https://img-proxy.imgfo.com/?referer=https://manganelo.com&url=https://s6.mkklcdnv6temp.com/mangakakalot/b1/beautiful_fascination_is_better_than_love/vol2_chapter_91_unbutton_his_shirt_part_1/25.jpg",
    "https://img-proxy.imgfo.com/?referer=https://manganelo.com&url=https://s6.mkklcdnv6temp.com/mangakakalot/b1/beautiful_fascination_is_better_than_love/vol2_chapter_91_unbutton_his_shirt_part_1/26.jpg",
    "https://img-proxy.imgfo.com/?referer=https://manganelo.com&url=https://s6.mkklcdnv6temp.com/mangakakalot/b1/beautiful_fascination_is_better_than_love/vol2_chapter_91_unbutton_his_shirt_part_1/27.jpg",
    "https://img-proxy.imgfo.com/?referer=https://manganelo.com&url=https://s6.mkklcdnv6temp.com/mangakakalot/b1/beautiful_fascination_is_better_than_love/vol2_chapter_91_unbutton_his_shirt_part_1/28.jpg",
    "https://img-proxy.imgfo.com/?referer=https://manganelo.com&url=https://s6.mkklcdnv6temp.com/mangakakalot/b1/beautiful_fascination_is_better_than_love/vol2_chapter_91_unbutton_his_shirt_part_1/29.jpg",
    "https://img-proxy.imgfo.com/?referer=https://manganelo.com&url=https://s6.mkklcdnv6temp.com/mangakakalot/b1/beautiful_fascination_is_better_than_love/vol2_chapter_91_unbutton_his_shirt_part_1/30.jpg",
    "https://img-proxy.imgfo.com/?referer=https://manganelo.com&url=https://s6.mkklcdnv6temp.com/mangakakalot/b1/beautiful_fascination_is_better_than_love/vol2_chapter_91_unbutton_his_shirt_part_1/31.jpg",
    "https://img-proxy.imgfo.com/?referer=https://manganelo.com&url=https://s6.mkklcdnv6temp.com/mangakakalot/b1/beautiful_fascination_is_better_than_love/vol2_chapter_91_unbutton_his_shirt_part_1/32.jpg",
    "https://img-proxy.imgfo.com/?referer=https://manganelo.com&url=https://s6.mkklcdnv6temp.com/mangakakalot/b1/beautiful_fascination_is_better_than_love/vol2_chapter_91_unbutton_his_shirt_part_1/33.jpg",
    "https://img-proxy.imgfo.com/?referer=https://manganelo.com&url=https://s6.mkklcdnv6temp.com/mangakakalot/b1/beautiful_fascination_is_better_than_love/vol2_chapter_91_unbutton_his_shirt_part_1/34.jpg",
    "https://img-proxy.imgfo.com/?referer=https://manganelo.com&url=https://s6.mkklcdnv6temp.com/mangakakalot/b1/beautiful_fascination_is_better_than_love/vol2_chapter_91_unbutton_his_shirt_part_1/35.jpg"
  ]
}