{
  "cover": "https://avt.mkklcdnv6.com/16/o/4-1583470343.jpg",
  "title": "Bad Girls (Miso)",
  "genre": "Comedy, Romance, Shoujo, Supernatural, Webtoons, Manhwa",
  "author": "Miso",
  "status": "Completed",
  "backlink": "https://manganu.com/collections/miso/bad-girls-miso/",
  "description": "Bad Girls (Miso) summary is updating. Come visit our website sometime to read the latest chapter of Bad Girls (Miso). If you have any question about this manga, Please don't hesitate to contact us or translate team. Hope you enjoy it.",
  "language": "English",
  "images": [
    "https://img-proxy.imgfo.com/?referer=https://manganelo.com&url=https://s6.mkklcdnv6temp.com/mangakakalot/b1/bad_girls_miso/vol1_chapter_19_end/1.jpg",
    "https://img-proxy.imgfo.com/?referer=https://manganelo.com&url=https://s6.mkklcdnv6temp.com/mangakakalot/b1/bad_girls_miso/vol1_chapter_19_end/2.jpg",
    "https://img-proxy.imgfo.com/?referer=https://manganelo.com&url=https://s6.mkklcdnv6temp.com/mangakakalot/b1/bad_girls_miso/vol1_chapter_19_end/3.jpg",
    "https://img-proxy.imgfo.com/?referer=https://manganelo.com&url=https://s6.mkklcdnv6temp.com/mangakakalot/b1/bad_girls_miso/vol1_chapter_19_end/4.jpg",
    "https://img-proxy.imgfo.com/?referer=https://manganelo.com&url=https://s6.mkklcdnv6temp.com/mangakakalot/b1/bad_girls_miso/vol1_chapter_19_end/5.jpg",
    "https://img-proxy.imgfo.com/?referer=https://manganelo.com&url=https://s6.mkklcdnv6temp.com/mangakakalot/b1/bad_girls_miso/vol1_chapter_19_end/6.jpg",
    "https://img-proxy.imgfo.com/?referer=https://manganelo.com&url=https://s6.mkklcdnv6temp.com/mangakakalot/b1/bad_girls_miso/vol1_chapter_19_end/7.jpg",
    "https://img-proxy.imgfo.com/?referer=https://manganelo.com&url=https://s6.mkklcdnv6temp.com/mangakakalot/b1/bad_girls_miso/vol1_chapter_19_end/8.jpg",
    "https://img-proxy.imgfo.com/?referer=https://manganelo.com&url=https://s6.mkklcdnv6temp.com/mangakakalot/b1/bad_girls_miso/vol1_chapter_19_end/9.jpg",
    "https://img-proxy.imgfo.com/?referer=https://manganelo.com&url=https://s6.mkklcdnv6temp.com/mangakakalot/b1/bad_girls_miso/vol1_chapter_19_end/10.jpg",
    "https://img-proxy.imgfo.com/?referer=https://manganelo.com&url=https://s6.mkklcdnv6temp.com/mangakakalot/b1/bad_girls_miso/vol1_chapter_19_end/11.jpg",
    "https://img-proxy.imgfo.com/?referer=https://manganelo.com&url=https://s6.mkklcdnv6temp.com/mangakakalot/b1/bad_girls_miso/vol1_chapter_19_end/12.jpg",
    "https://img-proxy.imgfo.com/?referer=https://manganelo.com&url=https://s6.mkklcdnv6temp.com/mangakakalot/b1/bad_girls_miso/vol1_chapter_19_end/13.jpg",
    "https://img-proxy.imgfo.com/?referer=https://manganelo.com&url=https://s6.mkklcdnv6temp.com/mangakakalot/b1/bad_girls_miso/vol1_chapter_19_end/14.jpg",
    "https://img-proxy.imgfo.com/?referer=https://manganelo.com&url=https://s6.mkklcdnv6temp.com/mangakakalot/b1/bad_girls_miso/vol1_chapter_19_end/15.jpg",
    "https://img-proxy.imgfo.com/?referer=https://manganelo.com&url=https://s6.mkklcdnv6temp.com/mangakakalot/b1/bad_girls_miso/vol1_chapter_19_end/16.jpg",
    "https://img-proxy.imgfo.com/?referer=https://manganelo.com&url=https://s6.mkklcdnv6temp.com/mangakakalot/b1/bad_girls_miso/vol1_chapter_19_end/17.jpg",
    "https://img-proxy.imgfo.com/?referer=https://manganelo.com&url=https://s6.mkklcdnv6temp.com/mangakakalot/b1/bad_girls_miso/vol1_chapter_19_end/18.jpg",
    "https://img-proxy.imgfo.com/?referer=https://manganelo.com&url=https://s6.mkklcdnv6temp.com/mangakakalot/b1/bad_girls_miso/vol1_chapter_19_end/19.jpg",
    "https://img-proxy.imgfo.com/?referer=https://manganelo.com&url=https://s6.mkklcdnv6temp.com/mangakakalot/b1/bad_girls_miso/vol1_chapter_19_end/20.jpg",
    "https://img-proxy.imgfo.com/?referer=https://manganelo.com&url=https://s6.mkklcdnv6temp.com/mangakakalot/b1/bad_girls_miso/vol1_chapter_19_end/21.jpg",
    "https://img-proxy.imgfo.com/?referer=https://manganelo.com&url=https://s6.mkklcdnv6temp.com/mangakakalot/b1/bad_girls_miso/vol1_chapter_19_end/22.jpg",
    "https://img-proxy.imgfo.com/?referer=https://manganelo.com&url=https://s6.mkklcdnv6temp.com/mangakakalot/b1/bad_girls_miso/vol1_chapter_19_end/23.jpg",
    "https://img-proxy.imgfo.com/?referer=https://manganelo.com&url=https://s6.mkklcdnv6temp.com/mangakakalot/b1/bad_girls_miso/vol1_chapter_19_end/24.jpg"
  ]
}