{
  "cover": "https://avt.mkklcdnv6.com/30/i/10-1583483263.jpg",
  "title": "Otomegokoro No Jiyuugata",
  "original": "Girl's Feelings Freestyle",
  "genre": "Gender bender, Shounen, Manga",
  "author": "Akiduki Wataru",
  "status": "Completed",
  "backlink": "https://manganu.com/collections/akiduki-wataru/otomegokoro-no-jiyuugata/",
  "description": "For his little sister a boy is chasing the life of becoming a star gravure idol.",
  "language": "English",
  "images": [
    "https://img-proxy.imgfo.com/?referer=https://manganelo.com&url=https://s3.mkklcdnv6temp.com/mangakakalot/o2/otomegokoro_no_jiyuugata/vol1_chapter_4_seaside_session/1.jpg",
    "https://img-proxy.imgfo.com/?referer=https://manganelo.com&url=https://s3.mkklcdnv6temp.com/mangakakalot/o2/otomegokoro_no_jiyuugata/vol1_chapter_4_seaside_session/2.jpg",
    "https://img-proxy.imgfo.com/?referer=https://manganelo.com&url=https://s3.mkklcdnv6temp.com/mangakakalot/o2/otomegokoro_no_jiyuugata/vol1_chapter_4_seaside_session/3.jpg",
    "https://img-proxy.imgfo.com/?referer=https://manganelo.com&url=https://s3.mkklcdnv6temp.com/mangakakalot/o2/otomegokoro_no_jiyuugata/vol1_chapter_4_seaside_session/4.jpg",
    "https://img-proxy.imgfo.com/?referer=https://manganelo.com&url=https://s3.mkklcdnv6temp.com/mangakakalot/o2/otomegokoro_no_jiyuugata/vol1_chapter_4_seaside_session/5.jpg",
    "https://img-proxy.imgfo.com/?referer=https://manganelo.com&url=https://s3.mkklcdnv6temp.com/mangakakalot/o2/otomegokoro_no_jiyuugata/vol1_chapter_4_seaside_session/6.jpg",
    "https://img-proxy.imgfo.com/?referer=https://manganelo.com&url=https://s3.mkklcdnv6temp.com/mangakakalot/o2/otomegokoro_no_jiyuugata/vol1_chapter_4_seaside_session/7.jpg",
    "https://img-proxy.imgfo.com/?referer=https://manganelo.com&url=https://s3.mkklcdnv6temp.com/mangakakalot/o2/otomegokoro_no_jiyuugata/vol1_chapter_4_seaside_session/8.jpg",
    "https://img-proxy.imgfo.com/?referer=https://manganelo.com&url=https://s3.mkklcdnv6temp.com/mangakakalot/o2/otomegokoro_no_jiyuugata/vol1_chapter_4_seaside_session/9.jpg",
    "https://img-proxy.imgfo.com/?referer=https://manganelo.com&url=https://s3.mkklcdnv6temp.com/mangakakalot/o2/otomegokoro_no_jiyuugata/vol1_chapter_4_seaside_session/10.jpg",
    "https://img-proxy.imgfo.com/?referer=https://manganelo.com&url=https://s3.mkklcdnv6temp.com/mangakakalot/o2/otomegokoro_no_jiyuugata/vol1_chapter_4_seaside_session/11.jpg",
    "https://img-proxy.imgfo.com/?referer=https://manganelo.com&url=https://s3.mkklcdnv6temp.com/mangakakalot/o2/otomegokoro_no_jiyuugata/vol1_chapter_4_seaside_session/12.jpg",
    "https://img-proxy.imgfo.com/?referer=https://manganelo.com&url=https://s3.mkklcdnv6temp.com/mangakakalot/o2/otomegokoro_no_jiyuugata/vol1_chapter_4_seaside_session/13.jpg",
    "https://img-proxy.imgfo.com/?referer=https://manganelo.com&url=https://s3.mkklcdnv6temp.com/mangakakalot/o2/otomegokoro_no_jiyuugata/vol1_chapter_4_seaside_session/14.jpg",
    "https://img-proxy.imgfo.com/?referer=https://manganelo.com&url=https://s3.mkklcdnv6temp.com/mangakakalot/o2/otomegokoro_no_jiyuugata/vol1_chapter_4_seaside_session/15.jpg",
    "https://img-proxy.imgfo.com/?referer=https://manganelo.com&url=https://s3.mkklcdnv6temp.com/mangakakalot/o2/otomegokoro_no_jiyuugata/vol1_chapter_4_seaside_session/16.jpg",
    "https://img-proxy.imgfo.com/?referer=https://manganelo.com&url=https://s3.mkklcdnv6temp.com/mangakakalot/o2/otomegokoro_no_jiyuugata/vol1_chapter_4_seaside_session/17.jpg",
    "https://img-proxy.imgfo.com/?referer=https://manganelo.com&url=https://s3.mkklcdnv6temp.com/mangakakalot/o2/otomegokoro_no_jiyuugata/vol1_chapter_4_seaside_session/18.jpg",
    "https://img-proxy.imgfo.com/?referer=https://manganelo.com&url=https://s3.mkklcdnv6temp.com/mangakakalot/o2/otomegokoro_no_jiyuugata/vol1_chapter_4_seaside_session/19.jpg",
    "https://img-proxy.imgfo.com/?referer=https://manganelo.com&url=https://s3.mkklcdnv6temp.com/mangakakalot/o2/otomegokoro_no_jiyuugata/vol1_chapter_4_seaside_session/20.jpg",
    "https://img-proxy.imgfo.com/?referer=https://manganelo.com&url=https://s3.mkklcdnv6temp.com/mangakakalot/o2/otomegokoro_no_jiyuugata/vol1_chapter_4_seaside_session/21.jpg",
    "https://img-proxy.imgfo.com/?referer=https://manganelo.com&url=https://s3.mkklcdnv6temp.com/mangakakalot/o2/otomegokoro_no_jiyuugata/vol1_chapter_4_seaside_session/22.jpg",
    "https://img-proxy.imgfo.com/?referer=https://manganelo.com&url=https://s3.mkklcdnv6temp.com/mangakakalot/o2/otomegokoro_no_jiyuugata/vol1_chapter_4_seaside_session/23.jpg",
    "https://img-proxy.imgfo.com/?referer=https://manganelo.com&url=https://s3.mkklcdnv6temp.com/mangakakalot/o2/otomegokoro_no_jiyuugata/vol1_chapter_4_seaside_session/24.jpg",
    "https://img-proxy.imgfo.com/?referer=https://manganelo.com&url=https://s3.mkklcdnv6temp.com/mangakakalot/o2/otomegokoro_no_jiyuugata/vol1_chapter_4_seaside_session/25.jpg"
  ]
}