{
  "cover": "https://avt.mkklcdnv6.com/15/b/6-1583474750.jpg",
  "title": "For Us Who Begin To Love",
  "original": "Koi wo Hajimeru Bokutachi ni",
  "genre": "Oneshot, Romance, School life, Shoujo, Manga",
  "author": "Maki Youko",
  "status": "Completed",
  "backlink": "https://manganu.com/collections/maki-youko/for-us-who-begin-to-love/",
  "description": "Koi wo Hajimeru Bokutachi ni (For Us Who Begin to Love) -\nA girl and a guy... Will they fall in love?\n- From Dragon Voice Project",
  "language": "English",
  "images": [
    "https://img-proxy.imgfo.com/?referer=https://manganelo.com&url=https://s3.mkklcdnv6temp.com/mangakakalot/f2/for_us_who_begin_to_love/vol01_chapter_001_for_us_who_begin_to_love/1.jpg",
    "https://img-proxy.imgfo.com/?referer=https://manganelo.com&url=https://s3.mkklcdnv6temp.com/mangakakalot/f2/for_us_who_begin_to_love/vol01_chapter_001_for_us_who_begin_to_love/2.jpg",
    "https://img-proxy.imgfo.com/?referer=https://manganelo.com&url=https://s3.mkklcdnv6temp.com/mangakakalot/f2/for_us_who_begin_to_love/vol01_chapter_001_for_us_who_begin_to_love/3.jpg",
    "https://img-proxy.imgfo.com/?referer=https://manganelo.com&url=https://s3.mkklcdnv6temp.com/mangakakalot/f2/for_us_who_begin_to_love/vol01_chapter_001_for_us_who_begin_to_love/4.jpg",
    "https://img-proxy.imgfo.com/?referer=https://manganelo.com&url=https://s3.mkklcdnv6temp.com/mangakakalot/f2/for_us_who_begin_to_love/vol01_chapter_001_for_us_who_begin_to_love/5.jpg",
    "https://img-proxy.imgfo.com/?referer=https://manganelo.com&url=https://s3.mkklcdnv6temp.com/mangakakalot/f2/for_us_who_begin_to_love/vol01_chapter_001_for_us_who_begin_to_love/6.jpg",
    "https://img-proxy.imgfo.com/?referer=https://manganelo.com&url=https://s3.mkklcdnv6temp.com/mangakakalot/f2/for_us_who_begin_to_love/vol01_chapter_001_for_us_who_begin_to_love/7.jpg",
    "https://img-proxy.imgfo.com/?referer=https://manganelo.com&url=https://s3.mkklcdnv6temp.com/mangakakalot/f2/for_us_who_begin_to_love/vol01_chapter_001_for_us_who_begin_to_love/8.jpg",
    "https://img-proxy.imgfo.com/?referer=https://manganelo.com&url=https://s3.mkklcdnv6temp.com/mangakakalot/f2/for_us_who_begin_to_love/vol01_chapter_001_for_us_who_begin_to_love/9.jpg",
    "https://img-proxy.imgfo.com/?referer=https://manganelo.com&url=https://s3.mkklcdnv6temp.com/mangakakalot/f2/for_us_who_begin_to_love/vol01_chapter_001_for_us_who_begin_to_love/10.jpg",
    "https://img-proxy.imgfo.com/?referer=https://manganelo.com&url=https://s3.mkklcdnv6temp.com/mangakakalot/f2/for_us_who_begin_to_love/vol01_chapter_001_for_us_who_begin_to_love/11.jpg",
    "https://img-proxy.imgfo.com/?referer=https://manganelo.com&url=https://s3.mkklcdnv6temp.com/mangakakalot/f2/for_us_who_begin_to_love/vol01_chapter_001_for_us_who_begin_to_love/12.jpg",
    "https://img-proxy.imgfo.com/?referer=https://manganelo.com&url=https://s3.mkklcdnv6temp.com/mangakakalot/f2/for_us_who_begin_to_love/vol01_chapter_001_for_us_who_begin_to_love/13.jpg",
    "https://img-proxy.imgfo.com/?referer=https://manganelo.com&url=https://s3.mkklcdnv6temp.com/mangakakalot/f2/for_us_who_begin_to_love/vol01_chapter_001_for_us_who_begin_to_love/14.jpg",
    "https://img-proxy.imgfo.com/?referer=https://manganelo.com&url=https://s3.mkklcdnv6temp.com/mangakakalot/f2/for_us_who_begin_to_love/vol01_chapter_001_for_us_who_begin_to_love/15.jpg",
    "https://img-proxy.imgfo.com/?referer=https://manganelo.com&url=https://s3.mkklcdnv6temp.com/mangakakalot/f2/for_us_who_begin_to_love/vol01_chapter_001_for_us_who_begin_to_love/16.jpg",
    "https://img-proxy.imgfo.com/?referer=https://manganelo.com&url=https://s3.mkklcdnv6temp.com/mangakakalot/f2/for_us_who_begin_to_love/vol01_chapter_001_for_us_who_begin_to_love/17.jpg",
    "https://img-proxy.imgfo.com/?referer=https://manganelo.com&url=https://s3.mkklcdnv6temp.com/mangakakalot/f2/for_us_who_begin_to_love/vol01_chapter_001_for_us_who_begin_to_love/18.jpg",
    "https://img-proxy.imgfo.com/?referer=https://manganelo.com&url=https://s3.mkklcdnv6temp.com/mangakakalot/f2/for_us_who_begin_to_love/vol01_chapter_001_for_us_who_begin_to_love/19.jpg",
    "https://img-proxy.imgfo.com/?referer=https://manganelo.com&url=https://s3.mkklcdnv6temp.com/mangakakalot/f2/for_us_who_begin_to_love/vol01_chapter_001_for_us_who_begin_to_love/20.jpg",
    "https://img-proxy.imgfo.com/?referer=https://manganelo.com&url=https://s3.mkklcdnv6temp.com/mangakakalot/f2/for_us_who_begin_to_love/vol01_chapter_001_for_us_who_begin_to_love/21.jpg",
    "https://img-proxy.imgfo.com/?referer=https://manganelo.com&url=https://s3.mkklcdnv6temp.com/mangakakalot/f2/for_us_who_begin_to_love/vol01_chapter_001_for_us_who_begin_to_love/22.jpg",
    "https://img-proxy.imgfo.com/?referer=https://manganelo.com&url=https://s3.mkklcdnv6temp.com/mangakakalot/f2/for_us_who_begin_to_love/vol01_chapter_001_for_us_who_begin_to_love/23.jpg",
    "https://img-proxy.imgfo.com/?referer=https://manganelo.com&url=https://s3.mkklcdnv6temp.com/mangakakalot/f2/for_us_who_begin_to_love/vol01_chapter_001_for_us_who_begin_to_love/24.jpg",
    "https://img-proxy.imgfo.com/?referer=https://manganelo.com&url=https://s3.mkklcdnv6temp.com/mangakakalot/f2/for_us_who_begin_to_love/vol01_chapter_001_for_us_who_begin_to_love/25.jpg",
    "https://img-proxy.imgfo.com/?referer=https://manganelo.com&url=https://s3.mkklcdnv6temp.com/mangakakalot/f2/for_us_who_begin_to_love/vol01_chapter_001_for_us_who_begin_to_love/26.jpg",
    "https://img-proxy.imgfo.com/?referer=https://manganelo.com&url=https://s3.mkklcdnv6temp.com/mangakakalot/f2/for_us_who_begin_to_love/vol01_chapter_001_for_us_who_begin_to_love/27.jpg",
    "https://img-proxy.imgfo.com/?referer=https://manganelo.com&url=https://s3.mkklcdnv6temp.com/mangakakalot/f2/for_us_who_begin_to_love/vol01_chapter_001_for_us_who_begin_to_love/28.jpg",
    "https://img-proxy.imgfo.com/?referer=https://manganelo.com&url=https://s3.mkklcdnv6temp.com/mangakakalot/f2/for_us_who_begin_to_love/vol01_chapter_001_for_us_who_begin_to_love/29.jpg",
    "https://img-proxy.imgfo.com/?referer=https://manganelo.com&url=https://s3.mkklcdnv6temp.com/mangakakalot/f2/for_us_who_begin_to_love/vol01_chapter_001_for_us_who_begin_to_love/30.jpg",
    "https://img-proxy.imgfo.com/?referer=https://manganelo.com&url=https://s3.mkklcdnv6temp.com/mangakakalot/f2/for_us_who_begin_to_love/vol01_chapter_001_for_us_who_begin_to_love/31.jpg",
    "https://img-proxy.imgfo.com/?referer=https://manganelo.com&url=https://s3.mkklcdnv6temp.com/mangakakalot/f2/for_us_who_begin_to_love/vol01_chapter_001_for_us_who_begin_to_love/32.jpg",
    "https://img-proxy.imgfo.com/?referer=https://manganelo.com&url=https://s3.mkklcdnv6temp.com/mangakakalot/f2/for_us_who_begin_to_love/vol01_chapter_001_for_us_who_begin_to_love/33.jpg",
    "https://img-proxy.imgfo.com/?referer=https://manganelo.com&url=https://s3.mkklcdnv6temp.com/mangakakalot/f2/for_us_who_begin_to_love/vol01_chapter_001_for_us_who_begin_to_love/34.jpg",
    "https://img-proxy.imgfo.com/?referer=https://manganelo.com&url=https://s3.mkklcdnv6temp.com/mangakakalot/f2/for_us_who_begin_to_love/vol01_chapter_001_for_us_who_begin_to_love/35.jpg",
    "https://img-proxy.imgfo.com/?referer=https://manganelo.com&url=https://s3.mkklcdnv6temp.com/mangakakalot/f2/for_us_who_begin_to_love/vol01_chapter_001_for_us_who_begin_to_love/36.jpg",
    "https://img-proxy.imgfo.com/?referer=https://manganelo.com&url=https://s3.mkklcdnv6temp.com/mangakakalot/f2/for_us_who_begin_to_love/vol01_chapter_001_for_us_who_begin_to_love/37.jpg",
    "https://img-proxy.imgfo.com/?referer=https://manganelo.com&url=https://s3.mkklcdnv6temp.com/mangakakalot/f2/for_us_who_begin_to_love/vol01_chapter_001_for_us_who_begin_to_love/38.jpg",
    "https://img-proxy.imgfo.com/?referer=https://manganelo.com&url=https://s3.mkklcdnv6temp.com/mangakakalot/f2/for_us_who_begin_to_love/vol01_chapter_001_for_us_who_begin_to_love/39.jpg",
    "https://img-proxy.imgfo.com/?referer=https://manganelo.com&url=https://s3.mkklcdnv6temp.com/mangakakalot/f2/for_us_who_begin_to_love/vol01_chapter_001_for_us_who_begin_to_love/40.jpg",
    "https://img-proxy.imgfo.com/?referer=https://manganelo.com&url=https://s3.mkklcdnv6temp.com/mangakakalot/f2/for_us_who_begin_to_love/vol01_chapter_001_for_us_who_begin_to_love/41.jpg"
  ]
}