{
  "cover": "https://avt.mkklcdnv6.com/44/k/3-1583469423.jpg",
  "title": "Love Lab",
  "original": "ラブラボ ; Love Laboratory",
  "genre": "Comedy, Romance, School life, Shoujo, Supernatural, Manga",
  "author": "Momoyuki Kotori",
  "status": "Completed",
  "backlink": "https://manganu.com/collections/momoyuki-kotori/love-lab/",
  "description": "From Shoujo Manga Maniac:\nThe chemistry club invented a special hormone potion. Each bottle cost 500 yen. Riko-chan's boyfriend, Yuuki-kun himself is extremely cold towards love. Riko-chan hopes to move their relationship one step ahead, but in the end...?\nThis book contains five enticing short stories.",
  "language": "English",
  "images": [
    "https://img-proxy.imgfo.com/?referer=https://manganelo.com&url=https://s3.mkklcdnv6temp.com/mangakakalot/l2/love_lab/vol1_chapter_9/1.jpg",
    "https://img-proxy.imgfo.com/?referer=https://manganelo.com&url=https://s3.mkklcdnv6temp.com/mangakakalot/l2/love_lab/vol1_chapter_9/2.jpg",
    "https://img-proxy.imgfo.com/?referer=https://manganelo.com&url=https://s3.mkklcdnv6temp.com/mangakakalot/l2/love_lab/vol1_chapter_9/3.jpg",
    "https://img-proxy.imgfo.com/?referer=https://manganelo.com&url=https://s3.mkklcdnv6temp.com/mangakakalot/l2/love_lab/vol1_chapter_9/4.jpg",
    "https://img-proxy.imgfo.com/?referer=https://manganelo.com&url=https://s3.mkklcdnv6temp.com/mangakakalot/l2/love_lab/vol1_chapter_9/5.jpg",
    "https://img-proxy.imgfo.com/?referer=https://manganelo.com&url=https://s3.mkklcdnv6temp.com/mangakakalot/l2/love_lab/vol1_chapter_9/6.jpg"
  ]
}