{
  "cover": "https://avt.mkklcdnv6.com/9/c/6-1583474473.jpg",
  "title": "Akuma Na Eros",
  "original": "处女危机 ; 悪魔なエロス ; 悪魔なエロス ｖｉｒｇｉｎ ｃｒｉｓｉｓ ; Akuma na Eros - Virgin Crisis ; Satanic Eros - Virgin Crisis ; Satanic honey ; Virgin Crisis",
  "genre": "Drama, Ecchi, Fantasy, Romance, Shoujo, Smut, Manga",
  "author": "Shinjo Mayu",
  "status": "Completed",
  "backlink": "https://manganu.com/collections/shinjo-mayu/akuma-na-eros/",
  "description": "Miu Sakurai, age 15, attends a Catholic school where she prays every day for her admired Shion Amamiya to return her love. When that doesn't work, she places her faith in a book of magic and tries casting one of its spells. However, it's not love that manifests... it's Satan! \"The recompense for the contract to grant your wish is your virginity,\" he tells her, and this is Miu's virgin crisis!\nVol. 4, Story 2: Satanic Honey\nMalphas, who exists on Earth as Tsubasa, meets a young girl named Manami who has an unusual compassion for crows. She has two secrets which will transform Tsubasa's reasons for wanting to mature into a full demon...\nVol. 4, Story 3: Satanic Cohabitation\nThe continued adventures of Miu and Satan. Baal, who desires Satan's place as the Lord of Hell, kidnaps Miu to use as Satan-bait. But complications arise when Baal looks for the aspect of Miu that would attract a high-level demon... and finds it!",
  "language": "English",
  "images": [
    "https://img-proxy.imgfo.com/?referer=https://manganelo.com&url=https://s3.mkklcdnv6temp.com/mangakakalot/a1/akuma_na_eros/vol1_chapter_33/1.jpg",
    "https://img-proxy.imgfo.com/?referer=https://manganelo.com&url=https://s3.mkklcdnv6temp.com/mangakakalot/a1/akuma_na_eros/vol1_chapter_33/2.jpg",
    "https://img-proxy.imgfo.com/?referer=https://manganelo.com&url=https://s3.mkklcdnv6temp.com/mangakakalot/a1/akuma_na_eros/vol1_chapter_33/3.jpg",
    "https://img-proxy.imgfo.com/?referer=https://manganelo.com&url=https://s3.mkklcdnv6temp.com/mangakakalot/a1/akuma_na_eros/vol1_chapter_33/4.jpg",
    "https://img-proxy.imgfo.com/?referer=https://manganelo.com&url=https://s3.mkklcdnv6temp.com/mangakakalot/a1/akuma_na_eros/vol1_chapter_33/5.jpg",
    "https://img-proxy.imgfo.com/?referer=https://manganelo.com&url=https://s3.mkklcdnv6temp.com/mangakakalot/a1/akuma_na_eros/vol1_chapter_33/6.jpg",
    "https://img-proxy.imgfo.com/?referer=https://manganelo.com&url=https://s3.mkklcdnv6temp.com/mangakakalot/a1/akuma_na_eros/vol1_chapter_33/7.jpg",
    "https://img-proxy.imgfo.com/?referer=https://manganelo.com&url=https://s3.mkklcdnv6temp.com/mangakakalot/a1/akuma_na_eros/vol1_chapter_33/8.jpg",
    "https://img-proxy.imgfo.com/?referer=https://manganelo.com&url=https://s3.mkklcdnv6temp.com/mangakakalot/a1/akuma_na_eros/vol1_chapter_33/9.jpg",
    "https://img-proxy.imgfo.com/?referer=https://manganelo.com&url=https://s3.mkklcdnv6temp.com/mangakakalot/a1/akuma_na_eros/vol1_chapter_33/10.jpg",
    "https://img-proxy.imgfo.com/?referer=https://manganelo.com&url=https://s3.mkklcdnv6temp.com/mangakakalot/a1/akuma_na_eros/vol1_chapter_33/11.jpg",
    "https://img-proxy.imgfo.com/?referer=https://manganelo.com&url=https://s3.mkklcdnv6temp.com/mangakakalot/a1/akuma_na_eros/vol1_chapter_33/12.jpg",
    "https://img-proxy.imgfo.com/?referer=https://manganelo.com&url=https://s3.mkklcdnv6temp.com/mangakakalot/a1/akuma_na_eros/vol1_chapter_33/13.jpg",
    "https://img-proxy.imgfo.com/?referer=https://manganelo.com&url=https://s3.mkklcdnv6temp.com/mangakakalot/a1/akuma_na_eros/vol1_chapter_33/14.jpg",
    "https://img-proxy.imgfo.com/?referer=https://manganelo.com&url=https://s3.mkklcdnv6temp.com/mangakakalot/a1/akuma_na_eros/vol1_chapter_33/15.jpg",
    "https://img-proxy.imgfo.com/?referer=https://manganelo.com&url=https://s3.mkklcdnv6temp.com/mangakakalot/a1/akuma_na_eros/vol1_chapter_33/16.jpg",
    "https://img-proxy.imgfo.com/?referer=https://manganelo.com&url=https://s3.mkklcdnv6temp.com/mangakakalot/a1/akuma_na_eros/vol1_chapter_33/17.jpg",
    "https://img-proxy.imgfo.com/?referer=https://manganelo.com&url=https://s3.mkklcdnv6temp.com/mangakakalot/a1/akuma_na_eros/vol1_chapter_33/18.jpg",
    "https://img-proxy.imgfo.com/?referer=https://manganelo.com&url=https://s3.mkklcdnv6temp.com/mangakakalot/a1/akuma_na_eros/vol1_chapter_33/19.jpg"
  ]
}