{
  "cover": "https://avt.mkklcdnv6.com/19/a/4-1583470449.jpg",
  "title": "La Corda D'oro",
  "original": "金色のコルダ ; 金色琴弦 ; 금색의 코르다 ; The Golden String",
  "genre": "Action, Adult, Adventure, Comedy, Cooking, Drama, Fantasy, Harem, Romance, School life, Shoujo, Slice of life, Manga",
  "author": "Kure Yuki",
  "status": "Completed",
  "backlink": "https://manganu.com/collections/kure-yuki/la-corda-doro/",
  "description": "Every few years, the prestigious Seiso Academy holds a prominent musical competition, and only the very best students at the Academy are allowed to participate. Though all are eligible to apply, only students from the music department actually make it to the competition...until now. Hino Kahoko goes to this amazing school, though she is in the regular department and knows nearly nothing of music. That is until one day, when she meets a curious little creature who introduces himself as a music fairy by the name of Lili. This fairy gives the unwilling Kahoko a magical violin, which any one can play. That day, the names of the students who are to participate in the music competition are announced &ndash; and Kahoko&#39;s on the list! Suddenly Kahoko is thrown into a world of music, where every note counts, where she must strive to be perfect. And then there are the other competitors, a timid girl and five handsome, musical young men who are all effected by Kahoko&#39;s music in very different ways. One thing&#39;s for sure &ndash; Seiso Academy will never be the same.",
  "language": "English",
  "images": [
    "https://img-proxy.imgfo.com/?referer=https://manganelo.com&url=https://s5.mkklcdnv6temp.com/mangakakalot/r1/read_la_corda_doro/vol15_chapter_625_shimizus_chapter/1.jpg",
    "https://img-proxy.imgfo.com/?referer=https://manganelo.com&url=https://s5.mkklcdnv6temp.com/mangakakalot/r1/read_la_corda_doro/vol15_chapter_625_shimizus_chapter/2.jpg",
    "https://img-proxy.imgfo.com/?referer=https://manganelo.com&url=https://s5.mkklcdnv6temp.com/mangakakalot/r1/read_la_corda_doro/vol15_chapter_625_shimizus_chapter/3.jpg",
    "https://img-proxy.imgfo.com/?referer=https://manganelo.com&url=https://s5.mkklcdnv6temp.com/mangakakalot/r1/read_la_corda_doro/vol15_chapter_625_shimizus_chapter/4.jpg",
    "https://img-proxy.imgfo.com/?referer=https://manganelo.com&url=https://s5.mkklcdnv6temp.com/mangakakalot/r1/read_la_corda_doro/vol15_chapter_625_shimizus_chapter/5.jpg",
    "https://img-proxy.imgfo.com/?referer=https://manganelo.com&url=https://s5.mkklcdnv6temp.com/mangakakalot/r1/read_la_corda_doro/vol15_chapter_625_shimizus_chapter/6.jpg",
    "https://img-proxy.imgfo.com/?referer=https://manganelo.com&url=https://s5.mkklcdnv6temp.com/mangakakalot/r1/read_la_corda_doro/vol15_chapter_625_shimizus_chapter/7.jpg",
    "https://img-proxy.imgfo.com/?referer=https://manganelo.com&url=https://s5.mkklcdnv6temp.com/mangakakalot/r1/read_la_corda_doro/vol15_chapter_625_shimizus_chapter/8.jpg",
    "https://img-proxy.imgfo.com/?referer=https://manganelo.com&url=https://s5.mkklcdnv6temp.com/mangakakalot/r1/read_la_corda_doro/vol15_chapter_625_shimizus_chapter/9.jpg",
    "https://img-proxy.imgfo.com/?referer=https://manganelo.com&url=https://s5.mkklcdnv6temp.com/mangakakalot/r1/read_la_corda_doro/vol15_chapter_625_shimizus_chapter/10.jpg",
    "https://img-proxy.imgfo.com/?referer=https://manganelo.com&url=https://s5.mkklcdnv6temp.com/mangakakalot/r1/read_la_corda_doro/vol15_chapter_625_shimizus_chapter/11.jpg",
    "https://img-proxy.imgfo.com/?referer=https://manganelo.com&url=https://s5.mkklcdnv6temp.com/mangakakalot/r1/read_la_corda_doro/vol15_chapter_625_shimizus_chapter/12.jpg",
    "https://img-proxy.imgfo.com/?referer=https://manganelo.com&url=https://s5.mkklcdnv6temp.com/mangakakalot/r1/read_la_corda_doro/vol15_chapter_625_shimizus_chapter/13.jpg",
    "https://img-proxy.imgfo.com/?referer=https://manganelo.com&url=https://s5.mkklcdnv6temp.com/mangakakalot/r1/read_la_corda_doro/vol15_chapter_625_shimizus_chapter/14.jpg",
    "https://img-proxy.imgfo.com/?referer=https://manganelo.com&url=https://s5.mkklcdnv6temp.com/mangakakalot/r1/read_la_corda_doro/vol15_chapter_625_shimizus_chapter/15.jpg",
    "https://img-proxy.imgfo.com/?referer=https://manganelo.com&url=https://s5.mkklcdnv6temp.com/mangakakalot/r1/read_la_corda_doro/vol15_chapter_625_shimizus_chapter/16.jpg",
    "https://img-proxy.imgfo.com/?referer=https://manganelo.com&url=https://s5.mkklcdnv6temp.com/mangakakalot/r1/read_la_corda_doro/vol15_chapter_625_shimizus_chapter/17.jpg",
    "https://img-proxy.imgfo.com/?referer=https://manganelo.com&url=https://s5.mkklcdnv6temp.com/mangakakalot/r1/read_la_corda_doro/vol15_chapter_625_shimizus_chapter/18.jpg",
    "https://img-proxy.imgfo.com/?referer=https://manganelo.com&url=https://s5.mkklcdnv6temp.com/mangakakalot/r1/read_la_corda_doro/vol15_chapter_625_shimizus_chapter/19.jpg",
    "https://img-proxy.imgfo.com/?referer=https://manganelo.com&url=https://s5.mkklcdnv6temp.com/mangakakalot/r1/read_la_corda_doro/vol15_chapter_625_shimizus_chapter/20.jpg",
    "https://img-proxy.imgfo.com/?referer=https://manganelo.com&url=https://s5.mkklcdnv6temp.com/mangakakalot/r1/read_la_corda_doro/vol15_chapter_625_shimizus_chapter/21.jpg"
  ]
}