{
  "cover": "https://avt.mkklcdnv6.com/4/f/7-1583476444.jpg",
  "title": "Alabaster",
  "original": "アラバスター ; Arabastaa",
  "genre": "Action, Mystery, Sci fi, Shounen, Manga",
  "author": "Tezuka Osamu",
  "status": "Completed",
  "backlink": "https://manganu.com/collections/tezuka-osamu/alabaster/",
  "description": "James Block is a former sports star whose criminal endeavors landed him in jail. In prison he meets \"Dr. F\", a strange old man who tells James about a beam that can turn living things invisible.\nAfter escaping from prison, James finds and uses the laser on himself. But, because the beam has not been perfected yet, it only rendered his skin invisible, leaving his insides visible to the outside. Angered at his disfigurement, James takes the name \"Alabaster\" and begins eliminating the hypocrites and the boastful. He is joined by Ami Ozawa, the granddaughter of \"Doctor F\", who was rendered invisible after the doctor used his pregnant daughter as an \"F Beam\" test subject.\nOn their trail is Rock, a vicious FBI agent.",
  "language": "English",
  "images": [
    "https://img-proxy.imgfo.com/?referer=https://manganelo.com&url=https://s5.mkklcdnv6temp.com/mangakakalot/a1/alabaster/vol1_chapter_2_amis_secret/1.jpg",
    "https://img-proxy.imgfo.com/?referer=https://manganelo.com&url=https://s5.mkklcdnv6temp.com/mangakakalot/a1/alabaster/vol1_chapter_2_amis_secret/2.jpg",
    "https://img-proxy.imgfo.com/?referer=https://manganelo.com&url=https://s5.mkklcdnv6temp.com/mangakakalot/a1/alabaster/vol1_chapter_2_amis_secret/3.jpg",
    "https://img-proxy.imgfo.com/?referer=https://manganelo.com&url=https://s5.mkklcdnv6temp.com/mangakakalot/a1/alabaster/vol1_chapter_2_amis_secret/4.jpg",
    "https://img-proxy.imgfo.com/?referer=https://manganelo.com&url=https://s5.mkklcdnv6temp.com/mangakakalot/a1/alabaster/vol1_chapter_2_amis_secret/5.jpg",
    "https://img-proxy.imgfo.com/?referer=https://manganelo.com&url=https://s5.mkklcdnv6temp.com/mangakakalot/a1/alabaster/vol1_chapter_2_amis_secret/6.jpg",
    "https://img-proxy.imgfo.com/?referer=https://manganelo.com&url=https://s5.mkklcdnv6temp.com/mangakakalot/a1/alabaster/vol1_chapter_2_amis_secret/7.jpg",
    "https://img-proxy.imgfo.com/?referer=https://manganelo.com&url=https://s5.mkklcdnv6temp.com/mangakakalot/a1/alabaster/vol1_chapter_2_amis_secret/8.jpg",
    "https://img-proxy.imgfo.com/?referer=https://manganelo.com&url=https://s5.mkklcdnv6temp.com/mangakakalot/a1/alabaster/vol1_chapter_2_amis_secret/9.jpg",
    "https://img-proxy.imgfo.com/?referer=https://manganelo.com&url=https://s5.mkklcdnv6temp.com/mangakakalot/a1/alabaster/vol1_chapter_2_amis_secret/10.jpg",
    "https://img-proxy.imgfo.com/?referer=https://manganelo.com&url=https://s5.mkklcdnv6temp.com/mangakakalot/a1/alabaster/vol1_chapter_2_amis_secret/11.jpg",
    "https://img-proxy.imgfo.com/?referer=https://manganelo.com&url=https://s5.mkklcdnv6temp.com/mangakakalot/a1/alabaster/vol1_chapter_2_amis_secret/12.jpg",
    "https://img-proxy.imgfo.com/?referer=https://manganelo.com&url=https://s5.mkklcdnv6temp.com/mangakakalot/a1/alabaster/vol1_chapter_2_amis_secret/13.jpg",
    "https://img-proxy.imgfo.com/?referer=https://manganelo.com&url=https://s5.mkklcdnv6temp.com/mangakakalot/a1/alabaster/vol1_chapter_2_amis_secret/14.jpg",
    "https://img-proxy.imgfo.com/?referer=https://manganelo.com&url=https://s5.mkklcdnv6temp.com/mangakakalot/a1/alabaster/vol1_chapter_2_amis_secret/15.jpg",
    "https://img-proxy.imgfo.com/?referer=https://manganelo.com&url=https://s5.mkklcdnv6temp.com/mangakakalot/a1/alabaster/vol1_chapter_2_amis_secret/16.jpg",
    "https://img-proxy.imgfo.com/?referer=https://manganelo.com&url=https://s5.mkklcdnv6temp.com/mangakakalot/a1/alabaster/vol1_chapter_2_amis_secret/17.jpg",
    "https://img-proxy.imgfo.com/?referer=https://manganelo.com&url=https://s5.mkklcdnv6temp.com/mangakakalot/a1/alabaster/vol1_chapter_2_amis_secret/18.jpg",
    "https://img-proxy.imgfo.com/?referer=https://manganelo.com&url=https://s5.mkklcdnv6temp.com/mangakakalot/a1/alabaster/vol1_chapter_2_amis_secret/19.jpg",
    "https://img-proxy.imgfo.com/?referer=https://manganelo.com&url=https://s5.mkklcdnv6temp.com/mangakakalot/a1/alabaster/vol1_chapter_2_amis_secret/20.jpg",
    "https://img-proxy.imgfo.com/?referer=https://manganelo.com&url=https://s5.mkklcdnv6temp.com/mangakakalot/a1/alabaster/vol1_chapter_2_amis_secret/21.jpg",
    "https://img-proxy.imgfo.com/?referer=https://manganelo.com&url=https://s5.mkklcdnv6temp.com/mangakakalot/a1/alabaster/vol1_chapter_2_amis_secret/22.jpg",
    "https://img-proxy.imgfo.com/?referer=https://manganelo.com&url=https://s5.mkklcdnv6temp.com/mangakakalot/a1/alabaster/vol1_chapter_2_amis_secret/23.jpg",
    "https://img-proxy.imgfo.com/?referer=https://manganelo.com&url=https://s5.mkklcdnv6temp.com/mangakakalot/a1/alabaster/vol1_chapter_2_amis_secret/24.jpg",
    "https://img-proxy.imgfo.com/?referer=https://manganelo.com&url=https://s5.mkklcdnv6temp.com/mangakakalot/a1/alabaster/vol1_chapter_2_amis_secret/25.jpg",
    "https://img-proxy.imgfo.com/?referer=https://manganelo.com&url=https://s5.mkklcdnv6temp.com/mangakakalot/a1/alabaster/vol1_chapter_2_amis_secret/26.jpg",
    "https://img-proxy.imgfo.com/?referer=https://manganelo.com&url=https://s5.mkklcdnv6temp.com/mangakakalot/a1/alabaster/vol1_chapter_2_amis_secret/27.jpg",
    "https://img-proxy.imgfo.com/?referer=https://manganelo.com&url=https://s5.mkklcdnv6temp.com/mangakakalot/a1/alabaster/vol1_chapter_2_amis_secret/28.jpg"
  ]
}