{
  "cover": "https://avt.mkklcdnv6.com/4/f/7-1583476444.jpg",
  "title": "Alabaster",
  "original": "アラバスター ; Arabastaa",
  "genre": "Action, Mystery, Sci fi, Shounen, Manga",
  "author": "Tezuka Osamu",
  "status": "Completed",
  "backlink": "https://manganu.com/collections/tezuka-osamu/alabaster/",
  "description": "James Block is a former sports star whose criminal endeavors landed him in jail. In prison he meets \"Dr. F\", a strange old man who tells James about a beam that can turn living things invisible.\nAfter escaping from prison, James finds and uses the laser on himself. But, because the beam has not been perfected yet, it only rendered his skin invisible, leaving his insides visible to the outside. Angered at his disfigurement, James takes the name \"Alabaster\" and begins eliminating the hypocrites and the boastful. He is joined by Ami Ozawa, the granddaughter of \"Doctor F\", who was rendered invisible after the doctor used his pregnant daughter as an \"F Beam\" test subject.\nOn their trail is Rock, a vicious FBI agent.",
  "language": "English",
  "images": [
    "https://img-proxy.imgfo.com/?referer=https://manganelo.com&url=https://s5.mkklcdnv6temp.com/mangakakalot/a1/alabaster/vol2_chapter_7_brother_and_sister/1.jpg",
    "https://img-proxy.imgfo.com/?referer=https://manganelo.com&url=https://s5.mkklcdnv6temp.com/mangakakalot/a1/alabaster/vol2_chapter_7_brother_and_sister/2.jpg",
    "https://img-proxy.imgfo.com/?referer=https://manganelo.com&url=https://s5.mkklcdnv6temp.com/mangakakalot/a1/alabaster/vol2_chapter_7_brother_and_sister/3.jpg",
    "https://img-proxy.imgfo.com/?referer=https://manganelo.com&url=https://s5.mkklcdnv6temp.com/mangakakalot/a1/alabaster/vol2_chapter_7_brother_and_sister/4.jpg",
    "https://img-proxy.imgfo.com/?referer=https://manganelo.com&url=https://s5.mkklcdnv6temp.com/mangakakalot/a1/alabaster/vol2_chapter_7_brother_and_sister/5.jpg",
    "https://img-proxy.imgfo.com/?referer=https://manganelo.com&url=https://s5.mkklcdnv6temp.com/mangakakalot/a1/alabaster/vol2_chapter_7_brother_and_sister/6.jpg",
    "https://img-proxy.imgfo.com/?referer=https://manganelo.com&url=https://s5.mkklcdnv6temp.com/mangakakalot/a1/alabaster/vol2_chapter_7_brother_and_sister/7.jpg",
    "https://img-proxy.imgfo.com/?referer=https://manganelo.com&url=https://s5.mkklcdnv6temp.com/mangakakalot/a1/alabaster/vol2_chapter_7_brother_and_sister/8.jpg",
    "https://img-proxy.imgfo.com/?referer=https://manganelo.com&url=https://s5.mkklcdnv6temp.com/mangakakalot/a1/alabaster/vol2_chapter_7_brother_and_sister/9.jpg",
    "https://img-proxy.imgfo.com/?referer=https://manganelo.com&url=https://s5.mkklcdnv6temp.com/mangakakalot/a1/alabaster/vol2_chapter_7_brother_and_sister/10.jpg",
    "https://img-proxy.imgfo.com/?referer=https://manganelo.com&url=https://s5.mkklcdnv6temp.com/mangakakalot/a1/alabaster/vol2_chapter_7_brother_and_sister/11.jpg",
    "https://img-proxy.imgfo.com/?referer=https://manganelo.com&url=https://s5.mkklcdnv6temp.com/mangakakalot/a1/alabaster/vol2_chapter_7_brother_and_sister/12.jpg",
    "https://img-proxy.imgfo.com/?referer=https://manganelo.com&url=https://s5.mkklcdnv6temp.com/mangakakalot/a1/alabaster/vol2_chapter_7_brother_and_sister/13.jpg",
    "https://img-proxy.imgfo.com/?referer=https://manganelo.com&url=https://s5.mkklcdnv6temp.com/mangakakalot/a1/alabaster/vol2_chapter_7_brother_and_sister/14.jpg",
    "https://img-proxy.imgfo.com/?referer=https://manganelo.com&url=https://s5.mkklcdnv6temp.com/mangakakalot/a1/alabaster/vol2_chapter_7_brother_and_sister/15.jpg",
    "https://img-proxy.imgfo.com/?referer=https://manganelo.com&url=https://s5.mkklcdnv6temp.com/mangakakalot/a1/alabaster/vol2_chapter_7_brother_and_sister/16.jpg",
    "https://img-proxy.imgfo.com/?referer=https://manganelo.com&url=https://s5.mkklcdnv6temp.com/mangakakalot/a1/alabaster/vol2_chapter_7_brother_and_sister/17.jpg",
    "https://img-proxy.imgfo.com/?referer=https://manganelo.com&url=https://s5.mkklcdnv6temp.com/mangakakalot/a1/alabaster/vol2_chapter_7_brother_and_sister/18.jpg",
    "https://img-proxy.imgfo.com/?referer=https://manganelo.com&url=https://s5.mkklcdnv6temp.com/mangakakalot/a1/alabaster/vol2_chapter_7_brother_and_sister/19.jpg",
    "https://img-proxy.imgfo.com/?referer=https://manganelo.com&url=https://s5.mkklcdnv6temp.com/mangakakalot/a1/alabaster/vol2_chapter_7_brother_and_sister/20.jpg",
    "https://img-proxy.imgfo.com/?referer=https://manganelo.com&url=https://s5.mkklcdnv6temp.com/mangakakalot/a1/alabaster/vol2_chapter_7_brother_and_sister/21.jpg",
    "https://img-proxy.imgfo.com/?referer=https://manganelo.com&url=https://s5.mkklcdnv6temp.com/mangakakalot/a1/alabaster/vol2_chapter_7_brother_and_sister/22.jpg",
    "https://img-proxy.imgfo.com/?referer=https://manganelo.com&url=https://s5.mkklcdnv6temp.com/mangakakalot/a1/alabaster/vol2_chapter_7_brother_and_sister/23.jpg",
    "https://img-proxy.imgfo.com/?referer=https://manganelo.com&url=https://s5.mkklcdnv6temp.com/mangakakalot/a1/alabaster/vol2_chapter_7_brother_and_sister/24.jpg",
    "https://img-proxy.imgfo.com/?referer=https://manganelo.com&url=https://s5.mkklcdnv6temp.com/mangakakalot/a1/alabaster/vol2_chapter_7_brother_and_sister/25.jpg",
    "https://img-proxy.imgfo.com/?referer=https://manganelo.com&url=https://s5.mkklcdnv6temp.com/mangakakalot/a1/alabaster/vol2_chapter_7_brother_and_sister/26.jpg",
    "https://img-proxy.imgfo.com/?referer=https://manganelo.com&url=https://s5.mkklcdnv6temp.com/mangakakalot/a1/alabaster/vol2_chapter_7_brother_and_sister/27.jpg",
    "https://img-proxy.imgfo.com/?referer=https://manganelo.com&url=https://s5.mkklcdnv6temp.com/mangakakalot/a1/alabaster/vol2_chapter_7_brother_and_sister/28.jpg",
    "https://img-proxy.imgfo.com/?referer=https://manganelo.com&url=https://s5.mkklcdnv6temp.com/mangakakalot/a1/alabaster/vol2_chapter_7_brother_and_sister/29.jpg",
    "https://img-proxy.imgfo.com/?referer=https://manganelo.com&url=https://s5.mkklcdnv6temp.com/mangakakalot/a1/alabaster/vol2_chapter_7_brother_and_sister/30.jpg",
    "https://img-proxy.imgfo.com/?referer=https://manganelo.com&url=https://s5.mkklcdnv6temp.com/mangakakalot/a1/alabaster/vol2_chapter_7_brother_and_sister/31.jpg",
    "https://img-proxy.imgfo.com/?referer=https://manganelo.com&url=https://s5.mkklcdnv6temp.com/mangakakalot/a1/alabaster/vol2_chapter_7_brother_and_sister/32.jpg",
    "https://img-proxy.imgfo.com/?referer=https://manganelo.com&url=https://s5.mkklcdnv6temp.com/mangakakalot/a1/alabaster/vol2_chapter_7_brother_and_sister/33.jpg",
    "https://img-proxy.imgfo.com/?referer=https://manganelo.com&url=https://s5.mkklcdnv6temp.com/mangakakalot/a1/alabaster/vol2_chapter_7_brother_and_sister/34.jpg",
    "https://img-proxy.imgfo.com/?referer=https://manganelo.com&url=https://s5.mkklcdnv6temp.com/mangakakalot/a1/alabaster/vol2_chapter_7_brother_and_sister/35.jpg",
    "https://img-proxy.imgfo.com/?referer=https://manganelo.com&url=https://s5.mkklcdnv6temp.com/mangakakalot/a1/alabaster/vol2_chapter_7_brother_and_sister/36.jpg",
    "https://img-proxy.imgfo.com/?referer=https://manganelo.com&url=https://s5.mkklcdnv6temp.com/mangakakalot/a1/alabaster/vol2_chapter_7_brother_and_sister/37.jpg",
    "https://img-proxy.imgfo.com/?referer=https://manganelo.com&url=https://s5.mkklcdnv6temp.com/mangakakalot/a1/alabaster/vol2_chapter_7_brother_and_sister/38.jpg",
    "https://img-proxy.imgfo.com/?referer=https://manganelo.com&url=https://s5.mkklcdnv6temp.com/mangakakalot/a1/alabaster/vol2_chapter_7_brother_and_sister/39.jpg",
    "https://img-proxy.imgfo.com/?referer=https://manganelo.com&url=https://s5.mkklcdnv6temp.com/mangakakalot/a1/alabaster/vol2_chapter_7_brother_and_sister/40.jpg",
    "https://img-proxy.imgfo.com/?referer=https://manganelo.com&url=https://s5.mkklcdnv6temp.com/mangakakalot/a1/alabaster/vol2_chapter_7_brother_and_sister/41.jpg",
    "https://img-proxy.imgfo.com/?referer=https://manganelo.com&url=https://s5.mkklcdnv6temp.com/mangakakalot/a1/alabaster/vol2_chapter_7_brother_and_sister/42.jpg",
    "https://img-proxy.imgfo.com/?referer=https://manganelo.com&url=https://s5.mkklcdnv6temp.com/mangakakalot/a1/alabaster/vol2_chapter_7_brother_and_sister/43.jpg",
    "https://img-proxy.imgfo.com/?referer=https://manganelo.com&url=https://s5.mkklcdnv6temp.com/mangakakalot/a1/alabaster/vol2_chapter_7_brother_and_sister/44.jpg",
    "https://img-proxy.imgfo.com/?referer=https://manganelo.com&url=https://s5.mkklcdnv6temp.com/mangakakalot/a1/alabaster/vol2_chapter_7_brother_and_sister/45.jpg",
    "https://img-proxy.imgfo.com/?referer=https://manganelo.com&url=https://s5.mkklcdnv6temp.com/mangakakalot/a1/alabaster/vol2_chapter_7_brother_and_sister/46.jpg",
    "https://img-proxy.imgfo.com/?referer=https://manganelo.com&url=https://s5.mkklcdnv6temp.com/mangakakalot/a1/alabaster/vol2_chapter_7_brother_and_sister/47.jpg",
    "https://img-proxy.imgfo.com/?referer=https://manganelo.com&url=https://s5.mkklcdnv6temp.com/mangakakalot/a1/alabaster/vol2_chapter_7_brother_and_sister/48.jpg",
    "https://img-proxy.imgfo.com/?referer=https://manganelo.com&url=https://s5.mkklcdnv6temp.com/mangakakalot/a1/alabaster/vol2_chapter_7_brother_and_sister/49.jpg",
    "https://img-proxy.imgfo.com/?referer=https://manganelo.com&url=https://s5.mkklcdnv6temp.com/mangakakalot/a1/alabaster/vol2_chapter_7_brother_and_sister/50.jpg",
    "https://img-proxy.imgfo.com/?referer=https://manganelo.com&url=https://s5.mkklcdnv6temp.com/mangakakalot/a1/alabaster/vol2_chapter_7_brother_and_sister/51.jpg",
    "https://img-proxy.imgfo.com/?referer=https://manganelo.com&url=https://s5.mkklcdnv6temp.com/mangakakalot/a1/alabaster/vol2_chapter_7_brother_and_sister/52.jpg",
    "https://img-proxy.imgfo.com/?referer=https://manganelo.com&url=https://s5.mkklcdnv6temp.com/mangakakalot/a1/alabaster/vol2_chapter_7_brother_and_sister/53.jpg",
    "https://img-proxy.imgfo.com/?referer=https://manganelo.com&url=https://s5.mkklcdnv6temp.com/mangakakalot/a1/alabaster/vol2_chapter_7_brother_and_sister/54.jpg",
    "https://img-proxy.imgfo.com/?referer=https://manganelo.com&url=https://s5.mkklcdnv6temp.com/mangakakalot/a1/alabaster/vol2_chapter_7_brother_and_sister/55.jpg",
    "https://img-proxy.imgfo.com/?referer=https://manganelo.com&url=https://s5.mkklcdnv6temp.com/mangakakalot/a1/alabaster/vol2_chapter_7_brother_and_sister/56.jpg",
    "https://img-proxy.imgfo.com/?referer=https://manganelo.com&url=https://s5.mkklcdnv6temp.com/mangakakalot/a1/alabaster/vol2_chapter_7_brother_and_sister/57.jpg",
    "https://img-proxy.imgfo.com/?referer=https://manganelo.com&url=https://s5.mkklcdnv6temp.com/mangakakalot/a1/alabaster/vol2_chapter_7_brother_and_sister/58.jpg",
    "https://img-proxy.imgfo.com/?referer=https://manganelo.com&url=https://s5.mkklcdnv6temp.com/mangakakalot/a1/alabaster/vol2_chapter_7_brother_and_sister/59.jpg",
    "https://img-proxy.imgfo.com/?referer=https://manganelo.com&url=https://s5.mkklcdnv6temp.com/mangakakalot/a1/alabaster/vol2_chapter_7_brother_and_sister/60.jpg"
  ]
}