{
  "cover": "https://avt.mkklcdnv6.com/47/l/3-1583469546.jpg",
  "title": "Futaba-Kun Change",
  "original": "ふたば君チェンジ",
  "genre": "Comedy, Ecchi, Gender bender, Romance, School life, Shounen, Manga",
  "author": "Aro Hiroshi",
  "status": "Completed",
  "backlink": "https://manganu.com/collections/aro-hiroshi/futaba-kun-change/",
  "description": "Shimeru Futaba is a normal high-schooler living a normal life, active in his school's wrestling club and slowly getting closer to his awkward love interest, Misaki. This fails to last as he discovers his family's hereditary genetic defect that becomes active at adolescence. Although it will eventually become controllable, either excitement or stress now makes Futaba switch sex. Hilarity ensues.\nTranslated manga, read left to right.",
  "language": "English",
  "images": [
    "https://img-proxy.imgfo.com/?referer=https://manganelo.com&url=https://s7.mkklcdnv6temp.com/mangakakalot/f2/futabakun_change/vol08_chapter_5/1.jpg",
    "https://img-proxy.imgfo.com/?referer=https://manganelo.com&url=https://s7.mkklcdnv6temp.com/mangakakalot/f2/futabakun_change/vol08_chapter_5/2.jpg",
    "https://img-proxy.imgfo.com/?referer=https://manganelo.com&url=https://s7.mkklcdnv6temp.com/mangakakalot/f2/futabakun_change/vol08_chapter_5/3.jpg",
    "https://img-proxy.imgfo.com/?referer=https://manganelo.com&url=https://s7.mkklcdnv6temp.com/mangakakalot/f2/futabakun_change/vol08_chapter_5/4.jpg",
    "https://img-proxy.imgfo.com/?referer=https://manganelo.com&url=https://s7.mkklcdnv6temp.com/mangakakalot/f2/futabakun_change/vol08_chapter_5/5.jpg",
    "https://img-proxy.imgfo.com/?referer=https://manganelo.com&url=https://s7.mkklcdnv6temp.com/mangakakalot/f2/futabakun_change/vol08_chapter_5/6.jpg",
    "https://img-proxy.imgfo.com/?referer=https://manganelo.com&url=https://s7.mkklcdnv6temp.com/mangakakalot/f2/futabakun_change/vol08_chapter_5/7.jpg",
    "https://img-proxy.imgfo.com/?referer=https://manganelo.com&url=https://s7.mkklcdnv6temp.com/mangakakalot/f2/futabakun_change/vol08_chapter_5/8.jpg",
    "https://img-proxy.imgfo.com/?referer=https://manganelo.com&url=https://s7.mkklcdnv6temp.com/mangakakalot/f2/futabakun_change/vol08_chapter_5/9.jpg",
    "https://img-proxy.imgfo.com/?referer=https://manganelo.com&url=https://s7.mkklcdnv6temp.com/mangakakalot/f2/futabakun_change/vol08_chapter_5/10.jpg",
    "https://img-proxy.imgfo.com/?referer=https://manganelo.com&url=https://s7.mkklcdnv6temp.com/mangakakalot/f2/futabakun_change/vol08_chapter_5/11.jpg",
    "https://img-proxy.imgfo.com/?referer=https://manganelo.com&url=https://s7.mkklcdnv6temp.com/mangakakalot/f2/futabakun_change/vol08_chapter_5/12.jpg",
    "https://img-proxy.imgfo.com/?referer=https://manganelo.com&url=https://s7.mkklcdnv6temp.com/mangakakalot/f2/futabakun_change/vol08_chapter_5/13.jpg",
    "https://img-proxy.imgfo.com/?referer=https://manganelo.com&url=https://s7.mkklcdnv6temp.com/mangakakalot/f2/futabakun_change/vol08_chapter_5/14.jpg",
    "https://img-proxy.imgfo.com/?referer=https://manganelo.com&url=https://s7.mkklcdnv6temp.com/mangakakalot/f2/futabakun_change/vol08_chapter_5/15.jpg",
    "https://img-proxy.imgfo.com/?referer=https://manganelo.com&url=https://s7.mkklcdnv6temp.com/mangakakalot/f2/futabakun_change/vol08_chapter_5/16.jpg",
    "https://img-proxy.imgfo.com/?referer=https://manganelo.com&url=https://s7.mkklcdnv6temp.com/mangakakalot/f2/futabakun_change/vol08_chapter_5/17.jpg",
    "https://img-proxy.imgfo.com/?referer=https://manganelo.com&url=https://s7.mkklcdnv6temp.com/mangakakalot/f2/futabakun_change/vol08_chapter_5/18.jpg",
    "https://img-proxy.imgfo.com/?referer=https://manganelo.com&url=https://s7.mkklcdnv6temp.com/mangakakalot/f2/futabakun_change/vol08_chapter_5/19.jpg",
    "https://img-proxy.imgfo.com/?referer=https://manganelo.com&url=https://s7.mkklcdnv6temp.com/mangakakalot/f2/futabakun_change/vol08_chapter_5/20.jpg",
    "https://img-proxy.imgfo.com/?referer=https://manganelo.com&url=https://s7.mkklcdnv6temp.com/mangakakalot/f2/futabakun_change/vol08_chapter_5/21.jpg",
    "https://img-proxy.imgfo.com/?referer=https://manganelo.com&url=https://s7.mkklcdnv6temp.com/mangakakalot/f2/futabakun_change/vol08_chapter_5/22.jpg",
    "https://img-proxy.imgfo.com/?referer=https://manganelo.com&url=https://s7.mkklcdnv6temp.com/mangakakalot/f2/futabakun_change/vol08_chapter_5/23.jpg",
    "https://img-proxy.imgfo.com/?referer=https://manganelo.com&url=https://s7.mkklcdnv6temp.com/mangakakalot/f2/futabakun_change/vol08_chapter_5/24.jpg",
    "https://img-proxy.imgfo.com/?referer=https://manganelo.com&url=https://s7.mkklcdnv6temp.com/mangakakalot/f2/futabakun_change/vol08_chapter_5/25.jpg",
    "https://img-proxy.imgfo.com/?referer=https://manganelo.com&url=https://s7.mkklcdnv6temp.com/mangakakalot/f2/futabakun_change/vol08_chapter_5/26.jpg",
    "https://img-proxy.imgfo.com/?referer=https://manganelo.com&url=https://s7.mkklcdnv6temp.com/mangakakalot/f2/futabakun_change/vol08_chapter_5/27.jpg",
    "https://img-proxy.imgfo.com/?referer=https://manganelo.com&url=https://s7.mkklcdnv6temp.com/mangakakalot/f2/futabakun_change/vol08_chapter_5/28.jpg",
    "https://img-proxy.imgfo.com/?referer=https://manganelo.com&url=https://s7.mkklcdnv6temp.com/mangakakalot/f2/futabakun_change/vol08_chapter_5/29.jpg",
    "https://img-proxy.imgfo.com/?referer=https://manganelo.com&url=https://s7.mkklcdnv6temp.com/mangakakalot/f2/futabakun_change/vol08_chapter_5/30.jpg"
  ]
}