{
  "cover": "https://avt.mkklcdnv6.com/44/p/5-1583473634.jpg",
  "title": "Honey^2 Skip!",
  "original": "Ｈｏｎｅｙ² 〈ハニハニ〉 スキップ！ ; Honey 2 Skip ; Honey Honey Skip ; Honey² スキップ ; Honey² [Honey Honey] Sukippu! ; Honey2 スキップ！ ; Honey² Skip!",
  "genre": "Comedy, Gender bender, Shoujo, Manga",
  "author": "Ooya Kazumi",
  "status": "Completed",
  "backlink": "https://manganu.com/collections/ooya-kazumi/honey^2-skip/",
  "description": "Hidaka Ikumi lost contact with his older brother Tomo at a young age after Tomo was adopted by another family. Now in present time, with Ikumi at 16 years, Tomo had suddenly returned. Much to Ikumi's surprize, Tomo had came back dressed as a woman. Or at the very least, a very girly man. What had happened to Tomo that would cause him to now dress like this and why did he return?\n[From ShoujoMagic]:\nIkumi HIDAKA is a young man who lives with his grandmother and enjoys doing chores in his spare time. Then one day, his older brother Tomonori, whom he lost contact with when the boy was adopted by another branch of the family at the age of 5, returns. But why does Tomonori now look like a woman...!?",
  "language": "English",
  "images": [
    "https://img-proxy.imgfo.com/?referer=https://manganelo.com&url=https://s7.mkklcdnv6temp.com/mangakakalot/h2/honey2_skip/vol2_chapter_6_secret_job/1.jpg",
    "https://img-proxy.imgfo.com/?referer=https://manganelo.com&url=https://s7.mkklcdnv6temp.com/mangakakalot/h2/honey2_skip/vol2_chapter_6_secret_job/2.jpg",
    "https://img-proxy.imgfo.com/?referer=https://manganelo.com&url=https://s7.mkklcdnv6temp.com/mangakakalot/h2/honey2_skip/vol2_chapter_6_secret_job/3.jpg",
    "https://img-proxy.imgfo.com/?referer=https://manganelo.com&url=https://s7.mkklcdnv6temp.com/mangakakalot/h2/honey2_skip/vol2_chapter_6_secret_job/4.jpg",
    "https://img-proxy.imgfo.com/?referer=https://manganelo.com&url=https://s7.mkklcdnv6temp.com/mangakakalot/h2/honey2_skip/vol2_chapter_6_secret_job/5.jpg",
    "https://img-proxy.imgfo.com/?referer=https://manganelo.com&url=https://s7.mkklcdnv6temp.com/mangakakalot/h2/honey2_skip/vol2_chapter_6_secret_job/6.jpg",
    "https://img-proxy.imgfo.com/?referer=https://manganelo.com&url=https://s7.mkklcdnv6temp.com/mangakakalot/h2/honey2_skip/vol2_chapter_6_secret_job/7.jpg",
    "https://img-proxy.imgfo.com/?referer=https://manganelo.com&url=https://s7.mkklcdnv6temp.com/mangakakalot/h2/honey2_skip/vol2_chapter_6_secret_job/8.jpg",
    "https://img-proxy.imgfo.com/?referer=https://manganelo.com&url=https://s7.mkklcdnv6temp.com/mangakakalot/h2/honey2_skip/vol2_chapter_6_secret_job/9.jpg",
    "https://img-proxy.imgfo.com/?referer=https://manganelo.com&url=https://s7.mkklcdnv6temp.com/mangakakalot/h2/honey2_skip/vol2_chapter_6_secret_job/10.jpg",
    "https://img-proxy.imgfo.com/?referer=https://manganelo.com&url=https://s7.mkklcdnv6temp.com/mangakakalot/h2/honey2_skip/vol2_chapter_6_secret_job/11.jpg",
    "https://img-proxy.imgfo.com/?referer=https://manganelo.com&url=https://s7.mkklcdnv6temp.com/mangakakalot/h2/honey2_skip/vol2_chapter_6_secret_job/12.jpg",
    "https://img-proxy.imgfo.com/?referer=https://manganelo.com&url=https://s7.mkklcdnv6temp.com/mangakakalot/h2/honey2_skip/vol2_chapter_6_secret_job/13.jpg",
    "https://img-proxy.imgfo.com/?referer=https://manganelo.com&url=https://s7.mkklcdnv6temp.com/mangakakalot/h2/honey2_skip/vol2_chapter_6_secret_job/14.jpg",
    "https://img-proxy.imgfo.com/?referer=https://manganelo.com&url=https://s7.mkklcdnv6temp.com/mangakakalot/h2/honey2_skip/vol2_chapter_6_secret_job/15.jpg",
    "https://img-proxy.imgfo.com/?referer=https://manganelo.com&url=https://s7.mkklcdnv6temp.com/mangakakalot/h2/honey2_skip/vol2_chapter_6_secret_job/16.jpg",
    "https://img-proxy.imgfo.com/?referer=https://manganelo.com&url=https://s7.mkklcdnv6temp.com/mangakakalot/h2/honey2_skip/vol2_chapter_6_secret_job/17.jpg",
    "https://img-proxy.imgfo.com/?referer=https://manganelo.com&url=https://s7.mkklcdnv6temp.com/mangakakalot/h2/honey2_skip/vol2_chapter_6_secret_job/18.jpg",
    "https://img-proxy.imgfo.com/?referer=https://manganelo.com&url=https://s7.mkklcdnv6temp.com/mangakakalot/h2/honey2_skip/vol2_chapter_6_secret_job/19.jpg",
    "https://img-proxy.imgfo.com/?referer=https://manganelo.com&url=https://s7.mkklcdnv6temp.com/mangakakalot/h2/honey2_skip/vol2_chapter_6_secret_job/20.jpg",
    "https://img-proxy.imgfo.com/?referer=https://manganelo.com&url=https://s7.mkklcdnv6temp.com/mangakakalot/h2/honey2_skip/vol2_chapter_6_secret_job/21.jpg",
    "https://img-proxy.imgfo.com/?referer=https://manganelo.com&url=https://s7.mkklcdnv6temp.com/mangakakalot/h2/honey2_skip/vol2_chapter_6_secret_job/22.jpg",
    "https://img-proxy.imgfo.com/?referer=https://manganelo.com&url=https://s7.mkklcdnv6temp.com/mangakakalot/h2/honey2_skip/vol2_chapter_6_secret_job/23.jpg",
    "https://img-proxy.imgfo.com/?referer=https://manganelo.com&url=https://s7.mkklcdnv6temp.com/mangakakalot/h2/honey2_skip/vol2_chapter_6_secret_job/24.jpg",
    "https://img-proxy.imgfo.com/?referer=https://manganelo.com&url=https://s7.mkklcdnv6temp.com/mangakakalot/h2/honey2_skip/vol2_chapter_6_secret_job/25.jpg",
    "https://img-proxy.imgfo.com/?referer=https://manganelo.com&url=https://s7.mkklcdnv6temp.com/mangakakalot/h2/honey2_skip/vol2_chapter_6_secret_job/26.jpg",
    "https://img-proxy.imgfo.com/?referer=https://manganelo.com&url=https://s7.mkklcdnv6temp.com/mangakakalot/h2/honey2_skip/vol2_chapter_6_secret_job/27.jpg",
    "https://img-proxy.imgfo.com/?referer=https://manganelo.com&url=https://s7.mkklcdnv6temp.com/mangakakalot/h2/honey2_skip/vol2_chapter_6_secret_job/28.jpg",
    "https://img-proxy.imgfo.com/?referer=https://manganelo.com&url=https://s7.mkklcdnv6temp.com/mangakakalot/h2/honey2_skip/vol2_chapter_6_secret_job/29.jpg",
    "https://img-proxy.imgfo.com/?referer=https://manganelo.com&url=https://s7.mkklcdnv6temp.com/mangakakalot/h2/honey2_skip/vol2_chapter_6_secret_job/30.jpg",
    "https://img-proxy.imgfo.com/?referer=https://manganelo.com&url=https://s7.mkklcdnv6temp.com/mangakakalot/h2/honey2_skip/vol2_chapter_6_secret_job/31.jpg",
    "https://img-proxy.imgfo.com/?referer=https://manganelo.com&url=https://s7.mkklcdnv6temp.com/mangakakalot/h2/honey2_skip/vol2_chapter_6_secret_job/32.jpg",
    "https://img-proxy.imgfo.com/?referer=https://manganelo.com&url=https://s7.mkklcdnv6temp.com/mangakakalot/h2/honey2_skip/vol2_chapter_6_secret_job/33.jpg",
    "https://img-proxy.imgfo.com/?referer=https://manganelo.com&url=https://s7.mkklcdnv6temp.com/mangakakalot/h2/honey2_skip/vol2_chapter_6_secret_job/34.jpg",
    "https://img-proxy.imgfo.com/?referer=https://manganelo.com&url=https://s7.mkklcdnv6temp.com/mangakakalot/h2/honey2_skip/vol2_chapter_6_secret_job/35.jpg",
    "https://img-proxy.imgfo.com/?referer=https://manganelo.com&url=https://s7.mkklcdnv6temp.com/mangakakalot/h2/honey2_skip/vol2_chapter_6_secret_job/36.jpg",
    "https://img-proxy.imgfo.com/?referer=https://manganelo.com&url=https://s7.mkklcdnv6temp.com/mangakakalot/h2/honey2_skip/vol2_chapter_6_secret_job/37.jpg",
    "https://img-proxy.imgfo.com/?referer=https://manganelo.com&url=https://s7.mkklcdnv6temp.com/mangakakalot/h2/honey2_skip/vol2_chapter_6_secret_job/38.jpg",
    "https://img-proxy.imgfo.com/?referer=https://manganelo.com&url=https://s7.mkklcdnv6temp.com/mangakakalot/h2/honey2_skip/vol2_chapter_6_secret_job/39.jpg",
    "https://img-proxy.imgfo.com/?referer=https://manganelo.com&url=https://s7.mkklcdnv6temp.com/mangakakalot/h2/honey2_skip/vol2_chapter_6_secret_job/40.jpg",
    "https://img-proxy.imgfo.com/?referer=https://manganelo.com&url=https://s7.mkklcdnv6temp.com/mangakakalot/h2/honey2_skip/vol2_chapter_6_secret_job/41.jpg",
    "https://img-proxy.imgfo.com/?referer=https://manganelo.com&url=https://s7.mkklcdnv6temp.com/mangakakalot/h2/honey2_skip/vol2_chapter_6_secret_job/42.jpg"
  ]
}