{
  "cover": "https://avt.mkklcdnv6.com/49/b/3-1583469609.jpg",
  "title": "Family Compo",
  "original": "ファミリー・コンポ (Japanese); 搞怪家庭; 非常家庭 (Chinese); Family Component; F.COMPO (English); F. Compo อลวนรักสลับขั้ว (Thai); ",
  "genre": "Comedy, Drama, Ecchi, Gender bender, Romance, Seinen, Slice of life, Manga",
  "author": "Hojo Tsukasa",
  "status": "Completed",
  "backlink": "https://manganu.com/collections/hojo-tsukasa/family-compo/",
  "description": "Just before entering the university, Yanagiba Masahiko&#39;s father died in a car accident. His mother died when he was four, which makes him now really an orphan. But even before the death of his father, he didn&#39;t have a family life, as his father was always busy or abroad. When his mother&#39;s younger brother and his wife decide to invite him to live with their family, his life takes a turn. But it is not going to be the normal family life he is imagining for himself. What is the &quot;terrible&quot; secret that led his parents to break the bonds with his aunt and uncle? What could be the true nature of his cousin, Shion? And last but not least, will this &quot;terrible&quot; secret eventually get Yanagiba, too?",
  "language": "English",
  "images": [
    "https://img-proxy.imgfo.com/?referer=https://manganelo.com&url=https://s41.mkklcdnv6temp.com/mangakakalot/f1/family_compo/vol4_chapter_28_his_nineteenth_birthday/1.jpg",
    "https://img-proxy.imgfo.com/?referer=https://manganelo.com&url=https://s41.mkklcdnv6temp.com/mangakakalot/f1/family_compo/vol4_chapter_28_his_nineteenth_birthday/2.jpg",
    "https://img-proxy.imgfo.com/?referer=https://manganelo.com&url=https://s41.mkklcdnv6temp.com/mangakakalot/f1/family_compo/vol4_chapter_28_his_nineteenth_birthday/3.jpg",
    "https://img-proxy.imgfo.com/?referer=https://manganelo.com&url=https://s41.mkklcdnv6temp.com/mangakakalot/f1/family_compo/vol4_chapter_28_his_nineteenth_birthday/4.jpg",
    "https://img-proxy.imgfo.com/?referer=https://manganelo.com&url=https://s41.mkklcdnv6temp.com/mangakakalot/f1/family_compo/vol4_chapter_28_his_nineteenth_birthday/5.jpg",
    "https://img-proxy.imgfo.com/?referer=https://manganelo.com&url=https://s41.mkklcdnv6temp.com/mangakakalot/f1/family_compo/vol4_chapter_28_his_nineteenth_birthday/6.jpg",
    "https://img-proxy.imgfo.com/?referer=https://manganelo.com&url=https://s41.mkklcdnv6temp.com/mangakakalot/f1/family_compo/vol4_chapter_28_his_nineteenth_birthday/7.jpg",
    "https://img-proxy.imgfo.com/?referer=https://manganelo.com&url=https://s41.mkklcdnv6temp.com/mangakakalot/f1/family_compo/vol4_chapter_28_his_nineteenth_birthday/8.jpg",
    "https://img-proxy.imgfo.com/?referer=https://manganelo.com&url=https://s41.mkklcdnv6temp.com/mangakakalot/f1/family_compo/vol4_chapter_28_his_nineteenth_birthday/9.jpg",
    "https://img-proxy.imgfo.com/?referer=https://manganelo.com&url=https://s41.mkklcdnv6temp.com/mangakakalot/f1/family_compo/vol4_chapter_28_his_nineteenth_birthday/10.jpg",
    "https://img-proxy.imgfo.com/?referer=https://manganelo.com&url=https://s41.mkklcdnv6temp.com/mangakakalot/f1/family_compo/vol4_chapter_28_his_nineteenth_birthday/11.jpg",
    "https://img-proxy.imgfo.com/?referer=https://manganelo.com&url=https://s41.mkklcdnv6temp.com/mangakakalot/f1/family_compo/vol4_chapter_28_his_nineteenth_birthday/12.jpg",
    "https://img-proxy.imgfo.com/?referer=https://manganelo.com&url=https://s41.mkklcdnv6temp.com/mangakakalot/f1/family_compo/vol4_chapter_28_his_nineteenth_birthday/13.jpg",
    "https://img-proxy.imgfo.com/?referer=https://manganelo.com&url=https://s41.mkklcdnv6temp.com/mangakakalot/f1/family_compo/vol4_chapter_28_his_nineteenth_birthday/14.jpg",
    "https://img-proxy.imgfo.com/?referer=https://manganelo.com&url=https://s41.mkklcdnv6temp.com/mangakakalot/f1/family_compo/vol4_chapter_28_his_nineteenth_birthday/15.jpg",
    "https://img-proxy.imgfo.com/?referer=https://manganelo.com&url=https://s41.mkklcdnv6temp.com/mangakakalot/f1/family_compo/vol4_chapter_28_his_nineteenth_birthday/16.jpg",
    "https://img-proxy.imgfo.com/?referer=https://manganelo.com&url=https://s41.mkklcdnv6temp.com/mangakakalot/f1/family_compo/vol4_chapter_28_his_nineteenth_birthday/17.jpg",
    "https://img-proxy.imgfo.com/?referer=https://manganelo.com&url=https://s41.mkklcdnv6temp.com/mangakakalot/f1/family_compo/vol4_chapter_28_his_nineteenth_birthday/18.jpg",
    "https://img-proxy.imgfo.com/?referer=https://manganelo.com&url=https://s41.mkklcdnv6temp.com/mangakakalot/f1/family_compo/vol4_chapter_28_his_nineteenth_birthday/19.jpg",
    "https://img-proxy.imgfo.com/?referer=https://manganelo.com&url=https://s41.mkklcdnv6temp.com/mangakakalot/f1/family_compo/vol4_chapter_28_his_nineteenth_birthday/20.jpg",
    "https://img-proxy.imgfo.com/?referer=https://manganelo.com&url=https://s41.mkklcdnv6temp.com/mangakakalot/f1/family_compo/vol4_chapter_28_his_nineteenth_birthday/21.jpg",
    "https://img-proxy.imgfo.com/?referer=https://manganelo.com&url=https://s41.mkklcdnv6temp.com/mangakakalot/f1/family_compo/vol4_chapter_28_his_nineteenth_birthday/22.jpg",
    "https://img-proxy.imgfo.com/?referer=https://manganelo.com&url=https://s41.mkklcdnv6temp.com/mangakakalot/f1/family_compo/vol4_chapter_28_his_nineteenth_birthday/23.jpg",
    "https://img-proxy.imgfo.com/?referer=https://manganelo.com&url=https://s41.mkklcdnv6temp.com/mangakakalot/f1/family_compo/vol4_chapter_28_his_nineteenth_birthday/24.jpg",
    "https://img-proxy.imgfo.com/?referer=https://manganelo.com&url=https://s41.mkklcdnv6temp.com/mangakakalot/f1/family_compo/vol4_chapter_28_his_nineteenth_birthday/25.jpg",
    "https://img-proxy.imgfo.com/?referer=https://manganelo.com&url=https://s41.mkklcdnv6temp.com/mangakakalot/f1/family_compo/vol4_chapter_28_his_nineteenth_birthday/26.jpg"
  ]
}