{
  "cover": "https://avt.mkklcdnv6.com/17/v/13-1583488394.jpg",
  "title": "Heads",
  "original": "ヘッズ ; HE∀DS",
  "genre": "Drama, Mature, Psychological, Sci fi, Seinen, Manga",
  "author": "Higashino Keigo",
  "status": "Completed",
  "backlink": "https://manganu.com/collections/higashino-keigo/heads/",
  "description": "This manga's story is based on a thriller by Keigo Higashino. The main protagonist, the shy Jun Naruse, is a rather average guy who works for a electronic company and loves to draw. He falls in love with Megumi whom he met at a shop selling drawing materials and an intimate relationship develops. A few days later the office gets attacked and when the criminal tries to shoot a little girl he saves her by jumping in front of her.\nA month passes until he wakes up again and is told that half his brain got destroyed and he only survived because someone donated half a brain. Everything seems to be fine, he quickly recovers and is happy, however he begins to change...is the donated brain the reason for that? Or is it just a side effect of the medicine?",
  "language": "English",
  "images": [
    "https://img-proxy.imgfo.com/?referer=https://manganelo.com&url=https://s41.mkklcdnv6temp.com/mangakakalot/h1/heads/vol2_chapter_15_celebration_of_the_recovery/1.jpg",
    "https://img-proxy.imgfo.com/?referer=https://manganelo.com&url=https://s41.mkklcdnv6temp.com/mangakakalot/h1/heads/vol2_chapter_15_celebration_of_the_recovery/2.jpg",
    "https://img-proxy.imgfo.com/?referer=https://manganelo.com&url=https://s41.mkklcdnv6temp.com/mangakakalot/h1/heads/vol2_chapter_15_celebration_of_the_recovery/3.jpg",
    "https://img-proxy.imgfo.com/?referer=https://manganelo.com&url=https://s41.mkklcdnv6temp.com/mangakakalot/h1/heads/vol2_chapter_15_celebration_of_the_recovery/4.jpg",
    "https://img-proxy.imgfo.com/?referer=https://manganelo.com&url=https://s41.mkklcdnv6temp.com/mangakakalot/h1/heads/vol2_chapter_15_celebration_of_the_recovery/5.jpg",
    "https://img-proxy.imgfo.com/?referer=https://manganelo.com&url=https://s41.mkklcdnv6temp.com/mangakakalot/h1/heads/vol2_chapter_15_celebration_of_the_recovery/6.jpg",
    "https://img-proxy.imgfo.com/?referer=https://manganelo.com&url=https://s41.mkklcdnv6temp.com/mangakakalot/h1/heads/vol2_chapter_15_celebration_of_the_recovery/7.jpg",
    "https://img-proxy.imgfo.com/?referer=https://manganelo.com&url=https://s41.mkklcdnv6temp.com/mangakakalot/h1/heads/vol2_chapter_15_celebration_of_the_recovery/8.jpg",
    "https://img-proxy.imgfo.com/?referer=https://manganelo.com&url=https://s41.mkklcdnv6temp.com/mangakakalot/h1/heads/vol2_chapter_15_celebration_of_the_recovery/9.jpg",
    "https://img-proxy.imgfo.com/?referer=https://manganelo.com&url=https://s41.mkklcdnv6temp.com/mangakakalot/h1/heads/vol2_chapter_15_celebration_of_the_recovery/10.jpg",
    "https://img-proxy.imgfo.com/?referer=https://manganelo.com&url=https://s41.mkklcdnv6temp.com/mangakakalot/h1/heads/vol2_chapter_15_celebration_of_the_recovery/11.jpg",
    "https://img-proxy.imgfo.com/?referer=https://manganelo.com&url=https://s41.mkklcdnv6temp.com/mangakakalot/h1/heads/vol2_chapter_15_celebration_of_the_recovery/12.jpg",
    "https://img-proxy.imgfo.com/?referer=https://manganelo.com&url=https://s41.mkklcdnv6temp.com/mangakakalot/h1/heads/vol2_chapter_15_celebration_of_the_recovery/13.jpg",
    "https://img-proxy.imgfo.com/?referer=https://manganelo.com&url=https://s41.mkklcdnv6temp.com/mangakakalot/h1/heads/vol2_chapter_15_celebration_of_the_recovery/14.jpg",
    "https://img-proxy.imgfo.com/?referer=https://manganelo.com&url=https://s41.mkklcdnv6temp.com/mangakakalot/h1/heads/vol2_chapter_15_celebration_of_the_recovery/15.jpg",
    "https://img-proxy.imgfo.com/?referer=https://manganelo.com&url=https://s41.mkklcdnv6temp.com/mangakakalot/h1/heads/vol2_chapter_15_celebration_of_the_recovery/16.jpg",
    "https://img-proxy.imgfo.com/?referer=https://manganelo.com&url=https://s41.mkklcdnv6temp.com/mangakakalot/h1/heads/vol2_chapter_15_celebration_of_the_recovery/17.jpg",
    "https://img-proxy.imgfo.com/?referer=https://manganelo.com&url=https://s41.mkklcdnv6temp.com/mangakakalot/h1/heads/vol2_chapter_15_celebration_of_the_recovery/18.jpg",
    "https://img-proxy.imgfo.com/?referer=https://manganelo.com&url=https://s41.mkklcdnv6temp.com/mangakakalot/h1/heads/vol2_chapter_15_celebration_of_the_recovery/19.jpg",
    "https://img-proxy.imgfo.com/?referer=https://manganelo.com&url=https://s41.mkklcdnv6temp.com/mangakakalot/h1/heads/vol2_chapter_15_celebration_of_the_recovery/20.jpg",
    "https://img-proxy.imgfo.com/?referer=https://manganelo.com&url=https://s41.mkklcdnv6temp.com/mangakakalot/h1/heads/vol2_chapter_15_celebration_of_the_recovery/21.jpg",
    "https://img-proxy.imgfo.com/?referer=https://manganelo.com&url=https://s41.mkklcdnv6temp.com/mangakakalot/h1/heads/vol2_chapter_15_celebration_of_the_recovery/22.jpg"
  ]
}