{
  "cover": "https://avt.mkklcdnv6.com/29/g/4-1583470890.jpg",
  "title": "Konjiki No Gash!!",
  "original": "金童卡修 ; 金色のガッシュ!! ; 金色的卡修 ; 魔法少年賈修 ; 금색의 가슈!! ; Gash Bell! ; Golden Boy Gash!! ; Konjiki no Gash Bell!! ; Zatch Bell!",
  "genre": "Action, Comedy, Fantasy, Shounen, Manga",
  "author": "Raiku Makoto",
  "status": "Completed",
  "backlink": "https://manganu.com/collections/raiku-makoto/konjiki-no-gash/",
  "description": "Every 1,000 years, 100 demon children are sent to Earth to compete in a battle to become king of the Demon World. Each demon is paired with a human partner who is given a spell book of a specific color. The human can cast the demon's spells through their book. If a demon's book is burned, they disappear and return to the Demon World. The last demon remaining becomes the king. The show is oriented around Gash Bell and his human partner, Takamine Kiyomaro.\nIn 2003 Zatch Bell! won the Shogakukan Manga Award for best shounen title of the year.",
  "language": "English",
  "images": [
    "https://img-proxy.imgfo.com/?referer=https://manganelo.com&url=https://s51.mkklcdnv6temp.com/mangakakalot/k2/konjiki_no_gash/vol30_chapter_292_ten_months_left/1.jpg",
    "https://img-proxy.imgfo.com/?referer=https://manganelo.com&url=https://s51.mkklcdnv6temp.com/mangakakalot/k2/konjiki_no_gash/vol30_chapter_292_ten_months_left/2.jpg",
    "https://img-proxy.imgfo.com/?referer=https://manganelo.com&url=https://s51.mkklcdnv6temp.com/mangakakalot/k2/konjiki_no_gash/vol30_chapter_292_ten_months_left/3.jpg",
    "https://img-proxy.imgfo.com/?referer=https://manganelo.com&url=https://s51.mkklcdnv6temp.com/mangakakalot/k2/konjiki_no_gash/vol30_chapter_292_ten_months_left/4.jpg",
    "https://img-proxy.imgfo.com/?referer=https://manganelo.com&url=https://s51.mkklcdnv6temp.com/mangakakalot/k2/konjiki_no_gash/vol30_chapter_292_ten_months_left/5.jpg",
    "https://img-proxy.imgfo.com/?referer=https://manganelo.com&url=https://s51.mkklcdnv6temp.com/mangakakalot/k2/konjiki_no_gash/vol30_chapter_292_ten_months_left/6.jpg",
    "https://img-proxy.imgfo.com/?referer=https://manganelo.com&url=https://s51.mkklcdnv6temp.com/mangakakalot/k2/konjiki_no_gash/vol30_chapter_292_ten_months_left/7.jpg",
    "https://img-proxy.imgfo.com/?referer=https://manganelo.com&url=https://s51.mkklcdnv6temp.com/mangakakalot/k2/konjiki_no_gash/vol30_chapter_292_ten_months_left/8.jpg",
    "https://img-proxy.imgfo.com/?referer=https://manganelo.com&url=https://s51.mkklcdnv6temp.com/mangakakalot/k2/konjiki_no_gash/vol30_chapter_292_ten_months_left/9.jpg",
    "https://img-proxy.imgfo.com/?referer=https://manganelo.com&url=https://s51.mkklcdnv6temp.com/mangakakalot/k2/konjiki_no_gash/vol30_chapter_292_ten_months_left/10.jpg",
    "https://img-proxy.imgfo.com/?referer=https://manganelo.com&url=https://s51.mkklcdnv6temp.com/mangakakalot/k2/konjiki_no_gash/vol30_chapter_292_ten_months_left/11.jpg",
    "https://img-proxy.imgfo.com/?referer=https://manganelo.com&url=https://s51.mkklcdnv6temp.com/mangakakalot/k2/konjiki_no_gash/vol30_chapter_292_ten_months_left/12.jpg",
    "https://img-proxy.imgfo.com/?referer=https://manganelo.com&url=https://s51.mkklcdnv6temp.com/mangakakalot/k2/konjiki_no_gash/vol30_chapter_292_ten_months_left/13.jpg",
    "https://img-proxy.imgfo.com/?referer=https://manganelo.com&url=https://s51.mkklcdnv6temp.com/mangakakalot/k2/konjiki_no_gash/vol30_chapter_292_ten_months_left/14.jpg",
    "https://img-proxy.imgfo.com/?referer=https://manganelo.com&url=https://s51.mkklcdnv6temp.com/mangakakalot/k2/konjiki_no_gash/vol30_chapter_292_ten_months_left/15.jpg",
    "https://img-proxy.imgfo.com/?referer=https://manganelo.com&url=https://s51.mkklcdnv6temp.com/mangakakalot/k2/konjiki_no_gash/vol30_chapter_292_ten_months_left/16.jpg",
    "https://img-proxy.imgfo.com/?referer=https://manganelo.com&url=https://s51.mkklcdnv6temp.com/mangakakalot/k2/konjiki_no_gash/vol30_chapter_292_ten_months_left/17.jpg"
  ]
}