{
  "cover": "https://avt.mkklcdnv6.com/26/d/5-1583472852.jpg",
  "title": "Swan Lake",
  "original": "スワン レイク ; スワンレイク",
  "genre": "Comedy, Drama, Fantasy, Romance, School life, Shoujo, Manga",
  "author": "Higuchi Tachibana",
  "status": "Completed",
  "backlink": "https://manganu.com/collections/higuchi-tachibana/swan-lake/",
  "description": "From Dragon Voice Project:\nCollection of three short stories from the mangaka of Gakuen Alice. A older manga by Higuchi Tachibana based on certain fairytales. Cinderella, mermaid, and frogs...\nMain parts from fallen_18/lonelyduchess :\nSwan Lake: Nire, a girl that can be considered as Perfect. Unknown to others, she's actually poor. Very poor. Her goal is to marry a rich and handsome guy like Katsuragi-sempai. Aiba, a transfer student, had a bet with his friends to make Nire his girlfriend and eventually found out that she's actually poor. And so he threatened Nire to go out with him, if she doesn't comply to his wishes, he's going to tell everyone her secret.\nMermaid: Tajima, was a mermaid princess who turned into a bubble. After a hundred years, a witch gave her a chance to get reincarnated into a human to search for her prince who was also reincarnated. The witch told the mermaid that when she finally finds her prince, she'll be able to remember her mermaid past and she wont be able to speak to him for a whole week. During that week, Tajima has to make the prince fall in love with her or else she'll be turned into a bubble again...\nFrog Princess: Kikuhime, hates frogs. One day, she spotted a talking frog, who was once a human being named Ukia but was cursed by a Frog Deity for killing many animals. Whenever he hears the word, 'Frog' he'll turn into one. But Ukai spotted her coming out from a maternity clinic, now a turn of up and down events are coming to Kikuhime's way.",
  "language": "English",
  "images": [
    "https://img-proxy.imgfo.com/?referer=https://manganelo.com&url=https://s6.mkklcdnv6temp.com/mangakakalot/s2/swan_lake/vol1_chapter_4/1.jpg",
    "https://img-proxy.imgfo.com/?referer=https://manganelo.com&url=https://s6.mkklcdnv6temp.com/mangakakalot/s2/swan_lake/vol1_chapter_4/2.jpg",
    "https://img-proxy.imgfo.com/?referer=https://manganelo.com&url=https://s6.mkklcdnv6temp.com/mangakakalot/s2/swan_lake/vol1_chapter_4/3.jpg",
    "https://img-proxy.imgfo.com/?referer=https://manganelo.com&url=https://s6.mkklcdnv6temp.com/mangakakalot/s2/swan_lake/vol1_chapter_4/4.jpg",
    "https://img-proxy.imgfo.com/?referer=https://manganelo.com&url=https://s6.mkklcdnv6temp.com/mangakakalot/s2/swan_lake/vol1_chapter_4/5.jpg",
    "https://img-proxy.imgfo.com/?referer=https://manganelo.com&url=https://s6.mkklcdnv6temp.com/mangakakalot/s2/swan_lake/vol1_chapter_4/6.jpg",
    "https://img-proxy.imgfo.com/?referer=https://manganelo.com&url=https://s6.mkklcdnv6temp.com/mangakakalot/s2/swan_lake/vol1_chapter_4/7.jpg",
    "https://img-proxy.imgfo.com/?referer=https://manganelo.com&url=https://s6.mkklcdnv6temp.com/mangakakalot/s2/swan_lake/vol1_chapter_4/8.jpg",
    "https://img-proxy.imgfo.com/?referer=https://manganelo.com&url=https://s6.mkklcdnv6temp.com/mangakakalot/s2/swan_lake/vol1_chapter_4/9.jpg",
    "https://img-proxy.imgfo.com/?referer=https://manganelo.com&url=https://s6.mkklcdnv6temp.com/mangakakalot/s2/swan_lake/vol1_chapter_4/10.jpg",
    "https://img-proxy.imgfo.com/?referer=https://manganelo.com&url=https://s6.mkklcdnv6temp.com/mangakakalot/s2/swan_lake/vol1_chapter_4/11.jpg",
    "https://img-proxy.imgfo.com/?referer=https://manganelo.com&url=https://s6.mkklcdnv6temp.com/mangakakalot/s2/swan_lake/vol1_chapter_4/12.jpg",
    "https://img-proxy.imgfo.com/?referer=https://manganelo.com&url=https://s6.mkklcdnv6temp.com/mangakakalot/s2/swan_lake/vol1_chapter_4/13.jpg",
    "https://img-proxy.imgfo.com/?referer=https://manganelo.com&url=https://s6.mkklcdnv6temp.com/mangakakalot/s2/swan_lake/vol1_chapter_4/14.jpg",
    "https://img-proxy.imgfo.com/?referer=https://manganelo.com&url=https://s6.mkklcdnv6temp.com/mangakakalot/s2/swan_lake/vol1_chapter_4/15.jpg",
    "https://img-proxy.imgfo.com/?referer=https://manganelo.com&url=https://s6.mkklcdnv6temp.com/mangakakalot/s2/swan_lake/vol1_chapter_4/16.jpg",
    "https://img-proxy.imgfo.com/?referer=https://manganelo.com&url=https://s6.mkklcdnv6temp.com/mangakakalot/s2/swan_lake/vol1_chapter_4/17.jpg",
    "https://img-proxy.imgfo.com/?referer=https://manganelo.com&url=https://s6.mkklcdnv6temp.com/mangakakalot/s2/swan_lake/vol1_chapter_4/18.jpg",
    "https://img-proxy.imgfo.com/?referer=https://manganelo.com&url=https://s6.mkklcdnv6temp.com/mangakakalot/s2/swan_lake/vol1_chapter_4/19.jpg",
    "https://img-proxy.imgfo.com/?referer=https://manganelo.com&url=https://s6.mkklcdnv6temp.com/mangakakalot/s2/swan_lake/vol1_chapter_4/20.jpg",
    "https://img-proxy.imgfo.com/?referer=https://manganelo.com&url=https://s6.mkklcdnv6temp.com/mangakakalot/s2/swan_lake/vol1_chapter_4/21.jpg",
    "https://img-proxy.imgfo.com/?referer=https://manganelo.com&url=https://s6.mkklcdnv6temp.com/mangakakalot/s2/swan_lake/vol1_chapter_4/22.jpg",
    "https://img-proxy.imgfo.com/?referer=https://manganelo.com&url=https://s6.mkklcdnv6temp.com/mangakakalot/s2/swan_lake/vol1_chapter_4/23.jpg",
    "https://img-proxy.imgfo.com/?referer=https://manganelo.com&url=https://s6.mkklcdnv6temp.com/mangakakalot/s2/swan_lake/vol1_chapter_4/24.jpg",
    "https://img-proxy.imgfo.com/?referer=https://manganelo.com&url=https://s6.mkklcdnv6temp.com/mangakakalot/s2/swan_lake/vol1_chapter_4/25.jpg",
    "https://img-proxy.imgfo.com/?referer=https://manganelo.com&url=https://s6.mkklcdnv6temp.com/mangakakalot/s2/swan_lake/vol1_chapter_4/26.jpg",
    "https://img-proxy.imgfo.com/?referer=https://manganelo.com&url=https://s6.mkklcdnv6temp.com/mangakakalot/s2/swan_lake/vol1_chapter_4/27.jpg",
    "https://img-proxy.imgfo.com/?referer=https://manganelo.com&url=https://s6.mkklcdnv6temp.com/mangakakalot/s2/swan_lake/vol1_chapter_4/28.jpg",
    "https://img-proxy.imgfo.com/?referer=https://manganelo.com&url=https://s6.mkklcdnv6temp.com/mangakakalot/s2/swan_lake/vol1_chapter_4/29.jpg",
    "https://img-proxy.imgfo.com/?referer=https://manganelo.com&url=https://s6.mkklcdnv6temp.com/mangakakalot/s2/swan_lake/vol1_chapter_4/30.jpg",
    "https://img-proxy.imgfo.com/?referer=https://manganelo.com&url=https://s6.mkklcdnv6temp.com/mangakakalot/s2/swan_lake/vol1_chapter_4/31.jpg",
    "https://img-proxy.imgfo.com/?referer=https://manganelo.com&url=https://s6.mkklcdnv6temp.com/mangakakalot/s2/swan_lake/vol1_chapter_4/32.jpg",
    "https://img-proxy.imgfo.com/?referer=https://manganelo.com&url=https://s6.mkklcdnv6temp.com/mangakakalot/s2/swan_lake/vol1_chapter_4/33.jpg"
  ]
}