{
  "cover": "https://avt.mkklcdnv6.com/12/j/5-1583472334.jpg",
  "title": "Maniattemasu!",
  "original": "Nie, dziękuję! (Polish)",
  "genre": "Comedy, Romance, School life, Shoujo, Manga",
  "author": "Morinaga Ai",
  "status": "Completed",
  "backlink": "https://manganu.com/collections/morinaga-ai/maniattemasu/",
  "description": "Homare is a lovely first year high school student who has been sold off to the Ichinokura family as payment for her parents' debt. Although there are only guys in the Ichinokura family, they are all clean and kind, and Homare works hard as a pretty maid, including washing their underwear and their backs!",
  "language": "English",
  "images": [
    "https://img-proxy.imgfo.com/?referer=https://manganelo.com&url=https://s41.mkklcdnv6temp.com/mangakakalot/m1/maniattemasu/vol1_chapter_4/1.jpg",
    "https://img-proxy.imgfo.com/?referer=https://manganelo.com&url=https://s41.mkklcdnv6temp.com/mangakakalot/m1/maniattemasu/vol1_chapter_4/2.jpg",
    "https://img-proxy.imgfo.com/?referer=https://manganelo.com&url=https://s41.mkklcdnv6temp.com/mangakakalot/m1/maniattemasu/vol1_chapter_4/3.jpg",
    "https://img-proxy.imgfo.com/?referer=https://manganelo.com&url=https://s41.mkklcdnv6temp.com/mangakakalot/m1/maniattemasu/vol1_chapter_4/4.jpg",
    "https://img-proxy.imgfo.com/?referer=https://manganelo.com&url=https://s41.mkklcdnv6temp.com/mangakakalot/m1/maniattemasu/vol1_chapter_4/5.jpg",
    "https://img-proxy.imgfo.com/?referer=https://manganelo.com&url=https://s41.mkklcdnv6temp.com/mangakakalot/m1/maniattemasu/vol1_chapter_4/6.jpg",
    "https://img-proxy.imgfo.com/?referer=https://manganelo.com&url=https://s41.mkklcdnv6temp.com/mangakakalot/m1/maniattemasu/vol1_chapter_4/7.jpg",
    "https://img-proxy.imgfo.com/?referer=https://manganelo.com&url=https://s41.mkklcdnv6temp.com/mangakakalot/m1/maniattemasu/vol1_chapter_4/8.jpg",
    "https://img-proxy.imgfo.com/?referer=https://manganelo.com&url=https://s41.mkklcdnv6temp.com/mangakakalot/m1/maniattemasu/vol1_chapter_4/9.jpg",
    "https://img-proxy.imgfo.com/?referer=https://manganelo.com&url=https://s41.mkklcdnv6temp.com/mangakakalot/m1/maniattemasu/vol1_chapter_4/10.jpg",
    "https://img-proxy.imgfo.com/?referer=https://manganelo.com&url=https://s41.mkklcdnv6temp.com/mangakakalot/m1/maniattemasu/vol1_chapter_4/11.jpg",
    "https://img-proxy.imgfo.com/?referer=https://manganelo.com&url=https://s41.mkklcdnv6temp.com/mangakakalot/m1/maniattemasu/vol1_chapter_4/12.jpg",
    "https://img-proxy.imgfo.com/?referer=https://manganelo.com&url=https://s41.mkklcdnv6temp.com/mangakakalot/m1/maniattemasu/vol1_chapter_4/13.jpg",
    "https://img-proxy.imgfo.com/?referer=https://manganelo.com&url=https://s41.mkklcdnv6temp.com/mangakakalot/m1/maniattemasu/vol1_chapter_4/14.jpg",
    "https://img-proxy.imgfo.com/?referer=https://manganelo.com&url=https://s41.mkklcdnv6temp.com/mangakakalot/m1/maniattemasu/vol1_chapter_4/15.jpg",
    "https://img-proxy.imgfo.com/?referer=https://manganelo.com&url=https://s41.mkklcdnv6temp.com/mangakakalot/m1/maniattemasu/vol1_chapter_4/16.jpg",
    "https://img-proxy.imgfo.com/?referer=https://manganelo.com&url=https://s41.mkklcdnv6temp.com/mangakakalot/m1/maniattemasu/vol1_chapter_4/17.jpg",
    "https://img-proxy.imgfo.com/?referer=https://manganelo.com&url=https://s41.mkklcdnv6temp.com/mangakakalot/m1/maniattemasu/vol1_chapter_4/18.jpg",
    "https://img-proxy.imgfo.com/?referer=https://manganelo.com&url=https://s41.mkklcdnv6temp.com/mangakakalot/m1/maniattemasu/vol1_chapter_4/19.jpg",
    "https://img-proxy.imgfo.com/?referer=https://manganelo.com&url=https://s41.mkklcdnv6temp.com/mangakakalot/m1/maniattemasu/vol1_chapter_4/20.jpg",
    "https://img-proxy.imgfo.com/?referer=https://manganelo.com&url=https://s41.mkklcdnv6temp.com/mangakakalot/m1/maniattemasu/vol1_chapter_4/21.jpg",
    "https://img-proxy.imgfo.com/?referer=https://manganelo.com&url=https://s41.mkklcdnv6temp.com/mangakakalot/m1/maniattemasu/vol1_chapter_4/22.jpg",
    "https://img-proxy.imgfo.com/?referer=https://manganelo.com&url=https://s41.mkklcdnv6temp.com/mangakakalot/m1/maniattemasu/vol1_chapter_4/23.jpg",
    "https://img-proxy.imgfo.com/?referer=https://manganelo.com&url=https://s41.mkklcdnv6temp.com/mangakakalot/m1/maniattemasu/vol1_chapter_4/24.jpg",
    "https://img-proxy.imgfo.com/?referer=https://manganelo.com&url=https://s41.mkklcdnv6temp.com/mangakakalot/m1/maniattemasu/vol1_chapter_4/25.jpg",
    "https://img-proxy.imgfo.com/?referer=https://manganelo.com&url=https://s41.mkklcdnv6temp.com/mangakakalot/m1/maniattemasu/vol1_chapter_4/26.jpg",
    "https://img-proxy.imgfo.com/?referer=https://manganelo.com&url=https://s41.mkklcdnv6temp.com/mangakakalot/m1/maniattemasu/vol1_chapter_4/27.jpg",
    "https://img-proxy.imgfo.com/?referer=https://manganelo.com&url=https://s41.mkklcdnv6temp.com/mangakakalot/m1/maniattemasu/vol1_chapter_4/28.jpg",
    "https://img-proxy.imgfo.com/?referer=https://manganelo.com&url=https://s41.mkklcdnv6temp.com/mangakakalot/m1/maniattemasu/vol1_chapter_4/29.jpg",
    "https://img-proxy.imgfo.com/?referer=https://manganelo.com&url=https://s41.mkklcdnv6temp.com/mangakakalot/m1/maniattemasu/vol1_chapter_4/30.jpg",
    "https://img-proxy.imgfo.com/?referer=https://manganelo.com&url=https://s41.mkklcdnv6temp.com/mangakakalot/m1/maniattemasu/vol1_chapter_4/31.jpg",
    "https://img-proxy.imgfo.com/?referer=https://manganelo.com&url=https://s41.mkklcdnv6temp.com/mangakakalot/m1/maniattemasu/vol1_chapter_4/32.jpg",
    "https://img-proxy.imgfo.com/?referer=https://manganelo.com&url=https://s41.mkklcdnv6temp.com/mangakakalot/m1/maniattemasu/vol1_chapter_4/33.jpg"
  ]
}