{
  "cover": "https://avt.mkklcdnv6.com/18/l/5-1583472567.jpg",
  "title": "H2O",
  "original": "H20",
  "genre": "Comedy, Drama, Romance, School life, Shoujo, Manhwa",
  "author": "Hwang Sook Ji",
  "status": "Completed",
  "backlink": "https://manganu.com/collections/hwang-sook-ji/h2o/",
  "description": "Menga is simply known as the vice rep and is bullied. Hanako has moved to Korea but was robbed the first day and has nothing. Na Hong Soo is known as a troublemaker and is in constant trouble. And Eechan is the student body president, very popular and known as Bacchus. It seems they have nothing in common, but this will change soon.",
  "language": "English",
  "images": [
    "https://img-proxy.imgfo.com/?referer=https://manganelo.com&url=https://s3.mkklcdnv6temp.com/mangakakalot/h2/h2o/vol4_chapter_23/1.jpg",
    "https://img-proxy.imgfo.com/?referer=https://manganelo.com&url=https://s3.mkklcdnv6temp.com/mangakakalot/h2/h2o/vol4_chapter_23/2.jpg",
    "https://img-proxy.imgfo.com/?referer=https://manganelo.com&url=https://s3.mkklcdnv6temp.com/mangakakalot/h2/h2o/vol4_chapter_23/3.jpg",
    "https://img-proxy.imgfo.com/?referer=https://manganelo.com&url=https://s3.mkklcdnv6temp.com/mangakakalot/h2/h2o/vol4_chapter_23/4.jpg",
    "https://img-proxy.imgfo.com/?referer=https://manganelo.com&url=https://s3.mkklcdnv6temp.com/mangakakalot/h2/h2o/vol4_chapter_23/5.jpg",
    "https://img-proxy.imgfo.com/?referer=https://manganelo.com&url=https://s3.mkklcdnv6temp.com/mangakakalot/h2/h2o/vol4_chapter_23/6.jpg",
    "https://img-proxy.imgfo.com/?referer=https://manganelo.com&url=https://s3.mkklcdnv6temp.com/mangakakalot/h2/h2o/vol4_chapter_23/7.jpg",
    "https://img-proxy.imgfo.com/?referer=https://manganelo.com&url=https://s3.mkklcdnv6temp.com/mangakakalot/h2/h2o/vol4_chapter_23/8.jpg",
    "https://img-proxy.imgfo.com/?referer=https://manganelo.com&url=https://s3.mkklcdnv6temp.com/mangakakalot/h2/h2o/vol4_chapter_23/9.jpg",
    "https://img-proxy.imgfo.com/?referer=https://manganelo.com&url=https://s3.mkklcdnv6temp.com/mangakakalot/h2/h2o/vol4_chapter_23/10.jpg",
    "https://img-proxy.imgfo.com/?referer=https://manganelo.com&url=https://s3.mkklcdnv6temp.com/mangakakalot/h2/h2o/vol4_chapter_23/11.jpg",
    "https://img-proxy.imgfo.com/?referer=https://manganelo.com&url=https://s3.mkklcdnv6temp.com/mangakakalot/h2/h2o/vol4_chapter_23/12.jpg",
    "https://img-proxy.imgfo.com/?referer=https://manganelo.com&url=https://s3.mkklcdnv6temp.com/mangakakalot/h2/h2o/vol4_chapter_23/13.jpg",
    "https://img-proxy.imgfo.com/?referer=https://manganelo.com&url=https://s3.mkklcdnv6temp.com/mangakakalot/h2/h2o/vol4_chapter_23/14.jpg",
    "https://img-proxy.imgfo.com/?referer=https://manganelo.com&url=https://s3.mkklcdnv6temp.com/mangakakalot/h2/h2o/vol4_chapter_23/15.jpg",
    "https://img-proxy.imgfo.com/?referer=https://manganelo.com&url=https://s3.mkklcdnv6temp.com/mangakakalot/h2/h2o/vol4_chapter_23/16.jpg",
    "https://img-proxy.imgfo.com/?referer=https://manganelo.com&url=https://s3.mkklcdnv6temp.com/mangakakalot/h2/h2o/vol4_chapter_23/17.jpg",
    "https://img-proxy.imgfo.com/?referer=https://manganelo.com&url=https://s3.mkklcdnv6temp.com/mangakakalot/h2/h2o/vol4_chapter_23/18.jpg",
    "https://img-proxy.imgfo.com/?referer=https://manganelo.com&url=https://s3.mkklcdnv6temp.com/mangakakalot/h2/h2o/vol4_chapter_23/19.jpg"
  ]
}