{
  "cover": "https://avt.mkklcdnv6.com/21/l/5-1583472675.jpg",
  "title": "Yoiko No Sumu Machi",
  "original": "Good Children ; The Town in Which Good Children Live",
  "genre": "Comedy, School life, Smut, Yaoi, Manga",
  "author": "Tohjoh Asami",
  "status": "Completed",
  "backlink": "https://manganu.com/collections/tohjoh-asami/yoiko-no-sumu-machi/",
  "description": "1) Fevered Glance or Heated Look (Netsu Shisen)- High school playboy Tsuji can't understand why his best friend Mitsuse turns down girl after girll. When Mitsuse admits to having a crush on a male classmate, Tsuji is floored. Will he ever be able to look at his friend the same way again?\n2) Piercing the Heart With a Kiss (Heart wo Kiss de Sasu)\nContinuation of one.\n3) XY - We'll Go to the Festival (XY - Omatsuri de Ikkou) : extra of the story XY.- Takaya loves chocolate bananas and his friend Nagisa, so combining them...\n4) Shy Us (Uchiki na Bokura)- A perverted teacher preys on his junior high students, but is he really the one controlling things?\n5) That's Why We Fall in Love (Dakara Bokura wa Koi wo Suru)- The perverted sensei is back, but he's not touching the one person he should be.\n6) The Town in Which Good Children Live (Yoiko no Sumu Machi) (3 chapters). A perverted shopkeeper deals with a shoplifter, a selfish dog owner, and a thief in his own unique ways.",
  "language": "English",
  "images": [
    "https://img-proxy.imgfo.com/?referer=https://manganelo.com&url=https://s41.mkklcdnv6temp.com/mangakakalot/y2/yoiko_no_sumu_machi/vol1_chapter_2_piercing_the_heart_with_a_kiss_heart_wo_kiss_de_sasu/1.jpg",
    "https://img-proxy.imgfo.com/?referer=https://manganelo.com&url=https://s41.mkklcdnv6temp.com/mangakakalot/y2/yoiko_no_sumu_machi/vol1_chapter_2_piercing_the_heart_with_a_kiss_heart_wo_kiss_de_sasu/2.jpg",
    "https://img-proxy.imgfo.com/?referer=https://manganelo.com&url=https://s41.mkklcdnv6temp.com/mangakakalot/y2/yoiko_no_sumu_machi/vol1_chapter_2_piercing_the_heart_with_a_kiss_heart_wo_kiss_de_sasu/3.jpg",
    "https://img-proxy.imgfo.com/?referer=https://manganelo.com&url=https://s41.mkklcdnv6temp.com/mangakakalot/y2/yoiko_no_sumu_machi/vol1_chapter_2_piercing_the_heart_with_a_kiss_heart_wo_kiss_de_sasu/4.jpg",
    "https://img-proxy.imgfo.com/?referer=https://manganelo.com&url=https://s41.mkklcdnv6temp.com/mangakakalot/y2/yoiko_no_sumu_machi/vol1_chapter_2_piercing_the_heart_with_a_kiss_heart_wo_kiss_de_sasu/5.jpg",
    "https://img-proxy.imgfo.com/?referer=https://manganelo.com&url=https://s41.mkklcdnv6temp.com/mangakakalot/y2/yoiko_no_sumu_machi/vol1_chapter_2_piercing_the_heart_with_a_kiss_heart_wo_kiss_de_sasu/6.jpg",
    "https://img-proxy.imgfo.com/?referer=https://manganelo.com&url=https://s41.mkklcdnv6temp.com/mangakakalot/y2/yoiko_no_sumu_machi/vol1_chapter_2_piercing_the_heart_with_a_kiss_heart_wo_kiss_de_sasu/7.jpg",
    "https://img-proxy.imgfo.com/?referer=https://manganelo.com&url=https://s41.mkklcdnv6temp.com/mangakakalot/y2/yoiko_no_sumu_machi/vol1_chapter_2_piercing_the_heart_with_a_kiss_heart_wo_kiss_de_sasu/8.jpg",
    "https://img-proxy.imgfo.com/?referer=https://manganelo.com&url=https://s41.mkklcdnv6temp.com/mangakakalot/y2/yoiko_no_sumu_machi/vol1_chapter_2_piercing_the_heart_with_a_kiss_heart_wo_kiss_de_sasu/9.jpg",
    "https://img-proxy.imgfo.com/?referer=https://manganelo.com&url=https://s41.mkklcdnv6temp.com/mangakakalot/y2/yoiko_no_sumu_machi/vol1_chapter_2_piercing_the_heart_with_a_kiss_heart_wo_kiss_de_sasu/10.jpg",
    "https://img-proxy.imgfo.com/?referer=https://manganelo.com&url=https://s41.mkklcdnv6temp.com/mangakakalot/y2/yoiko_no_sumu_machi/vol1_chapter_2_piercing_the_heart_with_a_kiss_heart_wo_kiss_de_sasu/11.jpg",
    "https://img-proxy.imgfo.com/?referer=https://manganelo.com&url=https://s41.mkklcdnv6temp.com/mangakakalot/y2/yoiko_no_sumu_machi/vol1_chapter_2_piercing_the_heart_with_a_kiss_heart_wo_kiss_de_sasu/12.jpg",
    "https://img-proxy.imgfo.com/?referer=https://manganelo.com&url=https://s41.mkklcdnv6temp.com/mangakakalot/y2/yoiko_no_sumu_machi/vol1_chapter_2_piercing_the_heart_with_a_kiss_heart_wo_kiss_de_sasu/13.jpg",
    "https://img-proxy.imgfo.com/?referer=https://manganelo.com&url=https://s41.mkklcdnv6temp.com/mangakakalot/y2/yoiko_no_sumu_machi/vol1_chapter_2_piercing_the_heart_with_a_kiss_heart_wo_kiss_de_sasu/14.jpg",
    "https://img-proxy.imgfo.com/?referer=https://manganelo.com&url=https://s41.mkklcdnv6temp.com/mangakakalot/y2/yoiko_no_sumu_machi/vol1_chapter_2_piercing_the_heart_with_a_kiss_heart_wo_kiss_de_sasu/15.jpg",
    "https://img-proxy.imgfo.com/?referer=https://manganelo.com&url=https://s41.mkklcdnv6temp.com/mangakakalot/y2/yoiko_no_sumu_machi/vol1_chapter_2_piercing_the_heart_with_a_kiss_heart_wo_kiss_de_sasu/16.jpg",
    "https://img-proxy.imgfo.com/?referer=https://manganelo.com&url=https://s41.mkklcdnv6temp.com/mangakakalot/y2/yoiko_no_sumu_machi/vol1_chapter_2_piercing_the_heart_with_a_kiss_heart_wo_kiss_de_sasu/17.jpg",
    "https://img-proxy.imgfo.com/?referer=https://manganelo.com&url=https://s41.mkklcdnv6temp.com/mangakakalot/y2/yoiko_no_sumu_machi/vol1_chapter_2_piercing_the_heart_with_a_kiss_heart_wo_kiss_de_sasu/18.jpg",
    "https://img-proxy.imgfo.com/?referer=https://manganelo.com&url=https://s41.mkklcdnv6temp.com/mangakakalot/y2/yoiko_no_sumu_machi/vol1_chapter_2_piercing_the_heart_with_a_kiss_heart_wo_kiss_de_sasu/19.jpg",
    "https://img-proxy.imgfo.com/?referer=https://manganelo.com&url=https://s41.mkklcdnv6temp.com/mangakakalot/y2/yoiko_no_sumu_machi/vol1_chapter_2_piercing_the_heart_with_a_kiss_heart_wo_kiss_de_sasu/20.jpg",
    "https://img-proxy.imgfo.com/?referer=https://manganelo.com&url=https://s41.mkklcdnv6temp.com/mangakakalot/y2/yoiko_no_sumu_machi/vol1_chapter_2_piercing_the_heart_with_a_kiss_heart_wo_kiss_de_sasu/21.jpg",
    "https://img-proxy.imgfo.com/?referer=https://manganelo.com&url=https://s41.mkklcdnv6temp.com/mangakakalot/y2/yoiko_no_sumu_machi/vol1_chapter_2_piercing_the_heart_with_a_kiss_heart_wo_kiss_de_sasu/22.jpg",
    "https://img-proxy.imgfo.com/?referer=https://manganelo.com&url=https://s41.mkklcdnv6temp.com/mangakakalot/y2/yoiko_no_sumu_machi/vol1_chapter_2_piercing_the_heart_with_a_kiss_heart_wo_kiss_de_sasu/23.jpg",
    "https://img-proxy.imgfo.com/?referer=https://manganelo.com&url=https://s41.mkklcdnv6temp.com/mangakakalot/y2/yoiko_no_sumu_machi/vol1_chapter_2_piercing_the_heart_with_a_kiss_heart_wo_kiss_de_sasu/24.jpg",
    "https://img-proxy.imgfo.com/?referer=https://manganelo.com&url=https://s41.mkklcdnv6temp.com/mangakakalot/y2/yoiko_no_sumu_machi/vol1_chapter_2_piercing_the_heart_with_a_kiss_heart_wo_kiss_de_sasu/25.jpg",
    "https://img-proxy.imgfo.com/?referer=https://manganelo.com&url=https://s41.mkklcdnv6temp.com/mangakakalot/y2/yoiko_no_sumu_machi/vol1_chapter_2_piercing_the_heart_with_a_kiss_heart_wo_kiss_de_sasu/26.jpg",
    "https://img-proxy.imgfo.com/?referer=https://manganelo.com&url=https://s41.mkklcdnv6temp.com/mangakakalot/y2/yoiko_no_sumu_machi/vol1_chapter_2_piercing_the_heart_with_a_kiss_heart_wo_kiss_de_sasu/27.jpg",
    "https://img-proxy.imgfo.com/?referer=https://manganelo.com&url=https://s41.mkklcdnv6temp.com/mangakakalot/y2/yoiko_no_sumu_machi/vol1_chapter_2_piercing_the_heart_with_a_kiss_heart_wo_kiss_de_sasu/28.jpg",
    "https://img-proxy.imgfo.com/?referer=https://manganelo.com&url=https://s41.mkklcdnv6temp.com/mangakakalot/y2/yoiko_no_sumu_machi/vol1_chapter_2_piercing_the_heart_with_a_kiss_heart_wo_kiss_de_sasu/29.jpg",
    "https://img-proxy.imgfo.com/?referer=https://manganelo.com&url=https://s41.mkklcdnv6temp.com/mangakakalot/y2/yoiko_no_sumu_machi/vol1_chapter_2_piercing_the_heart_with_a_kiss_heart_wo_kiss_de_sasu/30.jpg",
    "https://img-proxy.imgfo.com/?referer=https://manganelo.com&url=https://s41.mkklcdnv6temp.com/mangakakalot/y2/yoiko_no_sumu_machi/vol1_chapter_2_piercing_the_heart_with_a_kiss_heart_wo_kiss_de_sasu/31.jpg",
    "https://img-proxy.imgfo.com/?referer=https://manganelo.com&url=https://s41.mkklcdnv6temp.com/mangakakalot/y2/yoiko_no_sumu_machi/vol1_chapter_2_piercing_the_heart_with_a_kiss_heart_wo_kiss_de_sasu/32.jpg",
    "https://img-proxy.imgfo.com/?referer=https://manganelo.com&url=https://s41.mkklcdnv6temp.com/mangakakalot/y2/yoiko_no_sumu_machi/vol1_chapter_2_piercing_the_heart_with_a_kiss_heart_wo_kiss_de_sasu/33.jpg",
    "https://img-proxy.imgfo.com/?referer=https://manganelo.com&url=https://s41.mkklcdnv6temp.com/mangakakalot/y2/yoiko_no_sumu_machi/vol1_chapter_2_piercing_the_heart_with_a_kiss_heart_wo_kiss_de_sasu/34.jpg",
    "https://img-proxy.imgfo.com/?referer=https://manganelo.com&url=https://s41.mkklcdnv6temp.com/mangakakalot/y2/yoiko_no_sumu_machi/vol1_chapter_2_piercing_the_heart_with_a_kiss_heart_wo_kiss_de_sasu/35.jpg",
    "https://img-proxy.imgfo.com/?referer=https://manganelo.com&url=https://s41.mkklcdnv6temp.com/mangakakalot/y2/yoiko_no_sumu_machi/vol1_chapter_2_piercing_the_heart_with_a_kiss_heart_wo_kiss_de_sasu/36.jpg",
    "https://img-proxy.imgfo.com/?referer=https://manganelo.com&url=https://s41.mkklcdnv6temp.com/mangakakalot/y2/yoiko_no_sumu_machi/vol1_chapter_2_piercing_the_heart_with_a_kiss_heart_wo_kiss_de_sasu/37.jpg",
    "https://img-proxy.imgfo.com/?referer=https://manganelo.com&url=https://s41.mkklcdnv6temp.com/mangakakalot/y2/yoiko_no_sumu_machi/vol1_chapter_2_piercing_the_heart_with_a_kiss_heart_wo_kiss_de_sasu/38.jpg",
    "https://img-proxy.imgfo.com/?referer=https://manganelo.com&url=https://s41.mkklcdnv6temp.com/mangakakalot/y2/yoiko_no_sumu_machi/vol1_chapter_2_piercing_the_heart_with_a_kiss_heart_wo_kiss_de_sasu/39.jpg",
    "https://img-proxy.imgfo.com/?referer=https://manganelo.com&url=https://s41.mkklcdnv6temp.com/mangakakalot/y2/yoiko_no_sumu_machi/vol1_chapter_2_piercing_the_heart_with_a_kiss_heart_wo_kiss_de_sasu/40.jpg",
    "https://img-proxy.imgfo.com/?referer=https://manganelo.com&url=https://s41.mkklcdnv6temp.com/mangakakalot/y2/yoiko_no_sumu_machi/vol1_chapter_2_piercing_the_heart_with_a_kiss_heart_wo_kiss_de_sasu/41.jpg",
    "https://img-proxy.imgfo.com/?referer=https://manganelo.com&url=https://s41.mkklcdnv6temp.com/mangakakalot/y2/yoiko_no_sumu_machi/vol1_chapter_2_piercing_the_heart_with_a_kiss_heart_wo_kiss_de_sasu/42.jpg",
    "https://img-proxy.imgfo.com/?referer=https://manganelo.com&url=https://s41.mkklcdnv6temp.com/mangakakalot/y2/yoiko_no_sumu_machi/vol1_chapter_2_piercing_the_heart_with_a_kiss_heart_wo_kiss_de_sasu/43.jpg",
    "https://img-proxy.imgfo.com/?referer=https://manganelo.com&url=https://s41.mkklcdnv6temp.com/mangakakalot/y2/yoiko_no_sumu_machi/vol1_chapter_2_piercing_the_heart_with_a_kiss_heart_wo_kiss_de_sasu/44.jpg",
    "https://img-proxy.imgfo.com/?referer=https://manganelo.com&url=https://s41.mkklcdnv6temp.com/mangakakalot/y2/yoiko_no_sumu_machi/vol1_chapter_2_piercing_the_heart_with_a_kiss_heart_wo_kiss_de_sasu/45.jpg",
    "https://img-proxy.imgfo.com/?referer=https://manganelo.com&url=https://s41.mkklcdnv6temp.com/mangakakalot/y2/yoiko_no_sumu_machi/vol1_chapter_2_piercing_the_heart_with_a_kiss_heart_wo_kiss_de_sasu/46.jpg"
  ]
}