{
  "cover": "https://avt.mkklcdnv6.com/41/w/6-1583475890.jpg",
  "title": "Blame!",
  "original": "ブレム！ (Japanese); 网络迷宫 (Chinese); Adventure-seeker Killy in the Cyber Dungeon quest! (English)",
  "genre": "Action, Drama, Horror, Mature, Psychological, Sci fi, Seinen, Manga",
  "author": "Nihei Tsutomu",
  "status": "Completed",
  "backlink": "https://manganu.com/collections/nihei-tsutomu/blame/",
  "description": "Killy is a man of few words. He wanders, seemingly endlessly, through a lonely, gargantuan labyrinth of concrete and steel, fighting off cyborgs and other futuristic nightmares, searching only for something called Net Terminal Genes. And he has a very powerful gun, which he uses without hesitation whenever anything resembling danger rears its ugly head. Who is this quiet, violent, determined man and what are these Genes he seeks? The small communities he finds tucked into the crevices of this towering, dystopic ruin hardly give him leads on his treasure, driving him to find larger enclaves of civilization where people can reveal more about the world he lives in and the quarry he seeks. Chapters 1-19: Read from left to right Chapters 20-66: Read from right to left",
  "language": "English",
  "images": [
    "https://img-proxy.imgfo.com/?referer=https://manganelo.com&url=https://s3.mkklcdnv6temp.com/mangakakalot/b1/blame/vol8_chapter_48_urge/1.jpg",
    "https://img-proxy.imgfo.com/?referer=https://manganelo.com&url=https://s3.mkklcdnv6temp.com/mangakakalot/b1/blame/vol8_chapter_48_urge/2.jpg",
    "https://img-proxy.imgfo.com/?referer=https://manganelo.com&url=https://s3.mkklcdnv6temp.com/mangakakalot/b1/blame/vol8_chapter_48_urge/3.jpg",
    "https://img-proxy.imgfo.com/?referer=https://manganelo.com&url=https://s3.mkklcdnv6temp.com/mangakakalot/b1/blame/vol8_chapter_48_urge/4.jpg",
    "https://img-proxy.imgfo.com/?referer=https://manganelo.com&url=https://s3.mkklcdnv6temp.com/mangakakalot/b1/blame/vol8_chapter_48_urge/5.jpg",
    "https://img-proxy.imgfo.com/?referer=https://manganelo.com&url=https://s3.mkklcdnv6temp.com/mangakakalot/b1/blame/vol8_chapter_48_urge/6.jpg",
    "https://img-proxy.imgfo.com/?referer=https://manganelo.com&url=https://s3.mkklcdnv6temp.com/mangakakalot/b1/blame/vol8_chapter_48_urge/7.jpg",
    "https://img-proxy.imgfo.com/?referer=https://manganelo.com&url=https://s3.mkklcdnv6temp.com/mangakakalot/b1/blame/vol8_chapter_48_urge/8.jpg",
    "https://img-proxy.imgfo.com/?referer=https://manganelo.com&url=https://s3.mkklcdnv6temp.com/mangakakalot/b1/blame/vol8_chapter_48_urge/9.jpg",
    "https://img-proxy.imgfo.com/?referer=https://manganelo.com&url=https://s3.mkklcdnv6temp.com/mangakakalot/b1/blame/vol8_chapter_48_urge/10.jpg",
    "https://img-proxy.imgfo.com/?referer=https://manganelo.com&url=https://s3.mkklcdnv6temp.com/mangakakalot/b1/blame/vol8_chapter_48_urge/11.jpg",
    "https://img-proxy.imgfo.com/?referer=https://manganelo.com&url=https://s3.mkklcdnv6temp.com/mangakakalot/b1/blame/vol8_chapter_48_urge/12.jpg",
    "https://img-proxy.imgfo.com/?referer=https://manganelo.com&url=https://s3.mkklcdnv6temp.com/mangakakalot/b1/blame/vol8_chapter_48_urge/13.jpg",
    "https://img-proxy.imgfo.com/?referer=https://manganelo.com&url=https://s3.mkklcdnv6temp.com/mangakakalot/b1/blame/vol8_chapter_48_urge/14.jpg",
    "https://img-proxy.imgfo.com/?referer=https://manganelo.com&url=https://s3.mkklcdnv6temp.com/mangakakalot/b1/blame/vol8_chapter_48_urge/15.jpg",
    "https://img-proxy.imgfo.com/?referer=https://manganelo.com&url=https://s3.mkklcdnv6temp.com/mangakakalot/b1/blame/vol8_chapter_48_urge/16.jpg",
    "https://img-proxy.imgfo.com/?referer=https://manganelo.com&url=https://s3.mkklcdnv6temp.com/mangakakalot/b1/blame/vol8_chapter_48_urge/17.jpg",
    "https://img-proxy.imgfo.com/?referer=https://manganelo.com&url=https://s3.mkklcdnv6temp.com/mangakakalot/b1/blame/vol8_chapter_48_urge/18.jpg",
    "https://img-proxy.imgfo.com/?referer=https://manganelo.com&url=https://s3.mkklcdnv6temp.com/mangakakalot/b1/blame/vol8_chapter_48_urge/19.jpg",
    "https://img-proxy.imgfo.com/?referer=https://manganelo.com&url=https://s3.mkklcdnv6temp.com/mangakakalot/b1/blame/vol8_chapter_48_urge/20.jpg",
    "https://img-proxy.imgfo.com/?referer=https://manganelo.com&url=https://s3.mkklcdnv6temp.com/mangakakalot/b1/blame/vol8_chapter_48_urge/21.jpg",
    "https://img-proxy.imgfo.com/?referer=https://manganelo.com&url=https://s3.mkklcdnv6temp.com/mangakakalot/b1/blame/vol8_chapter_48_urge/22.jpg",
    "https://img-proxy.imgfo.com/?referer=https://manganelo.com&url=https://s3.mkklcdnv6temp.com/mangakakalot/b1/blame/vol8_chapter_48_urge/23.jpg",
    "https://img-proxy.imgfo.com/?referer=https://manganelo.com&url=https://s3.mkklcdnv6temp.com/mangakakalot/b1/blame/vol8_chapter_48_urge/24.jpg",
    "https://img-proxy.imgfo.com/?referer=https://manganelo.com&url=https://s3.mkklcdnv6temp.com/mangakakalot/b1/blame/vol8_chapter_48_urge/25.jpg",
    "https://img-proxy.imgfo.com/?referer=https://manganelo.com&url=https://s3.mkklcdnv6temp.com/mangakakalot/b1/blame/vol8_chapter_48_urge/26.jpg",
    "https://img-proxy.imgfo.com/?referer=https://manganelo.com&url=https://s3.mkklcdnv6temp.com/mangakakalot/b1/blame/vol8_chapter_48_urge/27.jpg",
    "https://img-proxy.imgfo.com/?referer=https://manganelo.com&url=https://s3.mkklcdnv6temp.com/mangakakalot/b1/blame/vol8_chapter_48_urge/28.jpg",
    "https://img-proxy.imgfo.com/?referer=https://manganelo.com&url=https://s3.mkklcdnv6temp.com/mangakakalot/b1/blame/vol8_chapter_48_urge/29.jpg",
    "https://img-proxy.imgfo.com/?referer=https://manganelo.com&url=https://s3.mkklcdnv6temp.com/mangakakalot/b1/blame/vol8_chapter_48_urge/30.jpg",
    "https://img-proxy.imgfo.com/?referer=https://manganelo.com&url=https://s3.mkklcdnv6temp.com/mangakakalot/b1/blame/vol8_chapter_48_urge/31.jpg",
    "https://img-proxy.imgfo.com/?referer=https://manganelo.com&url=https://s3.mkklcdnv6temp.com/mangakakalot/b1/blame/vol8_chapter_48_urge/32.jpg",
    "https://img-proxy.imgfo.com/?referer=https://manganelo.com&url=https://s3.mkklcdnv6temp.com/mangakakalot/b1/blame/vol8_chapter_48_urge/33.jpg",
    "https://img-proxy.imgfo.com/?referer=https://manganelo.com&url=https://s3.mkklcdnv6temp.com/mangakakalot/b1/blame/vol8_chapter_48_urge/34.jpg"
  ]
}