{
  "cover": "https://avt.mkklcdnv6.com/36/p/9-1583481590.jpg",
  "title": "Zero",
  "original": "제로 - 시작의관 ; ZERO 始まりの章 ; Zero - The Beginning ; Zero - The Casket of Beginning ; Zero - The Gate of Beginning ; zero-始まりの館",
  "genre": "Action, Drama, Ecchi, Martial arts, Mature, School life, Sci fi, Shounen, Supernatural, Tragedy, Manhwa",
  "author": "Park Sung Woo",
  "status": "Completed",
  "backlink": "https://manganu.com/collections/park-sung-woo/zero/",
  "description": "From Infinity Studios:\nHaving been born in a secret government laboratory that cultivated esper (telepathic) powers within humans, Shuuichi and two sisters, Sumire and Katsumi, are forced to endure a difficult life as test subjects until their escape. Years later, these siblings are still being sought after by unknown organizations that are after Shuuichi powers as he is what they refer to as the “zero-sample” with the ability to cause “zero-shock.”\nScanlated by Helz0ne\nhttp://helz0ne.zone-anime.com",
  "language": "English",
  "images": [
    "https://img-proxy.imgfo.com/?referer=https://manganelo.com&url=https://s3.mkklcdnv6temp.com/mangakakalot/z1/zero/vol7_chapter_43_hasegawas_threat/1.jpg",
    "https://img-proxy.imgfo.com/?referer=https://manganelo.com&url=https://s3.mkklcdnv6temp.com/mangakakalot/z1/zero/vol7_chapter_43_hasegawas_threat/2.jpg",
    "https://img-proxy.imgfo.com/?referer=https://manganelo.com&url=https://s3.mkklcdnv6temp.com/mangakakalot/z1/zero/vol7_chapter_43_hasegawas_threat/3.jpg",
    "https://img-proxy.imgfo.com/?referer=https://manganelo.com&url=https://s3.mkklcdnv6temp.com/mangakakalot/z1/zero/vol7_chapter_43_hasegawas_threat/4.jpg",
    "https://img-proxy.imgfo.com/?referer=https://manganelo.com&url=https://s3.mkklcdnv6temp.com/mangakakalot/z1/zero/vol7_chapter_43_hasegawas_threat/5.jpg",
    "https://img-proxy.imgfo.com/?referer=https://manganelo.com&url=https://s3.mkklcdnv6temp.com/mangakakalot/z1/zero/vol7_chapter_43_hasegawas_threat/6.jpg",
    "https://img-proxy.imgfo.com/?referer=https://manganelo.com&url=https://s3.mkklcdnv6temp.com/mangakakalot/z1/zero/vol7_chapter_43_hasegawas_threat/7.jpg",
    "https://img-proxy.imgfo.com/?referer=https://manganelo.com&url=https://s3.mkklcdnv6temp.com/mangakakalot/z1/zero/vol7_chapter_43_hasegawas_threat/8.jpg",
    "https://img-proxy.imgfo.com/?referer=https://manganelo.com&url=https://s3.mkklcdnv6temp.com/mangakakalot/z1/zero/vol7_chapter_43_hasegawas_threat/9.jpg",
    "https://img-proxy.imgfo.com/?referer=https://manganelo.com&url=https://s3.mkklcdnv6temp.com/mangakakalot/z1/zero/vol7_chapter_43_hasegawas_threat/10.jpg",
    "https://img-proxy.imgfo.com/?referer=https://manganelo.com&url=https://s3.mkklcdnv6temp.com/mangakakalot/z1/zero/vol7_chapter_43_hasegawas_threat/11.jpg",
    "https://img-proxy.imgfo.com/?referer=https://manganelo.com&url=https://s3.mkklcdnv6temp.com/mangakakalot/z1/zero/vol7_chapter_43_hasegawas_threat/12.jpg",
    "https://img-proxy.imgfo.com/?referer=https://manganelo.com&url=https://s3.mkklcdnv6temp.com/mangakakalot/z1/zero/vol7_chapter_43_hasegawas_threat/13.jpg",
    "https://img-proxy.imgfo.com/?referer=https://manganelo.com&url=https://s3.mkklcdnv6temp.com/mangakakalot/z1/zero/vol7_chapter_43_hasegawas_threat/14.jpg",
    "https://img-proxy.imgfo.com/?referer=https://manganelo.com&url=https://s3.mkklcdnv6temp.com/mangakakalot/z1/zero/vol7_chapter_43_hasegawas_threat/15.jpg",
    "https://img-proxy.imgfo.com/?referer=https://manganelo.com&url=https://s3.mkklcdnv6temp.com/mangakakalot/z1/zero/vol7_chapter_43_hasegawas_threat/16.jpg",
    "https://img-proxy.imgfo.com/?referer=https://manganelo.com&url=https://s3.mkklcdnv6temp.com/mangakakalot/z1/zero/vol7_chapter_43_hasegawas_threat/17.jpg",
    "https://img-proxy.imgfo.com/?referer=https://manganelo.com&url=https://s3.mkklcdnv6temp.com/mangakakalot/z1/zero/vol7_chapter_43_hasegawas_threat/18.jpg",
    "https://img-proxy.imgfo.com/?referer=https://manganelo.com&url=https://s3.mkklcdnv6temp.com/mangakakalot/z1/zero/vol7_chapter_43_hasegawas_threat/19.jpg",
    "https://img-proxy.imgfo.com/?referer=https://manganelo.com&url=https://s3.mkklcdnv6temp.com/mangakakalot/z1/zero/vol7_chapter_43_hasegawas_threat/20.jpg",
    "https://img-proxy.imgfo.com/?referer=https://manganelo.com&url=https://s3.mkklcdnv6temp.com/mangakakalot/z1/zero/vol7_chapter_43_hasegawas_threat/21.jpg",
    "https://img-proxy.imgfo.com/?referer=https://manganelo.com&url=https://s3.mkklcdnv6temp.com/mangakakalot/z1/zero/vol7_chapter_43_hasegawas_threat/22.jpg",
    "https://img-proxy.imgfo.com/?referer=https://manganelo.com&url=https://s3.mkklcdnv6temp.com/mangakakalot/z1/zero/vol7_chapter_43_hasegawas_threat/23.jpg",
    "https://img-proxy.imgfo.com/?referer=https://manganelo.com&url=https://s3.mkklcdnv6temp.com/mangakakalot/z1/zero/vol7_chapter_43_hasegawas_threat/24.jpg",
    "https://img-proxy.imgfo.com/?referer=https://manganelo.com&url=https://s3.mkklcdnv6temp.com/mangakakalot/z1/zero/vol7_chapter_43_hasegawas_threat/25.jpg"
  ]
}