{
  "cover": "https://avt.mkklcdnv6.com/36/p/9-1583481590.jpg",
  "title": "Zero",
  "original": "제로 - 시작의관 ; ZERO 始まりの章 ; Zero - The Beginning ; Zero - The Casket of Beginning ; Zero - The Gate of Beginning ; zero-始まりの館",
  "genre": "Action, Drama, Ecchi, Martial arts, Mature, School life, Sci fi, Shounen, Supernatural, Tragedy, Manhwa",
  "author": "Park Sung Woo",
  "status": "Completed",
  "backlink": "https://manganu.com/collections/park-sung-woo/zero/",
  "description": "From Infinity Studios:\nHaving been born in a secret government laboratory that cultivated esper (telepathic) powers within humans, Shuuichi and two sisters, Sumire and Katsumi, are forced to endure a difficult life as test subjects until their escape. Years later, these siblings are still being sought after by unknown organizations that are after Shuuichi powers as he is what they refer to as the “zero-sample” with the ability to cause “zero-shock.”\nScanlated by Helz0ne\nhttp://helz0ne.zone-anime.com",
  "language": "English",
  "images": [
    "https://img-proxy.imgfo.com/?referer=https://manganelo.com&url=https://s3.mkklcdnv6temp.com/mangakakalot/z1/zero/vol3_chapter_18_gallant_young_men_from_silla/1.jpg",
    "https://img-proxy.imgfo.com/?referer=https://manganelo.com&url=https://s3.mkklcdnv6temp.com/mangakakalot/z1/zero/vol3_chapter_18_gallant_young_men_from_silla/2.jpg",
    "https://img-proxy.imgfo.com/?referer=https://manganelo.com&url=https://s3.mkklcdnv6temp.com/mangakakalot/z1/zero/vol3_chapter_18_gallant_young_men_from_silla/3.jpg",
    "https://img-proxy.imgfo.com/?referer=https://manganelo.com&url=https://s3.mkklcdnv6temp.com/mangakakalot/z1/zero/vol3_chapter_18_gallant_young_men_from_silla/4.jpg",
    "https://img-proxy.imgfo.com/?referer=https://manganelo.com&url=https://s3.mkklcdnv6temp.com/mangakakalot/z1/zero/vol3_chapter_18_gallant_young_men_from_silla/5.jpg",
    "https://img-proxy.imgfo.com/?referer=https://manganelo.com&url=https://s3.mkklcdnv6temp.com/mangakakalot/z1/zero/vol3_chapter_18_gallant_young_men_from_silla/6.jpg",
    "https://img-proxy.imgfo.com/?referer=https://manganelo.com&url=https://s3.mkklcdnv6temp.com/mangakakalot/z1/zero/vol3_chapter_18_gallant_young_men_from_silla/7.jpg",
    "https://img-proxy.imgfo.com/?referer=https://manganelo.com&url=https://s3.mkklcdnv6temp.com/mangakakalot/z1/zero/vol3_chapter_18_gallant_young_men_from_silla/8.jpg",
    "https://img-proxy.imgfo.com/?referer=https://manganelo.com&url=https://s3.mkklcdnv6temp.com/mangakakalot/z1/zero/vol3_chapter_18_gallant_young_men_from_silla/9.jpg",
    "https://img-proxy.imgfo.com/?referer=https://manganelo.com&url=https://s3.mkklcdnv6temp.com/mangakakalot/z1/zero/vol3_chapter_18_gallant_young_men_from_silla/10.jpg",
    "https://img-proxy.imgfo.com/?referer=https://manganelo.com&url=https://s3.mkklcdnv6temp.com/mangakakalot/z1/zero/vol3_chapter_18_gallant_young_men_from_silla/11.jpg",
    "https://img-proxy.imgfo.com/?referer=https://manganelo.com&url=https://s3.mkklcdnv6temp.com/mangakakalot/z1/zero/vol3_chapter_18_gallant_young_men_from_silla/12.jpg",
    "https://img-proxy.imgfo.com/?referer=https://manganelo.com&url=https://s3.mkklcdnv6temp.com/mangakakalot/z1/zero/vol3_chapter_18_gallant_young_men_from_silla/13.jpg",
    "https://img-proxy.imgfo.com/?referer=https://manganelo.com&url=https://s3.mkklcdnv6temp.com/mangakakalot/z1/zero/vol3_chapter_18_gallant_young_men_from_silla/14.jpg",
    "https://img-proxy.imgfo.com/?referer=https://manganelo.com&url=https://s3.mkklcdnv6temp.com/mangakakalot/z1/zero/vol3_chapter_18_gallant_young_men_from_silla/15.jpg",
    "https://img-proxy.imgfo.com/?referer=https://manganelo.com&url=https://s3.mkklcdnv6temp.com/mangakakalot/z1/zero/vol3_chapter_18_gallant_young_men_from_silla/16.jpg",
    "https://img-proxy.imgfo.com/?referer=https://manganelo.com&url=https://s3.mkklcdnv6temp.com/mangakakalot/z1/zero/vol3_chapter_18_gallant_young_men_from_silla/17.jpg",
    "https://img-proxy.imgfo.com/?referer=https://manganelo.com&url=https://s3.mkklcdnv6temp.com/mangakakalot/z1/zero/vol3_chapter_18_gallant_young_men_from_silla/18.jpg",
    "https://img-proxy.imgfo.com/?referer=https://manganelo.com&url=https://s3.mkklcdnv6temp.com/mangakakalot/z1/zero/vol3_chapter_18_gallant_young_men_from_silla/19.jpg",
    "https://img-proxy.imgfo.com/?referer=https://manganelo.com&url=https://s3.mkklcdnv6temp.com/mangakakalot/z1/zero/vol3_chapter_18_gallant_young_men_from_silla/20.jpg",
    "https://img-proxy.imgfo.com/?referer=https://manganelo.com&url=https://s3.mkklcdnv6temp.com/mangakakalot/z1/zero/vol3_chapter_18_gallant_young_men_from_silla/21.jpg",
    "https://img-proxy.imgfo.com/?referer=https://manganelo.com&url=https://s3.mkklcdnv6temp.com/mangakakalot/z1/zero/vol3_chapter_18_gallant_young_men_from_silla/22.jpg",
    "https://img-proxy.imgfo.com/?referer=https://manganelo.com&url=https://s3.mkklcdnv6temp.com/mangakakalot/z1/zero/vol3_chapter_18_gallant_young_men_from_silla/23.jpg",
    "https://img-proxy.imgfo.com/?referer=https://manganelo.com&url=https://s3.mkklcdnv6temp.com/mangakakalot/z1/zero/vol3_chapter_18_gallant_young_men_from_silla/24.jpg",
    "https://img-proxy.imgfo.com/?referer=https://manganelo.com&url=https://s3.mkklcdnv6temp.com/mangakakalot/z1/zero/vol3_chapter_18_gallant_young_men_from_silla/25.jpg",
    "https://img-proxy.imgfo.com/?referer=https://manganelo.com&url=https://s3.mkklcdnv6temp.com/mangakakalot/z1/zero/vol3_chapter_18_gallant_young_men_from_silla/26.jpg",
    "https://img-proxy.imgfo.com/?referer=https://manganelo.com&url=https://s3.mkklcdnv6temp.com/mangakakalot/z1/zero/vol3_chapter_18_gallant_young_men_from_silla/27.jpg",
    "https://img-proxy.imgfo.com/?referer=https://manganelo.com&url=https://s3.mkklcdnv6temp.com/mangakakalot/z1/zero/vol3_chapter_18_gallant_young_men_from_silla/28.jpg",
    "https://img-proxy.imgfo.com/?referer=https://manganelo.com&url=https://s3.mkklcdnv6temp.com/mangakakalot/z1/zero/vol3_chapter_18_gallant_young_men_from_silla/29.jpg",
    "https://img-proxy.imgfo.com/?referer=https://manganelo.com&url=https://s3.mkklcdnv6temp.com/mangakakalot/z1/zero/vol3_chapter_18_gallant_young_men_from_silla/30.jpg",
    "https://img-proxy.imgfo.com/?referer=https://manganelo.com&url=https://s3.mkklcdnv6temp.com/mangakakalot/z1/zero/vol3_chapter_18_gallant_young_men_from_silla/31.jpg",
    "https://img-proxy.imgfo.com/?referer=https://manganelo.com&url=https://s3.mkklcdnv6temp.com/mangakakalot/z1/zero/vol3_chapter_18_gallant_young_men_from_silla/32.jpg",
    "https://img-proxy.imgfo.com/?referer=https://manganelo.com&url=https://s3.mkklcdnv6temp.com/mangakakalot/z1/zero/vol3_chapter_18_gallant_young_men_from_silla/33.jpg",
    "https://img-proxy.imgfo.com/?referer=https://manganelo.com&url=https://s3.mkklcdnv6temp.com/mangakakalot/z1/zero/vol3_chapter_18_gallant_young_men_from_silla/34.jpg",
    "https://img-proxy.imgfo.com/?referer=https://manganelo.com&url=https://s3.mkklcdnv6temp.com/mangakakalot/z1/zero/vol3_chapter_18_gallant_young_men_from_silla/35.jpg",
    "https://img-proxy.imgfo.com/?referer=https://manganelo.com&url=https://s3.mkklcdnv6temp.com/mangakakalot/z1/zero/vol3_chapter_18_gallant_young_men_from_silla/36.jpg",
    "https://img-proxy.imgfo.com/?referer=https://manganelo.com&url=https://s3.mkklcdnv6temp.com/mangakakalot/z1/zero/vol3_chapter_18_gallant_young_men_from_silla/37.jpg",
    "https://img-proxy.imgfo.com/?referer=https://manganelo.com&url=https://s3.mkklcdnv6temp.com/mangakakalot/z1/zero/vol3_chapter_18_gallant_young_men_from_silla/38.jpg",
    "https://img-proxy.imgfo.com/?referer=https://manganelo.com&url=https://s3.mkklcdnv6temp.com/mangakakalot/z1/zero/vol3_chapter_18_gallant_young_men_from_silla/39.jpg",
    "https://img-proxy.imgfo.com/?referer=https://manganelo.com&url=https://s3.mkklcdnv6temp.com/mangakakalot/z1/zero/vol3_chapter_18_gallant_young_men_from_silla/40.jpg",
    "https://img-proxy.imgfo.com/?referer=https://manganelo.com&url=https://s3.mkklcdnv6temp.com/mangakakalot/z1/zero/vol3_chapter_18_gallant_young_men_from_silla/41.jpg",
    "https://img-proxy.imgfo.com/?referer=https://manganelo.com&url=https://s3.mkklcdnv6temp.com/mangakakalot/z1/zero/vol3_chapter_18_gallant_young_men_from_silla/42.jpg",
    "https://img-proxy.imgfo.com/?referer=https://manganelo.com&url=https://s3.mkklcdnv6temp.com/mangakakalot/z1/zero/vol3_chapter_18_gallant_young_men_from_silla/43.jpg"
  ]
}