{
  "cover": "https://avt.mkklcdnv6.com/22/q/7-1583477113.jpg",
  "title": "Dive",
  "original": "ダイブ ; 探測愛的深度",
  "genre": "Drama, Mystery, Yaoi, Manga",
  "author": "Kano Shiuko",
  "status": "Completed",
  "backlink": "https://manganu.com/collections/kano-shiuko/dive/",
  "description": "from hp :\nOnizawa is a detective who recently got a divorce. One of his colleagues, Honda, is murdered in what seems to be linked to other detectives that have been murdered. Yashiro is another detective that Onizawa has taken an interest in, but also seems to have had a close relationship with Honda in some way. Because of how young he is though how did he know Honda and can Onizawa get closer to Yashiro who strongly dislikes him?\n3) Chuu Ken no Susume\nShort story about a boy, his mixed half brother and a dog.\n4) Kotteru Otoko\nA dark story on a cheating man with a weird fetish.\n5) Gakuen Tengoku\nA restless student tries to amuse himself by teasing his classmate.",
  "language": "English",
  "images": [
    "https://img-proxy.imgfo.com/?referer=https://manganelo.com&url=https://s7.mkklcdnv6temp.com/mangakakalot/d1/dive/vol1_chapter_2/1.jpg",
    "https://img-proxy.imgfo.com/?referer=https://manganelo.com&url=https://s7.mkklcdnv6temp.com/mangakakalot/d1/dive/vol1_chapter_2/2.jpg",
    "https://img-proxy.imgfo.com/?referer=https://manganelo.com&url=https://s7.mkklcdnv6temp.com/mangakakalot/d1/dive/vol1_chapter_2/3.jpg",
    "https://img-proxy.imgfo.com/?referer=https://manganelo.com&url=https://s7.mkklcdnv6temp.com/mangakakalot/d1/dive/vol1_chapter_2/4.jpg",
    "https://img-proxy.imgfo.com/?referer=https://manganelo.com&url=https://s7.mkklcdnv6temp.com/mangakakalot/d1/dive/vol1_chapter_2/5.jpg",
    "https://img-proxy.imgfo.com/?referer=https://manganelo.com&url=https://s7.mkklcdnv6temp.com/mangakakalot/d1/dive/vol1_chapter_2/6.jpg",
    "https://img-proxy.imgfo.com/?referer=https://manganelo.com&url=https://s7.mkklcdnv6temp.com/mangakakalot/d1/dive/vol1_chapter_2/7.jpg",
    "https://img-proxy.imgfo.com/?referer=https://manganelo.com&url=https://s7.mkklcdnv6temp.com/mangakakalot/d1/dive/vol1_chapter_2/8.jpg",
    "https://img-proxy.imgfo.com/?referer=https://manganelo.com&url=https://s7.mkklcdnv6temp.com/mangakakalot/d1/dive/vol1_chapter_2/9.jpg",
    "https://img-proxy.imgfo.com/?referer=https://manganelo.com&url=https://s7.mkklcdnv6temp.com/mangakakalot/d1/dive/vol1_chapter_2/10.jpg"
  ]
}