{
  "cover": "https://avt.mkklcdnv6.com/47/h/3-1583469540.jpg",
  "title": "Blazer Drive",
  "original": "ブレイザードライブ ; 徽章戰役",
  "genre": "Action, Adventure, Comedy, Drama, Sci fi, Shounen, Manga",
  "author": "Kishimoto Seishi",
  "status": "Completed",
  "backlink": "https://manganu.com/collections/kishimoto-seishi/blazer-drive/",
  "description": "Blazer Drive is a fantasy in the near future where eco thinking has given cause to a new energy source. A tattoo-like stickers ‘Mysticker’ that gives different types of energies, ice, fire, electricity and light.\nThe master of the sticker called ‘Blazer’, they control/manipulate the energy to their will, by sticking it on their own body.\nThe Blazer’s wage battle in a futuristic fantasy.\nFrom the Author of O-Parts Hunter\nFrom Baka-Updates:\nIn the near future, human technology becomes centered around Mystickers, or tattoo-like stickers which are placed on objects in order to use their abilities. But Mystickers can do much more than this, a secret only \"Blazers\" know. A secret Daichi, a good-humored teenager with an obsession for all things \"cool,\" is destined to find out when he suddenly finds himself targeted by people who tell him he, too, is a Blazer...",
  "language": "English",
  "images": [
    "https://img-proxy.imgfo.com/?referer=https://manganelo.com&url=https://s41.mkklcdnv6temp.com/mangakakalot/b1/blazer_drive/vol7_chapter_24_the_fomenting/1.jpg",
    "https://img-proxy.imgfo.com/?referer=https://manganelo.com&url=https://s41.mkklcdnv6temp.com/mangakakalot/b1/blazer_drive/vol7_chapter_24_the_fomenting/2.jpg",
    "https://img-proxy.imgfo.com/?referer=https://manganelo.com&url=https://s41.mkklcdnv6temp.com/mangakakalot/b1/blazer_drive/vol7_chapter_24_the_fomenting/3.jpg",
    "https://img-proxy.imgfo.com/?referer=https://manganelo.com&url=https://s41.mkklcdnv6temp.com/mangakakalot/b1/blazer_drive/vol7_chapter_24_the_fomenting/4.jpg",
    "https://img-proxy.imgfo.com/?referer=https://manganelo.com&url=https://s41.mkklcdnv6temp.com/mangakakalot/b1/blazer_drive/vol7_chapter_24_the_fomenting/5.jpg",
    "https://img-proxy.imgfo.com/?referer=https://manganelo.com&url=https://s41.mkklcdnv6temp.com/mangakakalot/b1/blazer_drive/vol7_chapter_24_the_fomenting/6.jpg",
    "https://img-proxy.imgfo.com/?referer=https://manganelo.com&url=https://s41.mkklcdnv6temp.com/mangakakalot/b1/blazer_drive/vol7_chapter_24_the_fomenting/7.jpg",
    "https://img-proxy.imgfo.com/?referer=https://manganelo.com&url=https://s41.mkklcdnv6temp.com/mangakakalot/b1/blazer_drive/vol7_chapter_24_the_fomenting/8.jpg",
    "https://img-proxy.imgfo.com/?referer=https://manganelo.com&url=https://s41.mkklcdnv6temp.com/mangakakalot/b1/blazer_drive/vol7_chapter_24_the_fomenting/9.jpg",
    "https://img-proxy.imgfo.com/?referer=https://manganelo.com&url=https://s41.mkklcdnv6temp.com/mangakakalot/b1/blazer_drive/vol7_chapter_24_the_fomenting/10.jpg",
    "https://img-proxy.imgfo.com/?referer=https://manganelo.com&url=https://s41.mkklcdnv6temp.com/mangakakalot/b1/blazer_drive/vol7_chapter_24_the_fomenting/11.jpg",
    "https://img-proxy.imgfo.com/?referer=https://manganelo.com&url=https://s41.mkklcdnv6temp.com/mangakakalot/b1/blazer_drive/vol7_chapter_24_the_fomenting/12.jpg",
    "https://img-proxy.imgfo.com/?referer=https://manganelo.com&url=https://s41.mkklcdnv6temp.com/mangakakalot/b1/blazer_drive/vol7_chapter_24_the_fomenting/13.jpg",
    "https://img-proxy.imgfo.com/?referer=https://manganelo.com&url=https://s41.mkklcdnv6temp.com/mangakakalot/b1/blazer_drive/vol7_chapter_24_the_fomenting/14.jpg",
    "https://img-proxy.imgfo.com/?referer=https://manganelo.com&url=https://s41.mkklcdnv6temp.com/mangakakalot/b1/blazer_drive/vol7_chapter_24_the_fomenting/15.jpg",
    "https://img-proxy.imgfo.com/?referer=https://manganelo.com&url=https://s41.mkklcdnv6temp.com/mangakakalot/b1/blazer_drive/vol7_chapter_24_the_fomenting/16.jpg",
    "https://img-proxy.imgfo.com/?referer=https://manganelo.com&url=https://s41.mkklcdnv6temp.com/mangakakalot/b1/blazer_drive/vol7_chapter_24_the_fomenting/17.jpg",
    "https://img-proxy.imgfo.com/?referer=https://manganelo.com&url=https://s41.mkklcdnv6temp.com/mangakakalot/b1/blazer_drive/vol7_chapter_24_the_fomenting/18.jpg",
    "https://img-proxy.imgfo.com/?referer=https://manganelo.com&url=https://s41.mkklcdnv6temp.com/mangakakalot/b1/blazer_drive/vol7_chapter_24_the_fomenting/19.jpg",
    "https://img-proxy.imgfo.com/?referer=https://manganelo.com&url=https://s41.mkklcdnv6temp.com/mangakakalot/b1/blazer_drive/vol7_chapter_24_the_fomenting/20.jpg",
    "https://img-proxy.imgfo.com/?referer=https://manganelo.com&url=https://s41.mkklcdnv6temp.com/mangakakalot/b1/blazer_drive/vol7_chapter_24_the_fomenting/21.jpg",
    "https://img-proxy.imgfo.com/?referer=https://manganelo.com&url=https://s41.mkklcdnv6temp.com/mangakakalot/b1/blazer_drive/vol7_chapter_24_the_fomenting/22.jpg",
    "https://img-proxy.imgfo.com/?referer=https://manganelo.com&url=https://s41.mkklcdnv6temp.com/mangakakalot/b1/blazer_drive/vol7_chapter_24_the_fomenting/23.jpg",
    "https://img-proxy.imgfo.com/?referer=https://manganelo.com&url=https://s41.mkklcdnv6temp.com/mangakakalot/b1/blazer_drive/vol7_chapter_24_the_fomenting/24.jpg",
    "https://img-proxy.imgfo.com/?referer=https://manganelo.com&url=https://s41.mkklcdnv6temp.com/mangakakalot/b1/blazer_drive/vol7_chapter_24_the_fomenting/25.jpg",
    "https://img-proxy.imgfo.com/?referer=https://manganelo.com&url=https://s41.mkklcdnv6temp.com/mangakakalot/b1/blazer_drive/vol7_chapter_24_the_fomenting/26.jpg",
    "https://img-proxy.imgfo.com/?referer=https://manganelo.com&url=https://s41.mkklcdnv6temp.com/mangakakalot/b1/blazer_drive/vol7_chapter_24_the_fomenting/27.jpg",
    "https://img-proxy.imgfo.com/?referer=https://manganelo.com&url=https://s41.mkklcdnv6temp.com/mangakakalot/b1/blazer_drive/vol7_chapter_24_the_fomenting/28.jpg",
    "https://img-proxy.imgfo.com/?referer=https://manganelo.com&url=https://s41.mkklcdnv6temp.com/mangakakalot/b1/blazer_drive/vol7_chapter_24_the_fomenting/29.jpg",
    "https://img-proxy.imgfo.com/?referer=https://manganelo.com&url=https://s41.mkklcdnv6temp.com/mangakakalot/b1/blazer_drive/vol7_chapter_24_the_fomenting/30.jpg",
    "https://img-proxy.imgfo.com/?referer=https://manganelo.com&url=https://s41.mkklcdnv6temp.com/mangakakalot/b1/blazer_drive/vol7_chapter_24_the_fomenting/31.jpg",
    "https://img-proxy.imgfo.com/?referer=https://manganelo.com&url=https://s41.mkklcdnv6temp.com/mangakakalot/b1/blazer_drive/vol7_chapter_24_the_fomenting/32.jpg",
    "https://img-proxy.imgfo.com/?referer=https://manganelo.com&url=https://s41.mkklcdnv6temp.com/mangakakalot/b1/blazer_drive/vol7_chapter_24_the_fomenting/33.jpg",
    "https://img-proxy.imgfo.com/?referer=https://manganelo.com&url=https://s41.mkklcdnv6temp.com/mangakakalot/b1/blazer_drive/vol7_chapter_24_the_fomenting/34.jpg",
    "https://img-proxy.imgfo.com/?referer=https://manganelo.com&url=https://s41.mkklcdnv6temp.com/mangakakalot/b1/blazer_drive/vol7_chapter_24_the_fomenting/35.jpg",
    "https://img-proxy.imgfo.com/?referer=https://manganelo.com&url=https://s41.mkklcdnv6temp.com/mangakakalot/b1/blazer_drive/vol7_chapter_24_the_fomenting/36.jpg",
    "https://img-proxy.imgfo.com/?referer=https://manganelo.com&url=https://s41.mkklcdnv6temp.com/mangakakalot/b1/blazer_drive/vol7_chapter_24_the_fomenting/37.jpg",
    "https://img-proxy.imgfo.com/?referer=https://manganelo.com&url=https://s41.mkklcdnv6temp.com/mangakakalot/b1/blazer_drive/vol7_chapter_24_the_fomenting/38.jpg",
    "https://img-proxy.imgfo.com/?referer=https://manganelo.com&url=https://s41.mkklcdnv6temp.com/mangakakalot/b1/blazer_drive/vol7_chapter_24_the_fomenting/39.jpg",
    "https://img-proxy.imgfo.com/?referer=https://manganelo.com&url=https://s41.mkklcdnv6temp.com/mangakakalot/b1/blazer_drive/vol7_chapter_24_the_fomenting/40.jpg",
    "https://img-proxy.imgfo.com/?referer=https://manganelo.com&url=https://s41.mkklcdnv6temp.com/mangakakalot/b1/blazer_drive/vol7_chapter_24_the_fomenting/41.jpg",
    "https://img-proxy.imgfo.com/?referer=https://manganelo.com&url=https://s41.mkklcdnv6temp.com/mangakakalot/b1/blazer_drive/vol7_chapter_24_the_fomenting/42.jpg",
    "https://img-proxy.imgfo.com/?referer=https://manganelo.com&url=https://s41.mkklcdnv6temp.com/mangakakalot/b1/blazer_drive/vol7_chapter_24_the_fomenting/43.jpg"
  ]
}