{
  "cover": "https://avt.mkklcdnv6.com/5/b/10-1583482357.jpg",
  "title": "Wolf's Castle",
  "original": "늑대의 성 (Korean)",
  "genre": "Action, Adventure, School life, Shounen, Supernatural, Webtoons, Manhwa",
  "author": "Tara",
  "status": "Completed",
  "backlink": "https://manganu.com/collections/tara/wolfs-castle/",
  "description": "Among humans they were called… wizards or witches\nFor the \"Wolf Tribe\"… they are called “The Contractors of the Moon”.\nFor the wolf to obtain “Moonstream” it must form a contract with an existence between the “physical world” and the “eternal world\". The wolf gains great strength to defeat any foe in its way.\nFor the human, is an opportunity to achieve one’s goal, together with eternal life…",
  "language": "English",
  "images": [
    "https://img-proxy.imgfo.com/?referer=https://manganelo.com&url=https://s3.mkklcdnv6temp.com/mangakakalot/w2/wolfs_castle/vol1_chapter_2/1.jpg",
    "https://img-proxy.imgfo.com/?referer=https://manganelo.com&url=https://s3.mkklcdnv6temp.com/mangakakalot/w2/wolfs_castle/vol1_chapter_2/2.jpg",
    "https://img-proxy.imgfo.com/?referer=https://manganelo.com&url=https://s3.mkklcdnv6temp.com/mangakakalot/w2/wolfs_castle/vol1_chapter_2/3.jpg",
    "https://img-proxy.imgfo.com/?referer=https://manganelo.com&url=https://s3.mkklcdnv6temp.com/mangakakalot/w2/wolfs_castle/vol1_chapter_2/4.jpg",
    "https://img-proxy.imgfo.com/?referer=https://manganelo.com&url=https://s3.mkklcdnv6temp.com/mangakakalot/w2/wolfs_castle/vol1_chapter_2/5.jpg",
    "https://img-proxy.imgfo.com/?referer=https://manganelo.com&url=https://s3.mkklcdnv6temp.com/mangakakalot/w2/wolfs_castle/vol1_chapter_2/6.jpg",
    "https://img-proxy.imgfo.com/?referer=https://manganelo.com&url=https://s3.mkklcdnv6temp.com/mangakakalot/w2/wolfs_castle/vol1_chapter_2/7.jpg",
    "https://img-proxy.imgfo.com/?referer=https://manganelo.com&url=https://s3.mkklcdnv6temp.com/mangakakalot/w2/wolfs_castle/vol1_chapter_2/8.jpg",
    "https://img-proxy.imgfo.com/?referer=https://manganelo.com&url=https://s3.mkklcdnv6temp.com/mangakakalot/w2/wolfs_castle/vol1_chapter_2/9.jpg",
    "https://img-proxy.imgfo.com/?referer=https://manganelo.com&url=https://s3.mkklcdnv6temp.com/mangakakalot/w2/wolfs_castle/vol1_chapter_2/10.jpg",
    "https://img-proxy.imgfo.com/?referer=https://manganelo.com&url=https://s3.mkklcdnv6temp.com/mangakakalot/w2/wolfs_castle/vol1_chapter_2/11.jpg",
    "https://img-proxy.imgfo.com/?referer=https://manganelo.com&url=https://s3.mkklcdnv6temp.com/mangakakalot/w2/wolfs_castle/vol1_chapter_2/12.jpg",
    "https://img-proxy.imgfo.com/?referer=https://manganelo.com&url=https://s3.mkklcdnv6temp.com/mangakakalot/w2/wolfs_castle/vol1_chapter_2/13.jpg",
    "https://img-proxy.imgfo.com/?referer=https://manganelo.com&url=https://s3.mkklcdnv6temp.com/mangakakalot/w2/wolfs_castle/vol1_chapter_2/14.jpg",
    "https://img-proxy.imgfo.com/?referer=https://manganelo.com&url=https://s3.mkklcdnv6temp.com/mangakakalot/w2/wolfs_castle/vol1_chapter_2/15.jpg",
    "https://img-proxy.imgfo.com/?referer=https://manganelo.com&url=https://s3.mkklcdnv6temp.com/mangakakalot/w2/wolfs_castle/vol1_chapter_2/16.jpg",
    "https://img-proxy.imgfo.com/?referer=https://manganelo.com&url=https://s3.mkklcdnv6temp.com/mangakakalot/w2/wolfs_castle/vol1_chapter_2/17.jpg",
    "https://img-proxy.imgfo.com/?referer=https://manganelo.com&url=https://s3.mkklcdnv6temp.com/mangakakalot/w2/wolfs_castle/vol1_chapter_2/18.jpg",
    "https://img-proxy.imgfo.com/?referer=https://manganelo.com&url=https://s3.mkklcdnv6temp.com/mangakakalot/w2/wolfs_castle/vol1_chapter_2/19.jpg",
    "https://img-proxy.imgfo.com/?referer=https://manganelo.com&url=https://s3.mkklcdnv6temp.com/mangakakalot/w2/wolfs_castle/vol1_chapter_2/20.jpg",
    "https://img-proxy.imgfo.com/?referer=https://manganelo.com&url=https://s3.mkklcdnv6temp.com/mangakakalot/w2/wolfs_castle/vol1_chapter_2/21.jpg",
    "https://img-proxy.imgfo.com/?referer=https://manganelo.com&url=https://s3.mkklcdnv6temp.com/mangakakalot/w2/wolfs_castle/vol1_chapter_2/22.jpg",
    "https://img-proxy.imgfo.com/?referer=https://manganelo.com&url=https://s3.mkklcdnv6temp.com/mangakakalot/w2/wolfs_castle/vol1_chapter_2/23.jpg",
    "https://img-proxy.imgfo.com/?referer=https://manganelo.com&url=https://s3.mkklcdnv6temp.com/mangakakalot/w2/wolfs_castle/vol1_chapter_2/24.jpg"
  ]
}