{
  "cover": "https://avt.mkklcdnv6.com/9/m/11-1583484350.jpg",
  "title": "Global Garden",
  "original": "グローバル・ガーデン ; 地球花园 ; Guroobaru Gaaden",
  "genre": "Adventure, Drama, Fantasy, Gender bender, Historical, Romance, Sci fi, Shoujo, Supernatural, Manga",
  "author": "Hiwatari Saki",
  "status": "Completed",
  "backlink": "https://manganu.com/collections/hiwatari-saki/global-garden/",
  "description": "Living in regret that his formula gave birth to the atomic bomb, Professor Einstein sends two boys whose eyes can see the future on a train that travels at the speed of light before embarking on his own final adventure: death. His hope is that they will find \"HER\" and tell her his wish, for it is only she who can grant it.\nFifty years later, it is 2005 and the place is Tokyo. At last, \"SHE\" (Ruika) has been found... but Ruika has an unusual circumstance. For her mother's sake, she's been living as her dead brother since childhood. Does Ruika truly have the power to grant wishes? If she grants her mother's wish by becoming a boy, then no one can lead us into the GLOBAL GARDEN... Now it's a race against time and against each other, because everyone has a dark past and an ulterior motive for possessing the girl who can grant Einstein's wish.",
  "language": "English",
  "images": [
    "https://img-proxy.imgfo.com/?referer=https://manganelo.com&url=https://s7.mkklcdnv6temp.com/mangakakalot/g1/global_garden/vol4_chapter_21/1.jpg",
    "https://img-proxy.imgfo.com/?referer=https://manganelo.com&url=https://s7.mkklcdnv6temp.com/mangakakalot/g1/global_garden/vol4_chapter_21/2.jpg",
    "https://img-proxy.imgfo.com/?referer=https://manganelo.com&url=https://s7.mkklcdnv6temp.com/mangakakalot/g1/global_garden/vol4_chapter_21/3.jpg",
    "https://img-proxy.imgfo.com/?referer=https://manganelo.com&url=https://s7.mkklcdnv6temp.com/mangakakalot/g1/global_garden/vol4_chapter_21/4.jpg",
    "https://img-proxy.imgfo.com/?referer=https://manganelo.com&url=https://s7.mkklcdnv6temp.com/mangakakalot/g1/global_garden/vol4_chapter_21/5.jpg",
    "https://img-proxy.imgfo.com/?referer=https://manganelo.com&url=https://s7.mkklcdnv6temp.com/mangakakalot/g1/global_garden/vol4_chapter_21/6.jpg",
    "https://img-proxy.imgfo.com/?referer=https://manganelo.com&url=https://s7.mkklcdnv6temp.com/mangakakalot/g1/global_garden/vol4_chapter_21/7.jpg",
    "https://img-proxy.imgfo.com/?referer=https://manganelo.com&url=https://s7.mkklcdnv6temp.com/mangakakalot/g1/global_garden/vol4_chapter_21/8.jpg",
    "https://img-proxy.imgfo.com/?referer=https://manganelo.com&url=https://s7.mkklcdnv6temp.com/mangakakalot/g1/global_garden/vol4_chapter_21/9.jpg",
    "https://img-proxy.imgfo.com/?referer=https://manganelo.com&url=https://s7.mkklcdnv6temp.com/mangakakalot/g1/global_garden/vol4_chapter_21/10.jpg",
    "https://img-proxy.imgfo.com/?referer=https://manganelo.com&url=https://s7.mkklcdnv6temp.com/mangakakalot/g1/global_garden/vol4_chapter_21/11.jpg",
    "https://img-proxy.imgfo.com/?referer=https://manganelo.com&url=https://s7.mkklcdnv6temp.com/mangakakalot/g1/global_garden/vol4_chapter_21/12.jpg",
    "https://img-proxy.imgfo.com/?referer=https://manganelo.com&url=https://s7.mkklcdnv6temp.com/mangakakalot/g1/global_garden/vol4_chapter_21/13.jpg",
    "https://img-proxy.imgfo.com/?referer=https://manganelo.com&url=https://s7.mkklcdnv6temp.com/mangakakalot/g1/global_garden/vol4_chapter_21/14.jpg",
    "https://img-proxy.imgfo.com/?referer=https://manganelo.com&url=https://s7.mkklcdnv6temp.com/mangakakalot/g1/global_garden/vol4_chapter_21/15.jpg",
    "https://img-proxy.imgfo.com/?referer=https://manganelo.com&url=https://s7.mkklcdnv6temp.com/mangakakalot/g1/global_garden/vol4_chapter_21/16.jpg",
    "https://img-proxy.imgfo.com/?referer=https://manganelo.com&url=https://s7.mkklcdnv6temp.com/mangakakalot/g1/global_garden/vol4_chapter_21/17.jpg",
    "https://img-proxy.imgfo.com/?referer=https://manganelo.com&url=https://s7.mkklcdnv6temp.com/mangakakalot/g1/global_garden/vol4_chapter_21/18.jpg",
    "https://img-proxy.imgfo.com/?referer=https://manganelo.com&url=https://s7.mkklcdnv6temp.com/mangakakalot/g1/global_garden/vol4_chapter_21/19.jpg",
    "https://img-proxy.imgfo.com/?referer=https://manganelo.com&url=https://s7.mkklcdnv6temp.com/mangakakalot/g1/global_garden/vol4_chapter_21/20.jpg",
    "https://img-proxy.imgfo.com/?referer=https://manganelo.com&url=https://s7.mkklcdnv6temp.com/mangakakalot/g1/global_garden/vol4_chapter_21/21.jpg",
    "https://img-proxy.imgfo.com/?referer=https://manganelo.com&url=https://s7.mkklcdnv6temp.com/mangakakalot/g1/global_garden/vol4_chapter_21/22.jpg",
    "https://img-proxy.imgfo.com/?referer=https://manganelo.com&url=https://s7.mkklcdnv6temp.com/mangakakalot/g1/global_garden/vol4_chapter_21/23.jpg",
    "https://img-proxy.imgfo.com/?referer=https://manganelo.com&url=https://s7.mkklcdnv6temp.com/mangakakalot/g1/global_garden/vol4_chapter_21/24.jpg",
    "https://img-proxy.imgfo.com/?referer=https://manganelo.com&url=https://s7.mkklcdnv6temp.com/mangakakalot/g1/global_garden/vol4_chapter_21/25.jpg",
    "https://img-proxy.imgfo.com/?referer=https://manganelo.com&url=https://s7.mkklcdnv6temp.com/mangakakalot/g1/global_garden/vol4_chapter_21/26.jpg",
    "https://img-proxy.imgfo.com/?referer=https://manganelo.com&url=https://s7.mkklcdnv6temp.com/mangakakalot/g1/global_garden/vol4_chapter_21/27.jpg",
    "https://img-proxy.imgfo.com/?referer=https://manganelo.com&url=https://s7.mkklcdnv6temp.com/mangakakalot/g1/global_garden/vol4_chapter_21/28.jpg",
    "https://img-proxy.imgfo.com/?referer=https://manganelo.com&url=https://s7.mkklcdnv6temp.com/mangakakalot/g1/global_garden/vol4_chapter_21/29.jpg",
    "https://img-proxy.imgfo.com/?referer=https://manganelo.com&url=https://s7.mkklcdnv6temp.com/mangakakalot/g1/global_garden/vol4_chapter_21/30.jpg",
    "https://img-proxy.imgfo.com/?referer=https://manganelo.com&url=https://s7.mkklcdnv6temp.com/mangakakalot/g1/global_garden/vol4_chapter_21/31.jpg",
    "https://img-proxy.imgfo.com/?referer=https://manganelo.com&url=https://s7.mkklcdnv6temp.com/mangakakalot/g1/global_garden/vol4_chapter_21/32.jpg",
    "https://img-proxy.imgfo.com/?referer=https://manganelo.com&url=https://s7.mkklcdnv6temp.com/mangakakalot/g1/global_garden/vol4_chapter_21/33.jpg"
  ]
}