{
  "cover": "https://avt.mkklcdnv6.com/25/q/4-1583470741.jpg",
  "title": "Sket Dance",
  "original": "スケットダンス ; 学园救援团",
  "genre": "Comedy, School life, Shounen, Slice of life, Manga",
  "author": "Shinohara Kenta",
  "status": "Completed",
  "backlink": "https://manganu.com/collections/shinohara-kenta/sket-dance/",
  "description": "The hilarious misadventures of the &quot;Sket Dan&quot;; a couple of high schoolers who help out people as part of their club activity: Himeko, the hot-headed ex-delinquent with a soft spot for cute things and a taste for strange food; Switch, the brainy otaku who only talks via a computerized speech-application; and Bossun, the atypical leader of this looney bunch, with the amazing power to... concentrate very hard! Sket Dance won the 55th annual Shogakukan Manga Award in 2009 for best shounen manga.",
  "language": "English",
  "images": [
    "https://img-proxy.imgfo.com/?referer=https://manganelo.com&url=https://s6.mkklcdnv6temp.com/mangakakalot/s1/sket_dance/vol23_chapter_202_the_seniors_farewell_ceremony_pt_1/1.jpg",
    "https://img-proxy.imgfo.com/?referer=https://manganelo.com&url=https://s6.mkklcdnv6temp.com/mangakakalot/s1/sket_dance/vol23_chapter_202_the_seniors_farewell_ceremony_pt_1/2.jpg",
    "https://img-proxy.imgfo.com/?referer=https://manganelo.com&url=https://s6.mkklcdnv6temp.com/mangakakalot/s1/sket_dance/vol23_chapter_202_the_seniors_farewell_ceremony_pt_1/3.jpg",
    "https://img-proxy.imgfo.com/?referer=https://manganelo.com&url=https://s6.mkklcdnv6temp.com/mangakakalot/s1/sket_dance/vol23_chapter_202_the_seniors_farewell_ceremony_pt_1/4.jpg",
    "https://img-proxy.imgfo.com/?referer=https://manganelo.com&url=https://s6.mkklcdnv6temp.com/mangakakalot/s1/sket_dance/vol23_chapter_202_the_seniors_farewell_ceremony_pt_1/5.jpg",
    "https://img-proxy.imgfo.com/?referer=https://manganelo.com&url=https://s6.mkklcdnv6temp.com/mangakakalot/s1/sket_dance/vol23_chapter_202_the_seniors_farewell_ceremony_pt_1/6.jpg",
    "https://img-proxy.imgfo.com/?referer=https://manganelo.com&url=https://s6.mkklcdnv6temp.com/mangakakalot/s1/sket_dance/vol23_chapter_202_the_seniors_farewell_ceremony_pt_1/7.jpg",
    "https://img-proxy.imgfo.com/?referer=https://manganelo.com&url=https://s6.mkklcdnv6temp.com/mangakakalot/s1/sket_dance/vol23_chapter_202_the_seniors_farewell_ceremony_pt_1/8.jpg",
    "https://img-proxy.imgfo.com/?referer=https://manganelo.com&url=https://s6.mkklcdnv6temp.com/mangakakalot/s1/sket_dance/vol23_chapter_202_the_seniors_farewell_ceremony_pt_1/9.jpg",
    "https://img-proxy.imgfo.com/?referer=https://manganelo.com&url=https://s6.mkklcdnv6temp.com/mangakakalot/s1/sket_dance/vol23_chapter_202_the_seniors_farewell_ceremony_pt_1/10.jpg",
    "https://img-proxy.imgfo.com/?referer=https://manganelo.com&url=https://s6.mkklcdnv6temp.com/mangakakalot/s1/sket_dance/vol23_chapter_202_the_seniors_farewell_ceremony_pt_1/11.jpg",
    "https://img-proxy.imgfo.com/?referer=https://manganelo.com&url=https://s6.mkklcdnv6temp.com/mangakakalot/s1/sket_dance/vol23_chapter_202_the_seniors_farewell_ceremony_pt_1/12.jpg",
    "https://img-proxy.imgfo.com/?referer=https://manganelo.com&url=https://s6.mkklcdnv6temp.com/mangakakalot/s1/sket_dance/vol23_chapter_202_the_seniors_farewell_ceremony_pt_1/13.jpg",
    "https://img-proxy.imgfo.com/?referer=https://manganelo.com&url=https://s6.mkklcdnv6temp.com/mangakakalot/s1/sket_dance/vol23_chapter_202_the_seniors_farewell_ceremony_pt_1/14.jpg",
    "https://img-proxy.imgfo.com/?referer=https://manganelo.com&url=https://s6.mkklcdnv6temp.com/mangakakalot/s1/sket_dance/vol23_chapter_202_the_seniors_farewell_ceremony_pt_1/15.jpg",
    "https://img-proxy.imgfo.com/?referer=https://manganelo.com&url=https://s6.mkklcdnv6temp.com/mangakakalot/s1/sket_dance/vol23_chapter_202_the_seniors_farewell_ceremony_pt_1/16.jpg",
    "https://img-proxy.imgfo.com/?referer=https://manganelo.com&url=https://s6.mkklcdnv6temp.com/mangakakalot/s1/sket_dance/vol23_chapter_202_the_seniors_farewell_ceremony_pt_1/17.jpg",
    "https://img-proxy.imgfo.com/?referer=https://manganelo.com&url=https://s6.mkklcdnv6temp.com/mangakakalot/s1/sket_dance/vol23_chapter_202_the_seniors_farewell_ceremony_pt_1/18.jpg",
    "https://img-proxy.imgfo.com/?referer=https://manganelo.com&url=https://s6.mkklcdnv6temp.com/mangakakalot/s1/sket_dance/vol23_chapter_202_the_seniors_farewell_ceremony_pt_1/19.jpg",
    "https://img-proxy.imgfo.com/?referer=https://manganelo.com&url=https://s6.mkklcdnv6temp.com/mangakakalot/s1/sket_dance/vol23_chapter_202_the_seniors_farewell_ceremony_pt_1/20.jpg"
  ]
}