{
  "cover": "http://ww1.heaventoon.com/content/upload/images/20-1583501108.jpg",
  "title": "Collide",
  "genre": "Action, Fantasy, Josei, Manhwa, Romance, Sci-fi, Shounen, Full Color, Webtoons",
  "author": "Wann",
  "status": "Ongoing",
  "backlink": "https://manganu.com/collections/wann/collide/",
  "description": "Description : Joy was never a girl who stood out. But one day a fateful encounter brings Moowon to her &ndash; supernatural espers like him are drawn to and activated by special genes she never knew she had. Though his given mission is to protect Joy from the unseen war she&rsquo;s now thrust into, Moowon feels a growing attraction&hellip; Is it just her genes or something deeper that moves him? From hit romance series creator Wann.",
  "language": "English",
  "images": [
    "https://images2-focus-opensocial.googleusercontent.com/gadgets/proxy?container=focus&gadget=a&no_expand=1&resize_h=0&rewriteMime=image%2F*&url=https://img-proxy.imgfo.com/?referer=https://manganelo.com&url=https://s8.mkklcdnv6temp.com/mangakakalot/q1/qb921352/chapter_70/1.jpg",
    "https://images2-focus-opensocial.googleusercontent.com/gadgets/proxy?container=focus&gadget=a&no_expand=1&resize_h=0&rewriteMime=image%2F*&url=https://img-proxy.imgfo.com/?referer=https://manganelo.com&url=https://s8.mkklcdnv6temp.com/mangakakalot/q1/qb921352/chapter_70/2.jpg",
    "https://images2-focus-opensocial.googleusercontent.com/gadgets/proxy?container=focus&gadget=a&no_expand=1&resize_h=0&rewriteMime=image%2F*&url=https://img-proxy.imgfo.com/?referer=https://manganelo.com&url=https://s8.mkklcdnv6temp.com/mangakakalot/q1/qb921352/chapter_70/3.jpg",
    "https://images2-focus-opensocial.googleusercontent.com/gadgets/proxy?container=focus&gadget=a&no_expand=1&resize_h=0&rewriteMime=image%2F*&url=https://img-proxy.imgfo.com/?referer=https://manganelo.com&url=https://s8.mkklcdnv6temp.com/mangakakalot/q1/qb921352/chapter_70/4.jpg",
    "https://images2-focus-opensocial.googleusercontent.com/gadgets/proxy?container=focus&gadget=a&no_expand=1&resize_h=0&rewriteMime=image%2F*&url=https://img-proxy.imgfo.com/?referer=https://manganelo.com&url=https://s8.mkklcdnv6temp.com/mangakakalot/q1/qb921352/chapter_70/5.jpg",
    "https://images2-focus-opensocial.googleusercontent.com/gadgets/proxy?container=focus&gadget=a&no_expand=1&resize_h=0&rewriteMime=image%2F*&url=https://img-proxy.imgfo.com/?referer=https://manganelo.com&url=https://s8.mkklcdnv6temp.com/mangakakalot/q1/qb921352/chapter_70/6.jpg",
    "https://images2-focus-opensocial.googleusercontent.com/gadgets/proxy?container=focus&gadget=a&no_expand=1&resize_h=0&rewriteMime=image%2F*&url=https://img-proxy.imgfo.com/?referer=https://manganelo.com&url=https://s8.mkklcdnv6temp.com/mangakakalot/q1/qb921352/chapter_70/7.jpg",
    "https://images2-focus-opensocial.googleusercontent.com/gadgets/proxy?container=focus&gadget=a&no_expand=1&resize_h=0&rewriteMime=image%2F*&url=https://img-proxy.imgfo.com/?referer=https://manganelo.com&url=https://s8.mkklcdnv6temp.com/mangakakalot/q1/qb921352/chapter_70/8.jpg",
    "https://images2-focus-opensocial.googleusercontent.com/gadgets/proxy?container=focus&gadget=a&no_expand=1&resize_h=0&rewriteMime=image%2F*&url=https://img-proxy.imgfo.com/?referer=https://manganelo.com&url=https://s8.mkklcdnv6temp.com/mangakakalot/q1/qb921352/chapter_70/9.jpg",
    "https://images2-focus-opensocial.googleusercontent.com/gadgets/proxy?container=focus&gadget=a&no_expand=1&resize_h=0&rewriteMime=image%2F*&url=https://img-proxy.imgfo.com/?referer=https://manganelo.com&url=https://s8.mkklcdnv6temp.com/mangakakalot/q1/qb921352/chapter_70/10.jpg",
    "https://images2-focus-opensocial.googleusercontent.com/gadgets/proxy?container=focus&gadget=a&no_expand=1&resize_h=0&rewriteMime=image%2F*&url=https://img-proxy.imgfo.com/?referer=https://manganelo.com&url=https://s8.mkklcdnv6temp.com/mangakakalot/q1/qb921352/chapter_70/11.jpg",
    "https://images2-focus-opensocial.googleusercontent.com/gadgets/proxy?container=focus&gadget=a&no_expand=1&resize_h=0&rewriteMime=image%2F*&url=https://img-proxy.imgfo.com/?referer=https://manganelo.com&url=https://s8.mkklcdnv6temp.com/mangakakalot/q1/qb921352/chapter_70/12.jpg",
    "https://images2-focus-opensocial.googleusercontent.com/gadgets/proxy?container=focus&gadget=a&no_expand=1&resize_h=0&rewriteMime=image%2F*&url=https://img-proxy.imgfo.com/?referer=https://manganelo.com&url=https://s8.mkklcdnv6temp.com/mangakakalot/q1/qb921352/chapter_70/13.jpg",
    "https://images2-focus-opensocial.googleusercontent.com/gadgets/proxy?container=focus&gadget=a&no_expand=1&resize_h=0&rewriteMime=image%2F*&url=https://img-proxy.imgfo.com/?referer=https://manganelo.com&url=https://s8.mkklcdnv6temp.com/mangakakalot/q1/qb921352/chapter_70/14.jpg",
    "https://images2-focus-opensocial.googleusercontent.com/gadgets/proxy?container=focus&gadget=a&no_expand=1&resize_h=0&rewriteMime=image%2F*&url=https://img-proxy.imgfo.com/?referer=https://manganelo.com&url=https://s8.mkklcdnv6temp.com/mangakakalot/q1/qb921352/chapter_70/15.jpg",
    "https://images2-focus-opensocial.googleusercontent.com/gadgets/proxy?container=focus&gadget=a&no_expand=1&resize_h=0&rewriteMime=image%2F*&url=https://img-proxy.imgfo.com/?referer=https://manganelo.com&url=https://s8.mkklcdnv6temp.com/mangakakalot/q1/qb921352/chapter_70/16.jpg",
    "https://images2-focus-opensocial.googleusercontent.com/gadgets/proxy?container=focus&gadget=a&no_expand=1&resize_h=0&rewriteMime=image%2F*&url=https://img-proxy.imgfo.com/?referer=https://manganelo.com&url=https://s8.mkklcdnv6temp.com/mangakakalot/q1/qb921352/chapter_70/17.jpg",
    "https://images2-focus-opensocial.googleusercontent.com/gadgets/proxy?container=focus&gadget=a&no_expand=1&resize_h=0&rewriteMime=image%2F*&url=https://img-proxy.imgfo.com/?referer=https://manganelo.com&url=https://s8.mkklcdnv6temp.com/mangakakalot/q1/qb921352/chapter_70/18.jpg",
    "https://images2-focus-opensocial.googleusercontent.com/gadgets/proxy?container=focus&gadget=a&no_expand=1&resize_h=0&rewriteMime=image%2F*&url=https://img-proxy.imgfo.com/?referer=https://manganelo.com&url=https://s8.mkklcdnv6temp.com/mangakakalot/q1/qb921352/chapter_70/19.jpg",
    "https://images2-focus-opensocial.googleusercontent.com/gadgets/proxy?container=focus&gadget=a&no_expand=1&resize_h=0&rewriteMime=image%2F*&url=https://img-proxy.imgfo.com/?referer=https://manganelo.com&url=https://s8.mkklcdnv6temp.com/mangakakalot/q1/qb921352/chapter_70/20.jpg",
    "https://images2-focus-opensocial.googleusercontent.com/gadgets/proxy?container=focus&gadget=a&no_expand=1&resize_h=0&rewriteMime=image%2F*&url=https://img-proxy.imgfo.com/?referer=https://manganelo.com&url=https://s8.mkklcdnv6temp.com/mangakakalot/q1/qb921352/chapter_70/21.jpg",
    "https://images2-focus-opensocial.googleusercontent.com/gadgets/proxy?container=focus&gadget=a&no_expand=1&resize_h=0&rewriteMime=image%2F*&url=https://img-proxy.imgfo.com/?referer=https://manganelo.com&url=https://s8.mkklcdnv6temp.com/mangakakalot/q1/qb921352/chapter_70/22.jpg"
  ]
}