{
  "cover": "https://avt.mkklcdnv6.com/3/a/20-1583501108.jpg",
  "title": "Collide",
  "genre": "Action, Fantasy, Josei, Romance, Sci fi, Shounen, Manhwa",
  "author": "Wann",
  "status": "Completed",
  "backlink": "https://manganu.com/collections/wann/collide/",
  "description": "Joy was never a girl who stood out. But one day a fateful encounter brings Moowon to her &ndash; supernatural espers like him are drawn to and activated by special genes she never knew she had. Though his given mission is to protect Joy from the unseen war she&rsquo;s now thrust into, Moowon feels a growing attraction&hellip; Is it just her genes or something deeper that moves him? From hit romance series creator Wann.",
  "language": "English",
  "images": [
    "https://static-focus-opensocial.googleusercontent.com/gadgets/proxy?container=focus&gadget=a&no_expand=1&resize_h=0&rewriteMime=image%2F*&url=https://img-proxy.imgfo.com/?referer=https://manganelo.com&url=https://s8.mkklcdnv6temp.com/mangakakalot/q1/qb921352/collide_chapter_124/8.jpg",
    "https://static-focus-opensocial.googleusercontent.com/gadgets/proxy?container=focus&gadget=a&no_expand=1&resize_h=0&rewriteMime=image%2F*&url=https://img-proxy.imgfo.com/?referer=https://manganelo.com&url=https://s8.mkklcdnv6temp.com/mangakakalot/q1/qb921352/collide_chapter_124/9.jpg",
    "https://static-focus-opensocial.googleusercontent.com/gadgets/proxy?container=focus&gadget=a&no_expand=1&resize_h=0&rewriteMime=image%2F*&url=https://img-proxy.imgfo.com/?referer=https://manganelo.com&url=https://s8.mkklcdnv6temp.com/mangakakalot/q1/qb921352/collide_chapter_124/10.jpg",
    "https://static-focus-opensocial.googleusercontent.com/gadgets/proxy?container=focus&gadget=a&no_expand=1&resize_h=0&rewriteMime=image%2F*&url=https://img-proxy.imgfo.com/?referer=https://manganelo.com&url=https://s8.mkklcdnv6temp.com/mangakakalot/q1/qb921352/collide_chapter_124/11.jpg",
    "https://static-focus-opensocial.googleusercontent.com/gadgets/proxy?container=focus&gadget=a&no_expand=1&resize_h=0&rewriteMime=image%2F*&url=https://img-proxy.imgfo.com/?referer=https://manganelo.com&url=https://s8.mkklcdnv6temp.com/mangakakalot/q1/qb921352/collide_chapter_124/12.jpg",
    "https://static-focus-opensocial.googleusercontent.com/gadgets/proxy?container=focus&gadget=a&no_expand=1&resize_h=0&rewriteMime=image%2F*&url=https://img-proxy.imgfo.com/?referer=https://manganelo.com&url=https://s8.mkklcdnv6temp.com/mangakakalot/q1/qb921352/collide_chapter_124/13.jpg",
    "https://static-focus-opensocial.googleusercontent.com/gadgets/proxy?container=focus&gadget=a&no_expand=1&resize_h=0&rewriteMime=image%2F*&url=https://img-proxy.imgfo.com/?referer=https://manganelo.com&url=https://s8.mkklcdnv6temp.com/mangakakalot/q1/qb921352/collide_chapter_124/14.jpg"
  ]
}