{
  "cover": "https://avt.mkklcdnv6.com/20/h/3-1583468470.jpg",
  "title": "Kareshi Kanojo No Jijou",
  "original": "С его стороны — с её стороны; Он и она и их обстоятельства (Russian); 彼氏彼女の事情 (Japanese); 그남자 그여자 (Korean); ظروفه وظروفها (Arabic); Circunstancias dele e dela (Spanish); Con trai con gái F3 (Vietnamese - Tiếng Việt - TV); Elle et Lui (French); Elle et Lui - Kare kano (French); His and Her Circumstances; Kare Kano; Karekano; Las cosas de él y de ella; Le situazioni di Lui e Lei; That Man That Woman; Le Situazioni di Lui e di Lei (Italian); Kareshi Kanojo; La situación entre el y ella (Spanish)",
  "genre": "Comedy, Drama, Romance, School life, Shoujo, Slice of life, Manga",
  "author": "Tsuda Masami",
  "status": "Completed",
  "backlink": "https://manganu.com/collections/tsuda-masami/kareshi-kanojo-no-jijou/",
  "description": "Yukino Miyazawa is the perfect model student. She&#39;s pretty, kind, good at sports, and is always at the top of her class; but she&#39;s not all that she seems. It&#39;s all an act of deception; she is really the self-confessed &#39;queen of vanity,&#39; and her only goal in life is winning the praise and admiration of everyone around her. When she enters high school, she finally meets her match: Soichiro Arima, a handsome, athletic, popular, and very intelligent young boy. Ever since he stole the top seat in the class from her, Yukino has hated him, and has been plotting on how to take back her former place as the object of all other students&#39; admiration. What she wasn&#39;t expecting, however, was that Soichiro, the very boy she hated, would confess his love for her; or that he would find out about her deception - and use it to blackmail her! Together, they discover that they have more in common than they knew, and they slowly begin to bring out each other&#39;s inner selves.",
  "language": "English",
  "images": [
    "https://img-proxy.imgfo.com/?referer=https://manganelo.com&url=https://s5.mkklcdnv6temp.com/mangakakalot/k1/kareshi_kanojo_no_jijou/vol14_chapter_67_sudden/1.jpg",
    "https://img-proxy.imgfo.com/?referer=https://manganelo.com&url=https://s5.mkklcdnv6temp.com/mangakakalot/k1/kareshi_kanojo_no_jijou/vol14_chapter_67_sudden/2.jpg",
    "https://img-proxy.imgfo.com/?referer=https://manganelo.com&url=https://s5.mkklcdnv6temp.com/mangakakalot/k1/kareshi_kanojo_no_jijou/vol14_chapter_67_sudden/3.jpg",
    "https://img-proxy.imgfo.com/?referer=https://manganelo.com&url=https://s5.mkklcdnv6temp.com/mangakakalot/k1/kareshi_kanojo_no_jijou/vol14_chapter_67_sudden/4.jpg",
    "https://img-proxy.imgfo.com/?referer=https://manganelo.com&url=https://s5.mkklcdnv6temp.com/mangakakalot/k1/kareshi_kanojo_no_jijou/vol14_chapter_67_sudden/5.jpg",
    "https://img-proxy.imgfo.com/?referer=https://manganelo.com&url=https://s5.mkklcdnv6temp.com/mangakakalot/k1/kareshi_kanojo_no_jijou/vol14_chapter_67_sudden/6.jpg",
    "https://img-proxy.imgfo.com/?referer=https://manganelo.com&url=https://s5.mkklcdnv6temp.com/mangakakalot/k1/kareshi_kanojo_no_jijou/vol14_chapter_67_sudden/7.jpg",
    "https://img-proxy.imgfo.com/?referer=https://manganelo.com&url=https://s5.mkklcdnv6temp.com/mangakakalot/k1/kareshi_kanojo_no_jijou/vol14_chapter_67_sudden/8.jpg",
    "https://img-proxy.imgfo.com/?referer=https://manganelo.com&url=https://s5.mkklcdnv6temp.com/mangakakalot/k1/kareshi_kanojo_no_jijou/vol14_chapter_67_sudden/9.jpg",
    "https://img-proxy.imgfo.com/?referer=https://manganelo.com&url=https://s5.mkklcdnv6temp.com/mangakakalot/k1/kareshi_kanojo_no_jijou/vol14_chapter_67_sudden/10.jpg",
    "https://img-proxy.imgfo.com/?referer=https://manganelo.com&url=https://s5.mkklcdnv6temp.com/mangakakalot/k1/kareshi_kanojo_no_jijou/vol14_chapter_67_sudden/11.jpg",
    "https://img-proxy.imgfo.com/?referer=https://manganelo.com&url=https://s5.mkklcdnv6temp.com/mangakakalot/k1/kareshi_kanojo_no_jijou/vol14_chapter_67_sudden/12.jpg",
    "https://img-proxy.imgfo.com/?referer=https://manganelo.com&url=https://s5.mkklcdnv6temp.com/mangakakalot/k1/kareshi_kanojo_no_jijou/vol14_chapter_67_sudden/13.jpg",
    "https://img-proxy.imgfo.com/?referer=https://manganelo.com&url=https://s5.mkklcdnv6temp.com/mangakakalot/k1/kareshi_kanojo_no_jijou/vol14_chapter_67_sudden/14.jpg",
    "https://img-proxy.imgfo.com/?referer=https://manganelo.com&url=https://s5.mkklcdnv6temp.com/mangakakalot/k1/kareshi_kanojo_no_jijou/vol14_chapter_67_sudden/15.jpg",
    "https://img-proxy.imgfo.com/?referer=https://manganelo.com&url=https://s5.mkklcdnv6temp.com/mangakakalot/k1/kareshi_kanojo_no_jijou/vol14_chapter_67_sudden/16.jpg",
    "https://img-proxy.imgfo.com/?referer=https://manganelo.com&url=https://s5.mkklcdnv6temp.com/mangakakalot/k1/kareshi_kanojo_no_jijou/vol14_chapter_67_sudden/17.jpg",
    "https://img-proxy.imgfo.com/?referer=https://manganelo.com&url=https://s5.mkklcdnv6temp.com/mangakakalot/k1/kareshi_kanojo_no_jijou/vol14_chapter_67_sudden/18.jpg",
    "https://img-proxy.imgfo.com/?referer=https://manganelo.com&url=https://s5.mkklcdnv6temp.com/mangakakalot/k1/kareshi_kanojo_no_jijou/vol14_chapter_67_sudden/19.jpg",
    "https://img-proxy.imgfo.com/?referer=https://manganelo.com&url=https://s5.mkklcdnv6temp.com/mangakakalot/k1/kareshi_kanojo_no_jijou/vol14_chapter_67_sudden/20.jpg",
    "https://img-proxy.imgfo.com/?referer=https://manganelo.com&url=https://s5.mkklcdnv6temp.com/mangakakalot/k1/kareshi_kanojo_no_jijou/vol14_chapter_67_sudden/21.jpg",
    "https://img-proxy.imgfo.com/?referer=https://manganelo.com&url=https://s5.mkklcdnv6temp.com/mangakakalot/k1/kareshi_kanojo_no_jijou/vol14_chapter_67_sudden/22.jpg",
    "https://img-proxy.imgfo.com/?referer=https://manganelo.com&url=https://s5.mkklcdnv6temp.com/mangakakalot/k1/kareshi_kanojo_no_jijou/vol14_chapter_67_sudden/23.jpg",
    "https://img-proxy.imgfo.com/?referer=https://manganelo.com&url=https://s5.mkklcdnv6temp.com/mangakakalot/k1/kareshi_kanojo_no_jijou/vol14_chapter_67_sudden/24.jpg",
    "https://img-proxy.imgfo.com/?referer=https://manganelo.com&url=https://s5.mkklcdnv6temp.com/mangakakalot/k1/kareshi_kanojo_no_jijou/vol14_chapter_67_sudden/25.jpg",
    "https://img-proxy.imgfo.com/?referer=https://manganelo.com&url=https://s5.mkklcdnv6temp.com/mangakakalot/k1/kareshi_kanojo_no_jijou/vol14_chapter_67_sudden/26.jpg",
    "https://img-proxy.imgfo.com/?referer=https://manganelo.com&url=https://s5.mkklcdnv6temp.com/mangakakalot/k1/kareshi_kanojo_no_jijou/vol14_chapter_67_sudden/27.jpg",
    "https://img-proxy.imgfo.com/?referer=https://manganelo.com&url=https://s5.mkklcdnv6temp.com/mangakakalot/k1/kareshi_kanojo_no_jijou/vol14_chapter_67_sudden/28.jpg",
    "https://img-proxy.imgfo.com/?referer=https://manganelo.com&url=https://s5.mkklcdnv6temp.com/mangakakalot/k1/kareshi_kanojo_no_jijou/vol14_chapter_67_sudden/29.jpg",
    "https://img-proxy.imgfo.com/?referer=https://manganelo.com&url=https://s5.mkklcdnv6temp.com/mangakakalot/k1/kareshi_kanojo_no_jijou/vol14_chapter_67_sudden/30.jpg",
    "https://img-proxy.imgfo.com/?referer=https://manganelo.com&url=https://s5.mkklcdnv6temp.com/mangakakalot/k1/kareshi_kanojo_no_jijou/vol14_chapter_67_sudden/31.jpg",
    "https://img-proxy.imgfo.com/?referer=https://manganelo.com&url=https://s5.mkklcdnv6temp.com/mangakakalot/k1/kareshi_kanojo_no_jijou/vol14_chapter_67_sudden/32.jpg",
    "https://img-proxy.imgfo.com/?referer=https://manganelo.com&url=https://s5.mkklcdnv6temp.com/mangakakalot/k1/kareshi_kanojo_no_jijou/vol14_chapter_67_sudden/33.jpg"
  ]
}