{
  "cover": "https://avt.mkklcdnv6.com/47/a/10-1583483867.jpg",
  "title": "Kilico",
  "original": "キリコ",
  "genre": "Action, Drama, Mature, Seinen, Manga",
  "author": "Kiba Koichi",
  "status": "Completed",
  "backlink": "https://manganu.com/collections/kiba-koichi/kilico/",
  "description": "Story: Detective Akira Yusa sees his brother Shinichi killed before his very eyes. He spots a young girl, Kilico Sakaki, at the scene of the crime and instinctively knows that she did it. After a bloody fight, Akira arrests her. Trained as a professional assassin by her stepfather, Toshio Sakaki, in everyday life, Kilico acts like an ordinary college student. Her arrest is treated as a mistake when she manages to hide all evidence of Shinichi's murder. Akira's subsequent investigation of Kilico runs into difficulty when he finds that it's too big for a police detective to handle. Her encounter with Akira makes Kilico remember her terrible past and have doubts about being an assassin. Kilico goes to Taiwan to train as a jewel connoisseur, the Sakaki family's legitimate business, behind which they hide all their illegitimate business. Fired for taking his investigation too far, Akira follows Kilico to Taiwan. The two meet again and become very close, as they get involved in the internal conflicts within the Tenrenban gang, Taiwan's biggest Mafia group.",
  "language": "English",
  "images": [
    "https://img-proxy.imgfo.com/?referer=https://manganelo.com&url=https://s5.mkklcdnv6temp.com/mangakakalot/k1/kilico/vol4_chapter_33_drifting/1.jpg",
    "https://img-proxy.imgfo.com/?referer=https://manganelo.com&url=https://s5.mkklcdnv6temp.com/mangakakalot/k1/kilico/vol4_chapter_33_drifting/2.jpg",
    "https://img-proxy.imgfo.com/?referer=https://manganelo.com&url=https://s5.mkklcdnv6temp.com/mangakakalot/k1/kilico/vol4_chapter_33_drifting/3.jpg",
    "https://img-proxy.imgfo.com/?referer=https://manganelo.com&url=https://s5.mkklcdnv6temp.com/mangakakalot/k1/kilico/vol4_chapter_33_drifting/4.jpg",
    "https://img-proxy.imgfo.com/?referer=https://manganelo.com&url=https://s5.mkklcdnv6temp.com/mangakakalot/k1/kilico/vol4_chapter_33_drifting/5.jpg",
    "https://img-proxy.imgfo.com/?referer=https://manganelo.com&url=https://s5.mkklcdnv6temp.com/mangakakalot/k1/kilico/vol4_chapter_33_drifting/6.jpg",
    "https://img-proxy.imgfo.com/?referer=https://manganelo.com&url=https://s5.mkklcdnv6temp.com/mangakakalot/k1/kilico/vol4_chapter_33_drifting/7.jpg",
    "https://img-proxy.imgfo.com/?referer=https://manganelo.com&url=https://s5.mkklcdnv6temp.com/mangakakalot/k1/kilico/vol4_chapter_33_drifting/8.jpg",
    "https://img-proxy.imgfo.com/?referer=https://manganelo.com&url=https://s5.mkklcdnv6temp.com/mangakakalot/k1/kilico/vol4_chapter_33_drifting/9.jpg",
    "https://img-proxy.imgfo.com/?referer=https://manganelo.com&url=https://s5.mkklcdnv6temp.com/mangakakalot/k1/kilico/vol4_chapter_33_drifting/10.jpg",
    "https://img-proxy.imgfo.com/?referer=https://manganelo.com&url=https://s5.mkklcdnv6temp.com/mangakakalot/k1/kilico/vol4_chapter_33_drifting/11.jpg",
    "https://img-proxy.imgfo.com/?referer=https://manganelo.com&url=https://s5.mkklcdnv6temp.com/mangakakalot/k1/kilico/vol4_chapter_33_drifting/12.jpg",
    "https://img-proxy.imgfo.com/?referer=https://manganelo.com&url=https://s5.mkklcdnv6temp.com/mangakakalot/k1/kilico/vol4_chapter_33_drifting/13.jpg",
    "https://img-proxy.imgfo.com/?referer=https://manganelo.com&url=https://s5.mkklcdnv6temp.com/mangakakalot/k1/kilico/vol4_chapter_33_drifting/14.jpg",
    "https://img-proxy.imgfo.com/?referer=https://manganelo.com&url=https://s5.mkklcdnv6temp.com/mangakakalot/k1/kilico/vol4_chapter_33_drifting/15.jpg",
    "https://img-proxy.imgfo.com/?referer=https://manganelo.com&url=https://s5.mkklcdnv6temp.com/mangakakalot/k1/kilico/vol4_chapter_33_drifting/16.jpg",
    "https://img-proxy.imgfo.com/?referer=https://manganelo.com&url=https://s5.mkklcdnv6temp.com/mangakakalot/k1/kilico/vol4_chapter_33_drifting/17.jpg",
    "https://img-proxy.imgfo.com/?referer=https://manganelo.com&url=https://s5.mkklcdnv6temp.com/mangakakalot/k1/kilico/vol4_chapter_33_drifting/18.jpg",
    "https://img-proxy.imgfo.com/?referer=https://manganelo.com&url=https://s5.mkklcdnv6temp.com/mangakakalot/k1/kilico/vol4_chapter_33_drifting/19.jpg",
    "https://img-proxy.imgfo.com/?referer=https://manganelo.com&url=https://s5.mkklcdnv6temp.com/mangakakalot/k1/kilico/vol4_chapter_33_drifting/20.jpg"
  ]
}