{
  "cover": "https://avt.mkklcdnv6.com/43/g/18-1583498776.jpg",
  "title": "Yasashii Anata...",
  "original": "You Who Are Gentle; やさしいあなた…",
  "genre": "Comedy, Drama, Yaoi, Manga",
  "author": "Ishida Higashi",
  "status": "Completed",
  "backlink": "https://manganu.com/collections/ishida-higashi/yasashii-anata/",
  "description": "Harumoto, advisor to yakuza boss Taniguchi, is known for his street smarts and short temper. But he has a softer side, and when he meets Mizuta sensei in a nightclub, he begins to dream of romance with this classy intellectual who seems to be from another world.",
  "language": "English",
  "images": [
    "https://img-proxy.imgfo.com/?referer=https://manganelo.com&url=https://s41.mkklcdnv6temp.com/mangakakalot/y1/yh919742/vol1_chapter_56_extra_in_the_cafe/1.jpg",
    "https://img-proxy.imgfo.com/?referer=https://manganelo.com&url=https://s41.mkklcdnv6temp.com/mangakakalot/y1/yh919742/vol1_chapter_56_extra_in_the_cafe/2.jpg",
    "https://img-proxy.imgfo.com/?referer=https://manganelo.com&url=https://s41.mkklcdnv6temp.com/mangakakalot/y1/yh919742/vol1_chapter_56_extra_in_the_cafe/3.jpg",
    "https://img-proxy.imgfo.com/?referer=https://manganelo.com&url=https://s41.mkklcdnv6temp.com/mangakakalot/y1/yh919742/vol1_chapter_56_extra_in_the_cafe/4.jpg",
    "https://img-proxy.imgfo.com/?referer=https://manganelo.com&url=https://s41.mkklcdnv6temp.com/mangakakalot/y1/yh919742/vol1_chapter_56_extra_in_the_cafe/5.jpg",
    "https://img-proxy.imgfo.com/?referer=https://manganelo.com&url=https://s41.mkklcdnv6temp.com/mangakakalot/y1/yh919742/vol1_chapter_56_extra_in_the_cafe/6.jpg",
    "https://img-proxy.imgfo.com/?referer=https://manganelo.com&url=https://s41.mkklcdnv6temp.com/mangakakalot/y1/yh919742/vol1_chapter_56_extra_in_the_cafe/7.jpg",
    "https://img-proxy.imgfo.com/?referer=https://manganelo.com&url=https://s41.mkklcdnv6temp.com/mangakakalot/y1/yh919742/vol1_chapter_56_extra_in_the_cafe/8.jpg",
    "https://img-proxy.imgfo.com/?referer=https://manganelo.com&url=https://s41.mkklcdnv6temp.com/mangakakalot/y1/yh919742/vol1_chapter_56_extra_in_the_cafe/9.jpg",
    "https://img-proxy.imgfo.com/?referer=https://manganelo.com&url=https://s41.mkklcdnv6temp.com/mangakakalot/y1/yh919742/vol1_chapter_56_extra_in_the_cafe/10.jpg",
    "https://img-proxy.imgfo.com/?referer=https://manganelo.com&url=https://s41.mkklcdnv6temp.com/mangakakalot/y1/yh919742/vol1_chapter_56_extra_in_the_cafe/11.jpg"
  ]
}