{
  "cover": "https://avt.mkklcdnv6.com/4/q/2-1583465870.jpg",
  "title": "Itou-San (Kuraka Sui)",
  "original": "イトウさん ; イトウさん「例のネクタイのはなし」(共通ペーパー) ; 伊藤先生 ; Ito-san (KURAKA Sui) ; itosan",
  "genre": "Adult, Psychological, Yaoi, Manga",
  "author": "Kuraka Sui",
  "status": "Completed",
  "backlink": "https://manganu.com/collections/kuraka-sui/itou-san-kuraka-sui/",
  "description": "Every Tuesday night, a mysterious man named “Ito” visits Kyosuke, who is a prostitute, and talks to him about silly things until dawn. One day, he brings a briefcase full of money and tries to give it to Kyosuke, telling him that he wants him to quit his job and do something he truly wants to do, however…\nKuraka Sui brings forth a beautiful, dark story revolving around the gunsmoke and blood of the underworld. This is her very first BL, now in tankobon!!\n“Cage,” a story about an S&M school of domination and control, is also included.\n-Cocobees",
  "language": "English",
  "images": [
    "https://img-proxy.imgfo.com/?referer=https://manganelo.com&url=https://s3.mkklcdnv6temp.com/mangakakalot/i2/itousan_kuraka_sui/vol1_chapter_6_cage/1.jpg",
    "https://img-proxy.imgfo.com/?referer=https://manganelo.com&url=https://s3.mkklcdnv6temp.com/mangakakalot/i2/itousan_kuraka_sui/vol1_chapter_6_cage/2.jpg",
    "https://img-proxy.imgfo.com/?referer=https://manganelo.com&url=https://s3.mkklcdnv6temp.com/mangakakalot/i2/itousan_kuraka_sui/vol1_chapter_6_cage/3.jpg",
    "https://img-proxy.imgfo.com/?referer=https://manganelo.com&url=https://s3.mkklcdnv6temp.com/mangakakalot/i2/itousan_kuraka_sui/vol1_chapter_6_cage/4.jpg",
    "https://img-proxy.imgfo.com/?referer=https://manganelo.com&url=https://s3.mkklcdnv6temp.com/mangakakalot/i2/itousan_kuraka_sui/vol1_chapter_6_cage/5.jpg",
    "https://img-proxy.imgfo.com/?referer=https://manganelo.com&url=https://s3.mkklcdnv6temp.com/mangakakalot/i2/itousan_kuraka_sui/vol1_chapter_6_cage/6.jpg",
    "https://img-proxy.imgfo.com/?referer=https://manganelo.com&url=https://s3.mkklcdnv6temp.com/mangakakalot/i2/itousan_kuraka_sui/vol1_chapter_6_cage/7.jpg",
    "https://img-proxy.imgfo.com/?referer=https://manganelo.com&url=https://s3.mkklcdnv6temp.com/mangakakalot/i2/itousan_kuraka_sui/vol1_chapter_6_cage/8.jpg",
    "https://img-proxy.imgfo.com/?referer=https://manganelo.com&url=https://s3.mkklcdnv6temp.com/mangakakalot/i2/itousan_kuraka_sui/vol1_chapter_6_cage/9.jpg",
    "https://img-proxy.imgfo.com/?referer=https://manganelo.com&url=https://s3.mkklcdnv6temp.com/mangakakalot/i2/itousan_kuraka_sui/vol1_chapter_6_cage/10.jpg",
    "https://img-proxy.imgfo.com/?referer=https://manganelo.com&url=https://s3.mkklcdnv6temp.com/mangakakalot/i2/itousan_kuraka_sui/vol1_chapter_6_cage/11.jpg",
    "https://img-proxy.imgfo.com/?referer=https://manganelo.com&url=https://s3.mkklcdnv6temp.com/mangakakalot/i2/itousan_kuraka_sui/vol1_chapter_6_cage/12.jpg",
    "https://img-proxy.imgfo.com/?referer=https://manganelo.com&url=https://s3.mkklcdnv6temp.com/mangakakalot/i2/itousan_kuraka_sui/vol1_chapter_6_cage/13.jpg",
    "https://img-proxy.imgfo.com/?referer=https://manganelo.com&url=https://s3.mkklcdnv6temp.com/mangakakalot/i2/itousan_kuraka_sui/vol1_chapter_6_cage/14.jpg",
    "https://img-proxy.imgfo.com/?referer=https://manganelo.com&url=https://s3.mkklcdnv6temp.com/mangakakalot/i2/itousan_kuraka_sui/vol1_chapter_6_cage/15.jpg",
    "https://img-proxy.imgfo.com/?referer=https://manganelo.com&url=https://s3.mkklcdnv6temp.com/mangakakalot/i2/itousan_kuraka_sui/vol1_chapter_6_cage/16.jpg",
    "https://img-proxy.imgfo.com/?referer=https://manganelo.com&url=https://s3.mkklcdnv6temp.com/mangakakalot/i2/itousan_kuraka_sui/vol1_chapter_6_cage/17.jpg",
    "https://img-proxy.imgfo.com/?referer=https://manganelo.com&url=https://s3.mkklcdnv6temp.com/mangakakalot/i2/itousan_kuraka_sui/vol1_chapter_6_cage/18.jpg",
    "https://img-proxy.imgfo.com/?referer=https://manganelo.com&url=https://s3.mkklcdnv6temp.com/mangakakalot/i2/itousan_kuraka_sui/vol1_chapter_6_cage/19.jpg",
    "https://img-proxy.imgfo.com/?referer=https://manganelo.com&url=https://s3.mkklcdnv6temp.com/mangakakalot/i2/itousan_kuraka_sui/vol1_chapter_6_cage/20.jpg",
    "https://img-proxy.imgfo.com/?referer=https://manganelo.com&url=https://s3.mkklcdnv6temp.com/mangakakalot/i2/itousan_kuraka_sui/vol1_chapter_6_cage/21.jpg",
    "https://img-proxy.imgfo.com/?referer=https://manganelo.com&url=https://s3.mkklcdnv6temp.com/mangakakalot/i2/itousan_kuraka_sui/vol1_chapter_6_cage/22.jpg",
    "https://img-proxy.imgfo.com/?referer=https://manganelo.com&url=https://s3.mkklcdnv6temp.com/mangakakalot/i2/itousan_kuraka_sui/vol1_chapter_6_cage/23.jpg",
    "https://img-proxy.imgfo.com/?referer=https://manganelo.com&url=https://s3.mkklcdnv6temp.com/mangakakalot/i2/itousan_kuraka_sui/vol1_chapter_6_cage/24.jpg",
    "https://img-proxy.imgfo.com/?referer=https://manganelo.com&url=https://s3.mkklcdnv6temp.com/mangakakalot/i2/itousan_kuraka_sui/vol1_chapter_6_cage/25.jpg",
    "https://img-proxy.imgfo.com/?referer=https://manganelo.com&url=https://s3.mkklcdnv6temp.com/mangakakalot/i2/itousan_kuraka_sui/vol1_chapter_6_cage/26.jpg",
    "https://img-proxy.imgfo.com/?referer=https://manganelo.com&url=https://s3.mkklcdnv6temp.com/mangakakalot/i2/itousan_kuraka_sui/vol1_chapter_6_cage/27.jpg",
    "https://img-proxy.imgfo.com/?referer=https://manganelo.com&url=https://s3.mkklcdnv6temp.com/mangakakalot/i2/itousan_kuraka_sui/vol1_chapter_6_cage/28.jpg",
    "https://img-proxy.imgfo.com/?referer=https://manganelo.com&url=https://s3.mkklcdnv6temp.com/mangakakalot/i2/itousan_kuraka_sui/vol1_chapter_6_cage/29.jpg"
  ]
}