{
  "cover": "https://avt.mkklcdnv6.com/5/x/10-1583482385.jpg",
  "title": "Wendy",
  "original": "ウエンディ",
  "genre": "Drama, Fantasy, Mature, Psychological, Seinen, Manga",
  "author": "Matsumoto Jiro",
  "status": "Completed",
  "backlink": "https://manganu.com/collections/matsumoto-jiro/wendy/",
  "description": "Is this a dream? Reality? Or maybe something else...?\nEvery night, a mysterious man who styles himself Peter Pan sneaks up in Manami's room. He takes her with him to Neverland, an eerie place created out of human desire. Neither pain nor obligation exist in this place. A fairytale land of freedom, where people live governed only by their own instincts. There, all of reality's troubles and unpleasantness may be forgotten. However... being human may not be quite as bad as it sounds.",
  "language": "English",
  "images": [
    "https://img-proxy.imgfo.com/?referer=https://manganelo.com&url=https://s7.mkklcdnv6temp.com/mangakakalot/w1/wendy/vol1_chapter_8_rooftop/1.jpg",
    "https://img-proxy.imgfo.com/?referer=https://manganelo.com&url=https://s7.mkklcdnv6temp.com/mangakakalot/w1/wendy/vol1_chapter_8_rooftop/2.jpg",
    "https://img-proxy.imgfo.com/?referer=https://manganelo.com&url=https://s7.mkklcdnv6temp.com/mangakakalot/w1/wendy/vol1_chapter_8_rooftop/3.jpg",
    "https://img-proxy.imgfo.com/?referer=https://manganelo.com&url=https://s7.mkklcdnv6temp.com/mangakakalot/w1/wendy/vol1_chapter_8_rooftop/4.jpg",
    "https://img-proxy.imgfo.com/?referer=https://manganelo.com&url=https://s7.mkklcdnv6temp.com/mangakakalot/w1/wendy/vol1_chapter_8_rooftop/5.jpg",
    "https://img-proxy.imgfo.com/?referer=https://manganelo.com&url=https://s7.mkklcdnv6temp.com/mangakakalot/w1/wendy/vol1_chapter_8_rooftop/6.jpg",
    "https://img-proxy.imgfo.com/?referer=https://manganelo.com&url=https://s7.mkklcdnv6temp.com/mangakakalot/w1/wendy/vol1_chapter_8_rooftop/7.jpg",
    "https://img-proxy.imgfo.com/?referer=https://manganelo.com&url=https://s7.mkklcdnv6temp.com/mangakakalot/w1/wendy/vol1_chapter_8_rooftop/8.jpg",
    "https://img-proxy.imgfo.com/?referer=https://manganelo.com&url=https://s7.mkklcdnv6temp.com/mangakakalot/w1/wendy/vol1_chapter_8_rooftop/9.jpg",
    "https://img-proxy.imgfo.com/?referer=https://manganelo.com&url=https://s7.mkklcdnv6temp.com/mangakakalot/w1/wendy/vol1_chapter_8_rooftop/10.jpg",
    "https://img-proxy.imgfo.com/?referer=https://manganelo.com&url=https://s7.mkklcdnv6temp.com/mangakakalot/w1/wendy/vol1_chapter_8_rooftop/11.jpg",
    "https://img-proxy.imgfo.com/?referer=https://manganelo.com&url=https://s7.mkklcdnv6temp.com/mangakakalot/w1/wendy/vol1_chapter_8_rooftop/12.jpg",
    "https://img-proxy.imgfo.com/?referer=https://manganelo.com&url=https://s7.mkklcdnv6temp.com/mangakakalot/w1/wendy/vol1_chapter_8_rooftop/13.jpg",
    "https://img-proxy.imgfo.com/?referer=https://manganelo.com&url=https://s7.mkklcdnv6temp.com/mangakakalot/w1/wendy/vol1_chapter_8_rooftop/14.jpg",
    "https://img-proxy.imgfo.com/?referer=https://manganelo.com&url=https://s7.mkklcdnv6temp.com/mangakakalot/w1/wendy/vol1_chapter_8_rooftop/15.jpg",
    "https://img-proxy.imgfo.com/?referer=https://manganelo.com&url=https://s7.mkklcdnv6temp.com/mangakakalot/w1/wendy/vol1_chapter_8_rooftop/16.jpg",
    "https://img-proxy.imgfo.com/?referer=https://manganelo.com&url=https://s7.mkklcdnv6temp.com/mangakakalot/w1/wendy/vol1_chapter_8_rooftop/17.jpg",
    "https://img-proxy.imgfo.com/?referer=https://manganelo.com&url=https://s7.mkklcdnv6temp.com/mangakakalot/w1/wendy/vol1_chapter_8_rooftop/18.jpg",
    "https://img-proxy.imgfo.com/?referer=https://manganelo.com&url=https://s7.mkklcdnv6temp.com/mangakakalot/w1/wendy/vol1_chapter_8_rooftop/19.jpg",
    "https://img-proxy.imgfo.com/?referer=https://manganelo.com&url=https://s7.mkklcdnv6temp.com/mangakakalot/w1/wendy/vol1_chapter_8_rooftop/20.jpg"
  ]
}