{
  "cover": "https://avt.mkklcdnv6.com/10/i/4-1583470088.jpg",
  "title": "Ayahatori Shoukanchou",
  "original": "あやはとり召喚帖 ; 文織(あやはとり) ; 文织召唤帖 ; Aya wa Tori Shokanjo ; Aya wa Tori Shokanjou ; Aya wa Tori Shoukanjou ; Ayahatori Shokanjo ; Ayahatori Shoukanjou",
  "genre": "Comedy, Drama, Fantasy, Romance, Shoujo, Supernatural, Manga",
  "author": "Hashimoto Natsumi",
  "status": "Completed",
  "backlink": "https://manganu.com/collections/hashimoto-natsumi/ayahatori-shoukanchou/",
  "description": "From Nevermore Scans:\nAyahatori-that is the given name of the family possessing a mysterious power. They have the power to be able to summon and use beings and people from secret ancient writings. During the Ayahatori initiation ceremony, high schooler Kozakura Saaya summons one of the three most beautiful women in the world, Ono no Komachi. However, what appears in front of her is a man with matchless beauty-!?",
  "language": "English",
  "images": [
    "https://img-proxy.imgfo.com/?referer=https://manganelo.com&url=https://s41.mkklcdnv6temp.com/mangakakalot/a2/ayahatori_shoukanchou/vol2_chapter_8_weaver_memories/1.jpg",
    "https://img-proxy.imgfo.com/?referer=https://manganelo.com&url=https://s41.mkklcdnv6temp.com/mangakakalot/a2/ayahatori_shoukanchou/vol2_chapter_8_weaver_memories/2.jpg",
    "https://img-proxy.imgfo.com/?referer=https://manganelo.com&url=https://s41.mkklcdnv6temp.com/mangakakalot/a2/ayahatori_shoukanchou/vol2_chapter_8_weaver_memories/3.jpg",
    "https://img-proxy.imgfo.com/?referer=https://manganelo.com&url=https://s41.mkklcdnv6temp.com/mangakakalot/a2/ayahatori_shoukanchou/vol2_chapter_8_weaver_memories/4.jpg",
    "https://img-proxy.imgfo.com/?referer=https://manganelo.com&url=https://s41.mkklcdnv6temp.com/mangakakalot/a2/ayahatori_shoukanchou/vol2_chapter_8_weaver_memories/5.jpg",
    "https://img-proxy.imgfo.com/?referer=https://manganelo.com&url=https://s41.mkklcdnv6temp.com/mangakakalot/a2/ayahatori_shoukanchou/vol2_chapter_8_weaver_memories/6.jpg",
    "https://img-proxy.imgfo.com/?referer=https://manganelo.com&url=https://s41.mkklcdnv6temp.com/mangakakalot/a2/ayahatori_shoukanchou/vol2_chapter_8_weaver_memories/7.jpg",
    "https://img-proxy.imgfo.com/?referer=https://manganelo.com&url=https://s41.mkklcdnv6temp.com/mangakakalot/a2/ayahatori_shoukanchou/vol2_chapter_8_weaver_memories/8.jpg",
    "https://img-proxy.imgfo.com/?referer=https://manganelo.com&url=https://s41.mkklcdnv6temp.com/mangakakalot/a2/ayahatori_shoukanchou/vol2_chapter_8_weaver_memories/9.jpg",
    "https://img-proxy.imgfo.com/?referer=https://manganelo.com&url=https://s41.mkklcdnv6temp.com/mangakakalot/a2/ayahatori_shoukanchou/vol2_chapter_8_weaver_memories/10.jpg",
    "https://img-proxy.imgfo.com/?referer=https://manganelo.com&url=https://s41.mkklcdnv6temp.com/mangakakalot/a2/ayahatori_shoukanchou/vol2_chapter_8_weaver_memories/11.jpg",
    "https://img-proxy.imgfo.com/?referer=https://manganelo.com&url=https://s41.mkklcdnv6temp.com/mangakakalot/a2/ayahatori_shoukanchou/vol2_chapter_8_weaver_memories/12.jpg",
    "https://img-proxy.imgfo.com/?referer=https://manganelo.com&url=https://s41.mkklcdnv6temp.com/mangakakalot/a2/ayahatori_shoukanchou/vol2_chapter_8_weaver_memories/13.jpg",
    "https://img-proxy.imgfo.com/?referer=https://manganelo.com&url=https://s41.mkklcdnv6temp.com/mangakakalot/a2/ayahatori_shoukanchou/vol2_chapter_8_weaver_memories/14.jpg",
    "https://img-proxy.imgfo.com/?referer=https://manganelo.com&url=https://s41.mkklcdnv6temp.com/mangakakalot/a2/ayahatori_shoukanchou/vol2_chapter_8_weaver_memories/15.jpg",
    "https://img-proxy.imgfo.com/?referer=https://manganelo.com&url=https://s41.mkklcdnv6temp.com/mangakakalot/a2/ayahatori_shoukanchou/vol2_chapter_8_weaver_memories/16.jpg",
    "https://img-proxy.imgfo.com/?referer=https://manganelo.com&url=https://s41.mkklcdnv6temp.com/mangakakalot/a2/ayahatori_shoukanchou/vol2_chapter_8_weaver_memories/17.jpg",
    "https://img-proxy.imgfo.com/?referer=https://manganelo.com&url=https://s41.mkklcdnv6temp.com/mangakakalot/a2/ayahatori_shoukanchou/vol2_chapter_8_weaver_memories/18.jpg",
    "https://img-proxy.imgfo.com/?referer=https://manganelo.com&url=https://s41.mkklcdnv6temp.com/mangakakalot/a2/ayahatori_shoukanchou/vol2_chapter_8_weaver_memories/19.jpg",
    "https://img-proxy.imgfo.com/?referer=https://manganelo.com&url=https://s41.mkklcdnv6temp.com/mangakakalot/a2/ayahatori_shoukanchou/vol2_chapter_8_weaver_memories/20.jpg",
    "https://img-proxy.imgfo.com/?referer=https://manganelo.com&url=https://s41.mkklcdnv6temp.com/mangakakalot/a2/ayahatori_shoukanchou/vol2_chapter_8_weaver_memories/21.jpg",
    "https://img-proxy.imgfo.com/?referer=https://manganelo.com&url=https://s41.mkklcdnv6temp.com/mangakakalot/a2/ayahatori_shoukanchou/vol2_chapter_8_weaver_memories/22.jpg",
    "https://img-proxy.imgfo.com/?referer=https://manganelo.com&url=https://s41.mkklcdnv6temp.com/mangakakalot/a2/ayahatori_shoukanchou/vol2_chapter_8_weaver_memories/23.jpg",
    "https://img-proxy.imgfo.com/?referer=https://manganelo.com&url=https://s41.mkklcdnv6temp.com/mangakakalot/a2/ayahatori_shoukanchou/vol2_chapter_8_weaver_memories/24.jpg",
    "https://img-proxy.imgfo.com/?referer=https://manganelo.com&url=https://s41.mkklcdnv6temp.com/mangakakalot/a2/ayahatori_shoukanchou/vol2_chapter_8_weaver_memories/25.jpg",
    "https://img-proxy.imgfo.com/?referer=https://manganelo.com&url=https://s41.mkklcdnv6temp.com/mangakakalot/a2/ayahatori_shoukanchou/vol2_chapter_8_weaver_memories/26.jpg",
    "https://img-proxy.imgfo.com/?referer=https://manganelo.com&url=https://s41.mkklcdnv6temp.com/mangakakalot/a2/ayahatori_shoukanchou/vol2_chapter_8_weaver_memories/27.jpg",
    "https://img-proxy.imgfo.com/?referer=https://manganelo.com&url=https://s41.mkklcdnv6temp.com/mangakakalot/a2/ayahatori_shoukanchou/vol2_chapter_8_weaver_memories/28.jpg",
    "https://img-proxy.imgfo.com/?referer=https://manganelo.com&url=https://s41.mkklcdnv6temp.com/mangakakalot/a2/ayahatori_shoukanchou/vol2_chapter_8_weaver_memories/29.jpg",
    "https://img-proxy.imgfo.com/?referer=https://manganelo.com&url=https://s41.mkklcdnv6temp.com/mangakakalot/a2/ayahatori_shoukanchou/vol2_chapter_8_weaver_memories/30.jpg",
    "https://img-proxy.imgfo.com/?referer=https://manganelo.com&url=https://s41.mkklcdnv6temp.com/mangakakalot/a2/ayahatori_shoukanchou/vol2_chapter_8_weaver_memories/31.jpg",
    "https://img-proxy.imgfo.com/?referer=https://manganelo.com&url=https://s41.mkklcdnv6temp.com/mangakakalot/a2/ayahatori_shoukanchou/vol2_chapter_8_weaver_memories/32.jpg",
    "https://img-proxy.imgfo.com/?referer=https://manganelo.com&url=https://s41.mkklcdnv6temp.com/mangakakalot/a2/ayahatori_shoukanchou/vol2_chapter_8_weaver_memories/33.jpg",
    "https://img-proxy.imgfo.com/?referer=https://manganelo.com&url=https://s41.mkklcdnv6temp.com/mangakakalot/a2/ayahatori_shoukanchou/vol2_chapter_8_weaver_memories/34.jpg"
  ]
}