{
  "cover": "https://avt.mkklcdnv6.com/10/i/4-1583470088.jpg",
  "title": "Ayahatori Shoukanchou",
  "original": "あやはとり召喚帖 ; 文織(あやはとり) ; 文织召唤帖 ; Aya wa Tori Shokanjo ; Aya wa Tori Shokanjou ; Aya wa Tori Shoukanjou ; Ayahatori Shokanjo ; Ayahatori Shoukanjou",
  "genre": "Comedy, Drama, Fantasy, Romance, Shoujo, Supernatural, Manga",
  "author": "Hashimoto Natsumi",
  "status": "Completed",
  "backlink": "https://manganu.com/collections/hashimoto-natsumi/ayahatori-shoukanchou/",
  "description": "From Nevermore Scans:\nAyahatori-that is the given name of the family possessing a mysterious power. They have the power to be able to summon and use beings and people from secret ancient writings. During the Ayahatori initiation ceremony, high schooler Kozakura Saaya summons one of the three most beautiful women in the world, Ono no Komachi. However, what appears in front of her is a man with matchless beauty-!?",
  "language": "English",
  "images": [
    "https://img-proxy.imgfo.com/?referer=https://manganelo.com&url=https://s41.mkklcdnv6temp.com/mangakakalot/a2/ayahatori_shoukanchou/vol1_chapter_2_thoughts_into_writings/1.jpg",
    "https://img-proxy.imgfo.com/?referer=https://manganelo.com&url=https://s41.mkklcdnv6temp.com/mangakakalot/a2/ayahatori_shoukanchou/vol1_chapter_2_thoughts_into_writings/2.jpg",
    "https://img-proxy.imgfo.com/?referer=https://manganelo.com&url=https://s41.mkklcdnv6temp.com/mangakakalot/a2/ayahatori_shoukanchou/vol1_chapter_2_thoughts_into_writings/3.jpg",
    "https://img-proxy.imgfo.com/?referer=https://manganelo.com&url=https://s41.mkklcdnv6temp.com/mangakakalot/a2/ayahatori_shoukanchou/vol1_chapter_2_thoughts_into_writings/4.jpg",
    "https://img-proxy.imgfo.com/?referer=https://manganelo.com&url=https://s41.mkklcdnv6temp.com/mangakakalot/a2/ayahatori_shoukanchou/vol1_chapter_2_thoughts_into_writings/5.jpg",
    "https://img-proxy.imgfo.com/?referer=https://manganelo.com&url=https://s41.mkklcdnv6temp.com/mangakakalot/a2/ayahatori_shoukanchou/vol1_chapter_2_thoughts_into_writings/6.jpg",
    "https://img-proxy.imgfo.com/?referer=https://manganelo.com&url=https://s41.mkklcdnv6temp.com/mangakakalot/a2/ayahatori_shoukanchou/vol1_chapter_2_thoughts_into_writings/7.jpg",
    "https://img-proxy.imgfo.com/?referer=https://manganelo.com&url=https://s41.mkklcdnv6temp.com/mangakakalot/a2/ayahatori_shoukanchou/vol1_chapter_2_thoughts_into_writings/8.jpg",
    "https://img-proxy.imgfo.com/?referer=https://manganelo.com&url=https://s41.mkklcdnv6temp.com/mangakakalot/a2/ayahatori_shoukanchou/vol1_chapter_2_thoughts_into_writings/9.jpg",
    "https://img-proxy.imgfo.com/?referer=https://manganelo.com&url=https://s41.mkklcdnv6temp.com/mangakakalot/a2/ayahatori_shoukanchou/vol1_chapter_2_thoughts_into_writings/10.jpg",
    "https://img-proxy.imgfo.com/?referer=https://manganelo.com&url=https://s41.mkklcdnv6temp.com/mangakakalot/a2/ayahatori_shoukanchou/vol1_chapter_2_thoughts_into_writings/11.jpg",
    "https://img-proxy.imgfo.com/?referer=https://manganelo.com&url=https://s41.mkklcdnv6temp.com/mangakakalot/a2/ayahatori_shoukanchou/vol1_chapter_2_thoughts_into_writings/12.jpg",
    "https://img-proxy.imgfo.com/?referer=https://manganelo.com&url=https://s41.mkklcdnv6temp.com/mangakakalot/a2/ayahatori_shoukanchou/vol1_chapter_2_thoughts_into_writings/13.jpg",
    "https://img-proxy.imgfo.com/?referer=https://manganelo.com&url=https://s41.mkklcdnv6temp.com/mangakakalot/a2/ayahatori_shoukanchou/vol1_chapter_2_thoughts_into_writings/14.jpg",
    "https://img-proxy.imgfo.com/?referer=https://manganelo.com&url=https://s41.mkklcdnv6temp.com/mangakakalot/a2/ayahatori_shoukanchou/vol1_chapter_2_thoughts_into_writings/15.jpg",
    "https://img-proxy.imgfo.com/?referer=https://manganelo.com&url=https://s41.mkklcdnv6temp.com/mangakakalot/a2/ayahatori_shoukanchou/vol1_chapter_2_thoughts_into_writings/16.jpg",
    "https://img-proxy.imgfo.com/?referer=https://manganelo.com&url=https://s41.mkklcdnv6temp.com/mangakakalot/a2/ayahatori_shoukanchou/vol1_chapter_2_thoughts_into_writings/17.jpg",
    "https://img-proxy.imgfo.com/?referer=https://manganelo.com&url=https://s41.mkklcdnv6temp.com/mangakakalot/a2/ayahatori_shoukanchou/vol1_chapter_2_thoughts_into_writings/18.jpg",
    "https://img-proxy.imgfo.com/?referer=https://manganelo.com&url=https://s41.mkklcdnv6temp.com/mangakakalot/a2/ayahatori_shoukanchou/vol1_chapter_2_thoughts_into_writings/19.jpg",
    "https://img-proxy.imgfo.com/?referer=https://manganelo.com&url=https://s41.mkklcdnv6temp.com/mangakakalot/a2/ayahatori_shoukanchou/vol1_chapter_2_thoughts_into_writings/20.jpg",
    "https://img-proxy.imgfo.com/?referer=https://manganelo.com&url=https://s41.mkklcdnv6temp.com/mangakakalot/a2/ayahatori_shoukanchou/vol1_chapter_2_thoughts_into_writings/21.jpg",
    "https://img-proxy.imgfo.com/?referer=https://manganelo.com&url=https://s41.mkklcdnv6temp.com/mangakakalot/a2/ayahatori_shoukanchou/vol1_chapter_2_thoughts_into_writings/22.jpg",
    "https://img-proxy.imgfo.com/?referer=https://manganelo.com&url=https://s41.mkklcdnv6temp.com/mangakakalot/a2/ayahatori_shoukanchou/vol1_chapter_2_thoughts_into_writings/23.jpg",
    "https://img-proxy.imgfo.com/?referer=https://manganelo.com&url=https://s41.mkklcdnv6temp.com/mangakakalot/a2/ayahatori_shoukanchou/vol1_chapter_2_thoughts_into_writings/24.jpg",
    "https://img-proxy.imgfo.com/?referer=https://manganelo.com&url=https://s41.mkklcdnv6temp.com/mangakakalot/a2/ayahatori_shoukanchou/vol1_chapter_2_thoughts_into_writings/25.jpg",
    "https://img-proxy.imgfo.com/?referer=https://manganelo.com&url=https://s41.mkklcdnv6temp.com/mangakakalot/a2/ayahatori_shoukanchou/vol1_chapter_2_thoughts_into_writings/26.jpg",
    "https://img-proxy.imgfo.com/?referer=https://manganelo.com&url=https://s41.mkklcdnv6temp.com/mangakakalot/a2/ayahatori_shoukanchou/vol1_chapter_2_thoughts_into_writings/27.jpg",
    "https://img-proxy.imgfo.com/?referer=https://manganelo.com&url=https://s41.mkklcdnv6temp.com/mangakakalot/a2/ayahatori_shoukanchou/vol1_chapter_2_thoughts_into_writings/28.jpg",
    "https://img-proxy.imgfo.com/?referer=https://manganelo.com&url=https://s41.mkklcdnv6temp.com/mangakakalot/a2/ayahatori_shoukanchou/vol1_chapter_2_thoughts_into_writings/29.jpg",
    "https://img-proxy.imgfo.com/?referer=https://manganelo.com&url=https://s41.mkklcdnv6temp.com/mangakakalot/a2/ayahatori_shoukanchou/vol1_chapter_2_thoughts_into_writings/30.jpg",
    "https://img-proxy.imgfo.com/?referer=https://manganelo.com&url=https://s41.mkklcdnv6temp.com/mangakakalot/a2/ayahatori_shoukanchou/vol1_chapter_2_thoughts_into_writings/31.jpg",
    "https://img-proxy.imgfo.com/?referer=https://manganelo.com&url=https://s41.mkklcdnv6temp.com/mangakakalot/a2/ayahatori_shoukanchou/vol1_chapter_2_thoughts_into_writings/32.jpg",
    "https://img-proxy.imgfo.com/?referer=https://manganelo.com&url=https://s41.mkklcdnv6temp.com/mangakakalot/a2/ayahatori_shoukanchou/vol1_chapter_2_thoughts_into_writings/33.jpg"
  ]
}