{
  "cover": "https://avt.mkklcdnv6.com/3/z/7-1583476436.jpg",
  "title": "Alice 19Th",
  "original": "ありす１９ｔｈ ; ありす１９th ; ありす19th ; 爱丽丝19岁 ; The Lotis Master ; 愛麗絲19歲",
  "genre": "Action, Adult, Cooking, Drama, Fantasy, Romance, School life, Shoujo, Supernatural, Manga",
  "author": "Watase Yuu",
  "status": "Completed",
  "backlink": "https://manganu.com/collections/watase-yuu/alice-19th/",
  "description": "Alice Seno seems like a normal girl in high school. She&#39;s a bit shy, she&#39;s got a crush on a boy named Kyou, and she&#39;s got an older sister who is more popular than she is...pretty normal stuff, until Alice has an encounter with a mysterious and magical rabbit girl that changes the course of her life, and Alice is introduced to the sublime power of the Lotis Words.",
  "language": "English",
  "images": [
    "https://img-proxy.imgfo.com/?referer=https://manganelo.com&url=https://s3.mkklcdnv6temp.com/mangakakalot/r1/read_alice_19th_manga_online/vol5_chapter_26_losing_sight_of_love/1.jpg",
    "https://img-proxy.imgfo.com/?referer=https://manganelo.com&url=https://s3.mkklcdnv6temp.com/mangakakalot/r1/read_alice_19th_manga_online/vol5_chapter_26_losing_sight_of_love/2.jpg",
    "https://img-proxy.imgfo.com/?referer=https://manganelo.com&url=https://s3.mkklcdnv6temp.com/mangakakalot/r1/read_alice_19th_manga_online/vol5_chapter_26_losing_sight_of_love/3.jpg",
    "https://img-proxy.imgfo.com/?referer=https://manganelo.com&url=https://s3.mkklcdnv6temp.com/mangakakalot/r1/read_alice_19th_manga_online/vol5_chapter_26_losing_sight_of_love/4.jpg",
    "https://img-proxy.imgfo.com/?referer=https://manganelo.com&url=https://s3.mkklcdnv6temp.com/mangakakalot/r1/read_alice_19th_manga_online/vol5_chapter_26_losing_sight_of_love/5.jpg",
    "https://img-proxy.imgfo.com/?referer=https://manganelo.com&url=https://s3.mkklcdnv6temp.com/mangakakalot/r1/read_alice_19th_manga_online/vol5_chapter_26_losing_sight_of_love/6.jpg",
    "https://img-proxy.imgfo.com/?referer=https://manganelo.com&url=https://s3.mkklcdnv6temp.com/mangakakalot/r1/read_alice_19th_manga_online/vol5_chapter_26_losing_sight_of_love/7.jpg",
    "https://img-proxy.imgfo.com/?referer=https://manganelo.com&url=https://s3.mkklcdnv6temp.com/mangakakalot/r1/read_alice_19th_manga_online/vol5_chapter_26_losing_sight_of_love/8.jpg",
    "https://img-proxy.imgfo.com/?referer=https://manganelo.com&url=https://s3.mkklcdnv6temp.com/mangakakalot/r1/read_alice_19th_manga_online/vol5_chapter_26_losing_sight_of_love/9.jpg",
    "https://img-proxy.imgfo.com/?referer=https://manganelo.com&url=https://s3.mkklcdnv6temp.com/mangakakalot/r1/read_alice_19th_manga_online/vol5_chapter_26_losing_sight_of_love/10.jpg",
    "https://img-proxy.imgfo.com/?referer=https://manganelo.com&url=https://s3.mkklcdnv6temp.com/mangakakalot/r1/read_alice_19th_manga_online/vol5_chapter_26_losing_sight_of_love/11.jpg",
    "https://img-proxy.imgfo.com/?referer=https://manganelo.com&url=https://s3.mkklcdnv6temp.com/mangakakalot/r1/read_alice_19th_manga_online/vol5_chapter_26_losing_sight_of_love/12.jpg",
    "https://img-proxy.imgfo.com/?referer=https://manganelo.com&url=https://s3.mkklcdnv6temp.com/mangakakalot/r1/read_alice_19th_manga_online/vol5_chapter_26_losing_sight_of_love/13.jpg",
    "https://img-proxy.imgfo.com/?referer=https://manganelo.com&url=https://s3.mkklcdnv6temp.com/mangakakalot/r1/read_alice_19th_manga_online/vol5_chapter_26_losing_sight_of_love/14.jpg",
    "https://img-proxy.imgfo.com/?referer=https://manganelo.com&url=https://s3.mkklcdnv6temp.com/mangakakalot/r1/read_alice_19th_manga_online/vol5_chapter_26_losing_sight_of_love/15.jpg",
    "https://img-proxy.imgfo.com/?referer=https://manganelo.com&url=https://s3.mkklcdnv6temp.com/mangakakalot/r1/read_alice_19th_manga_online/vol5_chapter_26_losing_sight_of_love/16.jpg",
    "https://img-proxy.imgfo.com/?referer=https://manganelo.com&url=https://s3.mkklcdnv6temp.com/mangakakalot/r1/read_alice_19th_manga_online/vol5_chapter_26_losing_sight_of_love/17.jpg",
    "https://img-proxy.imgfo.com/?referer=https://manganelo.com&url=https://s3.mkklcdnv6temp.com/mangakakalot/r1/read_alice_19th_manga_online/vol5_chapter_26_losing_sight_of_love/18.jpg",
    "https://img-proxy.imgfo.com/?referer=https://manganelo.com&url=https://s3.mkklcdnv6temp.com/mangakakalot/r1/read_alice_19th_manga_online/vol5_chapter_26_losing_sight_of_love/19.jpg",
    "https://img-proxy.imgfo.com/?referer=https://manganelo.com&url=https://s3.mkklcdnv6temp.com/mangakakalot/r1/read_alice_19th_manga_online/vol5_chapter_26_losing_sight_of_love/20.jpg",
    "https://img-proxy.imgfo.com/?referer=https://manganelo.com&url=https://s3.mkklcdnv6temp.com/mangakakalot/r1/read_alice_19th_manga_online/vol5_chapter_26_losing_sight_of_love/21.jpg",
    "https://img-proxy.imgfo.com/?referer=https://manganelo.com&url=https://s3.mkklcdnv6temp.com/mangakakalot/r1/read_alice_19th_manga_online/vol5_chapter_26_losing_sight_of_love/22.jpg",
    "https://img-proxy.imgfo.com/?referer=https://manganelo.com&url=https://s3.mkklcdnv6temp.com/mangakakalot/r1/read_alice_19th_manga_online/vol5_chapter_26_losing_sight_of_love/23.jpg",
    "https://img-proxy.imgfo.com/?referer=https://manganelo.com&url=https://s3.mkklcdnv6temp.com/mangakakalot/r1/read_alice_19th_manga_online/vol5_chapter_26_losing_sight_of_love/24.jpg",
    "https://img-proxy.imgfo.com/?referer=https://manganelo.com&url=https://s3.mkklcdnv6temp.com/mangakakalot/r1/read_alice_19th_manga_online/vol5_chapter_26_losing_sight_of_love/25.jpg",
    "https://img-proxy.imgfo.com/?referer=https://manganelo.com&url=https://s3.mkklcdnv6temp.com/mangakakalot/r1/read_alice_19th_manga_online/vol5_chapter_26_losing_sight_of_love/26.jpg",
    "https://img-proxy.imgfo.com/?referer=https://manganelo.com&url=https://s3.mkklcdnv6temp.com/mangakakalot/r1/read_alice_19th_manga_online/vol5_chapter_26_losing_sight_of_love/27.jpg",
    "https://img-proxy.imgfo.com/?referer=https://manganelo.com&url=https://s3.mkklcdnv6temp.com/mangakakalot/r1/read_alice_19th_manga_online/vol5_chapter_26_losing_sight_of_love/28.jpg",
    "https://img-proxy.imgfo.com/?referer=https://manganelo.com&url=https://s3.mkklcdnv6temp.com/mangakakalot/r1/read_alice_19th_manga_online/vol5_chapter_26_losing_sight_of_love/29.jpg"
  ]
}