{
  "cover": "https://avt.mkklcdnv6.com/21/h/5-1583472670.jpg",
  "title": "Yomeiro Choice",
  "original": "ヨメイロちょいす ; Yomeiro Choisu ; Yomeiro-Choice",
  "genre": "Comedy, Ecchi, Fantasy, Harem, Mature, Romance, School life, Sci fi, Shounen, Smut, Manga",
  "author": "Tenkla",
  "status": "Completed",
  "backlink": "https://manganu.com/collections/tenkla/yomeiro-choice/",
  "description": "Saku had a normal life, living with his cousin Kuran and being tormented daily by his childhood friend, Karin. That is, until the day a girl named Kiiro showed up out of nowhere claiming to be Karin's and Saku's daughter from the future. Convinced she will disappear from existence unless Saku and Karin get married, she makes life a lot more complicated for everyone. Things only get crazier when Hiiro, a girl claiming to be Kuran's and Saku's daughter from a different timeline in the future, appears with the goal of getting Saku together with his cousin Kuran. Saku is suddenly faced with a dilemma: whom does he choose as his wife, and which daughter does he save from disappearing into nothing?",
  "language": "English",
  "images": [
    "https://img-proxy.imgfo.com/?referer=https://manganelo.com&url=https://s6.mkklcdnv6temp.com/mangakakalot/y2/yomeiro_choice/vol4_chapter_21_raging_wind_the_terrifying_blondhaired_woman/1.jpg",
    "https://img-proxy.imgfo.com/?referer=https://manganelo.com&url=https://s6.mkklcdnv6temp.com/mangakakalot/y2/yomeiro_choice/vol4_chapter_21_raging_wind_the_terrifying_blondhaired_woman/2.jpg",
    "https://img-proxy.imgfo.com/?referer=https://manganelo.com&url=https://s6.mkklcdnv6temp.com/mangakakalot/y2/yomeiro_choice/vol4_chapter_21_raging_wind_the_terrifying_blondhaired_woman/3.jpg",
    "https://img-proxy.imgfo.com/?referer=https://manganelo.com&url=https://s6.mkklcdnv6temp.com/mangakakalot/y2/yomeiro_choice/vol4_chapter_21_raging_wind_the_terrifying_blondhaired_woman/4.jpg",
    "https://img-proxy.imgfo.com/?referer=https://manganelo.com&url=https://s6.mkklcdnv6temp.com/mangakakalot/y2/yomeiro_choice/vol4_chapter_21_raging_wind_the_terrifying_blondhaired_woman/5.jpg",
    "https://img-proxy.imgfo.com/?referer=https://manganelo.com&url=https://s6.mkklcdnv6temp.com/mangakakalot/y2/yomeiro_choice/vol4_chapter_21_raging_wind_the_terrifying_blondhaired_woman/6.jpg",
    "https://img-proxy.imgfo.com/?referer=https://manganelo.com&url=https://s6.mkklcdnv6temp.com/mangakakalot/y2/yomeiro_choice/vol4_chapter_21_raging_wind_the_terrifying_blondhaired_woman/7.jpg",
    "https://img-proxy.imgfo.com/?referer=https://manganelo.com&url=https://s6.mkklcdnv6temp.com/mangakakalot/y2/yomeiro_choice/vol4_chapter_21_raging_wind_the_terrifying_blondhaired_woman/8.jpg",
    "https://img-proxy.imgfo.com/?referer=https://manganelo.com&url=https://s6.mkklcdnv6temp.com/mangakakalot/y2/yomeiro_choice/vol4_chapter_21_raging_wind_the_terrifying_blondhaired_woman/9.jpg",
    "https://img-proxy.imgfo.com/?referer=https://manganelo.com&url=https://s6.mkklcdnv6temp.com/mangakakalot/y2/yomeiro_choice/vol4_chapter_21_raging_wind_the_terrifying_blondhaired_woman/10.jpg",
    "https://img-proxy.imgfo.com/?referer=https://manganelo.com&url=https://s6.mkklcdnv6temp.com/mangakakalot/y2/yomeiro_choice/vol4_chapter_21_raging_wind_the_terrifying_blondhaired_woman/11.jpg",
    "https://img-proxy.imgfo.com/?referer=https://manganelo.com&url=https://s6.mkklcdnv6temp.com/mangakakalot/y2/yomeiro_choice/vol4_chapter_21_raging_wind_the_terrifying_blondhaired_woman/12.jpg",
    "https://img-proxy.imgfo.com/?referer=https://manganelo.com&url=https://s6.mkklcdnv6temp.com/mangakakalot/y2/yomeiro_choice/vol4_chapter_21_raging_wind_the_terrifying_blondhaired_woman/13.jpg",
    "https://img-proxy.imgfo.com/?referer=https://manganelo.com&url=https://s6.mkklcdnv6temp.com/mangakakalot/y2/yomeiro_choice/vol4_chapter_21_raging_wind_the_terrifying_blondhaired_woman/14.jpg",
    "https://img-proxy.imgfo.com/?referer=https://manganelo.com&url=https://s6.mkklcdnv6temp.com/mangakakalot/y2/yomeiro_choice/vol4_chapter_21_raging_wind_the_terrifying_blondhaired_woman/15.jpg",
    "https://img-proxy.imgfo.com/?referer=https://manganelo.com&url=https://s6.mkklcdnv6temp.com/mangakakalot/y2/yomeiro_choice/vol4_chapter_21_raging_wind_the_terrifying_blondhaired_woman/16.jpg",
    "https://img-proxy.imgfo.com/?referer=https://manganelo.com&url=https://s6.mkklcdnv6temp.com/mangakakalot/y2/yomeiro_choice/vol4_chapter_21_raging_wind_the_terrifying_blondhaired_woman/17.jpg",
    "https://img-proxy.imgfo.com/?referer=https://manganelo.com&url=https://s6.mkklcdnv6temp.com/mangakakalot/y2/yomeiro_choice/vol4_chapter_21_raging_wind_the_terrifying_blondhaired_woman/18.jpg",
    "https://img-proxy.imgfo.com/?referer=https://manganelo.com&url=https://s6.mkklcdnv6temp.com/mangakakalot/y2/yomeiro_choice/vol4_chapter_21_raging_wind_the_terrifying_blondhaired_woman/19.jpg",
    "https://img-proxy.imgfo.com/?referer=https://manganelo.com&url=https://s6.mkklcdnv6temp.com/mangakakalot/y2/yomeiro_choice/vol4_chapter_21_raging_wind_the_terrifying_blondhaired_woman/20.jpg",
    "https://img-proxy.imgfo.com/?referer=https://manganelo.com&url=https://s6.mkklcdnv6temp.com/mangakakalot/y2/yomeiro_choice/vol4_chapter_21_raging_wind_the_terrifying_blondhaired_woman/21.jpg",
    "https://img-proxy.imgfo.com/?referer=https://manganelo.com&url=https://s6.mkklcdnv6temp.com/mangakakalot/y2/yomeiro_choice/vol4_chapter_21_raging_wind_the_terrifying_blondhaired_woman/22.jpg",
    "https://img-proxy.imgfo.com/?referer=https://manganelo.com&url=https://s6.mkklcdnv6temp.com/mangakakalot/y2/yomeiro_choice/vol4_chapter_21_raging_wind_the_terrifying_blondhaired_woman/23.jpg",
    "https://img-proxy.imgfo.com/?referer=https://manganelo.com&url=https://s6.mkklcdnv6temp.com/mangakakalot/y2/yomeiro_choice/vol4_chapter_21_raging_wind_the_terrifying_blondhaired_woman/24.jpg",
    "https://img-proxy.imgfo.com/?referer=https://manganelo.com&url=https://s6.mkklcdnv6temp.com/mangakakalot/y2/yomeiro_choice/vol4_chapter_21_raging_wind_the_terrifying_blondhaired_woman/25.jpg",
    "https://img-proxy.imgfo.com/?referer=https://manganelo.com&url=https://s6.mkklcdnv6temp.com/mangakakalot/y2/yomeiro_choice/vol4_chapter_21_raging_wind_the_terrifying_blondhaired_woman/26.jpg",
    "https://img-proxy.imgfo.com/?referer=https://manganelo.com&url=https://s6.mkklcdnv6temp.com/mangakakalot/y2/yomeiro_choice/vol4_chapter_21_raging_wind_the_terrifying_blondhaired_woman/27.jpg"
  ]
}