{
  "cover": "https://avt.mkklcdnv6.com/24/b/1-1583464643.jpg",
  "title": "Madan No Ou To Vanadis",
  "original": "Король магических стрел и Ванадис ; 魔弹之王与战姬 ; 魔弾の王と戦姫 ; King of the Magic Bullet and the Vanadis ; Madan no Ou to Senki (Vandis) ; Madan no Ou to Vanadis ; The King of the Magic Arrow and The War Princesses",
  "genre": "Action, Adventure, Ecchi, Fantasy, Harem, Historical, Romance, Seinen, Manga",
  "author": "Kawaguchi Tsukasa",
  "status": "Completed",
  "backlink": "https://manganu.com/collections/kawaguchi-tsukasa/madan-no-ou-to-vanadis/",
  "description": "From JCafe : Set in Western Europe during times of war, Eleanor &quot;Ellen&quot; Vertalia, one of the Vanadis of Zhcted, leads the battle into Brune. There are, in fact, seven Vanadis, named for having each received a powerful weapon from the dragon to individually reign over seven territories. The power of the Vanadis invokes dread and fear from their enemies. An earl in the service of the country of Brune, a young archer by the name of Tigre, experienced the Vandis&#39;s power firsthand after being defeated on the battlefield by Ellen. However, Ellen chose to spare his life after witnessing his skills, but in exchange, he is asked to serve her.",
  "language": "English",
  "images": [
    "https://img-proxy.imgfo.com/?referer=https://manganelo.com&url=https://s6.mkklcdnv6temp.com/mangakakalot/m1/madan_no_ou_to_vanadis/vol4_chapter_20_the_secret_of_the_king/1.jpg",
    "https://img-proxy.imgfo.com/?referer=https://manganelo.com&url=https://s6.mkklcdnv6temp.com/mangakakalot/m1/madan_no_ou_to_vanadis/vol4_chapter_20_the_secret_of_the_king/2.jpg",
    "https://img-proxy.imgfo.com/?referer=https://manganelo.com&url=https://s6.mkklcdnv6temp.com/mangakakalot/m1/madan_no_ou_to_vanadis/vol4_chapter_20_the_secret_of_the_king/3.jpg",
    "https://img-proxy.imgfo.com/?referer=https://manganelo.com&url=https://s6.mkklcdnv6temp.com/mangakakalot/m1/madan_no_ou_to_vanadis/vol4_chapter_20_the_secret_of_the_king/4.jpg",
    "https://img-proxy.imgfo.com/?referer=https://manganelo.com&url=https://s6.mkklcdnv6temp.com/mangakakalot/m1/madan_no_ou_to_vanadis/vol4_chapter_20_the_secret_of_the_king/5.jpg",
    "https://img-proxy.imgfo.com/?referer=https://manganelo.com&url=https://s6.mkklcdnv6temp.com/mangakakalot/m1/madan_no_ou_to_vanadis/vol4_chapter_20_the_secret_of_the_king/6.jpg",
    "https://img-proxy.imgfo.com/?referer=https://manganelo.com&url=https://s6.mkklcdnv6temp.com/mangakakalot/m1/madan_no_ou_to_vanadis/vol4_chapter_20_the_secret_of_the_king/7.jpg",
    "https://img-proxy.imgfo.com/?referer=https://manganelo.com&url=https://s6.mkklcdnv6temp.com/mangakakalot/m1/madan_no_ou_to_vanadis/vol4_chapter_20_the_secret_of_the_king/8.jpg",
    "https://img-proxy.imgfo.com/?referer=https://manganelo.com&url=https://s6.mkklcdnv6temp.com/mangakakalot/m1/madan_no_ou_to_vanadis/vol4_chapter_20_the_secret_of_the_king/9.jpg",
    "https://img-proxy.imgfo.com/?referer=https://manganelo.com&url=https://s6.mkklcdnv6temp.com/mangakakalot/m1/madan_no_ou_to_vanadis/vol4_chapter_20_the_secret_of_the_king/10.jpg",
    "https://img-proxy.imgfo.com/?referer=https://manganelo.com&url=https://s6.mkklcdnv6temp.com/mangakakalot/m1/madan_no_ou_to_vanadis/vol4_chapter_20_the_secret_of_the_king/11.jpg",
    "https://img-proxy.imgfo.com/?referer=https://manganelo.com&url=https://s6.mkklcdnv6temp.com/mangakakalot/m1/madan_no_ou_to_vanadis/vol4_chapter_20_the_secret_of_the_king/12.jpg",
    "https://img-proxy.imgfo.com/?referer=https://manganelo.com&url=https://s6.mkklcdnv6temp.com/mangakakalot/m1/madan_no_ou_to_vanadis/vol4_chapter_20_the_secret_of_the_king/13.jpg",
    "https://img-proxy.imgfo.com/?referer=https://manganelo.com&url=https://s6.mkklcdnv6temp.com/mangakakalot/m1/madan_no_ou_to_vanadis/vol4_chapter_20_the_secret_of_the_king/14.jpg",
    "https://img-proxy.imgfo.com/?referer=https://manganelo.com&url=https://s6.mkklcdnv6temp.com/mangakakalot/m1/madan_no_ou_to_vanadis/vol4_chapter_20_the_secret_of_the_king/15.jpg",
    "https://img-proxy.imgfo.com/?referer=https://manganelo.com&url=https://s6.mkklcdnv6temp.com/mangakakalot/m1/madan_no_ou_to_vanadis/vol4_chapter_20_the_secret_of_the_king/16.jpg",
    "https://img-proxy.imgfo.com/?referer=https://manganelo.com&url=https://s6.mkklcdnv6temp.com/mangakakalot/m1/madan_no_ou_to_vanadis/vol4_chapter_20_the_secret_of_the_king/17.jpg",
    "https://img-proxy.imgfo.com/?referer=https://manganelo.com&url=https://s6.mkklcdnv6temp.com/mangakakalot/m1/madan_no_ou_to_vanadis/vol4_chapter_20_the_secret_of_the_king/18.jpg",
    "https://img-proxy.imgfo.com/?referer=https://manganelo.com&url=https://s6.mkklcdnv6temp.com/mangakakalot/m1/madan_no_ou_to_vanadis/vol4_chapter_20_the_secret_of_the_king/19.jpg",
    "https://img-proxy.imgfo.com/?referer=https://manganelo.com&url=https://s6.mkklcdnv6temp.com/mangakakalot/m1/madan_no_ou_to_vanadis/vol4_chapter_20_the_secret_of_the_king/20.jpg",
    "https://img-proxy.imgfo.com/?referer=https://manganelo.com&url=https://s6.mkklcdnv6temp.com/mangakakalot/m1/madan_no_ou_to_vanadis/vol4_chapter_20_the_secret_of_the_king/21.jpg",
    "https://img-proxy.imgfo.com/?referer=https://manganelo.com&url=https://s6.mkklcdnv6temp.com/mangakakalot/m1/madan_no_ou_to_vanadis/vol4_chapter_20_the_secret_of_the_king/22.jpg",
    "https://img-proxy.imgfo.com/?referer=https://manganelo.com&url=https://s6.mkklcdnv6temp.com/mangakakalot/m1/madan_no_ou_to_vanadis/vol4_chapter_20_the_secret_of_the_king/23.jpg",
    "https://img-proxy.imgfo.com/?referer=https://manganelo.com&url=https://s6.mkklcdnv6temp.com/mangakakalot/m1/madan_no_ou_to_vanadis/vol4_chapter_20_the_secret_of_the_king/24.jpg",
    "https://img-proxy.imgfo.com/?referer=https://manganelo.com&url=https://s6.mkklcdnv6temp.com/mangakakalot/m1/madan_no_ou_to_vanadis/vol4_chapter_20_the_secret_of_the_king/25.jpg",
    "https://img-proxy.imgfo.com/?referer=https://manganelo.com&url=https://s6.mkklcdnv6temp.com/mangakakalot/m1/madan_no_ou_to_vanadis/vol4_chapter_20_the_secret_of_the_king/26.jpg",
    "https://img-proxy.imgfo.com/?referer=https://manganelo.com&url=https://s6.mkklcdnv6temp.com/mangakakalot/m1/madan_no_ou_to_vanadis/vol4_chapter_20_the_secret_of_the_king/27.jpg",
    "https://img-proxy.imgfo.com/?referer=https://manganelo.com&url=https://s6.mkklcdnv6temp.com/mangakakalot/m1/madan_no_ou_to_vanadis/vol4_chapter_20_the_secret_of_the_king/28.jpg",
    "https://img-proxy.imgfo.com/?referer=https://manganelo.com&url=https://s6.mkklcdnv6temp.com/mangakakalot/m1/madan_no_ou_to_vanadis/vol4_chapter_20_the_secret_of_the_king/29.jpg",
    "https://img-proxy.imgfo.com/?referer=https://manganelo.com&url=https://s6.mkklcdnv6temp.com/mangakakalot/m1/madan_no_ou_to_vanadis/vol4_chapter_20_the_secret_of_the_king/30.jpg",
    "https://img-proxy.imgfo.com/?referer=https://manganelo.com&url=https://s6.mkklcdnv6temp.com/mangakakalot/m1/madan_no_ou_to_vanadis/vol4_chapter_20_the_secret_of_the_king/31.jpg"
  ]
}