{
  "cover": "https://avt.mkklcdnv6.com/11/m/11-1583484424.jpg",
  "title": "First Girl",
  "original": "ファースト・ガール ; 顶尖淑女 ; First Lady ; Fuasuto Garu",
  "genre": "Adventure, Drama, Josei, Romance, Shoujo, Smut, Tragedy, Manga",
  "author": "Saitou Chiho",
  "status": "Completed",
  "backlink": "https://manganu.com/collections/saitou-chiho/first-girl/",
  "description": "A Japanese girl is sold off to a South American business tycoon who takes her away to this foreign land. Here, he seduces her and the two slowly fall into a love trap. But while this occurs, another force interrupts the two’s love-web. A revolution and rebellion starts to take away, separating the two.",
  "language": "English",
  "images": [
    "https://img-proxy.imgfo.com/?referer=https://manganelo.com&url=https://s3.mkklcdnv6temp.com/mangakakalot/f1/first_girl/vol5_chapter_18_garden_of_blue_rose_end/1.jpg",
    "https://img-proxy.imgfo.com/?referer=https://manganelo.com&url=https://s3.mkklcdnv6temp.com/mangakakalot/f1/first_girl/vol5_chapter_18_garden_of_blue_rose_end/2.jpg",
    "https://img-proxy.imgfo.com/?referer=https://manganelo.com&url=https://s3.mkklcdnv6temp.com/mangakakalot/f1/first_girl/vol5_chapter_18_garden_of_blue_rose_end/3.jpg",
    "https://img-proxy.imgfo.com/?referer=https://manganelo.com&url=https://s3.mkklcdnv6temp.com/mangakakalot/f1/first_girl/vol5_chapter_18_garden_of_blue_rose_end/4.jpg",
    "https://img-proxy.imgfo.com/?referer=https://manganelo.com&url=https://s3.mkklcdnv6temp.com/mangakakalot/f1/first_girl/vol5_chapter_18_garden_of_blue_rose_end/5.jpg",
    "https://img-proxy.imgfo.com/?referer=https://manganelo.com&url=https://s3.mkklcdnv6temp.com/mangakakalot/f1/first_girl/vol5_chapter_18_garden_of_blue_rose_end/6.jpg",
    "https://img-proxy.imgfo.com/?referer=https://manganelo.com&url=https://s3.mkklcdnv6temp.com/mangakakalot/f1/first_girl/vol5_chapter_18_garden_of_blue_rose_end/7.jpg",
    "https://img-proxy.imgfo.com/?referer=https://manganelo.com&url=https://s3.mkklcdnv6temp.com/mangakakalot/f1/first_girl/vol5_chapter_18_garden_of_blue_rose_end/8.jpg",
    "https://img-proxy.imgfo.com/?referer=https://manganelo.com&url=https://s3.mkklcdnv6temp.com/mangakakalot/f1/first_girl/vol5_chapter_18_garden_of_blue_rose_end/9.jpg",
    "https://img-proxy.imgfo.com/?referer=https://manganelo.com&url=https://s3.mkklcdnv6temp.com/mangakakalot/f1/first_girl/vol5_chapter_18_garden_of_blue_rose_end/10.jpg",
    "https://img-proxy.imgfo.com/?referer=https://manganelo.com&url=https://s3.mkklcdnv6temp.com/mangakakalot/f1/first_girl/vol5_chapter_18_garden_of_blue_rose_end/11.jpg",
    "https://img-proxy.imgfo.com/?referer=https://manganelo.com&url=https://s3.mkklcdnv6temp.com/mangakakalot/f1/first_girl/vol5_chapter_18_garden_of_blue_rose_end/12.jpg",
    "https://img-proxy.imgfo.com/?referer=https://manganelo.com&url=https://s3.mkklcdnv6temp.com/mangakakalot/f1/first_girl/vol5_chapter_18_garden_of_blue_rose_end/13.jpg",
    "https://img-proxy.imgfo.com/?referer=https://manganelo.com&url=https://s3.mkklcdnv6temp.com/mangakakalot/f1/first_girl/vol5_chapter_18_garden_of_blue_rose_end/14.jpg",
    "https://img-proxy.imgfo.com/?referer=https://manganelo.com&url=https://s3.mkklcdnv6temp.com/mangakakalot/f1/first_girl/vol5_chapter_18_garden_of_blue_rose_end/15.jpg",
    "https://img-proxy.imgfo.com/?referer=https://manganelo.com&url=https://s3.mkklcdnv6temp.com/mangakakalot/f1/first_girl/vol5_chapter_18_garden_of_blue_rose_end/16.jpg",
    "https://img-proxy.imgfo.com/?referer=https://manganelo.com&url=https://s3.mkklcdnv6temp.com/mangakakalot/f1/first_girl/vol5_chapter_18_garden_of_blue_rose_end/17.jpg",
    "https://img-proxy.imgfo.com/?referer=https://manganelo.com&url=https://s3.mkklcdnv6temp.com/mangakakalot/f1/first_girl/vol5_chapter_18_garden_of_blue_rose_end/18.jpg",
    "https://img-proxy.imgfo.com/?referer=https://manganelo.com&url=https://s3.mkklcdnv6temp.com/mangakakalot/f1/first_girl/vol5_chapter_18_garden_of_blue_rose_end/19.jpg",
    "https://img-proxy.imgfo.com/?referer=https://manganelo.com&url=https://s3.mkklcdnv6temp.com/mangakakalot/f1/first_girl/vol5_chapter_18_garden_of_blue_rose_end/20.jpg",
    "https://img-proxy.imgfo.com/?referer=https://manganelo.com&url=https://s3.mkklcdnv6temp.com/mangakakalot/f1/first_girl/vol5_chapter_18_garden_of_blue_rose_end/21.jpg",
    "https://img-proxy.imgfo.com/?referer=https://manganelo.com&url=https://s3.mkklcdnv6temp.com/mangakakalot/f1/first_girl/vol5_chapter_18_garden_of_blue_rose_end/22.jpg",
    "https://img-proxy.imgfo.com/?referer=https://manganelo.com&url=https://s3.mkklcdnv6temp.com/mangakakalot/f1/first_girl/vol5_chapter_18_garden_of_blue_rose_end/23.jpg",
    "https://img-proxy.imgfo.com/?referer=https://manganelo.com&url=https://s3.mkklcdnv6temp.com/mangakakalot/f1/first_girl/vol5_chapter_18_garden_of_blue_rose_end/24.jpg",
    "https://img-proxy.imgfo.com/?referer=https://manganelo.com&url=https://s3.mkklcdnv6temp.com/mangakakalot/f1/first_girl/vol5_chapter_18_garden_of_blue_rose_end/25.jpg",
    "https://img-proxy.imgfo.com/?referer=https://manganelo.com&url=https://s3.mkklcdnv6temp.com/mangakakalot/f1/first_girl/vol5_chapter_18_garden_of_blue_rose_end/26.jpg",
    "https://img-proxy.imgfo.com/?referer=https://manganelo.com&url=https://s3.mkklcdnv6temp.com/mangakakalot/f1/first_girl/vol5_chapter_18_garden_of_blue_rose_end/27.jpg",
    "https://img-proxy.imgfo.com/?referer=https://manganelo.com&url=https://s3.mkklcdnv6temp.com/mangakakalot/f1/first_girl/vol5_chapter_18_garden_of_blue_rose_end/28.jpg",
    "https://img-proxy.imgfo.com/?referer=https://manganelo.com&url=https://s3.mkklcdnv6temp.com/mangakakalot/f1/first_girl/vol5_chapter_18_garden_of_blue_rose_end/29.jpg",
    "https://img-proxy.imgfo.com/?referer=https://manganelo.com&url=https://s3.mkklcdnv6temp.com/mangakakalot/f1/first_girl/vol5_chapter_18_garden_of_blue_rose_end/30.jpg",
    "https://img-proxy.imgfo.com/?referer=https://manganelo.com&url=https://s3.mkklcdnv6temp.com/mangakakalot/f1/first_girl/vol5_chapter_18_garden_of_blue_rose_end/31.jpg",
    "https://img-proxy.imgfo.com/?referer=https://manganelo.com&url=https://s3.mkklcdnv6temp.com/mangakakalot/f1/first_girl/vol5_chapter_18_garden_of_blue_rose_end/32.jpg",
    "https://img-proxy.imgfo.com/?referer=https://manganelo.com&url=https://s3.mkklcdnv6temp.com/mangakakalot/f1/first_girl/vol5_chapter_18_garden_of_blue_rose_end/33.jpg",
    "https://img-proxy.imgfo.com/?referer=https://manganelo.com&url=https://s3.mkklcdnv6temp.com/mangakakalot/f1/first_girl/vol5_chapter_18_garden_of_blue_rose_end/34.jpg",
    "https://img-proxy.imgfo.com/?referer=https://manganelo.com&url=https://s3.mkklcdnv6temp.com/mangakakalot/f1/first_girl/vol5_chapter_18_garden_of_blue_rose_end/35.jpg",
    "https://img-proxy.imgfo.com/?referer=https://manganelo.com&url=https://s3.mkklcdnv6temp.com/mangakakalot/f1/first_girl/vol5_chapter_18_garden_of_blue_rose_end/36.jpg",
    "https://img-proxy.imgfo.com/?referer=https://manganelo.com&url=https://s3.mkklcdnv6temp.com/mangakakalot/f1/first_girl/vol5_chapter_18_garden_of_blue_rose_end/37.jpg",
    "https://img-proxy.imgfo.com/?referer=https://manganelo.com&url=https://s3.mkklcdnv6temp.com/mangakakalot/f1/first_girl/vol5_chapter_18_garden_of_blue_rose_end/38.jpg",
    "https://img-proxy.imgfo.com/?referer=https://manganelo.com&url=https://s3.mkklcdnv6temp.com/mangakakalot/f1/first_girl/vol5_chapter_18_garden_of_blue_rose_end/39.jpg",
    "https://img-proxy.imgfo.com/?referer=https://manganelo.com&url=https://s3.mkklcdnv6temp.com/mangakakalot/f1/first_girl/vol5_chapter_18_garden_of_blue_rose_end/40.jpg",
    "https://img-proxy.imgfo.com/?referer=https://manganelo.com&url=https://s3.mkklcdnv6temp.com/mangakakalot/f1/first_girl/vol5_chapter_18_garden_of_blue_rose_end/41.jpg",
    "https://img-proxy.imgfo.com/?referer=https://manganelo.com&url=https://s3.mkklcdnv6temp.com/mangakakalot/f1/first_girl/vol5_chapter_18_garden_of_blue_rose_end/42.jpg",
    "https://img-proxy.imgfo.com/?referer=https://manganelo.com&url=https://s3.mkklcdnv6temp.com/mangakakalot/f1/first_girl/vol5_chapter_18_garden_of_blue_rose_end/43.jpg",
    "https://img-proxy.imgfo.com/?referer=https://manganelo.com&url=https://s3.mkklcdnv6temp.com/mangakakalot/f1/first_girl/vol5_chapter_18_garden_of_blue_rose_end/44.jpg",
    "https://img-proxy.imgfo.com/?referer=https://manganelo.com&url=https://s3.mkklcdnv6temp.com/mangakakalot/f1/first_girl/vol5_chapter_18_garden_of_blue_rose_end/45.jpg",
    "https://img-proxy.imgfo.com/?referer=https://manganelo.com&url=https://s3.mkklcdnv6temp.com/mangakakalot/f1/first_girl/vol5_chapter_18_garden_of_blue_rose_end/46.jpg",
    "https://img-proxy.imgfo.com/?referer=https://manganelo.com&url=https://s3.mkklcdnv6temp.com/mangakakalot/f1/first_girl/vol5_chapter_18_garden_of_blue_rose_end/47.jpg",
    "https://img-proxy.imgfo.com/?referer=https://manganelo.com&url=https://s3.mkklcdnv6temp.com/mangakakalot/f1/first_girl/vol5_chapter_18_garden_of_blue_rose_end/48.jpg",
    "https://img-proxy.imgfo.com/?referer=https://manganelo.com&url=https://s3.mkklcdnv6temp.com/mangakakalot/f1/first_girl/vol5_chapter_18_garden_of_blue_rose_end/49.jpg",
    "https://img-proxy.imgfo.com/?referer=https://manganelo.com&url=https://s3.mkklcdnv6temp.com/mangakakalot/f1/first_girl/vol5_chapter_18_garden_of_blue_rose_end/50.jpg"
  ]
}