{
  "cover": "https://avt.mkklcdnv6.com/48/m/9-1583482126.jpg",
  "title": "Jio To Ougon To Kinjirareta Mahou",
  "original": "ジオと黄金と禁じられた魔法 ; 禁忌的魔法 ; Jio and Ougon and the Forbidden Magic ; Jio to Ogon to Kinjirareta Mahou ; Jio to Oogon to Kinjirareta Mahou",
  "genre": "Action, Adventure, Fantasy, Shounen, Supernatural, Manga",
  "author": "Kirihata Ayumi",
  "status": "Completed",
  "backlink": "https://manganu.com/collections/kirihata-ayumi/jio-to-ougon-to-kinjirareta-mahou/",
  "description": "Jio is a young magic user whose goal is to one day become the greatest magic user in the world! He lives a sheltered life with his master Iregaura, until the events of one day leave him to journey out into the world alone. Jio, whose magical specialty is making flowers bloom, has a lot to learn about the world outside his home, but he is still determined to achieve his goal!",
  "language": "English",
  "images": [
    "https://img-proxy.imgfo.com/?referer=https://manganelo.com&url=https://s7.mkklcdnv6temp.com/mangakakalot/j1/jio_to_ougon_to_kinjirareta_mahou/vol4_chapter_28_worlds_best_magician/1.jpg",
    "https://img-proxy.imgfo.com/?referer=https://manganelo.com&url=https://s7.mkklcdnv6temp.com/mangakakalot/j1/jio_to_ougon_to_kinjirareta_mahou/vol4_chapter_28_worlds_best_magician/2.jpg",
    "https://img-proxy.imgfo.com/?referer=https://manganelo.com&url=https://s7.mkklcdnv6temp.com/mangakakalot/j1/jio_to_ougon_to_kinjirareta_mahou/vol4_chapter_28_worlds_best_magician/3.jpg",
    "https://img-proxy.imgfo.com/?referer=https://manganelo.com&url=https://s7.mkklcdnv6temp.com/mangakakalot/j1/jio_to_ougon_to_kinjirareta_mahou/vol4_chapter_28_worlds_best_magician/4.jpg",
    "https://img-proxy.imgfo.com/?referer=https://manganelo.com&url=https://s7.mkklcdnv6temp.com/mangakakalot/j1/jio_to_ougon_to_kinjirareta_mahou/vol4_chapter_28_worlds_best_magician/5.jpg",
    "https://img-proxy.imgfo.com/?referer=https://manganelo.com&url=https://s7.mkklcdnv6temp.com/mangakakalot/j1/jio_to_ougon_to_kinjirareta_mahou/vol4_chapter_28_worlds_best_magician/6.jpg",
    "https://img-proxy.imgfo.com/?referer=https://manganelo.com&url=https://s7.mkklcdnv6temp.com/mangakakalot/j1/jio_to_ougon_to_kinjirareta_mahou/vol4_chapter_28_worlds_best_magician/7.jpg",
    "https://img-proxy.imgfo.com/?referer=https://manganelo.com&url=https://s7.mkklcdnv6temp.com/mangakakalot/j1/jio_to_ougon_to_kinjirareta_mahou/vol4_chapter_28_worlds_best_magician/8.jpg",
    "https://img-proxy.imgfo.com/?referer=https://manganelo.com&url=https://s7.mkklcdnv6temp.com/mangakakalot/j1/jio_to_ougon_to_kinjirareta_mahou/vol4_chapter_28_worlds_best_magician/9.jpg",
    "https://img-proxy.imgfo.com/?referer=https://manganelo.com&url=https://s7.mkklcdnv6temp.com/mangakakalot/j1/jio_to_ougon_to_kinjirareta_mahou/vol4_chapter_28_worlds_best_magician/10.jpg",
    "https://img-proxy.imgfo.com/?referer=https://manganelo.com&url=https://s7.mkklcdnv6temp.com/mangakakalot/j1/jio_to_ougon_to_kinjirareta_mahou/vol4_chapter_28_worlds_best_magician/11.jpg",
    "https://img-proxy.imgfo.com/?referer=https://manganelo.com&url=https://s7.mkklcdnv6temp.com/mangakakalot/j1/jio_to_ougon_to_kinjirareta_mahou/vol4_chapter_28_worlds_best_magician/12.jpg",
    "https://img-proxy.imgfo.com/?referer=https://manganelo.com&url=https://s7.mkklcdnv6temp.com/mangakakalot/j1/jio_to_ougon_to_kinjirareta_mahou/vol4_chapter_28_worlds_best_magician/13.jpg",
    "https://img-proxy.imgfo.com/?referer=https://manganelo.com&url=https://s7.mkklcdnv6temp.com/mangakakalot/j1/jio_to_ougon_to_kinjirareta_mahou/vol4_chapter_28_worlds_best_magician/14.jpg",
    "https://img-proxy.imgfo.com/?referer=https://manganelo.com&url=https://s7.mkklcdnv6temp.com/mangakakalot/j1/jio_to_ougon_to_kinjirareta_mahou/vol4_chapter_28_worlds_best_magician/15.jpg",
    "https://img-proxy.imgfo.com/?referer=https://manganelo.com&url=https://s7.mkklcdnv6temp.com/mangakakalot/j1/jio_to_ougon_to_kinjirareta_mahou/vol4_chapter_28_worlds_best_magician/16.jpg",
    "https://img-proxy.imgfo.com/?referer=https://manganelo.com&url=https://s7.mkklcdnv6temp.com/mangakakalot/j1/jio_to_ougon_to_kinjirareta_mahou/vol4_chapter_28_worlds_best_magician/17.jpg"
  ]
}