{
  "cover": "https://avt.mkklcdnv6.com/4/v/7-1583476475.jpg",
  "title": "Ake Nure Goyou Ni Furu Yuki Wa",
  "original": "朱濡れ五葉に降る霜雪は ; Ake Nure Goyō ni Furu Yuki wa ; Ake Nure Goyou ni Furu Sousetsu wa ; Akenure Goyou ni Kudaru Sousetsu wa ; Crimson Snow ; Staining the White Pine with Crimson Frosted Snow",
  "genre": "Drama, Romance, Slice of life, Yaoi, Manga",
  "author": "Hori Tomoki",
  "status": "Completed",
  "backlink": "https://manganu.com/collections/hori-tomoki/ake-nure-goyou-ni-furu-yuki-wa/",
  "description": "From Attractive Fascinante:\nCh. 1-3: Kazuma, a yakuza, got shot and was saved by the heir of a tea ceremony family, Shibata Yukihiro. Yukihiro, being the illegitimate son, never allowed himself to ask for anything. Kazuma was the only one that Yukihiro had wanted to protect even though the burden that Kazuma carried was too dangerous. What should they do? A very in-depth story revolving around the Japanese traditions and the underworld and how the gentle and delicate Yukihiro and a powerful Kazuma managed to influence each other to find their true self.\nCh. 4 - At First Sight\nLiam Brink, a university student, has a bit of an usual hobby - 'observing Maddox,' Maddox being another university student. The two have never spoken to each other until one day when Liam is knocked down by another student and his glasses are broken.\nCh. 5 - Cry for the Sun\nEthan's father just passed away. During the funeral, Ethan is torn by feelings of hatred towards the man that was absent through much of his life, though he doesn't understand the root of these feelings. Suddenly, he notices a mysterious weeping man at the edge of the funeral service that he doesn't recognize, but deep in his heart he somehow knows him - how can this be?\nCh.6 - Garance\nA continuation of Kazuma and Yukihiro's story.",
  "language": "English",
  "images": [
    "https://img-proxy.imgfo.com/?referer=https://manganelo.com&url=https://s7.mkklcdnv6temp.com/mangakakalot/a1/ake_nure_goyou_ni_furu_yuki_wa/vol1_chapter_1/1.jpg",
    "https://img-proxy.imgfo.com/?referer=https://manganelo.com&url=https://s7.mkklcdnv6temp.com/mangakakalot/a1/ake_nure_goyou_ni_furu_yuki_wa/vol1_chapter_1/2.jpg",
    "https://img-proxy.imgfo.com/?referer=https://manganelo.com&url=https://s7.mkklcdnv6temp.com/mangakakalot/a1/ake_nure_goyou_ni_furu_yuki_wa/vol1_chapter_1/3.jpg",
    "https://img-proxy.imgfo.com/?referer=https://manganelo.com&url=https://s7.mkklcdnv6temp.com/mangakakalot/a1/ake_nure_goyou_ni_furu_yuki_wa/vol1_chapter_1/4.jpg",
    "https://img-proxy.imgfo.com/?referer=https://manganelo.com&url=https://s7.mkklcdnv6temp.com/mangakakalot/a1/ake_nure_goyou_ni_furu_yuki_wa/vol1_chapter_1/5.jpg",
    "https://img-proxy.imgfo.com/?referer=https://manganelo.com&url=https://s7.mkklcdnv6temp.com/mangakakalot/a1/ake_nure_goyou_ni_furu_yuki_wa/vol1_chapter_1/6.jpg",
    "https://img-proxy.imgfo.com/?referer=https://manganelo.com&url=https://s7.mkklcdnv6temp.com/mangakakalot/a1/ake_nure_goyou_ni_furu_yuki_wa/vol1_chapter_1/7.jpg",
    "https://img-proxy.imgfo.com/?referer=https://manganelo.com&url=https://s7.mkklcdnv6temp.com/mangakakalot/a1/ake_nure_goyou_ni_furu_yuki_wa/vol1_chapter_1/8.jpg",
    "https://img-proxy.imgfo.com/?referer=https://manganelo.com&url=https://s7.mkklcdnv6temp.com/mangakakalot/a1/ake_nure_goyou_ni_furu_yuki_wa/vol1_chapter_1/9.jpg",
    "https://img-proxy.imgfo.com/?referer=https://manganelo.com&url=https://s7.mkklcdnv6temp.com/mangakakalot/a1/ake_nure_goyou_ni_furu_yuki_wa/vol1_chapter_1/10.jpg",
    "https://img-proxy.imgfo.com/?referer=https://manganelo.com&url=https://s7.mkklcdnv6temp.com/mangakakalot/a1/ake_nure_goyou_ni_furu_yuki_wa/vol1_chapter_1/11.jpg",
    "https://img-proxy.imgfo.com/?referer=https://manganelo.com&url=https://s7.mkklcdnv6temp.com/mangakakalot/a1/ake_nure_goyou_ni_furu_yuki_wa/vol1_chapter_1/12.jpg",
    "https://img-proxy.imgfo.com/?referer=https://manganelo.com&url=https://s7.mkklcdnv6temp.com/mangakakalot/a1/ake_nure_goyou_ni_furu_yuki_wa/vol1_chapter_1/13.jpg",
    "https://img-proxy.imgfo.com/?referer=https://manganelo.com&url=https://s7.mkklcdnv6temp.com/mangakakalot/a1/ake_nure_goyou_ni_furu_yuki_wa/vol1_chapter_1/14.jpg",
    "https://img-proxy.imgfo.com/?referer=https://manganelo.com&url=https://s7.mkklcdnv6temp.com/mangakakalot/a1/ake_nure_goyou_ni_furu_yuki_wa/vol1_chapter_1/15.jpg",
    "https://img-proxy.imgfo.com/?referer=https://manganelo.com&url=https://s7.mkklcdnv6temp.com/mangakakalot/a1/ake_nure_goyou_ni_furu_yuki_wa/vol1_chapter_1/16.jpg",
    "https://img-proxy.imgfo.com/?referer=https://manganelo.com&url=https://s7.mkklcdnv6temp.com/mangakakalot/a1/ake_nure_goyou_ni_furu_yuki_wa/vol1_chapter_1/17.jpg",
    "https://img-proxy.imgfo.com/?referer=https://manganelo.com&url=https://s7.mkklcdnv6temp.com/mangakakalot/a1/ake_nure_goyou_ni_furu_yuki_wa/vol1_chapter_1/18.jpg",
    "https://img-proxy.imgfo.com/?referer=https://manganelo.com&url=https://s7.mkklcdnv6temp.com/mangakakalot/a1/ake_nure_goyou_ni_furu_yuki_wa/vol1_chapter_1/19.jpg",
    "https://img-proxy.imgfo.com/?referer=https://manganelo.com&url=https://s7.mkklcdnv6temp.com/mangakakalot/a1/ake_nure_goyou_ni_furu_yuki_wa/vol1_chapter_1/20.jpg",
    "https://img-proxy.imgfo.com/?referer=https://manganelo.com&url=https://s7.mkklcdnv6temp.com/mangakakalot/a1/ake_nure_goyou_ni_furu_yuki_wa/vol1_chapter_1/21.jpg",
    "https://img-proxy.imgfo.com/?referer=https://manganelo.com&url=https://s7.mkklcdnv6temp.com/mangakakalot/a1/ake_nure_goyou_ni_furu_yuki_wa/vol1_chapter_1/22.jpg",
    "https://img-proxy.imgfo.com/?referer=https://manganelo.com&url=https://s7.mkklcdnv6temp.com/mangakakalot/a1/ake_nure_goyou_ni_furu_yuki_wa/vol1_chapter_1/23.jpg",
    "https://img-proxy.imgfo.com/?referer=https://manganelo.com&url=https://s7.mkklcdnv6temp.com/mangakakalot/a1/ake_nure_goyou_ni_furu_yuki_wa/vol1_chapter_1/24.jpg",
    "https://img-proxy.imgfo.com/?referer=https://manganelo.com&url=https://s7.mkklcdnv6temp.com/mangakakalot/a1/ake_nure_goyou_ni_furu_yuki_wa/vol1_chapter_1/25.jpg",
    "https://img-proxy.imgfo.com/?referer=https://manganelo.com&url=https://s7.mkklcdnv6temp.com/mangakakalot/a1/ake_nure_goyou_ni_furu_yuki_wa/vol1_chapter_1/26.jpg",
    "https://img-proxy.imgfo.com/?referer=https://manganelo.com&url=https://s7.mkklcdnv6temp.com/mangakakalot/a1/ake_nure_goyou_ni_furu_yuki_wa/vol1_chapter_1/27.jpg",
    "https://img-proxy.imgfo.com/?referer=https://manganelo.com&url=https://s7.mkklcdnv6temp.com/mangakakalot/a1/ake_nure_goyou_ni_furu_yuki_wa/vol1_chapter_1/28.jpg",
    "https://img-proxy.imgfo.com/?referer=https://manganelo.com&url=https://s7.mkklcdnv6temp.com/mangakakalot/a1/ake_nure_goyou_ni_furu_yuki_wa/vol1_chapter_1/29.jpg",
    "https://img-proxy.imgfo.com/?referer=https://manganelo.com&url=https://s7.mkklcdnv6temp.com/mangakakalot/a1/ake_nure_goyou_ni_furu_yuki_wa/vol1_chapter_1/30.jpg",
    "https://img-proxy.imgfo.com/?referer=https://manganelo.com&url=https://s7.mkklcdnv6temp.com/mangakakalot/a1/ake_nure_goyou_ni_furu_yuki_wa/vol1_chapter_1/31.jpg",
    "https://img-proxy.imgfo.com/?referer=https://manganelo.com&url=https://s7.mkklcdnv6temp.com/mangakakalot/a1/ake_nure_goyou_ni_furu_yuki_wa/vol1_chapter_1/32.jpg",
    "https://img-proxy.imgfo.com/?referer=https://manganelo.com&url=https://s7.mkklcdnv6temp.com/mangakakalot/a1/ake_nure_goyou_ni_furu_yuki_wa/vol1_chapter_1/33.jpg",
    "https://img-proxy.imgfo.com/?referer=https://manganelo.com&url=https://s7.mkklcdnv6temp.com/mangakakalot/a1/ake_nure_goyou_ni_furu_yuki_wa/vol1_chapter_1/34.jpg"
  ]
}