{
  "cover": "https://avt.mkklcdnv6.com/11/u/4-1583470147.jpg",
  "title": "Angel Densetsu",
  "original": "エンジェル 伝説 ; 冷面天使 ; ANGEL 伝説 ; Legend of an Angel ; The Legendary Angel",
  "genre": "Action, Comedy, Martial arts, Romance, School life, Shounen, Manga",
  "author": "Yagi Norihiro",
  "status": "Completed",
  "backlink": "https://manganu.com/collections/yagi-norihiro/angel-densetsu/",
  "description": "The story is of Kitano Seiichirou, a very kind and pure-hearted young man, with a horrifying, monstrous face. People being what they are, they think he's a terrifying delinquent, and there are plenty of chance misunderstandings (coupled with Kitano's convenient inability to understand what's happening around him) that propel him into the position of \"school guardian\", a.k.a. head thug on campus.",
  "language": "English",
  "images": [
    "https://img-proxy.imgfo.com/?referer=https://manganelo.com&url=https://s5.mkklcdnv6temp.com/mangakakalot/a1/angel_densetsu/vol7_chapter_35_the_battles_demise/1.jpg",
    "https://img-proxy.imgfo.com/?referer=https://manganelo.com&url=https://s5.mkklcdnv6temp.com/mangakakalot/a1/angel_densetsu/vol7_chapter_35_the_battles_demise/2.jpg",
    "https://img-proxy.imgfo.com/?referer=https://manganelo.com&url=https://s5.mkklcdnv6temp.com/mangakakalot/a1/angel_densetsu/vol7_chapter_35_the_battles_demise/3.jpg",
    "https://img-proxy.imgfo.com/?referer=https://manganelo.com&url=https://s5.mkklcdnv6temp.com/mangakakalot/a1/angel_densetsu/vol7_chapter_35_the_battles_demise/4.jpg",
    "https://img-proxy.imgfo.com/?referer=https://manganelo.com&url=https://s5.mkklcdnv6temp.com/mangakakalot/a1/angel_densetsu/vol7_chapter_35_the_battles_demise/5.jpg",
    "https://img-proxy.imgfo.com/?referer=https://manganelo.com&url=https://s5.mkklcdnv6temp.com/mangakakalot/a1/angel_densetsu/vol7_chapter_35_the_battles_demise/6.jpg",
    "https://img-proxy.imgfo.com/?referer=https://manganelo.com&url=https://s5.mkklcdnv6temp.com/mangakakalot/a1/angel_densetsu/vol7_chapter_35_the_battles_demise/7.jpg",
    "https://img-proxy.imgfo.com/?referer=https://manganelo.com&url=https://s5.mkklcdnv6temp.com/mangakakalot/a1/angel_densetsu/vol7_chapter_35_the_battles_demise/8.jpg",
    "https://img-proxy.imgfo.com/?referer=https://manganelo.com&url=https://s5.mkklcdnv6temp.com/mangakakalot/a1/angel_densetsu/vol7_chapter_35_the_battles_demise/9.jpg",
    "https://img-proxy.imgfo.com/?referer=https://manganelo.com&url=https://s5.mkklcdnv6temp.com/mangakakalot/a1/angel_densetsu/vol7_chapter_35_the_battles_demise/10.jpg",
    "https://img-proxy.imgfo.com/?referer=https://manganelo.com&url=https://s5.mkklcdnv6temp.com/mangakakalot/a1/angel_densetsu/vol7_chapter_35_the_battles_demise/11.jpg",
    "https://img-proxy.imgfo.com/?referer=https://manganelo.com&url=https://s5.mkklcdnv6temp.com/mangakakalot/a1/angel_densetsu/vol7_chapter_35_the_battles_demise/12.jpg",
    "https://img-proxy.imgfo.com/?referer=https://manganelo.com&url=https://s5.mkklcdnv6temp.com/mangakakalot/a1/angel_densetsu/vol7_chapter_35_the_battles_demise/13.jpg",
    "https://img-proxy.imgfo.com/?referer=https://manganelo.com&url=https://s5.mkklcdnv6temp.com/mangakakalot/a1/angel_densetsu/vol7_chapter_35_the_battles_demise/14.jpg",
    "https://img-proxy.imgfo.com/?referer=https://manganelo.com&url=https://s5.mkklcdnv6temp.com/mangakakalot/a1/angel_densetsu/vol7_chapter_35_the_battles_demise/15.jpg",
    "https://img-proxy.imgfo.com/?referer=https://manganelo.com&url=https://s5.mkklcdnv6temp.com/mangakakalot/a1/angel_densetsu/vol7_chapter_35_the_battles_demise/16.jpg",
    "https://img-proxy.imgfo.com/?referer=https://manganelo.com&url=https://s5.mkklcdnv6temp.com/mangakakalot/a1/angel_densetsu/vol7_chapter_35_the_battles_demise/17.jpg",
    "https://img-proxy.imgfo.com/?referer=https://manganelo.com&url=https://s5.mkklcdnv6temp.com/mangakakalot/a1/angel_densetsu/vol7_chapter_35_the_battles_demise/18.jpg",
    "https://img-proxy.imgfo.com/?referer=https://manganelo.com&url=https://s5.mkklcdnv6temp.com/mangakakalot/a1/angel_densetsu/vol7_chapter_35_the_battles_demise/19.jpg",
    "https://img-proxy.imgfo.com/?referer=https://manganelo.com&url=https://s5.mkklcdnv6temp.com/mangakakalot/a1/angel_densetsu/vol7_chapter_35_the_battles_demise/20.jpg",
    "https://img-proxy.imgfo.com/?referer=https://manganelo.com&url=https://s5.mkklcdnv6temp.com/mangakakalot/a1/angel_densetsu/vol7_chapter_35_the_battles_demise/21.jpg",
    "https://img-proxy.imgfo.com/?referer=https://manganelo.com&url=https://s5.mkklcdnv6temp.com/mangakakalot/a1/angel_densetsu/vol7_chapter_35_the_battles_demise/22.jpg",
    "https://img-proxy.imgfo.com/?referer=https://manganelo.com&url=https://s5.mkklcdnv6temp.com/mangakakalot/a1/angel_densetsu/vol7_chapter_35_the_battles_demise/23.jpg",
    "https://img-proxy.imgfo.com/?referer=https://manganelo.com&url=https://s5.mkklcdnv6temp.com/mangakakalot/a1/angel_densetsu/vol7_chapter_35_the_battles_demise/24.jpg",
    "https://img-proxy.imgfo.com/?referer=https://manganelo.com&url=https://s5.mkklcdnv6temp.com/mangakakalot/a1/angel_densetsu/vol7_chapter_35_the_battles_demise/25.jpg",
    "https://img-proxy.imgfo.com/?referer=https://manganelo.com&url=https://s5.mkklcdnv6temp.com/mangakakalot/a1/angel_densetsu/vol7_chapter_35_the_battles_demise/26.jpg",
    "https://img-proxy.imgfo.com/?referer=https://manganelo.com&url=https://s5.mkklcdnv6temp.com/mangakakalot/a1/angel_densetsu/vol7_chapter_35_the_battles_demise/27.jpg",
    "https://img-proxy.imgfo.com/?referer=https://manganelo.com&url=https://s5.mkklcdnv6temp.com/mangakakalot/a1/angel_densetsu/vol7_chapter_35_the_battles_demise/28.jpg",
    "https://img-proxy.imgfo.com/?referer=https://manganelo.com&url=https://s5.mkklcdnv6temp.com/mangakakalot/a1/angel_densetsu/vol7_chapter_35_the_battles_demise/29.jpg",
    "https://img-proxy.imgfo.com/?referer=https://manganelo.com&url=https://s5.mkklcdnv6temp.com/mangakakalot/a1/angel_densetsu/vol7_chapter_35_the_battles_demise/30.jpg",
    "https://img-proxy.imgfo.com/?referer=https://manganelo.com&url=https://s5.mkklcdnv6temp.com/mangakakalot/a1/angel_densetsu/vol7_chapter_35_the_battles_demise/31.jpg",
    "https://img-proxy.imgfo.com/?referer=https://manganelo.com&url=https://s5.mkklcdnv6temp.com/mangakakalot/a1/angel_densetsu/vol7_chapter_35_the_battles_demise/32.jpg",
    "https://img-proxy.imgfo.com/?referer=https://manganelo.com&url=https://s5.mkklcdnv6temp.com/mangakakalot/a1/angel_densetsu/vol7_chapter_35_the_battles_demise/33.jpg",
    "https://img-proxy.imgfo.com/?referer=https://manganelo.com&url=https://s5.mkklcdnv6temp.com/mangakakalot/a1/angel_densetsu/vol7_chapter_35_the_battles_demise/34.jpg"
  ]
}