{
  "cover": "https://avt.mkklcdnv6.com/48/i/3-1583469581.jpg",
  "title": "Fortune Arterial",
  "original": "フォーチュンアテリアル",
  "genre": "Comedy, Fantasy, Romance, School life, Shounen, Supernatural, Manga",
  "author": "August Soft",
  "status": "Completed",
  "backlink": "https://manganu.com/collections/august-soft/fortune-arterial/",
  "description": "Kohei Hasekura is a sophomore who transfers into a prestigious public school--an English style six-year school, serving junior high and high school students. The school, named Shuchikan Academy, is on an island, Tamatsu Island, off-shore from mainland Japan, and the only way to get there is by boat. But under the peaceful surface, this prestigious academy holds a dark secret. Some of its students are vampires! And Kouhei will be dragged deeper and deeper into the mystery of the school and the girls that attend.",
  "language": "English",
  "images": [
    "https://img-proxy.imgfo.com/?referer=https://manganelo.com&url=https://s41.mkklcdnv6temp.com/mangakakalot/f2/fortune_arterial/vol2_chapter_10_the_memory_of_three/1.jpg",
    "https://img-proxy.imgfo.com/?referer=https://manganelo.com&url=https://s41.mkklcdnv6temp.com/mangakakalot/f2/fortune_arterial/vol2_chapter_10_the_memory_of_three/2.jpg",
    "https://img-proxy.imgfo.com/?referer=https://manganelo.com&url=https://s41.mkklcdnv6temp.com/mangakakalot/f2/fortune_arterial/vol2_chapter_10_the_memory_of_three/3.jpg",
    "https://img-proxy.imgfo.com/?referer=https://manganelo.com&url=https://s41.mkklcdnv6temp.com/mangakakalot/f2/fortune_arterial/vol2_chapter_10_the_memory_of_three/4.jpg",
    "https://img-proxy.imgfo.com/?referer=https://manganelo.com&url=https://s41.mkklcdnv6temp.com/mangakakalot/f2/fortune_arterial/vol2_chapter_10_the_memory_of_three/5.jpg",
    "https://img-proxy.imgfo.com/?referer=https://manganelo.com&url=https://s41.mkklcdnv6temp.com/mangakakalot/f2/fortune_arterial/vol2_chapter_10_the_memory_of_three/6.jpg",
    "https://img-proxy.imgfo.com/?referer=https://manganelo.com&url=https://s41.mkklcdnv6temp.com/mangakakalot/f2/fortune_arterial/vol2_chapter_10_the_memory_of_three/7.jpg",
    "https://img-proxy.imgfo.com/?referer=https://manganelo.com&url=https://s41.mkklcdnv6temp.com/mangakakalot/f2/fortune_arterial/vol2_chapter_10_the_memory_of_three/8.jpg",
    "https://img-proxy.imgfo.com/?referer=https://manganelo.com&url=https://s41.mkklcdnv6temp.com/mangakakalot/f2/fortune_arterial/vol2_chapter_10_the_memory_of_three/9.jpg",
    "https://img-proxy.imgfo.com/?referer=https://manganelo.com&url=https://s41.mkklcdnv6temp.com/mangakakalot/f2/fortune_arterial/vol2_chapter_10_the_memory_of_three/10.jpg",
    "https://img-proxy.imgfo.com/?referer=https://manganelo.com&url=https://s41.mkklcdnv6temp.com/mangakakalot/f2/fortune_arterial/vol2_chapter_10_the_memory_of_three/11.jpg",
    "https://img-proxy.imgfo.com/?referer=https://manganelo.com&url=https://s41.mkklcdnv6temp.com/mangakakalot/f2/fortune_arterial/vol2_chapter_10_the_memory_of_three/12.jpg",
    "https://img-proxy.imgfo.com/?referer=https://manganelo.com&url=https://s41.mkklcdnv6temp.com/mangakakalot/f2/fortune_arterial/vol2_chapter_10_the_memory_of_three/13.jpg",
    "https://img-proxy.imgfo.com/?referer=https://manganelo.com&url=https://s41.mkklcdnv6temp.com/mangakakalot/f2/fortune_arterial/vol2_chapter_10_the_memory_of_three/14.jpg",
    "https://img-proxy.imgfo.com/?referer=https://manganelo.com&url=https://s41.mkklcdnv6temp.com/mangakakalot/f2/fortune_arterial/vol2_chapter_10_the_memory_of_three/15.jpg",
    "https://img-proxy.imgfo.com/?referer=https://manganelo.com&url=https://s41.mkklcdnv6temp.com/mangakakalot/f2/fortune_arterial/vol2_chapter_10_the_memory_of_three/16.jpg",
    "https://img-proxy.imgfo.com/?referer=https://manganelo.com&url=https://s41.mkklcdnv6temp.com/mangakakalot/f2/fortune_arterial/vol2_chapter_10_the_memory_of_three/17.jpg",
    "https://img-proxy.imgfo.com/?referer=https://manganelo.com&url=https://s41.mkklcdnv6temp.com/mangakakalot/f2/fortune_arterial/vol2_chapter_10_the_memory_of_three/18.jpg",
    "https://img-proxy.imgfo.com/?referer=https://manganelo.com&url=https://s41.mkklcdnv6temp.com/mangakakalot/f2/fortune_arterial/vol2_chapter_10_the_memory_of_three/19.jpg",
    "https://img-proxy.imgfo.com/?referer=https://manganelo.com&url=https://s41.mkklcdnv6temp.com/mangakakalot/f2/fortune_arterial/vol2_chapter_10_the_memory_of_three/20.jpg",
    "https://img-proxy.imgfo.com/?referer=https://manganelo.com&url=https://s41.mkklcdnv6temp.com/mangakakalot/f2/fortune_arterial/vol2_chapter_10_the_memory_of_three/21.jpg",
    "https://img-proxy.imgfo.com/?referer=https://manganelo.com&url=https://s41.mkklcdnv6temp.com/mangakakalot/f2/fortune_arterial/vol2_chapter_10_the_memory_of_three/22.jpg",
    "https://img-proxy.imgfo.com/?referer=https://manganelo.com&url=https://s41.mkklcdnv6temp.com/mangakakalot/f2/fortune_arterial/vol2_chapter_10_the_memory_of_three/23.jpg"
  ]
}