{
  "cover": "https://avt.mkklcdnv6.com/3/z/2-1583465845.jpg",
  "title": "Saiyuki Reload",
  "genre": "Action, Adventure, Comedy, Fantasy, Historical, Josei, Martial arts, Supernatural, Manga",
  "author": "Minekura Kazuya",
  "status": "Completed",
  "backlink": "https://manganu.com/collections/minekura-kazuya/saiyuki-reload/",
  "description": "Priest Genjo Sanzo and companions Cho Hakkai, Sha Gojyo, and Son Goku maintain their westward journey to stop the resurrection of the demon Gyoumao. As the reputation of the Sanzo Ikkou precedes them, they continue to fight demon assassins at every turn, but they must also deal with increasing tensions within their group in order to defeat a powerful enemy.",
  "language": "English",
  "images": [
    "https://img-proxy.imgfo.com/?referer=https://manganelo.com&url=https://s41.mkklcdnv6temp.com/mangakakalot/s1/saiyuki_reload/vol5_chapter_202_even_a_worm_72/1.jpg",
    "https://img-proxy.imgfo.com/?referer=https://manganelo.com&url=https://s41.mkklcdnv6temp.com/mangakakalot/s1/saiyuki_reload/vol5_chapter_202_even_a_worm_72/2.jpg",
    "https://img-proxy.imgfo.com/?referer=https://manganelo.com&url=https://s41.mkklcdnv6temp.com/mangakakalot/s1/saiyuki_reload/vol5_chapter_202_even_a_worm_72/3.jpg",
    "https://img-proxy.imgfo.com/?referer=https://manganelo.com&url=https://s41.mkklcdnv6temp.com/mangakakalot/s1/saiyuki_reload/vol5_chapter_202_even_a_worm_72/4.jpg",
    "https://img-proxy.imgfo.com/?referer=https://manganelo.com&url=https://s41.mkklcdnv6temp.com/mangakakalot/s1/saiyuki_reload/vol5_chapter_202_even_a_worm_72/5.jpg",
    "https://img-proxy.imgfo.com/?referer=https://manganelo.com&url=https://s41.mkklcdnv6temp.com/mangakakalot/s1/saiyuki_reload/vol5_chapter_202_even_a_worm_72/6.jpg",
    "https://img-proxy.imgfo.com/?referer=https://manganelo.com&url=https://s41.mkklcdnv6temp.com/mangakakalot/s1/saiyuki_reload/vol5_chapter_202_even_a_worm_72/7.jpg",
    "https://img-proxy.imgfo.com/?referer=https://manganelo.com&url=https://s41.mkklcdnv6temp.com/mangakakalot/s1/saiyuki_reload/vol5_chapter_202_even_a_worm_72/8.jpg",
    "https://img-proxy.imgfo.com/?referer=https://manganelo.com&url=https://s41.mkklcdnv6temp.com/mangakakalot/s1/saiyuki_reload/vol5_chapter_202_even_a_worm_72/9.jpg",
    "https://img-proxy.imgfo.com/?referer=https://manganelo.com&url=https://s41.mkklcdnv6temp.com/mangakakalot/s1/saiyuki_reload/vol5_chapter_202_even_a_worm_72/10.jpg",
    "https://img-proxy.imgfo.com/?referer=https://manganelo.com&url=https://s41.mkklcdnv6temp.com/mangakakalot/s1/saiyuki_reload/vol5_chapter_202_even_a_worm_72/11.jpg",
    "https://img-proxy.imgfo.com/?referer=https://manganelo.com&url=https://s41.mkklcdnv6temp.com/mangakakalot/s1/saiyuki_reload/vol5_chapter_202_even_a_worm_72/12.jpg",
    "https://img-proxy.imgfo.com/?referer=https://manganelo.com&url=https://s41.mkklcdnv6temp.com/mangakakalot/s1/saiyuki_reload/vol5_chapter_202_even_a_worm_72/13.jpg",
    "https://img-proxy.imgfo.com/?referer=https://manganelo.com&url=https://s41.mkklcdnv6temp.com/mangakakalot/s1/saiyuki_reload/vol5_chapter_202_even_a_worm_72/14.jpg",
    "https://img-proxy.imgfo.com/?referer=https://manganelo.com&url=https://s41.mkklcdnv6temp.com/mangakakalot/s1/saiyuki_reload/vol5_chapter_202_even_a_worm_72/15.jpg",
    "https://img-proxy.imgfo.com/?referer=https://manganelo.com&url=https://s41.mkklcdnv6temp.com/mangakakalot/s1/saiyuki_reload/vol5_chapter_202_even_a_worm_72/16.jpg",
    "https://img-proxy.imgfo.com/?referer=https://manganelo.com&url=https://s41.mkklcdnv6temp.com/mangakakalot/s1/saiyuki_reload/vol5_chapter_202_even_a_worm_72/17.jpg",
    "https://img-proxy.imgfo.com/?referer=https://manganelo.com&url=https://s41.mkklcdnv6temp.com/mangakakalot/s1/saiyuki_reload/vol5_chapter_202_even_a_worm_72/18.jpg",
    "https://img-proxy.imgfo.com/?referer=https://manganelo.com&url=https://s41.mkklcdnv6temp.com/mangakakalot/s1/saiyuki_reload/vol5_chapter_202_even_a_worm_72/19.jpg",
    "https://img-proxy.imgfo.com/?referer=https://manganelo.com&url=https://s41.mkklcdnv6temp.com/mangakakalot/s1/saiyuki_reload/vol5_chapter_202_even_a_worm_72/20.jpg",
    "https://img-proxy.imgfo.com/?referer=https://manganelo.com&url=https://s41.mkklcdnv6temp.com/mangakakalot/s1/saiyuki_reload/vol5_chapter_202_even_a_worm_72/21.jpg",
    "https://img-proxy.imgfo.com/?referer=https://manganelo.com&url=https://s41.mkklcdnv6temp.com/mangakakalot/s1/saiyuki_reload/vol5_chapter_202_even_a_worm_72/22.jpg",
    "https://img-proxy.imgfo.com/?referer=https://manganelo.com&url=https://s41.mkklcdnv6temp.com/mangakakalot/s1/saiyuki_reload/vol5_chapter_202_even_a_worm_72/23.jpg",
    "https://img-proxy.imgfo.com/?referer=https://manganelo.com&url=https://s41.mkklcdnv6temp.com/mangakakalot/s1/saiyuki_reload/vol5_chapter_202_even_a_worm_72/24.jpg"
  ]
}