{
  "cover": "https://avt.mkklcdnv6.com/3/z/2-1583465845.jpg",
  "title": "Saiyuki Reload",
  "genre": "Action, Adventure, Comedy, Fantasy, Historical, Josei, Martial arts, Supernatural, Manga",
  "author": "Minekura Kazuya",
  "status": "Completed",
  "backlink": "https://manganu.com/collections/minekura-kazuya/saiyuki-reload/",
  "description": "Priest Genjo Sanzo and companions Cho Hakkai, Sha Gojyo, and Son Goku maintain their westward journey to stop the resurrection of the demon Gyoumao. As the reputation of the Sanzo Ikkou precedes them, they continue to fight demon assassins at every turn, but they must also deal with increasing tensions within their group in order to defeat a powerful enemy.",
  "language": "English",
  "images": [
    "https://img-proxy.imgfo.com/?referer=https://manganelo.com&url=https://s41.mkklcdnv6temp.com/mangakakalot/s1/saiyuki_reload/vol3_chapter_02_burial_genjo_sanzos_chapter_1/1.jpg",
    "https://img-proxy.imgfo.com/?referer=https://manganelo.com&url=https://s41.mkklcdnv6temp.com/mangakakalot/s1/saiyuki_reload/vol3_chapter_02_burial_genjo_sanzos_chapter_1/2.jpg",
    "https://img-proxy.imgfo.com/?referer=https://manganelo.com&url=https://s41.mkklcdnv6temp.com/mangakakalot/s1/saiyuki_reload/vol3_chapter_02_burial_genjo_sanzos_chapter_1/3.jpg",
    "https://img-proxy.imgfo.com/?referer=https://manganelo.com&url=https://s41.mkklcdnv6temp.com/mangakakalot/s1/saiyuki_reload/vol3_chapter_02_burial_genjo_sanzos_chapter_1/4.jpg",
    "https://img-proxy.imgfo.com/?referer=https://manganelo.com&url=https://s41.mkklcdnv6temp.com/mangakakalot/s1/saiyuki_reload/vol3_chapter_02_burial_genjo_sanzos_chapter_1/5.jpg",
    "https://img-proxy.imgfo.com/?referer=https://manganelo.com&url=https://s41.mkklcdnv6temp.com/mangakakalot/s1/saiyuki_reload/vol3_chapter_02_burial_genjo_sanzos_chapter_1/6.jpg",
    "https://img-proxy.imgfo.com/?referer=https://manganelo.com&url=https://s41.mkklcdnv6temp.com/mangakakalot/s1/saiyuki_reload/vol3_chapter_02_burial_genjo_sanzos_chapter_1/7.jpg",
    "https://img-proxy.imgfo.com/?referer=https://manganelo.com&url=https://s41.mkklcdnv6temp.com/mangakakalot/s1/saiyuki_reload/vol3_chapter_02_burial_genjo_sanzos_chapter_1/8.jpg",
    "https://img-proxy.imgfo.com/?referer=https://manganelo.com&url=https://s41.mkklcdnv6temp.com/mangakakalot/s1/saiyuki_reload/vol3_chapter_02_burial_genjo_sanzos_chapter_1/9.jpg",
    "https://img-proxy.imgfo.com/?referer=https://manganelo.com&url=https://s41.mkklcdnv6temp.com/mangakakalot/s1/saiyuki_reload/vol3_chapter_02_burial_genjo_sanzos_chapter_1/10.jpg",
    "https://img-proxy.imgfo.com/?referer=https://manganelo.com&url=https://s41.mkklcdnv6temp.com/mangakakalot/s1/saiyuki_reload/vol3_chapter_02_burial_genjo_sanzos_chapter_1/11.jpg",
    "https://img-proxy.imgfo.com/?referer=https://manganelo.com&url=https://s41.mkklcdnv6temp.com/mangakakalot/s1/saiyuki_reload/vol3_chapter_02_burial_genjo_sanzos_chapter_1/12.jpg",
    "https://img-proxy.imgfo.com/?referer=https://manganelo.com&url=https://s41.mkklcdnv6temp.com/mangakakalot/s1/saiyuki_reload/vol3_chapter_02_burial_genjo_sanzos_chapter_1/13.jpg",
    "https://img-proxy.imgfo.com/?referer=https://manganelo.com&url=https://s41.mkklcdnv6temp.com/mangakakalot/s1/saiyuki_reload/vol3_chapter_02_burial_genjo_sanzos_chapter_1/14.jpg",
    "https://img-proxy.imgfo.com/?referer=https://manganelo.com&url=https://s41.mkklcdnv6temp.com/mangakakalot/s1/saiyuki_reload/vol3_chapter_02_burial_genjo_sanzos_chapter_1/15.jpg",
    "https://img-proxy.imgfo.com/?referer=https://manganelo.com&url=https://s41.mkklcdnv6temp.com/mangakakalot/s1/saiyuki_reload/vol3_chapter_02_burial_genjo_sanzos_chapter_1/16.jpg",
    "https://img-proxy.imgfo.com/?referer=https://manganelo.com&url=https://s41.mkklcdnv6temp.com/mangakakalot/s1/saiyuki_reload/vol3_chapter_02_burial_genjo_sanzos_chapter_1/17.jpg",
    "https://img-proxy.imgfo.com/?referer=https://manganelo.com&url=https://s41.mkklcdnv6temp.com/mangakakalot/s1/saiyuki_reload/vol3_chapter_02_burial_genjo_sanzos_chapter_1/18.jpg",
    "https://img-proxy.imgfo.com/?referer=https://manganelo.com&url=https://s41.mkklcdnv6temp.com/mangakakalot/s1/saiyuki_reload/vol3_chapter_02_burial_genjo_sanzos_chapter_1/19.jpg",
    "https://img-proxy.imgfo.com/?referer=https://manganelo.com&url=https://s41.mkklcdnv6temp.com/mangakakalot/s1/saiyuki_reload/vol3_chapter_02_burial_genjo_sanzos_chapter_1/20.jpg",
    "https://img-proxy.imgfo.com/?referer=https://manganelo.com&url=https://s41.mkklcdnv6temp.com/mangakakalot/s1/saiyuki_reload/vol3_chapter_02_burial_genjo_sanzos_chapter_1/21.jpg",
    "https://img-proxy.imgfo.com/?referer=https://manganelo.com&url=https://s41.mkklcdnv6temp.com/mangakakalot/s1/saiyuki_reload/vol3_chapter_02_burial_genjo_sanzos_chapter_1/22.jpg",
    "https://img-proxy.imgfo.com/?referer=https://manganelo.com&url=https://s41.mkklcdnv6temp.com/mangakakalot/s1/saiyuki_reload/vol3_chapter_02_burial_genjo_sanzos_chapter_1/23.jpg",
    "https://img-proxy.imgfo.com/?referer=https://manganelo.com&url=https://s41.mkklcdnv6temp.com/mangakakalot/s1/saiyuki_reload/vol3_chapter_02_burial_genjo_sanzos_chapter_1/24.jpg",
    "https://img-proxy.imgfo.com/?referer=https://manganelo.com&url=https://s41.mkklcdnv6temp.com/mangakakalot/s1/saiyuki_reload/vol3_chapter_02_burial_genjo_sanzos_chapter_1/25.jpg",
    "https://img-proxy.imgfo.com/?referer=https://manganelo.com&url=https://s41.mkklcdnv6temp.com/mangakakalot/s1/saiyuki_reload/vol3_chapter_02_burial_genjo_sanzos_chapter_1/26.jpg",
    "https://img-proxy.imgfo.com/?referer=https://manganelo.com&url=https://s41.mkklcdnv6temp.com/mangakakalot/s1/saiyuki_reload/vol3_chapter_02_burial_genjo_sanzos_chapter_1/27.jpg",
    "https://img-proxy.imgfo.com/?referer=https://manganelo.com&url=https://s41.mkklcdnv6temp.com/mangakakalot/s1/saiyuki_reload/vol3_chapter_02_burial_genjo_sanzos_chapter_1/28.jpg",
    "https://img-proxy.imgfo.com/?referer=https://manganelo.com&url=https://s41.mkklcdnv6temp.com/mangakakalot/s1/saiyuki_reload/vol3_chapter_02_burial_genjo_sanzos_chapter_1/29.jpg",
    "https://img-proxy.imgfo.com/?referer=https://manganelo.com&url=https://s41.mkklcdnv6temp.com/mangakakalot/s1/saiyuki_reload/vol3_chapter_02_burial_genjo_sanzos_chapter_1/30.jpg",
    "https://img-proxy.imgfo.com/?referer=https://manganelo.com&url=https://s41.mkklcdnv6temp.com/mangakakalot/s1/saiyuki_reload/vol3_chapter_02_burial_genjo_sanzos_chapter_1/31.jpg",
    "https://img-proxy.imgfo.com/?referer=https://manganelo.com&url=https://s41.mkklcdnv6temp.com/mangakakalot/s1/saiyuki_reload/vol3_chapter_02_burial_genjo_sanzos_chapter_1/32.jpg",
    "https://img-proxy.imgfo.com/?referer=https://manganelo.com&url=https://s41.mkklcdnv6temp.com/mangakakalot/s1/saiyuki_reload/vol3_chapter_02_burial_genjo_sanzos_chapter_1/33.jpg"
  ]
}