{
  "cover": "https://avt.mkklcdnv6.com/49/x/4-1583471796.jpg",
  "title": "Hajimete No Aku",
  "original": "はじめてのあく ; 天才恶少年 ; Intro to Evil ; J博士的恶之道 ; My First Evil ; My First Mr. Aku ; My First Mr. Akun ; My First Mr. Akuno ; Мой первый Мистер Дьявол (Russian) ; Akuno của tôi (Tiếng Việt)",
  "genre": "Comedy, Fantasy, Romance, School life, Sci fi, Shounen, Slice of life, Manga",
  "author": "Fujiki Shun",
  "status": "Completed",
  "backlink": "https://manganu.com/collections/fujiki-shun/hajimete-no-aku/",
  "description": "In the spring of Kyoko&#39;s first year in high school, Eiko, a girl like a sister to her, returns with her younger brother, Jiro. The return isn&#39;t that big of a deal, but Jiro (self proclaimed super mad scientist) has it in his head that he wants to operate on Kyoko! And, what&#39;s even more, the two of them are actually high ranking members of an Evil organization at the run from the heroes of justice!(well not as much as you would think) So high school and her daily life is about to become a bit more exciting as these two begun living with her.",
  "language": "English",
  "images": [
    "https://img-proxy.imgfo.com/?referer=https://manganelo.com&url=https://s5.mkklcdnv6temp.com/mangakakalot/h1/hajimete_no_aku/vol16_chapter_152_prayer_pair_trial_last_part/1.jpg",
    "https://img-proxy.imgfo.com/?referer=https://manganelo.com&url=https://s5.mkklcdnv6temp.com/mangakakalot/h1/hajimete_no_aku/vol16_chapter_152_prayer_pair_trial_last_part/2.jpg",
    "https://img-proxy.imgfo.com/?referer=https://manganelo.com&url=https://s5.mkklcdnv6temp.com/mangakakalot/h1/hajimete_no_aku/vol16_chapter_152_prayer_pair_trial_last_part/3.jpg",
    "https://img-proxy.imgfo.com/?referer=https://manganelo.com&url=https://s5.mkklcdnv6temp.com/mangakakalot/h1/hajimete_no_aku/vol16_chapter_152_prayer_pair_trial_last_part/4.jpg",
    "https://img-proxy.imgfo.com/?referer=https://manganelo.com&url=https://s5.mkklcdnv6temp.com/mangakakalot/h1/hajimete_no_aku/vol16_chapter_152_prayer_pair_trial_last_part/5.jpg",
    "https://img-proxy.imgfo.com/?referer=https://manganelo.com&url=https://s5.mkklcdnv6temp.com/mangakakalot/h1/hajimete_no_aku/vol16_chapter_152_prayer_pair_trial_last_part/6.jpg",
    "https://img-proxy.imgfo.com/?referer=https://manganelo.com&url=https://s5.mkklcdnv6temp.com/mangakakalot/h1/hajimete_no_aku/vol16_chapter_152_prayer_pair_trial_last_part/7.jpg",
    "https://img-proxy.imgfo.com/?referer=https://manganelo.com&url=https://s5.mkklcdnv6temp.com/mangakakalot/h1/hajimete_no_aku/vol16_chapter_152_prayer_pair_trial_last_part/8.jpg",
    "https://img-proxy.imgfo.com/?referer=https://manganelo.com&url=https://s5.mkklcdnv6temp.com/mangakakalot/h1/hajimete_no_aku/vol16_chapter_152_prayer_pair_trial_last_part/9.jpg",
    "https://img-proxy.imgfo.com/?referer=https://manganelo.com&url=https://s5.mkklcdnv6temp.com/mangakakalot/h1/hajimete_no_aku/vol16_chapter_152_prayer_pair_trial_last_part/10.jpg",
    "https://img-proxy.imgfo.com/?referer=https://manganelo.com&url=https://s5.mkklcdnv6temp.com/mangakakalot/h1/hajimete_no_aku/vol16_chapter_152_prayer_pair_trial_last_part/11.jpg",
    "https://img-proxy.imgfo.com/?referer=https://manganelo.com&url=https://s5.mkklcdnv6temp.com/mangakakalot/h1/hajimete_no_aku/vol16_chapter_152_prayer_pair_trial_last_part/12.jpg",
    "https://img-proxy.imgfo.com/?referer=https://manganelo.com&url=https://s5.mkklcdnv6temp.com/mangakakalot/h1/hajimete_no_aku/vol16_chapter_152_prayer_pair_trial_last_part/13.jpg",
    "https://img-proxy.imgfo.com/?referer=https://manganelo.com&url=https://s5.mkklcdnv6temp.com/mangakakalot/h1/hajimete_no_aku/vol16_chapter_152_prayer_pair_trial_last_part/14.jpg",
    "https://img-proxy.imgfo.com/?referer=https://manganelo.com&url=https://s5.mkklcdnv6temp.com/mangakakalot/h1/hajimete_no_aku/vol16_chapter_152_prayer_pair_trial_last_part/15.jpg",
    "https://img-proxy.imgfo.com/?referer=https://manganelo.com&url=https://s5.mkklcdnv6temp.com/mangakakalot/h1/hajimete_no_aku/vol16_chapter_152_prayer_pair_trial_last_part/16.jpg",
    "https://img-proxy.imgfo.com/?referer=https://manganelo.com&url=https://s5.mkklcdnv6temp.com/mangakakalot/h1/hajimete_no_aku/vol16_chapter_152_prayer_pair_trial_last_part/17.jpg",
    "https://img-proxy.imgfo.com/?referer=https://manganelo.com&url=https://s5.mkklcdnv6temp.com/mangakakalot/h1/hajimete_no_aku/vol16_chapter_152_prayer_pair_trial_last_part/18.jpg",
    "https://img-proxy.imgfo.com/?referer=https://manganelo.com&url=https://s5.mkklcdnv6temp.com/mangakakalot/h1/hajimete_no_aku/vol16_chapter_152_prayer_pair_trial_last_part/19.jpg"
  ]
}