{
  "cover": "https://avt.mkklcdnv6.com/49/x/4-1583471796.jpg",
  "title": "Hajimete No Aku",
  "original": "はじめてのあく ; 天才恶少年 ; Intro to Evil ; J博士的恶之道 ; My First Evil ; My First Mr. Aku ; My First Mr. Akun ; My First Mr. Akuno ; Мой первый Мистер Дьявол (Russian) ; Akuno của tôi (Tiếng Việt)",
  "genre": "Comedy, Fantasy, Romance, School life, Sci fi, Shounen, Slice of life, Manga",
  "author": "Fujiki Shun",
  "status": "Completed",
  "backlink": "https://manganu.com/collections/fujiki-shun/hajimete-no-aku/",
  "description": "In the spring of Kyoko&#39;s first year in high school, Eiko, a girl like a sister to her, returns with her younger brother, Jiro. The return isn&#39;t that big of a deal, but Jiro (self proclaimed super mad scientist) has it in his head that he wants to operate on Kyoko! And, what&#39;s even more, the two of them are actually high ranking members of an Evil organization at the run from the heroes of justice!(well not as much as you would think) So high school and her daily life is about to become a bit more exciting as these two begun living with her.",
  "language": "English",
  "images": [
    "https://img-proxy.imgfo.com/?referer=https://manganelo.com&url=https://s5.mkklcdnv6temp.com/mangakakalot/h1/hajimete_no_aku/vol1_chapter_1_doctor_j_descends/1.jpg",
    "https://img-proxy.imgfo.com/?referer=https://manganelo.com&url=https://s5.mkklcdnv6temp.com/mangakakalot/h1/hajimete_no_aku/vol1_chapter_1_doctor_j_descends/2.jpg",
    "https://img-proxy.imgfo.com/?referer=https://manganelo.com&url=https://s5.mkklcdnv6temp.com/mangakakalot/h1/hajimete_no_aku/vol1_chapter_1_doctor_j_descends/3.jpg",
    "https://img-proxy.imgfo.com/?referer=https://manganelo.com&url=https://s5.mkklcdnv6temp.com/mangakakalot/h1/hajimete_no_aku/vol1_chapter_1_doctor_j_descends/4.jpg",
    "https://img-proxy.imgfo.com/?referer=https://manganelo.com&url=https://s5.mkklcdnv6temp.com/mangakakalot/h1/hajimete_no_aku/vol1_chapter_1_doctor_j_descends/5.jpg",
    "https://img-proxy.imgfo.com/?referer=https://manganelo.com&url=https://s5.mkklcdnv6temp.com/mangakakalot/h1/hajimete_no_aku/vol1_chapter_1_doctor_j_descends/6.jpg",
    "https://img-proxy.imgfo.com/?referer=https://manganelo.com&url=https://s5.mkklcdnv6temp.com/mangakakalot/h1/hajimete_no_aku/vol1_chapter_1_doctor_j_descends/7.jpg",
    "https://img-proxy.imgfo.com/?referer=https://manganelo.com&url=https://s5.mkklcdnv6temp.com/mangakakalot/h1/hajimete_no_aku/vol1_chapter_1_doctor_j_descends/8.jpg",
    "https://img-proxy.imgfo.com/?referer=https://manganelo.com&url=https://s5.mkklcdnv6temp.com/mangakakalot/h1/hajimete_no_aku/vol1_chapter_1_doctor_j_descends/9.jpg",
    "https://img-proxy.imgfo.com/?referer=https://manganelo.com&url=https://s5.mkklcdnv6temp.com/mangakakalot/h1/hajimete_no_aku/vol1_chapter_1_doctor_j_descends/10.jpg",
    "https://img-proxy.imgfo.com/?referer=https://manganelo.com&url=https://s5.mkklcdnv6temp.com/mangakakalot/h1/hajimete_no_aku/vol1_chapter_1_doctor_j_descends/11.jpg",
    "https://img-proxy.imgfo.com/?referer=https://manganelo.com&url=https://s5.mkklcdnv6temp.com/mangakakalot/h1/hajimete_no_aku/vol1_chapter_1_doctor_j_descends/12.jpg",
    "https://img-proxy.imgfo.com/?referer=https://manganelo.com&url=https://s5.mkklcdnv6temp.com/mangakakalot/h1/hajimete_no_aku/vol1_chapter_1_doctor_j_descends/13.jpg",
    "https://img-proxy.imgfo.com/?referer=https://manganelo.com&url=https://s5.mkklcdnv6temp.com/mangakakalot/h1/hajimete_no_aku/vol1_chapter_1_doctor_j_descends/14.jpg",
    "https://img-proxy.imgfo.com/?referer=https://manganelo.com&url=https://s5.mkklcdnv6temp.com/mangakakalot/h1/hajimete_no_aku/vol1_chapter_1_doctor_j_descends/15.jpg",
    "https://img-proxy.imgfo.com/?referer=https://manganelo.com&url=https://s5.mkklcdnv6temp.com/mangakakalot/h1/hajimete_no_aku/vol1_chapter_1_doctor_j_descends/16.jpg",
    "https://img-proxy.imgfo.com/?referer=https://manganelo.com&url=https://s5.mkklcdnv6temp.com/mangakakalot/h1/hajimete_no_aku/vol1_chapter_1_doctor_j_descends/17.jpg",
    "https://img-proxy.imgfo.com/?referer=https://manganelo.com&url=https://s5.mkklcdnv6temp.com/mangakakalot/h1/hajimete_no_aku/vol1_chapter_1_doctor_j_descends/18.jpg",
    "https://img-proxy.imgfo.com/?referer=https://manganelo.com&url=https://s5.mkklcdnv6temp.com/mangakakalot/h1/hajimete_no_aku/vol1_chapter_1_doctor_j_descends/19.jpg",
    "https://img-proxy.imgfo.com/?referer=https://manganelo.com&url=https://s5.mkklcdnv6temp.com/mangakakalot/h1/hajimete_no_aku/vol1_chapter_1_doctor_j_descends/20.jpg",
    "https://img-proxy.imgfo.com/?referer=https://manganelo.com&url=https://s5.mkklcdnv6temp.com/mangakakalot/h1/hajimete_no_aku/vol1_chapter_1_doctor_j_descends/21.jpg",
    "https://img-proxy.imgfo.com/?referer=https://manganelo.com&url=https://s5.mkklcdnv6temp.com/mangakakalot/h1/hajimete_no_aku/vol1_chapter_1_doctor_j_descends/22.jpg",
    "https://img-proxy.imgfo.com/?referer=https://manganelo.com&url=https://s5.mkklcdnv6temp.com/mangakakalot/h1/hajimete_no_aku/vol1_chapter_1_doctor_j_descends/23.jpg",
    "https://img-proxy.imgfo.com/?referer=https://manganelo.com&url=https://s5.mkklcdnv6temp.com/mangakakalot/h1/hajimete_no_aku/vol1_chapter_1_doctor_j_descends/24.jpg",
    "https://img-proxy.imgfo.com/?referer=https://manganelo.com&url=https://s5.mkklcdnv6temp.com/mangakakalot/h1/hajimete_no_aku/vol1_chapter_1_doctor_j_descends/25.jpg",
    "https://img-proxy.imgfo.com/?referer=https://manganelo.com&url=https://s5.mkklcdnv6temp.com/mangakakalot/h1/hajimete_no_aku/vol1_chapter_1_doctor_j_descends/26.jpg",
    "https://img-proxy.imgfo.com/?referer=https://manganelo.com&url=https://s5.mkklcdnv6temp.com/mangakakalot/h1/hajimete_no_aku/vol1_chapter_1_doctor_j_descends/27.jpg",
    "https://img-proxy.imgfo.com/?referer=https://manganelo.com&url=https://s5.mkklcdnv6temp.com/mangakakalot/h1/hajimete_no_aku/vol1_chapter_1_doctor_j_descends/28.jpg",
    "https://img-proxy.imgfo.com/?referer=https://manganelo.com&url=https://s5.mkklcdnv6temp.com/mangakakalot/h1/hajimete_no_aku/vol1_chapter_1_doctor_j_descends/29.jpg",
    "https://img-proxy.imgfo.com/?referer=https://manganelo.com&url=https://s5.mkklcdnv6temp.com/mangakakalot/h1/hajimete_no_aku/vol1_chapter_1_doctor_j_descends/30.jpg",
    "https://img-proxy.imgfo.com/?referer=https://manganelo.com&url=https://s5.mkklcdnv6temp.com/mangakakalot/h1/hajimete_no_aku/vol1_chapter_1_doctor_j_descends/31.jpg",
    "https://img-proxy.imgfo.com/?referer=https://manganelo.com&url=https://s5.mkklcdnv6temp.com/mangakakalot/h1/hajimete_no_aku/vol1_chapter_1_doctor_j_descends/32.jpg",
    "https://img-proxy.imgfo.com/?referer=https://manganelo.com&url=https://s5.mkklcdnv6temp.com/mangakakalot/h1/hajimete_no_aku/vol1_chapter_1_doctor_j_descends/33.jpg",
    "https://img-proxy.imgfo.com/?referer=https://manganelo.com&url=https://s5.mkklcdnv6temp.com/mangakakalot/h1/hajimete_no_aku/vol1_chapter_1_doctor_j_descends/34.jpg",
    "https://img-proxy.imgfo.com/?referer=https://manganelo.com&url=https://s5.mkklcdnv6temp.com/mangakakalot/h1/hajimete_no_aku/vol1_chapter_1_doctor_j_descends/35.jpg",
    "https://img-proxy.imgfo.com/?referer=https://manganelo.com&url=https://s5.mkklcdnv6temp.com/mangakakalot/h1/hajimete_no_aku/vol1_chapter_1_doctor_j_descends/36.jpg",
    "https://img-proxy.imgfo.com/?referer=https://manganelo.com&url=https://s5.mkklcdnv6temp.com/mangakakalot/h1/hajimete_no_aku/vol1_chapter_1_doctor_j_descends/37.jpg",
    "https://img-proxy.imgfo.com/?referer=https://manganelo.com&url=https://s5.mkklcdnv6temp.com/mangakakalot/h1/hajimete_no_aku/vol1_chapter_1_doctor_j_descends/38.jpg",
    "https://img-proxy.imgfo.com/?referer=https://manganelo.com&url=https://s5.mkklcdnv6temp.com/mangakakalot/h1/hajimete_no_aku/vol1_chapter_1_doctor_j_descends/39.jpg",
    "https://img-proxy.imgfo.com/?referer=https://manganelo.com&url=https://s5.mkklcdnv6temp.com/mangakakalot/h1/hajimete_no_aku/vol1_chapter_1_doctor_j_descends/40.jpg",
    "https://img-proxy.imgfo.com/?referer=https://manganelo.com&url=https://s5.mkklcdnv6temp.com/mangakakalot/h1/hajimete_no_aku/vol1_chapter_1_doctor_j_descends/41.jpg",
    "https://img-proxy.imgfo.com/?referer=https://manganelo.com&url=https://s5.mkklcdnv6temp.com/mangakakalot/h1/hajimete_no_aku/vol1_chapter_1_doctor_j_descends/42.jpg",
    "https://img-proxy.imgfo.com/?referer=https://manganelo.com&url=https://s5.mkklcdnv6temp.com/mangakakalot/h1/hajimete_no_aku/vol1_chapter_1_doctor_j_descends/43.jpg",
    "https://img-proxy.imgfo.com/?referer=https://manganelo.com&url=https://s5.mkklcdnv6temp.com/mangakakalot/h1/hajimete_no_aku/vol1_chapter_1_doctor_j_descends/44.jpg",
    "https://img-proxy.imgfo.com/?referer=https://manganelo.com&url=https://s5.mkklcdnv6temp.com/mangakakalot/h1/hajimete_no_aku/vol1_chapter_1_doctor_j_descends/45.jpg",
    "https://img-proxy.imgfo.com/?referer=https://manganelo.com&url=https://s5.mkklcdnv6temp.com/mangakakalot/h1/hajimete_no_aku/vol1_chapter_1_doctor_j_descends/46.jpg",
    "https://img-proxy.imgfo.com/?referer=https://manganelo.com&url=https://s5.mkklcdnv6temp.com/mangakakalot/h1/hajimete_no_aku/vol1_chapter_1_doctor_j_descends/47.jpg",
    "https://img-proxy.imgfo.com/?referer=https://manganelo.com&url=https://s5.mkklcdnv6temp.com/mangakakalot/h1/hajimete_no_aku/vol1_chapter_1_doctor_j_descends/48.jpg",
    "https://img-proxy.imgfo.com/?referer=https://manganelo.com&url=https://s5.mkklcdnv6temp.com/mangakakalot/h1/hajimete_no_aku/vol1_chapter_1_doctor_j_descends/49.jpg",
    "https://img-proxy.imgfo.com/?referer=https://manganelo.com&url=https://s5.mkklcdnv6temp.com/mangakakalot/h1/hajimete_no_aku/vol1_chapter_1_doctor_j_descends/50.jpg",
    "https://img-proxy.imgfo.com/?referer=https://manganelo.com&url=https://s5.mkklcdnv6temp.com/mangakakalot/h1/hajimete_no_aku/vol1_chapter_1_doctor_j_descends/51.jpg",
    "https://img-proxy.imgfo.com/?referer=https://manganelo.com&url=https://s5.mkklcdnv6temp.com/mangakakalot/h1/hajimete_no_aku/vol1_chapter_1_doctor_j_descends/52.jpg",
    "https://img-proxy.imgfo.com/?referer=https://manganelo.com&url=https://s5.mkklcdnv6temp.com/mangakakalot/h1/hajimete_no_aku/vol1_chapter_1_doctor_j_descends/53.jpg"
  ]
}