{
  "cover": "https://avt.mkklcdnv6.com/7/s/7-1583476591.jpg",
  "title": "After School Nightmare",
  "original": "放課後保健室 ; Houkago Hokenshitsu ; The Nurse's Office After School ; L'Infirmerie après cours",
  "genre": "Drama, Gender bender, Horror, Mystery, Psychological, Romance, School life, Shoujo, Supernatural, Tragedy, Manga",
  "author": "Mizushiro Setona",
  "status": "Completed",
  "backlink": "https://manganu.com/collections/mizushiro-setona/after-school-nightmare/",
  "description": "\"Sensei, is this a boy or a girl?\"\n\"Do you want to know?\"\nIchijo Mashiro and fellow classmates are enlisted in a mysterious weekly class that takes the form of a shared nightmare. Like most teenagers, Mashiro has a secret.. he's neither fully male nor female!\nSo far, Mashiro's been able to live life as a boy, but all this changes when he's informed of a new class he 'must' partake in order to graduate from his elite preparatory school. To pass, he must find the key and the one way to find it is to enter into a nightmare world, where his body and soul are put at the mercy of the worst kind of enemies -- other school students, who are battling to find the key.\nFrom renowned author Mizushiro Setona, comes a riveting epic mystery that lies between the students, that will have you engrossed from one page to the next. Happiness, sadness, blood and tears will all be shown, but which one leads to an ending? Take the next step into the world of After School Nightmare!\nFrom Go! Comi:\nLike most teenagers, Mashiro Ichijo has a secret. But Mashiro’s secret is that he’s neither fully male nor female! So far, Mashiro’s been able to live his life as a boy, but all this changes when he’s informed of a new class he must take in order to graduate from his elite prep school. To pass, he must find the “Key”…and the only way to find it is to enter into a nightmare world where his body and soul are put at the mercy of the worst kind of enemies: his classmates!",
  "language": "English",
  "images": [
    "https://img-proxy.imgfo.com/?referer=https://manganelo.com&url=https://s41.mkklcdnv6temp.com/mangakakalot/a1/after_school_nightmare/vol8_chapter_31/1.jpg",
    "https://img-proxy.imgfo.com/?referer=https://manganelo.com&url=https://s41.mkklcdnv6temp.com/mangakakalot/a1/after_school_nightmare/vol8_chapter_31/2.jpg",
    "https://img-proxy.imgfo.com/?referer=https://manganelo.com&url=https://s41.mkklcdnv6temp.com/mangakakalot/a1/after_school_nightmare/vol8_chapter_31/3.jpg",
    "https://img-proxy.imgfo.com/?referer=https://manganelo.com&url=https://s41.mkklcdnv6temp.com/mangakakalot/a1/after_school_nightmare/vol8_chapter_31/4.jpg",
    "https://img-proxy.imgfo.com/?referer=https://manganelo.com&url=https://s41.mkklcdnv6temp.com/mangakakalot/a1/after_school_nightmare/vol8_chapter_31/5.jpg",
    "https://img-proxy.imgfo.com/?referer=https://manganelo.com&url=https://s41.mkklcdnv6temp.com/mangakakalot/a1/after_school_nightmare/vol8_chapter_31/6.jpg",
    "https://img-proxy.imgfo.com/?referer=https://manganelo.com&url=https://s41.mkklcdnv6temp.com/mangakakalot/a1/after_school_nightmare/vol8_chapter_31/7.jpg",
    "https://img-proxy.imgfo.com/?referer=https://manganelo.com&url=https://s41.mkklcdnv6temp.com/mangakakalot/a1/after_school_nightmare/vol8_chapter_31/8.jpg",
    "https://img-proxy.imgfo.com/?referer=https://manganelo.com&url=https://s41.mkklcdnv6temp.com/mangakakalot/a1/after_school_nightmare/vol8_chapter_31/9.jpg",
    "https://img-proxy.imgfo.com/?referer=https://manganelo.com&url=https://s41.mkklcdnv6temp.com/mangakakalot/a1/after_school_nightmare/vol8_chapter_31/10.jpg",
    "https://img-proxy.imgfo.com/?referer=https://manganelo.com&url=https://s41.mkklcdnv6temp.com/mangakakalot/a1/after_school_nightmare/vol8_chapter_31/11.jpg",
    "https://img-proxy.imgfo.com/?referer=https://manganelo.com&url=https://s41.mkklcdnv6temp.com/mangakakalot/a1/after_school_nightmare/vol8_chapter_31/12.jpg",
    "https://img-proxy.imgfo.com/?referer=https://manganelo.com&url=https://s41.mkklcdnv6temp.com/mangakakalot/a1/after_school_nightmare/vol8_chapter_31/13.jpg",
    "https://img-proxy.imgfo.com/?referer=https://manganelo.com&url=https://s41.mkklcdnv6temp.com/mangakakalot/a1/after_school_nightmare/vol8_chapter_31/14.jpg",
    "https://img-proxy.imgfo.com/?referer=https://manganelo.com&url=https://s41.mkklcdnv6temp.com/mangakakalot/a1/after_school_nightmare/vol8_chapter_31/15.jpg",
    "https://img-proxy.imgfo.com/?referer=https://manganelo.com&url=https://s41.mkklcdnv6temp.com/mangakakalot/a1/after_school_nightmare/vol8_chapter_31/16.jpg",
    "https://img-proxy.imgfo.com/?referer=https://manganelo.com&url=https://s41.mkklcdnv6temp.com/mangakakalot/a1/after_school_nightmare/vol8_chapter_31/17.jpg",
    "https://img-proxy.imgfo.com/?referer=https://manganelo.com&url=https://s41.mkklcdnv6temp.com/mangakakalot/a1/after_school_nightmare/vol8_chapter_31/18.jpg",
    "https://img-proxy.imgfo.com/?referer=https://manganelo.com&url=https://s41.mkklcdnv6temp.com/mangakakalot/a1/after_school_nightmare/vol8_chapter_31/19.jpg",
    "https://img-proxy.imgfo.com/?referer=https://manganelo.com&url=https://s41.mkklcdnv6temp.com/mangakakalot/a1/after_school_nightmare/vol8_chapter_31/20.jpg",
    "https://img-proxy.imgfo.com/?referer=https://manganelo.com&url=https://s41.mkklcdnv6temp.com/mangakakalot/a1/after_school_nightmare/vol8_chapter_31/21.jpg",
    "https://img-proxy.imgfo.com/?referer=https://manganelo.com&url=https://s41.mkklcdnv6temp.com/mangakakalot/a1/after_school_nightmare/vol8_chapter_31/22.jpg",
    "https://img-proxy.imgfo.com/?referer=https://manganelo.com&url=https://s41.mkklcdnv6temp.com/mangakakalot/a1/after_school_nightmare/vol8_chapter_31/23.jpg",
    "https://img-proxy.imgfo.com/?referer=https://manganelo.com&url=https://s41.mkklcdnv6temp.com/mangakakalot/a1/after_school_nightmare/vol8_chapter_31/24.jpg",
    "https://img-proxy.imgfo.com/?referer=https://manganelo.com&url=https://s41.mkklcdnv6temp.com/mangakakalot/a1/after_school_nightmare/vol8_chapter_31/25.jpg",
    "https://img-proxy.imgfo.com/?referer=https://manganelo.com&url=https://s41.mkklcdnv6temp.com/mangakakalot/a1/after_school_nightmare/vol8_chapter_31/26.jpg",
    "https://img-proxy.imgfo.com/?referer=https://manganelo.com&url=https://s41.mkklcdnv6temp.com/mangakakalot/a1/after_school_nightmare/vol8_chapter_31/27.jpg",
    "https://img-proxy.imgfo.com/?referer=https://manganelo.com&url=https://s41.mkklcdnv6temp.com/mangakakalot/a1/after_school_nightmare/vol8_chapter_31/28.jpg",
    "https://img-proxy.imgfo.com/?referer=https://manganelo.com&url=https://s41.mkklcdnv6temp.com/mangakakalot/a1/after_school_nightmare/vol8_chapter_31/29.jpg",
    "https://img-proxy.imgfo.com/?referer=https://manganelo.com&url=https://s41.mkklcdnv6temp.com/mangakakalot/a1/after_school_nightmare/vol8_chapter_31/30.jpg",
    "https://img-proxy.imgfo.com/?referer=https://manganelo.com&url=https://s41.mkklcdnv6temp.com/mangakakalot/a1/after_school_nightmare/vol8_chapter_31/31.jpg",
    "https://img-proxy.imgfo.com/?referer=https://manganelo.com&url=https://s41.mkklcdnv6temp.com/mangakakalot/a1/after_school_nightmare/vol8_chapter_31/32.jpg",
    "https://img-proxy.imgfo.com/?referer=https://manganelo.com&url=https://s41.mkklcdnv6temp.com/mangakakalot/a1/after_school_nightmare/vol8_chapter_31/33.jpg",
    "https://img-proxy.imgfo.com/?referer=https://manganelo.com&url=https://s41.mkklcdnv6temp.com/mangakakalot/a1/after_school_nightmare/vol8_chapter_31/34.jpg",
    "https://img-proxy.imgfo.com/?referer=https://manganelo.com&url=https://s41.mkklcdnv6temp.com/mangakakalot/a1/after_school_nightmare/vol8_chapter_31/35.jpg",
    "https://img-proxy.imgfo.com/?referer=https://manganelo.com&url=https://s41.mkklcdnv6temp.com/mangakakalot/a1/after_school_nightmare/vol8_chapter_31/36.jpg",
    "https://img-proxy.imgfo.com/?referer=https://manganelo.com&url=https://s41.mkklcdnv6temp.com/mangakakalot/a1/after_school_nightmare/vol8_chapter_31/37.jpg",
    "https://img-proxy.imgfo.com/?referer=https://manganelo.com&url=https://s41.mkklcdnv6temp.com/mangakakalot/a1/after_school_nightmare/vol8_chapter_31/38.jpg",
    "https://img-proxy.imgfo.com/?referer=https://manganelo.com&url=https://s41.mkklcdnv6temp.com/mangakakalot/a1/after_school_nightmare/vol8_chapter_31/39.jpg",
    "https://img-proxy.imgfo.com/?referer=https://manganelo.com&url=https://s41.mkklcdnv6temp.com/mangakakalot/a1/after_school_nightmare/vol8_chapter_31/40.jpg"
  ]
}