{
  "cover": "https://avt.mkklcdnv6.com/9/q/5-1583472235.jpg",
  "title": "Oedo Wa Nemuranai!",
  "original": "お江戸はねむれない！ ; Edo không ngủ yên ; Edo Never Sleeps ; Oedo wa Nemuranai",
  "genre": "Comedy, Drama, Fantasy, Harem, Historical, Romance, Shoujo, Manga",
  "author": "Honda Keiko",
  "status": "Completed",
  "backlink": "https://manganu.com/collections/honda-keiko/oedo-wa-nemuranai/",
  "description": "From Wingtip Cafe:\nIn Edo (ancient Japan), an oiran (high-class courtesan) joined a robber gang that stole from the rich and gave to the poor. Together, they battled against the enemy who used ‘Eleki’ (electric gadgetry and dolls) as weapons.",
  "language": "English",
  "images": [
    "https://img-proxy.imgfo.com/?referer=https://manganelo.com&url=https://s6.mkklcdnv6temp.com/mangakakalot/o1/oedo_wa_nemuranai/vol2_chapter_12/1.jpg",
    "https://img-proxy.imgfo.com/?referer=https://manganelo.com&url=https://s6.mkklcdnv6temp.com/mangakakalot/o1/oedo_wa_nemuranai/vol2_chapter_12/2.jpg",
    "https://img-proxy.imgfo.com/?referer=https://manganelo.com&url=https://s6.mkklcdnv6temp.com/mangakakalot/o1/oedo_wa_nemuranai/vol2_chapter_12/3.jpg",
    "https://img-proxy.imgfo.com/?referer=https://manganelo.com&url=https://s6.mkklcdnv6temp.com/mangakakalot/o1/oedo_wa_nemuranai/vol2_chapter_12/4.jpg",
    "https://img-proxy.imgfo.com/?referer=https://manganelo.com&url=https://s6.mkklcdnv6temp.com/mangakakalot/o1/oedo_wa_nemuranai/vol2_chapter_12/5.jpg",
    "https://img-proxy.imgfo.com/?referer=https://manganelo.com&url=https://s6.mkklcdnv6temp.com/mangakakalot/o1/oedo_wa_nemuranai/vol2_chapter_12/6.jpg",
    "https://img-proxy.imgfo.com/?referer=https://manganelo.com&url=https://s6.mkklcdnv6temp.com/mangakakalot/o1/oedo_wa_nemuranai/vol2_chapter_12/7.jpg",
    "https://img-proxy.imgfo.com/?referer=https://manganelo.com&url=https://s6.mkklcdnv6temp.com/mangakakalot/o1/oedo_wa_nemuranai/vol2_chapter_12/8.jpg",
    "https://img-proxy.imgfo.com/?referer=https://manganelo.com&url=https://s6.mkklcdnv6temp.com/mangakakalot/o1/oedo_wa_nemuranai/vol2_chapter_12/9.jpg",
    "https://img-proxy.imgfo.com/?referer=https://manganelo.com&url=https://s6.mkklcdnv6temp.com/mangakakalot/o1/oedo_wa_nemuranai/vol2_chapter_12/10.jpg",
    "https://img-proxy.imgfo.com/?referer=https://manganelo.com&url=https://s6.mkklcdnv6temp.com/mangakakalot/o1/oedo_wa_nemuranai/vol2_chapter_12/11.jpg",
    "https://img-proxy.imgfo.com/?referer=https://manganelo.com&url=https://s6.mkklcdnv6temp.com/mangakakalot/o1/oedo_wa_nemuranai/vol2_chapter_12/12.jpg",
    "https://img-proxy.imgfo.com/?referer=https://manganelo.com&url=https://s6.mkklcdnv6temp.com/mangakakalot/o1/oedo_wa_nemuranai/vol2_chapter_12/13.jpg",
    "https://img-proxy.imgfo.com/?referer=https://manganelo.com&url=https://s6.mkklcdnv6temp.com/mangakakalot/o1/oedo_wa_nemuranai/vol2_chapter_12/14.jpg",
    "https://img-proxy.imgfo.com/?referer=https://manganelo.com&url=https://s6.mkklcdnv6temp.com/mangakakalot/o1/oedo_wa_nemuranai/vol2_chapter_12/15.jpg",
    "https://img-proxy.imgfo.com/?referer=https://manganelo.com&url=https://s6.mkklcdnv6temp.com/mangakakalot/o1/oedo_wa_nemuranai/vol2_chapter_12/16.jpg",
    "https://img-proxy.imgfo.com/?referer=https://manganelo.com&url=https://s6.mkklcdnv6temp.com/mangakakalot/o1/oedo_wa_nemuranai/vol2_chapter_12/17.jpg",
    "https://img-proxy.imgfo.com/?referer=https://manganelo.com&url=https://s6.mkklcdnv6temp.com/mangakakalot/o1/oedo_wa_nemuranai/vol2_chapter_12/18.jpg",
    "https://img-proxy.imgfo.com/?referer=https://manganelo.com&url=https://s6.mkklcdnv6temp.com/mangakakalot/o1/oedo_wa_nemuranai/vol2_chapter_12/19.jpg",
    "https://img-proxy.imgfo.com/?referer=https://manganelo.com&url=https://s6.mkklcdnv6temp.com/mangakakalot/o1/oedo_wa_nemuranai/vol2_chapter_12/20.jpg",
    "https://img-proxy.imgfo.com/?referer=https://manganelo.com&url=https://s6.mkklcdnv6temp.com/mangakakalot/o1/oedo_wa_nemuranai/vol2_chapter_12/21.jpg",
    "https://img-proxy.imgfo.com/?referer=https://manganelo.com&url=https://s6.mkklcdnv6temp.com/mangakakalot/o1/oedo_wa_nemuranai/vol2_chapter_12/22.jpg",
    "https://img-proxy.imgfo.com/?referer=https://manganelo.com&url=https://s6.mkklcdnv6temp.com/mangakakalot/o1/oedo_wa_nemuranai/vol2_chapter_12/23.jpg",
    "https://img-proxy.imgfo.com/?referer=https://manganelo.com&url=https://s6.mkklcdnv6temp.com/mangakakalot/o1/oedo_wa_nemuranai/vol2_chapter_12/24.jpg",
    "https://img-proxy.imgfo.com/?referer=https://manganelo.com&url=https://s6.mkklcdnv6temp.com/mangakakalot/o1/oedo_wa_nemuranai/vol2_chapter_12/25.jpg",
    "https://img-proxy.imgfo.com/?referer=https://manganelo.com&url=https://s6.mkklcdnv6temp.com/mangakakalot/o1/oedo_wa_nemuranai/vol2_chapter_12/26.jpg",
    "https://img-proxy.imgfo.com/?referer=https://manganelo.com&url=https://s6.mkklcdnv6temp.com/mangakakalot/o1/oedo_wa_nemuranai/vol2_chapter_12/27.jpg",
    "https://img-proxy.imgfo.com/?referer=https://manganelo.com&url=https://s6.mkklcdnv6temp.com/mangakakalot/o1/oedo_wa_nemuranai/vol2_chapter_12/28.jpg",
    "https://img-proxy.imgfo.com/?referer=https://manganelo.com&url=https://s6.mkklcdnv6temp.com/mangakakalot/o1/oedo_wa_nemuranai/vol2_chapter_12/29.jpg",
    "https://img-proxy.imgfo.com/?referer=https://manganelo.com&url=https://s6.mkklcdnv6temp.com/mangakakalot/o1/oedo_wa_nemuranai/vol2_chapter_12/30.jpg",
    "https://img-proxy.imgfo.com/?referer=https://manganelo.com&url=https://s6.mkklcdnv6temp.com/mangakakalot/o1/oedo_wa_nemuranai/vol2_chapter_12/31.jpg"
  ]
}