{
  "cover": "http://ww1.heaventoon.com/content/upload/images/Kimi-No-Iru-Machi.jpg",
  "title": "Kimi no Iru Machi",
  "genre": "Drama, Manga, Romance, School Life, Shounen",
  "author": "SEO Kouji",
  "status": "Completed",
  "backlink": "https://manganu.com/collections/seo-kouji/kimi-no-iru-machi/",
  "description": "Yuzuki Eba has mysteriously decided to go to high school in the countryside. But despite Haruto Kirishima&nbsp;objections, she is living in his home. Now he has to put up with a freeloading city girl and even worse, make sure Nanami Kanzaki, the girl he likes, doesnot get the wrong idea!",
  "language": "English",
  "images": [
    "http://2.bp.blogspot.com/-LDjme7DHiBI/VlfyuNy-VWI/AAAAAAADft4/PGMByHS5kQ8/s16000/0024.5-001.jpg",
    "http://2.bp.blogspot.com/-QVj1h6sPeBk/Vlf0NSNy96I/AAAAAAADf8o/fzPRVo2q2Jw/s16000/0024.5-002.jpg",
    "http://2.bp.blogspot.com/-SNaDzs36_RA/Vlfrba-OMnI/AAAAAAADdbc/bCPiCHGvolo/s16000/0024.5-003.jpg",
    "http://2.bp.blogspot.com/-bIjuDLZYEp8/VlfwkWHDvRI/AAAAAAADezY/mz0K7W16Y74/s16000/0024.5-004.jpg",
    "http://2.bp.blogspot.com/-q_-LNV9TkyM/Vlfv9qCXjXI/AAAAAAADe1M/G0bkYy6zvnI/s16000/0024.5-005.jpg",
    "http://2.bp.blogspot.com/--Sx1I4E3FxY/Vlfq3fR6IzI/AAAAAAADdQk/MslQwG3Jf2c/s16000/0024.5-006.jpg",
    "http://2.bp.blogspot.com/-4864kOn9lug/VlfyCB_pBvI/AAAAAAADfaY/GDMwIy7nkzM/s16000/0024.5-007.jpg",
    "http://2.bp.blogspot.com/-TDiEBjlePZ4/Vlf08CFF2bI/AAAAAAADgao/-Bfa0kJg6Hc/s16000/0024.5-008.jpg",
    "http://2.bp.blogspot.com/-wLiQj5-IYXw/VlfxDZsVtKI/AAAAAAADfAg/XsyXAKC2qBs/s16000/0024.5-009.jpg",
    "http://2.bp.blogspot.com/-btjl8hli_9c/Vlfq_qX0fwI/AAAAAAADdTU/BdehxE_Gl1w/s16000/0024.5-010.jpg",
    "http://2.bp.blogspot.com/-1Xnx0PDxcRA/VlfwPX1b6HI/AAAAAAADesU/yjmZc3jWjQk/s16000/0024.5-011.jpg"
  ]
}