{
  "cover": "http://ww1.heaventoon.com/content/upload/images/Kimi-No-Iru-Machi.jpg",
  "title": "Kimi no Iru Machi",
  "genre": "Drama, Manga, Romance, School Life, Shounen",
  "author": "SEO Kouji",
  "status": "Completed",
  "backlink": "https://manganu.com/collections/seo-kouji/kimi-no-iru-machi/",
  "description": "Yuzuki Eba has mysteriously decided to go to high school in the countryside. But despite Haruto Kirishima&nbsp;objections, she is living in his home. Now he has to put up with a freeloading city girl and even worse, make sure Nanami Kanzaki, the girl he likes, doesnot get the wrong idea!",
  "language": "English",
  "images": [
    "http://2.bp.blogspot.com/-XxQ-AG0hbbU/VlezLEe-ccI/AAAAAAADMn0/fgVD4gDfliI/s16000/0245-001.jpg",
    "http://2.bp.blogspot.com/-Q0ei8jU2stg/VleqdHYBGLI/AAAAAAADJ1k/yA15jRVtR1A/s16000/0245-002.jpg",
    "http://2.bp.blogspot.com/-vov8VBU2Um8/VlevwtxX6lI/AAAAAAADLfA/gA4hTnMZia8/s16000/0245-003.jpg",
    "http://2.bp.blogspot.com/-7JVxDwBGGyI/Vletgteqe8I/AAAAAAADKvQ/VHc_cNxWt64/s16000/0245-004.jpg",
    "http://2.bp.blogspot.com/-MXvyhpIv0_s/VlepP5OXSTI/AAAAAAADJaQ/Q68KFDO5Imc/s16000/0245-005.jpg",
    "http://2.bp.blogspot.com/-1mbOmOZeC88/VleuC_SA5tI/AAAAAAADK5Y/oICe-8X2l7s/s16000/0245-006.jpg",
    "http://2.bp.blogspot.com/-a8ch4lcvn2Y/VlexISwHl8I/AAAAAAADL78/xrCUarc8z_s/s16000/0245-007.jpg",
    "http://2.bp.blogspot.com/-jeG2o1GlFpc/VlepxnqAzvI/AAAAAAADJhY/OCjG_chBv5Y/s16000/0245-008.jpg",
    "http://2.bp.blogspot.com/-tmivyhyhGfo/Vlerre-l2MI/AAAAAAADKM0/i72g-Mko8R8/s16000/0245-009.jpg",
    "http://2.bp.blogspot.com/-BMKTJkRUemY/VlerEG_Ni2I/AAAAAAADKAY/-u7dBzIit6Y/s16000/0245-010.jpg",
    "http://2.bp.blogspot.com/-0W7CYnULRE8/VleuHQl4B5I/AAAAAAADK8s/TVCdTc4AeQ4/s16000/0245-011.jpg",
    "http://2.bp.blogspot.com/-om3Zi6zah9U/VlevAwNKu5I/AAAAAAADLOU/3diPbq3Ad70/s16000/0245-012.jpg",
    "http://2.bp.blogspot.com/-jhzYY2L2aOQ/Vleuzj6z7XI/AAAAAAADLKE/Cq7ejI2YTto/s16000/0245-013.jpg",
    "http://2.bp.blogspot.com/-EHwS9nXbTPc/VlewZRNFv8I/AAAAAAADLsk/Yh2zSrShQwI/s16000/0245-014.jpg",
    "http://2.bp.blogspot.com/-N5hN13_4S3E/VlewcZU5QhI/AAAAAAADLtc/Hw1FmPFTkt0/s16000/0245-015.jpg",
    "http://2.bp.blogspot.com/-FdkPiOkdFy4/Vleq_cPJRBI/AAAAAAADKAo/JOIjvjKXA1M/s16000/0245-016.jpg",
    "http://2.bp.blogspot.com/-Ak6nIqHcElY/VleqWl9TPnI/AAAAAAADJtc/kjb7wz2qrEM/s16000/0245-017.jpg",
    "http://2.bp.blogspot.com/-nucqwFbACEA/Vlevr1nDD8I/AAAAAAADLdU/dwBVVTKBBiw/s16000/0245-018.jpg",
    "http://2.bp.blogspot.com/-AU5w4dVZOAI/VlevFj393_I/AAAAAAADLP8/yAZBC0bnZ6Y/s16000/0245-019.jpg"
  ]
}