{
  "cover": "http://ww1.heaventoon.com/content/upload/images/Kimi-No-Iru-Machi.jpg",
  "title": "Kimi no Iru Machi",
  "genre": "Drama, Manga, Romance, School Life, Shounen",
  "author": "SEO Kouji",
  "status": "Completed",
  "backlink": "https://manganu.com/collections/seo-kouji/kimi-no-iru-machi/",
  "description": "Yuzuki Eba has mysteriously decided to go to high school in the countryside. But despite Haruto Kirishima&nbsp;objections, she is living in his home. Now he has to put up with a freeloading city girl and even worse, make sure Nanami Kanzaki, the girl he likes, doesnot get the wrong idea!",
  "language": "English",
  "images": [
    "http://2.bp.blogspot.com/-JIkBUsaJSLQ/VleDjzvMB0I/AAAAAAAC-QM/OEX2D2gAvu0/s16000/0177-001.jpg",
    "http://2.bp.blogspot.com/-Kklhin3-dyY/Vld97uqT2oI/AAAAAAAC8gI/REZ0AGRk0yI/s16000/0177-002.jpg",
    "http://2.bp.blogspot.com/-PlbBjrv5hWs/Vld-F0lHQiI/AAAAAAAC8jY/KCQIMTrxnQw/s16000/0177-003.jpg",
    "http://2.bp.blogspot.com/-LJpsTL7Y2VE/VleDTiPVH8I/AAAAAAAC-K4/K2zX1zDOL2E/s16000/0177-004.jpg",
    "http://2.bp.blogspot.com/-zxuRwzHN1j8/Vld7gyX02cI/AAAAAAAC7s4/T-p5un-RbXE/s16000/0177-005.jpg",
    "http://2.bp.blogspot.com/-6z6b8Ru-JfI/Vld_H9uKZoI/AAAAAAAC84w/3ijJFxxv5BY/s16000/0177-006.jpg",
    "http://2.bp.blogspot.com/-7qxB3hKuB7A/VleBKDYN2uI/AAAAAAAC9g8/ZcrPqhBVheQ/s16000/0177-007.jpg",
    "http://2.bp.blogspot.com/-jpmf5AboWdk/VleC2dVi9UI/AAAAAAAC-Cc/KKC7pJBiQy4/s16000/0177-008.jpg",
    "http://2.bp.blogspot.com/-E1eAG2mWDBE/Vld7tifwi-I/AAAAAAAC7w4/P6oIuLecjAM/s16000/0177-009.jpg",
    "http://2.bp.blogspot.com/-R0fPn4wLKg8/Vld_FqjwO3I/AAAAAAAC830/SHzhbys7Tvo/s16000/0177-010.jpg",
    "http://2.bp.blogspot.com/-W_SXJe3Dwew/VleDwnkTk3I/AAAAAAAC-UM/Bpo2Fl4uzxo/s16000/0177-011.jpg",
    "http://2.bp.blogspot.com/-pvxfkFlOCWk/Vld8X4ZzGhI/AAAAAAAC7_U/8wq_rhybu70/s16000/0177-012.jpg",
    "http://2.bp.blogspot.com/-I7mzR-Tqsj8/Vld_IjM4aLI/AAAAAAAC85Y/lcrLL1mLOrE/s16000/0177-013.jpg",
    "http://2.bp.blogspot.com/-46mC51urLEI/Vld7oUZ5YZI/AAAAAAAC7vc/IQmj-sPmLro/s16000/0177-014.jpg",
    "http://2.bp.blogspot.com/-hMJA2yeMABc/Vld90rt5mAI/AAAAAAAC8d0/qZHcWin8Ouw/s16000/0177-015.jpg",
    "http://2.bp.blogspot.com/-vTpmYetzL54/VleCn77gXHI/AAAAAAAC99s/vLywnmgBpIM/s16000/0177-016.jpg",
    "http://2.bp.blogspot.com/-z4hm0Cr9xJ0/VleDtTBpBJI/AAAAAAAC-TI/X9qNKpa4uQo/s16000/0177-017.jpg",
    "http://2.bp.blogspot.com/-KjIGW7gZd1s/VleB8utS-PI/AAAAAAAC9vw/Pyjo_YCMYhA/s16000/0177-018.jpg",
    "http://2.bp.blogspot.com/-4e23UoCg5XM/Vld8BB9gJDI/AAAAAAAC73k/v9XG2XlRw_o/s16000/0177-019.jpg"
  ]
}