{
  "cover": "http://ww1.heaventoon.com/content/upload/images/Kimi-No-Iru-Machi.jpg",
  "title": "Kimi no Iru Machi",
  "genre": "Drama, Manga, Romance, School Life, Shounen",
  "author": "SEO Kouji",
  "status": "Completed",
  "backlink": "https://manganu.com/collections/seo-kouji/kimi-no-iru-machi/",
  "description": "Yuzuki Eba has mysteriously decided to go to high school in the countryside. But despite Haruto Kirishima&nbsp;objections, she is living in his home. Now he has to put up with a freeloading city girl and even worse, make sure Nanami Kanzaki, the girl he likes, doesnot get the wrong idea!",
  "language": "English",
  "images": [
    "http://2.bp.blogspot.com/-vTd9hq9vP6s/VleE9LSIozI/AAAAAAAC-rw/N4KFTC_WWdY/s16000/0159-001.jpg",
    "http://2.bp.blogspot.com/-s9c_irNOYk8/Vld_r-b7DeI/AAAAAAAC9EE/PZdf4WoGJWM/s16000/0159-002.jpg",
    "http://2.bp.blogspot.com/-aBNZEB0esuw/Vld9V42tugI/AAAAAAAC8Ts/JrBFyMJgPbY/s16000/0159-003.jpg",
    "http://2.bp.blogspot.com/-SUHLDCROi_k/Vld8Gw0QqCI/AAAAAAAC75c/4dDDUlcaLqo/s16000/0159-004.jpg",
    "http://2.bp.blogspot.com/-P1_PUlzwHLg/VleFGrAwvEI/AAAAAAAC-uw/n2T3ty7d7ns/s16000/0159-005.jpg",
    "http://2.bp.blogspot.com/-cS88UgjJ8tQ/VleE46wBFJI/AAAAAAAC-qk/9RSt-bIUT9Y/s16000/0159-006.jpg",
    "http://2.bp.blogspot.com/-l09LayNWQ_c/Vld8Bw622_I/AAAAAAAC730/_6EGiQyDdKw/s16000/0159-007.jpg",
    "http://2.bp.blogspot.com/-OihGZ5F9wu4/VleEpWQeLbI/AAAAAAAC-ls/GG_XlSLRpOk/s16000/0159-008.jpg",
    "http://2.bp.blogspot.com/-ijF3wUiAwQU/Vld7s0oGfnI/AAAAAAAC7xQ/hu2T_Fe9v7M/s16000/0159-009.jpg",
    "http://2.bp.blogspot.com/-HfT2zNVS9hI/VleER13CSZI/AAAAAAAC-ec/rHxCXG59yX0/s16000/0159-010.jpg",
    "http://2.bp.blogspot.com/-F7CVKU-PuM8/Vld9FLWYYuI/AAAAAAAC8OE/AYQZWld3H8I/s16000/0159-011.jpg",
    "http://2.bp.blogspot.com/-ZFgj9aKmLx4/Vld78fNeOJI/AAAAAAAC718/sllyHEKivyU/s16000/0159-012.jpg",
    "http://2.bp.blogspot.com/-2EXn7wlmkmU/Vld8WEFb9JI/AAAAAAAC7-s/XIMfDvFIL5g/s16000/0159-013.jpg",
    "http://2.bp.blogspot.com/-DsyzrDtFWFs/Vld7rIX2TYI/AAAAAAAC7wU/-Q_OTIvRrhE/s16000/0159-014.jpg",
    "http://2.bp.blogspot.com/-kdWWzVkORMw/VleDxqjiGVI/AAAAAAAC-Uk/Kd5jgTlMWnk/s16000/0159-015.jpg",
    "http://2.bp.blogspot.com/-iXEkmUtFRew/Vld9u_NJLiI/AAAAAAAC8bw/mxeWOQ8B9p4/s16000/0159-016.jpg",
    "http://2.bp.blogspot.com/-iQZNEeLC8LU/Vld7BvF7rtI/AAAAAAAC7i0/rJQaxifXmaY/s16000/0159-017.jpg",
    "http://2.bp.blogspot.com/-OGc86pvwl7w/VleB9cyARtI/AAAAAAAC9wA/cnG52RScbDw/s16000/0159-018.jpg",
    "http://2.bp.blogspot.com/-vyhHBPDM3Kc/VleCG351LKI/AAAAAAAC9zI/h5vxhTeufA4/s16000/0159-019.jpg"
  ]
}