{
  "cover": "http://ww1.heaventoon.com/content/upload/images/Kimi-No-Iru-Machi.jpg",
  "title": "Kimi no Iru Machi",
  "genre": "Drama, Manga, Romance, School Life, Shounen",
  "author": "SEO Kouji",
  "status": "Completed",
  "backlink": "https://manganu.com/collections/seo-kouji/kimi-no-iru-machi/",
  "description": "Yuzuki Eba has mysteriously decided to go to high school in the countryside. But despite Haruto Kirishima&nbsp;objections, she is living in his home. Now he has to put up with a freeloading city girl and even worse, make sure Nanami Kanzaki, the girl he likes, doesnot get the wrong idea!",
  "language": "English",
  "images": [
    "http://2.bp.blogspot.com/-vvWFvqomuA0/VlerQNTv9WI/AAAAAAADKBQ/V51MPDM0lXQ/s16000/0190.5-001.jpg",
    "http://2.bp.blogspot.com/-srNOYJhwScw/VlevffqPE2I/AAAAAAADLZU/nwn809wbVtM/s16000/0190.5-002.jpg",
    "http://2.bp.blogspot.com/-aBtCFAWfOuM/VleuvI5IfTI/AAAAAAADLIs/OuCejuurUjc/s16000/0190.5-003.jpg",
    "http://2.bp.blogspot.com/-nXDKDxjuQxE/VlesqHCEVRI/AAAAAAADKiE/CPr5CiEZjh0/s16000/0190.5-004.jpg",
    "http://2.bp.blogspot.com/-I4ZYs2JMls0/VleqBukomzI/AAAAAAADJnI/J2MwUhYZz6A/s16000/0190.5-005.jpg",
    "http://2.bp.blogspot.com/-42sH-tuaFLg/Vlev8AGD6WI/AAAAAAADLx0/JLv6uXGXcho/s16000/0190.5-006.jpg",
    "http://2.bp.blogspot.com/-4nCRCcroPb8/VlezIspJUZI/AAAAAAADMms/1hSkTJVif50/s16000/0190.5-007.jpg",
    "http://2.bp.blogspot.com/-qErDpXf6WzU/VleyeSFj0rI/AAAAAAADMa4/guOkQxJmxgs/s16000/0190.5-008.jpg",
    "http://2.bp.blogspot.com/-vvJTUJTLOPk/VlesurWJjXI/AAAAAAADKek/dTN4DZd7K2g/s16000/0190.5-009.jpg"
  ]
}