{
  "cover": "http://ww1.heaventoon.com/content/upload/images/Kimi-No-Iru-Machi.jpg",
  "title": "Kimi no Iru Machi",
  "genre": "Drama, Manga, Romance, School Life, Shounen",
  "author": "SEO Kouji",
  "status": "Completed",
  "backlink": "https://manganu.com/collections/seo-kouji/kimi-no-iru-machi/",
  "description": "Yuzuki Eba has mysteriously decided to go to high school in the countryside. But despite Haruto Kirishima&nbsp;objections, she is living in his home. Now he has to put up with a freeloading city girl and even worse, make sure Nanami Kanzaki, the girl he likes, doesnot get the wrong idea!",
  "language": "English",
  "images": [
    "http://2.bp.blogspot.com/-7TwG_td6pEg/VlexMQHVlcI/AAAAAAADL9Y/GDLzWa7vlGQ/s16000/0232-001.jpg",
    "http://2.bp.blogspot.com/-CZ_cLCefvnU/VlesOTtls8I/AAAAAAADKZU/vc3yl2b8HPY/s16000/0232-002.jpg",
    "http://2.bp.blogspot.com/-cy5ppNSZ71U/VlesZNYAZBI/AAAAAAADKXg/Cy_XpNkuCyk/s16000/0232-003.jpg",
    "http://2.bp.blogspot.com/-cxMD0YopK2Y/VlevGB3z8GI/AAAAAAADLRk/uyphq5GbKko/s16000/0232-004.jpg",
    "http://2.bp.blogspot.com/-DAxpNy-Mwuk/Vler8nb0Z_I/AAAAAAADKPI/ji_svSghW88/s16000/0232-005.jpg",
    "http://2.bp.blogspot.com/-_ZxfJ2otqE4/Vler2Dy3RWI/AAAAAAADKNg/aOfnyGd78yU/s16000/0232-006.jpg",
    "http://2.bp.blogspot.com/-vPoY7zazIWk/Vlerd39B3vI/AAAAAAADKLc/vIq0gHb-7iw/s16000/0232-007.jpg",
    "http://2.bp.blogspot.com/-RFcYwobkSRg/VleuPDvsf9I/AAAAAAADK94/W4U7rMCAmKE/s16000/0232-008.jpg",
    "http://2.bp.blogspot.com/-REFql8P6JNc/VlewyhSKbBI/AAAAAAADL4Y/xwrgxOlzUu0/s16000/0232-009.jpg",
    "http://2.bp.blogspot.com/-hIxH04J2yDU/Vlex0EYquAI/AAAAAAADMMQ/LA0qH005xhA/s16000/0232-010.jpg",
    "http://2.bp.blogspot.com/-QnvpLowUwVY/VleumYfqkWI/AAAAAAADLFk/0COb3NDUccY/s16000/0232-011.jpg",
    "http://2.bp.blogspot.com/-Q7sKLND54Rs/VlesVepFr7I/AAAAAAADKWI/yRDpoP8VzKE/s16000/0232-012.jpg",
    "http://2.bp.blogspot.com/-PCJ425I2vMI/VlesDA8uo6I/AAAAAAADKR8/XJKKF8GDZes/s16000/0232-013.jpg",
    "http://2.bp.blogspot.com/-kGwHeFQ64io/VlerPGiIXDI/AAAAAAADKA0/dD8FYGA3DDo/s16000/0232-014.jpg",
    "http://2.bp.blogspot.com/-mwKTPJmlAz8/Vlew9p83EoI/AAAAAAADL4I/HdEM9rzBGOc/s16000/0232-015.jpg",
    "http://2.bp.blogspot.com/-lmqHYVTjDOI/VlexmKmYuCI/AAAAAAADMF8/i-f0BsbjQjc/s16000/0232-016.jpg",
    "http://2.bp.blogspot.com/-dakNB_Zd3uM/VletpVJOISI/AAAAAAADLAI/xZe8GQ6HTWM/s16000/0232-017.jpg",
    "http://2.bp.blogspot.com/-X1GHpLu4MaU/Vleq51sxezI/AAAAAAADJ5s/kdAljn0oAsU/s16000/0232-018.jpg",
    "http://2.bp.blogspot.com/-4dtEOKwoJQc/Vlerfsn6WaI/AAAAAAADKGk/ROy0bsU9j-4/s16000/0232-019.jpg"
  ]
}