{
  "cover": "http://ww1.heaventoon.com/content/upload/images/Kimi-No-Iru-Machi.jpg",
  "title": "Kimi no Iru Machi",
  "genre": "Drama, Manga, Romance, School Life, Shounen",
  "author": "SEO Kouji",
  "status": "Completed",
  "backlink": "https://manganu.com/collections/seo-kouji/kimi-no-iru-machi/",
  "description": "Yuzuki Eba has mysteriously decided to go to high school in the countryside. But despite Haruto Kirishima&nbsp;objections, she is living in his home. Now he has to put up with a freeloading city girl and even worse, make sure Nanami Kanzaki, the girl he likes, doesnot get the wrong idea!",
  "language": "English",
  "images": [
    "http://2.bp.blogspot.com/-SWVSdhjVcjA/VleAf2m2i-I/AAAAAAAC9To/fBnsvonWm-8/s16000/0140-001.jpg",
    "http://2.bp.blogspot.com/-3KU-XGQZq7M/Vld6S4fTdCI/AAAAAAAC7Tg/9NHBBz9N-0Q/s16000/0140-002.jpg",
    "http://2.bp.blogspot.com/-Krvf0IsVUus/VleE5B7wk3I/AAAAAAAC-qo/L632MuKIgoU/s16000/0140-003.jpg",
    "http://2.bp.blogspot.com/-oxkwmJOF9Og/Vld9rga1WQI/AAAAAAAC8a0/uxPrG42eQZM/s16000/0140-004.jpg",
    "http://2.bp.blogspot.com/-2qHdgPc6GV0/Vld6p232efI/AAAAAAAC7a4/npR1rQMQ2OM/s16000/0140-005.jpg",
    "http://2.bp.blogspot.com/-YBl77T5iKZA/Vld9LtahvhI/AAAAAAAC8QQ/jD-FtRfrfIQ/s16000/0140-006.jpg",
    "http://2.bp.blogspot.com/-4bzf4JXN-Bs/Vld6M5OxvwI/AAAAAAAC7Rc/KG6oFrGe39w/s16000/0140-007.jpg",
    "http://2.bp.blogspot.com/-DE5-8EK3By8/Vld9tCX84yI/AAAAAAAC8bQ/e8KTHq2ERRQ/s16000/0140-008.jpg",
    "http://2.bp.blogspot.com/-Z8QKsGEbB-Y/Vld60XyjiXI/AAAAAAAC7eg/PLy1DoqQkEk/s16000/0140-009.jpg",
    "http://2.bp.blogspot.com/-GgkU9okY2Gw/VleBER42ASI/AAAAAAAC9fE/jZ1qdF6mND8/s16000/0140-010.jpg",
    "http://2.bp.blogspot.com/-qombuTSUvg4/Vld_5q9PDxI/AAAAAAAC9IY/sqiG7brf3q4/s16000/0140-011.jpg",
    "http://2.bp.blogspot.com/-pEjj4YPq7sY/VleDy9OwRkI/AAAAAAAC-U8/HPJBx0EapHc/s16000/0140-012.jpg",
    "http://2.bp.blogspot.com/-9PMkQ7lqdME/Vld9qZoFcSI/AAAAAAAC8ac/6IW6gXwbJpI/s16000/0140-013.jpg",
    "http://2.bp.blogspot.com/-ZxJk22u4JZ8/Vld6xL6_LfI/AAAAAAAC7dU/4NcRmPLPjyE/s16000/0140-014.jpg",
    "http://2.bp.blogspot.com/-_vcUUcdhbew/Vld-_BALA6I/AAAAAAAC81s/Ks4YOBR1xCI/s16000/0140-015.jpg",
    "http://2.bp.blogspot.com/-eXedIOuEQrQ/Vld85FgL9mI/AAAAAAAC8KM/nISOL0v0Yck/s16000/0140-016.jpg",
    "http://2.bp.blogspot.com/-eXHmjYIuMgE/VleC39frQlI/AAAAAAAC-C8/S8cZH8VECYQ/s16000/0140-017.jpg",
    "http://2.bp.blogspot.com/-fw3RJkA6eBY/VleDl1PZDmI/AAAAAAAC-Q0/e12bROjG2Ys/s16000/0140-018.jpg"
  ]
}