{
  "cover": "http://ww1.heaventoon.com/content/upload/images/Kimi-No-Iru-Machi.jpg",
  "title": "Kimi no Iru Machi",
  "genre": "Drama, Manga, Romance, School Life, Shounen",
  "author": "SEO Kouji",
  "status": "Completed",
  "backlink": "https://manganu.com/collections/seo-kouji/kimi-no-iru-machi/",
  "description": "Yuzuki Eba has mysteriously decided to go to high school in the countryside. But despite Haruto Kirishima&nbsp;objections, she is living in his home. Now he has to put up with a freeloading city girl and even worse, make sure Nanami Kanzaki, the girl he likes, doesnot get the wrong idea!",
  "language": "English",
  "images": [
    "http://2.bp.blogspot.com/-9MxrLdTkJ70/Vles-Pj93TI/AAAAAAADKjo/I2oc0hSpp8g/s16000/0226-001.jpg",
    "http://2.bp.blogspot.com/-TExHoYmQ-gY/VleuG-G-W5I/AAAAAAADK8Q/zbrAjjv_LkM/s16000/0226-002.jpg",
    "http://2.bp.blogspot.com/-2YrebtFEGHs/VlewNfGuWWI/AAAAAAADLoY/jF7aFg4wKvM/s16000/0226-003.jpg",
    "http://2.bp.blogspot.com/-CkmNXN8NTvg/Vlet2jHK9SI/AAAAAAADK3A/96imptyLB3o/s16000/0226-004.jpg",
    "http://2.bp.blogspot.com/-Bq9E0IEk0AI/VlerjOiY7QI/AAAAAAADKMg/l9KEUdm6HHw/s16000/0226-005.jpg",
    "http://2.bp.blogspot.com/-RkRT6aSWDEw/VlevXe2GujI/AAAAAAADLWE/gOHNCRF1hxI/s16000/0226-006.jpg",
    "http://2.bp.blogspot.com/-zD2vgUa9I0U/VlevLTWNxxI/AAAAAAADLUM/um0Nd9SpYFE/s16000/0226-007.jpg",
    "http://2.bp.blogspot.com/-xoxc1ofetJk/VleshRl-caI/AAAAAAADKaM/VzQgRVkTSWc/s16000/0226-008.jpg",
    "http://2.bp.blogspot.com/-GSk6ohPjYe0/VlexENZOAMI/AAAAAAADL6c/xWwioPXtBZM/s16000/0226-009.jpg",
    "http://2.bp.blogspot.com/-6GJ6zoPU7N0/VleqHXmdFjI/AAAAAAADJpE/P99NiT9zYeE/s16000/0226-010.jpg",
    "http://2.bp.blogspot.com/-UBsDUhO5X6o/Vlesc8nsjCI/AAAAAAADKYo/wezkbBsk9Kc/s16000/0226-011.jpg",
    "http://2.bp.blogspot.com/-fIFn029Rxug/VletSdzCN_I/AAAAAAADKq0/Kcx2wjRLWHI/s16000/0226-012.jpg",
    "http://2.bp.blogspot.com/-Gbt9Y1JKw98/VleqbjoBSzI/AAAAAAADJvI/mJBGw8HaVuU/s16000/0226-013.jpg",
    "http://2.bp.blogspot.com/-w0Vvk8Q4wc8/Vleum0HZgzI/AAAAAAADLGQ/QCvSMrx_gck/s16000/0226-014.jpg",
    "http://2.bp.blogspot.com/-huWZ9Za70BQ/VleqHq2jRII/AAAAAAADJpM/OVbT_-kVxv0/s16000/0226-015.jpg",
    "http://2.bp.blogspot.com/-qvughn7LAHg/VleuophhVfI/AAAAAAADLGY/WZbFKoG-WWc/s16000/0226-016.jpg",
    "http://2.bp.blogspot.com/-WSfTdidgB-k/Vlew-XW7NPI/AAAAAAADL6E/dd5YjsvxmtU/s16000/0226-017.jpg",
    "http://2.bp.blogspot.com/-NvV_890Rupk/Vleu6ER4rrI/AAAAAAADLMI/5keD2TMKPg4/s16000/0226-018.jpg",
    "http://2.bp.blogspot.com/-zv2ahubIToE/Vlex2vgrwnI/AAAAAAADML8/2twcnMFW_3w/s16000/0226-019.jpg",
    "http://2.bp.blogspot.com/-7T4slUniHDE/Vlex6pIz2II/AAAAAAADMMw/Mn2PW228iqU/s16000/0226-020.jpg",
    "http://2.bp.blogspot.com/-_xZuSevJMVs/VlerLrNclbI/AAAAAAADJ_s/sMpIkGtJ2vI/s16000/0226-021.jpg",
    "http://2.bp.blogspot.com/--2FqOjLENS0/VlepqiZ3p5I/AAAAAAADJfA/4Zf1PoVCPeE/s16000/0226-022.jpg",
    "http://2.bp.blogspot.com/-Y_rcAUu7z9c/VlevsX3f5cI/AAAAAAADLec/Jz3aIgyseVM/s16000/0226-023.jpg"
  ]
}