{
  "cover": "http://ww1.heaventoon.com/content/upload/images/Kimi-No-Iru-Machi.jpg",
  "title": "Kimi no Iru Machi",
  "genre": "Drama, Manga, Romance, School Life, Shounen",
  "author": "SEO Kouji",
  "status": "Completed",
  "backlink": "https://manganu.com/collections/seo-kouji/kimi-no-iru-machi/",
  "description": "Yuzuki Eba has mysteriously decided to go to high school in the countryside. But despite Haruto Kirishima&nbsp;objections, she is living in his home. Now he has to put up with a freeloading city girl and even worse, make sure Nanami Kanzaki, the girl he likes, doesnot get the wrong idea!",
  "language": "English",
  "images": [
    "http://2.bp.blogspot.com/-6xc7xZih-ig/VlexZDjHPTI/AAAAAAADMBo/wOBjnVlUmc0/s16000/0238-001.jpg",
    "http://2.bp.blogspot.com/-QnbBm3-B5gk/VlepIHQxSaI/AAAAAAADJTs/4Z7GVQg1n6c/s16000/0238-002.jpg",
    "http://2.bp.blogspot.com/-R-CGI9gbW2o/Vlepw35dULI/AAAAAAADJho/FbJTXTGCz8Q/s16000/0238-003.jpg",
    "http://2.bp.blogspot.com/-DuXsM428104/Vleqi-VCisI/AAAAAAADJxY/Rresc55A6E0/s16000/0238-004.jpg",
    "http://2.bp.blogspot.com/-tUfpcV1kiN4/VlevXgaTruI/AAAAAAADLWU/yIjfyJ2Tx-U/s16000/0238-005.jpg",
    "http://2.bp.blogspot.com/-c3eMv8450co/Vlep1RhocHI/AAAAAAADJi0/Rhz90mudyHg/s16000/0238-006.jpg",
    "http://2.bp.blogspot.com/-Bz1Ajdx8ijk/VlesBIoKSaI/AAAAAAADKSQ/pHAIxwOjx4U/s16000/0238-007.jpg",
    "http://2.bp.blogspot.com/-utukoAOlui4/VlevIV8caPI/AAAAAAADLQ0/_NKv1kNZu0s/s16000/0238-008.jpg",
    "http://2.bp.blogspot.com/-q0aLIz6MODU/VleyMjHFbWI/AAAAAAADMUA/saBJWfUjPj0/s16000/0238-009.jpg",
    "http://2.bp.blogspot.com/-XnrTgQC5we8/Vley8Oqwv8I/AAAAAAADMjw/NEhhaplAibU/s16000/0238-010.jpg",
    "http://2.bp.blogspot.com/-rPwCV_JjSok/Vlevb5Ew4cI/AAAAAAADLX0/X919dKKq-9I/s16000/0238-011.jpg",
    "http://2.bp.blogspot.com/-J0B60GNQPS8/VletdfqNosI/AAAAAAADKuM/HHwd6A1apzw/s16000/0238-012.jpg",
    "http://2.bp.blogspot.com/-KaUKNo8wcWw/VlevHWSC8XI/AAAAAAADLQk/qJX2UEHlUcg/s16000/0238-013.jpg",
    "http://2.bp.blogspot.com/-b9TfjsZqXao/VletL0hK74I/AAAAAAADKn4/zyxcI4ea0FQ/s16000/0238-014.jpg",
    "http://2.bp.blogspot.com/-cimEyEY-ZL8/Vler_rToHTI/AAAAAAADKQo/ULjok2o3Tlg/s16000/0238-015.jpg",
    "http://2.bp.blogspot.com/-eMj8TA2NKY8/VleyG5FlzGI/AAAAAAADMQ8/2nVrao_Pi70/s16000/0238-016.jpg",
    "http://2.bp.blogspot.com/-E5g3SE3Hzdw/VleuvqI3GEI/AAAAAAADLI4/0sPU4Z3fE7M/s16000/0238-017.jpg",
    "http://2.bp.blogspot.com/-vWaMb4cWff0/Vleqgw__dbI/AAAAAAADJw0/OK_wLhLpbMk/s16000/0238-018.jpg",
    "http://2.bp.blogspot.com/-6ckGXGqWS2s/Vlex-MtGuDI/AAAAAAADMOA/4A81ptShp-w/s16000/0238-019.jpg"
  ]
}