{
  "cover": "http://ww1.heaventoon.com/content/upload/images/Kimi-No-Iru-Machi.jpg",
  "title": "Kimi no Iru Machi",
  "genre": "Drama, Manga, Romance, School Life, Shounen",
  "author": "SEO Kouji",
  "status": "Completed",
  "backlink": "https://manganu.com/collections/seo-kouji/kimi-no-iru-machi/",
  "description": "Yuzuki Eba has mysteriously decided to go to high school in the countryside. But despite Haruto Kirishima&nbsp;objections, she is living in his home. Now he has to put up with a freeloading city girl and even worse, make sure Nanami Kanzaki, the girl he likes, doesnot get the wrong idea!",
  "language": "English",
  "images": [
    "http://2.bp.blogspot.com/-2vhE8pErDp4/Vld6apkKfYI/AAAAAAAC7WE/gtJwlFfNvBk/s16000/0113-001.jpg",
    "http://2.bp.blogspot.com/-UADXkti3Jdo/Vld7ybEU7UI/AAAAAAAC7yY/0Fm4o0P3a80/s16000/0113-002.jpg",
    "http://2.bp.blogspot.com/-Tvagz93XZKA/Vld7-dwESLI/AAAAAAAC72k/HhyCdh1faaU/s16000/0113-003.jpg",
    "http://2.bp.blogspot.com/-d_QhPXk8x5Y/Vld9HZ1i_xI/AAAAAAAC8Ow/QDIJvd1SSC4/s16000/0113-004.jpg",
    "http://2.bp.blogspot.com/-82cKgAEtjQg/Vld6NEer4ZI/AAAAAAAC7Rk/QNHcjlxidv4/s16000/0113-005.jpg",
    "http://2.bp.blogspot.com/-9Ft0DOEWLhM/Vld-E2BMZqI/AAAAAAAC8jI/CRrzPamEv0I/s16000/0113-006.jpg",
    "http://2.bp.blogspot.com/-lRkQwzqBrGc/VleCItPnZaI/AAAAAAAC9zw/1kjaF6YgoGU/s16000/0113-007.jpg",
    "http://2.bp.blogspot.com/-0EUFwLv75MU/VleDa9R982I/AAAAAAAC-NU/tqlo8Uo9CuQ/s16000/0113-008.jpg",
    "http://2.bp.blogspot.com/-sKRLCITvONY/Vld90QPgomI/AAAAAAAC8ds/5rrrS5OpUb0/s16000/0113-009.jpg",
    "http://2.bp.blogspot.com/-NeRdnPI5fTg/VleBl5RKbZI/AAAAAAAC9pc/46gMCXY_R7o/s16000/0113-010.jpg",
    "http://2.bp.blogspot.com/-xXzqeo1xJvk/Vld9lMAPnqI/AAAAAAAC8Ys/iQ7Rt6mkBFU/s16000/0113-011.jpg",
    "http://2.bp.blogspot.com/-pYsqMBnFMww/VleFJT6mmPI/AAAAAAAC-vw/spy_TLkmakM/s16000/0113-012.jpg",
    "http://2.bp.blogspot.com/-3eJlG1A2TpA/Vld9XncL4AI/AAAAAAAC8UE/iYDpksjIhrM/s16000/0113-013.jpg",
    "http://2.bp.blogspot.com/-hhAsYxZlgiE/VleEOTwxJNI/AAAAAAAC-dc/wtMMS31bHQ0/s16000/0113-014.jpg",
    "http://2.bp.blogspot.com/-uPna5tCMZzg/Vld9x-k2r-I/AAAAAAAC8c8/PC9dBRPGT9g/s16000/0113-015.jpg",
    "http://2.bp.blogspot.com/-3WSSl1PGbW4/VleDu9UHJ6I/AAAAAAAC-Tk/uHqtEjNb1Bk/s16000/0113-016.jpg",
    "http://2.bp.blogspot.com/-LmllQ2HYJig/Vld6m105kGI/AAAAAAAC7Z8/bnpIZn5DhSU/s16000/0113-017.jpg",
    "http://2.bp.blogspot.com/-wjOl3mJGUqQ/Vld7f9ZLfyI/AAAAAAAC7sc/WB0GjmQh75c/s16000/0113-018.jpg",
    "http://2.bp.blogspot.com/-AdhKQVcFLm0/Vld6mMHvtLI/AAAAAAAC7Zs/MpRTOSTLKZI/s16000/0113-019.jpg"
  ]
}