{
  "cover": "https://avt.mkklcdnv6.com/41/z/10-1583483686.jpg",
  "title": "Leviathan",
  "original": "リヴァイアサン ; Левиафан (Russian)",
  "genre": "Drama, Horror, Mature, Sci fi, Seinen, Supernatural, Manga",
  "author": "Otsuka Eiji",
  "status": "Completed",
  "backlink": "https://manganu.com/collections/otsuka-eiji/leviathan/",
  "description": "After a long absence, the young shaman Samizo Kohei returns from the dead with a prophecy of the apocalypse. Or part of him returns, at least - most of his body has been replaced with the transplanted body parts of his former friends, all retaining their distinctive personalities. He returns to his home in Shinjuku, where he works as a psychic surgeon in an unlicensed clinic. Here he serves as the unofficial guardian of the Shinjuku underground, solving paranormal murder mysteries, with the assistance of an assortment of other bizarre mystics and semi-human allies. Meanwhile, the others wonder exactly what Kohei has become, and whether he has returned to prevent the apocalypse, or to initiate it.",
  "language": "English",
  "images": [
    "https://img-proxy.imgfo.com/?referer=https://manganelo.com&url=https://s3.mkklcdnv6temp.com/mangakakalot/l1/leviathan/vol11_chapter_64_akane_1/1.jpg",
    "https://img-proxy.imgfo.com/?referer=https://manganelo.com&url=https://s3.mkklcdnv6temp.com/mangakakalot/l1/leviathan/vol11_chapter_64_akane_1/2.jpg",
    "https://img-proxy.imgfo.com/?referer=https://manganelo.com&url=https://s3.mkklcdnv6temp.com/mangakakalot/l1/leviathan/vol11_chapter_64_akane_1/3.jpg",
    "https://img-proxy.imgfo.com/?referer=https://manganelo.com&url=https://s3.mkklcdnv6temp.com/mangakakalot/l1/leviathan/vol11_chapter_64_akane_1/4.jpg",
    "https://img-proxy.imgfo.com/?referer=https://manganelo.com&url=https://s3.mkklcdnv6temp.com/mangakakalot/l1/leviathan/vol11_chapter_64_akane_1/5.jpg",
    "https://img-proxy.imgfo.com/?referer=https://manganelo.com&url=https://s3.mkklcdnv6temp.com/mangakakalot/l1/leviathan/vol11_chapter_64_akane_1/6.jpg",
    "https://img-proxy.imgfo.com/?referer=https://manganelo.com&url=https://s3.mkklcdnv6temp.com/mangakakalot/l1/leviathan/vol11_chapter_64_akane_1/7.jpg",
    "https://img-proxy.imgfo.com/?referer=https://manganelo.com&url=https://s3.mkklcdnv6temp.com/mangakakalot/l1/leviathan/vol11_chapter_64_akane_1/8.jpg",
    "https://img-proxy.imgfo.com/?referer=https://manganelo.com&url=https://s3.mkklcdnv6temp.com/mangakakalot/l1/leviathan/vol11_chapter_64_akane_1/9.jpg",
    "https://img-proxy.imgfo.com/?referer=https://manganelo.com&url=https://s3.mkklcdnv6temp.com/mangakakalot/l1/leviathan/vol11_chapter_64_akane_1/10.jpg",
    "https://img-proxy.imgfo.com/?referer=https://manganelo.com&url=https://s3.mkklcdnv6temp.com/mangakakalot/l1/leviathan/vol11_chapter_64_akane_1/11.jpg",
    "https://img-proxy.imgfo.com/?referer=https://manganelo.com&url=https://s3.mkklcdnv6temp.com/mangakakalot/l1/leviathan/vol11_chapter_64_akane_1/12.jpg",
    "https://img-proxy.imgfo.com/?referer=https://manganelo.com&url=https://s3.mkklcdnv6temp.com/mangakakalot/l1/leviathan/vol11_chapter_64_akane_1/13.jpg",
    "https://img-proxy.imgfo.com/?referer=https://manganelo.com&url=https://s3.mkklcdnv6temp.com/mangakakalot/l1/leviathan/vol11_chapter_64_akane_1/14.jpg",
    "https://img-proxy.imgfo.com/?referer=https://manganelo.com&url=https://s3.mkklcdnv6temp.com/mangakakalot/l1/leviathan/vol11_chapter_64_akane_1/15.jpg",
    "https://img-proxy.imgfo.com/?referer=https://manganelo.com&url=https://s3.mkklcdnv6temp.com/mangakakalot/l1/leviathan/vol11_chapter_64_akane_1/16.jpg",
    "https://img-proxy.imgfo.com/?referer=https://manganelo.com&url=https://s3.mkklcdnv6temp.com/mangakakalot/l1/leviathan/vol11_chapter_64_akane_1/17.jpg",
    "https://img-proxy.imgfo.com/?referer=https://manganelo.com&url=https://s3.mkklcdnv6temp.com/mangakakalot/l1/leviathan/vol11_chapter_64_akane_1/18.jpg",
    "https://img-proxy.imgfo.com/?referer=https://manganelo.com&url=https://s3.mkklcdnv6temp.com/mangakakalot/l1/leviathan/vol11_chapter_64_akane_1/19.jpg",
    "https://img-proxy.imgfo.com/?referer=https://manganelo.com&url=https://s3.mkklcdnv6temp.com/mangakakalot/l1/leviathan/vol11_chapter_64_akane_1/20.jpg",
    "https://img-proxy.imgfo.com/?referer=https://manganelo.com&url=https://s3.mkklcdnv6temp.com/mangakakalot/l1/leviathan/vol11_chapter_64_akane_1/21.jpg",
    "https://img-proxy.imgfo.com/?referer=https://manganelo.com&url=https://s3.mkklcdnv6temp.com/mangakakalot/l1/leviathan/vol11_chapter_64_akane_1/22.jpg",
    "https://img-proxy.imgfo.com/?referer=https://manganelo.com&url=https://s3.mkklcdnv6temp.com/mangakakalot/l1/leviathan/vol11_chapter_64_akane_1/23.jpg",
    "https://img-proxy.imgfo.com/?referer=https://manganelo.com&url=https://s3.mkklcdnv6temp.com/mangakakalot/l1/leviathan/vol11_chapter_64_akane_1/24.jpg",
    "https://img-proxy.imgfo.com/?referer=https://manganelo.com&url=https://s3.mkklcdnv6temp.com/mangakakalot/l1/leviathan/vol11_chapter_64_akane_1/25.jpg",
    "https://img-proxy.imgfo.com/?referer=https://manganelo.com&url=https://s3.mkklcdnv6temp.com/mangakakalot/l1/leviathan/vol11_chapter_64_akane_1/26.jpg",
    "https://img-proxy.imgfo.com/?referer=https://manganelo.com&url=https://s3.mkklcdnv6temp.com/mangakakalot/l1/leviathan/vol11_chapter_64_akane_1/27.jpg",
    "https://img-proxy.imgfo.com/?referer=https://manganelo.com&url=https://s3.mkklcdnv6temp.com/mangakakalot/l1/leviathan/vol11_chapter_64_akane_1/28.jpg",
    "https://img-proxy.imgfo.com/?referer=https://manganelo.com&url=https://s3.mkklcdnv6temp.com/mangakakalot/l1/leviathan/vol11_chapter_64_akane_1/29.jpg",
    "https://img-proxy.imgfo.com/?referer=https://manganelo.com&url=https://s3.mkklcdnv6temp.com/mangakakalot/l1/leviathan/vol11_chapter_64_akane_1/30.jpg",
    "https://img-proxy.imgfo.com/?referer=https://manganelo.com&url=https://s3.mkklcdnv6temp.com/mangakakalot/l1/leviathan/vol11_chapter_64_akane_1/31.jpg"
  ]
}