{
  "cover": "https://avt.mkklcdnv6.com/48/g/1-1583465604.jpg",
  "title": "Naruto",
  "original": "ナルト (Japanese) ; 火影忍者 (Chinese-Simplified) ; 狐忍 (Chinese-Traditional) ; ناروتو (Arabic / Persian) ; นินจาคาถาโอ้โฮเฮะ (Thai) ; নারুতো (Bengali) ; नारुतो (Hindi) ; 나루토 (Korean)",
  "genre": "Action, Adult, Adventure, Comedy, Doujinshi, Drama, Fantasy, Martial arts, Shounen, Manga",
  "author": "Kishimoto Masashi",
  "status": "Completed",
  "backlink": "https://manganu.com/collections/kishimoto-masashi/naruto/",
  "description": "Read Naruto Manga Online &nbsp;\nNaruto is a manga series from Japan. It&#39;s about the story of a young ninja who wants to become the strongest leader in his village. The series were produced by Masashi Kishimoto and in 1997 were published. Later this manga was adapted into a TV anime. This studio also has developed 10 movies as well as a number of video animations. You can read Naruto manga online, which until today has sold over 220 copies around the world (except from Japan in 35 more countries), making it the 3rd best selling series of manga in history.&nbsp;\n\nMain character in Naruto Manga\n\nThe Story\n\nWhen he was a child, Naruto was isolated from its community. The people in the village treated him as he was Nine-Tails itself and don&#39;t want him. None in the village had the right to mention the Nine-Tails, in order to prevent Naruto from finding the truth. But 12 years later, he finds out the truth from ninja Mizuki, who told him. Some time later, Naruto becomes a ninja and usually competes against other teams, and they form a three-person team by the name Team 7. Like all the other similar teams in every village, the Team 7 has to complete missions that are requested by the villagers, ranging from being bodyguards or doing chores. After participating in a number of missions, the Team 7 is allowed to take place in an exam, in order to move up in hierarchy and be able to be involved in more difficult missions. After 2,5 years, Naruto returns from training and he continued with his team to fight the Akatsuki members.\n\nProduction\n\nWhen Kishimoto first made the plot of the story, thought that it was a mess. For example, he thought that the chakras, along with other hand signs made Naruto look like a lot of Japanese them, but he believed that it could be enjoyable for reading. In these particular series, he actually tried to make his characters to look like unique ones. Above all he based his main theme on the Japanese culture and he separated the characters in the series into different teams, in order to give to each team a special flavor. He wanted to make each member to look like an &#39;extreme&#39; character and when he was creating them, Kishimoto followed the 5 steps, like drafting, sketching, colouring, inking and shading. Moreover, when he started creating the series, Kishimoto paid attention to the designs of the village and the settings. For instance, the village was created spontaneously, but he took the idea for the scenery from his home in Okayama, in Japan.\n\nNaruto Anime &amp; Films\n\n\nNaruto manga transform to Anime - Naruto Shippuden AMV\n\nThe Naruto Anime made its debut in Japan TV Tokyo in October 2002 and was concluded in 2007 after 220 episodes. In addition, these series led also led to the production of 10 films. The first one under the title &#39;Ninja clash in the land of Snow&#39; was first released in August 2004 in Japan and told the story fo how Team 7 was sent to the Land of Snow, in order to protect the actors from shootings of he new Princess Fun movie.\n\nMusic &amp; Video Games\n\nThe soundtracks of &#39;Naruto Manga&#39; were composed by T. Masuda. The first under the title &#39;Naruto Manga Original Soundtrack&#39; was released in April 2003 and had 22 tracks. In addition, the video games of Naruto, which are mostly fighting games, were seen in various consoles from Sony, Microsoft and Nintendo\n\nOther attractive Manga :\n+ Seraph of the End&nbsp;\n+ Hunter x Hunter Manga",
  "language": "English",
  "images": [
    "https://img-proxy.imgfo.com/?referer=https://manganelo.com&url=https://s5.mkklcdnv6temp.com/mangakakalot/r1/read_naruto_manga_online_free3/vol17_chapter_152_the_second_state/1.jpg",
    "https://img-proxy.imgfo.com/?referer=https://manganelo.com&url=https://s5.mkklcdnv6temp.com/mangakakalot/r1/read_naruto_manga_online_free3/vol17_chapter_152_the_second_state/2.jpg",
    "https://img-proxy.imgfo.com/?referer=https://manganelo.com&url=https://s5.mkklcdnv6temp.com/mangakakalot/r1/read_naruto_manga_online_free3/vol17_chapter_152_the_second_state/3.jpg",
    "https://img-proxy.imgfo.com/?referer=https://manganelo.com&url=https://s5.mkklcdnv6temp.com/mangakakalot/r1/read_naruto_manga_online_free3/vol17_chapter_152_the_second_state/4.jpg",
    "https://img-proxy.imgfo.com/?referer=https://manganelo.com&url=https://s5.mkklcdnv6temp.com/mangakakalot/r1/read_naruto_manga_online_free3/vol17_chapter_152_the_second_state/5.jpg",
    "https://img-proxy.imgfo.com/?referer=https://manganelo.com&url=https://s5.mkklcdnv6temp.com/mangakakalot/r1/read_naruto_manga_online_free3/vol17_chapter_152_the_second_state/6.jpg",
    "https://img-proxy.imgfo.com/?referer=https://manganelo.com&url=https://s5.mkklcdnv6temp.com/mangakakalot/r1/read_naruto_manga_online_free3/vol17_chapter_152_the_second_state/7.jpg",
    "https://img-proxy.imgfo.com/?referer=https://manganelo.com&url=https://s5.mkklcdnv6temp.com/mangakakalot/r1/read_naruto_manga_online_free3/vol17_chapter_152_the_second_state/8.jpg",
    "https://img-proxy.imgfo.com/?referer=https://manganelo.com&url=https://s5.mkklcdnv6temp.com/mangakakalot/r1/read_naruto_manga_online_free3/vol17_chapter_152_the_second_state/9.jpg",
    "https://img-proxy.imgfo.com/?referer=https://manganelo.com&url=https://s5.mkklcdnv6temp.com/mangakakalot/r1/read_naruto_manga_online_free3/vol17_chapter_152_the_second_state/10.jpg",
    "https://img-proxy.imgfo.com/?referer=https://manganelo.com&url=https://s5.mkklcdnv6temp.com/mangakakalot/r1/read_naruto_manga_online_free3/vol17_chapter_152_the_second_state/11.jpg",
    "https://img-proxy.imgfo.com/?referer=https://manganelo.com&url=https://s5.mkklcdnv6temp.com/mangakakalot/r1/read_naruto_manga_online_free3/vol17_chapter_152_the_second_state/12.jpg",
    "https://img-proxy.imgfo.com/?referer=https://manganelo.com&url=https://s5.mkklcdnv6temp.com/mangakakalot/r1/read_naruto_manga_online_free3/vol17_chapter_152_the_second_state/13.jpg",
    "https://img-proxy.imgfo.com/?referer=https://manganelo.com&url=https://s5.mkklcdnv6temp.com/mangakakalot/r1/read_naruto_manga_online_free3/vol17_chapter_152_the_second_state/14.jpg",
    "https://img-proxy.imgfo.com/?referer=https://manganelo.com&url=https://s5.mkklcdnv6temp.com/mangakakalot/r1/read_naruto_manga_online_free3/vol17_chapter_152_the_second_state/15.jpg",
    "https://img-proxy.imgfo.com/?referer=https://manganelo.com&url=https://s5.mkklcdnv6temp.com/mangakakalot/r1/read_naruto_manga_online_free3/vol17_chapter_152_the_second_state/16.jpg",
    "https://img-proxy.imgfo.com/?referer=https://manganelo.com&url=https://s5.mkklcdnv6temp.com/mangakakalot/r1/read_naruto_manga_online_free3/vol17_chapter_152_the_second_state/17.jpg",
    "https://img-proxy.imgfo.com/?referer=https://manganelo.com&url=https://s5.mkklcdnv6temp.com/mangakakalot/r1/read_naruto_manga_online_free3/vol17_chapter_152_the_second_state/18.jpg",
    "https://img-proxy.imgfo.com/?referer=https://manganelo.com&url=https://s5.mkklcdnv6temp.com/mangakakalot/r1/read_naruto_manga_online_free3/vol17_chapter_152_the_second_state/19.jpg"
  ]
}