{
  "cover": "https://avt.mkklcdnv6.com/49/o/4-1583471773.jpg",
  "title": "Hatsukoi Limited",
  "original": "初恋 Limited ; 初恋限定 ; 初恋限定。‐ハツコイ リミテッド‐ ; First Love Limited ; Hatsukoi Gentei",
  "genre": "Comedy, Ecchi, Romance, School life, Shounen, Manga",
  "author": "Kawashita Mizuki",
  "status": "Completed",
  "backlink": "https://manganu.com/collections/kawashita-mizuki/hatsukoi-limited/",
  "description": "From Mangahelpers: Being an adolescent girl is just one problem after another. Middle-schooler Arihara Ayumi receives a note from a high-schooler, a very large and intimidating boy, Zaitsu Misao, asking her out. Frightened and intrigued, she doesn&#39;t know what to do! From Baka-Updates: A series of related stories about (a lot of) middle and high school students as they discover their hatsukoi (first love).",
  "language": "English",
  "images": [
    "https://img-proxy.imgfo.com/?referer=https://manganelo.com&url=https://s5.mkklcdnv6temp.com/mangakakalot/h1/hatsukoi_limited/vol2_chapter_95_omake_limited_girl_2/1.jpg",
    "https://img-proxy.imgfo.com/?referer=https://manganelo.com&url=https://s5.mkklcdnv6temp.com/mangakakalot/h1/hatsukoi_limited/vol2_chapter_95_omake_limited_girl_2/2.jpg",
    "https://img-proxy.imgfo.com/?referer=https://manganelo.com&url=https://s5.mkklcdnv6temp.com/mangakakalot/h1/hatsukoi_limited/vol2_chapter_95_omake_limited_girl_2/3.jpg",
    "https://img-proxy.imgfo.com/?referer=https://manganelo.com&url=https://s5.mkklcdnv6temp.com/mangakakalot/h1/hatsukoi_limited/vol2_chapter_95_omake_limited_girl_2/4.jpg",
    "https://img-proxy.imgfo.com/?referer=https://manganelo.com&url=https://s5.mkklcdnv6temp.com/mangakakalot/h1/hatsukoi_limited/vol2_chapter_95_omake_limited_girl_2/5.jpg",
    "https://img-proxy.imgfo.com/?referer=https://manganelo.com&url=https://s5.mkklcdnv6temp.com/mangakakalot/h1/hatsukoi_limited/vol2_chapter_95_omake_limited_girl_2/6.jpg",
    "https://img-proxy.imgfo.com/?referer=https://manganelo.com&url=https://s5.mkklcdnv6temp.com/mangakakalot/h1/hatsukoi_limited/vol2_chapter_95_omake_limited_girl_2/7.jpg"
  ]
}