{
  "cover": "https://avt.mkklcdnv6.com/18/i/13-1583488411.jpg",
  "title": "Harenchi No Susume",
  "original": "破廉恥のススメ ; Infamous Advancement ; Sense and Sexuality",
  "genre": "Historical, Romance, Smut, Yaoi, Manga",
  "author": "Higashino You",
  "status": "Completed",
  "backlink": "https://manganu.com/collections/higashino-you/harenchi-no-susume/",
  "description": "Hanamura Masatsugu and Takakura Kuniomi are intimate friends since childhood, and both are heirs to their respective marquises. Their favorite sport is seeing who can score the next bishounen that comes across their path in the Imperial Capital. And now Kuniomi has set his eyes on a new target&hellip;!? Who would be the winner between these two beautiful men&#39;s quest for love&mdash;;?! A lavish Taisho* Romanesque edition!! (*** Taisho era: 1912-1926 ***)",
  "language": "English",
  "images": [
    "https://img-proxy.imgfo.com/?referer=https://manganelo.com&url=https://s5.mkklcdnv6temp.com/mangakakalot/h1/harenchi_no_susume/vol1_chapter_55/1.jpg",
    "https://img-proxy.imgfo.com/?referer=https://manganelo.com&url=https://s5.mkklcdnv6temp.com/mangakakalot/h1/harenchi_no_susume/vol1_chapter_55/2.jpg",
    "https://img-proxy.imgfo.com/?referer=https://manganelo.com&url=https://s5.mkklcdnv6temp.com/mangakakalot/h1/harenchi_no_susume/vol1_chapter_55/3.jpg",
    "https://img-proxy.imgfo.com/?referer=https://manganelo.com&url=https://s5.mkklcdnv6temp.com/mangakakalot/h1/harenchi_no_susume/vol1_chapter_55/4.jpg",
    "https://img-proxy.imgfo.com/?referer=https://manganelo.com&url=https://s5.mkklcdnv6temp.com/mangakakalot/h1/harenchi_no_susume/vol1_chapter_55/5.jpg",
    "https://img-proxy.imgfo.com/?referer=https://manganelo.com&url=https://s5.mkklcdnv6temp.com/mangakakalot/h1/harenchi_no_susume/vol1_chapter_55/6.jpg",
    "https://img-proxy.imgfo.com/?referer=https://manganelo.com&url=https://s5.mkklcdnv6temp.com/mangakakalot/h1/harenchi_no_susume/vol1_chapter_55/7.jpg",
    "https://img-proxy.imgfo.com/?referer=https://manganelo.com&url=https://s5.mkklcdnv6temp.com/mangakakalot/h1/harenchi_no_susume/vol1_chapter_55/8.jpg",
    "https://img-proxy.imgfo.com/?referer=https://manganelo.com&url=https://s5.mkklcdnv6temp.com/mangakakalot/h1/harenchi_no_susume/vol1_chapter_55/9.jpg",
    "https://img-proxy.imgfo.com/?referer=https://manganelo.com&url=https://s5.mkklcdnv6temp.com/mangakakalot/h1/harenchi_no_susume/vol1_chapter_55/10.jpg",
    "https://img-proxy.imgfo.com/?referer=https://manganelo.com&url=https://s5.mkklcdnv6temp.com/mangakakalot/h1/harenchi_no_susume/vol1_chapter_55/11.jpg",
    "https://img-proxy.imgfo.com/?referer=https://manganelo.com&url=https://s5.mkklcdnv6temp.com/mangakakalot/h1/harenchi_no_susume/vol1_chapter_55/12.jpg"
  ]
}