{
  "cover": "https://avt.mkklcdnv6.com/14/r/14-1583488275.jpg",
  "title": "Honnouteki Ni Otoko",
  "original": "本能的に、男 ; 本能的に男 ; 男人本色 ; Instinctively a Man ; Instinctively Male ; Instinctively, he is a Man",
  "genre": "School life, Yaoi, Manga",
  "author": "Kanzaki Takashi",
  "status": "Completed",
  "backlink": "https://manganu.com/collections/kanzaki-takashi/honnouteki-ni-otoko/",
  "description": "Yasukuni is the heir of a distinguished family, one that prizes masculinity and stoicism. He also happens to be crazy about one of his private instructors, Kiyoi. Among the many lessons Kiyoi gives him is the art of sexual pleasures. However, Yasukuni wants Kiyoi to make love with him earnestly, not just as a form of instruction.",
  "language": "English",
  "images": [
    "https://img-proxy.imgfo.com/?referer=https://manganelo.com&url=https://s6.mkklcdnv6temp.com/mangakakalot/h2/honnouteki_ni_otoko/vol1_chapter_5_inappropriate_love_act_1/1.jpg",
    "https://img-proxy.imgfo.com/?referer=https://manganelo.com&url=https://s6.mkklcdnv6temp.com/mangakakalot/h2/honnouteki_ni_otoko/vol1_chapter_5_inappropriate_love_act_1/2.jpg",
    "https://img-proxy.imgfo.com/?referer=https://manganelo.com&url=https://s6.mkklcdnv6temp.com/mangakakalot/h2/honnouteki_ni_otoko/vol1_chapter_5_inappropriate_love_act_1/3.jpg",
    "https://img-proxy.imgfo.com/?referer=https://manganelo.com&url=https://s6.mkklcdnv6temp.com/mangakakalot/h2/honnouteki_ni_otoko/vol1_chapter_5_inappropriate_love_act_1/4.jpg",
    "https://img-proxy.imgfo.com/?referer=https://manganelo.com&url=https://s6.mkklcdnv6temp.com/mangakakalot/h2/honnouteki_ni_otoko/vol1_chapter_5_inappropriate_love_act_1/5.jpg",
    "https://img-proxy.imgfo.com/?referer=https://manganelo.com&url=https://s6.mkklcdnv6temp.com/mangakakalot/h2/honnouteki_ni_otoko/vol1_chapter_5_inappropriate_love_act_1/6.jpg",
    "https://img-proxy.imgfo.com/?referer=https://manganelo.com&url=https://s6.mkklcdnv6temp.com/mangakakalot/h2/honnouteki_ni_otoko/vol1_chapter_5_inappropriate_love_act_1/7.jpg",
    "https://img-proxy.imgfo.com/?referer=https://manganelo.com&url=https://s6.mkklcdnv6temp.com/mangakakalot/h2/honnouteki_ni_otoko/vol1_chapter_5_inappropriate_love_act_1/8.jpg",
    "https://img-proxy.imgfo.com/?referer=https://manganelo.com&url=https://s6.mkklcdnv6temp.com/mangakakalot/h2/honnouteki_ni_otoko/vol1_chapter_5_inappropriate_love_act_1/9.jpg",
    "https://img-proxy.imgfo.com/?referer=https://manganelo.com&url=https://s6.mkklcdnv6temp.com/mangakakalot/h2/honnouteki_ni_otoko/vol1_chapter_5_inappropriate_love_act_1/10.jpg",
    "https://img-proxy.imgfo.com/?referer=https://manganelo.com&url=https://s6.mkklcdnv6temp.com/mangakakalot/h2/honnouteki_ni_otoko/vol1_chapter_5_inappropriate_love_act_1/11.jpg",
    "https://img-proxy.imgfo.com/?referer=https://manganelo.com&url=https://s6.mkklcdnv6temp.com/mangakakalot/h2/honnouteki_ni_otoko/vol1_chapter_5_inappropriate_love_act_1/12.jpg",
    "https://img-proxy.imgfo.com/?referer=https://manganelo.com&url=https://s6.mkklcdnv6temp.com/mangakakalot/h2/honnouteki_ni_otoko/vol1_chapter_5_inappropriate_love_act_1/13.jpg",
    "https://img-proxy.imgfo.com/?referer=https://manganelo.com&url=https://s6.mkklcdnv6temp.com/mangakakalot/h2/honnouteki_ni_otoko/vol1_chapter_5_inappropriate_love_act_1/14.jpg",
    "https://img-proxy.imgfo.com/?referer=https://manganelo.com&url=https://s6.mkklcdnv6temp.com/mangakakalot/h2/honnouteki_ni_otoko/vol1_chapter_5_inappropriate_love_act_1/15.jpg",
    "https://img-proxy.imgfo.com/?referer=https://manganelo.com&url=https://s6.mkklcdnv6temp.com/mangakakalot/h2/honnouteki_ni_otoko/vol1_chapter_5_inappropriate_love_act_1/16.jpg",
    "https://img-proxy.imgfo.com/?referer=https://manganelo.com&url=https://s6.mkklcdnv6temp.com/mangakakalot/h2/honnouteki_ni_otoko/vol1_chapter_5_inappropriate_love_act_1/17.jpg",
    "https://img-proxy.imgfo.com/?referer=https://manganelo.com&url=https://s6.mkklcdnv6temp.com/mangakakalot/h2/honnouteki_ni_otoko/vol1_chapter_5_inappropriate_love_act_1/18.jpg",
    "https://img-proxy.imgfo.com/?referer=https://manganelo.com&url=https://s6.mkklcdnv6temp.com/mangakakalot/h2/honnouteki_ni_otoko/vol1_chapter_5_inappropriate_love_act_1/19.jpg",
    "https://img-proxy.imgfo.com/?referer=https://manganelo.com&url=https://s6.mkklcdnv6temp.com/mangakakalot/h2/honnouteki_ni_otoko/vol1_chapter_5_inappropriate_love_act_1/20.jpg",
    "https://img-proxy.imgfo.com/?referer=https://manganelo.com&url=https://s6.mkklcdnv6temp.com/mangakakalot/h2/honnouteki_ni_otoko/vol1_chapter_5_inappropriate_love_act_1/21.jpg",
    "https://img-proxy.imgfo.com/?referer=https://manganelo.com&url=https://s6.mkklcdnv6temp.com/mangakakalot/h2/honnouteki_ni_otoko/vol1_chapter_5_inappropriate_love_act_1/22.jpg",
    "https://img-proxy.imgfo.com/?referer=https://manganelo.com&url=https://s6.mkklcdnv6temp.com/mangakakalot/h2/honnouteki_ni_otoko/vol1_chapter_5_inappropriate_love_act_1/23.jpg",
    "https://img-proxy.imgfo.com/?referer=https://manganelo.com&url=https://s6.mkklcdnv6temp.com/mangakakalot/h2/honnouteki_ni_otoko/vol1_chapter_5_inappropriate_love_act_1/24.jpg",
    "https://img-proxy.imgfo.com/?referer=https://manganelo.com&url=https://s6.mkklcdnv6temp.com/mangakakalot/h2/honnouteki_ni_otoko/vol1_chapter_5_inappropriate_love_act_1/25.jpg",
    "https://img-proxy.imgfo.com/?referer=https://manganelo.com&url=https://s6.mkklcdnv6temp.com/mangakakalot/h2/honnouteki_ni_otoko/vol1_chapter_5_inappropriate_love_act_1/26.jpg",
    "https://img-proxy.imgfo.com/?referer=https://manganelo.com&url=https://s6.mkklcdnv6temp.com/mangakakalot/h2/honnouteki_ni_otoko/vol1_chapter_5_inappropriate_love_act_1/27.jpg",
    "https://img-proxy.imgfo.com/?referer=https://manganelo.com&url=https://s6.mkklcdnv6temp.com/mangakakalot/h2/honnouteki_ni_otoko/vol1_chapter_5_inappropriate_love_act_1/28.jpg",
    "https://img-proxy.imgfo.com/?referer=https://manganelo.com&url=https://s6.mkklcdnv6temp.com/mangakakalot/h2/honnouteki_ni_otoko/vol1_chapter_5_inappropriate_love_act_1/29.jpg",
    "https://img-proxy.imgfo.com/?referer=https://manganelo.com&url=https://s6.mkklcdnv6temp.com/mangakakalot/h2/honnouteki_ni_otoko/vol1_chapter_5_inappropriate_love_act_1/30.jpg",
    "https://img-proxy.imgfo.com/?referer=https://manganelo.com&url=https://s6.mkklcdnv6temp.com/mangakakalot/h2/honnouteki_ni_otoko/vol1_chapter_5_inappropriate_love_act_1/31.jpg",
    "https://img-proxy.imgfo.com/?referer=https://manganelo.com&url=https://s6.mkklcdnv6temp.com/mangakakalot/h2/honnouteki_ni_otoko/vol1_chapter_5_inappropriate_love_act_1/32.jpg",
    "https://img-proxy.imgfo.com/?referer=https://manganelo.com&url=https://s6.mkklcdnv6temp.com/mangakakalot/h2/honnouteki_ni_otoko/vol1_chapter_5_inappropriate_love_act_1/33.jpg",
    "https://img-proxy.imgfo.com/?referer=https://manganelo.com&url=https://s6.mkklcdnv6temp.com/mangakakalot/h2/honnouteki_ni_otoko/vol1_chapter_5_inappropriate_love_act_1/34.jpg",
    "https://img-proxy.imgfo.com/?referer=https://manganelo.com&url=https://s6.mkklcdnv6temp.com/mangakakalot/h2/honnouteki_ni_otoko/vol1_chapter_5_inappropriate_love_act_1/35.jpg",
    "https://img-proxy.imgfo.com/?referer=https://manganelo.com&url=https://s6.mkklcdnv6temp.com/mangakakalot/h2/honnouteki_ni_otoko/vol1_chapter_5_inappropriate_love_act_1/36.jpg",
    "https://img-proxy.imgfo.com/?referer=https://manganelo.com&url=https://s6.mkklcdnv6temp.com/mangakakalot/h2/honnouteki_ni_otoko/vol1_chapter_5_inappropriate_love_act_1/37.jpg",
    "https://img-proxy.imgfo.com/?referer=https://manganelo.com&url=https://s6.mkklcdnv6temp.com/mangakakalot/h2/honnouteki_ni_otoko/vol1_chapter_5_inappropriate_love_act_1/38.jpg",
    "https://img-proxy.imgfo.com/?referer=https://manganelo.com&url=https://s6.mkklcdnv6temp.com/mangakakalot/h2/honnouteki_ni_otoko/vol1_chapter_5_inappropriate_love_act_1/39.jpg",
    "https://img-proxy.imgfo.com/?referer=https://manganelo.com&url=https://s6.mkklcdnv6temp.com/mangakakalot/h2/honnouteki_ni_otoko/vol1_chapter_5_inappropriate_love_act_1/40.jpg",
    "https://img-proxy.imgfo.com/?referer=https://manganelo.com&url=https://s6.mkklcdnv6temp.com/mangakakalot/h2/honnouteki_ni_otoko/vol1_chapter_5_inappropriate_love_act_1/41.jpg",
    "https://img-proxy.imgfo.com/?referer=https://manganelo.com&url=https://s6.mkklcdnv6temp.com/mangakakalot/h2/honnouteki_ni_otoko/vol1_chapter_5_inappropriate_love_act_1/42.jpg",
    "https://img-proxy.imgfo.com/?referer=https://manganelo.com&url=https://s6.mkklcdnv6temp.com/mangakakalot/h2/honnouteki_ni_otoko/vol1_chapter_5_inappropriate_love_act_1/43.jpg",
    "https://img-proxy.imgfo.com/?referer=https://manganelo.com&url=https://s6.mkklcdnv6temp.com/mangakakalot/h2/honnouteki_ni_otoko/vol1_chapter_5_inappropriate_love_act_1/44.jpg",
    "https://img-proxy.imgfo.com/?referer=https://manganelo.com&url=https://s6.mkklcdnv6temp.com/mangakakalot/h2/honnouteki_ni_otoko/vol1_chapter_5_inappropriate_love_act_1/45.jpg",
    "https://img-proxy.imgfo.com/?referer=https://manganelo.com&url=https://s6.mkklcdnv6temp.com/mangakakalot/h2/honnouteki_ni_otoko/vol1_chapter_5_inappropriate_love_act_1/46.jpg",
    "https://img-proxy.imgfo.com/?referer=https://manganelo.com&url=https://s6.mkklcdnv6temp.com/mangakakalot/h2/honnouteki_ni_otoko/vol1_chapter_5_inappropriate_love_act_1/47.jpg",
    "https://img-proxy.imgfo.com/?referer=https://manganelo.com&url=https://s6.mkklcdnv6temp.com/mangakakalot/h2/honnouteki_ni_otoko/vol1_chapter_5_inappropriate_love_act_1/48.jpg",
    "https://img-proxy.imgfo.com/?referer=https://manganelo.com&url=https://s6.mkklcdnv6temp.com/mangakakalot/h2/honnouteki_ni_otoko/vol1_chapter_5_inappropriate_love_act_1/49.jpg",
    "https://img-proxy.imgfo.com/?referer=https://manganelo.com&url=https://s6.mkklcdnv6temp.com/mangakakalot/h2/honnouteki_ni_otoko/vol1_chapter_5_inappropriate_love_act_1/50.jpg",
    "https://img-proxy.imgfo.com/?referer=https://manganelo.com&url=https://s6.mkklcdnv6temp.com/mangakakalot/h2/honnouteki_ni_otoko/vol1_chapter_5_inappropriate_love_act_1/51.jpg",
    "https://img-proxy.imgfo.com/?referer=https://manganelo.com&url=https://s6.mkklcdnv6temp.com/mangakakalot/h2/honnouteki_ni_otoko/vol1_chapter_5_inappropriate_love_act_1/52.jpg",
    "https://img-proxy.imgfo.com/?referer=https://manganelo.com&url=https://s6.mkklcdnv6temp.com/mangakakalot/h2/honnouteki_ni_otoko/vol1_chapter_5_inappropriate_love_act_1/53.jpg"
  ]
}