{
  "cover": "https://avt.mkklcdnv6.com/50/l/4-1583471819.jpg",
  "title": "Ganota No Onna",
  "original": "ガンオタの女 ; 鋼彈宅女 ; Gundam Otaku Girl ; Gunota Girl ; Gunota no Onna",
  "genre": "Comedy, Romance, Shounen, Manga",
  "author": "Uroaki Sabishi",
  "status": "Completed",
  "backlink": "https://manganu.com/collections/uroaki-sabishi/ganota-no-onna/",
  "description": "Ganota Utsuki is an odd one – she just started her new job at a new company and already she acts like she owns the place. And, she tends to live her life as if inspired by Gundam…",
  "language": "English",
  "images": [
    "https://img-proxy.imgfo.com/?referer=https://manganelo.com&url=https://s3.mkklcdnv6temp.com/mangakakalot/g1/ganota_no_onna/vol2_chapter_13_red_suit_white_person/1.jpg",
    "https://img-proxy.imgfo.com/?referer=https://manganelo.com&url=https://s3.mkklcdnv6temp.com/mangakakalot/g1/ganota_no_onna/vol2_chapter_13_red_suit_white_person/2.jpg",
    "https://img-proxy.imgfo.com/?referer=https://manganelo.com&url=https://s3.mkklcdnv6temp.com/mangakakalot/g1/ganota_no_onna/vol2_chapter_13_red_suit_white_person/3.jpg",
    "https://img-proxy.imgfo.com/?referer=https://manganelo.com&url=https://s3.mkklcdnv6temp.com/mangakakalot/g1/ganota_no_onna/vol2_chapter_13_red_suit_white_person/4.jpg",
    "https://img-proxy.imgfo.com/?referer=https://manganelo.com&url=https://s3.mkklcdnv6temp.com/mangakakalot/g1/ganota_no_onna/vol2_chapter_13_red_suit_white_person/5.jpg",
    "https://img-proxy.imgfo.com/?referer=https://manganelo.com&url=https://s3.mkklcdnv6temp.com/mangakakalot/g1/ganota_no_onna/vol2_chapter_13_red_suit_white_person/6.jpg",
    "https://img-proxy.imgfo.com/?referer=https://manganelo.com&url=https://s3.mkklcdnv6temp.com/mangakakalot/g1/ganota_no_onna/vol2_chapter_13_red_suit_white_person/7.jpg",
    "https://img-proxy.imgfo.com/?referer=https://manganelo.com&url=https://s3.mkklcdnv6temp.com/mangakakalot/g1/ganota_no_onna/vol2_chapter_13_red_suit_white_person/8.jpg",
    "https://img-proxy.imgfo.com/?referer=https://manganelo.com&url=https://s3.mkklcdnv6temp.com/mangakakalot/g1/ganota_no_onna/vol2_chapter_13_red_suit_white_person/9.jpg",
    "https://img-proxy.imgfo.com/?referer=https://manganelo.com&url=https://s3.mkklcdnv6temp.com/mangakakalot/g1/ganota_no_onna/vol2_chapter_13_red_suit_white_person/10.jpg",
    "https://img-proxy.imgfo.com/?referer=https://manganelo.com&url=https://s3.mkklcdnv6temp.com/mangakakalot/g1/ganota_no_onna/vol2_chapter_13_red_suit_white_person/11.jpg",
    "https://img-proxy.imgfo.com/?referer=https://manganelo.com&url=https://s3.mkklcdnv6temp.com/mangakakalot/g1/ganota_no_onna/vol2_chapter_13_red_suit_white_person/12.jpg",
    "https://img-proxy.imgfo.com/?referer=https://manganelo.com&url=https://s3.mkklcdnv6temp.com/mangakakalot/g1/ganota_no_onna/vol2_chapter_13_red_suit_white_person/13.jpg",
    "https://img-proxy.imgfo.com/?referer=https://manganelo.com&url=https://s3.mkklcdnv6temp.com/mangakakalot/g1/ganota_no_onna/vol2_chapter_13_red_suit_white_person/14.jpg",
    "https://img-proxy.imgfo.com/?referer=https://manganelo.com&url=https://s3.mkklcdnv6temp.com/mangakakalot/g1/ganota_no_onna/vol2_chapter_13_red_suit_white_person/15.jpg",
    "https://img-proxy.imgfo.com/?referer=https://manganelo.com&url=https://s3.mkklcdnv6temp.com/mangakakalot/g1/ganota_no_onna/vol2_chapter_13_red_suit_white_person/16.jpg",
    "https://img-proxy.imgfo.com/?referer=https://manganelo.com&url=https://s3.mkklcdnv6temp.com/mangakakalot/g1/ganota_no_onna/vol2_chapter_13_red_suit_white_person/17.jpg",
    "https://img-proxy.imgfo.com/?referer=https://manganelo.com&url=https://s3.mkklcdnv6temp.com/mangakakalot/g1/ganota_no_onna/vol2_chapter_13_red_suit_white_person/18.jpg",
    "https://img-proxy.imgfo.com/?referer=https://manganelo.com&url=https://s3.mkklcdnv6temp.com/mangakakalot/g1/ganota_no_onna/vol2_chapter_13_red_suit_white_person/19.jpg",
    "https://img-proxy.imgfo.com/?referer=https://manganelo.com&url=https://s3.mkklcdnv6temp.com/mangakakalot/g1/ganota_no_onna/vol2_chapter_13_red_suit_white_person/20.jpg",
    "https://img-proxy.imgfo.com/?referer=https://manganelo.com&url=https://s3.mkklcdnv6temp.com/mangakakalot/g1/ganota_no_onna/vol2_chapter_13_red_suit_white_person/21.jpg"
  ]
}