{
  "cover": "https://avt.mkklcdnv6.com/44/r/3-1583469433.jpg",
  "title": "Nakanmon!",
  "original": "愛哭鬼別哭 ; 泣かんもん! ; Crybaby, Don't Cry! ; Don't Cry Anymore!",
  "genre": "Comedy, Romance, School life, Shoujo, Manga",
  "author": "Tsukishima Haru",
  "status": "Completed",
  "backlink": "https://manganu.com/collections/tsukishima-haru/nakanmon/",
  "description": "Hirahara Tsukasa just moved to Tokyo from Hiroshima, and she's late on her first day of school because she misses the bus. But this leads to a chance encounter with four other people in her class, and somehow, the five of them became friends?\nCrybaby Tsukasa, the sharp-tongued yet soft-hearted Himeno, the understanding Ichihara, as well as Agatsuma and Onda… these five different personalities come together to create a youthful school life story—\n(Source: Day of the River)",
  "language": "English",
  "images": [
    "https://img-proxy.imgfo.com/?referer=https://manganelo.com&url=https://s41.mkklcdnv6temp.com/mangakakalot/n1/nakanmon/vol3_chapter_12_himeno/1.jpg",
    "https://img-proxy.imgfo.com/?referer=https://manganelo.com&url=https://s41.mkklcdnv6temp.com/mangakakalot/n1/nakanmon/vol3_chapter_12_himeno/2.jpg",
    "https://img-proxy.imgfo.com/?referer=https://manganelo.com&url=https://s41.mkklcdnv6temp.com/mangakakalot/n1/nakanmon/vol3_chapter_12_himeno/3.jpg",
    "https://img-proxy.imgfo.com/?referer=https://manganelo.com&url=https://s41.mkklcdnv6temp.com/mangakakalot/n1/nakanmon/vol3_chapter_12_himeno/4.jpg",
    "https://img-proxy.imgfo.com/?referer=https://manganelo.com&url=https://s41.mkklcdnv6temp.com/mangakakalot/n1/nakanmon/vol3_chapter_12_himeno/5.jpg",
    "https://img-proxy.imgfo.com/?referer=https://manganelo.com&url=https://s41.mkklcdnv6temp.com/mangakakalot/n1/nakanmon/vol3_chapter_12_himeno/6.jpg",
    "https://img-proxy.imgfo.com/?referer=https://manganelo.com&url=https://s41.mkklcdnv6temp.com/mangakakalot/n1/nakanmon/vol3_chapter_12_himeno/7.jpg",
    "https://img-proxy.imgfo.com/?referer=https://manganelo.com&url=https://s41.mkklcdnv6temp.com/mangakakalot/n1/nakanmon/vol3_chapter_12_himeno/8.jpg",
    "https://img-proxy.imgfo.com/?referer=https://manganelo.com&url=https://s41.mkklcdnv6temp.com/mangakakalot/n1/nakanmon/vol3_chapter_12_himeno/9.jpg",
    "https://img-proxy.imgfo.com/?referer=https://manganelo.com&url=https://s41.mkklcdnv6temp.com/mangakakalot/n1/nakanmon/vol3_chapter_12_himeno/10.jpg",
    "https://img-proxy.imgfo.com/?referer=https://manganelo.com&url=https://s41.mkklcdnv6temp.com/mangakakalot/n1/nakanmon/vol3_chapter_12_himeno/11.jpg",
    "https://img-proxy.imgfo.com/?referer=https://manganelo.com&url=https://s41.mkklcdnv6temp.com/mangakakalot/n1/nakanmon/vol3_chapter_12_himeno/12.jpg",
    "https://img-proxy.imgfo.com/?referer=https://manganelo.com&url=https://s41.mkklcdnv6temp.com/mangakakalot/n1/nakanmon/vol3_chapter_12_himeno/13.jpg",
    "https://img-proxy.imgfo.com/?referer=https://manganelo.com&url=https://s41.mkklcdnv6temp.com/mangakakalot/n1/nakanmon/vol3_chapter_12_himeno/14.jpg",
    "https://img-proxy.imgfo.com/?referer=https://manganelo.com&url=https://s41.mkklcdnv6temp.com/mangakakalot/n1/nakanmon/vol3_chapter_12_himeno/15.jpg",
    "https://img-proxy.imgfo.com/?referer=https://manganelo.com&url=https://s41.mkklcdnv6temp.com/mangakakalot/n1/nakanmon/vol3_chapter_12_himeno/16.jpg",
    "https://img-proxy.imgfo.com/?referer=https://manganelo.com&url=https://s41.mkklcdnv6temp.com/mangakakalot/n1/nakanmon/vol3_chapter_12_himeno/17.jpg",
    "https://img-proxy.imgfo.com/?referer=https://manganelo.com&url=https://s41.mkklcdnv6temp.com/mangakakalot/n1/nakanmon/vol3_chapter_12_himeno/18.jpg",
    "https://img-proxy.imgfo.com/?referer=https://manganelo.com&url=https://s41.mkklcdnv6temp.com/mangakakalot/n1/nakanmon/vol3_chapter_12_himeno/19.jpg",
    "https://img-proxy.imgfo.com/?referer=https://manganelo.com&url=https://s41.mkklcdnv6temp.com/mangakakalot/n1/nakanmon/vol3_chapter_12_himeno/20.jpg",
    "https://img-proxy.imgfo.com/?referer=https://manganelo.com&url=https://s41.mkklcdnv6temp.com/mangakakalot/n1/nakanmon/vol3_chapter_12_himeno/21.jpg",
    "https://img-proxy.imgfo.com/?referer=https://manganelo.com&url=https://s41.mkklcdnv6temp.com/mangakakalot/n1/nakanmon/vol3_chapter_12_himeno/22.jpg",
    "https://img-proxy.imgfo.com/?referer=https://manganelo.com&url=https://s41.mkklcdnv6temp.com/mangakakalot/n1/nakanmon/vol3_chapter_12_himeno/23.jpg",
    "https://img-proxy.imgfo.com/?referer=https://manganelo.com&url=https://s41.mkklcdnv6temp.com/mangakakalot/n1/nakanmon/vol3_chapter_12_himeno/24.jpg",
    "https://img-proxy.imgfo.com/?referer=https://manganelo.com&url=https://s41.mkklcdnv6temp.com/mangakakalot/n1/nakanmon/vol3_chapter_12_himeno/25.jpg",
    "https://img-proxy.imgfo.com/?referer=https://manganelo.com&url=https://s41.mkklcdnv6temp.com/mangakakalot/n1/nakanmon/vol3_chapter_12_himeno/26.jpg",
    "https://img-proxy.imgfo.com/?referer=https://manganelo.com&url=https://s41.mkklcdnv6temp.com/mangakakalot/n1/nakanmon/vol3_chapter_12_himeno/27.jpg",
    "https://img-proxy.imgfo.com/?referer=https://manganelo.com&url=https://s41.mkklcdnv6temp.com/mangakakalot/n1/nakanmon/vol3_chapter_12_himeno/28.jpg",
    "https://img-proxy.imgfo.com/?referer=https://manganelo.com&url=https://s41.mkklcdnv6temp.com/mangakakalot/n1/nakanmon/vol3_chapter_12_himeno/29.jpg",
    "https://img-proxy.imgfo.com/?referer=https://manganelo.com&url=https://s41.mkklcdnv6temp.com/mangakakalot/n1/nakanmon/vol3_chapter_12_himeno/30.jpg",
    "https://img-proxy.imgfo.com/?referer=https://manganelo.com&url=https://s41.mkklcdnv6temp.com/mangakakalot/n1/nakanmon/vol3_chapter_12_himeno/31.jpg",
    "https://img-proxy.imgfo.com/?referer=https://manganelo.com&url=https://s41.mkklcdnv6temp.com/mangakakalot/n1/nakanmon/vol3_chapter_12_himeno/32.jpg",
    "https://img-proxy.imgfo.com/?referer=https://manganelo.com&url=https://s41.mkklcdnv6temp.com/mangakakalot/n1/nakanmon/vol3_chapter_12_himeno/33.jpg",
    "https://img-proxy.imgfo.com/?referer=https://manganelo.com&url=https://s41.mkklcdnv6temp.com/mangakakalot/n1/nakanmon/vol3_chapter_12_himeno/34.jpg",
    "https://img-proxy.imgfo.com/?referer=https://manganelo.com&url=https://s41.mkklcdnv6temp.com/mangakakalot/n1/nakanmon/vol3_chapter_12_himeno/35.jpg",
    "https://img-proxy.imgfo.com/?referer=https://manganelo.com&url=https://s41.mkklcdnv6temp.com/mangakakalot/n1/nakanmon/vol3_chapter_12_himeno/36.jpg",
    "https://img-proxy.imgfo.com/?referer=https://manganelo.com&url=https://s41.mkklcdnv6temp.com/mangakakalot/n1/nakanmon/vol3_chapter_12_himeno/37.jpg",
    "https://img-proxy.imgfo.com/?referer=https://manganelo.com&url=https://s41.mkklcdnv6temp.com/mangakakalot/n1/nakanmon/vol3_chapter_12_himeno/38.jpg"
  ]
}