{
  "cover": "https://avt.mkklcdnv6.com/30/y/7-1583477434.jpg",
  "title": "Initial D",
  "original": "头文字D ; 頭文字〈イニシャル〉Ｄ ; 頭文字D",
  "genre": "Action, Drama, Seinen, Sports, Manga",
  "author": "Shigeno Shuichi",
  "status": "Completed",
  "backlink": "https://manganu.com/collections/shigeno-shuichi/initial-d/",
  "description": "Only the fearless survive in the white-hot world of street racing, as teams take on dangerous roads in the shadow of Mt. Akina. Behind the wheel of the mysterious &quot;Ghost of Akina&quot; is Takumi, on his way to becoming the greatest racer ever.",
  "language": "English",
  "images": [
    "https://img-proxy.imgfo.com/?referer=https://manganelo.com&url=https://s7.mkklcdnv6temp.com/mangakakalot/i1/initial_d/vol26_chapter_334_the_last_saitama_area_battle/1.jpg",
    "https://img-proxy.imgfo.com/?referer=https://manganelo.com&url=https://s7.mkklcdnv6temp.com/mangakakalot/i1/initial_d/vol26_chapter_334_the_last_saitama_area_battle/2.jpg",
    "https://img-proxy.imgfo.com/?referer=https://manganelo.com&url=https://s7.mkklcdnv6temp.com/mangakakalot/i1/initial_d/vol26_chapter_334_the_last_saitama_area_battle/3.jpg",
    "https://img-proxy.imgfo.com/?referer=https://manganelo.com&url=https://s7.mkklcdnv6temp.com/mangakakalot/i1/initial_d/vol26_chapter_334_the_last_saitama_area_battle/4.jpg",
    "https://img-proxy.imgfo.com/?referer=https://manganelo.com&url=https://s7.mkklcdnv6temp.com/mangakakalot/i1/initial_d/vol26_chapter_334_the_last_saitama_area_battle/5.jpg",
    "https://img-proxy.imgfo.com/?referer=https://manganelo.com&url=https://s7.mkklcdnv6temp.com/mangakakalot/i1/initial_d/vol26_chapter_334_the_last_saitama_area_battle/6.jpg",
    "https://img-proxy.imgfo.com/?referer=https://manganelo.com&url=https://s7.mkklcdnv6temp.com/mangakakalot/i1/initial_d/vol26_chapter_334_the_last_saitama_area_battle/7.jpg",
    "https://img-proxy.imgfo.com/?referer=https://manganelo.com&url=https://s7.mkklcdnv6temp.com/mangakakalot/i1/initial_d/vol26_chapter_334_the_last_saitama_area_battle/8.jpg",
    "https://img-proxy.imgfo.com/?referer=https://manganelo.com&url=https://s7.mkklcdnv6temp.com/mangakakalot/i1/initial_d/vol26_chapter_334_the_last_saitama_area_battle/9.jpg",
    "https://img-proxy.imgfo.com/?referer=https://manganelo.com&url=https://s7.mkklcdnv6temp.com/mangakakalot/i1/initial_d/vol26_chapter_334_the_last_saitama_area_battle/10.jpg"
  ]
}