{
  "cover": "https://avt.mkklcdnv6.com/1/i/4-1583471857.jpg",
  "title": "Waq Waq",
  "original": "ワークワーク ; WaqWaq",
  "genre": "Action, Adult, Adventure, Comedy, Shounen, Manga",
  "author": "Fujisaki Ryu",
  "status": "Completed",
  "backlink": "https://manganu.com/collections/fujisaki-ryu/waq-waq/",
  "description": "[From Aku Tenshi]: The world of Waq Waq is a place where machines attack the black-blooded humans, whose only defense are the Sakimori, humans chosen to partner up with the Goujin-zou, a race of machines that grow stronger when melded to humans. Shio and his Sakimori father, Al, upon entering a village, are attacked by the machines. As Al falls in battle, he leaves his son to become the new Sakimori and guardian of a mysterious young girl, believed to be god, found at the heart of the battle. Waq Waq is the story of Shio as he battles to protect what was entrusted to him by his father. Let the battle for God begin!",
  "language": "English",
  "images": [
    "https://img-proxy.imgfo.com/?referer=https://manganelo.com&url=https://s5.mkklcdnv6temp.com/mangakakalot/r1/read_waq_waq/vol2_chapter_13/1.jpg",
    "https://img-proxy.imgfo.com/?referer=https://manganelo.com&url=https://s5.mkklcdnv6temp.com/mangakakalot/r1/read_waq_waq/vol2_chapter_13/2.jpg",
    "https://img-proxy.imgfo.com/?referer=https://manganelo.com&url=https://s5.mkklcdnv6temp.com/mangakakalot/r1/read_waq_waq/vol2_chapter_13/3.jpg",
    "https://img-proxy.imgfo.com/?referer=https://manganelo.com&url=https://s5.mkklcdnv6temp.com/mangakakalot/r1/read_waq_waq/vol2_chapter_13/4.jpg",
    "https://img-proxy.imgfo.com/?referer=https://manganelo.com&url=https://s5.mkklcdnv6temp.com/mangakakalot/r1/read_waq_waq/vol2_chapter_13/5.jpg",
    "https://img-proxy.imgfo.com/?referer=https://manganelo.com&url=https://s5.mkklcdnv6temp.com/mangakakalot/r1/read_waq_waq/vol2_chapter_13/6.jpg",
    "https://img-proxy.imgfo.com/?referer=https://manganelo.com&url=https://s5.mkklcdnv6temp.com/mangakakalot/r1/read_waq_waq/vol2_chapter_13/7.jpg",
    "https://img-proxy.imgfo.com/?referer=https://manganelo.com&url=https://s5.mkklcdnv6temp.com/mangakakalot/r1/read_waq_waq/vol2_chapter_13/8.jpg",
    "https://img-proxy.imgfo.com/?referer=https://manganelo.com&url=https://s5.mkklcdnv6temp.com/mangakakalot/r1/read_waq_waq/vol2_chapter_13/9.jpg",
    "https://img-proxy.imgfo.com/?referer=https://manganelo.com&url=https://s5.mkklcdnv6temp.com/mangakakalot/r1/read_waq_waq/vol2_chapter_13/10.jpg",
    "https://img-proxy.imgfo.com/?referer=https://manganelo.com&url=https://s5.mkklcdnv6temp.com/mangakakalot/r1/read_waq_waq/vol2_chapter_13/11.jpg",
    "https://img-proxy.imgfo.com/?referer=https://manganelo.com&url=https://s5.mkklcdnv6temp.com/mangakakalot/r1/read_waq_waq/vol2_chapter_13/12.jpg",
    "https://img-proxy.imgfo.com/?referer=https://manganelo.com&url=https://s5.mkklcdnv6temp.com/mangakakalot/r1/read_waq_waq/vol2_chapter_13/13.jpg",
    "https://img-proxy.imgfo.com/?referer=https://manganelo.com&url=https://s5.mkklcdnv6temp.com/mangakakalot/r1/read_waq_waq/vol2_chapter_13/14.jpg",
    "https://img-proxy.imgfo.com/?referer=https://manganelo.com&url=https://s5.mkklcdnv6temp.com/mangakakalot/r1/read_waq_waq/vol2_chapter_13/15.jpg",
    "https://img-proxy.imgfo.com/?referer=https://manganelo.com&url=https://s5.mkklcdnv6temp.com/mangakakalot/r1/read_waq_waq/vol2_chapter_13/16.jpg",
    "https://img-proxy.imgfo.com/?referer=https://manganelo.com&url=https://s5.mkklcdnv6temp.com/mangakakalot/r1/read_waq_waq/vol2_chapter_13/17.jpg",
    "https://img-proxy.imgfo.com/?referer=https://manganelo.com&url=https://s5.mkklcdnv6temp.com/mangakakalot/r1/read_waq_waq/vol2_chapter_13/18.jpg",
    "https://img-proxy.imgfo.com/?referer=https://manganelo.com&url=https://s5.mkklcdnv6temp.com/mangakakalot/r1/read_waq_waq/vol2_chapter_13/19.jpg",
    "https://img-proxy.imgfo.com/?referer=https://manganelo.com&url=https://s5.mkklcdnv6temp.com/mangakakalot/r1/read_waq_waq/vol2_chapter_13/20.jpg"
  ]
}