{
  "cover": "https://avt.mkklcdnv6.com/36/i/5-1583473323.jpg",
  "title": "Mamotte! Lollipop",
  "original": "まもって! ロリポップ ; Tell me ! Lollipop ; Protect Me! Lollipop ; Save Me! Lollipop ; Viên ngọc nhiệm mầu (Vietnamese) ; Sweet! Lollipop",
  "genre": "Action, Comedy, Drama, Fantasy, Romance, School life, Shoujo, Slice of life, Supernatural, Manga",
  "author": "Kikuta Michiyo",
  "status": "Completed",
  "backlink": "https://manganu.com/collections/kikuta-michiyo/mamotte-lollipop/",
  "description": "Nina Yamada is a junior high 7th grader who dreams about a boy who is strong, handsome, and kind enough to protect her. One day, Nina &quot;accidentally&quot; swallowed a Crystal Pearl that she assumed was a candy. But the Crystal Pearl was the goal of a sorcery examination. Nina is the new Crystal Pearl which is targeted by many probationer sorcerers and goes on for half a year. During this whole mix up, she meets two magician boys named Zero and Ichi and comes to a conclusion that they can protect her until a potion is made to remove the Crystal Pearl from her. However, this potion will take about 6 months to complete. Even at school and at home, Zero and Ichi protect Nina where ever she goes. Now, not only is Nina being attacked and chased around by a group of magicians, but she has to figure out which of her two protectors she likes most! ~~~ Junior high schooler Nina is ready to fall in love. She&#39;s looking for a boy who&#39;s cute and sweet and strong enough to support her when the chips are down. But what happens when Nina&#39;s dream comes true&hellip;twice? One day, two cute boys literally fall from the sky: they&#39;re both wizards and they&#39;ve come to the Human World to take the Magic Exam. Their success on this test depends on protecting Nina from evil, so now Nina has a pair of cute magical boys chasing her everywhere she goes! One of these wizards just might be the boy of her dreams&hellip;but which one?",
  "language": "English",
  "images": [
    "https://img-proxy.imgfo.com/?referer=https://manganelo.com&url=https://s5.mkklcdnv6temp.com/mangakakalot/m1/mamotte_lollipop/vol3_chapter_142_bonus_story_chocolate_and_vanilla_equals_lollipop/1.jpg",
    "https://img-proxy.imgfo.com/?referer=https://manganelo.com&url=https://s5.mkklcdnv6temp.com/mangakakalot/m1/mamotte_lollipop/vol3_chapter_142_bonus_story_chocolate_and_vanilla_equals_lollipop/2.jpg",
    "https://img-proxy.imgfo.com/?referer=https://manganelo.com&url=https://s5.mkklcdnv6temp.com/mangakakalot/m1/mamotte_lollipop/vol3_chapter_142_bonus_story_chocolate_and_vanilla_equals_lollipop/3.jpg",
    "https://img-proxy.imgfo.com/?referer=https://manganelo.com&url=https://s5.mkklcdnv6temp.com/mangakakalot/m1/mamotte_lollipop/vol3_chapter_142_bonus_story_chocolate_and_vanilla_equals_lollipop/4.jpg",
    "https://img-proxy.imgfo.com/?referer=https://manganelo.com&url=https://s5.mkklcdnv6temp.com/mangakakalot/m1/mamotte_lollipop/vol3_chapter_142_bonus_story_chocolate_and_vanilla_equals_lollipop/5.jpg"
  ]
}