{
  "cover": "https://avt.mkklcdnv6.com/43/z/3-1583469401.jpg",
  "title": "Ichiban Ushiro No Daimaou",
  "original": "いちばんうしろの大魔王 ; 最后的大魔王 ; Demon King Daimao ; Ichiban Ushiro no Dai Maoh ; Ichiban Ushiro no Dai Maou",
  "genre": "Action, Adventure, Comedy, Ecchi, Fantasy, Harem, Romance, School life, Shounen, Supernatural, Manga",
  "author": "Mizuki Shoutarou",
  "status": "Completed",
  "backlink": "https://manganu.com/collections/mizuki-shoutarou/ichiban-ushiro-no-daimaou/",
  "description": "In the 30th century A.D., in a world in which magic exists, 100 years have passed since the human race won a war against the Devil King. Even though the war caused many sacrifices, slowly but surely civilizations began to rise again. One day, a virtuous child named Sai Akuto (&quot;Worst Evil&quot;) is adopted from the orphanage he&#39;s lived in ever since a witch quietly left him at the church as a baby. Five years later, Akuto passes the test to enter Constantin Magic High School. But after arriving and taking the vocational aptitude test, Akuto receives surprising results: Examination Numbers: Number 021 Name: Sai Akuto Future Occupation: The Devil King",
  "language": "English",
  "images": [
    "https://img-proxy.imgfo.com/?referer=https://manganelo.com&url=https://s41.mkklcdnv6temp.com/mangakakalot/i1/ichiban_ushiro_no_daimaou/vol3_chapter_19_wanna_get_seduced/1.jpg",
    "https://img-proxy.imgfo.com/?referer=https://manganelo.com&url=https://s41.mkklcdnv6temp.com/mangakakalot/i1/ichiban_ushiro_no_daimaou/vol3_chapter_19_wanna_get_seduced/2.jpg",
    "https://img-proxy.imgfo.com/?referer=https://manganelo.com&url=https://s41.mkklcdnv6temp.com/mangakakalot/i1/ichiban_ushiro_no_daimaou/vol3_chapter_19_wanna_get_seduced/3.jpg",
    "https://img-proxy.imgfo.com/?referer=https://manganelo.com&url=https://s41.mkklcdnv6temp.com/mangakakalot/i1/ichiban_ushiro_no_daimaou/vol3_chapter_19_wanna_get_seduced/4.jpg",
    "https://img-proxy.imgfo.com/?referer=https://manganelo.com&url=https://s41.mkklcdnv6temp.com/mangakakalot/i1/ichiban_ushiro_no_daimaou/vol3_chapter_19_wanna_get_seduced/5.jpg",
    "https://img-proxy.imgfo.com/?referer=https://manganelo.com&url=https://s41.mkklcdnv6temp.com/mangakakalot/i1/ichiban_ushiro_no_daimaou/vol3_chapter_19_wanna_get_seduced/6.jpg",
    "https://img-proxy.imgfo.com/?referer=https://manganelo.com&url=https://s41.mkklcdnv6temp.com/mangakakalot/i1/ichiban_ushiro_no_daimaou/vol3_chapter_19_wanna_get_seduced/7.jpg",
    "https://img-proxy.imgfo.com/?referer=https://manganelo.com&url=https://s41.mkklcdnv6temp.com/mangakakalot/i1/ichiban_ushiro_no_daimaou/vol3_chapter_19_wanna_get_seduced/8.jpg",
    "https://img-proxy.imgfo.com/?referer=https://manganelo.com&url=https://s41.mkklcdnv6temp.com/mangakakalot/i1/ichiban_ushiro_no_daimaou/vol3_chapter_19_wanna_get_seduced/9.jpg",
    "https://img-proxy.imgfo.com/?referer=https://manganelo.com&url=https://s41.mkklcdnv6temp.com/mangakakalot/i1/ichiban_ushiro_no_daimaou/vol3_chapter_19_wanna_get_seduced/10.jpg",
    "https://img-proxy.imgfo.com/?referer=https://manganelo.com&url=https://s41.mkklcdnv6temp.com/mangakakalot/i1/ichiban_ushiro_no_daimaou/vol3_chapter_19_wanna_get_seduced/11.jpg",
    "https://img-proxy.imgfo.com/?referer=https://manganelo.com&url=https://s41.mkklcdnv6temp.com/mangakakalot/i1/ichiban_ushiro_no_daimaou/vol3_chapter_19_wanna_get_seduced/12.jpg",
    "https://img-proxy.imgfo.com/?referer=https://manganelo.com&url=https://s41.mkklcdnv6temp.com/mangakakalot/i1/ichiban_ushiro_no_daimaou/vol3_chapter_19_wanna_get_seduced/13.jpg",
    "https://img-proxy.imgfo.com/?referer=https://manganelo.com&url=https://s41.mkklcdnv6temp.com/mangakakalot/i1/ichiban_ushiro_no_daimaou/vol3_chapter_19_wanna_get_seduced/14.jpg",
    "https://img-proxy.imgfo.com/?referer=https://manganelo.com&url=https://s41.mkklcdnv6temp.com/mangakakalot/i1/ichiban_ushiro_no_daimaou/vol3_chapter_19_wanna_get_seduced/15.jpg",
    "https://img-proxy.imgfo.com/?referer=https://manganelo.com&url=https://s41.mkklcdnv6temp.com/mangakakalot/i1/ichiban_ushiro_no_daimaou/vol3_chapter_19_wanna_get_seduced/16.jpg",
    "https://img-proxy.imgfo.com/?referer=https://manganelo.com&url=https://s41.mkklcdnv6temp.com/mangakakalot/i1/ichiban_ushiro_no_daimaou/vol3_chapter_19_wanna_get_seduced/17.jpg",
    "https://img-proxy.imgfo.com/?referer=https://manganelo.com&url=https://s41.mkklcdnv6temp.com/mangakakalot/i1/ichiban_ushiro_no_daimaou/vol3_chapter_19_wanna_get_seduced/18.jpg",
    "https://img-proxy.imgfo.com/?referer=https://manganelo.com&url=https://s41.mkklcdnv6temp.com/mangakakalot/i1/ichiban_ushiro_no_daimaou/vol3_chapter_19_wanna_get_seduced/19.jpg",
    "https://img-proxy.imgfo.com/?referer=https://manganelo.com&url=https://s41.mkklcdnv6temp.com/mangakakalot/i1/ichiban_ushiro_no_daimaou/vol3_chapter_19_wanna_get_seduced/20.jpg",
    "https://img-proxy.imgfo.com/?referer=https://manganelo.com&url=https://s41.mkklcdnv6temp.com/mangakakalot/i1/ichiban_ushiro_no_daimaou/vol3_chapter_19_wanna_get_seduced/21.jpg",
    "https://img-proxy.imgfo.com/?referer=https://manganelo.com&url=https://s41.mkklcdnv6temp.com/mangakakalot/i1/ichiban_ushiro_no_daimaou/vol3_chapter_19_wanna_get_seduced/22.jpg",
    "https://img-proxy.imgfo.com/?referer=https://manganelo.com&url=https://s41.mkklcdnv6temp.com/mangakakalot/i1/ichiban_ushiro_no_daimaou/vol3_chapter_19_wanna_get_seduced/23.jpg",
    "https://img-proxy.imgfo.com/?referer=https://manganelo.com&url=https://s41.mkklcdnv6temp.com/mangakakalot/i1/ichiban_ushiro_no_daimaou/vol3_chapter_19_wanna_get_seduced/24.jpg",
    "https://img-proxy.imgfo.com/?referer=https://manganelo.com&url=https://s41.mkklcdnv6temp.com/mangakakalot/i1/ichiban_ushiro_no_daimaou/vol3_chapter_19_wanna_get_seduced/25.jpg"
  ]
}