{
  "cover": "https://avt.mkklcdnv6.com/24/z/11-1583484918.jpg",
  "title": "Velvet Kiss",
  "original": "ベルベット・キス ; 天鹅绒之吻 ; (バンブー・コミックス VITAMAN SELECT) ; Berubetto Kisu ; Бархатный Поцелуй (Русский) ; Nụ hôn dịu dàng (Vietnamese)",
  "genre": "Action, Adult, Comedy, Cooking, Drama, Ecchi, Romance, Seinen, Smut, Manga",
  "author": "Harumi Chihiro",
  "status": "Completed",
  "backlink": "https://manganu.com/collections/harumi-chihiro/velvet-kiss/",
  "description": "Shin Nitta is abruptly smashed with debt, but his loan broker tells him he could be freed of the debt if he keeps a particular girl &quot;company&quot;. Over time, he learns that doing so is as difficult as he believed.\n\nThe connection between Kanoko and Shin Nitta starts out badly. He initially simply runs errands to keep Kanoko met at a bare minimum, as Nitta simply views Kanoko as a spoiled brat who can not care less about anyone but herself. As time passes, Nitta shortly finds the facets of the life of Kanoko that led to her self centered isolation: the stepmother of Kanoko /aunt caused her dad&#39;s sickness throughout the string in addition to her mom&#39;s passing.\n\n\n\nFrom the conclusion of the show, Nitta and Kanoko have both fallen in love with each other. But since her dad&#39;s business has been taken over by Kanoko, she cannot be with Nitta as they both concur that Kanoko must concentrate on her new duty. Three plus a half years after, a brand new job has been began by Nitta and her dad&#39;s business has been taken over by Kanoko. Her aunt has been detained for her offenses. Kanoko and Nitta reunite only to find that Kanoko must travel overseas to enlarge the company.\n\nAt first, she is seen by him however he falls in love along with her.\n\nKanoko Kikuchiya\nA wealthy girl that Shin was delegated to. Kanoko is a solitary man belonging to some family that is wealthy, having a stepmother, Yoriko as well as a father. In the beginning, her relationship with Shin just is apparently a relationship that is forced, with Kanoko taking great advantage of the debt to order Shin to do her errands. Nevertheless, this shifts as Shin learns of her youth, and bonds closer with Kanoko. Kanoko is dependent on sex, as her other pals affected her.\n\nYoriko Kikuchiya\nKanoko&#39;s step mother who commands the company aspect of Kikuchiya hospital. She seems to be sort and worries about Kanoko but it&#39;s simply a facade; she&#39;s a manipulative girl who happens to be the one that gave his debt to Nitta. Yoriko is having an affair with among the physicians in the hospital.",
  "language": "English",
  "images": [
    "https://img-proxy.imgfo.com/?referer=https://manganelo.com&url=https://s5.mkklcdnv6temp.com/mangakakalot/v1/velvet_kiss/vol1_chapter_4_outburst/1.jpg",
    "https://img-proxy.imgfo.com/?referer=https://manganelo.com&url=https://s5.mkklcdnv6temp.com/mangakakalot/v1/velvet_kiss/vol1_chapter_4_outburst/2.jpg",
    "https://img-proxy.imgfo.com/?referer=https://manganelo.com&url=https://s5.mkklcdnv6temp.com/mangakakalot/v1/velvet_kiss/vol1_chapter_4_outburst/3.jpg",
    "https://img-proxy.imgfo.com/?referer=https://manganelo.com&url=https://s5.mkklcdnv6temp.com/mangakakalot/v1/velvet_kiss/vol1_chapter_4_outburst/4.jpg",
    "https://img-proxy.imgfo.com/?referer=https://manganelo.com&url=https://s5.mkklcdnv6temp.com/mangakakalot/v1/velvet_kiss/vol1_chapter_4_outburst/5.jpg",
    "https://img-proxy.imgfo.com/?referer=https://manganelo.com&url=https://s5.mkklcdnv6temp.com/mangakakalot/v1/velvet_kiss/vol1_chapter_4_outburst/6.jpg",
    "https://img-proxy.imgfo.com/?referer=https://manganelo.com&url=https://s5.mkklcdnv6temp.com/mangakakalot/v1/velvet_kiss/vol1_chapter_4_outburst/7.jpg",
    "https://img-proxy.imgfo.com/?referer=https://manganelo.com&url=https://s5.mkklcdnv6temp.com/mangakakalot/v1/velvet_kiss/vol1_chapter_4_outburst/8.jpg",
    "https://img-proxy.imgfo.com/?referer=https://manganelo.com&url=https://s5.mkklcdnv6temp.com/mangakakalot/v1/velvet_kiss/vol1_chapter_4_outburst/9.jpg",
    "https://img-proxy.imgfo.com/?referer=https://manganelo.com&url=https://s5.mkklcdnv6temp.com/mangakakalot/v1/velvet_kiss/vol1_chapter_4_outburst/10.jpg",
    "https://img-proxy.imgfo.com/?referer=https://manganelo.com&url=https://s5.mkklcdnv6temp.com/mangakakalot/v1/velvet_kiss/vol1_chapter_4_outburst/11.jpg",
    "https://img-proxy.imgfo.com/?referer=https://manganelo.com&url=https://s5.mkklcdnv6temp.com/mangakakalot/v1/velvet_kiss/vol1_chapter_4_outburst/12.jpg",
    "https://img-proxy.imgfo.com/?referer=https://manganelo.com&url=https://s5.mkklcdnv6temp.com/mangakakalot/v1/velvet_kiss/vol1_chapter_4_outburst/13.jpg",
    "https://img-proxy.imgfo.com/?referer=https://manganelo.com&url=https://s5.mkklcdnv6temp.com/mangakakalot/v1/velvet_kiss/vol1_chapter_4_outburst/14.jpg",
    "https://img-proxy.imgfo.com/?referer=https://manganelo.com&url=https://s5.mkklcdnv6temp.com/mangakakalot/v1/velvet_kiss/vol1_chapter_4_outburst/15.jpg",
    "https://img-proxy.imgfo.com/?referer=https://manganelo.com&url=https://s5.mkklcdnv6temp.com/mangakakalot/v1/velvet_kiss/vol1_chapter_4_outburst/16.jpg",
    "https://img-proxy.imgfo.com/?referer=https://manganelo.com&url=https://s5.mkklcdnv6temp.com/mangakakalot/v1/velvet_kiss/vol1_chapter_4_outburst/17.jpg",
    "https://img-proxy.imgfo.com/?referer=https://manganelo.com&url=https://s5.mkklcdnv6temp.com/mangakakalot/v1/velvet_kiss/vol1_chapter_4_outburst/18.jpg",
    "https://img-proxy.imgfo.com/?referer=https://manganelo.com&url=https://s5.mkklcdnv6temp.com/mangakakalot/v1/velvet_kiss/vol1_chapter_4_outburst/19.jpg",
    "https://img-proxy.imgfo.com/?referer=https://manganelo.com&url=https://s5.mkklcdnv6temp.com/mangakakalot/v1/velvet_kiss/vol1_chapter_4_outburst/20.jpg",
    "https://img-proxy.imgfo.com/?referer=https://manganelo.com&url=https://s5.mkklcdnv6temp.com/mangakakalot/v1/velvet_kiss/vol1_chapter_4_outburst/21.jpg",
    "https://img-proxy.imgfo.com/?referer=https://manganelo.com&url=https://s5.mkklcdnv6temp.com/mangakakalot/v1/velvet_kiss/vol1_chapter_4_outburst/22.jpg",
    "https://img-proxy.imgfo.com/?referer=https://manganelo.com&url=https://s5.mkklcdnv6temp.com/mangakakalot/v1/velvet_kiss/vol1_chapter_4_outburst/23.jpg",
    "https://img-proxy.imgfo.com/?referer=https://manganelo.com&url=https://s5.mkklcdnv6temp.com/mangakakalot/v1/velvet_kiss/vol1_chapter_4_outburst/24.jpg",
    "https://img-proxy.imgfo.com/?referer=https://manganelo.com&url=https://s5.mkklcdnv6temp.com/mangakakalot/v1/velvet_kiss/vol1_chapter_4_outburst/25.jpg",
    "https://img-proxy.imgfo.com/?referer=https://manganelo.com&url=https://s5.mkklcdnv6temp.com/mangakakalot/v1/velvet_kiss/vol1_chapter_4_outburst/26.jpg"
  ]
}