{
  "cover": "https://avt.mkklcdnv6.com/37/s/9-1583481637.jpg",
  "title": "Utsurowazarumono - Breath Of Fire Iv",
  "original": "うつろわざるもの～ブレス オブ ファイアIV～ ; Breath of Fire IV ; Breath of Fire IV - The Endless ; Breath of Fire IV - The Unfading Ones ; Breath of Fire IV - Utsurowazarumono ; Utsuro Wazarumono - Breath of Fire IV",
  "genre": "Adventure, Fantasy, Shoujo, Tragedy, Manga",
  "author": "Ichimura Hitoshi",
  "status": "Completed",
  "backlink": "https://manganu.com/collections/ichimura-hitoshi/utsurowazarumono-breath-of-fire-iv/",
  "description": "Nina, a wyndian princess, and her guardian Cray are searching everywhere for Nina's missing elder sister, Elina. While traveling to her last known whereabouts they suffer an accident. On her way to a nearby town, Nina meets Ryu, a seemingly amnesiac young man. This meeting triggers a series of events that will involve them with the godly race known as The Endless, immortal dragons with the power to shape the world itself.\nClosely follows the storyline of the original game.",
  "language": "English",
  "images": [
    "https://img-proxy.imgfo.com/?referer=https://manganelo.com&url=https://s6.mkklcdnv6temp.com/mangakakalot/u2/utsurowazarumono_breath_of_fire_iv/vol5_chapter_25_the_endless_part_ii/1.jpg",
    "https://img-proxy.imgfo.com/?referer=https://manganelo.com&url=https://s6.mkklcdnv6temp.com/mangakakalot/u2/utsurowazarumono_breath_of_fire_iv/vol5_chapter_25_the_endless_part_ii/2.jpg",
    "https://img-proxy.imgfo.com/?referer=https://manganelo.com&url=https://s6.mkklcdnv6temp.com/mangakakalot/u2/utsurowazarumono_breath_of_fire_iv/vol5_chapter_25_the_endless_part_ii/3.jpg",
    "https://img-proxy.imgfo.com/?referer=https://manganelo.com&url=https://s6.mkklcdnv6temp.com/mangakakalot/u2/utsurowazarumono_breath_of_fire_iv/vol5_chapter_25_the_endless_part_ii/4.jpg",
    "https://img-proxy.imgfo.com/?referer=https://manganelo.com&url=https://s6.mkklcdnv6temp.com/mangakakalot/u2/utsurowazarumono_breath_of_fire_iv/vol5_chapter_25_the_endless_part_ii/5.jpg",
    "https://img-proxy.imgfo.com/?referer=https://manganelo.com&url=https://s6.mkklcdnv6temp.com/mangakakalot/u2/utsurowazarumono_breath_of_fire_iv/vol5_chapter_25_the_endless_part_ii/6.jpg",
    "https://img-proxy.imgfo.com/?referer=https://manganelo.com&url=https://s6.mkklcdnv6temp.com/mangakakalot/u2/utsurowazarumono_breath_of_fire_iv/vol5_chapter_25_the_endless_part_ii/7.jpg",
    "https://img-proxy.imgfo.com/?referer=https://manganelo.com&url=https://s6.mkklcdnv6temp.com/mangakakalot/u2/utsurowazarumono_breath_of_fire_iv/vol5_chapter_25_the_endless_part_ii/8.jpg",
    "https://img-proxy.imgfo.com/?referer=https://manganelo.com&url=https://s6.mkklcdnv6temp.com/mangakakalot/u2/utsurowazarumono_breath_of_fire_iv/vol5_chapter_25_the_endless_part_ii/9.jpg",
    "https://img-proxy.imgfo.com/?referer=https://manganelo.com&url=https://s6.mkklcdnv6temp.com/mangakakalot/u2/utsurowazarumono_breath_of_fire_iv/vol5_chapter_25_the_endless_part_ii/10.jpg",
    "https://img-proxy.imgfo.com/?referer=https://manganelo.com&url=https://s6.mkklcdnv6temp.com/mangakakalot/u2/utsurowazarumono_breath_of_fire_iv/vol5_chapter_25_the_endless_part_ii/11.jpg",
    "https://img-proxy.imgfo.com/?referer=https://manganelo.com&url=https://s6.mkklcdnv6temp.com/mangakakalot/u2/utsurowazarumono_breath_of_fire_iv/vol5_chapter_25_the_endless_part_ii/12.jpg",
    "https://img-proxy.imgfo.com/?referer=https://manganelo.com&url=https://s6.mkklcdnv6temp.com/mangakakalot/u2/utsurowazarumono_breath_of_fire_iv/vol5_chapter_25_the_endless_part_ii/13.jpg",
    "https://img-proxy.imgfo.com/?referer=https://manganelo.com&url=https://s6.mkklcdnv6temp.com/mangakakalot/u2/utsurowazarumono_breath_of_fire_iv/vol5_chapter_25_the_endless_part_ii/14.jpg",
    "https://img-proxy.imgfo.com/?referer=https://manganelo.com&url=https://s6.mkklcdnv6temp.com/mangakakalot/u2/utsurowazarumono_breath_of_fire_iv/vol5_chapter_25_the_endless_part_ii/15.jpg",
    "https://img-proxy.imgfo.com/?referer=https://manganelo.com&url=https://s6.mkklcdnv6temp.com/mangakakalot/u2/utsurowazarumono_breath_of_fire_iv/vol5_chapter_25_the_endless_part_ii/16.jpg",
    "https://img-proxy.imgfo.com/?referer=https://manganelo.com&url=https://s6.mkklcdnv6temp.com/mangakakalot/u2/utsurowazarumono_breath_of_fire_iv/vol5_chapter_25_the_endless_part_ii/17.jpg",
    "https://img-proxy.imgfo.com/?referer=https://manganelo.com&url=https://s6.mkklcdnv6temp.com/mangakakalot/u2/utsurowazarumono_breath_of_fire_iv/vol5_chapter_25_the_endless_part_ii/18.jpg",
    "https://img-proxy.imgfo.com/?referer=https://manganelo.com&url=https://s6.mkklcdnv6temp.com/mangakakalot/u2/utsurowazarumono_breath_of_fire_iv/vol5_chapter_25_the_endless_part_ii/19.jpg",
    "https://img-proxy.imgfo.com/?referer=https://manganelo.com&url=https://s6.mkklcdnv6temp.com/mangakakalot/u2/utsurowazarumono_breath_of_fire_iv/vol5_chapter_25_the_endless_part_ii/20.jpg",
    "https://img-proxy.imgfo.com/?referer=https://manganelo.com&url=https://s6.mkklcdnv6temp.com/mangakakalot/u2/utsurowazarumono_breath_of_fire_iv/vol5_chapter_25_the_endless_part_ii/21.jpg",
    "https://img-proxy.imgfo.com/?referer=https://manganelo.com&url=https://s6.mkklcdnv6temp.com/mangakakalot/u2/utsurowazarumono_breath_of_fire_iv/vol5_chapter_25_the_endless_part_ii/22.jpg",
    "https://img-proxy.imgfo.com/?referer=https://manganelo.com&url=https://s6.mkklcdnv6temp.com/mangakakalot/u2/utsurowazarumono_breath_of_fire_iv/vol5_chapter_25_the_endless_part_ii/23.jpg",
    "https://img-proxy.imgfo.com/?referer=https://manganelo.com&url=https://s6.mkklcdnv6temp.com/mangakakalot/u2/utsurowazarumono_breath_of_fire_iv/vol5_chapter_25_the_endless_part_ii/24.jpg",
    "https://img-proxy.imgfo.com/?referer=https://manganelo.com&url=https://s6.mkklcdnv6temp.com/mangakakalot/u2/utsurowazarumono_breath_of_fire_iv/vol5_chapter_25_the_endless_part_ii/25.jpg",
    "https://img-proxy.imgfo.com/?referer=https://manganelo.com&url=https://s6.mkklcdnv6temp.com/mangakakalot/u2/utsurowazarumono_breath_of_fire_iv/vol5_chapter_25_the_endless_part_ii/26.jpg",
    "https://img-proxy.imgfo.com/?referer=https://manganelo.com&url=https://s6.mkklcdnv6temp.com/mangakakalot/u2/utsurowazarumono_breath_of_fire_iv/vol5_chapter_25_the_endless_part_ii/27.jpg",
    "https://img-proxy.imgfo.com/?referer=https://manganelo.com&url=https://s6.mkklcdnv6temp.com/mangakakalot/u2/utsurowazarumono_breath_of_fire_iv/vol5_chapter_25_the_endless_part_ii/28.jpg",
    "https://img-proxy.imgfo.com/?referer=https://manganelo.com&url=https://s6.mkklcdnv6temp.com/mangakakalot/u2/utsurowazarumono_breath_of_fire_iv/vol5_chapter_25_the_endless_part_ii/29.jpg",
    "https://img-proxy.imgfo.com/?referer=https://manganelo.com&url=https://s6.mkklcdnv6temp.com/mangakakalot/u2/utsurowazarumono_breath_of_fire_iv/vol5_chapter_25_the_endless_part_ii/30.jpg",
    "https://img-proxy.imgfo.com/?referer=https://manganelo.com&url=https://s6.mkklcdnv6temp.com/mangakakalot/u2/utsurowazarumono_breath_of_fire_iv/vol5_chapter_25_the_endless_part_ii/31.jpg",
    "https://img-proxy.imgfo.com/?referer=https://manganelo.com&url=https://s6.mkklcdnv6temp.com/mangakakalot/u2/utsurowazarumono_breath_of_fire_iv/vol5_chapter_25_the_endless_part_ii/32.jpg",
    "https://img-proxy.imgfo.com/?referer=https://manganelo.com&url=https://s6.mkklcdnv6temp.com/mangakakalot/u2/utsurowazarumono_breath_of_fire_iv/vol5_chapter_25_the_endless_part_ii/33.jpg"
  ]
}