{
  "cover": "https://avt.mkklcdnv6.com/9/o/5-1583472233.jpg",
  "title": "Oira Houkago Wakadaishou",
  "original": "I'm the Boss of After-School",
  "genre": "Comedy, Shoujo, Shounen, Sports, Manga",
  "author": "Adachi Mitsuru",
  "status": "Completed",
  "backlink": "https://manganu.com/collections/adachi-mitsuru/oira-houkago-wakadaishou/",
  "description": "Enter our hero Wakadaishou! He doesn't have much interest in school; he saves his energy for all the excitement he can stir up after school. This is an early Adachi Mitsuru 'youth manga', filled with engaging characters, comic scenes, and a young hero with a zest for life.",
  "language": "English",
  "images": [
    "https://img-proxy.imgfo.com/?referer=https://manganelo.com&url=https://s7.mkklcdnv6temp.com/mangakakalot/o1/oira_houkago_wakadaishou/vol2_chapter_10_the_snow_and_the_challenge_letter/1.jpg",
    "https://img-proxy.imgfo.com/?referer=https://manganelo.com&url=https://s7.mkklcdnv6temp.com/mangakakalot/o1/oira_houkago_wakadaishou/vol2_chapter_10_the_snow_and_the_challenge_letter/2.jpg",
    "https://img-proxy.imgfo.com/?referer=https://manganelo.com&url=https://s7.mkklcdnv6temp.com/mangakakalot/o1/oira_houkago_wakadaishou/vol2_chapter_10_the_snow_and_the_challenge_letter/3.jpg",
    "https://img-proxy.imgfo.com/?referer=https://manganelo.com&url=https://s7.mkklcdnv6temp.com/mangakakalot/o1/oira_houkago_wakadaishou/vol2_chapter_10_the_snow_and_the_challenge_letter/4.jpg",
    "https://img-proxy.imgfo.com/?referer=https://manganelo.com&url=https://s7.mkklcdnv6temp.com/mangakakalot/o1/oira_houkago_wakadaishou/vol2_chapter_10_the_snow_and_the_challenge_letter/5.jpg",
    "https://img-proxy.imgfo.com/?referer=https://manganelo.com&url=https://s7.mkklcdnv6temp.com/mangakakalot/o1/oira_houkago_wakadaishou/vol2_chapter_10_the_snow_and_the_challenge_letter/6.jpg",
    "https://img-proxy.imgfo.com/?referer=https://manganelo.com&url=https://s7.mkklcdnv6temp.com/mangakakalot/o1/oira_houkago_wakadaishou/vol2_chapter_10_the_snow_and_the_challenge_letter/7.jpg",
    "https://img-proxy.imgfo.com/?referer=https://manganelo.com&url=https://s7.mkklcdnv6temp.com/mangakakalot/o1/oira_houkago_wakadaishou/vol2_chapter_10_the_snow_and_the_challenge_letter/8.jpg",
    "https://img-proxy.imgfo.com/?referer=https://manganelo.com&url=https://s7.mkklcdnv6temp.com/mangakakalot/o1/oira_houkago_wakadaishou/vol2_chapter_10_the_snow_and_the_challenge_letter/9.jpg",
    "https://img-proxy.imgfo.com/?referer=https://manganelo.com&url=https://s7.mkklcdnv6temp.com/mangakakalot/o1/oira_houkago_wakadaishou/vol2_chapter_10_the_snow_and_the_challenge_letter/10.jpg",
    "https://img-proxy.imgfo.com/?referer=https://manganelo.com&url=https://s7.mkklcdnv6temp.com/mangakakalot/o1/oira_houkago_wakadaishou/vol2_chapter_10_the_snow_and_the_challenge_letter/11.jpg",
    "https://img-proxy.imgfo.com/?referer=https://manganelo.com&url=https://s7.mkklcdnv6temp.com/mangakakalot/o1/oira_houkago_wakadaishou/vol2_chapter_10_the_snow_and_the_challenge_letter/12.jpg",
    "https://img-proxy.imgfo.com/?referer=https://manganelo.com&url=https://s7.mkklcdnv6temp.com/mangakakalot/o1/oira_houkago_wakadaishou/vol2_chapter_10_the_snow_and_the_challenge_letter/13.jpg",
    "https://img-proxy.imgfo.com/?referer=https://manganelo.com&url=https://s7.mkklcdnv6temp.com/mangakakalot/o1/oira_houkago_wakadaishou/vol2_chapter_10_the_snow_and_the_challenge_letter/14.jpg",
    "https://img-proxy.imgfo.com/?referer=https://manganelo.com&url=https://s7.mkklcdnv6temp.com/mangakakalot/o1/oira_houkago_wakadaishou/vol2_chapter_10_the_snow_and_the_challenge_letter/15.jpg",
    "https://img-proxy.imgfo.com/?referer=https://manganelo.com&url=https://s7.mkklcdnv6temp.com/mangakakalot/o1/oira_houkago_wakadaishou/vol2_chapter_10_the_snow_and_the_challenge_letter/16.jpg",
    "https://img-proxy.imgfo.com/?referer=https://manganelo.com&url=https://s7.mkklcdnv6temp.com/mangakakalot/o1/oira_houkago_wakadaishou/vol2_chapter_10_the_snow_and_the_challenge_letter/17.jpg",
    "https://img-proxy.imgfo.com/?referer=https://manganelo.com&url=https://s7.mkklcdnv6temp.com/mangakakalot/o1/oira_houkago_wakadaishou/vol2_chapter_10_the_snow_and_the_challenge_letter/18.jpg",
    "https://img-proxy.imgfo.com/?referer=https://manganelo.com&url=https://s7.mkklcdnv6temp.com/mangakakalot/o1/oira_houkago_wakadaishou/vol2_chapter_10_the_snow_and_the_challenge_letter/19.jpg",
    "https://img-proxy.imgfo.com/?referer=https://manganelo.com&url=https://s7.mkklcdnv6temp.com/mangakakalot/o1/oira_houkago_wakadaishou/vol2_chapter_10_the_snow_and_the_challenge_letter/20.jpg",
    "https://img-proxy.imgfo.com/?referer=https://manganelo.com&url=https://s7.mkklcdnv6temp.com/mangakakalot/o1/oira_houkago_wakadaishou/vol2_chapter_10_the_snow_and_the_challenge_letter/21.jpg",
    "https://img-proxy.imgfo.com/?referer=https://manganelo.com&url=https://s7.mkklcdnv6temp.com/mangakakalot/o1/oira_houkago_wakadaishou/vol2_chapter_10_the_snow_and_the_challenge_letter/22.jpg",
    "https://img-proxy.imgfo.com/?referer=https://manganelo.com&url=https://s7.mkklcdnv6temp.com/mangakakalot/o1/oira_houkago_wakadaishou/vol2_chapter_10_the_snow_and_the_challenge_letter/23.jpg",
    "https://img-proxy.imgfo.com/?referer=https://manganelo.com&url=https://s7.mkklcdnv6temp.com/mangakakalot/o1/oira_houkago_wakadaishou/vol2_chapter_10_the_snow_and_the_challenge_letter/24.jpg",
    "https://img-proxy.imgfo.com/?referer=https://manganelo.com&url=https://s7.mkklcdnv6temp.com/mangakakalot/o1/oira_houkago_wakadaishou/vol2_chapter_10_the_snow_and_the_challenge_letter/25.jpg"
  ]
}