{
  "cover": "https://avt.mkklcdnv6.com/6/v/6-1583474373.jpg",
  "title": "Shingetsutan Tsukihime",
  "original": "真月譚 月姫 ; Lunar Legend Chronicles ; Lunar Legend Tsukihime ; True Lunar Chronicle Tsukihime ; Tsukihime ; Хроники Лунной Принцессы (Русский)",
  "genre": "Action, Ecchi, Horror, Romance, Seinen, Supernatural, Manga",
  "author": "Type-Moon",
  "status": "Completed",
  "backlink": "https://manganu.com/collections/type-moon/shingetsutan-tsukihime/",
  "description": "Shingetsutan Tsukihime is a manga based on Type-Moon's famous visual novel, Tsukihime.\nThe story follows Tohno Shiki, a teenage boy who, after a near-fatal accident in his childhood, gained the mysterious power to perceive lines covering everything around him. When he cuts along these lines, whatever it was immediately falls apart with a clean cut; in other words, killing it. Troubled by it he accidentally met a wandering self-proclaimed magician who gave him a pair of glasses that blocked his unnatural perception when worn.\nSoon afterwards, he was disinherited from his family and sent to live with some relatives. For eight years he lived a normal life, hiding his special eyes, until one day he receives a letter inviting him to come back home. Shiki suddenly becomes caught up in strange and life-threatening events, ones that are somehow linked to his childhood accident and a forgotten past...",
  "language": "English",
  "images": [
    "https://img-proxy.imgfo.com/?referer=https://manganelo.com&url=https://s3.mkklcdnv6temp.com/mangakakalot/s1/shingetsutan_tsukihime/vol4_chapter_25/1.jpg",
    "https://img-proxy.imgfo.com/?referer=https://manganelo.com&url=https://s3.mkklcdnv6temp.com/mangakakalot/s1/shingetsutan_tsukihime/vol4_chapter_25/2.jpg",
    "https://img-proxy.imgfo.com/?referer=https://manganelo.com&url=https://s3.mkklcdnv6temp.com/mangakakalot/s1/shingetsutan_tsukihime/vol4_chapter_25/3.jpg",
    "https://img-proxy.imgfo.com/?referer=https://manganelo.com&url=https://s3.mkklcdnv6temp.com/mangakakalot/s1/shingetsutan_tsukihime/vol4_chapter_25/4.jpg",
    "https://img-proxy.imgfo.com/?referer=https://manganelo.com&url=https://s3.mkklcdnv6temp.com/mangakakalot/s1/shingetsutan_tsukihime/vol4_chapter_25/5.jpg",
    "https://img-proxy.imgfo.com/?referer=https://manganelo.com&url=https://s3.mkklcdnv6temp.com/mangakakalot/s1/shingetsutan_tsukihime/vol4_chapter_25/6.jpg",
    "https://img-proxy.imgfo.com/?referer=https://manganelo.com&url=https://s3.mkklcdnv6temp.com/mangakakalot/s1/shingetsutan_tsukihime/vol4_chapter_25/7.jpg",
    "https://img-proxy.imgfo.com/?referer=https://manganelo.com&url=https://s3.mkklcdnv6temp.com/mangakakalot/s1/shingetsutan_tsukihime/vol4_chapter_25/8.jpg",
    "https://img-proxy.imgfo.com/?referer=https://manganelo.com&url=https://s3.mkklcdnv6temp.com/mangakakalot/s1/shingetsutan_tsukihime/vol4_chapter_25/9.jpg",
    "https://img-proxy.imgfo.com/?referer=https://manganelo.com&url=https://s3.mkklcdnv6temp.com/mangakakalot/s1/shingetsutan_tsukihime/vol4_chapter_25/10.jpg",
    "https://img-proxy.imgfo.com/?referer=https://manganelo.com&url=https://s3.mkklcdnv6temp.com/mangakakalot/s1/shingetsutan_tsukihime/vol4_chapter_25/11.jpg",
    "https://img-proxy.imgfo.com/?referer=https://manganelo.com&url=https://s3.mkklcdnv6temp.com/mangakakalot/s1/shingetsutan_tsukihime/vol4_chapter_25/12.jpg",
    "https://img-proxy.imgfo.com/?referer=https://manganelo.com&url=https://s3.mkklcdnv6temp.com/mangakakalot/s1/shingetsutan_tsukihime/vol4_chapter_25/13.jpg",
    "https://img-proxy.imgfo.com/?referer=https://manganelo.com&url=https://s3.mkklcdnv6temp.com/mangakakalot/s1/shingetsutan_tsukihime/vol4_chapter_25/14.jpg",
    "https://img-proxy.imgfo.com/?referer=https://manganelo.com&url=https://s3.mkklcdnv6temp.com/mangakakalot/s1/shingetsutan_tsukihime/vol4_chapter_25/15.jpg",
    "https://img-proxy.imgfo.com/?referer=https://manganelo.com&url=https://s3.mkklcdnv6temp.com/mangakakalot/s1/shingetsutan_tsukihime/vol4_chapter_25/16.jpg",
    "https://img-proxy.imgfo.com/?referer=https://manganelo.com&url=https://s3.mkklcdnv6temp.com/mangakakalot/s1/shingetsutan_tsukihime/vol4_chapter_25/17.jpg",
    "https://img-proxy.imgfo.com/?referer=https://manganelo.com&url=https://s3.mkklcdnv6temp.com/mangakakalot/s1/shingetsutan_tsukihime/vol4_chapter_25/18.jpg",
    "https://img-proxy.imgfo.com/?referer=https://manganelo.com&url=https://s3.mkklcdnv6temp.com/mangakakalot/s1/shingetsutan_tsukihime/vol4_chapter_25/19.jpg",
    "https://img-proxy.imgfo.com/?referer=https://manganelo.com&url=https://s3.mkklcdnv6temp.com/mangakakalot/s1/shingetsutan_tsukihime/vol4_chapter_25/20.jpg",
    "https://img-proxy.imgfo.com/?referer=https://manganelo.com&url=https://s3.mkklcdnv6temp.com/mangakakalot/s1/shingetsutan_tsukihime/vol4_chapter_25/21.jpg",
    "https://img-proxy.imgfo.com/?referer=https://manganelo.com&url=https://s3.mkklcdnv6temp.com/mangakakalot/s1/shingetsutan_tsukihime/vol4_chapter_25/22.jpg"
  ]
}