{
  "cover": "https://avt.mkklcdnv6.com/6/v/6-1583474373.jpg",
  "title": "Shingetsutan Tsukihime",
  "original": "真月譚 月姫 ; Lunar Legend Chronicles ; Lunar Legend Tsukihime ; True Lunar Chronicle Tsukihime ; Tsukihime ; Хроники Лунной Принцессы (Русский)",
  "genre": "Action, Ecchi, Horror, Romance, Seinen, Supernatural, Manga",
  "author": "Type-Moon",
  "status": "Completed",
  "backlink": "https://manganu.com/collections/type-moon/shingetsutan-tsukihime/",
  "description": "Shingetsutan Tsukihime is a manga based on Type-Moon's famous visual novel, Tsukihime.\nThe story follows Tohno Shiki, a teenage boy who, after a near-fatal accident in his childhood, gained the mysterious power to perceive lines covering everything around him. When he cuts along these lines, whatever it was immediately falls apart with a clean cut; in other words, killing it. Troubled by it he accidentally met a wandering self-proclaimed magician who gave him a pair of glasses that blocked his unnatural perception when worn.\nSoon afterwards, he was disinherited from his family and sent to live with some relatives. For eight years he lived a normal life, hiding his special eyes, until one day he receives a letter inviting him to come back home. Shiki suddenly becomes caught up in strange and life-threatening events, ones that are somehow linked to his childhood accident and a forgotten past...",
  "language": "English",
  "images": [
    "https://img-proxy.imgfo.com/?referer=https://manganelo.com&url=https://s3.mkklcdnv6temp.com/mangakakalot/s1/shingetsutan_tsukihime/vol1_chapter_2/1.jpg",
    "https://img-proxy.imgfo.com/?referer=https://manganelo.com&url=https://s3.mkklcdnv6temp.com/mangakakalot/s1/shingetsutan_tsukihime/vol1_chapter_2/2.jpg",
    "https://img-proxy.imgfo.com/?referer=https://manganelo.com&url=https://s3.mkklcdnv6temp.com/mangakakalot/s1/shingetsutan_tsukihime/vol1_chapter_2/3.jpg",
    "https://img-proxy.imgfo.com/?referer=https://manganelo.com&url=https://s3.mkklcdnv6temp.com/mangakakalot/s1/shingetsutan_tsukihime/vol1_chapter_2/4.jpg",
    "https://img-proxy.imgfo.com/?referer=https://manganelo.com&url=https://s3.mkklcdnv6temp.com/mangakakalot/s1/shingetsutan_tsukihime/vol1_chapter_2/5.jpg",
    "https://img-proxy.imgfo.com/?referer=https://manganelo.com&url=https://s3.mkklcdnv6temp.com/mangakakalot/s1/shingetsutan_tsukihime/vol1_chapter_2/6.jpg",
    "https://img-proxy.imgfo.com/?referer=https://manganelo.com&url=https://s3.mkklcdnv6temp.com/mangakakalot/s1/shingetsutan_tsukihime/vol1_chapter_2/7.jpg",
    "https://img-proxy.imgfo.com/?referer=https://manganelo.com&url=https://s3.mkklcdnv6temp.com/mangakakalot/s1/shingetsutan_tsukihime/vol1_chapter_2/8.jpg",
    "https://img-proxy.imgfo.com/?referer=https://manganelo.com&url=https://s3.mkklcdnv6temp.com/mangakakalot/s1/shingetsutan_tsukihime/vol1_chapter_2/9.jpg",
    "https://img-proxy.imgfo.com/?referer=https://manganelo.com&url=https://s3.mkklcdnv6temp.com/mangakakalot/s1/shingetsutan_tsukihime/vol1_chapter_2/10.jpg",
    "https://img-proxy.imgfo.com/?referer=https://manganelo.com&url=https://s3.mkklcdnv6temp.com/mangakakalot/s1/shingetsutan_tsukihime/vol1_chapter_2/11.jpg",
    "https://img-proxy.imgfo.com/?referer=https://manganelo.com&url=https://s3.mkklcdnv6temp.com/mangakakalot/s1/shingetsutan_tsukihime/vol1_chapter_2/12.jpg",
    "https://img-proxy.imgfo.com/?referer=https://manganelo.com&url=https://s3.mkklcdnv6temp.com/mangakakalot/s1/shingetsutan_tsukihime/vol1_chapter_2/13.jpg",
    "https://img-proxy.imgfo.com/?referer=https://manganelo.com&url=https://s3.mkklcdnv6temp.com/mangakakalot/s1/shingetsutan_tsukihime/vol1_chapter_2/14.jpg",
    "https://img-proxy.imgfo.com/?referer=https://manganelo.com&url=https://s3.mkklcdnv6temp.com/mangakakalot/s1/shingetsutan_tsukihime/vol1_chapter_2/15.jpg",
    "https://img-proxy.imgfo.com/?referer=https://manganelo.com&url=https://s3.mkklcdnv6temp.com/mangakakalot/s1/shingetsutan_tsukihime/vol1_chapter_2/16.jpg",
    "https://img-proxy.imgfo.com/?referer=https://manganelo.com&url=https://s3.mkklcdnv6temp.com/mangakakalot/s1/shingetsutan_tsukihime/vol1_chapter_2/17.jpg",
    "https://img-proxy.imgfo.com/?referer=https://manganelo.com&url=https://s3.mkklcdnv6temp.com/mangakakalot/s1/shingetsutan_tsukihime/vol1_chapter_2/18.jpg",
    "https://img-proxy.imgfo.com/?referer=https://manganelo.com&url=https://s3.mkklcdnv6temp.com/mangakakalot/s1/shingetsutan_tsukihime/vol1_chapter_2/19.jpg",
    "https://img-proxy.imgfo.com/?referer=https://manganelo.com&url=https://s3.mkklcdnv6temp.com/mangakakalot/s1/shingetsutan_tsukihime/vol1_chapter_2/20.jpg",
    "https://img-proxy.imgfo.com/?referer=https://manganelo.com&url=https://s3.mkklcdnv6temp.com/mangakakalot/s1/shingetsutan_tsukihime/vol1_chapter_2/21.jpg",
    "https://img-proxy.imgfo.com/?referer=https://manganelo.com&url=https://s3.mkklcdnv6temp.com/mangakakalot/s1/shingetsutan_tsukihime/vol1_chapter_2/22.jpg",
    "https://img-proxy.imgfo.com/?referer=https://manganelo.com&url=https://s3.mkklcdnv6temp.com/mangakakalot/s1/shingetsutan_tsukihime/vol1_chapter_2/23.jpg",
    "https://img-proxy.imgfo.com/?referer=https://manganelo.com&url=https://s3.mkklcdnv6temp.com/mangakakalot/s1/shingetsutan_tsukihime/vol1_chapter_2/24.jpg",
    "https://img-proxy.imgfo.com/?referer=https://manganelo.com&url=https://s3.mkklcdnv6temp.com/mangakakalot/s1/shingetsutan_tsukihime/vol1_chapter_2/25.jpg",
    "https://img-proxy.imgfo.com/?referer=https://manganelo.com&url=https://s3.mkklcdnv6temp.com/mangakakalot/s1/shingetsutan_tsukihime/vol1_chapter_2/26.jpg",
    "https://img-proxy.imgfo.com/?referer=https://manganelo.com&url=https://s3.mkklcdnv6temp.com/mangakakalot/s1/shingetsutan_tsukihime/vol1_chapter_2/27.jpg",
    "https://img-proxy.imgfo.com/?referer=https://manganelo.com&url=https://s3.mkklcdnv6temp.com/mangakakalot/s1/shingetsutan_tsukihime/vol1_chapter_2/28.jpg",
    "https://img-proxy.imgfo.com/?referer=https://manganelo.com&url=https://s3.mkklcdnv6temp.com/mangakakalot/s1/shingetsutan_tsukihime/vol1_chapter_2/29.jpg",
    "https://img-proxy.imgfo.com/?referer=https://manganelo.com&url=https://s3.mkklcdnv6temp.com/mangakakalot/s1/shingetsutan_tsukihime/vol1_chapter_2/30.jpg"
  ]
}