{
  "cover": "https://avt.mkklcdnv6.com/47/j/9-1583482086.jpg",
  "title": "Eden - It's An Endless World!",
  "original": "エデン イッツアンエンドレスワールド ; Eden (ENDO Hiroki)",
  "genre": "Action, Adult, Drama, Psychological, Sci fi, Seinen, Tragedy, Manga",
  "author": "Endo Hiroki",
  "status": "Completed",
  "backlink": "https://manganu.com/collections/endo-hiroki/eden-its-an-endless-world/",
  "description": "In the panic surrounding a worldwide pandemic which kills 15 percent of the population and cripples many more, a secret organization, the Propater, topples the UN and seizes control of much of the world. A boy and a girl, raised in an abandoned virology research center, immune to the virus, are attacked by the Propater and escape.\nBased strongly on Gnostic mythology, all major characters are named after gnostic deities, and have analogous roles.",
  "language": "English",
  "images": [
    "https://img-proxy.imgfo.com/?referer=https://manganelo.com&url=https://s7.mkklcdnv6temp.com/mangakakalot/e1/eden_its_an_endless_world/vol18_chapter_120/1.jpg",
    "https://img-proxy.imgfo.com/?referer=https://manganelo.com&url=https://s7.mkklcdnv6temp.com/mangakakalot/e1/eden_its_an_endless_world/vol18_chapter_120/2.jpg",
    "https://img-proxy.imgfo.com/?referer=https://manganelo.com&url=https://s7.mkklcdnv6temp.com/mangakakalot/e1/eden_its_an_endless_world/vol18_chapter_120/3.jpg",
    "https://img-proxy.imgfo.com/?referer=https://manganelo.com&url=https://s7.mkklcdnv6temp.com/mangakakalot/e1/eden_its_an_endless_world/vol18_chapter_120/4.jpg",
    "https://img-proxy.imgfo.com/?referer=https://manganelo.com&url=https://s7.mkklcdnv6temp.com/mangakakalot/e1/eden_its_an_endless_world/vol18_chapter_120/5.jpg",
    "https://img-proxy.imgfo.com/?referer=https://manganelo.com&url=https://s7.mkklcdnv6temp.com/mangakakalot/e1/eden_its_an_endless_world/vol18_chapter_120/6.jpg",
    "https://img-proxy.imgfo.com/?referer=https://manganelo.com&url=https://s7.mkklcdnv6temp.com/mangakakalot/e1/eden_its_an_endless_world/vol18_chapter_120/7.jpg",
    "https://img-proxy.imgfo.com/?referer=https://manganelo.com&url=https://s7.mkklcdnv6temp.com/mangakakalot/e1/eden_its_an_endless_world/vol18_chapter_120/8.jpg",
    "https://img-proxy.imgfo.com/?referer=https://manganelo.com&url=https://s7.mkklcdnv6temp.com/mangakakalot/e1/eden_its_an_endless_world/vol18_chapter_120/9.jpg",
    "https://img-proxy.imgfo.com/?referer=https://manganelo.com&url=https://s7.mkklcdnv6temp.com/mangakakalot/e1/eden_its_an_endless_world/vol18_chapter_120/10.jpg",
    "https://img-proxy.imgfo.com/?referer=https://manganelo.com&url=https://s7.mkklcdnv6temp.com/mangakakalot/e1/eden_its_an_endless_world/vol18_chapter_120/11.jpg",
    "https://img-proxy.imgfo.com/?referer=https://manganelo.com&url=https://s7.mkklcdnv6temp.com/mangakakalot/e1/eden_its_an_endless_world/vol18_chapter_120/12.jpg",
    "https://img-proxy.imgfo.com/?referer=https://manganelo.com&url=https://s7.mkklcdnv6temp.com/mangakakalot/e1/eden_its_an_endless_world/vol18_chapter_120/13.jpg",
    "https://img-proxy.imgfo.com/?referer=https://manganelo.com&url=https://s7.mkklcdnv6temp.com/mangakakalot/e1/eden_its_an_endless_world/vol18_chapter_120/14.jpg",
    "https://img-proxy.imgfo.com/?referer=https://manganelo.com&url=https://s7.mkklcdnv6temp.com/mangakakalot/e1/eden_its_an_endless_world/vol18_chapter_120/15.jpg",
    "https://img-proxy.imgfo.com/?referer=https://manganelo.com&url=https://s7.mkklcdnv6temp.com/mangakakalot/e1/eden_its_an_endless_world/vol18_chapter_120/16.jpg",
    "https://img-proxy.imgfo.com/?referer=https://manganelo.com&url=https://s7.mkklcdnv6temp.com/mangakakalot/e1/eden_its_an_endless_world/vol18_chapter_120/17.jpg",
    "https://img-proxy.imgfo.com/?referer=https://manganelo.com&url=https://s7.mkklcdnv6temp.com/mangakakalot/e1/eden_its_an_endless_world/vol18_chapter_120/18.jpg",
    "https://img-proxy.imgfo.com/?referer=https://manganelo.com&url=https://s7.mkklcdnv6temp.com/mangakakalot/e1/eden_its_an_endless_world/vol18_chapter_120/19.jpg",
    "https://img-proxy.imgfo.com/?referer=https://manganelo.com&url=https://s7.mkklcdnv6temp.com/mangakakalot/e1/eden_its_an_endless_world/vol18_chapter_120/20.jpg",
    "https://img-proxy.imgfo.com/?referer=https://manganelo.com&url=https://s7.mkklcdnv6temp.com/mangakakalot/e1/eden_its_an_endless_world/vol18_chapter_120/21.jpg",
    "https://img-proxy.imgfo.com/?referer=https://manganelo.com&url=https://s7.mkklcdnv6temp.com/mangakakalot/e1/eden_its_an_endless_world/vol18_chapter_120/22.jpg",
    "https://img-proxy.imgfo.com/?referer=https://manganelo.com&url=https://s7.mkklcdnv6temp.com/mangakakalot/e1/eden_its_an_endless_world/vol18_chapter_120/23.jpg",
    "https://img-proxy.imgfo.com/?referer=https://manganelo.com&url=https://s7.mkklcdnv6temp.com/mangakakalot/e1/eden_its_an_endless_world/vol18_chapter_120/24.jpg",
    "https://img-proxy.imgfo.com/?referer=https://manganelo.com&url=https://s7.mkklcdnv6temp.com/mangakakalot/e1/eden_its_an_endless_world/vol18_chapter_120/25.jpg",
    "https://img-proxy.imgfo.com/?referer=https://manganelo.com&url=https://s7.mkklcdnv6temp.com/mangakakalot/e1/eden_its_an_endless_world/vol18_chapter_120/26.jpg",
    "https://img-proxy.imgfo.com/?referer=https://manganelo.com&url=https://s7.mkklcdnv6temp.com/mangakakalot/e1/eden_its_an_endless_world/vol18_chapter_120/27.jpg",
    "https://img-proxy.imgfo.com/?referer=https://manganelo.com&url=https://s7.mkklcdnv6temp.com/mangakakalot/e1/eden_its_an_endless_world/vol18_chapter_120/28.jpg",
    "https://img-proxy.imgfo.com/?referer=https://manganelo.com&url=https://s7.mkklcdnv6temp.com/mangakakalot/e1/eden_its_an_endless_world/vol18_chapter_120/29.jpg"
  ]
}