{
  "cover": "https://avt.mkklcdnv6.com/47/j/9-1583482086.jpg",
  "title": "Eden - It's An Endless World!",
  "original": "エデン イッツアンエンドレスワールド ; Eden (ENDO Hiroki)",
  "genre": "Action, Adult, Drama, Psychological, Sci fi, Seinen, Tragedy, Manga",
  "author": "Endo Hiroki",
  "status": "Completed",
  "backlink": "https://manganu.com/collections/endo-hiroki/eden-its-an-endless-world/",
  "description": "In the panic surrounding a worldwide pandemic which kills 15 percent of the population and cripples many more, a secret organization, the Propater, topples the UN and seizes control of much of the world. A boy and a girl, raised in an abandoned virology research center, immune to the virus, are attacked by the Propater and escape.\nBased strongly on Gnostic mythology, all major characters are named after gnostic deities, and have analogous roles.",
  "language": "English",
  "images": [
    "https://img-proxy.imgfo.com/?referer=https://manganelo.com&url=https://s7.mkklcdnv6temp.com/mangakakalot/e1/eden_its_an_endless_world/vol15_chapter_103/1.jpg",
    "https://img-proxy.imgfo.com/?referer=https://manganelo.com&url=https://s7.mkklcdnv6temp.com/mangakakalot/e1/eden_its_an_endless_world/vol15_chapter_103/2.jpg",
    "https://img-proxy.imgfo.com/?referer=https://manganelo.com&url=https://s7.mkklcdnv6temp.com/mangakakalot/e1/eden_its_an_endless_world/vol15_chapter_103/3.jpg",
    "https://img-proxy.imgfo.com/?referer=https://manganelo.com&url=https://s7.mkklcdnv6temp.com/mangakakalot/e1/eden_its_an_endless_world/vol15_chapter_103/4.jpg",
    "https://img-proxy.imgfo.com/?referer=https://manganelo.com&url=https://s7.mkklcdnv6temp.com/mangakakalot/e1/eden_its_an_endless_world/vol15_chapter_103/5.jpg",
    "https://img-proxy.imgfo.com/?referer=https://manganelo.com&url=https://s7.mkklcdnv6temp.com/mangakakalot/e1/eden_its_an_endless_world/vol15_chapter_103/6.jpg",
    "https://img-proxy.imgfo.com/?referer=https://manganelo.com&url=https://s7.mkklcdnv6temp.com/mangakakalot/e1/eden_its_an_endless_world/vol15_chapter_103/7.jpg",
    "https://img-proxy.imgfo.com/?referer=https://manganelo.com&url=https://s7.mkklcdnv6temp.com/mangakakalot/e1/eden_its_an_endless_world/vol15_chapter_103/8.jpg",
    "https://img-proxy.imgfo.com/?referer=https://manganelo.com&url=https://s7.mkklcdnv6temp.com/mangakakalot/e1/eden_its_an_endless_world/vol15_chapter_103/9.jpg",
    "https://img-proxy.imgfo.com/?referer=https://manganelo.com&url=https://s7.mkklcdnv6temp.com/mangakakalot/e1/eden_its_an_endless_world/vol15_chapter_103/10.jpg",
    "https://img-proxy.imgfo.com/?referer=https://manganelo.com&url=https://s7.mkklcdnv6temp.com/mangakakalot/e1/eden_its_an_endless_world/vol15_chapter_103/11.jpg",
    "https://img-proxy.imgfo.com/?referer=https://manganelo.com&url=https://s7.mkklcdnv6temp.com/mangakakalot/e1/eden_its_an_endless_world/vol15_chapter_103/12.jpg",
    "https://img-proxy.imgfo.com/?referer=https://manganelo.com&url=https://s7.mkklcdnv6temp.com/mangakakalot/e1/eden_its_an_endless_world/vol15_chapter_103/13.jpg",
    "https://img-proxy.imgfo.com/?referer=https://manganelo.com&url=https://s7.mkklcdnv6temp.com/mangakakalot/e1/eden_its_an_endless_world/vol15_chapter_103/14.jpg",
    "https://img-proxy.imgfo.com/?referer=https://manganelo.com&url=https://s7.mkklcdnv6temp.com/mangakakalot/e1/eden_its_an_endless_world/vol15_chapter_103/15.jpg",
    "https://img-proxy.imgfo.com/?referer=https://manganelo.com&url=https://s7.mkklcdnv6temp.com/mangakakalot/e1/eden_its_an_endless_world/vol15_chapter_103/16.jpg",
    "https://img-proxy.imgfo.com/?referer=https://manganelo.com&url=https://s7.mkklcdnv6temp.com/mangakakalot/e1/eden_its_an_endless_world/vol15_chapter_103/17.jpg",
    "https://img-proxy.imgfo.com/?referer=https://manganelo.com&url=https://s7.mkklcdnv6temp.com/mangakakalot/e1/eden_its_an_endless_world/vol15_chapter_103/18.jpg",
    "https://img-proxy.imgfo.com/?referer=https://manganelo.com&url=https://s7.mkklcdnv6temp.com/mangakakalot/e1/eden_its_an_endless_world/vol15_chapter_103/19.jpg",
    "https://img-proxy.imgfo.com/?referer=https://manganelo.com&url=https://s7.mkklcdnv6temp.com/mangakakalot/e1/eden_its_an_endless_world/vol15_chapter_103/20.jpg",
    "https://img-proxy.imgfo.com/?referer=https://manganelo.com&url=https://s7.mkklcdnv6temp.com/mangakakalot/e1/eden_its_an_endless_world/vol15_chapter_103/21.jpg",
    "https://img-proxy.imgfo.com/?referer=https://manganelo.com&url=https://s7.mkklcdnv6temp.com/mangakakalot/e1/eden_its_an_endless_world/vol15_chapter_103/22.jpg",
    "https://img-proxy.imgfo.com/?referer=https://manganelo.com&url=https://s7.mkklcdnv6temp.com/mangakakalot/e1/eden_its_an_endless_world/vol15_chapter_103/23.jpg",
    "https://img-proxy.imgfo.com/?referer=https://manganelo.com&url=https://s7.mkklcdnv6temp.com/mangakakalot/e1/eden_its_an_endless_world/vol15_chapter_103/24.jpg",
    "https://img-proxy.imgfo.com/?referer=https://manganelo.com&url=https://s7.mkklcdnv6temp.com/mangakakalot/e1/eden_its_an_endless_world/vol15_chapter_103/25.jpg",
    "https://img-proxy.imgfo.com/?referer=https://manganelo.com&url=https://s7.mkklcdnv6temp.com/mangakakalot/e1/eden_its_an_endless_world/vol15_chapter_103/26.jpg",
    "https://img-proxy.imgfo.com/?referer=https://manganelo.com&url=https://s7.mkklcdnv6temp.com/mangakakalot/e1/eden_its_an_endless_world/vol15_chapter_103/27.jpg",
    "https://img-proxy.imgfo.com/?referer=https://manganelo.com&url=https://s7.mkklcdnv6temp.com/mangakakalot/e1/eden_its_an_endless_world/vol15_chapter_103/28.jpg",
    "https://img-proxy.imgfo.com/?referer=https://manganelo.com&url=https://s7.mkklcdnv6temp.com/mangakakalot/e1/eden_its_an_endless_world/vol15_chapter_103/29.jpg",
    "https://img-proxy.imgfo.com/?referer=https://manganelo.com&url=https://s7.mkklcdnv6temp.com/mangakakalot/e1/eden_its_an_endless_world/vol15_chapter_103/30.jpg",
    "https://img-proxy.imgfo.com/?referer=https://manganelo.com&url=https://s7.mkklcdnv6temp.com/mangakakalot/e1/eden_its_an_endless_world/vol15_chapter_103/31.jpg",
    "https://img-proxy.imgfo.com/?referer=https://manganelo.com&url=https://s7.mkklcdnv6temp.com/mangakakalot/e1/eden_its_an_endless_world/vol15_chapter_103/32.jpg",
    "https://img-proxy.imgfo.com/?referer=https://manganelo.com&url=https://s7.mkklcdnv6temp.com/mangakakalot/e1/eden_its_an_endless_world/vol15_chapter_103/33.jpg",
    "https://img-proxy.imgfo.com/?referer=https://manganelo.com&url=https://s7.mkklcdnv6temp.com/mangakakalot/e1/eden_its_an_endless_world/vol15_chapter_103/34.jpg",
    "https://img-proxy.imgfo.com/?referer=https://manganelo.com&url=https://s7.mkklcdnv6temp.com/mangakakalot/e1/eden_its_an_endless_world/vol15_chapter_103/35.jpg",
    "https://img-proxy.imgfo.com/?referer=https://manganelo.com&url=https://s7.mkklcdnv6temp.com/mangakakalot/e1/eden_its_an_endless_world/vol15_chapter_103/36.jpg",
    "https://img-proxy.imgfo.com/?referer=https://manganelo.com&url=https://s7.mkklcdnv6temp.com/mangakakalot/e1/eden_its_an_endless_world/vol15_chapter_103/37.jpg"
  ]
}