{
  "cover": "https://avt.mkklcdnv6.com/13/b/4-1583470199.jpg",
  "title": "Akuma De Koi Shiyou",
  "original": "あくまで恋しよう ; 彻底地恋爱吧 ; Akuma de Koishiyou ; I'll fall in love with devil ; I'll Fall in Love with a Demon ; Falling in Love with the Devil ; Falling in Love with a Demon",
  "genre": "Comedy, Romance, School life, Shoujo, Manga",
  "author": "Anashin",
  "status": "Completed",
  "backlink": "https://manganu.com/collections/anashin/akuma-de-koi-shiyou/",
  "description": "From Autumn Scans:\nNanami, a first year high school student, has a history of failed relationships. When she finally meets her ideal guy is he really who she thinks he is?",
  "language": "English",
  "images": [
    "https://img-proxy.imgfo.com/?referer=https://manganelo.com&url=https://s3.mkklcdnv6temp.com/mangakakalot/a1/akuma_de_koi_shiyou/vol1_chapter_3_an_important_result/1.jpg",
    "https://img-proxy.imgfo.com/?referer=https://manganelo.com&url=https://s3.mkklcdnv6temp.com/mangakakalot/a1/akuma_de_koi_shiyou/vol1_chapter_3_an_important_result/2.jpg",
    "https://img-proxy.imgfo.com/?referer=https://manganelo.com&url=https://s3.mkklcdnv6temp.com/mangakakalot/a1/akuma_de_koi_shiyou/vol1_chapter_3_an_important_result/3.jpg",
    "https://img-proxy.imgfo.com/?referer=https://manganelo.com&url=https://s3.mkklcdnv6temp.com/mangakakalot/a1/akuma_de_koi_shiyou/vol1_chapter_3_an_important_result/4.jpg",
    "https://img-proxy.imgfo.com/?referer=https://manganelo.com&url=https://s3.mkklcdnv6temp.com/mangakakalot/a1/akuma_de_koi_shiyou/vol1_chapter_3_an_important_result/5.jpg",
    "https://img-proxy.imgfo.com/?referer=https://manganelo.com&url=https://s3.mkklcdnv6temp.com/mangakakalot/a1/akuma_de_koi_shiyou/vol1_chapter_3_an_important_result/6.jpg",
    "https://img-proxy.imgfo.com/?referer=https://manganelo.com&url=https://s3.mkklcdnv6temp.com/mangakakalot/a1/akuma_de_koi_shiyou/vol1_chapter_3_an_important_result/7.jpg",
    "https://img-proxy.imgfo.com/?referer=https://manganelo.com&url=https://s3.mkklcdnv6temp.com/mangakakalot/a1/akuma_de_koi_shiyou/vol1_chapter_3_an_important_result/8.jpg",
    "https://img-proxy.imgfo.com/?referer=https://manganelo.com&url=https://s3.mkklcdnv6temp.com/mangakakalot/a1/akuma_de_koi_shiyou/vol1_chapter_3_an_important_result/9.jpg",
    "https://img-proxy.imgfo.com/?referer=https://manganelo.com&url=https://s3.mkklcdnv6temp.com/mangakakalot/a1/akuma_de_koi_shiyou/vol1_chapter_3_an_important_result/10.jpg",
    "https://img-proxy.imgfo.com/?referer=https://manganelo.com&url=https://s3.mkklcdnv6temp.com/mangakakalot/a1/akuma_de_koi_shiyou/vol1_chapter_3_an_important_result/11.jpg",
    "https://img-proxy.imgfo.com/?referer=https://manganelo.com&url=https://s3.mkklcdnv6temp.com/mangakakalot/a1/akuma_de_koi_shiyou/vol1_chapter_3_an_important_result/12.jpg",
    "https://img-proxy.imgfo.com/?referer=https://manganelo.com&url=https://s3.mkklcdnv6temp.com/mangakakalot/a1/akuma_de_koi_shiyou/vol1_chapter_3_an_important_result/13.jpg",
    "https://img-proxy.imgfo.com/?referer=https://manganelo.com&url=https://s3.mkklcdnv6temp.com/mangakakalot/a1/akuma_de_koi_shiyou/vol1_chapter_3_an_important_result/14.jpg",
    "https://img-proxy.imgfo.com/?referer=https://manganelo.com&url=https://s3.mkklcdnv6temp.com/mangakakalot/a1/akuma_de_koi_shiyou/vol1_chapter_3_an_important_result/15.jpg",
    "https://img-proxy.imgfo.com/?referer=https://manganelo.com&url=https://s3.mkklcdnv6temp.com/mangakakalot/a1/akuma_de_koi_shiyou/vol1_chapter_3_an_important_result/16.jpg",
    "https://img-proxy.imgfo.com/?referer=https://manganelo.com&url=https://s3.mkklcdnv6temp.com/mangakakalot/a1/akuma_de_koi_shiyou/vol1_chapter_3_an_important_result/17.jpg",
    "https://img-proxy.imgfo.com/?referer=https://manganelo.com&url=https://s3.mkklcdnv6temp.com/mangakakalot/a1/akuma_de_koi_shiyou/vol1_chapter_3_an_important_result/18.jpg",
    "https://img-proxy.imgfo.com/?referer=https://manganelo.com&url=https://s3.mkklcdnv6temp.com/mangakakalot/a1/akuma_de_koi_shiyou/vol1_chapter_3_an_important_result/19.jpg",
    "https://img-proxy.imgfo.com/?referer=https://manganelo.com&url=https://s3.mkklcdnv6temp.com/mangakakalot/a1/akuma_de_koi_shiyou/vol1_chapter_3_an_important_result/20.jpg",
    "https://img-proxy.imgfo.com/?referer=https://manganelo.com&url=https://s3.mkklcdnv6temp.com/mangakakalot/a1/akuma_de_koi_shiyou/vol1_chapter_3_an_important_result/21.jpg",
    "https://img-proxy.imgfo.com/?referer=https://manganelo.com&url=https://s3.mkklcdnv6temp.com/mangakakalot/a1/akuma_de_koi_shiyou/vol1_chapter_3_an_important_result/22.jpg",
    "https://img-proxy.imgfo.com/?referer=https://manganelo.com&url=https://s3.mkklcdnv6temp.com/mangakakalot/a1/akuma_de_koi_shiyou/vol1_chapter_3_an_important_result/23.jpg",
    "https://img-proxy.imgfo.com/?referer=https://manganelo.com&url=https://s3.mkklcdnv6temp.com/mangakakalot/a1/akuma_de_koi_shiyou/vol1_chapter_3_an_important_result/24.jpg",
    "https://img-proxy.imgfo.com/?referer=https://manganelo.com&url=https://s3.mkklcdnv6temp.com/mangakakalot/a1/akuma_de_koi_shiyou/vol1_chapter_3_an_important_result/25.jpg",
    "https://img-proxy.imgfo.com/?referer=https://manganelo.com&url=https://s3.mkklcdnv6temp.com/mangakakalot/a1/akuma_de_koi_shiyou/vol1_chapter_3_an_important_result/26.jpg",
    "https://img-proxy.imgfo.com/?referer=https://manganelo.com&url=https://s3.mkklcdnv6temp.com/mangakakalot/a1/akuma_de_koi_shiyou/vol1_chapter_3_an_important_result/27.jpg",
    "https://img-proxy.imgfo.com/?referer=https://manganelo.com&url=https://s3.mkklcdnv6temp.com/mangakakalot/a1/akuma_de_koi_shiyou/vol1_chapter_3_an_important_result/28.jpg",
    "https://img-proxy.imgfo.com/?referer=https://manganelo.com&url=https://s3.mkklcdnv6temp.com/mangakakalot/a1/akuma_de_koi_shiyou/vol1_chapter_3_an_important_result/29.jpg",
    "https://img-proxy.imgfo.com/?referer=https://manganelo.com&url=https://s3.mkklcdnv6temp.com/mangakakalot/a1/akuma_de_koi_shiyou/vol1_chapter_3_an_important_result/30.jpg",
    "https://img-proxy.imgfo.com/?referer=https://manganelo.com&url=https://s3.mkklcdnv6temp.com/mangakakalot/a1/akuma_de_koi_shiyou/vol1_chapter_3_an_important_result/31.jpg",
    "https://img-proxy.imgfo.com/?referer=https://manganelo.com&url=https://s3.mkklcdnv6temp.com/mangakakalot/a1/akuma_de_koi_shiyou/vol1_chapter_3_an_important_result/32.jpg",
    "https://img-proxy.imgfo.com/?referer=https://manganelo.com&url=https://s3.mkklcdnv6temp.com/mangakakalot/a1/akuma_de_koi_shiyou/vol1_chapter_3_an_important_result/33.jpg",
    "https://img-proxy.imgfo.com/?referer=https://manganelo.com&url=https://s3.mkklcdnv6temp.com/mangakakalot/a1/akuma_de_koi_shiyou/vol1_chapter_3_an_important_result/34.jpg",
    "https://img-proxy.imgfo.com/?referer=https://manganelo.com&url=https://s3.mkklcdnv6temp.com/mangakakalot/a1/akuma_de_koi_shiyou/vol1_chapter_3_an_important_result/35.jpg",
    "https://img-proxy.imgfo.com/?referer=https://manganelo.com&url=https://s3.mkklcdnv6temp.com/mangakakalot/a1/akuma_de_koi_shiyou/vol1_chapter_3_an_important_result/36.jpg",
    "https://img-proxy.imgfo.com/?referer=https://manganelo.com&url=https://s3.mkklcdnv6temp.com/mangakakalot/a1/akuma_de_koi_shiyou/vol1_chapter_3_an_important_result/37.jpg",
    "https://img-proxy.imgfo.com/?referer=https://manganelo.com&url=https://s3.mkklcdnv6temp.com/mangakakalot/a1/akuma_de_koi_shiyou/vol1_chapter_3_an_important_result/38.jpg"
  ]
}