{
  "cover": "https://avt.mkklcdnv6.com/34/s/7-1583477581.jpg",
  "title": "Haru Wo Daite Ita",
  "original": "スタンドオン・ベッセル ; 冬の蝉 ; 春を抱いていた ; Embracing Love ; Embracing Spring ; Fuyu no Semi ; Haru wo Daiteita ; Haru wo Daiteita Trilogy ; Winter Cicada",
  "genre": "Drama, Mature, Yaoi, Manga",
  "author": "Nitta Youka",
  "status": "Completed",
  "backlink": "https://manganu.com/collections/nitta-youka/haru-wo-daite-ita/",
  "description": "From Be Beautiful:\nA lighthearted romantic comedy that lampoons the adult film business, the mainstream media, and the natural vanity of actors while exploring the earliest stages of a brand new relationship.",
  "language": "English",
  "images": [
    "https://img-proxy.imgfo.com/?referer=https://manganelo.com&url=https://s5.mkklcdnv6temp.com/mangakakalot/h1/haru_wo_daite_ita/vol2_chapter_2_one_night_gigolo/1.jpg",
    "https://img-proxy.imgfo.com/?referer=https://manganelo.com&url=https://s5.mkklcdnv6temp.com/mangakakalot/h1/haru_wo_daite_ita/vol2_chapter_2_one_night_gigolo/2.jpg",
    "https://img-proxy.imgfo.com/?referer=https://manganelo.com&url=https://s5.mkklcdnv6temp.com/mangakakalot/h1/haru_wo_daite_ita/vol2_chapter_2_one_night_gigolo/3.jpg",
    "https://img-proxy.imgfo.com/?referer=https://manganelo.com&url=https://s5.mkklcdnv6temp.com/mangakakalot/h1/haru_wo_daite_ita/vol2_chapter_2_one_night_gigolo/4.jpg",
    "https://img-proxy.imgfo.com/?referer=https://manganelo.com&url=https://s5.mkklcdnv6temp.com/mangakakalot/h1/haru_wo_daite_ita/vol2_chapter_2_one_night_gigolo/5.jpg",
    "https://img-proxy.imgfo.com/?referer=https://manganelo.com&url=https://s5.mkklcdnv6temp.com/mangakakalot/h1/haru_wo_daite_ita/vol2_chapter_2_one_night_gigolo/6.jpg",
    "https://img-proxy.imgfo.com/?referer=https://manganelo.com&url=https://s5.mkklcdnv6temp.com/mangakakalot/h1/haru_wo_daite_ita/vol2_chapter_2_one_night_gigolo/7.jpg",
    "https://img-proxy.imgfo.com/?referer=https://manganelo.com&url=https://s5.mkklcdnv6temp.com/mangakakalot/h1/haru_wo_daite_ita/vol2_chapter_2_one_night_gigolo/8.jpg",
    "https://img-proxy.imgfo.com/?referer=https://manganelo.com&url=https://s5.mkklcdnv6temp.com/mangakakalot/h1/haru_wo_daite_ita/vol2_chapter_2_one_night_gigolo/9.jpg",
    "https://img-proxy.imgfo.com/?referer=https://manganelo.com&url=https://s5.mkklcdnv6temp.com/mangakakalot/h1/haru_wo_daite_ita/vol2_chapter_2_one_night_gigolo/10.jpg",
    "https://img-proxy.imgfo.com/?referer=https://manganelo.com&url=https://s5.mkklcdnv6temp.com/mangakakalot/h1/haru_wo_daite_ita/vol2_chapter_2_one_night_gigolo/11.jpg",
    "https://img-proxy.imgfo.com/?referer=https://manganelo.com&url=https://s5.mkklcdnv6temp.com/mangakakalot/h1/haru_wo_daite_ita/vol2_chapter_2_one_night_gigolo/12.jpg",
    "https://img-proxy.imgfo.com/?referer=https://manganelo.com&url=https://s5.mkklcdnv6temp.com/mangakakalot/h1/haru_wo_daite_ita/vol2_chapter_2_one_night_gigolo/13.jpg",
    "https://img-proxy.imgfo.com/?referer=https://manganelo.com&url=https://s5.mkklcdnv6temp.com/mangakakalot/h1/haru_wo_daite_ita/vol2_chapter_2_one_night_gigolo/14.jpg",
    "https://img-proxy.imgfo.com/?referer=https://manganelo.com&url=https://s5.mkklcdnv6temp.com/mangakakalot/h1/haru_wo_daite_ita/vol2_chapter_2_one_night_gigolo/15.jpg",
    "https://img-proxy.imgfo.com/?referer=https://manganelo.com&url=https://s5.mkklcdnv6temp.com/mangakakalot/h1/haru_wo_daite_ita/vol2_chapter_2_one_night_gigolo/16.jpg",
    "https://img-proxy.imgfo.com/?referer=https://manganelo.com&url=https://s5.mkklcdnv6temp.com/mangakakalot/h1/haru_wo_daite_ita/vol2_chapter_2_one_night_gigolo/17.jpg",
    "https://img-proxy.imgfo.com/?referer=https://manganelo.com&url=https://s5.mkklcdnv6temp.com/mangakakalot/h1/haru_wo_daite_ita/vol2_chapter_2_one_night_gigolo/18.jpg",
    "https://img-proxy.imgfo.com/?referer=https://manganelo.com&url=https://s5.mkklcdnv6temp.com/mangakakalot/h1/haru_wo_daite_ita/vol2_chapter_2_one_night_gigolo/19.jpg",
    "https://img-proxy.imgfo.com/?referer=https://manganelo.com&url=https://s5.mkklcdnv6temp.com/mangakakalot/h1/haru_wo_daite_ita/vol2_chapter_2_one_night_gigolo/20.jpg",
    "https://img-proxy.imgfo.com/?referer=https://manganelo.com&url=https://s5.mkklcdnv6temp.com/mangakakalot/h1/haru_wo_daite_ita/vol2_chapter_2_one_night_gigolo/21.jpg",
    "https://img-proxy.imgfo.com/?referer=https://manganelo.com&url=https://s5.mkklcdnv6temp.com/mangakakalot/h1/haru_wo_daite_ita/vol2_chapter_2_one_night_gigolo/22.jpg",
    "https://img-proxy.imgfo.com/?referer=https://manganelo.com&url=https://s5.mkklcdnv6temp.com/mangakakalot/h1/haru_wo_daite_ita/vol2_chapter_2_one_night_gigolo/23.jpg",
    "https://img-proxy.imgfo.com/?referer=https://manganelo.com&url=https://s5.mkklcdnv6temp.com/mangakakalot/h1/haru_wo_daite_ita/vol2_chapter_2_one_night_gigolo/24.jpg",
    "https://img-proxy.imgfo.com/?referer=https://manganelo.com&url=https://s5.mkklcdnv6temp.com/mangakakalot/h1/haru_wo_daite_ita/vol2_chapter_2_one_night_gigolo/25.jpg",
    "https://img-proxy.imgfo.com/?referer=https://manganelo.com&url=https://s5.mkklcdnv6temp.com/mangakakalot/h1/haru_wo_daite_ita/vol2_chapter_2_one_night_gigolo/26.jpg",
    "https://img-proxy.imgfo.com/?referer=https://manganelo.com&url=https://s5.mkklcdnv6temp.com/mangakakalot/h1/haru_wo_daite_ita/vol2_chapter_2_one_night_gigolo/27.jpg",
    "https://img-proxy.imgfo.com/?referer=https://manganelo.com&url=https://s5.mkklcdnv6temp.com/mangakakalot/h1/haru_wo_daite_ita/vol2_chapter_2_one_night_gigolo/28.jpg",
    "https://img-proxy.imgfo.com/?referer=https://manganelo.com&url=https://s5.mkklcdnv6temp.com/mangakakalot/h1/haru_wo_daite_ita/vol2_chapter_2_one_night_gigolo/29.jpg",
    "https://img-proxy.imgfo.com/?referer=https://manganelo.com&url=https://s5.mkklcdnv6temp.com/mangakakalot/h1/haru_wo_daite_ita/vol2_chapter_2_one_night_gigolo/30.jpg",
    "https://img-proxy.imgfo.com/?referer=https://manganelo.com&url=https://s5.mkklcdnv6temp.com/mangakakalot/h1/haru_wo_daite_ita/vol2_chapter_2_one_night_gigolo/31.jpg",
    "https://img-proxy.imgfo.com/?referer=https://manganelo.com&url=https://s5.mkklcdnv6temp.com/mangakakalot/h1/haru_wo_daite_ita/vol2_chapter_2_one_night_gigolo/32.jpg",
    "https://img-proxy.imgfo.com/?referer=https://manganelo.com&url=https://s5.mkklcdnv6temp.com/mangakakalot/h1/haru_wo_daite_ita/vol2_chapter_2_one_night_gigolo/33.jpg",
    "https://img-proxy.imgfo.com/?referer=https://manganelo.com&url=https://s5.mkklcdnv6temp.com/mangakakalot/h1/haru_wo_daite_ita/vol2_chapter_2_one_night_gigolo/34.jpg",
    "https://img-proxy.imgfo.com/?referer=https://manganelo.com&url=https://s5.mkklcdnv6temp.com/mangakakalot/h1/haru_wo_daite_ita/vol2_chapter_2_one_night_gigolo/35.jpg"
  ]
}