{
  "cover": "https://avt.mkklcdnv6.com/34/s/7-1583477581.jpg",
  "title": "Haru Wo Daite Ita",
  "original": "スタンドオン・ベッセル ; 冬の蝉 ; 春を抱いていた ; Embracing Love ; Embracing Spring ; Fuyu no Semi ; Haru wo Daiteita ; Haru wo Daiteita Trilogy ; Winter Cicada",
  "genre": "Drama, Mature, Yaoi, Manga",
  "author": "Nitta Youka",
  "status": "Completed",
  "backlink": "https://manganu.com/collections/nitta-youka/haru-wo-daite-ita/",
  "description": "From Be Beautiful:\nA lighthearted romantic comedy that lampoons the adult film business, the mainstream media, and the natural vanity of actors while exploring the earliest stages of a brand new relationship.",
  "language": "English",
  "images": [
    "https://img-proxy.imgfo.com/?referer=https://manganelo.com&url=https://s5.mkklcdnv6temp.com/mangakakalot/h1/haru_wo_daite_ita/vol8_chapter_3_trickster/1.jpg",
    "https://img-proxy.imgfo.com/?referer=https://manganelo.com&url=https://s5.mkklcdnv6temp.com/mangakakalot/h1/haru_wo_daite_ita/vol8_chapter_3_trickster/2.jpg",
    "https://img-proxy.imgfo.com/?referer=https://manganelo.com&url=https://s5.mkklcdnv6temp.com/mangakakalot/h1/haru_wo_daite_ita/vol8_chapter_3_trickster/3.jpg",
    "https://img-proxy.imgfo.com/?referer=https://manganelo.com&url=https://s5.mkklcdnv6temp.com/mangakakalot/h1/haru_wo_daite_ita/vol8_chapter_3_trickster/4.jpg",
    "https://img-proxy.imgfo.com/?referer=https://manganelo.com&url=https://s5.mkklcdnv6temp.com/mangakakalot/h1/haru_wo_daite_ita/vol8_chapter_3_trickster/5.jpg",
    "https://img-proxy.imgfo.com/?referer=https://manganelo.com&url=https://s5.mkklcdnv6temp.com/mangakakalot/h1/haru_wo_daite_ita/vol8_chapter_3_trickster/6.jpg",
    "https://img-proxy.imgfo.com/?referer=https://manganelo.com&url=https://s5.mkklcdnv6temp.com/mangakakalot/h1/haru_wo_daite_ita/vol8_chapter_3_trickster/7.jpg",
    "https://img-proxy.imgfo.com/?referer=https://manganelo.com&url=https://s5.mkklcdnv6temp.com/mangakakalot/h1/haru_wo_daite_ita/vol8_chapter_3_trickster/8.jpg",
    "https://img-proxy.imgfo.com/?referer=https://manganelo.com&url=https://s5.mkklcdnv6temp.com/mangakakalot/h1/haru_wo_daite_ita/vol8_chapter_3_trickster/9.jpg",
    "https://img-proxy.imgfo.com/?referer=https://manganelo.com&url=https://s5.mkklcdnv6temp.com/mangakakalot/h1/haru_wo_daite_ita/vol8_chapter_3_trickster/10.jpg",
    "https://img-proxy.imgfo.com/?referer=https://manganelo.com&url=https://s5.mkklcdnv6temp.com/mangakakalot/h1/haru_wo_daite_ita/vol8_chapter_3_trickster/11.jpg",
    "https://img-proxy.imgfo.com/?referer=https://manganelo.com&url=https://s5.mkklcdnv6temp.com/mangakakalot/h1/haru_wo_daite_ita/vol8_chapter_3_trickster/12.jpg",
    "https://img-proxy.imgfo.com/?referer=https://manganelo.com&url=https://s5.mkklcdnv6temp.com/mangakakalot/h1/haru_wo_daite_ita/vol8_chapter_3_trickster/13.jpg",
    "https://img-proxy.imgfo.com/?referer=https://manganelo.com&url=https://s5.mkklcdnv6temp.com/mangakakalot/h1/haru_wo_daite_ita/vol8_chapter_3_trickster/14.jpg",
    "https://img-proxy.imgfo.com/?referer=https://manganelo.com&url=https://s5.mkklcdnv6temp.com/mangakakalot/h1/haru_wo_daite_ita/vol8_chapter_3_trickster/15.jpg",
    "https://img-proxy.imgfo.com/?referer=https://manganelo.com&url=https://s5.mkklcdnv6temp.com/mangakakalot/h1/haru_wo_daite_ita/vol8_chapter_3_trickster/16.jpg",
    "https://img-proxy.imgfo.com/?referer=https://manganelo.com&url=https://s5.mkklcdnv6temp.com/mangakakalot/h1/haru_wo_daite_ita/vol8_chapter_3_trickster/17.jpg",
    "https://img-proxy.imgfo.com/?referer=https://manganelo.com&url=https://s5.mkklcdnv6temp.com/mangakakalot/h1/haru_wo_daite_ita/vol8_chapter_3_trickster/18.jpg",
    "https://img-proxy.imgfo.com/?referer=https://manganelo.com&url=https://s5.mkklcdnv6temp.com/mangakakalot/h1/haru_wo_daite_ita/vol8_chapter_3_trickster/19.jpg",
    "https://img-proxy.imgfo.com/?referer=https://manganelo.com&url=https://s5.mkklcdnv6temp.com/mangakakalot/h1/haru_wo_daite_ita/vol8_chapter_3_trickster/20.jpg",
    "https://img-proxy.imgfo.com/?referer=https://manganelo.com&url=https://s5.mkklcdnv6temp.com/mangakakalot/h1/haru_wo_daite_ita/vol8_chapter_3_trickster/21.jpg",
    "https://img-proxy.imgfo.com/?referer=https://manganelo.com&url=https://s5.mkklcdnv6temp.com/mangakakalot/h1/haru_wo_daite_ita/vol8_chapter_3_trickster/22.jpg",
    "https://img-proxy.imgfo.com/?referer=https://manganelo.com&url=https://s5.mkklcdnv6temp.com/mangakakalot/h1/haru_wo_daite_ita/vol8_chapter_3_trickster/23.jpg",
    "https://img-proxy.imgfo.com/?referer=https://manganelo.com&url=https://s5.mkklcdnv6temp.com/mangakakalot/h1/haru_wo_daite_ita/vol8_chapter_3_trickster/24.jpg",
    "https://img-proxy.imgfo.com/?referer=https://manganelo.com&url=https://s5.mkklcdnv6temp.com/mangakakalot/h1/haru_wo_daite_ita/vol8_chapter_3_trickster/25.jpg",
    "https://img-proxy.imgfo.com/?referer=https://manganelo.com&url=https://s5.mkklcdnv6temp.com/mangakakalot/h1/haru_wo_daite_ita/vol8_chapter_3_trickster/26.jpg",
    "https://img-proxy.imgfo.com/?referer=https://manganelo.com&url=https://s5.mkklcdnv6temp.com/mangakakalot/h1/haru_wo_daite_ita/vol8_chapter_3_trickster/27.jpg",
    "https://img-proxy.imgfo.com/?referer=https://manganelo.com&url=https://s5.mkklcdnv6temp.com/mangakakalot/h1/haru_wo_daite_ita/vol8_chapter_3_trickster/28.jpg",
    "https://img-proxy.imgfo.com/?referer=https://manganelo.com&url=https://s5.mkklcdnv6temp.com/mangakakalot/h1/haru_wo_daite_ita/vol8_chapter_3_trickster/29.jpg",
    "https://img-proxy.imgfo.com/?referer=https://manganelo.com&url=https://s5.mkklcdnv6temp.com/mangakakalot/h1/haru_wo_daite_ita/vol8_chapter_3_trickster/30.jpg",
    "https://img-proxy.imgfo.com/?referer=https://manganelo.com&url=https://s5.mkklcdnv6temp.com/mangakakalot/h1/haru_wo_daite_ita/vol8_chapter_3_trickster/31.jpg",
    "https://img-proxy.imgfo.com/?referer=https://manganelo.com&url=https://s5.mkklcdnv6temp.com/mangakakalot/h1/haru_wo_daite_ita/vol8_chapter_3_trickster/32.jpg",
    "https://img-proxy.imgfo.com/?referer=https://manganelo.com&url=https://s5.mkklcdnv6temp.com/mangakakalot/h1/haru_wo_daite_ita/vol8_chapter_3_trickster/33.jpg",
    "https://img-proxy.imgfo.com/?referer=https://manganelo.com&url=https://s5.mkklcdnv6temp.com/mangakakalot/h1/haru_wo_daite_ita/vol8_chapter_3_trickster/34.jpg",
    "https://img-proxy.imgfo.com/?referer=https://manganelo.com&url=https://s5.mkklcdnv6temp.com/mangakakalot/h1/haru_wo_daite_ita/vol8_chapter_3_trickster/35.jpg"
  ]
}