{
  "cover": "https://avt.mkklcdnv6.com/34/s/7-1583477581.jpg",
  "title": "Haru Wo Daite Ita",
  "original": "スタンドオン・ベッセル ; 冬の蝉 ; 春を抱いていた ; Embracing Love ; Embracing Spring ; Fuyu no Semi ; Haru wo Daiteita ; Haru wo Daiteita Trilogy ; Winter Cicada",
  "genre": "Drama, Mature, Yaoi, Manga",
  "author": "Nitta Youka",
  "status": "Completed",
  "backlink": "https://manganu.com/collections/nitta-youka/haru-wo-daite-ita/",
  "description": "From Be Beautiful:\nA lighthearted romantic comedy that lampoons the adult film business, the mainstream media, and the natural vanity of actors while exploring the earliest stages of a brand new relationship.",
  "language": "English",
  "images": [
    "https://img-proxy.imgfo.com/?referer=https://manganelo.com&url=https://s5.mkklcdnv6temp.com/mangakakalot/h1/haru_wo_daite_ita/vol15_chapter_1_time_share/1.jpg",
    "https://img-proxy.imgfo.com/?referer=https://manganelo.com&url=https://s5.mkklcdnv6temp.com/mangakakalot/h1/haru_wo_daite_ita/vol15_chapter_1_time_share/2.jpg",
    "https://img-proxy.imgfo.com/?referer=https://manganelo.com&url=https://s5.mkklcdnv6temp.com/mangakakalot/h1/haru_wo_daite_ita/vol15_chapter_1_time_share/3.jpg",
    "https://img-proxy.imgfo.com/?referer=https://manganelo.com&url=https://s5.mkklcdnv6temp.com/mangakakalot/h1/haru_wo_daite_ita/vol15_chapter_1_time_share/4.jpg",
    "https://img-proxy.imgfo.com/?referer=https://manganelo.com&url=https://s5.mkklcdnv6temp.com/mangakakalot/h1/haru_wo_daite_ita/vol15_chapter_1_time_share/5.jpg",
    "https://img-proxy.imgfo.com/?referer=https://manganelo.com&url=https://s5.mkklcdnv6temp.com/mangakakalot/h1/haru_wo_daite_ita/vol15_chapter_1_time_share/6.jpg",
    "https://img-proxy.imgfo.com/?referer=https://manganelo.com&url=https://s5.mkklcdnv6temp.com/mangakakalot/h1/haru_wo_daite_ita/vol15_chapter_1_time_share/7.jpg",
    "https://img-proxy.imgfo.com/?referer=https://manganelo.com&url=https://s5.mkklcdnv6temp.com/mangakakalot/h1/haru_wo_daite_ita/vol15_chapter_1_time_share/8.jpg",
    "https://img-proxy.imgfo.com/?referer=https://manganelo.com&url=https://s5.mkklcdnv6temp.com/mangakakalot/h1/haru_wo_daite_ita/vol15_chapter_1_time_share/9.jpg",
    "https://img-proxy.imgfo.com/?referer=https://manganelo.com&url=https://s5.mkklcdnv6temp.com/mangakakalot/h1/haru_wo_daite_ita/vol15_chapter_1_time_share/10.jpg",
    "https://img-proxy.imgfo.com/?referer=https://manganelo.com&url=https://s5.mkklcdnv6temp.com/mangakakalot/h1/haru_wo_daite_ita/vol15_chapter_1_time_share/11.jpg",
    "https://img-proxy.imgfo.com/?referer=https://manganelo.com&url=https://s5.mkklcdnv6temp.com/mangakakalot/h1/haru_wo_daite_ita/vol15_chapter_1_time_share/12.jpg",
    "https://img-proxy.imgfo.com/?referer=https://manganelo.com&url=https://s5.mkklcdnv6temp.com/mangakakalot/h1/haru_wo_daite_ita/vol15_chapter_1_time_share/13.jpg",
    "https://img-proxy.imgfo.com/?referer=https://manganelo.com&url=https://s5.mkklcdnv6temp.com/mangakakalot/h1/haru_wo_daite_ita/vol15_chapter_1_time_share/14.jpg",
    "https://img-proxy.imgfo.com/?referer=https://manganelo.com&url=https://s5.mkklcdnv6temp.com/mangakakalot/h1/haru_wo_daite_ita/vol15_chapter_1_time_share/15.jpg",
    "https://img-proxy.imgfo.com/?referer=https://manganelo.com&url=https://s5.mkklcdnv6temp.com/mangakakalot/h1/haru_wo_daite_ita/vol15_chapter_1_time_share/16.jpg",
    "https://img-proxy.imgfo.com/?referer=https://manganelo.com&url=https://s5.mkklcdnv6temp.com/mangakakalot/h1/haru_wo_daite_ita/vol15_chapter_1_time_share/17.jpg",
    "https://img-proxy.imgfo.com/?referer=https://manganelo.com&url=https://s5.mkklcdnv6temp.com/mangakakalot/h1/haru_wo_daite_ita/vol15_chapter_1_time_share/18.jpg",
    "https://img-proxy.imgfo.com/?referer=https://manganelo.com&url=https://s5.mkklcdnv6temp.com/mangakakalot/h1/haru_wo_daite_ita/vol15_chapter_1_time_share/19.jpg",
    "https://img-proxy.imgfo.com/?referer=https://manganelo.com&url=https://s5.mkklcdnv6temp.com/mangakakalot/h1/haru_wo_daite_ita/vol15_chapter_1_time_share/20.jpg",
    "https://img-proxy.imgfo.com/?referer=https://manganelo.com&url=https://s5.mkklcdnv6temp.com/mangakakalot/h1/haru_wo_daite_ita/vol15_chapter_1_time_share/21.jpg",
    "https://img-proxy.imgfo.com/?referer=https://manganelo.com&url=https://s5.mkklcdnv6temp.com/mangakakalot/h1/haru_wo_daite_ita/vol15_chapter_1_time_share/22.jpg",
    "https://img-proxy.imgfo.com/?referer=https://manganelo.com&url=https://s5.mkklcdnv6temp.com/mangakakalot/h1/haru_wo_daite_ita/vol15_chapter_1_time_share/23.jpg",
    "https://img-proxy.imgfo.com/?referer=https://manganelo.com&url=https://s5.mkklcdnv6temp.com/mangakakalot/h1/haru_wo_daite_ita/vol15_chapter_1_time_share/24.jpg",
    "https://img-proxy.imgfo.com/?referer=https://manganelo.com&url=https://s5.mkklcdnv6temp.com/mangakakalot/h1/haru_wo_daite_ita/vol15_chapter_1_time_share/25.jpg",
    "https://img-proxy.imgfo.com/?referer=https://manganelo.com&url=https://s5.mkklcdnv6temp.com/mangakakalot/h1/haru_wo_daite_ita/vol15_chapter_1_time_share/26.jpg",
    "https://img-proxy.imgfo.com/?referer=https://manganelo.com&url=https://s5.mkklcdnv6temp.com/mangakakalot/h1/haru_wo_daite_ita/vol15_chapter_1_time_share/27.jpg",
    "https://img-proxy.imgfo.com/?referer=https://manganelo.com&url=https://s5.mkklcdnv6temp.com/mangakakalot/h1/haru_wo_daite_ita/vol15_chapter_1_time_share/28.jpg",
    "https://img-proxy.imgfo.com/?referer=https://manganelo.com&url=https://s5.mkklcdnv6temp.com/mangakakalot/h1/haru_wo_daite_ita/vol15_chapter_1_time_share/29.jpg",
    "https://img-proxy.imgfo.com/?referer=https://manganelo.com&url=https://s5.mkklcdnv6temp.com/mangakakalot/h1/haru_wo_daite_ita/vol15_chapter_1_time_share/30.jpg",
    "https://img-proxy.imgfo.com/?referer=https://manganelo.com&url=https://s5.mkklcdnv6temp.com/mangakakalot/h1/haru_wo_daite_ita/vol15_chapter_1_time_share/31.jpg",
    "https://img-proxy.imgfo.com/?referer=https://manganelo.com&url=https://s5.mkklcdnv6temp.com/mangakakalot/h1/haru_wo_daite_ita/vol15_chapter_1_time_share/32.jpg",
    "https://img-proxy.imgfo.com/?referer=https://manganelo.com&url=https://s5.mkklcdnv6temp.com/mangakakalot/h1/haru_wo_daite_ita/vol15_chapter_1_time_share/33.jpg",
    "https://img-proxy.imgfo.com/?referer=https://manganelo.com&url=https://s5.mkklcdnv6temp.com/mangakakalot/h1/haru_wo_daite_ita/vol15_chapter_1_time_share/34.jpg",
    "https://img-proxy.imgfo.com/?referer=https://manganelo.com&url=https://s5.mkklcdnv6temp.com/mangakakalot/h1/haru_wo_daite_ita/vol15_chapter_1_time_share/35.jpg"
  ]
}