{
  "cover": "https://avt.mkklcdnv6.com/34/s/7-1583477581.jpg",
  "title": "Haru Wo Daite Ita",
  "original": "スタンドオン・ベッセル ; 冬の蝉 ; 春を抱いていた ; Embracing Love ; Embracing Spring ; Fuyu no Semi ; Haru wo Daiteita ; Haru wo Daiteita Trilogy ; Winter Cicada",
  "genre": "Drama, Mature, Yaoi, Manga",
  "author": "Nitta Youka",
  "status": "Completed",
  "backlink": "https://manganu.com/collections/nitta-youka/haru-wo-daite-ita/",
  "description": "From Be Beautiful:\nA lighthearted romantic comedy that lampoons the adult film business, the mainstream media, and the natural vanity of actors while exploring the earliest stages of a brand new relationship.",
  "language": "English",
  "images": [
    "https://img-proxy.imgfo.com/?referer=https://manganelo.com&url=https://s5.mkklcdnv6temp.com/mangakakalot/h1/haru_wo_daite_ita/vol7_chapter_5_air_castle/1.jpg",
    "https://img-proxy.imgfo.com/?referer=https://manganelo.com&url=https://s5.mkklcdnv6temp.com/mangakakalot/h1/haru_wo_daite_ita/vol7_chapter_5_air_castle/2.jpg",
    "https://img-proxy.imgfo.com/?referer=https://manganelo.com&url=https://s5.mkklcdnv6temp.com/mangakakalot/h1/haru_wo_daite_ita/vol7_chapter_5_air_castle/3.jpg",
    "https://img-proxy.imgfo.com/?referer=https://manganelo.com&url=https://s5.mkklcdnv6temp.com/mangakakalot/h1/haru_wo_daite_ita/vol7_chapter_5_air_castle/4.jpg",
    "https://img-proxy.imgfo.com/?referer=https://manganelo.com&url=https://s5.mkklcdnv6temp.com/mangakakalot/h1/haru_wo_daite_ita/vol7_chapter_5_air_castle/5.jpg",
    "https://img-proxy.imgfo.com/?referer=https://manganelo.com&url=https://s5.mkklcdnv6temp.com/mangakakalot/h1/haru_wo_daite_ita/vol7_chapter_5_air_castle/6.jpg",
    "https://img-proxy.imgfo.com/?referer=https://manganelo.com&url=https://s5.mkklcdnv6temp.com/mangakakalot/h1/haru_wo_daite_ita/vol7_chapter_5_air_castle/7.jpg",
    "https://img-proxy.imgfo.com/?referer=https://manganelo.com&url=https://s5.mkklcdnv6temp.com/mangakakalot/h1/haru_wo_daite_ita/vol7_chapter_5_air_castle/8.jpg",
    "https://img-proxy.imgfo.com/?referer=https://manganelo.com&url=https://s5.mkklcdnv6temp.com/mangakakalot/h1/haru_wo_daite_ita/vol7_chapter_5_air_castle/9.jpg",
    "https://img-proxy.imgfo.com/?referer=https://manganelo.com&url=https://s5.mkklcdnv6temp.com/mangakakalot/h1/haru_wo_daite_ita/vol7_chapter_5_air_castle/10.jpg",
    "https://img-proxy.imgfo.com/?referer=https://manganelo.com&url=https://s5.mkklcdnv6temp.com/mangakakalot/h1/haru_wo_daite_ita/vol7_chapter_5_air_castle/11.jpg",
    "https://img-proxy.imgfo.com/?referer=https://manganelo.com&url=https://s5.mkklcdnv6temp.com/mangakakalot/h1/haru_wo_daite_ita/vol7_chapter_5_air_castle/12.jpg",
    "https://img-proxy.imgfo.com/?referer=https://manganelo.com&url=https://s5.mkklcdnv6temp.com/mangakakalot/h1/haru_wo_daite_ita/vol7_chapter_5_air_castle/13.jpg",
    "https://img-proxy.imgfo.com/?referer=https://manganelo.com&url=https://s5.mkklcdnv6temp.com/mangakakalot/h1/haru_wo_daite_ita/vol7_chapter_5_air_castle/14.jpg",
    "https://img-proxy.imgfo.com/?referer=https://manganelo.com&url=https://s5.mkklcdnv6temp.com/mangakakalot/h1/haru_wo_daite_ita/vol7_chapter_5_air_castle/15.jpg",
    "https://img-proxy.imgfo.com/?referer=https://manganelo.com&url=https://s5.mkklcdnv6temp.com/mangakakalot/h1/haru_wo_daite_ita/vol7_chapter_5_air_castle/16.jpg",
    "https://img-proxy.imgfo.com/?referer=https://manganelo.com&url=https://s5.mkklcdnv6temp.com/mangakakalot/h1/haru_wo_daite_ita/vol7_chapter_5_air_castle/17.jpg",
    "https://img-proxy.imgfo.com/?referer=https://manganelo.com&url=https://s5.mkklcdnv6temp.com/mangakakalot/h1/haru_wo_daite_ita/vol7_chapter_5_air_castle/18.jpg",
    "https://img-proxy.imgfo.com/?referer=https://manganelo.com&url=https://s5.mkklcdnv6temp.com/mangakakalot/h1/haru_wo_daite_ita/vol7_chapter_5_air_castle/19.jpg",
    "https://img-proxy.imgfo.com/?referer=https://manganelo.com&url=https://s5.mkklcdnv6temp.com/mangakakalot/h1/haru_wo_daite_ita/vol7_chapter_5_air_castle/20.jpg",
    "https://img-proxy.imgfo.com/?referer=https://manganelo.com&url=https://s5.mkklcdnv6temp.com/mangakakalot/h1/haru_wo_daite_ita/vol7_chapter_5_air_castle/21.jpg",
    "https://img-proxy.imgfo.com/?referer=https://manganelo.com&url=https://s5.mkklcdnv6temp.com/mangakakalot/h1/haru_wo_daite_ita/vol7_chapter_5_air_castle/22.jpg",
    "https://img-proxy.imgfo.com/?referer=https://manganelo.com&url=https://s5.mkklcdnv6temp.com/mangakakalot/h1/haru_wo_daite_ita/vol7_chapter_5_air_castle/23.jpg",
    "https://img-proxy.imgfo.com/?referer=https://manganelo.com&url=https://s5.mkklcdnv6temp.com/mangakakalot/h1/haru_wo_daite_ita/vol7_chapter_5_air_castle/24.jpg",
    "https://img-proxy.imgfo.com/?referer=https://manganelo.com&url=https://s5.mkklcdnv6temp.com/mangakakalot/h1/haru_wo_daite_ita/vol7_chapter_5_air_castle/25.jpg",
    "https://img-proxy.imgfo.com/?referer=https://manganelo.com&url=https://s5.mkklcdnv6temp.com/mangakakalot/h1/haru_wo_daite_ita/vol7_chapter_5_air_castle/26.jpg"
  ]
}