{
  "cover": "https://avt.mkklcdnv6.com/46/u/10-1583483858.jpg",
  "title": "Kimi Ga Koi Ni Oboreru",
  "original": "きみが恋に溺れる ; 與君共溺愛河 ; 그대가 사랑에 빠지다 (레이치로편) ; You are Addicted to Love ; You Indulge in Love ; You Will Drown in Love",
  "genre": "Drama, Romance, Yaoi, Manga",
  "author": "Takanaga Hinako",
  "status": "Completed",
  "backlink": "https://manganu.com/collections/takanaga-hinako/kimi-ga-koi-ni-oboreru/",
  "description": "The sequel to You Will Fall in Love, focusing on Tsukasa's older brother Reiichirou.\nReiichirou is back and hoping for a happier ending this time when he takes over as manager for a kimono shop. But a fellow employee, Jinnai, doesn't like the idea of being bossed around by a younger and less experienced man. As the sparks fly between the two men, will love also bloom?\n(from: Manga_Updates)",
  "language": "English",
  "images": [
    "https://img-proxy.imgfo.com/?referer=https://manganelo.com&url=https://s3.mkklcdnv6temp.com/mangakakalot/k1/kimi_ga_koi_ni_oboreru/vol3_chapter_16/1.jpg",
    "https://img-proxy.imgfo.com/?referer=https://manganelo.com&url=https://s3.mkklcdnv6temp.com/mangakakalot/k1/kimi_ga_koi_ni_oboreru/vol3_chapter_16/2.jpg",
    "https://img-proxy.imgfo.com/?referer=https://manganelo.com&url=https://s3.mkklcdnv6temp.com/mangakakalot/k1/kimi_ga_koi_ni_oboreru/vol3_chapter_16/3.jpg",
    "https://img-proxy.imgfo.com/?referer=https://manganelo.com&url=https://s3.mkklcdnv6temp.com/mangakakalot/k1/kimi_ga_koi_ni_oboreru/vol3_chapter_16/4.jpg",
    "https://img-proxy.imgfo.com/?referer=https://manganelo.com&url=https://s3.mkklcdnv6temp.com/mangakakalot/k1/kimi_ga_koi_ni_oboreru/vol3_chapter_16/5.jpg",
    "https://img-proxy.imgfo.com/?referer=https://manganelo.com&url=https://s3.mkklcdnv6temp.com/mangakakalot/k1/kimi_ga_koi_ni_oboreru/vol3_chapter_16/6.jpg",
    "https://img-proxy.imgfo.com/?referer=https://manganelo.com&url=https://s3.mkklcdnv6temp.com/mangakakalot/k1/kimi_ga_koi_ni_oboreru/vol3_chapter_16/7.jpg",
    "https://img-proxy.imgfo.com/?referer=https://manganelo.com&url=https://s3.mkklcdnv6temp.com/mangakakalot/k1/kimi_ga_koi_ni_oboreru/vol3_chapter_16/8.jpg",
    "https://img-proxy.imgfo.com/?referer=https://manganelo.com&url=https://s3.mkklcdnv6temp.com/mangakakalot/k1/kimi_ga_koi_ni_oboreru/vol3_chapter_16/9.jpg",
    "https://img-proxy.imgfo.com/?referer=https://manganelo.com&url=https://s3.mkklcdnv6temp.com/mangakakalot/k1/kimi_ga_koi_ni_oboreru/vol3_chapter_16/10.jpg",
    "https://img-proxy.imgfo.com/?referer=https://manganelo.com&url=https://s3.mkklcdnv6temp.com/mangakakalot/k1/kimi_ga_koi_ni_oboreru/vol3_chapter_16/11.jpg",
    "https://img-proxy.imgfo.com/?referer=https://manganelo.com&url=https://s3.mkklcdnv6temp.com/mangakakalot/k1/kimi_ga_koi_ni_oboreru/vol3_chapter_16/12.jpg",
    "https://img-proxy.imgfo.com/?referer=https://manganelo.com&url=https://s3.mkklcdnv6temp.com/mangakakalot/k1/kimi_ga_koi_ni_oboreru/vol3_chapter_16/13.jpg",
    "https://img-proxy.imgfo.com/?referer=https://manganelo.com&url=https://s3.mkklcdnv6temp.com/mangakakalot/k1/kimi_ga_koi_ni_oboreru/vol3_chapter_16/14.jpg",
    "https://img-proxy.imgfo.com/?referer=https://manganelo.com&url=https://s3.mkklcdnv6temp.com/mangakakalot/k1/kimi_ga_koi_ni_oboreru/vol3_chapter_16/15.jpg",
    "https://img-proxy.imgfo.com/?referer=https://manganelo.com&url=https://s3.mkklcdnv6temp.com/mangakakalot/k1/kimi_ga_koi_ni_oboreru/vol3_chapter_16/16.jpg",
    "https://img-proxy.imgfo.com/?referer=https://manganelo.com&url=https://s3.mkklcdnv6temp.com/mangakakalot/k1/kimi_ga_koi_ni_oboreru/vol3_chapter_16/17.jpg",
    "https://img-proxy.imgfo.com/?referer=https://manganelo.com&url=https://s3.mkklcdnv6temp.com/mangakakalot/k1/kimi_ga_koi_ni_oboreru/vol3_chapter_16/18.jpg",
    "https://img-proxy.imgfo.com/?referer=https://manganelo.com&url=https://s3.mkklcdnv6temp.com/mangakakalot/k1/kimi_ga_koi_ni_oboreru/vol3_chapter_16/19.jpg",
    "https://img-proxy.imgfo.com/?referer=https://manganelo.com&url=https://s3.mkklcdnv6temp.com/mangakakalot/k1/kimi_ga_koi_ni_oboreru/vol3_chapter_16/20.jpg",
    "https://img-proxy.imgfo.com/?referer=https://manganelo.com&url=https://s3.mkklcdnv6temp.com/mangakakalot/k1/kimi_ga_koi_ni_oboreru/vol3_chapter_16/21.jpg",
    "https://img-proxy.imgfo.com/?referer=https://manganelo.com&url=https://s3.mkklcdnv6temp.com/mangakakalot/k1/kimi_ga_koi_ni_oboreru/vol3_chapter_16/22.jpg",
    "https://img-proxy.imgfo.com/?referer=https://manganelo.com&url=https://s3.mkklcdnv6temp.com/mangakakalot/k1/kimi_ga_koi_ni_oboreru/vol3_chapter_16/23.jpg",
    "https://img-proxy.imgfo.com/?referer=https://manganelo.com&url=https://s3.mkklcdnv6temp.com/mangakakalot/k1/kimi_ga_koi_ni_oboreru/vol3_chapter_16/24.jpg",
    "https://img-proxy.imgfo.com/?referer=https://manganelo.com&url=https://s3.mkklcdnv6temp.com/mangakakalot/k1/kimi_ga_koi_ni_oboreru/vol3_chapter_16/25.jpg",
    "https://img-proxy.imgfo.com/?referer=https://manganelo.com&url=https://s3.mkklcdnv6temp.com/mangakakalot/k1/kimi_ga_koi_ni_oboreru/vol3_chapter_16/26.jpg",
    "https://img-proxy.imgfo.com/?referer=https://manganelo.com&url=https://s3.mkklcdnv6temp.com/mangakakalot/k1/kimi_ga_koi_ni_oboreru/vol3_chapter_16/27.jpg",
    "https://img-proxy.imgfo.com/?referer=https://manganelo.com&url=https://s3.mkklcdnv6temp.com/mangakakalot/k1/kimi_ga_koi_ni_oboreru/vol3_chapter_16/28.jpg",
    "https://img-proxy.imgfo.com/?referer=https://manganelo.com&url=https://s3.mkklcdnv6temp.com/mangakakalot/k1/kimi_ga_koi_ni_oboreru/vol3_chapter_16/29.jpg",
    "https://img-proxy.imgfo.com/?referer=https://manganelo.com&url=https://s3.mkklcdnv6temp.com/mangakakalot/k1/kimi_ga_koi_ni_oboreru/vol3_chapter_16/30.jpg",
    "https://img-proxy.imgfo.com/?referer=https://manganelo.com&url=https://s3.mkklcdnv6temp.com/mangakakalot/k1/kimi_ga_koi_ni_oboreru/vol3_chapter_16/31.jpg",
    "https://img-proxy.imgfo.com/?referer=https://manganelo.com&url=https://s3.mkklcdnv6temp.com/mangakakalot/k1/kimi_ga_koi_ni_oboreru/vol3_chapter_16/32.jpg",
    "https://img-proxy.imgfo.com/?referer=https://manganelo.com&url=https://s3.mkklcdnv6temp.com/mangakakalot/k1/kimi_ga_koi_ni_oboreru/vol3_chapter_16/33.jpg",
    "https://img-proxy.imgfo.com/?referer=https://manganelo.com&url=https://s3.mkklcdnv6temp.com/mangakakalot/k1/kimi_ga_koi_ni_oboreru/vol3_chapter_16/34.jpg",
    "https://img-proxy.imgfo.com/?referer=https://manganelo.com&url=https://s3.mkklcdnv6temp.com/mangakakalot/k1/kimi_ga_koi_ni_oboreru/vol3_chapter_16/35.jpg",
    "https://img-proxy.imgfo.com/?referer=https://manganelo.com&url=https://s3.mkklcdnv6temp.com/mangakakalot/k1/kimi_ga_koi_ni_oboreru/vol3_chapter_16/36.jpg",
    "https://img-proxy.imgfo.com/?referer=https://manganelo.com&url=https://s3.mkklcdnv6temp.com/mangakakalot/k1/kimi_ga_koi_ni_oboreru/vol3_chapter_16/37.jpg",
    "https://img-proxy.imgfo.com/?referer=https://manganelo.com&url=https://s3.mkklcdnv6temp.com/mangakakalot/k1/kimi_ga_koi_ni_oboreru/vol3_chapter_16/38.jpg",
    "https://img-proxy.imgfo.com/?referer=https://manganelo.com&url=https://s3.mkklcdnv6temp.com/mangakakalot/k1/kimi_ga_koi_ni_oboreru/vol3_chapter_16/39.jpg",
    "https://img-proxy.imgfo.com/?referer=https://manganelo.com&url=https://s3.mkklcdnv6temp.com/mangakakalot/k1/kimi_ga_koi_ni_oboreru/vol3_chapter_16/40.jpg",
    "https://img-proxy.imgfo.com/?referer=https://manganelo.com&url=https://s3.mkklcdnv6temp.com/mangakakalot/k1/kimi_ga_koi_ni_oboreru/vol3_chapter_16/41.jpg",
    "https://img-proxy.imgfo.com/?referer=https://manganelo.com&url=https://s3.mkklcdnv6temp.com/mangakakalot/k1/kimi_ga_koi_ni_oboreru/vol3_chapter_16/42.jpg"
  ]
}