{
  "cover": "https://avt.mkklcdnv6.com/5/b/4-1583469862.jpg",
  "title": "Chibi Vampire",
  "original": "かりん ; カリン ; 카린 증혈기 ; Karin ; Karin Zouketsuki (novels) ; 增血鬼果林 ; Cheeky Vampire ; خون آشام کوچک ; مصاصه دماء الصغیره",
  "genre": "Action, Adult, Comedy, Cooking, Drama, Romance, School life, Shounen, Supernatural, Manga",
  "author": "Kagesaki Yuna",
  "status": "Completed",
  "backlink": "https://manganu.com/collections/kagesaki-yuna/chibi-vampire/",
  "description": "Karin&#39;s a cute, cheerful high school girl. She loves the sunshine, cooking with garlic, and has a part-time job as a waitress. All in all, she&#39;s pretty average... except for one thing. Karin is a vampire, and lives with her parents and two siblings, who are also vampires. But even among them, she&#39;s different, for she doesn&#39;t take blood but give blood that is increased in her body. Once every month, Karin&#39;s blood builds up, and if she doesn&#39;t expel it quickly, massive amount of blood will come out her nose (a major nosebleed). And one day at school she meets Kenta Usui and gets the feeling of a nosebleed at first site. It seems Karin never has a &quot;right way&quot; for her problems.",
  "language": "English",
  "images": [
    "https://img-proxy.imgfo.com/?referer=https://manganelo.com&url=https://s41.mkklcdnv6temp.com/mangakakalot/r1/read_chibi_vampire_manga_online/vol4_chapter_17_karins_feelings_and_rens_indignation_indignation/1.jpg",
    "https://img-proxy.imgfo.com/?referer=https://manganelo.com&url=https://s41.mkklcdnv6temp.com/mangakakalot/r1/read_chibi_vampire_manga_online/vol4_chapter_17_karins_feelings_and_rens_indignation_indignation/2.jpg",
    "https://img-proxy.imgfo.com/?referer=https://manganelo.com&url=https://s41.mkklcdnv6temp.com/mangakakalot/r1/read_chibi_vampire_manga_online/vol4_chapter_17_karins_feelings_and_rens_indignation_indignation/3.jpg",
    "https://img-proxy.imgfo.com/?referer=https://manganelo.com&url=https://s41.mkklcdnv6temp.com/mangakakalot/r1/read_chibi_vampire_manga_online/vol4_chapter_17_karins_feelings_and_rens_indignation_indignation/4.jpg",
    "https://img-proxy.imgfo.com/?referer=https://manganelo.com&url=https://s41.mkklcdnv6temp.com/mangakakalot/r1/read_chibi_vampire_manga_online/vol4_chapter_17_karins_feelings_and_rens_indignation_indignation/5.jpg",
    "https://img-proxy.imgfo.com/?referer=https://manganelo.com&url=https://s41.mkklcdnv6temp.com/mangakakalot/r1/read_chibi_vampire_manga_online/vol4_chapter_17_karins_feelings_and_rens_indignation_indignation/6.jpg",
    "https://img-proxy.imgfo.com/?referer=https://manganelo.com&url=https://s41.mkklcdnv6temp.com/mangakakalot/r1/read_chibi_vampire_manga_online/vol4_chapter_17_karins_feelings_and_rens_indignation_indignation/7.jpg",
    "https://img-proxy.imgfo.com/?referer=https://manganelo.com&url=https://s41.mkklcdnv6temp.com/mangakakalot/r1/read_chibi_vampire_manga_online/vol4_chapter_17_karins_feelings_and_rens_indignation_indignation/8.jpg",
    "https://img-proxy.imgfo.com/?referer=https://manganelo.com&url=https://s41.mkklcdnv6temp.com/mangakakalot/r1/read_chibi_vampire_manga_online/vol4_chapter_17_karins_feelings_and_rens_indignation_indignation/9.jpg",
    "https://img-proxy.imgfo.com/?referer=https://manganelo.com&url=https://s41.mkklcdnv6temp.com/mangakakalot/r1/read_chibi_vampire_manga_online/vol4_chapter_17_karins_feelings_and_rens_indignation_indignation/10.jpg",
    "https://img-proxy.imgfo.com/?referer=https://manganelo.com&url=https://s41.mkklcdnv6temp.com/mangakakalot/r1/read_chibi_vampire_manga_online/vol4_chapter_17_karins_feelings_and_rens_indignation_indignation/11.jpg",
    "https://img-proxy.imgfo.com/?referer=https://manganelo.com&url=https://s41.mkklcdnv6temp.com/mangakakalot/r1/read_chibi_vampire_manga_online/vol4_chapter_17_karins_feelings_and_rens_indignation_indignation/12.jpg",
    "https://img-proxy.imgfo.com/?referer=https://manganelo.com&url=https://s41.mkklcdnv6temp.com/mangakakalot/r1/read_chibi_vampire_manga_online/vol4_chapter_17_karins_feelings_and_rens_indignation_indignation/13.jpg",
    "https://img-proxy.imgfo.com/?referer=https://manganelo.com&url=https://s41.mkklcdnv6temp.com/mangakakalot/r1/read_chibi_vampire_manga_online/vol4_chapter_17_karins_feelings_and_rens_indignation_indignation/14.jpg",
    "https://img-proxy.imgfo.com/?referer=https://manganelo.com&url=https://s41.mkklcdnv6temp.com/mangakakalot/r1/read_chibi_vampire_manga_online/vol4_chapter_17_karins_feelings_and_rens_indignation_indignation/15.jpg",
    "https://img-proxy.imgfo.com/?referer=https://manganelo.com&url=https://s41.mkklcdnv6temp.com/mangakakalot/r1/read_chibi_vampire_manga_online/vol4_chapter_17_karins_feelings_and_rens_indignation_indignation/16.jpg",
    "https://img-proxy.imgfo.com/?referer=https://manganelo.com&url=https://s41.mkklcdnv6temp.com/mangakakalot/r1/read_chibi_vampire_manga_online/vol4_chapter_17_karins_feelings_and_rens_indignation_indignation/17.jpg",
    "https://img-proxy.imgfo.com/?referer=https://manganelo.com&url=https://s41.mkklcdnv6temp.com/mangakakalot/r1/read_chibi_vampire_manga_online/vol4_chapter_17_karins_feelings_and_rens_indignation_indignation/18.jpg",
    "https://img-proxy.imgfo.com/?referer=https://manganelo.com&url=https://s41.mkklcdnv6temp.com/mangakakalot/r1/read_chibi_vampire_manga_online/vol4_chapter_17_karins_feelings_and_rens_indignation_indignation/19.jpg",
    "https://img-proxy.imgfo.com/?referer=https://manganelo.com&url=https://s41.mkklcdnv6temp.com/mangakakalot/r1/read_chibi_vampire_manga_online/vol4_chapter_17_karins_feelings_and_rens_indignation_indignation/20.jpg",
    "https://img-proxy.imgfo.com/?referer=https://manganelo.com&url=https://s41.mkklcdnv6temp.com/mangakakalot/r1/read_chibi_vampire_manga_online/vol4_chapter_17_karins_feelings_and_rens_indignation_indignation/21.jpg",
    "https://img-proxy.imgfo.com/?referer=https://manganelo.com&url=https://s41.mkklcdnv6temp.com/mangakakalot/r1/read_chibi_vampire_manga_online/vol4_chapter_17_karins_feelings_and_rens_indignation_indignation/22.jpg",
    "https://img-proxy.imgfo.com/?referer=https://manganelo.com&url=https://s41.mkklcdnv6temp.com/mangakakalot/r1/read_chibi_vampire_manga_online/vol4_chapter_17_karins_feelings_and_rens_indignation_indignation/23.jpg",
    "https://img-proxy.imgfo.com/?referer=https://manganelo.com&url=https://s41.mkklcdnv6temp.com/mangakakalot/r1/read_chibi_vampire_manga_online/vol4_chapter_17_karins_feelings_and_rens_indignation_indignation/24.jpg",
    "https://img-proxy.imgfo.com/?referer=https://manganelo.com&url=https://s41.mkklcdnv6temp.com/mangakakalot/r1/read_chibi_vampire_manga_online/vol4_chapter_17_karins_feelings_and_rens_indignation_indignation/25.jpg",
    "https://img-proxy.imgfo.com/?referer=https://manganelo.com&url=https://s41.mkklcdnv6temp.com/mangakakalot/r1/read_chibi_vampire_manga_online/vol4_chapter_17_karins_feelings_and_rens_indignation_indignation/26.jpg",
    "https://img-proxy.imgfo.com/?referer=https://manganelo.com&url=https://s41.mkklcdnv6temp.com/mangakakalot/r1/read_chibi_vampire_manga_online/vol4_chapter_17_karins_feelings_and_rens_indignation_indignation/27.jpg",
    "https://img-proxy.imgfo.com/?referer=https://manganelo.com&url=https://s41.mkklcdnv6temp.com/mangakakalot/r1/read_chibi_vampire_manga_online/vol4_chapter_17_karins_feelings_and_rens_indignation_indignation/28.jpg",
    "https://img-proxy.imgfo.com/?referer=https://manganelo.com&url=https://s41.mkklcdnv6temp.com/mangakakalot/r1/read_chibi_vampire_manga_online/vol4_chapter_17_karins_feelings_and_rens_indignation_indignation/29.jpg",
    "https://img-proxy.imgfo.com/?referer=https://manganelo.com&url=https://s41.mkklcdnv6temp.com/mangakakalot/r1/read_chibi_vampire_manga_online/vol4_chapter_17_karins_feelings_and_rens_indignation_indignation/30.jpg"
  ]
}