{
  "cover": "https://avt.mkklcdnv6.com/44/z/4-1583471583.jpg",
  "title": "The Breaker",
  "original": "브레이커 (Korean) ; Крушитель (Bulgarian); Разрушителят (Russian); Ang Tagawasak (Filipino); Distrugătorul (Română); Laužytojas (Lithuanian); Kẻ Phá Hoại (Vietnamese - Tiếng Việt - TV)",
  "genre": "Action, Comedy, Drama, Martial arts, Romance, School life, Seinen, Supernatural, Webtoons, Manhwa",
  "author": "Geuk-Jin Jeon",
  "status": "Completed",
  "backlink": "https://manganu.com/collections/geuk-jin-jeon/the-breaker/",
  "description": "STYLISH ACTION FROM THE AUTHOR OF ARCHLORD! The new English teacher, Chun-Woo, is not your ordinary teacher. Shioon, a victim of constant bullying, unexpectedly witnesses Chun-Woo&#39;s fighting power, and begs him to make him his disciple. Chun-Woo claims he can teach Shioon only if he is truly determined, and Shioon must jump off a bridge into a deep river in order to prove it! It turns out, however, that Chun-Woo and his powers are more than meets the eye. Shioon makes a grand entrance into the hidden world of martial arts, and he is about to be taught by the best there is! You can read part 2: The Breaker - New Waves here.\n\nManhwa you may like:\n+&nbsp;The Gamer -&nbsp;​THE 게이머\n+ Gosu&nbsp;고수\n+ Yongbi The Invincible&nbsp;용비불패",
  "language": "English",
  "images": [
    "https://img-proxy.imgfo.com/?referer=https://manganelo.com&url=https://s6.mkklcdnv6temp.com/mangakakalot/t1/the_breaker/vol5_chapter_32/1.jpg",
    "https://img-proxy.imgfo.com/?referer=https://manganelo.com&url=https://s6.mkklcdnv6temp.com/mangakakalot/t1/the_breaker/vol5_chapter_32/2.jpg",
    "https://img-proxy.imgfo.com/?referer=https://manganelo.com&url=https://s6.mkklcdnv6temp.com/mangakakalot/t1/the_breaker/vol5_chapter_32/3.jpg",
    "https://img-proxy.imgfo.com/?referer=https://manganelo.com&url=https://s6.mkklcdnv6temp.com/mangakakalot/t1/the_breaker/vol5_chapter_32/4.jpg",
    "https://img-proxy.imgfo.com/?referer=https://manganelo.com&url=https://s6.mkklcdnv6temp.com/mangakakalot/t1/the_breaker/vol5_chapter_32/5.jpg",
    "https://img-proxy.imgfo.com/?referer=https://manganelo.com&url=https://s6.mkklcdnv6temp.com/mangakakalot/t1/the_breaker/vol5_chapter_32/6.jpg",
    "https://img-proxy.imgfo.com/?referer=https://manganelo.com&url=https://s6.mkklcdnv6temp.com/mangakakalot/t1/the_breaker/vol5_chapter_32/7.jpg",
    "https://img-proxy.imgfo.com/?referer=https://manganelo.com&url=https://s6.mkklcdnv6temp.com/mangakakalot/t1/the_breaker/vol5_chapter_32/8.jpg",
    "https://img-proxy.imgfo.com/?referer=https://manganelo.com&url=https://s6.mkklcdnv6temp.com/mangakakalot/t1/the_breaker/vol5_chapter_32/9.jpg",
    "https://img-proxy.imgfo.com/?referer=https://manganelo.com&url=https://s6.mkklcdnv6temp.com/mangakakalot/t1/the_breaker/vol5_chapter_32/10.jpg",
    "https://img-proxy.imgfo.com/?referer=https://manganelo.com&url=https://s6.mkklcdnv6temp.com/mangakakalot/t1/the_breaker/vol5_chapter_32/11.jpg",
    "https://img-proxy.imgfo.com/?referer=https://manganelo.com&url=https://s6.mkklcdnv6temp.com/mangakakalot/t1/the_breaker/vol5_chapter_32/12.jpg",
    "https://img-proxy.imgfo.com/?referer=https://manganelo.com&url=https://s6.mkklcdnv6temp.com/mangakakalot/t1/the_breaker/vol5_chapter_32/13.jpg",
    "https://img-proxy.imgfo.com/?referer=https://manganelo.com&url=https://s6.mkklcdnv6temp.com/mangakakalot/t1/the_breaker/vol5_chapter_32/14.jpg",
    "https://img-proxy.imgfo.com/?referer=https://manganelo.com&url=https://s6.mkklcdnv6temp.com/mangakakalot/t1/the_breaker/vol5_chapter_32/15.jpg",
    "https://img-proxy.imgfo.com/?referer=https://manganelo.com&url=https://s6.mkklcdnv6temp.com/mangakakalot/t1/the_breaker/vol5_chapter_32/16.jpg",
    "https://img-proxy.imgfo.com/?referer=https://manganelo.com&url=https://s6.mkklcdnv6temp.com/mangakakalot/t1/the_breaker/vol5_chapter_32/17.jpg",
    "https://img-proxy.imgfo.com/?referer=https://manganelo.com&url=https://s6.mkklcdnv6temp.com/mangakakalot/t1/the_breaker/vol5_chapter_32/18.jpg",
    "https://img-proxy.imgfo.com/?referer=https://manganelo.com&url=https://s6.mkklcdnv6temp.com/mangakakalot/t1/the_breaker/vol5_chapter_32/19.jpg",
    "https://img-proxy.imgfo.com/?referer=https://manganelo.com&url=https://s6.mkklcdnv6temp.com/mangakakalot/t1/the_breaker/vol5_chapter_32/20.jpg",
    "https://img-proxy.imgfo.com/?referer=https://manganelo.com&url=https://s6.mkklcdnv6temp.com/mangakakalot/t1/the_breaker/vol5_chapter_32/21.jpg",
    "https://img-proxy.imgfo.com/?referer=https://manganelo.com&url=https://s6.mkklcdnv6temp.com/mangakakalot/t1/the_breaker/vol5_chapter_32/22.jpg",
    "https://img-proxy.imgfo.com/?referer=https://manganelo.com&url=https://s6.mkklcdnv6temp.com/mangakakalot/t1/the_breaker/vol5_chapter_32/23.jpg",
    "https://img-proxy.imgfo.com/?referer=https://manganelo.com&url=https://s6.mkklcdnv6temp.com/mangakakalot/t1/the_breaker/vol5_chapter_32/24.jpg",
    "https://img-proxy.imgfo.com/?referer=https://manganelo.com&url=https://s6.mkklcdnv6temp.com/mangakakalot/t1/the_breaker/vol5_chapter_32/25.jpg",
    "https://img-proxy.imgfo.com/?referer=https://manganelo.com&url=https://s6.mkklcdnv6temp.com/mangakakalot/t1/the_breaker/vol5_chapter_32/26.jpg"
  ]
}