{
  "cover": "https://avt.mkklcdnv6.com/48/o/5-1583473788.jpg",
  "title": "Sailor Moon",
  "original": "美少女戦士セーラームーン 세일러문 ; Bishoujo Senshi Sailormoon ; Pretty Guardian Sailor Moon ; Pretty Soldier Sailor Moon ; Sailor Moon ; Thủy Thủ Mặt Trăng (Vietnam) ; Moon Guardian Sailor Moon ; Navegante da Lua (Portugal) ; Mėnulio Jūreivė (Lithuanian)",
  "genre": "Action, Adventure, Comedy, Drama, Fantasy, Romance, Sci fi, Shoujo, Supernatural, Manga",
  "author": "Takeuchi Naoko",
  "status": "Completed",
  "backlink": "https://manganu.com/collections/takeuchi-naoko/sailor-moon/",
  "description": "Usagi Tsukino is a normal girl until she meets up with Luna, a talking cat, who tells her that she is Sailor Moon. As Sailor Moon, Usagi must fight evils and enforce justice, in the name of the Moon and the mysterious Moon Princess. She meets other girls destined to be Sailor Senshi (Sailor Scouts), and together, they fight the forces of evil!\nNote: The anime is LOOSELY based on the manga, so that might be why the story might seem unrecognizable. Also, Naoko Takeuchi released a re-illustrated version of Sailor Moon a few years after the series had been finished after she had dropped Love Witch.\nThis manga won the Kodansha Manga Award in 1993 for shōjo.",
  "language": "English",
  "images": [
    "https://img-proxy.imgfo.com/?referer=https://manganelo.com&url=https://s3.mkklcdnv6temp.com/mangakakalot/s1/sailor_moon/vol03_chapter_2_endymion_part_2_reincarnation/1.jpg",
    "https://img-proxy.imgfo.com/?referer=https://manganelo.com&url=https://s3.mkklcdnv6temp.com/mangakakalot/s1/sailor_moon/vol03_chapter_2_endymion_part_2_reincarnation/2.jpg",
    "https://img-proxy.imgfo.com/?referer=https://manganelo.com&url=https://s3.mkklcdnv6temp.com/mangakakalot/s1/sailor_moon/vol03_chapter_2_endymion_part_2_reincarnation/3.jpg",
    "https://img-proxy.imgfo.com/?referer=https://manganelo.com&url=https://s3.mkklcdnv6temp.com/mangakakalot/s1/sailor_moon/vol03_chapter_2_endymion_part_2_reincarnation/4.jpg",
    "https://img-proxy.imgfo.com/?referer=https://manganelo.com&url=https://s3.mkklcdnv6temp.com/mangakakalot/s1/sailor_moon/vol03_chapter_2_endymion_part_2_reincarnation/5.jpg",
    "https://img-proxy.imgfo.com/?referer=https://manganelo.com&url=https://s3.mkklcdnv6temp.com/mangakakalot/s1/sailor_moon/vol03_chapter_2_endymion_part_2_reincarnation/6.jpg",
    "https://img-proxy.imgfo.com/?referer=https://manganelo.com&url=https://s3.mkklcdnv6temp.com/mangakakalot/s1/sailor_moon/vol03_chapter_2_endymion_part_2_reincarnation/7.jpg",
    "https://img-proxy.imgfo.com/?referer=https://manganelo.com&url=https://s3.mkklcdnv6temp.com/mangakakalot/s1/sailor_moon/vol03_chapter_2_endymion_part_2_reincarnation/8.jpg",
    "https://img-proxy.imgfo.com/?referer=https://manganelo.com&url=https://s3.mkklcdnv6temp.com/mangakakalot/s1/sailor_moon/vol03_chapter_2_endymion_part_2_reincarnation/9.jpg",
    "https://img-proxy.imgfo.com/?referer=https://manganelo.com&url=https://s3.mkklcdnv6temp.com/mangakakalot/s1/sailor_moon/vol03_chapter_2_endymion_part_2_reincarnation/10.jpg",
    "https://img-proxy.imgfo.com/?referer=https://manganelo.com&url=https://s3.mkklcdnv6temp.com/mangakakalot/s1/sailor_moon/vol03_chapter_2_endymion_part_2_reincarnation/11.jpg",
    "https://img-proxy.imgfo.com/?referer=https://manganelo.com&url=https://s3.mkklcdnv6temp.com/mangakakalot/s1/sailor_moon/vol03_chapter_2_endymion_part_2_reincarnation/12.jpg",
    "https://img-proxy.imgfo.com/?referer=https://manganelo.com&url=https://s3.mkklcdnv6temp.com/mangakakalot/s1/sailor_moon/vol03_chapter_2_endymion_part_2_reincarnation/13.jpg",
    "https://img-proxy.imgfo.com/?referer=https://manganelo.com&url=https://s3.mkklcdnv6temp.com/mangakakalot/s1/sailor_moon/vol03_chapter_2_endymion_part_2_reincarnation/14.jpg",
    "https://img-proxy.imgfo.com/?referer=https://manganelo.com&url=https://s3.mkklcdnv6temp.com/mangakakalot/s1/sailor_moon/vol03_chapter_2_endymion_part_2_reincarnation/15.jpg",
    "https://img-proxy.imgfo.com/?referer=https://manganelo.com&url=https://s3.mkklcdnv6temp.com/mangakakalot/s1/sailor_moon/vol03_chapter_2_endymion_part_2_reincarnation/16.jpg",
    "https://img-proxy.imgfo.com/?referer=https://manganelo.com&url=https://s3.mkklcdnv6temp.com/mangakakalot/s1/sailor_moon/vol03_chapter_2_endymion_part_2_reincarnation/17.jpg",
    "https://img-proxy.imgfo.com/?referer=https://manganelo.com&url=https://s3.mkklcdnv6temp.com/mangakakalot/s1/sailor_moon/vol03_chapter_2_endymion_part_2_reincarnation/18.jpg",
    "https://img-proxy.imgfo.com/?referer=https://manganelo.com&url=https://s3.mkklcdnv6temp.com/mangakakalot/s1/sailor_moon/vol03_chapter_2_endymion_part_2_reincarnation/19.jpg",
    "https://img-proxy.imgfo.com/?referer=https://manganelo.com&url=https://s3.mkklcdnv6temp.com/mangakakalot/s1/sailor_moon/vol03_chapter_2_endymion_part_2_reincarnation/20.jpg",
    "https://img-proxy.imgfo.com/?referer=https://manganelo.com&url=https://s3.mkklcdnv6temp.com/mangakakalot/s1/sailor_moon/vol03_chapter_2_endymion_part_2_reincarnation/21.jpg",
    "https://img-proxy.imgfo.com/?referer=https://manganelo.com&url=https://s3.mkklcdnv6temp.com/mangakakalot/s1/sailor_moon/vol03_chapter_2_endymion_part_2_reincarnation/22.jpg",
    "https://img-proxy.imgfo.com/?referer=https://manganelo.com&url=https://s3.mkklcdnv6temp.com/mangakakalot/s1/sailor_moon/vol03_chapter_2_endymion_part_2_reincarnation/23.jpg",
    "https://img-proxy.imgfo.com/?referer=https://manganelo.com&url=https://s3.mkklcdnv6temp.com/mangakakalot/s1/sailor_moon/vol03_chapter_2_endymion_part_2_reincarnation/24.jpg",
    "https://img-proxy.imgfo.com/?referer=https://manganelo.com&url=https://s3.mkklcdnv6temp.com/mangakakalot/s1/sailor_moon/vol03_chapter_2_endymion_part_2_reincarnation/25.jpg",
    "https://img-proxy.imgfo.com/?referer=https://manganelo.com&url=https://s3.mkklcdnv6temp.com/mangakakalot/s1/sailor_moon/vol03_chapter_2_endymion_part_2_reincarnation/26.jpg",
    "https://img-proxy.imgfo.com/?referer=https://manganelo.com&url=https://s3.mkklcdnv6temp.com/mangakakalot/s1/sailor_moon/vol03_chapter_2_endymion_part_2_reincarnation/27.jpg",
    "https://img-proxy.imgfo.com/?referer=https://manganelo.com&url=https://s3.mkklcdnv6temp.com/mangakakalot/s1/sailor_moon/vol03_chapter_2_endymion_part_2_reincarnation/28.jpg",
    "https://img-proxy.imgfo.com/?referer=https://manganelo.com&url=https://s3.mkklcdnv6temp.com/mangakakalot/s1/sailor_moon/vol03_chapter_2_endymion_part_2_reincarnation/29.jpg",
    "https://img-proxy.imgfo.com/?referer=https://manganelo.com&url=https://s3.mkklcdnv6temp.com/mangakakalot/s1/sailor_moon/vol03_chapter_2_endymion_part_2_reincarnation/30.jpg",
    "https://img-proxy.imgfo.com/?referer=https://manganelo.com&url=https://s3.mkklcdnv6temp.com/mangakakalot/s1/sailor_moon/vol03_chapter_2_endymion_part_2_reincarnation/31.jpg",
    "https://img-proxy.imgfo.com/?referer=https://manganelo.com&url=https://s3.mkklcdnv6temp.com/mangakakalot/s1/sailor_moon/vol03_chapter_2_endymion_part_2_reincarnation/32.jpg",
    "https://img-proxy.imgfo.com/?referer=https://manganelo.com&url=https://s3.mkklcdnv6temp.com/mangakakalot/s1/sailor_moon/vol03_chapter_2_endymion_part_2_reincarnation/33.jpg",
    "https://img-proxy.imgfo.com/?referer=https://manganelo.com&url=https://s3.mkklcdnv6temp.com/mangakakalot/s1/sailor_moon/vol03_chapter_2_endymion_part_2_reincarnation/34.jpg",
    "https://img-proxy.imgfo.com/?referer=https://manganelo.com&url=https://s3.mkklcdnv6temp.com/mangakakalot/s1/sailor_moon/vol03_chapter_2_endymion_part_2_reincarnation/35.jpg",
    "https://img-proxy.imgfo.com/?referer=https://manganelo.com&url=https://s3.mkklcdnv6temp.com/mangakakalot/s1/sailor_moon/vol03_chapter_2_endymion_part_2_reincarnation/36.jpg",
    "https://img-proxy.imgfo.com/?referer=https://manganelo.com&url=https://s3.mkklcdnv6temp.com/mangakakalot/s1/sailor_moon/vol03_chapter_2_endymion_part_2_reincarnation/37.jpg",
    "https://img-proxy.imgfo.com/?referer=https://manganelo.com&url=https://s3.mkklcdnv6temp.com/mangakakalot/s1/sailor_moon/vol03_chapter_2_endymion_part_2_reincarnation/38.jpg",
    "https://img-proxy.imgfo.com/?referer=https://manganelo.com&url=https://s3.mkklcdnv6temp.com/mangakakalot/s1/sailor_moon/vol03_chapter_2_endymion_part_2_reincarnation/39.jpg",
    "https://img-proxy.imgfo.com/?referer=https://manganelo.com&url=https://s3.mkklcdnv6temp.com/mangakakalot/s1/sailor_moon/vol03_chapter_2_endymion_part_2_reincarnation/40.jpg",
    "https://img-proxy.imgfo.com/?referer=https://manganelo.com&url=https://s3.mkklcdnv6temp.com/mangakakalot/s1/sailor_moon/vol03_chapter_2_endymion_part_2_reincarnation/41.jpg",
    "https://img-proxy.imgfo.com/?referer=https://manganelo.com&url=https://s3.mkklcdnv6temp.com/mangakakalot/s1/sailor_moon/vol03_chapter_2_endymion_part_2_reincarnation/42.jpg",
    "https://img-proxy.imgfo.com/?referer=https://manganelo.com&url=https://s3.mkklcdnv6temp.com/mangakakalot/s1/sailor_moon/vol03_chapter_2_endymion_part_2_reincarnation/43.jpg",
    "https://img-proxy.imgfo.com/?referer=https://manganelo.com&url=https://s3.mkklcdnv6temp.com/mangakakalot/s1/sailor_moon/vol03_chapter_2_endymion_part_2_reincarnation/44.jpg",
    "https://img-proxy.imgfo.com/?referer=https://manganelo.com&url=https://s3.mkklcdnv6temp.com/mangakakalot/s1/sailor_moon/vol03_chapter_2_endymion_part_2_reincarnation/45.jpg",
    "https://img-proxy.imgfo.com/?referer=https://manganelo.com&url=https://s3.mkklcdnv6temp.com/mangakakalot/s1/sailor_moon/vol03_chapter_2_endymion_part_2_reincarnation/46.jpg",
    "https://img-proxy.imgfo.com/?referer=https://manganelo.com&url=https://s3.mkklcdnv6temp.com/mangakakalot/s1/sailor_moon/vol03_chapter_2_endymion_part_2_reincarnation/47.jpg",
    "https://img-proxy.imgfo.com/?referer=https://manganelo.com&url=https://s3.mkklcdnv6temp.com/mangakakalot/s1/sailor_moon/vol03_chapter_2_endymion_part_2_reincarnation/48.jpg",
    "https://img-proxy.imgfo.com/?referer=https://manganelo.com&url=https://s3.mkklcdnv6temp.com/mangakakalot/s1/sailor_moon/vol03_chapter_2_endymion_part_2_reincarnation/49.jpg",
    "https://img-proxy.imgfo.com/?referer=https://manganelo.com&url=https://s3.mkklcdnv6temp.com/mangakakalot/s1/sailor_moon/vol03_chapter_2_endymion_part_2_reincarnation/50.jpg",
    "https://img-proxy.imgfo.com/?referer=https://manganelo.com&url=https://s3.mkklcdnv6temp.com/mangakakalot/s1/sailor_moon/vol03_chapter_2_endymion_part_2_reincarnation/51.jpg",
    "https://img-proxy.imgfo.com/?referer=https://manganelo.com&url=https://s3.mkklcdnv6temp.com/mangakakalot/s1/sailor_moon/vol03_chapter_2_endymion_part_2_reincarnation/52.jpg",
    "https://img-proxy.imgfo.com/?referer=https://manganelo.com&url=https://s3.mkklcdnv6temp.com/mangakakalot/s1/sailor_moon/vol03_chapter_2_endymion_part_2_reincarnation/53.jpg",
    "https://img-proxy.imgfo.com/?referer=https://manganelo.com&url=https://s3.mkklcdnv6temp.com/mangakakalot/s1/sailor_moon/vol03_chapter_2_endymion_part_2_reincarnation/54.jpg",
    "https://img-proxy.imgfo.com/?referer=https://manganelo.com&url=https://s3.mkklcdnv6temp.com/mangakakalot/s1/sailor_moon/vol03_chapter_2_endymion_part_2_reincarnation/55.jpg",
    "https://img-proxy.imgfo.com/?referer=https://manganelo.com&url=https://s3.mkklcdnv6temp.com/mangakakalot/s1/sailor_moon/vol03_chapter_2_endymion_part_2_reincarnation/56.jpg",
    "https://img-proxy.imgfo.com/?referer=https://manganelo.com&url=https://s3.mkklcdnv6temp.com/mangakakalot/s1/sailor_moon/vol03_chapter_2_endymion_part_2_reincarnation/57.jpg",
    "https://img-proxy.imgfo.com/?referer=https://manganelo.com&url=https://s3.mkklcdnv6temp.com/mangakakalot/s1/sailor_moon/vol03_chapter_2_endymion_part_2_reincarnation/58.jpg",
    "https://img-proxy.imgfo.com/?referer=https://manganelo.com&url=https://s3.mkklcdnv6temp.com/mangakakalot/s1/sailor_moon/vol03_chapter_2_endymion_part_2_reincarnation/59.jpg",
    "https://img-proxy.imgfo.com/?referer=https://manganelo.com&url=https://s3.mkklcdnv6temp.com/mangakakalot/s1/sailor_moon/vol03_chapter_2_endymion_part_2_reincarnation/60.jpg",
    "https://img-proxy.imgfo.com/?referer=https://manganelo.com&url=https://s3.mkklcdnv6temp.com/mangakakalot/s1/sailor_moon/vol03_chapter_2_endymion_part_2_reincarnation/61.jpg",
    "https://img-proxy.imgfo.com/?referer=https://manganelo.com&url=https://s3.mkklcdnv6temp.com/mangakakalot/s1/sailor_moon/vol03_chapter_2_endymion_part_2_reincarnation/62.jpg",
    "https://img-proxy.imgfo.com/?referer=https://manganelo.com&url=https://s3.mkklcdnv6temp.com/mangakakalot/s1/sailor_moon/vol03_chapter_2_endymion_part_2_reincarnation/63.jpg",
    "https://img-proxy.imgfo.com/?referer=https://manganelo.com&url=https://s3.mkklcdnv6temp.com/mangakakalot/s1/sailor_moon/vol03_chapter_2_endymion_part_2_reincarnation/64.jpg",
    "https://img-proxy.imgfo.com/?referer=https://manganelo.com&url=https://s3.mkklcdnv6temp.com/mangakakalot/s1/sailor_moon/vol03_chapter_2_endymion_part_2_reincarnation/65.jpg",
    "https://img-proxy.imgfo.com/?referer=https://manganelo.com&url=https://s3.mkklcdnv6temp.com/mangakakalot/s1/sailor_moon/vol03_chapter_2_endymion_part_2_reincarnation/66.jpg",
    "https://img-proxy.imgfo.com/?referer=https://manganelo.com&url=https://s3.mkklcdnv6temp.com/mangakakalot/s1/sailor_moon/vol03_chapter_2_endymion_part_2_reincarnation/67.jpg",
    "https://img-proxy.imgfo.com/?referer=https://manganelo.com&url=https://s3.mkklcdnv6temp.com/mangakakalot/s1/sailor_moon/vol03_chapter_2_endymion_part_2_reincarnation/68.jpg",
    "https://img-proxy.imgfo.com/?referer=https://manganelo.com&url=https://s3.mkklcdnv6temp.com/mangakakalot/s1/sailor_moon/vol03_chapter_2_endymion_part_2_reincarnation/69.jpg",
    "https://img-proxy.imgfo.com/?referer=https://manganelo.com&url=https://s3.mkklcdnv6temp.com/mangakakalot/s1/sailor_moon/vol03_chapter_2_endymion_part_2_reincarnation/70.jpg",
    "https://img-proxy.imgfo.com/?referer=https://manganelo.com&url=https://s3.mkklcdnv6temp.com/mangakakalot/s1/sailor_moon/vol03_chapter_2_endymion_part_2_reincarnation/71.jpg",
    "https://img-proxy.imgfo.com/?referer=https://manganelo.com&url=https://s3.mkklcdnv6temp.com/mangakakalot/s1/sailor_moon/vol03_chapter_2_endymion_part_2_reincarnation/72.jpg",
    "https://img-proxy.imgfo.com/?referer=https://manganelo.com&url=https://s3.mkklcdnv6temp.com/mangakakalot/s1/sailor_moon/vol03_chapter_2_endymion_part_2_reincarnation/73.jpg",
    "https://img-proxy.imgfo.com/?referer=https://manganelo.com&url=https://s3.mkklcdnv6temp.com/mangakakalot/s1/sailor_moon/vol03_chapter_2_endymion_part_2_reincarnation/74.jpg",
    "https://img-proxy.imgfo.com/?referer=https://manganelo.com&url=https://s3.mkklcdnv6temp.com/mangakakalot/s1/sailor_moon/vol03_chapter_2_endymion_part_2_reincarnation/75.jpg",
    "https://img-proxy.imgfo.com/?referer=https://manganelo.com&url=https://s3.mkklcdnv6temp.com/mangakakalot/s1/sailor_moon/vol03_chapter_2_endymion_part_2_reincarnation/76.jpg",
    "https://img-proxy.imgfo.com/?referer=https://manganelo.com&url=https://s3.mkklcdnv6temp.com/mangakakalot/s1/sailor_moon/vol03_chapter_2_endymion_part_2_reincarnation/77.jpg",
    "https://img-proxy.imgfo.com/?referer=https://manganelo.com&url=https://s3.mkklcdnv6temp.com/mangakakalot/s1/sailor_moon/vol03_chapter_2_endymion_part_2_reincarnation/78.jpg",
    "https://img-proxy.imgfo.com/?referer=https://manganelo.com&url=https://s3.mkklcdnv6temp.com/mangakakalot/s1/sailor_moon/vol03_chapter_2_endymion_part_2_reincarnation/79.jpg",
    "https://img-proxy.imgfo.com/?referer=https://manganelo.com&url=https://s3.mkklcdnv6temp.com/mangakakalot/s1/sailor_moon/vol03_chapter_2_endymion_part_2_reincarnation/80.jpg",
    "https://img-proxy.imgfo.com/?referer=https://manganelo.com&url=https://s3.mkklcdnv6temp.com/mangakakalot/s1/sailor_moon/vol03_chapter_2_endymion_part_2_reincarnation/81.jpg",
    "https://img-proxy.imgfo.com/?referer=https://manganelo.com&url=https://s3.mkklcdnv6temp.com/mangakakalot/s1/sailor_moon/vol03_chapter_2_endymion_part_2_reincarnation/82.jpg",
    "https://img-proxy.imgfo.com/?referer=https://manganelo.com&url=https://s3.mkklcdnv6temp.com/mangakakalot/s1/sailor_moon/vol03_chapter_2_endymion_part_2_reincarnation/83.jpg",
    "https://img-proxy.imgfo.com/?referer=https://manganelo.com&url=https://s3.mkklcdnv6temp.com/mangakakalot/s1/sailor_moon/vol03_chapter_2_endymion_part_2_reincarnation/84.jpg",
    "https://img-proxy.imgfo.com/?referer=https://manganelo.com&url=https://s3.mkklcdnv6temp.com/mangakakalot/s1/sailor_moon/vol03_chapter_2_endymion_part_2_reincarnation/85.jpg",
    "https://img-proxy.imgfo.com/?referer=https://manganelo.com&url=https://s3.mkklcdnv6temp.com/mangakakalot/s1/sailor_moon/vol03_chapter_2_endymion_part_2_reincarnation/86.jpg",
    "https://img-proxy.imgfo.com/?referer=https://manganelo.com&url=https://s3.mkklcdnv6temp.com/mangakakalot/s1/sailor_moon/vol03_chapter_2_endymion_part_2_reincarnation/87.jpg",
    "https://img-proxy.imgfo.com/?referer=https://manganelo.com&url=https://s3.mkklcdnv6temp.com/mangakakalot/s1/sailor_moon/vol03_chapter_2_endymion_part_2_reincarnation/88.jpg",
    "https://img-proxy.imgfo.com/?referer=https://manganelo.com&url=https://s3.mkklcdnv6temp.com/mangakakalot/s1/sailor_moon/vol03_chapter_2_endymion_part_2_reincarnation/89.jpg",
    "https://img-proxy.imgfo.com/?referer=https://manganelo.com&url=https://s3.mkklcdnv6temp.com/mangakakalot/s1/sailor_moon/vol03_chapter_2_endymion_part_2_reincarnation/90.jpg",
    "https://img-proxy.imgfo.com/?referer=https://manganelo.com&url=https://s3.mkklcdnv6temp.com/mangakakalot/s1/sailor_moon/vol03_chapter_2_endymion_part_2_reincarnation/91.jpg",
    "https://img-proxy.imgfo.com/?referer=https://manganelo.com&url=https://s3.mkklcdnv6temp.com/mangakakalot/s1/sailor_moon/vol03_chapter_2_endymion_part_2_reincarnation/92.jpg",
    "https://img-proxy.imgfo.com/?referer=https://manganelo.com&url=https://s3.mkklcdnv6temp.com/mangakakalot/s1/sailor_moon/vol03_chapter_2_endymion_part_2_reincarnation/93.jpg",
    "https://img-proxy.imgfo.com/?referer=https://manganelo.com&url=https://s3.mkklcdnv6temp.com/mangakakalot/s1/sailor_moon/vol03_chapter_2_endymion_part_2_reincarnation/94.jpg",
    "https://img-proxy.imgfo.com/?referer=https://manganelo.com&url=https://s3.mkklcdnv6temp.com/mangakakalot/s1/sailor_moon/vol03_chapter_2_endymion_part_2_reincarnation/95.jpg",
    "https://img-proxy.imgfo.com/?referer=https://manganelo.com&url=https://s3.mkklcdnv6temp.com/mangakakalot/s1/sailor_moon/vol03_chapter_2_endymion_part_2_reincarnation/96.jpg",
    "https://img-proxy.imgfo.com/?referer=https://manganelo.com&url=https://s3.mkklcdnv6temp.com/mangakakalot/s1/sailor_moon/vol03_chapter_2_endymion_part_2_reincarnation/97.jpg"
  ]
}