{
  "cover": "https://avt.mkklcdnv6.com/48/o/5-1583473788.jpg",
  "title": "Sailor Moon",
  "original": "美少女戦士セーラームーン 세일러문 ; Bishoujo Senshi Sailormoon ; Pretty Guardian Sailor Moon ; Pretty Soldier Sailor Moon ; Sailor Moon ; Thủy Thủ Mặt Trăng (Vietnam) ; Moon Guardian Sailor Moon ; Navegante da Lua (Portugal) ; Mėnulio Jūreivė (Lithuanian)",
  "genre": "Action, Adventure, Comedy, Drama, Fantasy, Romance, Sci fi, Shoujo, Supernatural, Manga",
  "author": "Takeuchi Naoko",
  "status": "Completed",
  "backlink": "https://manganu.com/collections/takeuchi-naoko/sailor-moon/",
  "description": "Usagi Tsukino is a normal girl until she meets up with Luna, a talking cat, who tells her that she is Sailor Moon. As Sailor Moon, Usagi must fight evils and enforce justice, in the name of the Moon and the mysterious Moon Princess. She meets other girls destined to be Sailor Senshi (Sailor Scouts), and together, they fight the forces of evil!\nNote: The anime is LOOSELY based on the manga, so that might be why the story might seem unrecognizable. Also, Naoko Takeuchi released a re-illustrated version of Sailor Moon a few years after the series had been finished after she had dropped Love Witch.\nThis manga won the Kodansha Manga Award in 1993 for shōjo.",
  "language": "English",
  "images": [
    "https://img-proxy.imgfo.com/?referer=https://manganelo.com&url=https://s3.mkklcdnv6temp.com/mangakakalot/s1/sailor_moon/vol19_chapter_5_the_exam_battle_chapter_makotos_melancholy/1.jpg",
    "https://img-proxy.imgfo.com/?referer=https://manganelo.com&url=https://s3.mkklcdnv6temp.com/mangakakalot/s1/sailor_moon/vol19_chapter_5_the_exam_battle_chapter_makotos_melancholy/2.jpg",
    "https://img-proxy.imgfo.com/?referer=https://manganelo.com&url=https://s3.mkklcdnv6temp.com/mangakakalot/s1/sailor_moon/vol19_chapter_5_the_exam_battle_chapter_makotos_melancholy/3.jpg",
    "https://img-proxy.imgfo.com/?referer=https://manganelo.com&url=https://s3.mkklcdnv6temp.com/mangakakalot/s1/sailor_moon/vol19_chapter_5_the_exam_battle_chapter_makotos_melancholy/4.jpg",
    "https://img-proxy.imgfo.com/?referer=https://manganelo.com&url=https://s3.mkklcdnv6temp.com/mangakakalot/s1/sailor_moon/vol19_chapter_5_the_exam_battle_chapter_makotos_melancholy/5.jpg",
    "https://img-proxy.imgfo.com/?referer=https://manganelo.com&url=https://s3.mkklcdnv6temp.com/mangakakalot/s1/sailor_moon/vol19_chapter_5_the_exam_battle_chapter_makotos_melancholy/6.jpg",
    "https://img-proxy.imgfo.com/?referer=https://manganelo.com&url=https://s3.mkklcdnv6temp.com/mangakakalot/s1/sailor_moon/vol19_chapter_5_the_exam_battle_chapter_makotos_melancholy/7.jpg",
    "https://img-proxy.imgfo.com/?referer=https://manganelo.com&url=https://s3.mkklcdnv6temp.com/mangakakalot/s1/sailor_moon/vol19_chapter_5_the_exam_battle_chapter_makotos_melancholy/8.jpg",
    "https://img-proxy.imgfo.com/?referer=https://manganelo.com&url=https://s3.mkklcdnv6temp.com/mangakakalot/s1/sailor_moon/vol19_chapter_5_the_exam_battle_chapter_makotos_melancholy/9.jpg",
    "https://img-proxy.imgfo.com/?referer=https://manganelo.com&url=https://s3.mkklcdnv6temp.com/mangakakalot/s1/sailor_moon/vol19_chapter_5_the_exam_battle_chapter_makotos_melancholy/10.jpg",
    "https://img-proxy.imgfo.com/?referer=https://manganelo.com&url=https://s3.mkklcdnv6temp.com/mangakakalot/s1/sailor_moon/vol19_chapter_5_the_exam_battle_chapter_makotos_melancholy/11.jpg",
    "https://img-proxy.imgfo.com/?referer=https://manganelo.com&url=https://s3.mkklcdnv6temp.com/mangakakalot/s1/sailor_moon/vol19_chapter_5_the_exam_battle_chapter_makotos_melancholy/12.jpg",
    "https://img-proxy.imgfo.com/?referer=https://manganelo.com&url=https://s3.mkklcdnv6temp.com/mangakakalot/s1/sailor_moon/vol19_chapter_5_the_exam_battle_chapter_makotos_melancholy/13.jpg",
    "https://img-proxy.imgfo.com/?referer=https://manganelo.com&url=https://s3.mkklcdnv6temp.com/mangakakalot/s1/sailor_moon/vol19_chapter_5_the_exam_battle_chapter_makotos_melancholy/14.jpg",
    "https://img-proxy.imgfo.com/?referer=https://manganelo.com&url=https://s3.mkklcdnv6temp.com/mangakakalot/s1/sailor_moon/vol19_chapter_5_the_exam_battle_chapter_makotos_melancholy/15.jpg",
    "https://img-proxy.imgfo.com/?referer=https://manganelo.com&url=https://s3.mkklcdnv6temp.com/mangakakalot/s1/sailor_moon/vol19_chapter_5_the_exam_battle_chapter_makotos_melancholy/16.jpg",
    "https://img-proxy.imgfo.com/?referer=https://manganelo.com&url=https://s3.mkklcdnv6temp.com/mangakakalot/s1/sailor_moon/vol19_chapter_5_the_exam_battle_chapter_makotos_melancholy/17.jpg",
    "https://img-proxy.imgfo.com/?referer=https://manganelo.com&url=https://s3.mkklcdnv6temp.com/mangakakalot/s1/sailor_moon/vol19_chapter_5_the_exam_battle_chapter_makotos_melancholy/18.jpg",
    "https://img-proxy.imgfo.com/?referer=https://manganelo.com&url=https://s3.mkklcdnv6temp.com/mangakakalot/s1/sailor_moon/vol19_chapter_5_the_exam_battle_chapter_makotos_melancholy/19.jpg",
    "https://img-proxy.imgfo.com/?referer=https://manganelo.com&url=https://s3.mkklcdnv6temp.com/mangakakalot/s1/sailor_moon/vol19_chapter_5_the_exam_battle_chapter_makotos_melancholy/20.jpg",
    "https://img-proxy.imgfo.com/?referer=https://manganelo.com&url=https://s3.mkklcdnv6temp.com/mangakakalot/s1/sailor_moon/vol19_chapter_5_the_exam_battle_chapter_makotos_melancholy/21.jpg",
    "https://img-proxy.imgfo.com/?referer=https://manganelo.com&url=https://s3.mkklcdnv6temp.com/mangakakalot/s1/sailor_moon/vol19_chapter_5_the_exam_battle_chapter_makotos_melancholy/22.jpg",
    "https://img-proxy.imgfo.com/?referer=https://manganelo.com&url=https://s3.mkklcdnv6temp.com/mangakakalot/s1/sailor_moon/vol19_chapter_5_the_exam_battle_chapter_makotos_melancholy/23.jpg",
    "https://img-proxy.imgfo.com/?referer=https://manganelo.com&url=https://s3.mkklcdnv6temp.com/mangakakalot/s1/sailor_moon/vol19_chapter_5_the_exam_battle_chapter_makotos_melancholy/24.jpg",
    "https://img-proxy.imgfo.com/?referer=https://manganelo.com&url=https://s3.mkklcdnv6temp.com/mangakakalot/s1/sailor_moon/vol19_chapter_5_the_exam_battle_chapter_makotos_melancholy/25.jpg"
  ]
}