{
  "cover": "https://avt.mkklcdnv6.com/45/a/4-1583471585.jpg",
  "title": "Swot",
  "original": "スウォット ; Ботаник(Russia) ; Зубър (Bulgarian) ; الكادح (Arabic) ; İnek (Turkish)",
  "genre": "Action, Comedy, Fantasy, Romance, School life, Shounen, Manga",
  "author": "Sugita Naoya",
  "status": "Completed",
  "backlink": "https://manganu.com/collections/sugita-naoya/swot/",
  "description": "Transfer student Manabizaki Kyou is a swot, a person who spends too much time studying. His dream is to attend Tokyo University and then work for NASA! He will soon discover, however, that the high school he's transferred into, which was once very prestigious, has taken in delinquents from the surrounding schools. Now it is full of violence and gang fights.\nLuckily, Manabizaki has a surprising skill at fighting, particularly when he's defending the peace of his study area. Through this strength he'll find his new friends, a weak boy called Iwashida and a legendary delinquent girl, Hasuno Nene, who makes him feel things that, for the first time in his life, he can't explain...\n(taken from Mangaupdates.com \"http://www.mangaupdates.com/series.html?id=52550\")",
  "language": "English",
  "images": [
    "https://img-proxy.imgfo.com/?referer=https://manganelo.com&url=https://s5.mkklcdnv6temp.com/mangakakalot/s2/swot/vol1_chapter_12_sophomore_year_is_full_of_dangerous_guys/1.jpg",
    "https://img-proxy.imgfo.com/?referer=https://manganelo.com&url=https://s5.mkklcdnv6temp.com/mangakakalot/s2/swot/vol1_chapter_12_sophomore_year_is_full_of_dangerous_guys/2.jpg",
    "https://img-proxy.imgfo.com/?referer=https://manganelo.com&url=https://s5.mkklcdnv6temp.com/mangakakalot/s2/swot/vol1_chapter_12_sophomore_year_is_full_of_dangerous_guys/3.jpg",
    "https://img-proxy.imgfo.com/?referer=https://manganelo.com&url=https://s5.mkklcdnv6temp.com/mangakakalot/s2/swot/vol1_chapter_12_sophomore_year_is_full_of_dangerous_guys/4.jpg",
    "https://img-proxy.imgfo.com/?referer=https://manganelo.com&url=https://s5.mkklcdnv6temp.com/mangakakalot/s2/swot/vol1_chapter_12_sophomore_year_is_full_of_dangerous_guys/5.jpg",
    "https://img-proxy.imgfo.com/?referer=https://manganelo.com&url=https://s5.mkklcdnv6temp.com/mangakakalot/s2/swot/vol1_chapter_12_sophomore_year_is_full_of_dangerous_guys/6.jpg",
    "https://img-proxy.imgfo.com/?referer=https://manganelo.com&url=https://s5.mkklcdnv6temp.com/mangakakalot/s2/swot/vol1_chapter_12_sophomore_year_is_full_of_dangerous_guys/7.jpg",
    "https://img-proxy.imgfo.com/?referer=https://manganelo.com&url=https://s5.mkklcdnv6temp.com/mangakakalot/s2/swot/vol1_chapter_12_sophomore_year_is_full_of_dangerous_guys/8.jpg",
    "https://img-proxy.imgfo.com/?referer=https://manganelo.com&url=https://s5.mkklcdnv6temp.com/mangakakalot/s2/swot/vol1_chapter_12_sophomore_year_is_full_of_dangerous_guys/9.jpg",
    "https://img-proxy.imgfo.com/?referer=https://manganelo.com&url=https://s5.mkklcdnv6temp.com/mangakakalot/s2/swot/vol1_chapter_12_sophomore_year_is_full_of_dangerous_guys/10.jpg",
    "https://img-proxy.imgfo.com/?referer=https://manganelo.com&url=https://s5.mkklcdnv6temp.com/mangakakalot/s2/swot/vol1_chapter_12_sophomore_year_is_full_of_dangerous_guys/11.jpg",
    "https://img-proxy.imgfo.com/?referer=https://manganelo.com&url=https://s5.mkklcdnv6temp.com/mangakakalot/s2/swot/vol1_chapter_12_sophomore_year_is_full_of_dangerous_guys/12.jpg",
    "https://img-proxy.imgfo.com/?referer=https://manganelo.com&url=https://s5.mkklcdnv6temp.com/mangakakalot/s2/swot/vol1_chapter_12_sophomore_year_is_full_of_dangerous_guys/13.jpg",
    "https://img-proxy.imgfo.com/?referer=https://manganelo.com&url=https://s5.mkklcdnv6temp.com/mangakakalot/s2/swot/vol1_chapter_12_sophomore_year_is_full_of_dangerous_guys/14.jpg",
    "https://img-proxy.imgfo.com/?referer=https://manganelo.com&url=https://s5.mkklcdnv6temp.com/mangakakalot/s2/swot/vol1_chapter_12_sophomore_year_is_full_of_dangerous_guys/15.jpg",
    "https://img-proxy.imgfo.com/?referer=https://manganelo.com&url=https://s5.mkklcdnv6temp.com/mangakakalot/s2/swot/vol1_chapter_12_sophomore_year_is_full_of_dangerous_guys/16.jpg",
    "https://img-proxy.imgfo.com/?referer=https://manganelo.com&url=https://s5.mkklcdnv6temp.com/mangakakalot/s2/swot/vol1_chapter_12_sophomore_year_is_full_of_dangerous_guys/17.jpg",
    "https://img-proxy.imgfo.com/?referer=https://manganelo.com&url=https://s5.mkklcdnv6temp.com/mangakakalot/s2/swot/vol1_chapter_12_sophomore_year_is_full_of_dangerous_guys/18.jpg",
    "https://img-proxy.imgfo.com/?referer=https://manganelo.com&url=https://s5.mkklcdnv6temp.com/mangakakalot/s2/swot/vol1_chapter_12_sophomore_year_is_full_of_dangerous_guys/19.jpg",
    "https://img-proxy.imgfo.com/?referer=https://manganelo.com&url=https://s5.mkklcdnv6temp.com/mangakakalot/s2/swot/vol1_chapter_12_sophomore_year_is_full_of_dangerous_guys/20.jpg"
  ]
}