{
  "cover": "https://avt.mkklcdnv6.com/14/g/4-1583470253.jpg",
  "title": "Ageha 100%",
  "original": "アゲハ100％ ; 彩蝶百分百 ; Butterfly 100% ; Ageha100% ; Cánh bướm ngũ sắc (Vietnamese)",
  "genre": "Comedy, Gender bender, Romance, School life, Shoujo, Manga",
  "author": "Takeuchi Kozue",
  "status": "Completed",
  "backlink": "https://manganu.com/collections/takeuchi-kozue/ageha-100percent/",
  "description": "From Wikipedia:\nHanabuki High School prohibits its pupils from wearing makeup. Among the school girls there is a rumour going around about a legendary make-up artist, Ageha, who secretly gives makeovers to girls after school. Any girl wanting Ageha to give them a makeover needs only to write their name and class on Ageha's card (showing Ageha's trademark, a swallowtail butterfly—agehach? in Japanese) and put it up on the school's notice board, and Ageha will later show up in their classroom. However, no one knows that Ageha's true identity is the quiet, bespectacled girl, Rin Fujiwara, except for the play boy, Riku Kisaragi. Amused by the idea, Kisaragi cross-dresses as Ageha's assistant to tag along with her as she works. A running gag in the story is that Ageha's clients think that Kisaragi is Ageha upon first meeting.",
  "language": "English",
  "images": [
    "https://img-proxy.imgfo.com/?referer=https://manganelo.com&url=https://s7.mkklcdnv6temp.com/mangakakalot/a1/ageha_100/vol1_chapter_35_extra/1.jpg",
    "https://img-proxy.imgfo.com/?referer=https://manganelo.com&url=https://s7.mkklcdnv6temp.com/mangakakalot/a1/ageha_100/vol1_chapter_35_extra/2.jpg",
    "https://img-proxy.imgfo.com/?referer=https://manganelo.com&url=https://s7.mkklcdnv6temp.com/mangakakalot/a1/ageha_100/vol1_chapter_35_extra/3.jpg",
    "https://img-proxy.imgfo.com/?referer=https://manganelo.com&url=https://s7.mkklcdnv6temp.com/mangakakalot/a1/ageha_100/vol1_chapter_35_extra/4.jpg",
    "https://img-proxy.imgfo.com/?referer=https://manganelo.com&url=https://s7.mkklcdnv6temp.com/mangakakalot/a1/ageha_100/vol1_chapter_35_extra/5.jpg",
    "https://img-proxy.imgfo.com/?referer=https://manganelo.com&url=https://s7.mkklcdnv6temp.com/mangakakalot/a1/ageha_100/vol1_chapter_35_extra/6.jpg",
    "https://img-proxy.imgfo.com/?referer=https://manganelo.com&url=https://s7.mkklcdnv6temp.com/mangakakalot/a1/ageha_100/vol1_chapter_35_extra/7.jpg",
    "https://img-proxy.imgfo.com/?referer=https://manganelo.com&url=https://s7.mkklcdnv6temp.com/mangakakalot/a1/ageha_100/vol1_chapter_35_extra/8.jpg",
    "https://img-proxy.imgfo.com/?referer=https://manganelo.com&url=https://s7.mkklcdnv6temp.com/mangakakalot/a1/ageha_100/vol1_chapter_35_extra/9.jpg",
    "https://img-proxy.imgfo.com/?referer=https://manganelo.com&url=https://s7.mkklcdnv6temp.com/mangakakalot/a1/ageha_100/vol1_chapter_35_extra/10.jpg",
    "https://img-proxy.imgfo.com/?referer=https://manganelo.com&url=https://s7.mkklcdnv6temp.com/mangakakalot/a1/ageha_100/vol1_chapter_35_extra/11.jpg",
    "https://img-proxy.imgfo.com/?referer=https://manganelo.com&url=https://s7.mkklcdnv6temp.com/mangakakalot/a1/ageha_100/vol1_chapter_35_extra/12.jpg",
    "https://img-proxy.imgfo.com/?referer=https://manganelo.com&url=https://s7.mkklcdnv6temp.com/mangakakalot/a1/ageha_100/vol1_chapter_35_extra/13.jpg",
    "https://img-proxy.imgfo.com/?referer=https://manganelo.com&url=https://s7.mkklcdnv6temp.com/mangakakalot/a1/ageha_100/vol1_chapter_35_extra/14.jpg",
    "https://img-proxy.imgfo.com/?referer=https://manganelo.com&url=https://s7.mkklcdnv6temp.com/mangakakalot/a1/ageha_100/vol1_chapter_35_extra/15.jpg",
    "https://img-proxy.imgfo.com/?referer=https://manganelo.com&url=https://s7.mkklcdnv6temp.com/mangakakalot/a1/ageha_100/vol1_chapter_35_extra/16.jpg",
    "https://img-proxy.imgfo.com/?referer=https://manganelo.com&url=https://s7.mkklcdnv6temp.com/mangakakalot/a1/ageha_100/vol1_chapter_35_extra/17.jpg",
    "https://img-proxy.imgfo.com/?referer=https://manganelo.com&url=https://s7.mkklcdnv6temp.com/mangakakalot/a1/ageha_100/vol1_chapter_35_extra/18.jpg",
    "https://img-proxy.imgfo.com/?referer=https://manganelo.com&url=https://s7.mkklcdnv6temp.com/mangakakalot/a1/ageha_100/vol1_chapter_35_extra/19.jpg",
    "https://img-proxy.imgfo.com/?referer=https://manganelo.com&url=https://s7.mkklcdnv6temp.com/mangakakalot/a1/ageha_100/vol1_chapter_35_extra/20.jpg",
    "https://img-proxy.imgfo.com/?referer=https://manganelo.com&url=https://s7.mkklcdnv6temp.com/mangakakalot/a1/ageha_100/vol1_chapter_35_extra/21.jpg",
    "https://img-proxy.imgfo.com/?referer=https://manganelo.com&url=https://s7.mkklcdnv6temp.com/mangakakalot/a1/ageha_100/vol1_chapter_35_extra/22.jpg",
    "https://img-proxy.imgfo.com/?referer=https://manganelo.com&url=https://s7.mkklcdnv6temp.com/mangakakalot/a1/ageha_100/vol1_chapter_35_extra/23.jpg"
  ]
}