{
  "cover": "https://avt.mkklcdnv6.com/3/r/11-1583484125.jpg",
  "title": "Hoshikawa Ginza Yonchoume",
  "original": "星川銀座四丁目 ; Ginza 4-chome Hoshikawa ; Hoshikawa Ginza District 4 ; Hotokawa Ginza Yonchoume ; Seisen Ginza Yonchoume",
  "genre": "Drama, Romance, School life, Slice of life, Yuri, Manga",
  "author": "Kurogane Ken",
  "status": "Completed",
  "backlink": "https://manganu.com/collections/kurogane-ken/hoshikawa-ginza-yonchoume/",
  "description": "This story lets us look into the relationship of Matsuda Otome (a home schooled girl) and Nakagawa Minato (a high school teacher). Otome has went through a difficult past and is now under the care of Minato sensei. Otome becomes suspicious of Minato's day-to-day routines and investigates. What will Minato tell Otome when she confronts her?",
  "language": "English",
  "images": [
    "https://img-proxy.imgfo.com/?referer=https://manganelo.com&url=https://s7.mkklcdnv6temp.com/mangakakalot/h2/hoshikawa_ginza_yonchoume/vol1_chapter_55/1.jpg",
    "https://img-proxy.imgfo.com/?referer=https://manganelo.com&url=https://s7.mkklcdnv6temp.com/mangakakalot/h2/hoshikawa_ginza_yonchoume/vol1_chapter_55/2.jpg",
    "https://img-proxy.imgfo.com/?referer=https://manganelo.com&url=https://s7.mkklcdnv6temp.com/mangakakalot/h2/hoshikawa_ginza_yonchoume/vol1_chapter_55/3.jpg",
    "https://img-proxy.imgfo.com/?referer=https://manganelo.com&url=https://s7.mkklcdnv6temp.com/mangakakalot/h2/hoshikawa_ginza_yonchoume/vol1_chapter_55/4.jpg",
    "https://img-proxy.imgfo.com/?referer=https://manganelo.com&url=https://s7.mkklcdnv6temp.com/mangakakalot/h2/hoshikawa_ginza_yonchoume/vol1_chapter_55/5.jpg",
    "https://img-proxy.imgfo.com/?referer=https://manganelo.com&url=https://s7.mkklcdnv6temp.com/mangakakalot/h2/hoshikawa_ginza_yonchoume/vol1_chapter_55/6.jpg",
    "https://img-proxy.imgfo.com/?referer=https://manganelo.com&url=https://s7.mkklcdnv6temp.com/mangakakalot/h2/hoshikawa_ginza_yonchoume/vol1_chapter_55/7.jpg",
    "https://img-proxy.imgfo.com/?referer=https://manganelo.com&url=https://s7.mkklcdnv6temp.com/mangakakalot/h2/hoshikawa_ginza_yonchoume/vol1_chapter_55/8.jpg",
    "https://img-proxy.imgfo.com/?referer=https://manganelo.com&url=https://s7.mkklcdnv6temp.com/mangakakalot/h2/hoshikawa_ginza_yonchoume/vol1_chapter_55/9.jpg",
    "https://img-proxy.imgfo.com/?referer=https://manganelo.com&url=https://s7.mkklcdnv6temp.com/mangakakalot/h2/hoshikawa_ginza_yonchoume/vol1_chapter_55/10.jpg",
    "https://img-proxy.imgfo.com/?referer=https://manganelo.com&url=https://s7.mkklcdnv6temp.com/mangakakalot/h2/hoshikawa_ginza_yonchoume/vol1_chapter_55/11.jpg",
    "https://img-proxy.imgfo.com/?referer=https://manganelo.com&url=https://s7.mkklcdnv6temp.com/mangakakalot/h2/hoshikawa_ginza_yonchoume/vol1_chapter_55/12.jpg",
    "https://img-proxy.imgfo.com/?referer=https://manganelo.com&url=https://s7.mkklcdnv6temp.com/mangakakalot/h2/hoshikawa_ginza_yonchoume/vol1_chapter_55/13.jpg",
    "https://img-proxy.imgfo.com/?referer=https://manganelo.com&url=https://s7.mkklcdnv6temp.com/mangakakalot/h2/hoshikawa_ginza_yonchoume/vol1_chapter_55/14.jpg",
    "https://img-proxy.imgfo.com/?referer=https://manganelo.com&url=https://s7.mkklcdnv6temp.com/mangakakalot/h2/hoshikawa_ginza_yonchoume/vol1_chapter_55/15.jpg",
    "https://img-proxy.imgfo.com/?referer=https://manganelo.com&url=https://s7.mkklcdnv6temp.com/mangakakalot/h2/hoshikawa_ginza_yonchoume/vol1_chapter_55/16.jpg",
    "https://img-proxy.imgfo.com/?referer=https://manganelo.com&url=https://s7.mkklcdnv6temp.com/mangakakalot/h2/hoshikawa_ginza_yonchoume/vol1_chapter_55/17.jpg",
    "https://img-proxy.imgfo.com/?referer=https://manganelo.com&url=https://s7.mkklcdnv6temp.com/mangakakalot/h2/hoshikawa_ginza_yonchoume/vol1_chapter_55/18.jpg"
  ]
}