{
  "cover": "https://avt.mkklcdnv6.com/43/u/4-1583471511.jpg",
  "title": "Zombie-Loan",
  "original": "Зомби на доверии ; Кредит Зомби ; ゾンビローン ; 僵尸借贷 ; Z-Loan ; Zombie Loan",
  "genre": "Action, Comedy, Drama, Fantasy, Horror, Mystery, Psychological, Romance, School life, Shounen, Supernatural, Tragedy, Manga",
  "author": "Peach-Pit",
  "status": "Completed",
  "backlink": "https://manganu.com/collections/peach-pit/zombie-loan/",
  "description": "From Yen Press:\nMichiru Kita’s a weak-spirited girl who has a hard time saying what’s on her mind. One day, she notices mysterious, ring-like markings around the necks of two of her classmates, Chika Akatsuki and Shito Tachibana — two boys who miraculously survived a horrible accident six months before. Michiru, possessing the rare ability to see these rings, knows that they warn of impending death. Thinking that, perhaps, she can do something to save her classmates’ lives, she approaches them…but it seems the boys have already made a different kind of deal and garnered themselves a heavy debt.",
  "language": "English",
  "images": [
    "https://img-proxy.imgfo.com/?referer=https://manganelo.com&url=https://s5.mkklcdnv6temp.com/mangakakalot/z2/zombieloan/vol7_chapter_37/1.jpg",
    "https://img-proxy.imgfo.com/?referer=https://manganelo.com&url=https://s5.mkklcdnv6temp.com/mangakakalot/z2/zombieloan/vol7_chapter_37/2.jpg",
    "https://img-proxy.imgfo.com/?referer=https://manganelo.com&url=https://s5.mkklcdnv6temp.com/mangakakalot/z2/zombieloan/vol7_chapter_37/3.jpg",
    "https://img-proxy.imgfo.com/?referer=https://manganelo.com&url=https://s5.mkklcdnv6temp.com/mangakakalot/z2/zombieloan/vol7_chapter_37/4.jpg",
    "https://img-proxy.imgfo.com/?referer=https://manganelo.com&url=https://s5.mkklcdnv6temp.com/mangakakalot/z2/zombieloan/vol7_chapter_37/5.jpg",
    "https://img-proxy.imgfo.com/?referer=https://manganelo.com&url=https://s5.mkklcdnv6temp.com/mangakakalot/z2/zombieloan/vol7_chapter_37/6.jpg",
    "https://img-proxy.imgfo.com/?referer=https://manganelo.com&url=https://s5.mkklcdnv6temp.com/mangakakalot/z2/zombieloan/vol7_chapter_37/7.jpg",
    "https://img-proxy.imgfo.com/?referer=https://manganelo.com&url=https://s5.mkklcdnv6temp.com/mangakakalot/z2/zombieloan/vol7_chapter_37/8.jpg",
    "https://img-proxy.imgfo.com/?referer=https://manganelo.com&url=https://s5.mkklcdnv6temp.com/mangakakalot/z2/zombieloan/vol7_chapter_37/9.jpg",
    "https://img-proxy.imgfo.com/?referer=https://manganelo.com&url=https://s5.mkklcdnv6temp.com/mangakakalot/z2/zombieloan/vol7_chapter_37/10.jpg",
    "https://img-proxy.imgfo.com/?referer=https://manganelo.com&url=https://s5.mkklcdnv6temp.com/mangakakalot/z2/zombieloan/vol7_chapter_37/11.jpg",
    "https://img-proxy.imgfo.com/?referer=https://manganelo.com&url=https://s5.mkklcdnv6temp.com/mangakakalot/z2/zombieloan/vol7_chapter_37/12.jpg",
    "https://img-proxy.imgfo.com/?referer=https://manganelo.com&url=https://s5.mkklcdnv6temp.com/mangakakalot/z2/zombieloan/vol7_chapter_37/13.jpg",
    "https://img-proxy.imgfo.com/?referer=https://manganelo.com&url=https://s5.mkklcdnv6temp.com/mangakakalot/z2/zombieloan/vol7_chapter_37/14.jpg",
    "https://img-proxy.imgfo.com/?referer=https://manganelo.com&url=https://s5.mkklcdnv6temp.com/mangakakalot/z2/zombieloan/vol7_chapter_37/15.jpg",
    "https://img-proxy.imgfo.com/?referer=https://manganelo.com&url=https://s5.mkklcdnv6temp.com/mangakakalot/z2/zombieloan/vol7_chapter_37/16.jpg",
    "https://img-proxy.imgfo.com/?referer=https://manganelo.com&url=https://s5.mkklcdnv6temp.com/mangakakalot/z2/zombieloan/vol7_chapter_37/17.jpg",
    "https://img-proxy.imgfo.com/?referer=https://manganelo.com&url=https://s5.mkklcdnv6temp.com/mangakakalot/z2/zombieloan/vol7_chapter_37/18.jpg",
    "https://img-proxy.imgfo.com/?referer=https://manganelo.com&url=https://s5.mkklcdnv6temp.com/mangakakalot/z2/zombieloan/vol7_chapter_37/19.jpg",
    "https://img-proxy.imgfo.com/?referer=https://manganelo.com&url=https://s5.mkklcdnv6temp.com/mangakakalot/z2/zombieloan/vol7_chapter_37/20.jpg",
    "https://img-proxy.imgfo.com/?referer=https://manganelo.com&url=https://s5.mkklcdnv6temp.com/mangakakalot/z2/zombieloan/vol7_chapter_37/21.jpg",
    "https://img-proxy.imgfo.com/?referer=https://manganelo.com&url=https://s5.mkklcdnv6temp.com/mangakakalot/z2/zombieloan/vol7_chapter_37/22.jpg",
    "https://img-proxy.imgfo.com/?referer=https://manganelo.com&url=https://s5.mkklcdnv6temp.com/mangakakalot/z2/zombieloan/vol7_chapter_37/23.jpg",
    "https://img-proxy.imgfo.com/?referer=https://manganelo.com&url=https://s5.mkklcdnv6temp.com/mangakakalot/z2/zombieloan/vol7_chapter_37/24.jpg",
    "https://img-proxy.imgfo.com/?referer=https://manganelo.com&url=https://s5.mkklcdnv6temp.com/mangakakalot/z2/zombieloan/vol7_chapter_37/25.jpg",
    "https://img-proxy.imgfo.com/?referer=https://manganelo.com&url=https://s5.mkklcdnv6temp.com/mangakakalot/z2/zombieloan/vol7_chapter_37/26.jpg",
    "https://img-proxy.imgfo.com/?referer=https://manganelo.com&url=https://s5.mkklcdnv6temp.com/mangakakalot/z2/zombieloan/vol7_chapter_37/27.jpg",
    "https://img-proxy.imgfo.com/?referer=https://manganelo.com&url=https://s5.mkklcdnv6temp.com/mangakakalot/z2/zombieloan/vol7_chapter_37/28.jpg"
  ]
}