{
  "cover": "http://ww1.heaventoon.com/content/upload/images/Black-Bird.jpg",
  "title": "Black Bird",
  "genre": "Action, Comedy, Drama, Fantasy, Harem, Manga, Mystery, Romance, Shoujo, Smut, Supernatural",
  "author": "SAKURAKOJI Kanoko",
  "status": "Completed",
  "backlink": "https://manganu.com/collections/sakurakoji-kanoko/black-bird/",
  "description": "There is a world of myth and magic that intersects ours, and only a special few can see it. Misao Harada is one such person, and she wants nothing to do with magical realms. She just wants to have a normal high school life and maybe get a boyfriend. But she is the bride of demon prophecy, and her blood grants incredible powers, her flesh immortality. Now the demon realm is fighting over the right to her hand...or her life!",
  "language": "English",
  "images": [
    "http://2.bp.blogspot.com/-UMNK5YxcB10/Vjs_J8r1rmI/AAAAAAADizU/aXDmXVyJvMg/s16000/0021.5-001.jpg",
    "http://2.bp.blogspot.com/-lLiwFfWEsII/VjtAWBP9wSI/AAAAAAADjLU/9LKHJ2eNLbU/s16000/0021.5-002.jpg",
    "http://2.bp.blogspot.com/-biEm3a1WQQs/Vjs5q42my9I/AAAAAAADg_I/RC7Utkmu3Xs/s16000/0021.5-003.jpg",
    "http://2.bp.blogspot.com/-0ugl7_IBJew/Vjs8gnrA3eI/AAAAAAADh9I/-m7oFGsnJ8Y/s16000/0021.5-004.jpg",
    "http://2.bp.blogspot.com/-Xg-qD_eSYnI/VjtAlATAKGI/AAAAAAADjQc/fL-6CXqG4tw/s16000/0021.5-005.jpg",
    "http://2.bp.blogspot.com/-F352IrOjvMI/Vjs8ocEGxWI/AAAAAAADh_s/GftExU7lDfs/s16000/0021.5-006.jpg",
    "http://2.bp.blogspot.com/-1am59XSNNmc/Vjs-nQnSXHI/AAAAAAADink/dmLsRPHPajU/s16000/0021.5-007.jpg",
    "http://2.bp.blogspot.com/-Ug_g4BunEkU/Vjs5TsYt4AI/AAAAAAADg3U/PlH8LjRnH28/s16000/0021.5-008.jpg"
  ]
}