{
  "cover": "http://ww1.heaventoon.com/content/upload/images/Black-Bird.jpg",
  "title": "Black Bird",
  "genre": "Action, Comedy, Drama, Fantasy, Harem, Manga, Mystery, Romance, Shoujo, Smut, Supernatural",
  "author": "SAKURAKOJI Kanoko",
  "status": "Completed",
  "backlink": "https://manganu.com/collections/sakurakoji-kanoko/black-bird/",
  "description": "There is a world of myth and magic that intersects ours, and only a special few can see it. Misao Harada is one such person, and she wants nothing to do with magical realms. She just wants to have a normal high school life and maybe get a boyfriend. But she is the bride of demon prophecy, and her blood grants incredible powers, her flesh immortality. Now the demon realm is fighting over the right to her hand...or her life!",
  "language": "English",
  "images": [
    "http://2.bp.blogspot.com/-_mbojFZXTmE/Vjs5HvErUQI/AAAAAAADgzM/-gOMSsvWYn8/s16000/0020-001.jpg",
    "http://2.bp.blogspot.com/-4esFGqFTJJw/Vjs6Z-DADAI/AAAAAAADhOs/N_s01IzI0gY/s16000/0020-002.jpg",
    "http://2.bp.blogspot.com/-L2F5jXDxYQo/Vjs8dnQVxrI/AAAAAAADh78/39SSBCrTqBc/s16000/0020-003.jpg",
    "http://2.bp.blogspot.com/-z_19nozi6eE/Vjs8g_EotzI/AAAAAAADh9U/34Zp0uvgUE4/s16000/0020-004.jpg",
    "http://2.bp.blogspot.com/-skIE_SvFC3M/Vjs_y_dSDsI/AAAAAAADjCI/CHaqeyGq-bo/s16000/0020-005.jpg",
    "http://2.bp.blogspot.com/-PvK3ItkpNmE/Vjs4l2QxC1I/AAAAAAADgn0/KN1aIGTQEPA/s16000/0020-006.jpg",
    "http://2.bp.blogspot.com/-CErsvwVo5i0/VjtBcXE92hI/AAAAAAADjis/HJJuKtGSNi4/s16000/0020-007.jpg",
    "http://2.bp.blogspot.com/-juRd6Wnbmpc/Vjs9EHouYRI/AAAAAAADiIc/uLWdUJxjoVk/s16000/0020-008.jpg",
    "http://2.bp.blogspot.com/-SIJqSU1R9sI/Vjs9av0GO0I/AAAAAAADiPU/mDmFovJ33F4/s16000/0020-009.jpg",
    "http://2.bp.blogspot.com/-_csJbC5qsI0/Vjs5UCufyeI/AAAAAAADg3Y/p93-jiqlwGI/s16000/0020-010.jpg",
    "http://2.bp.blogspot.com/-mQu6ByXemiw/Vjs_FBeepnI/AAAAAAADixs/db1PTDIEMHA/s16000/0020-011.jpg",
    "http://2.bp.blogspot.com/-JqzOolCZDLs/VjtB3zR77SI/AAAAAAADjrg/DNpEF2k_ndA/s16000/0020-012.jpg",
    "http://2.bp.blogspot.com/-Gs4cNxKn-ZI/Vjs46Qpa4zI/AAAAAAADguo/cZywX7EfiTg/s16000/0020-013.jpg",
    "http://2.bp.blogspot.com/-w58hp__uCNE/Vjs9IK-6uAI/AAAAAAADiJs/GPtP0tM0p6U/s16000/0020-014.jpg",
    "http://2.bp.blogspot.com/-I_WQ1_AD9fU/VjtAKT12vEI/AAAAAAADjH0/j7Ceqgtf14s/s16000/0020-015.jpg",
    "http://2.bp.blogspot.com/-ayfXrOxRTos/VjtBGZjQbBI/AAAAAAADjbs/g9ER6BOWiN8/s16000/0020-016.jpg",
    "http://2.bp.blogspot.com/-em_5uk7bvR4/Vjs42KFmgYI/AAAAAAADgtU/adhJ9A0E7HY/s16000/0020-017.jpg",
    "http://2.bp.blogspot.com/-hAjIMC6N3z4/Vjs-doj37II/AAAAAAADikM/kXxE9CLnGcI/s16000/0020-018.jpg",
    "http://2.bp.blogspot.com/-gGEa078btw8/Vjs9mSVd1HI/AAAAAAADiR0/CS0erk-BbwI/s16000/0020-019.jpg",
    "http://2.bp.blogspot.com/-X0Cx5t2u2Q4/Vjs70wFEnPI/AAAAAAADhtY/TrdmNDY1cA4/s16000/0020-020.jpg",
    "http://2.bp.blogspot.com/-p23dBfebw48/Vjs7UQ1yQBI/AAAAAAADhiM/xWHv5IFj_Uk/s16000/0020-021.jpg",
    "http://2.bp.blogspot.com/-LEUfAK-Y66Q/Vjs6tQxWJJI/AAAAAAADhXc/DCRc6KQwwIw/s16000/0020-022.jpg",
    "http://2.bp.blogspot.com/-Uo5UT-OIveY/VjtBRdnphWI/AAAAAAADjfU/fWhzzHmYdRY/s16000/0020-023.jpg",
    "http://2.bp.blogspot.com/-Mc1fwFlevu8/Vjs6zRw9oWI/AAAAAAADhXE/qcHPamci5oY/s16000/0020-024.jpg",
    "http://2.bp.blogspot.com/-wJJq2RUnZQs/Vjs5983t0VI/AAAAAAADhFU/EblgeR7xqig/s16000/0020-025.jpg",
    "http://2.bp.blogspot.com/-5jj7O0P_Uoc/Vjs5JVgE5aI/AAAAAAADgzk/tQGik60KCkk/s16000/0020-026.jpg",
    "http://2.bp.blogspot.com/-MKUvQ0KSI54/Vjs8quQRubI/AAAAAAADiAg/-iiD6zeir-c/s16000/0020-027.jpg",
    "http://2.bp.blogspot.com/-ov8w8KzE9K4/VjtAIExiWAI/AAAAAAADjIA/acT7JGI7fPE/s16000/0020-028.jpg",
    "http://2.bp.blogspot.com/-Ovz7QzmbkiA/Vjs6LvehwhI/AAAAAAADhKE/9QTo0WLDtfo/s16000/0020-029.jpg",
    "http://2.bp.blogspot.com/-zuYCaVRso7M/Vjs52EgQQYI/AAAAAAADhDM/ojXHoxQSbFo/s16000/0020-030.jpg",
    "http://2.bp.blogspot.com/-KbOvrW88qY8/VjtChxumzlI/AAAAAAADj5M/hPj7MeDjBC0/s16000/0020-031.jpg",
    "http://2.bp.blogspot.com/-4LcfAyhQN-E/Vjs6MlVH2yI/AAAAAAADhKk/j5cEgaBUgJQ/s16000/0020-032.jpg",
    "http://2.bp.blogspot.com/-ZWXDeKbDozQ/Vjs4q9JQlzI/AAAAAAADgpk/EXvD_O0QjwU/s16000/0020-033.jpg",
    "http://2.bp.blogspot.com/-TiXxMFw3hZQ/Vjs-THo5klI/AAAAAAADig8/-9qwUMesHDI/s16000/0020-034.jpg",
    "http://2.bp.blogspot.com/-kJl_FuOQ5hc/VjtCAFHBNOI/AAAAAAADjtw/9AXmlUcZIO8/s16000/0020-035.jpg",
    "http://2.bp.blogspot.com/-KdiuuOiUzRk/VjtA8b9bkHI/AAAAAAADjmk/gWJHPgAqdV0/s16000/0020-036.jpg",
    "http://2.bp.blogspot.com/-l6SCKxqdwBg/Vjs4vWcmNiI/AAAAAAADgsE/ZeLXFQcJIVU/s16000/0020-037.jpg",
    "http://2.bp.blogspot.com/-2OFCuTgMJis/Vjs__493PJI/AAAAAAADjEY/CW9Kba8YuR8/s16000/0020-038.jpg",
    "http://2.bp.blogspot.com/-TapL5dWr3q4/Vjs4Cujuz_I/AAAAAAADgbc/XVUJKDFOVJA/s16000/0020-039.jpg",
    "http://2.bp.blogspot.com/-OjTKlpJDkOs/Vjs6-c5f0DI/AAAAAAADhaw/xjeKeM3XreI/s16000/0020-040.jpg",
    "http://2.bp.blogspot.com/-U3WTGpXRcY4/Vjs4firnl0I/AAAAAAADglY/8nzpU78AvE0/s16000/0020-041.jpg",
    "http://2.bp.blogspot.com/-yu8dMClrGSM/VjtAPVT4uEI/AAAAAAADjJE/oclg4X-645k/s16000/0020-042.jpg",
    "http://2.bp.blogspot.com/-J8Vj0gVbMxQ/Vjs7RAGRF_I/AAAAAAADhhM/Xo3_wJAsTQ8/s16000/0020-043.jpg",
    "http://2.bp.blogspot.com/-hRwZ6PWO6Hk/Vjs5FYWV4PI/AAAAAAADgyQ/yXoAr6LDPCE/s16000/0020-044.jpg"
  ]
}