{
  "cover": "http://ww1.heaventoon.com/content/upload/images/Black-Bird.jpg",
  "title": "Black Bird",
  "genre": "Action, Comedy, Drama, Fantasy, Harem, Manga, Mystery, Romance, Shoujo, Smut, Supernatural",
  "author": "SAKURAKOJI Kanoko",
  "status": "Completed",
  "backlink": "https://manganu.com/collections/sakurakoji-kanoko/black-bird/",
  "description": "There is a world of myth and magic that intersects ours, and only a special few can see it. Misao Harada is one such person, and she wants nothing to do with magical realms. She just wants to have a normal high school life and maybe get a boyfriend. But she is the bride of demon prophecy, and her blood grants incredible powers, her flesh immortality. Now the demon realm is fighting over the right to her hand...or her life!",
  "language": "English",
  "images": [
    "http://2.bp.blogspot.com/-4ct5XH5aUYI/Vjs_SyHzUpI/AAAAAAADi2Q/5Fq0kxSA_ek/s16000/0001-001.jpg",
    "http://2.bp.blogspot.com/-eFD1CWIl8co/Vjs_Roo20HI/AAAAAAADi10/Go-u4eb-y5o/s16000/0001-002.jpg",
    "http://2.bp.blogspot.com/-SeC-EehLMhA/Vjs7VBvjhnI/AAAAAAADhik/3fkxQd7KM8E/s16000/0001-003.jpg",
    "http://2.bp.blogspot.com/-JdwUK9tVGWs/Vjs9r8JAZSI/AAAAAAADiT4/sQoWnHfczBQ/s16000/0001-004.jpg",
    "http://2.bp.blogspot.com/-Z0AWGPauK-4/VjtCOCeqZDI/AAAAAAADjyM/wWKUdbs82p4/s16000/0001-005.jpg",
    "http://2.bp.blogspot.com/-iHbDW1osDC4/Vjs8zzffwFI/AAAAAAADiD0/B7-kJx23Qo8/s16000/0001-006.jpg",
    "http://2.bp.blogspot.com/-UvKKmSTIUkk/Vjs78iXSqCI/AAAAAAADhwM/kxWzUIXrEP8/s16000/0001-007.jpg",
    "http://2.bp.blogspot.com/-I9iov2jY_Z0/Vjs8eeAXd6I/AAAAAAADh8M/HKCtp1TVf_o/s16000/0001-008.jpg",
    "http://2.bp.blogspot.com/-IY7eQo9xPKU/Vjs7_EBwntI/AAAAAAADhxA/R_KaJuXPtHA/s16000/0001-009.jpg",
    "http://2.bp.blogspot.com/-KuFdypWEBFE/Vjs_tEeypcI/AAAAAAADi-8/lrGcgX_EbEQ/s16000/0001-010.jpg",
    "http://2.bp.blogspot.com/-UGihMitDZwk/Vjs_mmAN7SI/AAAAAAADi8w/1SoHtAoGD7E/s16000/0001-011.jpg",
    "http://2.bp.blogspot.com/-U7RpddAkIl8/Vjs6t3otmXI/AAAAAAADhVc/0GKWgKemIOQ/s16000/0001-012.jpg",
    "http://2.bp.blogspot.com/-OprUXkWCXlc/Vjs33r8SgXI/AAAAAAADgXc/cXQQS-z4cns/s16000/0001-013.jpg",
    "http://2.bp.blogspot.com/-Zxwu4Ok6yPY/Vjs5RF-AuRI/AAAAAAADg2w/32fWPy8bCGw/s16000/0001-014.jpg",
    "http://2.bp.blogspot.com/-XBbdWh88Fi0/Vjs7-Zv9XpI/AAAAAAADhw8/7bCyJZhP040/s16000/0001-015.jpg",
    "http://2.bp.blogspot.com/-do-8rgwjp7M/VjtCaWJclKI/AAAAAAADj30/juAGqQnpqPU/s16000/0001-016.jpg",
    "http://2.bp.blogspot.com/-BsdxfHIA1vI/VjtCJvLoL5I/AAAAAAADjyg/EBlJ6zo7bg4/s16000/0001-017.jpg",
    "http://2.bp.blogspot.com/-6GldsXJA5VU/Vjs9h9VStxI/AAAAAAADiQw/_4sAYvi2O-8/s16000/0001-018.jpg",
    "http://2.bp.blogspot.com/-aEM7YC1Q8ww/VjtAWuttqjI/AAAAAAADjLc/bXUCnqlJ9bM/s16000/0001-019.jpg",
    "http://2.bp.blogspot.com/-1-kqrr44ZZ0/Vjs7zRMDLiI/AAAAAAADhso/ccz66prJVds/s16000/0001-020.jpg",
    "http://2.bp.blogspot.com/-khaZb08V9ig/Vjs8A3m2GrI/AAAAAAADhxw/NmwxAm1nKLA/s16000/0001-021.jpg",
    "http://2.bp.blogspot.com/-fbZ4BsRsIT8/VjtAsOoWyjI/AAAAAAADjSs/84VOLCC2DxA/s16000/0001-022.jpg",
    "http://2.bp.blogspot.com/-VMJM6VzYEto/Vjs-OVdJ6oI/AAAAAAADifY/BEdhFWS5lqk/s16000/0001-023.jpg",
    "http://2.bp.blogspot.com/-wsQDU8p1zHE/Vjs4Nyixq1I/AAAAAAADgvk/bNCL2ImwRhg/s16000/0001-024.jpg",
    "http://2.bp.blogspot.com/-Ol_OyOgwt_0/Vjs367lIwuI/AAAAAAADgYs/FhC71LqDe9s/s16000/0001-025.jpg",
    "http://2.bp.blogspot.com/-ZaR9ocoMQds/Vjs9Gq9rYSI/AAAAAAADiJQ/xfnLA7B62IY/s16000/0001-026.jpg",
    "http://2.bp.blogspot.com/-ZcLAHqCpmIg/VjtAkXuQLxI/AAAAAAADjQI/I0KshYKcVEs/s16000/0001-027.jpg",
    "http://2.bp.blogspot.com/-kr8TB4fepK8/Vjs94PK9_OI/AAAAAAADiX8/_32gWr0l15Y/s16000/0001-028.jpg",
    "http://2.bp.blogspot.com/-qI0wAyRm3Dg/VjtCC2dGSII/AAAAAAADjuY/yFtIs9EI2a4/s16000/0001-029.jpg",
    "http://2.bp.blogspot.com/-qbY4UQ1BL6k/Vjs32rH-GjI/AAAAAAADgYI/JU_TAj7roPw/s16000/0001-030.jpg",
    "http://2.bp.blogspot.com/-nLdYTt7MnsU/Vjs7xl0JrGI/AAAAAAADhsA/RHn08P-j43o/s16000/0001-031.jpg",
    "http://2.bp.blogspot.com/-NHfTfi40SmM/VjtBxRPLA-I/AAAAAAADjo8/0sluael8p8w/s16000/0001-032.jpg",
    "http://2.bp.blogspot.com/-J1jxhhsi3fc/Vjs8MeZlF2I/AAAAAAADh14/QaNkFIkGU3A/s16000/0001-033.jpg",
    "http://2.bp.blogspot.com/-g36rRRCS60w/Vjs-4PXMZ5I/AAAAAAADitI/idCvvi6CA0Q/s16000/0001-034.jpg",
    "http://2.bp.blogspot.com/-9WDL3XEyuqs/VjtAw_KRdaI/AAAAAAADjUM/cdN7w53cDtg/s16000/0001-035.jpg",
    "http://2.bp.blogspot.com/-HodtxsqXBnA/Vjs6r5a_DTI/AAAAAAADhUU/BHT4SReXSQQ/s16000/0001-036.jpg",
    "http://2.bp.blogspot.com/-dU757HG_jWg/Vjs88BoSIBI/AAAAAAADiGU/1lzsorC_qII/s16000/0001-037.jpg",
    "http://2.bp.blogspot.com/-h-bUzXjnWQo/Vjs8YMRSIZI/AAAAAAADh54/e3bG6l7yHJc/s16000/0001-038.jpg",
    "http://2.bp.blogspot.com/-jjjev_CgUoo/Vjs5_wuTINI/AAAAAAADhGM/gUD4xMyln8Q/s16000/0001-039.jpg",
    "http://2.bp.blogspot.com/-s6jQcUEkg64/VjtCgcbldtI/AAAAAAADj4k/inkpGAZG5U8/s16000/0001-040.jpg"
  ]
}