{
  "cover": "https://avt.mkklcdnv6.com/45/s/6-1583476106.jpg",
  "title": "Baka Ga Zenra De Yattekuru",
  "original": "バカが全裸でやってくる ; A Fool Arrives in the Nude ; A Naked Idiot Coming at Full Speed",
  "genre": "Drama, Seinen, Manga",
  "author": "Iruma Hitoma",
  "status": "Completed",
  "backlink": "https://manganu.com/collections/iruma-hitoma/baka-ga-zenra-de-yattekuru/",
  "description": "“I,” an aspiring novelist who can’t land a hit, a normal college student.\nKai Shouko, a female college student writer who produced a string of hits.\nDuring the welcoming party of our university, a naked idiot suddenly barges into my life.",
  "language": "English",
  "images": [
    "https://img-proxy.imgfo.com/?referer=https://manganelo.com&url=https://s7.mkklcdnv6temp.com/mangakakalot/b1/baka_ga_zenra_de_yattekuru/vol1_chapter_8_the_future_is_in_our_hands/1.jpg",
    "https://img-proxy.imgfo.com/?referer=https://manganelo.com&url=https://s7.mkklcdnv6temp.com/mangakakalot/b1/baka_ga_zenra_de_yattekuru/vol1_chapter_8_the_future_is_in_our_hands/2.jpg",
    "https://img-proxy.imgfo.com/?referer=https://manganelo.com&url=https://s7.mkklcdnv6temp.com/mangakakalot/b1/baka_ga_zenra_de_yattekuru/vol1_chapter_8_the_future_is_in_our_hands/3.jpg",
    "https://img-proxy.imgfo.com/?referer=https://manganelo.com&url=https://s7.mkklcdnv6temp.com/mangakakalot/b1/baka_ga_zenra_de_yattekuru/vol1_chapter_8_the_future_is_in_our_hands/4.jpg",
    "https://img-proxy.imgfo.com/?referer=https://manganelo.com&url=https://s7.mkklcdnv6temp.com/mangakakalot/b1/baka_ga_zenra_de_yattekuru/vol1_chapter_8_the_future_is_in_our_hands/5.jpg",
    "https://img-proxy.imgfo.com/?referer=https://manganelo.com&url=https://s7.mkklcdnv6temp.com/mangakakalot/b1/baka_ga_zenra_de_yattekuru/vol1_chapter_8_the_future_is_in_our_hands/6.jpg",
    "https://img-proxy.imgfo.com/?referer=https://manganelo.com&url=https://s7.mkklcdnv6temp.com/mangakakalot/b1/baka_ga_zenra_de_yattekuru/vol1_chapter_8_the_future_is_in_our_hands/7.jpg",
    "https://img-proxy.imgfo.com/?referer=https://manganelo.com&url=https://s7.mkklcdnv6temp.com/mangakakalot/b1/baka_ga_zenra_de_yattekuru/vol1_chapter_8_the_future_is_in_our_hands/8.jpg",
    "https://img-proxy.imgfo.com/?referer=https://manganelo.com&url=https://s7.mkklcdnv6temp.com/mangakakalot/b1/baka_ga_zenra_de_yattekuru/vol1_chapter_8_the_future_is_in_our_hands/9.jpg",
    "https://img-proxy.imgfo.com/?referer=https://manganelo.com&url=https://s7.mkklcdnv6temp.com/mangakakalot/b1/baka_ga_zenra_de_yattekuru/vol1_chapter_8_the_future_is_in_our_hands/10.jpg",
    "https://img-proxy.imgfo.com/?referer=https://manganelo.com&url=https://s7.mkklcdnv6temp.com/mangakakalot/b1/baka_ga_zenra_de_yattekuru/vol1_chapter_8_the_future_is_in_our_hands/11.jpg",
    "https://img-proxy.imgfo.com/?referer=https://manganelo.com&url=https://s7.mkklcdnv6temp.com/mangakakalot/b1/baka_ga_zenra_de_yattekuru/vol1_chapter_8_the_future_is_in_our_hands/12.jpg",
    "https://img-proxy.imgfo.com/?referer=https://manganelo.com&url=https://s7.mkklcdnv6temp.com/mangakakalot/b1/baka_ga_zenra_de_yattekuru/vol1_chapter_8_the_future_is_in_our_hands/13.jpg",
    "https://img-proxy.imgfo.com/?referer=https://manganelo.com&url=https://s7.mkklcdnv6temp.com/mangakakalot/b1/baka_ga_zenra_de_yattekuru/vol1_chapter_8_the_future_is_in_our_hands/14.jpg",
    "https://img-proxy.imgfo.com/?referer=https://manganelo.com&url=https://s7.mkklcdnv6temp.com/mangakakalot/b1/baka_ga_zenra_de_yattekuru/vol1_chapter_8_the_future_is_in_our_hands/15.jpg",
    "https://img-proxy.imgfo.com/?referer=https://manganelo.com&url=https://s7.mkklcdnv6temp.com/mangakakalot/b1/baka_ga_zenra_de_yattekuru/vol1_chapter_8_the_future_is_in_our_hands/16.jpg",
    "https://img-proxy.imgfo.com/?referer=https://manganelo.com&url=https://s7.mkklcdnv6temp.com/mangakakalot/b1/baka_ga_zenra_de_yattekuru/vol1_chapter_8_the_future_is_in_our_hands/17.jpg",
    "https://img-proxy.imgfo.com/?referer=https://manganelo.com&url=https://s7.mkklcdnv6temp.com/mangakakalot/b1/baka_ga_zenra_de_yattekuru/vol1_chapter_8_the_future_is_in_our_hands/18.jpg",
    "https://img-proxy.imgfo.com/?referer=https://manganelo.com&url=https://s7.mkklcdnv6temp.com/mangakakalot/b1/baka_ga_zenra_de_yattekuru/vol1_chapter_8_the_future_is_in_our_hands/19.jpg",
    "https://img-proxy.imgfo.com/?referer=https://manganelo.com&url=https://s7.mkklcdnv6temp.com/mangakakalot/b1/baka_ga_zenra_de_yattekuru/vol1_chapter_8_the_future_is_in_our_hands/20.jpg",
    "https://img-proxy.imgfo.com/?referer=https://manganelo.com&url=https://s7.mkklcdnv6temp.com/mangakakalot/b1/baka_ga_zenra_de_yattekuru/vol1_chapter_8_the_future_is_in_our_hands/21.jpg",
    "https://img-proxy.imgfo.com/?referer=https://manganelo.com&url=https://s7.mkklcdnv6temp.com/mangakakalot/b1/baka_ga_zenra_de_yattekuru/vol1_chapter_8_the_future_is_in_our_hands/22.jpg",
    "https://img-proxy.imgfo.com/?referer=https://manganelo.com&url=https://s7.mkklcdnv6temp.com/mangakakalot/b1/baka_ga_zenra_de_yattekuru/vol1_chapter_8_the_future_is_in_our_hands/23.jpg",
    "https://img-proxy.imgfo.com/?referer=https://manganelo.com&url=https://s7.mkklcdnv6temp.com/mangakakalot/b1/baka_ga_zenra_de_yattekuru/vol1_chapter_8_the_future_is_in_our_hands/24.jpg",
    "https://img-proxy.imgfo.com/?referer=https://manganelo.com&url=https://s7.mkklcdnv6temp.com/mangakakalot/b1/baka_ga_zenra_de_yattekuru/vol1_chapter_8_the_future_is_in_our_hands/25.jpg",
    "https://img-proxy.imgfo.com/?referer=https://manganelo.com&url=https://s7.mkklcdnv6temp.com/mangakakalot/b1/baka_ga_zenra_de_yattekuru/vol1_chapter_8_the_future_is_in_our_hands/26.jpg",
    "https://img-proxy.imgfo.com/?referer=https://manganelo.com&url=https://s7.mkklcdnv6temp.com/mangakakalot/b1/baka_ga_zenra_de_yattekuru/vol1_chapter_8_the_future_is_in_our_hands/27.jpg",
    "https://img-proxy.imgfo.com/?referer=https://manganelo.com&url=https://s7.mkklcdnv6temp.com/mangakakalot/b1/baka_ga_zenra_de_yattekuru/vol1_chapter_8_the_future_is_in_our_hands/28.jpg",
    "https://img-proxy.imgfo.com/?referer=https://manganelo.com&url=https://s7.mkklcdnv6temp.com/mangakakalot/b1/baka_ga_zenra_de_yattekuru/vol1_chapter_8_the_future_is_in_our_hands/29.jpg",
    "https://img-proxy.imgfo.com/?referer=https://manganelo.com&url=https://s7.mkklcdnv6temp.com/mangakakalot/b1/baka_ga_zenra_de_yattekuru/vol1_chapter_8_the_future_is_in_our_hands/30.jpg",
    "https://img-proxy.imgfo.com/?referer=https://manganelo.com&url=https://s7.mkklcdnv6temp.com/mangakakalot/b1/baka_ga_zenra_de_yattekuru/vol1_chapter_8_the_future_is_in_our_hands/31.jpg",
    "https://img-proxy.imgfo.com/?referer=https://manganelo.com&url=https://s7.mkklcdnv6temp.com/mangakakalot/b1/baka_ga_zenra_de_yattekuru/vol1_chapter_8_the_future_is_in_our_hands/32.jpg",
    "https://img-proxy.imgfo.com/?referer=https://manganelo.com&url=https://s7.mkklcdnv6temp.com/mangakakalot/b1/baka_ga_zenra_de_yattekuru/vol1_chapter_8_the_future_is_in_our_hands/33.jpg",
    "https://img-proxy.imgfo.com/?referer=https://manganelo.com&url=https://s7.mkklcdnv6temp.com/mangakakalot/b1/baka_ga_zenra_de_yattekuru/vol1_chapter_8_the_future_is_in_our_hands/34.jpg"
  ]
}