{
  "cover": "https://avt.mkklcdnv6.com/31/y/15-1583492727.jpg",
  "title": "Project Arms",
  "original": "アームズ ; ARMS",
  "genre": "Action, Sci fi, Shounen, Supernatural, Manga",
  "author": "Nanatsuki Kyoichi",
  "status": "Completed",
  "backlink": "https://manganu.com/collections/nanatsuki-kyoichi/project-arms/",
  "description": "From Ryoji Minagawa and Kyoichi Nanatsuki comes a world of nano-machines, cybernetic assassins, powerful telekinetic opponents, and secret organization dedicated to bringing forth the next evolution of humankind. Containing all the best elements of sci-fi, spy fiction, and conspiracy theory stories, Project Arms is about kids whose arms transform into grotesquely deformed superweapons.",
  "language": "English",
  "images": [
    "https://img-proxy.imgfo.com/?referer=https://manganelo.com&url=https://s3.mkklcdnv6temp.com/mangakakalot/p2/project_arms/vol17_chapter_3_pulse/1.jpg",
    "https://img-proxy.imgfo.com/?referer=https://manganelo.com&url=https://s3.mkklcdnv6temp.com/mangakakalot/p2/project_arms/vol17_chapter_3_pulse/2.jpg",
    "https://img-proxy.imgfo.com/?referer=https://manganelo.com&url=https://s3.mkklcdnv6temp.com/mangakakalot/p2/project_arms/vol17_chapter_3_pulse/3.jpg",
    "https://img-proxy.imgfo.com/?referer=https://manganelo.com&url=https://s3.mkklcdnv6temp.com/mangakakalot/p2/project_arms/vol17_chapter_3_pulse/4.jpg",
    "https://img-proxy.imgfo.com/?referer=https://manganelo.com&url=https://s3.mkklcdnv6temp.com/mangakakalot/p2/project_arms/vol17_chapter_3_pulse/5.jpg",
    "https://img-proxy.imgfo.com/?referer=https://manganelo.com&url=https://s3.mkklcdnv6temp.com/mangakakalot/p2/project_arms/vol17_chapter_3_pulse/6.jpg",
    "https://img-proxy.imgfo.com/?referer=https://manganelo.com&url=https://s3.mkklcdnv6temp.com/mangakakalot/p2/project_arms/vol17_chapter_3_pulse/7.jpg",
    "https://img-proxy.imgfo.com/?referer=https://manganelo.com&url=https://s3.mkklcdnv6temp.com/mangakakalot/p2/project_arms/vol17_chapter_3_pulse/8.jpg",
    "https://img-proxy.imgfo.com/?referer=https://manganelo.com&url=https://s3.mkklcdnv6temp.com/mangakakalot/p2/project_arms/vol17_chapter_3_pulse/9.jpg",
    "https://img-proxy.imgfo.com/?referer=https://manganelo.com&url=https://s3.mkklcdnv6temp.com/mangakakalot/p2/project_arms/vol17_chapter_3_pulse/10.jpg",
    "https://img-proxy.imgfo.com/?referer=https://manganelo.com&url=https://s3.mkklcdnv6temp.com/mangakakalot/p2/project_arms/vol17_chapter_3_pulse/11.jpg",
    "https://img-proxy.imgfo.com/?referer=https://manganelo.com&url=https://s3.mkklcdnv6temp.com/mangakakalot/p2/project_arms/vol17_chapter_3_pulse/12.jpg",
    "https://img-proxy.imgfo.com/?referer=https://manganelo.com&url=https://s3.mkklcdnv6temp.com/mangakakalot/p2/project_arms/vol17_chapter_3_pulse/13.jpg",
    "https://img-proxy.imgfo.com/?referer=https://manganelo.com&url=https://s3.mkklcdnv6temp.com/mangakakalot/p2/project_arms/vol17_chapter_3_pulse/14.jpg",
    "https://img-proxy.imgfo.com/?referer=https://manganelo.com&url=https://s3.mkklcdnv6temp.com/mangakakalot/p2/project_arms/vol17_chapter_3_pulse/15.jpg",
    "https://img-proxy.imgfo.com/?referer=https://manganelo.com&url=https://s3.mkklcdnv6temp.com/mangakakalot/p2/project_arms/vol17_chapter_3_pulse/16.jpg",
    "https://img-proxy.imgfo.com/?referer=https://manganelo.com&url=https://s3.mkklcdnv6temp.com/mangakakalot/p2/project_arms/vol17_chapter_3_pulse/17.jpg",
    "https://img-proxy.imgfo.com/?referer=https://manganelo.com&url=https://s3.mkklcdnv6temp.com/mangakakalot/p2/project_arms/vol17_chapter_3_pulse/18.jpg",
    "https://img-proxy.imgfo.com/?referer=https://manganelo.com&url=https://s3.mkklcdnv6temp.com/mangakakalot/p2/project_arms/vol17_chapter_3_pulse/19.jpg"
  ]
}