{
  "cover": "https://avt.mkklcdnv6.com/42/p/6-1583475920.jpg",
  "title": "Bitter Virgin",
  "original": "ビターバージン ; 惨痛处女",
  "genre": "Drama, Mature, Psychological, Romance, School life, Seinen, Manga",
  "author": "Kusunoki Kei",
  "status": "Completed",
  "backlink": "https://manganu.com/collections/kusunoki-kei/bitter-virgin/",
  "description": "Popular high school student Suwa Daisuke has no interest in dating newcomer Aikawa Hinako, a quiet loner. That's because she recoiled from his flirtatious touch, and he took it as a personal affront. Daisuke informs one of his buddies that he wouldn't date her, not knowing Hinako was listening. Daisuke's attitude changes after he accidentally hears her confession in an abandoned church; she's been sexually abused by her stepfather and has given up a child for adoption. His former annoyance turns to compassion and concern. Hinako is unaware that he knows her terrible secret. Believing him to have no romantic interest, she becomes more relaxed and comfortable in his company. Their relationship faces a lot of obstacles, including jealous classmates.",
  "language": "English",
  "images": [
    "https://img-proxy.imgfo.com/?referer=https://manganelo.com&url=https://s41.mkklcdnv6temp.com/mangakakalot/b1/bitter_virgin/vol4_chapter_32_me_and_her/1.jpg",
    "https://img-proxy.imgfo.com/?referer=https://manganelo.com&url=https://s41.mkklcdnv6temp.com/mangakakalot/b1/bitter_virgin/vol4_chapter_32_me_and_her/2.jpg",
    "https://img-proxy.imgfo.com/?referer=https://manganelo.com&url=https://s41.mkklcdnv6temp.com/mangakakalot/b1/bitter_virgin/vol4_chapter_32_me_and_her/3.jpg",
    "https://img-proxy.imgfo.com/?referer=https://manganelo.com&url=https://s41.mkklcdnv6temp.com/mangakakalot/b1/bitter_virgin/vol4_chapter_32_me_and_her/4.jpg",
    "https://img-proxy.imgfo.com/?referer=https://manganelo.com&url=https://s41.mkklcdnv6temp.com/mangakakalot/b1/bitter_virgin/vol4_chapter_32_me_and_her/5.jpg",
    "https://img-proxy.imgfo.com/?referer=https://manganelo.com&url=https://s41.mkklcdnv6temp.com/mangakakalot/b1/bitter_virgin/vol4_chapter_32_me_and_her/6.jpg",
    "https://img-proxy.imgfo.com/?referer=https://manganelo.com&url=https://s41.mkklcdnv6temp.com/mangakakalot/b1/bitter_virgin/vol4_chapter_32_me_and_her/7.jpg",
    "https://img-proxy.imgfo.com/?referer=https://manganelo.com&url=https://s41.mkklcdnv6temp.com/mangakakalot/b1/bitter_virgin/vol4_chapter_32_me_and_her/8.jpg",
    "https://img-proxy.imgfo.com/?referer=https://manganelo.com&url=https://s41.mkklcdnv6temp.com/mangakakalot/b1/bitter_virgin/vol4_chapter_32_me_and_her/9.jpg",
    "https://img-proxy.imgfo.com/?referer=https://manganelo.com&url=https://s41.mkklcdnv6temp.com/mangakakalot/b1/bitter_virgin/vol4_chapter_32_me_and_her/10.jpg",
    "https://img-proxy.imgfo.com/?referer=https://manganelo.com&url=https://s41.mkklcdnv6temp.com/mangakakalot/b1/bitter_virgin/vol4_chapter_32_me_and_her/11.jpg",
    "https://img-proxy.imgfo.com/?referer=https://manganelo.com&url=https://s41.mkklcdnv6temp.com/mangakakalot/b1/bitter_virgin/vol4_chapter_32_me_and_her/12.jpg",
    "https://img-proxy.imgfo.com/?referer=https://manganelo.com&url=https://s41.mkklcdnv6temp.com/mangakakalot/b1/bitter_virgin/vol4_chapter_32_me_and_her/13.jpg",
    "https://img-proxy.imgfo.com/?referer=https://manganelo.com&url=https://s41.mkklcdnv6temp.com/mangakakalot/b1/bitter_virgin/vol4_chapter_32_me_and_her/14.jpg",
    "https://img-proxy.imgfo.com/?referer=https://manganelo.com&url=https://s41.mkklcdnv6temp.com/mangakakalot/b1/bitter_virgin/vol4_chapter_32_me_and_her/15.jpg",
    "https://img-proxy.imgfo.com/?referer=https://manganelo.com&url=https://s41.mkklcdnv6temp.com/mangakakalot/b1/bitter_virgin/vol4_chapter_32_me_and_her/16.jpg",
    "https://img-proxy.imgfo.com/?referer=https://manganelo.com&url=https://s41.mkklcdnv6temp.com/mangakakalot/b1/bitter_virgin/vol4_chapter_32_me_and_her/17.jpg",
    "https://img-proxy.imgfo.com/?referer=https://manganelo.com&url=https://s41.mkklcdnv6temp.com/mangakakalot/b1/bitter_virgin/vol4_chapter_32_me_and_her/18.jpg",
    "https://img-proxy.imgfo.com/?referer=https://manganelo.com&url=https://s41.mkklcdnv6temp.com/mangakakalot/b1/bitter_virgin/vol4_chapter_32_me_and_her/19.jpg",
    "https://img-proxy.imgfo.com/?referer=https://manganelo.com&url=https://s41.mkklcdnv6temp.com/mangakakalot/b1/bitter_virgin/vol4_chapter_32_me_and_her/20.jpg",
    "https://img-proxy.imgfo.com/?referer=https://manganelo.com&url=https://s41.mkklcdnv6temp.com/mangakakalot/b1/bitter_virgin/vol4_chapter_32_me_and_her/21.jpg",
    "https://img-proxy.imgfo.com/?referer=https://manganelo.com&url=https://s41.mkklcdnv6temp.com/mangakakalot/b1/bitter_virgin/vol4_chapter_32_me_and_her/22.jpg",
    "https://img-proxy.imgfo.com/?referer=https://manganelo.com&url=https://s41.mkklcdnv6temp.com/mangakakalot/b1/bitter_virgin/vol4_chapter_32_me_and_her/23.jpg",
    "https://img-proxy.imgfo.com/?referer=https://manganelo.com&url=https://s41.mkklcdnv6temp.com/mangakakalot/b1/bitter_virgin/vol4_chapter_32_me_and_her/24.jpg",
    "https://img-proxy.imgfo.com/?referer=https://manganelo.com&url=https://s41.mkklcdnv6temp.com/mangakakalot/b1/bitter_virgin/vol4_chapter_32_me_and_her/25.jpg",
    "https://img-proxy.imgfo.com/?referer=https://manganelo.com&url=https://s41.mkklcdnv6temp.com/mangakakalot/b1/bitter_virgin/vol4_chapter_32_me_and_her/26.jpg",
    "https://img-proxy.imgfo.com/?referer=https://manganelo.com&url=https://s41.mkklcdnv6temp.com/mangakakalot/b1/bitter_virgin/vol4_chapter_32_me_and_her/27.jpg",
    "https://img-proxy.imgfo.com/?referer=https://manganelo.com&url=https://s41.mkklcdnv6temp.com/mangakakalot/b1/bitter_virgin/vol4_chapter_32_me_and_her/28.jpg",
    "https://img-proxy.imgfo.com/?referer=https://manganelo.com&url=https://s41.mkklcdnv6temp.com/mangakakalot/b1/bitter_virgin/vol4_chapter_32_me_and_her/29.jpg",
    "https://img-proxy.imgfo.com/?referer=https://manganelo.com&url=https://s41.mkklcdnv6temp.com/mangakakalot/b1/bitter_virgin/vol4_chapter_32_me_and_her/30.jpg",
    "https://img-proxy.imgfo.com/?referer=https://manganelo.com&url=https://s41.mkklcdnv6temp.com/mangakakalot/b1/bitter_virgin/vol4_chapter_32_me_and_her/31.jpg",
    "https://img-proxy.imgfo.com/?referer=https://manganelo.com&url=https://s41.mkklcdnv6temp.com/mangakakalot/b1/bitter_virgin/vol4_chapter_32_me_and_her/32.jpg",
    "https://img-proxy.imgfo.com/?referer=https://manganelo.com&url=https://s41.mkklcdnv6temp.com/mangakakalot/b1/bitter_virgin/vol4_chapter_32_me_and_her/33.jpg",
    "https://img-proxy.imgfo.com/?referer=https://manganelo.com&url=https://s41.mkklcdnv6temp.com/mangakakalot/b1/bitter_virgin/vol4_chapter_32_me_and_her/34.jpg",
    "https://img-proxy.imgfo.com/?referer=https://manganelo.com&url=https://s41.mkklcdnv6temp.com/mangakakalot/b1/bitter_virgin/vol4_chapter_32_me_and_her/35.jpg",
    "https://img-proxy.imgfo.com/?referer=https://manganelo.com&url=https://s41.mkklcdnv6temp.com/mangakakalot/b1/bitter_virgin/vol4_chapter_32_me_and_her/36.jpg",
    "https://img-proxy.imgfo.com/?referer=https://manganelo.com&url=https://s41.mkklcdnv6temp.com/mangakakalot/b1/bitter_virgin/vol4_chapter_32_me_and_her/37.jpg"
  ]
}