{
  "cover": "https://avt.mkklcdnv6.com/38/d/7-1583477709.jpg",
  "title": "Hanazono No Kioku",
  "original": "花园的记忆 ; 花園の記憶 ; Kuroneko to Futari Kurashi",
  "genre": "Drama, Psychological, Yaoi, Manga",
  "author": "Hino Garasu",
  "status": "Completed",
  "backlink": "https://manganu.com/collections/hino-garasu/hanazono-no-kioku/",
  "description": "From Hoshi Kuzuu:\nChris, a beautiful young man whom he met at a bar and Yuu, who had a drunken marriage with him. And the matching tattoo on his ring finger was also meant as a joke... “We're married, so we've gotta stay together.” Persistent and possessive, he uncovers everything about Yuu's past. They happily drown in that drunken passion, but...!? A troubled tale of love that will move you to tears...has been drawn!\n• Kuroneko to Futari Kurashi (Black Cat and the Domestic Life)",
  "language": "English",
  "images": [
    "https://img-proxy.imgfo.com/?referer=https://manganelo.com&url=https://s41.mkklcdnv6temp.com/mangakakalot/h1/hanazono_no_kioku/vol1_chapter_6_kuroneko_to_futari_kurashi/1.jpg",
    "https://img-proxy.imgfo.com/?referer=https://manganelo.com&url=https://s41.mkklcdnv6temp.com/mangakakalot/h1/hanazono_no_kioku/vol1_chapter_6_kuroneko_to_futari_kurashi/2.jpg",
    "https://img-proxy.imgfo.com/?referer=https://manganelo.com&url=https://s41.mkklcdnv6temp.com/mangakakalot/h1/hanazono_no_kioku/vol1_chapter_6_kuroneko_to_futari_kurashi/3.jpg",
    "https://img-proxy.imgfo.com/?referer=https://manganelo.com&url=https://s41.mkklcdnv6temp.com/mangakakalot/h1/hanazono_no_kioku/vol1_chapter_6_kuroneko_to_futari_kurashi/4.jpg",
    "https://img-proxy.imgfo.com/?referer=https://manganelo.com&url=https://s41.mkklcdnv6temp.com/mangakakalot/h1/hanazono_no_kioku/vol1_chapter_6_kuroneko_to_futari_kurashi/5.jpg",
    "https://img-proxy.imgfo.com/?referer=https://manganelo.com&url=https://s41.mkklcdnv6temp.com/mangakakalot/h1/hanazono_no_kioku/vol1_chapter_6_kuroneko_to_futari_kurashi/6.jpg",
    "https://img-proxy.imgfo.com/?referer=https://manganelo.com&url=https://s41.mkklcdnv6temp.com/mangakakalot/h1/hanazono_no_kioku/vol1_chapter_6_kuroneko_to_futari_kurashi/7.jpg",
    "https://img-proxy.imgfo.com/?referer=https://manganelo.com&url=https://s41.mkklcdnv6temp.com/mangakakalot/h1/hanazono_no_kioku/vol1_chapter_6_kuroneko_to_futari_kurashi/8.jpg",
    "https://img-proxy.imgfo.com/?referer=https://manganelo.com&url=https://s41.mkklcdnv6temp.com/mangakakalot/h1/hanazono_no_kioku/vol1_chapter_6_kuroneko_to_futari_kurashi/9.jpg",
    "https://img-proxy.imgfo.com/?referer=https://manganelo.com&url=https://s41.mkklcdnv6temp.com/mangakakalot/h1/hanazono_no_kioku/vol1_chapter_6_kuroneko_to_futari_kurashi/10.jpg",
    "https://img-proxy.imgfo.com/?referer=https://manganelo.com&url=https://s41.mkklcdnv6temp.com/mangakakalot/h1/hanazono_no_kioku/vol1_chapter_6_kuroneko_to_futari_kurashi/11.jpg",
    "https://img-proxy.imgfo.com/?referer=https://manganelo.com&url=https://s41.mkklcdnv6temp.com/mangakakalot/h1/hanazono_no_kioku/vol1_chapter_6_kuroneko_to_futari_kurashi/12.jpg",
    "https://img-proxy.imgfo.com/?referer=https://manganelo.com&url=https://s41.mkklcdnv6temp.com/mangakakalot/h1/hanazono_no_kioku/vol1_chapter_6_kuroneko_to_futari_kurashi/13.jpg",
    "https://img-proxy.imgfo.com/?referer=https://manganelo.com&url=https://s41.mkklcdnv6temp.com/mangakakalot/h1/hanazono_no_kioku/vol1_chapter_6_kuroneko_to_futari_kurashi/14.jpg",
    "https://img-proxy.imgfo.com/?referer=https://manganelo.com&url=https://s41.mkklcdnv6temp.com/mangakakalot/h1/hanazono_no_kioku/vol1_chapter_6_kuroneko_to_futari_kurashi/15.jpg",
    "https://img-proxy.imgfo.com/?referer=https://manganelo.com&url=https://s41.mkklcdnv6temp.com/mangakakalot/h1/hanazono_no_kioku/vol1_chapter_6_kuroneko_to_futari_kurashi/16.jpg",
    "https://img-proxy.imgfo.com/?referer=https://manganelo.com&url=https://s41.mkklcdnv6temp.com/mangakakalot/h1/hanazono_no_kioku/vol1_chapter_6_kuroneko_to_futari_kurashi/17.jpg",
    "https://img-proxy.imgfo.com/?referer=https://manganelo.com&url=https://s41.mkklcdnv6temp.com/mangakakalot/h1/hanazono_no_kioku/vol1_chapter_6_kuroneko_to_futari_kurashi/18.jpg",
    "https://img-proxy.imgfo.com/?referer=https://manganelo.com&url=https://s41.mkklcdnv6temp.com/mangakakalot/h1/hanazono_no_kioku/vol1_chapter_6_kuroneko_to_futari_kurashi/19.jpg",
    "https://img-proxy.imgfo.com/?referer=https://manganelo.com&url=https://s41.mkklcdnv6temp.com/mangakakalot/h1/hanazono_no_kioku/vol1_chapter_6_kuroneko_to_futari_kurashi/20.jpg"
  ]
}