{
  "cover": "https://avt.mkklcdnv6.com/38/d/7-1583477709.jpg",
  "title": "Hanazono No Kioku",
  "original": "花园的记忆 ; 花園の記憶 ; Kuroneko to Futari Kurashi",
  "genre": "Drama, Psychological, Yaoi, Manga",
  "author": "Hino Garasu",
  "status": "Completed",
  "backlink": "https://manganu.com/collections/hino-garasu/hanazono-no-kioku/",
  "description": "From Hoshi Kuzuu:\nChris, a beautiful young man whom he met at a bar and Yuu, who had a drunken marriage with him. And the matching tattoo on his ring finger was also meant as a joke... “We're married, so we've gotta stay together.” Persistent and possessive, he uncovers everything about Yuu's past. They happily drown in that drunken passion, but...!? A troubled tale of love that will move you to tears...has been drawn!\n• Kuroneko to Futari Kurashi (Black Cat and the Domestic Life)",
  "language": "English",
  "images": [
    "https://img-proxy.imgfo.com/?referer=https://manganelo.com&url=https://s41.mkklcdnv6temp.com/mangakakalot/h1/hanazono_no_kioku/vol1_chapter_1_hanazono_no_kioku_1/1.jpg",
    "https://img-proxy.imgfo.com/?referer=https://manganelo.com&url=https://s41.mkklcdnv6temp.com/mangakakalot/h1/hanazono_no_kioku/vol1_chapter_1_hanazono_no_kioku_1/2.jpg",
    "https://img-proxy.imgfo.com/?referer=https://manganelo.com&url=https://s41.mkklcdnv6temp.com/mangakakalot/h1/hanazono_no_kioku/vol1_chapter_1_hanazono_no_kioku_1/3.jpg",
    "https://img-proxy.imgfo.com/?referer=https://manganelo.com&url=https://s41.mkklcdnv6temp.com/mangakakalot/h1/hanazono_no_kioku/vol1_chapter_1_hanazono_no_kioku_1/4.jpg",
    "https://img-proxy.imgfo.com/?referer=https://manganelo.com&url=https://s41.mkklcdnv6temp.com/mangakakalot/h1/hanazono_no_kioku/vol1_chapter_1_hanazono_no_kioku_1/5.jpg",
    "https://img-proxy.imgfo.com/?referer=https://manganelo.com&url=https://s41.mkklcdnv6temp.com/mangakakalot/h1/hanazono_no_kioku/vol1_chapter_1_hanazono_no_kioku_1/6.jpg",
    "https://img-proxy.imgfo.com/?referer=https://manganelo.com&url=https://s41.mkklcdnv6temp.com/mangakakalot/h1/hanazono_no_kioku/vol1_chapter_1_hanazono_no_kioku_1/7.jpg",
    "https://img-proxy.imgfo.com/?referer=https://manganelo.com&url=https://s41.mkklcdnv6temp.com/mangakakalot/h1/hanazono_no_kioku/vol1_chapter_1_hanazono_no_kioku_1/8.jpg",
    "https://img-proxy.imgfo.com/?referer=https://manganelo.com&url=https://s41.mkklcdnv6temp.com/mangakakalot/h1/hanazono_no_kioku/vol1_chapter_1_hanazono_no_kioku_1/9.jpg",
    "https://img-proxy.imgfo.com/?referer=https://manganelo.com&url=https://s41.mkklcdnv6temp.com/mangakakalot/h1/hanazono_no_kioku/vol1_chapter_1_hanazono_no_kioku_1/10.jpg",
    "https://img-proxy.imgfo.com/?referer=https://manganelo.com&url=https://s41.mkklcdnv6temp.com/mangakakalot/h1/hanazono_no_kioku/vol1_chapter_1_hanazono_no_kioku_1/11.jpg",
    "https://img-proxy.imgfo.com/?referer=https://manganelo.com&url=https://s41.mkklcdnv6temp.com/mangakakalot/h1/hanazono_no_kioku/vol1_chapter_1_hanazono_no_kioku_1/12.jpg",
    "https://img-proxy.imgfo.com/?referer=https://manganelo.com&url=https://s41.mkklcdnv6temp.com/mangakakalot/h1/hanazono_no_kioku/vol1_chapter_1_hanazono_no_kioku_1/13.jpg",
    "https://img-proxy.imgfo.com/?referer=https://manganelo.com&url=https://s41.mkklcdnv6temp.com/mangakakalot/h1/hanazono_no_kioku/vol1_chapter_1_hanazono_no_kioku_1/14.jpg",
    "https://img-proxy.imgfo.com/?referer=https://manganelo.com&url=https://s41.mkklcdnv6temp.com/mangakakalot/h1/hanazono_no_kioku/vol1_chapter_1_hanazono_no_kioku_1/15.jpg",
    "https://img-proxy.imgfo.com/?referer=https://manganelo.com&url=https://s41.mkklcdnv6temp.com/mangakakalot/h1/hanazono_no_kioku/vol1_chapter_1_hanazono_no_kioku_1/16.jpg",
    "https://img-proxy.imgfo.com/?referer=https://manganelo.com&url=https://s41.mkklcdnv6temp.com/mangakakalot/h1/hanazono_no_kioku/vol1_chapter_1_hanazono_no_kioku_1/17.jpg",
    "https://img-proxy.imgfo.com/?referer=https://manganelo.com&url=https://s41.mkklcdnv6temp.com/mangakakalot/h1/hanazono_no_kioku/vol1_chapter_1_hanazono_no_kioku_1/18.jpg",
    "https://img-proxy.imgfo.com/?referer=https://manganelo.com&url=https://s41.mkklcdnv6temp.com/mangakakalot/h1/hanazono_no_kioku/vol1_chapter_1_hanazono_no_kioku_1/19.jpg",
    "https://img-proxy.imgfo.com/?referer=https://manganelo.com&url=https://s41.mkklcdnv6temp.com/mangakakalot/h1/hanazono_no_kioku/vol1_chapter_1_hanazono_no_kioku_1/20.jpg",
    "https://img-proxy.imgfo.com/?referer=https://manganelo.com&url=https://s41.mkklcdnv6temp.com/mangakakalot/h1/hanazono_no_kioku/vol1_chapter_1_hanazono_no_kioku_1/21.jpg",
    "https://img-proxy.imgfo.com/?referer=https://manganelo.com&url=https://s41.mkklcdnv6temp.com/mangakakalot/h1/hanazono_no_kioku/vol1_chapter_1_hanazono_no_kioku_1/22.jpg",
    "https://img-proxy.imgfo.com/?referer=https://manganelo.com&url=https://s41.mkklcdnv6temp.com/mangakakalot/h1/hanazono_no_kioku/vol1_chapter_1_hanazono_no_kioku_1/23.jpg",
    "https://img-proxy.imgfo.com/?referer=https://manganelo.com&url=https://s41.mkklcdnv6temp.com/mangakakalot/h1/hanazono_no_kioku/vol1_chapter_1_hanazono_no_kioku_1/24.jpg",
    "https://img-proxy.imgfo.com/?referer=https://manganelo.com&url=https://s41.mkklcdnv6temp.com/mangakakalot/h1/hanazono_no_kioku/vol1_chapter_1_hanazono_no_kioku_1/25.jpg",
    "https://img-proxy.imgfo.com/?referer=https://manganelo.com&url=https://s41.mkklcdnv6temp.com/mangakakalot/h1/hanazono_no_kioku/vol1_chapter_1_hanazono_no_kioku_1/26.jpg",
    "https://img-proxy.imgfo.com/?referer=https://manganelo.com&url=https://s41.mkklcdnv6temp.com/mangakakalot/h1/hanazono_no_kioku/vol1_chapter_1_hanazono_no_kioku_1/27.jpg",
    "https://img-proxy.imgfo.com/?referer=https://manganelo.com&url=https://s41.mkklcdnv6temp.com/mangakakalot/h1/hanazono_no_kioku/vol1_chapter_1_hanazono_no_kioku_1/28.jpg",
    "https://img-proxy.imgfo.com/?referer=https://manganelo.com&url=https://s41.mkklcdnv6temp.com/mangakakalot/h1/hanazono_no_kioku/vol1_chapter_1_hanazono_no_kioku_1/29.jpg",
    "https://img-proxy.imgfo.com/?referer=https://manganelo.com&url=https://s41.mkklcdnv6temp.com/mangakakalot/h1/hanazono_no_kioku/vol1_chapter_1_hanazono_no_kioku_1/30.jpg",
    "https://img-proxy.imgfo.com/?referer=https://manganelo.com&url=https://s41.mkklcdnv6temp.com/mangakakalot/h1/hanazono_no_kioku/vol1_chapter_1_hanazono_no_kioku_1/31.jpg",
    "https://img-proxy.imgfo.com/?referer=https://manganelo.com&url=https://s41.mkklcdnv6temp.com/mangakakalot/h1/hanazono_no_kioku/vol1_chapter_1_hanazono_no_kioku_1/32.jpg",
    "https://img-proxy.imgfo.com/?referer=https://manganelo.com&url=https://s41.mkklcdnv6temp.com/mangakakalot/h1/hanazono_no_kioku/vol1_chapter_1_hanazono_no_kioku_1/33.jpg",
    "https://img-proxy.imgfo.com/?referer=https://manganelo.com&url=https://s41.mkklcdnv6temp.com/mangakakalot/h1/hanazono_no_kioku/vol1_chapter_1_hanazono_no_kioku_1/34.jpg",
    "https://img-proxy.imgfo.com/?referer=https://manganelo.com&url=https://s41.mkklcdnv6temp.com/mangakakalot/h1/hanazono_no_kioku/vol1_chapter_1_hanazono_no_kioku_1/35.jpg",
    "https://img-proxy.imgfo.com/?referer=https://manganelo.com&url=https://s41.mkklcdnv6temp.com/mangakakalot/h1/hanazono_no_kioku/vol1_chapter_1_hanazono_no_kioku_1/36.jpg",
    "https://img-proxy.imgfo.com/?referer=https://manganelo.com&url=https://s41.mkklcdnv6temp.com/mangakakalot/h1/hanazono_no_kioku/vol1_chapter_1_hanazono_no_kioku_1/37.jpg",
    "https://img-proxy.imgfo.com/?referer=https://manganelo.com&url=https://s41.mkklcdnv6temp.com/mangakakalot/h1/hanazono_no_kioku/vol1_chapter_1_hanazono_no_kioku_1/38.jpg",
    "https://img-proxy.imgfo.com/?referer=https://manganelo.com&url=https://s41.mkklcdnv6temp.com/mangakakalot/h1/hanazono_no_kioku/vol1_chapter_1_hanazono_no_kioku_1/39.jpg",
    "https://img-proxy.imgfo.com/?referer=https://manganelo.com&url=https://s41.mkklcdnv6temp.com/mangakakalot/h1/hanazono_no_kioku/vol1_chapter_1_hanazono_no_kioku_1/40.jpg"
  ]
}