{
  "cover": "https://avt.mkklcdnv6.com/28/h/7-1583477333.jpg",
  "title": "Golden Boy",
  "original": "ゴールデンボーイ (Japanese); Goldenboy (English)",
  "genre": "Adult, Adventure, Comedy, Ecchi, Harem, Romance, Seinen, Manga",
  "author": "Egawa Tatsuya",
  "status": "Completed",
  "backlink": "https://manganu.com/collections/egawa-tatsuya/golden-boy/",
  "description": "Oe Kintarou is a Tokyo University Law School dropout. However, he had completed all the course work needed to graduate before leaving school. Since then, he has wandered through many jobs all over Japan as a student of life with little more than a journal, a pen, and his trusty mountain bike (the Mikazuki 5). On his journeys, he runs into various compromising situations with beautiful women, and he must use his unique talents as a jack-of-all-trades to survive, let alone have a chance to find his true calling in life. But he is far more skilled than he appears, and he is determined to succeed no matter what he does. He could be the man who will save Japan--no, the world... or maybe not. Packed with hilarious hi-jinks, lots of ecchi, ramen noodles, gracious kindness, and even some toilet hugging, Golden Boy is full of non-stop fun.",
  "language": "English",
  "images": [
    "https://img-proxy.imgfo.com/?referer=https://manganelo.com&url=https://s3.mkklcdnv6temp.com/mangakakalot/g2/golden_boy/vol4_chapter_24_the_forbidden_paradise/1.jpg",
    "https://img-proxy.imgfo.com/?referer=https://manganelo.com&url=https://s3.mkklcdnv6temp.com/mangakakalot/g2/golden_boy/vol4_chapter_24_the_forbidden_paradise/2.jpg",
    "https://img-proxy.imgfo.com/?referer=https://manganelo.com&url=https://s3.mkklcdnv6temp.com/mangakakalot/g2/golden_boy/vol4_chapter_24_the_forbidden_paradise/3.jpg",
    "https://img-proxy.imgfo.com/?referer=https://manganelo.com&url=https://s3.mkklcdnv6temp.com/mangakakalot/g2/golden_boy/vol4_chapter_24_the_forbidden_paradise/4.jpg",
    "https://img-proxy.imgfo.com/?referer=https://manganelo.com&url=https://s3.mkklcdnv6temp.com/mangakakalot/g2/golden_boy/vol4_chapter_24_the_forbidden_paradise/5.jpg",
    "https://img-proxy.imgfo.com/?referer=https://manganelo.com&url=https://s3.mkklcdnv6temp.com/mangakakalot/g2/golden_boy/vol4_chapter_24_the_forbidden_paradise/6.jpg",
    "https://img-proxy.imgfo.com/?referer=https://manganelo.com&url=https://s3.mkklcdnv6temp.com/mangakakalot/g2/golden_boy/vol4_chapter_24_the_forbidden_paradise/7.jpg",
    "https://img-proxy.imgfo.com/?referer=https://manganelo.com&url=https://s3.mkklcdnv6temp.com/mangakakalot/g2/golden_boy/vol4_chapter_24_the_forbidden_paradise/8.jpg",
    "https://img-proxy.imgfo.com/?referer=https://manganelo.com&url=https://s3.mkklcdnv6temp.com/mangakakalot/g2/golden_boy/vol4_chapter_24_the_forbidden_paradise/9.jpg",
    "https://img-proxy.imgfo.com/?referer=https://manganelo.com&url=https://s3.mkklcdnv6temp.com/mangakakalot/g2/golden_boy/vol4_chapter_24_the_forbidden_paradise/10.jpg",
    "https://img-proxy.imgfo.com/?referer=https://manganelo.com&url=https://s3.mkklcdnv6temp.com/mangakakalot/g2/golden_boy/vol4_chapter_24_the_forbidden_paradise/11.jpg",
    "https://img-proxy.imgfo.com/?referer=https://manganelo.com&url=https://s3.mkklcdnv6temp.com/mangakakalot/g2/golden_boy/vol4_chapter_24_the_forbidden_paradise/12.jpg",
    "https://img-proxy.imgfo.com/?referer=https://manganelo.com&url=https://s3.mkklcdnv6temp.com/mangakakalot/g2/golden_boy/vol4_chapter_24_the_forbidden_paradise/13.jpg",
    "https://img-proxy.imgfo.com/?referer=https://manganelo.com&url=https://s3.mkklcdnv6temp.com/mangakakalot/g2/golden_boy/vol4_chapter_24_the_forbidden_paradise/14.jpg",
    "https://img-proxy.imgfo.com/?referer=https://manganelo.com&url=https://s3.mkklcdnv6temp.com/mangakakalot/g2/golden_boy/vol4_chapter_24_the_forbidden_paradise/15.jpg",
    "https://img-proxy.imgfo.com/?referer=https://manganelo.com&url=https://s3.mkklcdnv6temp.com/mangakakalot/g2/golden_boy/vol4_chapter_24_the_forbidden_paradise/16.jpg",
    "https://img-proxy.imgfo.com/?referer=https://manganelo.com&url=https://s3.mkklcdnv6temp.com/mangakakalot/g2/golden_boy/vol4_chapter_24_the_forbidden_paradise/17.jpg",
    "https://img-proxy.imgfo.com/?referer=https://manganelo.com&url=https://s3.mkklcdnv6temp.com/mangakakalot/g2/golden_boy/vol4_chapter_24_the_forbidden_paradise/18.jpg"
  ]
}