{
  "cover": "http://ww1.heaventoon.com/content/upload/images/Ichigo100.jpg",
  "title": "Ichigo 100%",
  "genre": "Comedy, Drama, Ecchi, Harem, Manga, Romance, School Life, Shounen",
  "author": "KAWASHITA Mizuki",
  "status": "Completed",
  "backlink": "https://manganu.com/collections/kawashita-mizuki/ichigo-100percent/",
  "description": "The hero (me, Junpei Manaka!) sneaks up to the roof to see the sunset. When he opens the door, he startles a mysterious beauty. She panics and runs away, but not before Junpei has caught sight of her adorable strawberry print panties...in EXTREME close-up. With that vision forever burned into his memory, Junpei embarks on a quest to find the girl, and the panties, of his dreams!",
  "language": "English",
  "images": [
    "http://2.bp.blogspot.com/-jeQ3jfKoDNw/VlGiHuR_TGI/AAAAAAAAWSs/jwoHR6PU6tA/s16000/0118-001.png",
    "http://2.bp.blogspot.com/-pl86tcN8WTQ/VlGfPi4MnMI/AAAAAAAAVaw/Roi3UQNggcg/s16000/0118-002.png",
    "http://2.bp.blogspot.com/-jG_qejRiRE8/VlGbn1JLtjI/AAAAAAAAUKQ/_5SaicenuxM/s16000/0118-003.png",
    "http://2.bp.blogspot.com/-MFhxtiCiIb4/VlGZ-lBJCWI/AAAAAAAATpY/8S2_BltWKbE/s16000/0118-004.png",
    "http://2.bp.blogspot.com/-sCKtZNVK1uk/VlGbabXEyqI/AAAAAAAAUFk/quTHYFHUFCE/s16000/0118-005.png",
    "http://2.bp.blogspot.com/-uv6NEE72l2c/VlGh98ziZsI/AAAAAAAAV70/s3QHktT_wUU/s16000/0118-006.png",
    "http://2.bp.blogspot.com/-Oh-cVWLNXkk/VlGbXtwapHI/AAAAAAAAUBQ/RLzouxKRMdk/s16000/0118-007.png",
    "http://2.bp.blogspot.com/-MYG30sb212A/VlGg96-mULI/AAAAAAAAV4Y/fPjK8KW0ZLo/s16000/0118-008.png",
    "http://2.bp.blogspot.com/-0q-KYkjaCd8/VlGYeu1vLmI/AAAAAAAATHI/EPfepPuFpVM/s16000/0118-009.png",
    "http://2.bp.blogspot.com/--94yB8ph6-w/VlGhhRCSnuI/AAAAAAAAVz0/2x3WZAaE66U/s16000/0118-010.png",
    "http://2.bp.blogspot.com/-Nyvh-MGzijw/VlGb8HvwWjI/AAAAAAAAUQA/ToPg3vV7Ku0/s16000/0118-011.png",
    "http://2.bp.blogspot.com/-4Zm9gsE11FI/VlGZNMo-twI/AAAAAAAATYA/KCwo1Cy8scQ/s16000/0118-012.png",
    "http://2.bp.blogspot.com/-JCTLxp1hAiU/VlGdm4MzuEI/AAAAAAAAUw0/AbpjHDRA1_0/s16000/0118-013.png",
    "http://2.bp.blogspot.com/-mhJM1VtLGbQ/VlGa8nePOLI/AAAAAAAAT70/_rc0XdRxqYs/s16000/0118-014.png",
    "http://2.bp.blogspot.com/-yhTtl5ozxyg/VlGZztg11qI/AAAAAAAATdU/qW3V6wFWHSM/s16000/0118-015.png",
    "http://2.bp.blogspot.com/-8fiuskVO28A/VlGd16Y3OKI/AAAAAAAAUpE/v6nMt-5ygpE/s16000/0118-016.png",
    "http://2.bp.blogspot.com/-km1Uc3BAy4s/VlGaB8RqbfI/AAAAAAAATYc/ln5_WE5gnNc/s16000/0118-017.png",
    "http://2.bp.blogspot.com/-NBX-VU2XZYc/VlGd7AmAcBI/AAAAAAAAUqc/lnUXEODzn90/s16000/0118-018.png",
    "http://2.bp.blogspot.com/-E-R7SQp8WjU/VlGfSN4Qr7I/AAAAAAAAVXY/JDICGduo18Q/s16000/0118-019.png",
    "http://2.bp.blogspot.com/-b4Ry01MiiKM/VlGaeVtMl8I/AAAAAAAATgQ/xeCCcHQGqDo/s16000/0118-020.png",
    "http://2.bp.blogspot.com/-J10Num_o-zQ/VlGfVMpf9YI/AAAAAAAAVYM/SruePXgkDkg/s16000/0118-021.jpg"
  ]
}