{
  "cover": "http://ww1.heaventoon.com/content/upload/images/Ichigo100.jpg",
  "title": "Ichigo 100%",
  "genre": "Comedy, Drama, Ecchi, Harem, Manga, Romance, School Life, Shounen",
  "author": "KAWASHITA Mizuki",
  "status": "Completed",
  "backlink": "https://manganu.com/collections/kawashita-mizuki/ichigo-100percent/",
  "description": "The hero (me, Junpei Manaka!) sneaks up to the roof to see the sunset. When he opens the door, he startles a mysterious beauty. She panics and runs away, but not before Junpei has caught sight of her adorable strawberry print panties...in EXTREME close-up. With that vision forever burned into his memory, Junpei embarks on a quest to find the girl, and the panties, of his dreams!",
  "language": "English",
  "images": [
    "http://2.bp.blogspot.com/-VgOwoH7qrIo/VlGZHT5UPMI/AAAAAAAATUg/6PapE9JtGwI/s16000/0165-001.png",
    "http://2.bp.blogspot.com/-VEqST5ayNNY/VlGY2VSmXPI/AAAAAAAAS-k/gLvtouQ3q7s/s16000/0165-002.png",
    "http://2.bp.blogspot.com/-yBsEF5vMzxU/VlGb-uD2EtI/AAAAAAAAURg/IClTgWfYiuA/s16000/0165-003.png",
    "http://2.bp.blogspot.com/-AXu-y62MTuQ/VlGdZ3cL_dI/AAAAAAAAUyA/NUKsp6m2Chk/s16000/0165-004.png",
    "http://2.bp.blogspot.com/-2HPAI5l2TmA/VlGgHbqqEBI/AAAAAAAAVWU/n-Cxh38s-io/s16000/0165-005.png",
    "http://2.bp.blogspot.com/-VSonCXfdUig/VlGf8yby3-I/AAAAAAAAVkA/G19mcVIRwtw/s16000/0165-006.png",
    "http://2.bp.blogspot.com/-4vLSVU1B8yI/VlGcQT2TK9I/AAAAAAAAUHA/Wb_nbVMzjsU/s16000/0165-007.png",
    "http://2.bp.blogspot.com/-Kv-Ozk97Ylo/VlGh1poEMJI/AAAAAAAAV6I/cT9AldUO-wE/s16000/0165-008.png",
    "http://2.bp.blogspot.com/-zEGuv64TRo0/VlGZDWJ1IEI/AAAAAAAATU8/cWd2WaHMSdA/s16000/0165-009.png",
    "http://2.bp.blogspot.com/-ok_3HX5GEKo/VlGasebascI/AAAAAAAATk0/MOEc5-1OTfM/s16000/0165-010.png",
    "http://2.bp.blogspot.com/-LyPbSjvJt7c/VlGeKUd_b8I/AAAAAAAAUvk/DqSZMS1GGZI/s16000/0165-011.png",
    "http://2.bp.blogspot.com/-y1KadrbAw4Q/VlGbRONQQpI/AAAAAAAAUIk/4qbI66rwE-8/s16000/0165-012.png",
    "http://2.bp.blogspot.com/-GEHrDSc03Bk/VlGe_WqzARI/AAAAAAAAVQk/LsFloLRu-Yw/s16000/0165-013.png",
    "http://2.bp.blogspot.com/-W9lTGawmz5k/VlGer_M1NyI/AAAAAAAAVKo/Zt2eKs6oybU/s16000/0165-014.png",
    "http://2.bp.blogspot.com/-8lohFNAFCRw/VlGakS7o_VI/AAAAAAAATkw/cmS4jsbsbtg/s16000/0165-015.png",
    "http://2.bp.blogspot.com/-mThIaMZYqW4/VlGe2eYAArI/AAAAAAAAVNk/5vU_60O-8v8/s16000/0165-016.png",
    "http://2.bp.blogspot.com/-o38kDA_e_KU/VlGghix4xII/AAAAAAAAVgQ/_K-uETXVOyU/s16000/0165-017.png",
    "http://2.bp.blogspot.com/-XcaLw2_K7Po/VlGcMv1ARaI/AAAAAAAAUW4/xO3tWCThkg8/s16000/0165-018.png",
    "http://2.bp.blogspot.com/-Pyrmdg_7Thc/VlGiQGPWVZI/AAAAAAAAWB0/-tjLWZnpxVI/s16000/0165-019.png",
    "http://2.bp.blogspot.com/-eAy4TkDC90Y/VlGbXPtrOaI/AAAAAAAAUDw/71WIKz9b9JE/s16000/0165-020.png"
  ]
}