{
  "cover": "http://ww1.heaventoon.com/content/upload/images/Ichigo100.jpg",
  "title": "Ichigo 100%",
  "genre": "Comedy, Drama, Ecchi, Harem, Manga, Romance, School Life, Shounen",
  "author": "KAWASHITA Mizuki",
  "status": "Completed",
  "backlink": "https://manganu.com/collections/kawashita-mizuki/ichigo-100percent/",
  "description": "The hero (me, Junpei Manaka!) sneaks up to the roof to see the sunset. When he opens the door, he startles a mysterious beauty. She panics and runs away, but not before Junpei has caught sight of her adorable strawberry print panties...in EXTREME close-up. With that vision forever burned into his memory, Junpei embarks on a quest to find the girl, and the panties, of his dreams!",
  "language": "English",
  "images": [
    "http://2.bp.blogspot.com/-opsKbw0oiUw/VlGlZ2RoneI/AAAAAAAAXWo/OL4g0Ugu51w/s16000/0065-001.png",
    "http://2.bp.blogspot.com/-whaHawVhrrY/VlGoeSv5s8I/AAAAAAAAYWI/7wAc-1q6DV4/s16000/0065-002.png",
    "http://2.bp.blogspot.com/-ypUAYbYRM_k/VlGorEpF-II/AAAAAAAAYYU/l-bBmzz5bb0/s16000/0065-003.png",
    "http://2.bp.blogspot.com/-ROrZXM2TY78/VlGipqwqEII/AAAAAAAAWcc/cxk5lCT-ytQ/s16000/0065-004.png",
    "http://2.bp.blogspot.com/-C17PbM_ZBOs/VlGqZnXj4hI/AAAAAAAAYr4/UZZLXC26vhg/s16000/0065-005.png",
    "http://2.bp.blogspot.com/-zCbEQTJBz5Q/VlGj53EuFXI/AAAAAAAAW0Y/VLFtuXolJIY/s16000/0065-006.png",
    "http://2.bp.blogspot.com/-fMRHJSU7VYg/VlGq0rjtogI/AAAAAAAAZDU/z-z3N4uFqqM/s16000/0065-007.png",
    "http://2.bp.blogspot.com/-4f01pH1tiy4/VlGiu7JqilI/AAAAAAAAWMM/Glw1YK-jjO8/s16000/0065-008.png",
    "http://2.bp.blogspot.com/-2GaR9ZN3LHg/VlGjbHoYn9I/AAAAAAAAWuY/-AYbdz_U5wA/s16000/0065-009.png",
    "http://2.bp.blogspot.com/-_IeZgU5h0t4/VlGuvI7TxqI/AAAAAAAAaEc/TNkwODF_M-g/s16000/0065-010.png",
    "http://2.bp.blogspot.com/-q8iUeNLX4ho/VlGk9bI8hvI/AAAAAAAAW6k/JNciMGmghr4/s16000/0065-011.png",
    "http://2.bp.blogspot.com/-HxTmAaYLDb8/VlGqxHTw83I/AAAAAAAAZEo/XsKhu98wBCk/s16000/0065-012.png",
    "http://2.bp.blogspot.com/-9QyBLLYGQn0/VlGofj0M5bI/AAAAAAAAYDo/NIOGGYJpD_w/s16000/0065-013.png",
    "http://2.bp.blogspot.com/-xrrQWo-3RLo/VlGqVXUoWfI/AAAAAAAAYpQ/doXZSPVaxWM/s16000/0065-014.png",
    "http://2.bp.blogspot.com/-JQ9nTf9xM94/VlGscVSTP9I/AAAAAAAAZow/BHvoL3uuF_M/s16000/0065-015.png",
    "http://2.bp.blogspot.com/-iAdPNh02Ga0/VlGp2TVo5EI/AAAAAAAAYeE/7AbvYzQ8kDM/s16000/0065-016.png",
    "http://2.bp.blogspot.com/-YbWncr02HXE/VlGpvCIyi5I/AAAAAAAAYvc/d_3wTpbFgMg/s16000/0065-017.png",
    "http://2.bp.blogspot.com/-oHgTKdodR-4/VlGoDwaKGMI/AAAAAAAAYMQ/uS_iBYDJz9o/s16000/0065-018.png",
    "http://2.bp.blogspot.com/-Poxd02XACOo/VlGjrsyx2aI/AAAAAAAAWxQ/rNmRYyJjTPw/s16000/0065-019.png",
    "http://2.bp.blogspot.com/-3AFoiAtFSLY/VlGq_Kjuc8I/AAAAAAAAY2U/aQrcngbh624/s16000/0065-020.png"
  ]
}