{
  "cover": "https://avt.mkklcdnv6.com/25/n/5-1583472827.jpg",
  "title": "Tenchi Muyo!",
  "original": "天地無用!魎皇鬼 ; No Need for Tenchi! ; Tenchi Muyo! Ryo-Ohki",
  "genre": "Comedy, Harem, Romance, Sci fi, Shounen, Manga",
  "author": "Kuroda Yousuke",
  "status": "Completed",
  "backlink": "https://manganu.com/collections/kuroda-yousuke/tenchi-muyo/",
  "description": "From Viz: The trouble and fun began when ordinary teenager Tenchi Masaki inadvertently released the legendary demon Ryoko from his grandfather&#39;s shrine. Turned out Ryoko was actually a marooned space pirate! Since then, she&#39;s become Tenchi&#39;s unwanted houseguest, attracting a host of other troublemaking alien women: Ayeka, a haughty alien pricess; Sasami, her mischievous little sister; and Washu, Ryoko&#39;s mad-scientist &quot;mother.&quot; Add Ryo-oh-Ki, an adorable little carrot-eating spaceship, and you&#39;ve got one full Shinto shrine!",
  "language": "English",
  "images": [
    "https://img-proxy.imgfo.com/?referer=https://manganelo.com&url=https://s41.mkklcdnv6temp.com/mangakakalot/t1/tenchi_muyo/vol05_chapter_1/1.jpg",
    "https://img-proxy.imgfo.com/?referer=https://manganelo.com&url=https://s41.mkklcdnv6temp.com/mangakakalot/t1/tenchi_muyo/vol05_chapter_1/2.jpg",
    "https://img-proxy.imgfo.com/?referer=https://manganelo.com&url=https://s41.mkklcdnv6temp.com/mangakakalot/t1/tenchi_muyo/vol05_chapter_1/3.jpg",
    "https://img-proxy.imgfo.com/?referer=https://manganelo.com&url=https://s41.mkklcdnv6temp.com/mangakakalot/t1/tenchi_muyo/vol05_chapter_1/4.jpg",
    "https://img-proxy.imgfo.com/?referer=https://manganelo.com&url=https://s41.mkklcdnv6temp.com/mangakakalot/t1/tenchi_muyo/vol05_chapter_1/5.jpg",
    "https://img-proxy.imgfo.com/?referer=https://manganelo.com&url=https://s41.mkklcdnv6temp.com/mangakakalot/t1/tenchi_muyo/vol05_chapter_1/6.jpg",
    "https://img-proxy.imgfo.com/?referer=https://manganelo.com&url=https://s41.mkklcdnv6temp.com/mangakakalot/t1/tenchi_muyo/vol05_chapter_1/7.jpg",
    "https://img-proxy.imgfo.com/?referer=https://manganelo.com&url=https://s41.mkklcdnv6temp.com/mangakakalot/t1/tenchi_muyo/vol05_chapter_1/8.jpg",
    "https://img-proxy.imgfo.com/?referer=https://manganelo.com&url=https://s41.mkklcdnv6temp.com/mangakakalot/t1/tenchi_muyo/vol05_chapter_1/9.jpg",
    "https://img-proxy.imgfo.com/?referer=https://manganelo.com&url=https://s41.mkklcdnv6temp.com/mangakakalot/t1/tenchi_muyo/vol05_chapter_1/10.jpg",
    "https://img-proxy.imgfo.com/?referer=https://manganelo.com&url=https://s41.mkklcdnv6temp.com/mangakakalot/t1/tenchi_muyo/vol05_chapter_1/11.jpg",
    "https://img-proxy.imgfo.com/?referer=https://manganelo.com&url=https://s41.mkklcdnv6temp.com/mangakakalot/t1/tenchi_muyo/vol05_chapter_1/12.jpg",
    "https://img-proxy.imgfo.com/?referer=https://manganelo.com&url=https://s41.mkklcdnv6temp.com/mangakakalot/t1/tenchi_muyo/vol05_chapter_1/13.jpg",
    "https://img-proxy.imgfo.com/?referer=https://manganelo.com&url=https://s41.mkklcdnv6temp.com/mangakakalot/t1/tenchi_muyo/vol05_chapter_1/14.jpg",
    "https://img-proxy.imgfo.com/?referer=https://manganelo.com&url=https://s41.mkklcdnv6temp.com/mangakakalot/t1/tenchi_muyo/vol05_chapter_1/15.jpg",
    "https://img-proxy.imgfo.com/?referer=https://manganelo.com&url=https://s41.mkklcdnv6temp.com/mangakakalot/t1/tenchi_muyo/vol05_chapter_1/16.jpg",
    "https://img-proxy.imgfo.com/?referer=https://manganelo.com&url=https://s41.mkklcdnv6temp.com/mangakakalot/t1/tenchi_muyo/vol05_chapter_1/17.jpg",
    "https://img-proxy.imgfo.com/?referer=https://manganelo.com&url=https://s41.mkklcdnv6temp.com/mangakakalot/t1/tenchi_muyo/vol05_chapter_1/18.jpg",
    "https://img-proxy.imgfo.com/?referer=https://manganelo.com&url=https://s41.mkklcdnv6temp.com/mangakakalot/t1/tenchi_muyo/vol05_chapter_1/19.jpg",
    "https://img-proxy.imgfo.com/?referer=https://manganelo.com&url=https://s41.mkklcdnv6temp.com/mangakakalot/t1/tenchi_muyo/vol05_chapter_1/20.jpg",
    "https://img-proxy.imgfo.com/?referer=https://manganelo.com&url=https://s41.mkklcdnv6temp.com/mangakakalot/t1/tenchi_muyo/vol05_chapter_1/21.jpg",
    "https://img-proxy.imgfo.com/?referer=https://manganelo.com&url=https://s41.mkklcdnv6temp.com/mangakakalot/t1/tenchi_muyo/vol05_chapter_1/22.jpg",
    "https://img-proxy.imgfo.com/?referer=https://manganelo.com&url=https://s41.mkklcdnv6temp.com/mangakakalot/t1/tenchi_muyo/vol05_chapter_1/23.jpg",
    "https://img-proxy.imgfo.com/?referer=https://manganelo.com&url=https://s41.mkklcdnv6temp.com/mangakakalot/t1/tenchi_muyo/vol05_chapter_1/24.jpg"
  ]
}