{
  "cover": "https://avt.mkklcdnv6.com/42/t/18-1583498757.jpg",
  "title": "Konna Ore Wo Suki Toka Majika",
  "original": " Is It True That You Like Me?; こんなオレをスキとかマジか",
  "genre": "Comedy, Romance, Yaoi",
  "author": "Hiiragi Nozomu",
  "status": "Completed",
  "backlink": "https://manganu.com/collections/hiiragi-nozomu/konna-ore-wo-suki-toka-majika/",
  "description": "Even though cafe owner Mugimaru is good looking, rumors say he&#39;s a playboy. But that doesn&#39;t stop the pessimistic, anti-social, and overly serious salaryman, Roku, from going there, since he likes how the owner makes his coffee. However, one day, the drunk Mugimaru pushes Roku down and says, &quot;Since you like my cafe, that means you like me too, right?&quot; What will happen between salaryman Roku and the psychopathic owner, Mugi?!",
  "language": "English",
  "images": [
    "https://img-proxy.imgfo.com/?referer=https://manganelo.com&url=https://s8.mkklcdnv6temp.com/mangakakalot/o1/ol919729/vol1_chapter_45/1.jpg",
    "https://img-proxy.imgfo.com/?referer=https://manganelo.com&url=https://s8.mkklcdnv6temp.com/mangakakalot/o1/ol919729/vol1_chapter_45/2.jpg",
    "https://img-proxy.imgfo.com/?referer=https://manganelo.com&url=https://s8.mkklcdnv6temp.com/mangakakalot/o1/ol919729/vol1_chapter_45/3.jpg",
    "https://img-proxy.imgfo.com/?referer=https://manganelo.com&url=https://s8.mkklcdnv6temp.com/mangakakalot/o1/ol919729/vol1_chapter_45/4.jpg",
    "https://img-proxy.imgfo.com/?referer=https://manganelo.com&url=https://s8.mkklcdnv6temp.com/mangakakalot/o1/ol919729/vol1_chapter_45/5.jpg",
    "https://img-proxy.imgfo.com/?referer=https://manganelo.com&url=https://s8.mkklcdnv6temp.com/mangakakalot/o1/ol919729/vol1_chapter_45/6.jpg",
    "https://img-proxy.imgfo.com/?referer=https://manganelo.com&url=https://s8.mkklcdnv6temp.com/mangakakalot/o1/ol919729/vol1_chapter_45/7.jpg",
    "https://img-proxy.imgfo.com/?referer=https://manganelo.com&url=https://s8.mkklcdnv6temp.com/mangakakalot/o1/ol919729/vol1_chapter_45/8.jpg",
    "https://img-proxy.imgfo.com/?referer=https://manganelo.com&url=https://s8.mkklcdnv6temp.com/mangakakalot/o1/ol919729/vol1_chapter_45/9.jpg",
    "https://img-proxy.imgfo.com/?referer=https://manganelo.com&url=https://s8.mkklcdnv6temp.com/mangakakalot/o1/ol919729/vol1_chapter_45/10.jpg",
    "https://img-proxy.imgfo.com/?referer=https://manganelo.com&url=https://s8.mkklcdnv6temp.com/mangakakalot/o1/ol919729/vol1_chapter_45/11.jpg",
    "https://img-proxy.imgfo.com/?referer=https://manganelo.com&url=https://s8.mkklcdnv6temp.com/mangakakalot/o1/ol919729/vol1_chapter_45/12.jpg",
    "https://img-proxy.imgfo.com/?referer=https://manganelo.com&url=https://s8.mkklcdnv6temp.com/mangakakalot/o1/ol919729/vol1_chapter_45/13.jpg",
    "https://img-proxy.imgfo.com/?referer=https://manganelo.com&url=https://s8.mkklcdnv6temp.com/mangakakalot/o1/ol919729/vol1_chapter_45/14.jpg",
    "https://img-proxy.imgfo.com/?referer=https://manganelo.com&url=https://s8.mkklcdnv6temp.com/mangakakalot/o1/ol919729/vol1_chapter_45/15.jpg",
    "https://img-proxy.imgfo.com/?referer=https://manganelo.com&url=https://s8.mkklcdnv6temp.com/mangakakalot/o1/ol919729/vol1_chapter_45/16.jpg",
    "https://img-proxy.imgfo.com/?referer=https://manganelo.com&url=https://s8.mkklcdnv6temp.com/mangakakalot/o1/ol919729/vol1_chapter_45/17.jpg",
    "https://img-proxy.imgfo.com/?referer=https://manganelo.com&url=https://s8.mkklcdnv6temp.com/mangakakalot/o1/ol919729/vol1_chapter_45/18.jpg",
    "https://img-proxy.imgfo.com/?referer=https://manganelo.com&url=https://s8.mkklcdnv6temp.com/mangakakalot/o1/ol919729/vol1_chapter_45/19.jpg",
    "https://img-proxy.imgfo.com/?referer=https://manganelo.com&url=https://s8.mkklcdnv6temp.com/mangakakalot/o1/ol919729/vol1_chapter_45/20.jpg"
  ]
}