{
  "cover": "https://avt.mkklcdnv6.com/45/y/5-1583473687.jpg",
  "title": "Hannune Banhada! Season 1",
  "original": "한눈에 반하다! ; Love @ First Sight ; Love @ First Sight! ; Love at First Sight ; Love at First Sight!",
  "genre": "Comedy, Drama, Romance, School life, Shoujo, Supernatural, Manga",
  "author": "Lee Si Young",
  "status": "Completed",
  "backlink": "https://manganu.com/collections/lee-si-young/hannune-banhada-season-1/",
  "description": "From JanimeS:\nKang Han-Se and Ban Ha-Da have known each other ever since childhood. They are close enough to sleep in the same room together at their current age.\n\"Three men for you,\" Kang Han-Se's mother tells Ban Ha-Da, on the day of graduation. As soon as Ban Ha-Da's life as a high school student starts, her love life begins as well.",
  "language": "English",
  "images": [
    "https://img-proxy.imgfo.com/?referer=https://manganelo.com&url=https://s41.mkklcdnv6temp.com/mangakakalot/h1/hannune_banhada_season_1/vol1_chapter_1/1.jpg",
    "https://img-proxy.imgfo.com/?referer=https://manganelo.com&url=https://s41.mkklcdnv6temp.com/mangakakalot/h1/hannune_banhada_season_1/vol1_chapter_1/2.jpg",
    "https://img-proxy.imgfo.com/?referer=https://manganelo.com&url=https://s41.mkklcdnv6temp.com/mangakakalot/h1/hannune_banhada_season_1/vol1_chapter_1/3.jpg",
    "https://img-proxy.imgfo.com/?referer=https://manganelo.com&url=https://s41.mkklcdnv6temp.com/mangakakalot/h1/hannune_banhada_season_1/vol1_chapter_1/4.jpg",
    "https://img-proxy.imgfo.com/?referer=https://manganelo.com&url=https://s41.mkklcdnv6temp.com/mangakakalot/h1/hannune_banhada_season_1/vol1_chapter_1/5.jpg",
    "https://img-proxy.imgfo.com/?referer=https://manganelo.com&url=https://s41.mkklcdnv6temp.com/mangakakalot/h1/hannune_banhada_season_1/vol1_chapter_1/6.jpg",
    "https://img-proxy.imgfo.com/?referer=https://manganelo.com&url=https://s41.mkklcdnv6temp.com/mangakakalot/h1/hannune_banhada_season_1/vol1_chapter_1/7.jpg",
    "https://img-proxy.imgfo.com/?referer=https://manganelo.com&url=https://s41.mkklcdnv6temp.com/mangakakalot/h1/hannune_banhada_season_1/vol1_chapter_1/8.jpg",
    "https://img-proxy.imgfo.com/?referer=https://manganelo.com&url=https://s41.mkklcdnv6temp.com/mangakakalot/h1/hannune_banhada_season_1/vol1_chapter_1/9.jpg",
    "https://img-proxy.imgfo.com/?referer=https://manganelo.com&url=https://s41.mkklcdnv6temp.com/mangakakalot/h1/hannune_banhada_season_1/vol1_chapter_1/10.jpg",
    "https://img-proxy.imgfo.com/?referer=https://manganelo.com&url=https://s41.mkklcdnv6temp.com/mangakakalot/h1/hannune_banhada_season_1/vol1_chapter_1/11.jpg",
    "https://img-proxy.imgfo.com/?referer=https://manganelo.com&url=https://s41.mkklcdnv6temp.com/mangakakalot/h1/hannune_banhada_season_1/vol1_chapter_1/12.jpg",
    "https://img-proxy.imgfo.com/?referer=https://manganelo.com&url=https://s41.mkklcdnv6temp.com/mangakakalot/h1/hannune_banhada_season_1/vol1_chapter_1/13.jpg",
    "https://img-proxy.imgfo.com/?referer=https://manganelo.com&url=https://s41.mkklcdnv6temp.com/mangakakalot/h1/hannune_banhada_season_1/vol1_chapter_1/14.jpg",
    "https://img-proxy.imgfo.com/?referer=https://manganelo.com&url=https://s41.mkklcdnv6temp.com/mangakakalot/h1/hannune_banhada_season_1/vol1_chapter_1/15.jpg"
  ]
}