{
  "cover": "https://avt.mkklcdnv6.com/14/l/5-1583472408.jpg",
  "title": "Koi, Hirari",
  "original": "恋、ひらり ; 恋爱华舞曲 ; 戀愛華舞曲 ; 戀花翩翩 ; Addicted to You (MITSUKI Miko) ; Koi Hirari ; Love, Lightly ; adicta a ti (español latino)",
  "genre": "Comedy, Drama, Romance, School life, Shoujo, Manga",
  "author": "Mitsuki Miko",
  "status": "Completed",
  "backlink": "https://manganu.com/collections/mitsuki-miko/koi-hirari/",
  "description": "From Awakened Memories and StarryHeaven:\nThe food loving and pure-hearted Sumire Misaki's family is moving to the same town where her mother and father met and fell in love. Sumire's mother tells her that it's a town where she'll fall in love, and it she meets her first love in a very unexpected way: the good-looking Kazuki Miyamoto, as he tries to escape from his home. Through an unfortunate set of events, the wheels of fate have begun to turn for Sumire, as Kazuki is more than he appears to be. In fact, he's a traditional dancer! Will Sumire's first love be a happy one? Or does a bumpy road await her?",
  "language": "English",
  "images": [
    "https://img-proxy.imgfo.com/?referer=https://manganelo.com&url=https://s3.mkklcdnv6temp.com/mangakakalot/k2/koi_hirari/vol2_chapter_9_true_intentions/1.jpg",
    "https://img-proxy.imgfo.com/?referer=https://manganelo.com&url=https://s3.mkklcdnv6temp.com/mangakakalot/k2/koi_hirari/vol2_chapter_9_true_intentions/2.jpg",
    "https://img-proxy.imgfo.com/?referer=https://manganelo.com&url=https://s3.mkklcdnv6temp.com/mangakakalot/k2/koi_hirari/vol2_chapter_9_true_intentions/3.jpg",
    "https://img-proxy.imgfo.com/?referer=https://manganelo.com&url=https://s3.mkklcdnv6temp.com/mangakakalot/k2/koi_hirari/vol2_chapter_9_true_intentions/4.jpg",
    "https://img-proxy.imgfo.com/?referer=https://manganelo.com&url=https://s3.mkklcdnv6temp.com/mangakakalot/k2/koi_hirari/vol2_chapter_9_true_intentions/5.jpg",
    "https://img-proxy.imgfo.com/?referer=https://manganelo.com&url=https://s3.mkklcdnv6temp.com/mangakakalot/k2/koi_hirari/vol2_chapter_9_true_intentions/6.jpg",
    "https://img-proxy.imgfo.com/?referer=https://manganelo.com&url=https://s3.mkklcdnv6temp.com/mangakakalot/k2/koi_hirari/vol2_chapter_9_true_intentions/7.jpg",
    "https://img-proxy.imgfo.com/?referer=https://manganelo.com&url=https://s3.mkklcdnv6temp.com/mangakakalot/k2/koi_hirari/vol2_chapter_9_true_intentions/8.jpg",
    "https://img-proxy.imgfo.com/?referer=https://manganelo.com&url=https://s3.mkklcdnv6temp.com/mangakakalot/k2/koi_hirari/vol2_chapter_9_true_intentions/9.jpg",
    "https://img-proxy.imgfo.com/?referer=https://manganelo.com&url=https://s3.mkklcdnv6temp.com/mangakakalot/k2/koi_hirari/vol2_chapter_9_true_intentions/10.jpg",
    "https://img-proxy.imgfo.com/?referer=https://manganelo.com&url=https://s3.mkklcdnv6temp.com/mangakakalot/k2/koi_hirari/vol2_chapter_9_true_intentions/11.jpg",
    "https://img-proxy.imgfo.com/?referer=https://manganelo.com&url=https://s3.mkklcdnv6temp.com/mangakakalot/k2/koi_hirari/vol2_chapter_9_true_intentions/12.jpg",
    "https://img-proxy.imgfo.com/?referer=https://manganelo.com&url=https://s3.mkklcdnv6temp.com/mangakakalot/k2/koi_hirari/vol2_chapter_9_true_intentions/13.jpg",
    "https://img-proxy.imgfo.com/?referer=https://manganelo.com&url=https://s3.mkklcdnv6temp.com/mangakakalot/k2/koi_hirari/vol2_chapter_9_true_intentions/14.jpg",
    "https://img-proxy.imgfo.com/?referer=https://manganelo.com&url=https://s3.mkklcdnv6temp.com/mangakakalot/k2/koi_hirari/vol2_chapter_9_true_intentions/15.jpg",
    "https://img-proxy.imgfo.com/?referer=https://manganelo.com&url=https://s3.mkklcdnv6temp.com/mangakakalot/k2/koi_hirari/vol2_chapter_9_true_intentions/16.jpg",
    "https://img-proxy.imgfo.com/?referer=https://manganelo.com&url=https://s3.mkklcdnv6temp.com/mangakakalot/k2/koi_hirari/vol2_chapter_9_true_intentions/17.jpg",
    "https://img-proxy.imgfo.com/?referer=https://manganelo.com&url=https://s3.mkklcdnv6temp.com/mangakakalot/k2/koi_hirari/vol2_chapter_9_true_intentions/18.jpg",
    "https://img-proxy.imgfo.com/?referer=https://manganelo.com&url=https://s3.mkklcdnv6temp.com/mangakakalot/k2/koi_hirari/vol2_chapter_9_true_intentions/19.jpg",
    "https://img-proxy.imgfo.com/?referer=https://manganelo.com&url=https://s3.mkklcdnv6temp.com/mangakakalot/k2/koi_hirari/vol2_chapter_9_true_intentions/20.jpg",
    "https://img-proxy.imgfo.com/?referer=https://manganelo.com&url=https://s3.mkklcdnv6temp.com/mangakakalot/k2/koi_hirari/vol2_chapter_9_true_intentions/21.jpg",
    "https://img-proxy.imgfo.com/?referer=https://manganelo.com&url=https://s3.mkklcdnv6temp.com/mangakakalot/k2/koi_hirari/vol2_chapter_9_true_intentions/22.jpg",
    "https://img-proxy.imgfo.com/?referer=https://manganelo.com&url=https://s3.mkklcdnv6temp.com/mangakakalot/k2/koi_hirari/vol2_chapter_9_true_intentions/23.jpg",
    "https://img-proxy.imgfo.com/?referer=https://manganelo.com&url=https://s3.mkklcdnv6temp.com/mangakakalot/k2/koi_hirari/vol2_chapter_9_true_intentions/24.jpg",
    "https://img-proxy.imgfo.com/?referer=https://manganelo.com&url=https://s3.mkklcdnv6temp.com/mangakakalot/k2/koi_hirari/vol2_chapter_9_true_intentions/25.jpg",
    "https://img-proxy.imgfo.com/?referer=https://manganelo.com&url=https://s3.mkklcdnv6temp.com/mangakakalot/k2/koi_hirari/vol2_chapter_9_true_intentions/26.jpg",
    "https://img-proxy.imgfo.com/?referer=https://manganelo.com&url=https://s3.mkklcdnv6temp.com/mangakakalot/k2/koi_hirari/vol2_chapter_9_true_intentions/27.jpg",
    "https://img-proxy.imgfo.com/?referer=https://manganelo.com&url=https://s3.mkklcdnv6temp.com/mangakakalot/k2/koi_hirari/vol2_chapter_9_true_intentions/28.jpg",
    "https://img-proxy.imgfo.com/?referer=https://manganelo.com&url=https://s3.mkklcdnv6temp.com/mangakakalot/k2/koi_hirari/vol2_chapter_9_true_intentions/29.jpg",
    "https://img-proxy.imgfo.com/?referer=https://manganelo.com&url=https://s3.mkklcdnv6temp.com/mangakakalot/k2/koi_hirari/vol2_chapter_9_true_intentions/30.jpg",
    "https://img-proxy.imgfo.com/?referer=https://manganelo.com&url=https://s3.mkklcdnv6temp.com/mangakakalot/k2/koi_hirari/vol2_chapter_9_true_intentions/31.jpg",
    "https://img-proxy.imgfo.com/?referer=https://manganelo.com&url=https://s3.mkklcdnv6temp.com/mangakakalot/k2/koi_hirari/vol2_chapter_9_true_intentions/32.jpg",
    "https://img-proxy.imgfo.com/?referer=https://manganelo.com&url=https://s3.mkklcdnv6temp.com/mangakakalot/k2/koi_hirari/vol2_chapter_9_true_intentions/33.jpg",
    "https://img-proxy.imgfo.com/?referer=https://manganelo.com&url=https://s3.mkklcdnv6temp.com/mangakakalot/k2/koi_hirari/vol2_chapter_9_true_intentions/34.jpg"
  ]
}