{
  "cover": "https://avt.mkklcdnv6.com/12/p/5-1583472342.jpg",
  "title": "Mahou Tsukai Kurohime",
  "original": "魔炮使者黑姬 ; 魔砲使い黒姫 ; Black Princess ; Kurohimé ; Kurohime ; Magical Gunslinger Kurohime",
  "genre": "Action, Adventure, Comedy, Drama, Ecchi, Romance, Shounen, Supernatural, Tragedy, Manga",
  "author": "Katakura Masanori",
  "status": "Completed",
  "backlink": "https://manganu.com/collections/katakura-masanori/mahou-tsukai-kurohime/",
  "description": "A young boy is saved by a mysterious gunfighter who uses magical bullets. She is the greatest magician in the world but disappears shortly after saving him. Having fallen in love with her, he trains to become a gun fighter and ten years later, his search comes to an end but his adventure has just begun.Kurohime is a buxom witch with the power to control magical guns. She once made the mistake of challenging the gods and was cursed for her foolishness! Transformed into a little girl named Himeko, she can only regain her former body and powers when she falls in love. But finding love in a world fraught with evil is no easy task.",
  "language": "English",
  "images": [
    "https://img-proxy.imgfo.com/?referer=https://manganelo.com&url=https://s6.mkklcdnv6temp.com/mangakakalot/m1/mahou_tsukai_kurohime/vol7_chapter_27_gorument_town/1.jpg",
    "https://img-proxy.imgfo.com/?referer=https://manganelo.com&url=https://s6.mkklcdnv6temp.com/mangakakalot/m1/mahou_tsukai_kurohime/vol7_chapter_27_gorument_town/2.jpg",
    "https://img-proxy.imgfo.com/?referer=https://manganelo.com&url=https://s6.mkklcdnv6temp.com/mangakakalot/m1/mahou_tsukai_kurohime/vol7_chapter_27_gorument_town/3.jpg",
    "https://img-proxy.imgfo.com/?referer=https://manganelo.com&url=https://s6.mkklcdnv6temp.com/mangakakalot/m1/mahou_tsukai_kurohime/vol7_chapter_27_gorument_town/4.jpg",
    "https://img-proxy.imgfo.com/?referer=https://manganelo.com&url=https://s6.mkklcdnv6temp.com/mangakakalot/m1/mahou_tsukai_kurohime/vol7_chapter_27_gorument_town/5.jpg",
    "https://img-proxy.imgfo.com/?referer=https://manganelo.com&url=https://s6.mkklcdnv6temp.com/mangakakalot/m1/mahou_tsukai_kurohime/vol7_chapter_27_gorument_town/6.jpg",
    "https://img-proxy.imgfo.com/?referer=https://manganelo.com&url=https://s6.mkklcdnv6temp.com/mangakakalot/m1/mahou_tsukai_kurohime/vol7_chapter_27_gorument_town/7.jpg",
    "https://img-proxy.imgfo.com/?referer=https://manganelo.com&url=https://s6.mkklcdnv6temp.com/mangakakalot/m1/mahou_tsukai_kurohime/vol7_chapter_27_gorument_town/8.jpg",
    "https://img-proxy.imgfo.com/?referer=https://manganelo.com&url=https://s6.mkklcdnv6temp.com/mangakakalot/m1/mahou_tsukai_kurohime/vol7_chapter_27_gorument_town/9.jpg",
    "https://img-proxy.imgfo.com/?referer=https://manganelo.com&url=https://s6.mkklcdnv6temp.com/mangakakalot/m1/mahou_tsukai_kurohime/vol7_chapter_27_gorument_town/10.jpg",
    "https://img-proxy.imgfo.com/?referer=https://manganelo.com&url=https://s6.mkklcdnv6temp.com/mangakakalot/m1/mahou_tsukai_kurohime/vol7_chapter_27_gorument_town/11.jpg",
    "https://img-proxy.imgfo.com/?referer=https://manganelo.com&url=https://s6.mkklcdnv6temp.com/mangakakalot/m1/mahou_tsukai_kurohime/vol7_chapter_27_gorument_town/12.jpg",
    "https://img-proxy.imgfo.com/?referer=https://manganelo.com&url=https://s6.mkklcdnv6temp.com/mangakakalot/m1/mahou_tsukai_kurohime/vol7_chapter_27_gorument_town/13.jpg",
    "https://img-proxy.imgfo.com/?referer=https://manganelo.com&url=https://s6.mkklcdnv6temp.com/mangakakalot/m1/mahou_tsukai_kurohime/vol7_chapter_27_gorument_town/14.jpg",
    "https://img-proxy.imgfo.com/?referer=https://manganelo.com&url=https://s6.mkklcdnv6temp.com/mangakakalot/m1/mahou_tsukai_kurohime/vol7_chapter_27_gorument_town/15.jpg",
    "https://img-proxy.imgfo.com/?referer=https://manganelo.com&url=https://s6.mkklcdnv6temp.com/mangakakalot/m1/mahou_tsukai_kurohime/vol7_chapter_27_gorument_town/16.jpg",
    "https://img-proxy.imgfo.com/?referer=https://manganelo.com&url=https://s6.mkklcdnv6temp.com/mangakakalot/m1/mahou_tsukai_kurohime/vol7_chapter_27_gorument_town/17.jpg",
    "https://img-proxy.imgfo.com/?referer=https://manganelo.com&url=https://s6.mkklcdnv6temp.com/mangakakalot/m1/mahou_tsukai_kurohime/vol7_chapter_27_gorument_town/18.jpg",
    "https://img-proxy.imgfo.com/?referer=https://manganelo.com&url=https://s6.mkklcdnv6temp.com/mangakakalot/m1/mahou_tsukai_kurohime/vol7_chapter_27_gorument_town/19.jpg",
    "https://img-proxy.imgfo.com/?referer=https://manganelo.com&url=https://s6.mkklcdnv6temp.com/mangakakalot/m1/mahou_tsukai_kurohime/vol7_chapter_27_gorument_town/20.jpg",
    "https://img-proxy.imgfo.com/?referer=https://manganelo.com&url=https://s6.mkklcdnv6temp.com/mangakakalot/m1/mahou_tsukai_kurohime/vol7_chapter_27_gorument_town/21.jpg",
    "https://img-proxy.imgfo.com/?referer=https://manganelo.com&url=https://s6.mkklcdnv6temp.com/mangakakalot/m1/mahou_tsukai_kurohime/vol7_chapter_27_gorument_town/22.jpg",
    "https://img-proxy.imgfo.com/?referer=https://manganelo.com&url=https://s6.mkklcdnv6temp.com/mangakakalot/m1/mahou_tsukai_kurohime/vol7_chapter_27_gorument_town/23.jpg",
    "https://img-proxy.imgfo.com/?referer=https://manganelo.com&url=https://s6.mkklcdnv6temp.com/mangakakalot/m1/mahou_tsukai_kurohime/vol7_chapter_27_gorument_town/24.jpg",
    "https://img-proxy.imgfo.com/?referer=https://manganelo.com&url=https://s6.mkklcdnv6temp.com/mangakakalot/m1/mahou_tsukai_kurohime/vol7_chapter_27_gorument_town/25.jpg",
    "https://img-proxy.imgfo.com/?referer=https://manganelo.com&url=https://s6.mkklcdnv6temp.com/mangakakalot/m1/mahou_tsukai_kurohime/vol7_chapter_27_gorument_town/26.jpg",
    "https://img-proxy.imgfo.com/?referer=https://manganelo.com&url=https://s6.mkklcdnv6temp.com/mangakakalot/m1/mahou_tsukai_kurohime/vol7_chapter_27_gorument_town/27.jpg",
    "https://img-proxy.imgfo.com/?referer=https://manganelo.com&url=https://s6.mkklcdnv6temp.com/mangakakalot/m1/mahou_tsukai_kurohime/vol7_chapter_27_gorument_town/28.jpg",
    "https://img-proxy.imgfo.com/?referer=https://manganelo.com&url=https://s6.mkklcdnv6temp.com/mangakakalot/m1/mahou_tsukai_kurohime/vol7_chapter_27_gorument_town/29.jpg",
    "https://img-proxy.imgfo.com/?referer=https://manganelo.com&url=https://s6.mkklcdnv6temp.com/mangakakalot/m1/mahou_tsukai_kurohime/vol7_chapter_27_gorument_town/30.jpg",
    "https://img-proxy.imgfo.com/?referer=https://manganelo.com&url=https://s6.mkklcdnv6temp.com/mangakakalot/m1/mahou_tsukai_kurohime/vol7_chapter_27_gorument_town/31.jpg",
    "https://img-proxy.imgfo.com/?referer=https://manganelo.com&url=https://s6.mkklcdnv6temp.com/mangakakalot/m1/mahou_tsukai_kurohime/vol7_chapter_27_gorument_town/32.jpg",
    "https://img-proxy.imgfo.com/?referer=https://manganelo.com&url=https://s6.mkklcdnv6temp.com/mangakakalot/m1/mahou_tsukai_kurohime/vol7_chapter_27_gorument_town/33.jpg",
    "https://img-proxy.imgfo.com/?referer=https://manganelo.com&url=https://s6.mkklcdnv6temp.com/mangakakalot/m1/mahou_tsukai_kurohime/vol7_chapter_27_gorument_town/34.jpg",
    "https://img-proxy.imgfo.com/?referer=https://manganelo.com&url=https://s6.mkklcdnv6temp.com/mangakakalot/m1/mahou_tsukai_kurohime/vol7_chapter_27_gorument_town/35.jpg",
    "https://img-proxy.imgfo.com/?referer=https://manganelo.com&url=https://s6.mkklcdnv6temp.com/mangakakalot/m1/mahou_tsukai_kurohime/vol7_chapter_27_gorument_town/36.jpg",
    "https://img-proxy.imgfo.com/?referer=https://manganelo.com&url=https://s6.mkklcdnv6temp.com/mangakakalot/m1/mahou_tsukai_kurohime/vol7_chapter_27_gorument_town/37.jpg",
    "https://img-proxy.imgfo.com/?referer=https://manganelo.com&url=https://s6.mkklcdnv6temp.com/mangakakalot/m1/mahou_tsukai_kurohime/vol7_chapter_27_gorument_town/38.jpg",
    "https://img-proxy.imgfo.com/?referer=https://manganelo.com&url=https://s6.mkklcdnv6temp.com/mangakakalot/m1/mahou_tsukai_kurohime/vol7_chapter_27_gorument_town/39.jpg",
    "https://img-proxy.imgfo.com/?referer=https://manganelo.com&url=https://s6.mkklcdnv6temp.com/mangakakalot/m1/mahou_tsukai_kurohime/vol7_chapter_27_gorument_town/40.jpg",
    "https://img-proxy.imgfo.com/?referer=https://manganelo.com&url=https://s6.mkklcdnv6temp.com/mangakakalot/m1/mahou_tsukai_kurohime/vol7_chapter_27_gorument_town/41.jpg",
    "https://img-proxy.imgfo.com/?referer=https://manganelo.com&url=https://s6.mkklcdnv6temp.com/mangakakalot/m1/mahou_tsukai_kurohime/vol7_chapter_27_gorument_town/42.jpg",
    "https://img-proxy.imgfo.com/?referer=https://manganelo.com&url=https://s6.mkklcdnv6temp.com/mangakakalot/m1/mahou_tsukai_kurohime/vol7_chapter_27_gorument_town/43.jpg",
    "https://img-proxy.imgfo.com/?referer=https://manganelo.com&url=https://s6.mkklcdnv6temp.com/mangakakalot/m1/mahou_tsukai_kurohime/vol7_chapter_27_gorument_town/44.jpg"
  ]
}