{
  "cover": "https://avt.mkklcdnv6.com/17/m/5-1583472528.jpg",
  "title": "Heart No Kuni No Alice",
  "original": "ジョーカーの国のアリス ～Wonderful Wonder World ; ハートの国のアリス 〜Wonderful Wonder World〜 ; 心之国的爱丽丝 ; 心之國的愛麗絲 ; อลิสในแดนหัวใจ ; Alice in Heartland ; Alice in the Country of Hearts ; Joker no Kuni no Alice - Wonderful Wonder World ; Wonderful Wonder World (German) ; Alice in Tara Minunilor (romanian) ; Alice au royaume de coeur (français) ; Alice in Heartland (Italian)",
  "genre": "Action, Comedy, Drama, Fantasy, Harem, Mystery, Psychological, Romance, Shoujo, Manga",
  "author": "Quinrose",
  "status": "Completed",
  "backlink": "https://manganu.com/collections/quinrose/heart-no-kuni-no-alice/",
  "description": "The girly but bloody otome game re-imagining of Lewis Carroll's classic fantasy novel Alice's Adventures in Wonderland with bishounen characters and added romance.\nA parody of Alice's Adventures in Wonderland where Alice is smart and non-doormatlike.\nIn this story, Alice is not all what she seems. She is practical, strong, yet darkly cynical. Instead of the traditional story, Alice is kidnapped unwillingly by a mysterious (yet somewhat bishie-looking) man with bunny ears into a place called Heartland. Stuck in Heartland due to a trick by the mysterious bunny eared man, she meets the residents of this world. Along the way, Alice meets Blood, handsome mafia leader; Ace, the psycho yet charming knight and more…What should Alice do in such a world!?",
  "language": "English",
  "images": [
    "https://img-proxy.imgfo.com/?referer=https://manganelo.com&url=https://s3.mkklcdnv6temp.com/mangakakalot/h1/heart_no_kuni_no_alice/vol1_chapter_2_on_the_way/1.jpg",
    "https://img-proxy.imgfo.com/?referer=https://manganelo.com&url=https://s3.mkklcdnv6temp.com/mangakakalot/h1/heart_no_kuni_no_alice/vol1_chapter_2_on_the_way/2.jpg",
    "https://img-proxy.imgfo.com/?referer=https://manganelo.com&url=https://s3.mkklcdnv6temp.com/mangakakalot/h1/heart_no_kuni_no_alice/vol1_chapter_2_on_the_way/3.jpg",
    "https://img-proxy.imgfo.com/?referer=https://manganelo.com&url=https://s3.mkklcdnv6temp.com/mangakakalot/h1/heart_no_kuni_no_alice/vol1_chapter_2_on_the_way/4.jpg",
    "https://img-proxy.imgfo.com/?referer=https://manganelo.com&url=https://s3.mkklcdnv6temp.com/mangakakalot/h1/heart_no_kuni_no_alice/vol1_chapter_2_on_the_way/5.jpg",
    "https://img-proxy.imgfo.com/?referer=https://manganelo.com&url=https://s3.mkklcdnv6temp.com/mangakakalot/h1/heart_no_kuni_no_alice/vol1_chapter_2_on_the_way/6.jpg",
    "https://img-proxy.imgfo.com/?referer=https://manganelo.com&url=https://s3.mkklcdnv6temp.com/mangakakalot/h1/heart_no_kuni_no_alice/vol1_chapter_2_on_the_way/7.jpg",
    "https://img-proxy.imgfo.com/?referer=https://manganelo.com&url=https://s3.mkklcdnv6temp.com/mangakakalot/h1/heart_no_kuni_no_alice/vol1_chapter_2_on_the_way/8.jpg",
    "https://img-proxy.imgfo.com/?referer=https://manganelo.com&url=https://s3.mkklcdnv6temp.com/mangakakalot/h1/heart_no_kuni_no_alice/vol1_chapter_2_on_the_way/9.jpg",
    "https://img-proxy.imgfo.com/?referer=https://manganelo.com&url=https://s3.mkklcdnv6temp.com/mangakakalot/h1/heart_no_kuni_no_alice/vol1_chapter_2_on_the_way/10.jpg",
    "https://img-proxy.imgfo.com/?referer=https://manganelo.com&url=https://s3.mkklcdnv6temp.com/mangakakalot/h1/heart_no_kuni_no_alice/vol1_chapter_2_on_the_way/11.jpg",
    "https://img-proxy.imgfo.com/?referer=https://manganelo.com&url=https://s3.mkklcdnv6temp.com/mangakakalot/h1/heart_no_kuni_no_alice/vol1_chapter_2_on_the_way/12.jpg",
    "https://img-proxy.imgfo.com/?referer=https://manganelo.com&url=https://s3.mkklcdnv6temp.com/mangakakalot/h1/heart_no_kuni_no_alice/vol1_chapter_2_on_the_way/13.jpg",
    "https://img-proxy.imgfo.com/?referer=https://manganelo.com&url=https://s3.mkklcdnv6temp.com/mangakakalot/h1/heart_no_kuni_no_alice/vol1_chapter_2_on_the_way/14.jpg",
    "https://img-proxy.imgfo.com/?referer=https://manganelo.com&url=https://s3.mkklcdnv6temp.com/mangakakalot/h1/heart_no_kuni_no_alice/vol1_chapter_2_on_the_way/15.jpg",
    "https://img-proxy.imgfo.com/?referer=https://manganelo.com&url=https://s3.mkklcdnv6temp.com/mangakakalot/h1/heart_no_kuni_no_alice/vol1_chapter_2_on_the_way/16.jpg",
    "https://img-proxy.imgfo.com/?referer=https://manganelo.com&url=https://s3.mkklcdnv6temp.com/mangakakalot/h1/heart_no_kuni_no_alice/vol1_chapter_2_on_the_way/17.jpg",
    "https://img-proxy.imgfo.com/?referer=https://manganelo.com&url=https://s3.mkklcdnv6temp.com/mangakakalot/h1/heart_no_kuni_no_alice/vol1_chapter_2_on_the_way/18.jpg",
    "https://img-proxy.imgfo.com/?referer=https://manganelo.com&url=https://s3.mkklcdnv6temp.com/mangakakalot/h1/heart_no_kuni_no_alice/vol1_chapter_2_on_the_way/19.jpg",
    "https://img-proxy.imgfo.com/?referer=https://manganelo.com&url=https://s3.mkklcdnv6temp.com/mangakakalot/h1/heart_no_kuni_no_alice/vol1_chapter_2_on_the_way/20.jpg",
    "https://img-proxy.imgfo.com/?referer=https://manganelo.com&url=https://s3.mkklcdnv6temp.com/mangakakalot/h1/heart_no_kuni_no_alice/vol1_chapter_2_on_the_way/21.jpg",
    "https://img-proxy.imgfo.com/?referer=https://manganelo.com&url=https://s3.mkklcdnv6temp.com/mangakakalot/h1/heart_no_kuni_no_alice/vol1_chapter_2_on_the_way/22.jpg",
    "https://img-proxy.imgfo.com/?referer=https://manganelo.com&url=https://s3.mkklcdnv6temp.com/mangakakalot/h1/heart_no_kuni_no_alice/vol1_chapter_2_on_the_way/23.jpg",
    "https://img-proxy.imgfo.com/?referer=https://manganelo.com&url=https://s3.mkklcdnv6temp.com/mangakakalot/h1/heart_no_kuni_no_alice/vol1_chapter_2_on_the_way/24.jpg",
    "https://img-proxy.imgfo.com/?referer=https://manganelo.com&url=https://s3.mkklcdnv6temp.com/mangakakalot/h1/heart_no_kuni_no_alice/vol1_chapter_2_on_the_way/25.jpg",
    "https://img-proxy.imgfo.com/?referer=https://manganelo.com&url=https://s3.mkklcdnv6temp.com/mangakakalot/h1/heart_no_kuni_no_alice/vol1_chapter_2_on_the_way/26.jpg",
    "https://img-proxy.imgfo.com/?referer=https://manganelo.com&url=https://s3.mkklcdnv6temp.com/mangakakalot/h1/heart_no_kuni_no_alice/vol1_chapter_2_on_the_way/27.jpg",
    "https://img-proxy.imgfo.com/?referer=https://manganelo.com&url=https://s3.mkklcdnv6temp.com/mangakakalot/h1/heart_no_kuni_no_alice/vol1_chapter_2_on_the_way/28.jpg",
    "https://img-proxy.imgfo.com/?referer=https://manganelo.com&url=https://s3.mkklcdnv6temp.com/mangakakalot/h1/heart_no_kuni_no_alice/vol1_chapter_2_on_the_way/29.jpg",
    "https://img-proxy.imgfo.com/?referer=https://manganelo.com&url=https://s3.mkklcdnv6temp.com/mangakakalot/h1/heart_no_kuni_no_alice/vol1_chapter_2_on_the_way/30.jpg",
    "https://img-proxy.imgfo.com/?referer=https://manganelo.com&url=https://s3.mkklcdnv6temp.com/mangakakalot/h1/heart_no_kuni_no_alice/vol1_chapter_2_on_the_way/31.jpg",
    "https://img-proxy.imgfo.com/?referer=https://manganelo.com&url=https://s3.mkklcdnv6temp.com/mangakakalot/h1/heart_no_kuni_no_alice/vol1_chapter_2_on_the_way/32.jpg",
    "https://img-proxy.imgfo.com/?referer=https://manganelo.com&url=https://s3.mkklcdnv6temp.com/mangakakalot/h1/heart_no_kuni_no_alice/vol1_chapter_2_on_the_way/33.jpg",
    "https://img-proxy.imgfo.com/?referer=https://manganelo.com&url=https://s3.mkklcdnv6temp.com/mangakakalot/h1/heart_no_kuni_no_alice/vol1_chapter_2_on_the_way/34.jpg",
    "https://img-proxy.imgfo.com/?referer=https://manganelo.com&url=https://s3.mkklcdnv6temp.com/mangakakalot/h1/heart_no_kuni_no_alice/vol1_chapter_2_on_the_way/35.jpg",
    "https://img-proxy.imgfo.com/?referer=https://manganelo.com&url=https://s3.mkklcdnv6temp.com/mangakakalot/h1/heart_no_kuni_no_alice/vol1_chapter_2_on_the_way/36.jpg",
    "https://img-proxy.imgfo.com/?referer=https://manganelo.com&url=https://s3.mkklcdnv6temp.com/mangakakalot/h1/heart_no_kuni_no_alice/vol1_chapter_2_on_the_way/37.jpg"
  ]
}