{
  "cover": "https://avt.mkklcdnv6.com/14/x/5-1583472426.jpg",
  "title": "Kimiiro Focus",
  "original": "キミイロフォーカス ; 君色写真 ; 天才寫真少年 ; I Focus on Your Color ; Kimi Iro Focus ; Kimi-iro Focus",
  "genre": "Comedy, Ecchi, Harem, Romance, School life, Shounen, Manga",
  "author": "Chiaki Taro",
  "status": "Completed",
  "backlink": "https://manganu.com/collections/chiaki-taro/kimiiro-focus/",
  "description": "Photography is the art to grasp beauty with the one and only tool, a camera. Ooji's dream is to become a photographer that photographs at the front lines of war, to take pictures of historical events taking place in front of his eyes. However, his childhood friend, Sumire, doesn't think that he is capable of becoming one. In his photography club, Ooji shows his photos to the group, and his upperclassman, Ran, points out that Sumire is a good target to photograph. Ooji manages to get permission to take photos of Sumire, and during his shoot, Sumire notices that Ooji is acting differently than before. Later they find out that one of Ooji's pictures won an award! Sumire congratulates him, but Ooji sees beyond his award. He claims that he learned that he has much more potential than he thinks. Ran, overseeing this, plans to take Ooji to the next level so he can capture true beauty through the lens of a camera!",
  "language": "English",
  "images": [
    "https://img-proxy.imgfo.com/?referer=https://manganelo.com&url=https://s7.mkklcdnv6temp.com/mangakakalot/k1/kimiiro_focus/vol8_chapter_29_only_yesterday/1.jpg",
    "https://img-proxy.imgfo.com/?referer=https://manganelo.com&url=https://s7.mkklcdnv6temp.com/mangakakalot/k1/kimiiro_focus/vol8_chapter_29_only_yesterday/2.jpg",
    "https://img-proxy.imgfo.com/?referer=https://manganelo.com&url=https://s7.mkklcdnv6temp.com/mangakakalot/k1/kimiiro_focus/vol8_chapter_29_only_yesterday/3.jpg",
    "https://img-proxy.imgfo.com/?referer=https://manganelo.com&url=https://s7.mkklcdnv6temp.com/mangakakalot/k1/kimiiro_focus/vol8_chapter_29_only_yesterday/4.jpg",
    "https://img-proxy.imgfo.com/?referer=https://manganelo.com&url=https://s7.mkklcdnv6temp.com/mangakakalot/k1/kimiiro_focus/vol8_chapter_29_only_yesterday/5.jpg",
    "https://img-proxy.imgfo.com/?referer=https://manganelo.com&url=https://s7.mkklcdnv6temp.com/mangakakalot/k1/kimiiro_focus/vol8_chapter_29_only_yesterday/6.jpg",
    "https://img-proxy.imgfo.com/?referer=https://manganelo.com&url=https://s7.mkklcdnv6temp.com/mangakakalot/k1/kimiiro_focus/vol8_chapter_29_only_yesterday/7.jpg",
    "https://img-proxy.imgfo.com/?referer=https://manganelo.com&url=https://s7.mkklcdnv6temp.com/mangakakalot/k1/kimiiro_focus/vol8_chapter_29_only_yesterday/8.jpg",
    "https://img-proxy.imgfo.com/?referer=https://manganelo.com&url=https://s7.mkklcdnv6temp.com/mangakakalot/k1/kimiiro_focus/vol8_chapter_29_only_yesterday/9.jpg",
    "https://img-proxy.imgfo.com/?referer=https://manganelo.com&url=https://s7.mkklcdnv6temp.com/mangakakalot/k1/kimiiro_focus/vol8_chapter_29_only_yesterday/10.jpg",
    "https://img-proxy.imgfo.com/?referer=https://manganelo.com&url=https://s7.mkklcdnv6temp.com/mangakakalot/k1/kimiiro_focus/vol8_chapter_29_only_yesterday/11.jpg",
    "https://img-proxy.imgfo.com/?referer=https://manganelo.com&url=https://s7.mkklcdnv6temp.com/mangakakalot/k1/kimiiro_focus/vol8_chapter_29_only_yesterday/12.jpg",
    "https://img-proxy.imgfo.com/?referer=https://manganelo.com&url=https://s7.mkklcdnv6temp.com/mangakakalot/k1/kimiiro_focus/vol8_chapter_29_only_yesterday/13.jpg",
    "https://img-proxy.imgfo.com/?referer=https://manganelo.com&url=https://s7.mkklcdnv6temp.com/mangakakalot/k1/kimiiro_focus/vol8_chapter_29_only_yesterday/14.jpg",
    "https://img-proxy.imgfo.com/?referer=https://manganelo.com&url=https://s7.mkklcdnv6temp.com/mangakakalot/k1/kimiiro_focus/vol8_chapter_29_only_yesterday/15.jpg",
    "https://img-proxy.imgfo.com/?referer=https://manganelo.com&url=https://s7.mkklcdnv6temp.com/mangakakalot/k1/kimiiro_focus/vol8_chapter_29_only_yesterday/16.jpg",
    "https://img-proxy.imgfo.com/?referer=https://manganelo.com&url=https://s7.mkklcdnv6temp.com/mangakakalot/k1/kimiiro_focus/vol8_chapter_29_only_yesterday/17.jpg",
    "https://img-proxy.imgfo.com/?referer=https://manganelo.com&url=https://s7.mkklcdnv6temp.com/mangakakalot/k1/kimiiro_focus/vol8_chapter_29_only_yesterday/18.jpg",
    "https://img-proxy.imgfo.com/?referer=https://manganelo.com&url=https://s7.mkklcdnv6temp.com/mangakakalot/k1/kimiiro_focus/vol8_chapter_29_only_yesterday/19.jpg",
    "https://img-proxy.imgfo.com/?referer=https://manganelo.com&url=https://s7.mkklcdnv6temp.com/mangakakalot/k1/kimiiro_focus/vol8_chapter_29_only_yesterday/20.jpg",
    "https://img-proxy.imgfo.com/?referer=https://manganelo.com&url=https://s7.mkklcdnv6temp.com/mangakakalot/k1/kimiiro_focus/vol8_chapter_29_only_yesterday/21.jpg",
    "https://img-proxy.imgfo.com/?referer=https://manganelo.com&url=https://s7.mkklcdnv6temp.com/mangakakalot/k1/kimiiro_focus/vol8_chapter_29_only_yesterday/22.jpg",
    "https://img-proxy.imgfo.com/?referer=https://manganelo.com&url=https://s7.mkklcdnv6temp.com/mangakakalot/k1/kimiiro_focus/vol8_chapter_29_only_yesterday/23.jpg",
    "https://img-proxy.imgfo.com/?referer=https://manganelo.com&url=https://s7.mkklcdnv6temp.com/mangakakalot/k1/kimiiro_focus/vol8_chapter_29_only_yesterday/24.jpg",
    "https://img-proxy.imgfo.com/?referer=https://manganelo.com&url=https://s7.mkklcdnv6temp.com/mangakakalot/k1/kimiiro_focus/vol8_chapter_29_only_yesterday/25.jpg",
    "https://img-proxy.imgfo.com/?referer=https://manganelo.com&url=https://s7.mkklcdnv6temp.com/mangakakalot/k1/kimiiro_focus/vol8_chapter_29_only_yesterday/26.jpg",
    "https://img-proxy.imgfo.com/?referer=https://manganelo.com&url=https://s7.mkklcdnv6temp.com/mangakakalot/k1/kimiiro_focus/vol8_chapter_29_only_yesterday/27.jpg",
    "https://img-proxy.imgfo.com/?referer=https://manganelo.com&url=https://s7.mkklcdnv6temp.com/mangakakalot/k1/kimiiro_focus/vol8_chapter_29_only_yesterday/28.jpg",
    "https://img-proxy.imgfo.com/?referer=https://manganelo.com&url=https://s7.mkklcdnv6temp.com/mangakakalot/k1/kimiiro_focus/vol8_chapter_29_only_yesterday/29.jpg",
    "https://img-proxy.imgfo.com/?referer=https://manganelo.com&url=https://s7.mkklcdnv6temp.com/mangakakalot/k1/kimiiro_focus/vol8_chapter_29_only_yesterday/30.jpg",
    "https://img-proxy.imgfo.com/?referer=https://manganelo.com&url=https://s7.mkklcdnv6temp.com/mangakakalot/k1/kimiiro_focus/vol8_chapter_29_only_yesterday/31.jpg",
    "https://img-proxy.imgfo.com/?referer=https://manganelo.com&url=https://s7.mkklcdnv6temp.com/mangakakalot/k1/kimiiro_focus/vol8_chapter_29_only_yesterday/32.jpg",
    "https://img-proxy.imgfo.com/?referer=https://manganelo.com&url=https://s7.mkklcdnv6temp.com/mangakakalot/k1/kimiiro_focus/vol8_chapter_29_only_yesterday/33.jpg",
    "https://img-proxy.imgfo.com/?referer=https://manganelo.com&url=https://s7.mkklcdnv6temp.com/mangakakalot/k1/kimiiro_focus/vol8_chapter_29_only_yesterday/34.jpg",
    "https://img-proxy.imgfo.com/?referer=https://manganelo.com&url=https://s7.mkklcdnv6temp.com/mangakakalot/k1/kimiiro_focus/vol8_chapter_29_only_yesterday/35.jpg",
    "https://img-proxy.imgfo.com/?referer=https://manganelo.com&url=https://s7.mkklcdnv6temp.com/mangakakalot/k1/kimiiro_focus/vol8_chapter_29_only_yesterday/36.jpg",
    "https://img-proxy.imgfo.com/?referer=https://manganelo.com&url=https://s7.mkklcdnv6temp.com/mangakakalot/k1/kimiiro_focus/vol8_chapter_29_only_yesterday/37.jpg",
    "https://img-proxy.imgfo.com/?referer=https://manganelo.com&url=https://s7.mkklcdnv6temp.com/mangakakalot/k1/kimiiro_focus/vol8_chapter_29_only_yesterday/38.jpg",
    "https://img-proxy.imgfo.com/?referer=https://manganelo.com&url=https://s7.mkklcdnv6temp.com/mangakakalot/k1/kimiiro_focus/vol8_chapter_29_only_yesterday/39.jpg",
    "https://img-proxy.imgfo.com/?referer=https://manganelo.com&url=https://s7.mkklcdnv6temp.com/mangakakalot/k1/kimiiro_focus/vol8_chapter_29_only_yesterday/40.jpg",
    "https://img-proxy.imgfo.com/?referer=https://manganelo.com&url=https://s7.mkklcdnv6temp.com/mangakakalot/k1/kimiiro_focus/vol8_chapter_29_only_yesterday/41.jpg",
    "https://img-proxy.imgfo.com/?referer=https://manganelo.com&url=https://s7.mkklcdnv6temp.com/mangakakalot/k1/kimiiro_focus/vol8_chapter_29_only_yesterday/42.jpg",
    "https://img-proxy.imgfo.com/?referer=https://manganelo.com&url=https://s7.mkklcdnv6temp.com/mangakakalot/k1/kimiiro_focus/vol8_chapter_29_only_yesterday/43.jpg",
    "https://img-proxy.imgfo.com/?referer=https://manganelo.com&url=https://s7.mkklcdnv6temp.com/mangakakalot/k1/kimiiro_focus/vol8_chapter_29_only_yesterday/44.jpg",
    "https://img-proxy.imgfo.com/?referer=https://manganelo.com&url=https://s7.mkklcdnv6temp.com/mangakakalot/k1/kimiiro_focus/vol8_chapter_29_only_yesterday/45.jpg",
    "https://img-proxy.imgfo.com/?referer=https://manganelo.com&url=https://s7.mkklcdnv6temp.com/mangakakalot/k1/kimiiro_focus/vol8_chapter_29_only_yesterday/46.jpg",
    "https://img-proxy.imgfo.com/?referer=https://manganelo.com&url=https://s7.mkklcdnv6temp.com/mangakakalot/k1/kimiiro_focus/vol8_chapter_29_only_yesterday/47.jpg"
  ]
}