{
  "cover": "https://avt.mkklcdnv6.com/10/g/3-1583468044.jpg",
  "title": "The Queen's Knight",
  "original": "Рыцарь Королевы ; 幻影骑士 ; 여왕의 기사 ; Der Ritter von der Königin ; Hiệp sĩ của Nữ hoàng ; Královnin Rytíř ; Queen's Knight ; Ritter der Königin",
  "genre": "Action, Adventure, Drama, Fantasy, Historical, Romance, Shoujo, Supernatural, Tragedy, Manga",
  "author": "Kim Kang Won",
  "status": "Completed",
  "backlink": "https://manganu.com/collections/kim-kang-won/the-queens-knight/",
  "description": "When Yuna Lee's mother moves to Germany to pursue a music degree, she's left to stay with her father, a university professor, and her three older brothers, who are fiercely overprotective of her.\nDuring her summer vacation, she visits her mother in Germany, where she falls off a cliff and is rescued by Rieno, an 18-year-old knight living in the land of Phantasma. Rieno makes a deal with Yuna: If he saves her life, She must come with him and be the Queen of Phantasma.\nAfter agreeing, she goes back home, only to return to Germany some months later, and is whisked away to Phantasma by Rieno. Now, she must cope with being the Queen of Phantasma, while forgetting the world she came from.",
  "language": "English",
  "images": [
    "https://img-proxy.imgfo.com/?referer=https://manganelo.com&url=https://s3.mkklcdnv6temp.com/mangakakalot/t1/the_queens_knight/vol03_chapter_1_fixed/1.jpg",
    "https://img-proxy.imgfo.com/?referer=https://manganelo.com&url=https://s3.mkklcdnv6temp.com/mangakakalot/t1/the_queens_knight/vol03_chapter_1_fixed/2.jpg",
    "https://img-proxy.imgfo.com/?referer=https://manganelo.com&url=https://s3.mkklcdnv6temp.com/mangakakalot/t1/the_queens_knight/vol03_chapter_1_fixed/3.jpg",
    "https://img-proxy.imgfo.com/?referer=https://manganelo.com&url=https://s3.mkklcdnv6temp.com/mangakakalot/t1/the_queens_knight/vol03_chapter_1_fixed/4.jpg",
    "https://img-proxy.imgfo.com/?referer=https://manganelo.com&url=https://s3.mkklcdnv6temp.com/mangakakalot/t1/the_queens_knight/vol03_chapter_1_fixed/5.jpg",
    "https://img-proxy.imgfo.com/?referer=https://manganelo.com&url=https://s3.mkklcdnv6temp.com/mangakakalot/t1/the_queens_knight/vol03_chapter_1_fixed/6.jpg",
    "https://img-proxy.imgfo.com/?referer=https://manganelo.com&url=https://s3.mkklcdnv6temp.com/mangakakalot/t1/the_queens_knight/vol03_chapter_1_fixed/7.jpg",
    "https://img-proxy.imgfo.com/?referer=https://manganelo.com&url=https://s3.mkklcdnv6temp.com/mangakakalot/t1/the_queens_knight/vol03_chapter_1_fixed/8.jpg",
    "https://img-proxy.imgfo.com/?referer=https://manganelo.com&url=https://s3.mkklcdnv6temp.com/mangakakalot/t1/the_queens_knight/vol03_chapter_1_fixed/9.jpg",
    "https://img-proxy.imgfo.com/?referer=https://manganelo.com&url=https://s3.mkklcdnv6temp.com/mangakakalot/t1/the_queens_knight/vol03_chapter_1_fixed/10.jpg",
    "https://img-proxy.imgfo.com/?referer=https://manganelo.com&url=https://s3.mkklcdnv6temp.com/mangakakalot/t1/the_queens_knight/vol03_chapter_1_fixed/11.jpg",
    "https://img-proxy.imgfo.com/?referer=https://manganelo.com&url=https://s3.mkklcdnv6temp.com/mangakakalot/t1/the_queens_knight/vol03_chapter_1_fixed/12.jpg",
    "https://img-proxy.imgfo.com/?referer=https://manganelo.com&url=https://s3.mkklcdnv6temp.com/mangakakalot/t1/the_queens_knight/vol03_chapter_1_fixed/13.jpg",
    "https://img-proxy.imgfo.com/?referer=https://manganelo.com&url=https://s3.mkklcdnv6temp.com/mangakakalot/t1/the_queens_knight/vol03_chapter_1_fixed/14.jpg",
    "https://img-proxy.imgfo.com/?referer=https://manganelo.com&url=https://s3.mkklcdnv6temp.com/mangakakalot/t1/the_queens_knight/vol03_chapter_1_fixed/15.jpg",
    "https://img-proxy.imgfo.com/?referer=https://manganelo.com&url=https://s3.mkklcdnv6temp.com/mangakakalot/t1/the_queens_knight/vol03_chapter_1_fixed/16.jpg",
    "https://img-proxy.imgfo.com/?referer=https://manganelo.com&url=https://s3.mkklcdnv6temp.com/mangakakalot/t1/the_queens_knight/vol03_chapter_1_fixed/17.jpg",
    "https://img-proxy.imgfo.com/?referer=https://manganelo.com&url=https://s3.mkklcdnv6temp.com/mangakakalot/t1/the_queens_knight/vol03_chapter_1_fixed/18.jpg",
    "https://img-proxy.imgfo.com/?referer=https://manganelo.com&url=https://s3.mkklcdnv6temp.com/mangakakalot/t1/the_queens_knight/vol03_chapter_1_fixed/19.jpg",
    "https://img-proxy.imgfo.com/?referer=https://manganelo.com&url=https://s3.mkklcdnv6temp.com/mangakakalot/t1/the_queens_knight/vol03_chapter_1_fixed/20.jpg",
    "https://img-proxy.imgfo.com/?referer=https://manganelo.com&url=https://s3.mkklcdnv6temp.com/mangakakalot/t1/the_queens_knight/vol03_chapter_1_fixed/21.jpg",
    "https://img-proxy.imgfo.com/?referer=https://manganelo.com&url=https://s3.mkklcdnv6temp.com/mangakakalot/t1/the_queens_knight/vol03_chapter_1_fixed/22.jpg",
    "https://img-proxy.imgfo.com/?referer=https://manganelo.com&url=https://s3.mkklcdnv6temp.com/mangakakalot/t1/the_queens_knight/vol03_chapter_1_fixed/23.jpg",
    "https://img-proxy.imgfo.com/?referer=https://manganelo.com&url=https://s3.mkklcdnv6temp.com/mangakakalot/t1/the_queens_knight/vol03_chapter_1_fixed/24.jpg",
    "https://img-proxy.imgfo.com/?referer=https://manganelo.com&url=https://s3.mkklcdnv6temp.com/mangakakalot/t1/the_queens_knight/vol03_chapter_1_fixed/25.jpg",
    "https://img-proxy.imgfo.com/?referer=https://manganelo.com&url=https://s3.mkklcdnv6temp.com/mangakakalot/t1/the_queens_knight/vol03_chapter_1_fixed/26.jpg",
    "https://img-proxy.imgfo.com/?referer=https://manganelo.com&url=https://s3.mkklcdnv6temp.com/mangakakalot/t1/the_queens_knight/vol03_chapter_1_fixed/27.jpg",
    "https://img-proxy.imgfo.com/?referer=https://manganelo.com&url=https://s3.mkklcdnv6temp.com/mangakakalot/t1/the_queens_knight/vol03_chapter_1_fixed/28.jpg",
    "https://img-proxy.imgfo.com/?referer=https://manganelo.com&url=https://s3.mkklcdnv6temp.com/mangakakalot/t1/the_queens_knight/vol03_chapter_1_fixed/29.jpg",
    "https://img-proxy.imgfo.com/?referer=https://manganelo.com&url=https://s3.mkklcdnv6temp.com/mangakakalot/t1/the_queens_knight/vol03_chapter_1_fixed/30.jpg",
    "https://img-proxy.imgfo.com/?referer=https://manganelo.com&url=https://s3.mkklcdnv6temp.com/mangakakalot/t1/the_queens_knight/vol03_chapter_1_fixed/31.jpg",
    "https://img-proxy.imgfo.com/?referer=https://manganelo.com&url=https://s3.mkklcdnv6temp.com/mangakakalot/t1/the_queens_knight/vol03_chapter_1_fixed/32.jpg",
    "https://img-proxy.imgfo.com/?referer=https://manganelo.com&url=https://s3.mkklcdnv6temp.com/mangakakalot/t1/the_queens_knight/vol03_chapter_1_fixed/33.jpg",
    "https://img-proxy.imgfo.com/?referer=https://manganelo.com&url=https://s3.mkklcdnv6temp.com/mangakakalot/t1/the_queens_knight/vol03_chapter_1_fixed/34.jpg",
    "https://img-proxy.imgfo.com/?referer=https://manganelo.com&url=https://s3.mkklcdnv6temp.com/mangakakalot/t1/the_queens_knight/vol03_chapter_1_fixed/35.jpg",
    "https://img-proxy.imgfo.com/?referer=https://manganelo.com&url=https://s3.mkklcdnv6temp.com/mangakakalot/t1/the_queens_knight/vol03_chapter_1_fixed/36.jpg",
    "https://img-proxy.imgfo.com/?referer=https://manganelo.com&url=https://s3.mkklcdnv6temp.com/mangakakalot/t1/the_queens_knight/vol03_chapter_1_fixed/37.jpg",
    "https://img-proxy.imgfo.com/?referer=https://manganelo.com&url=https://s3.mkklcdnv6temp.com/mangakakalot/t1/the_queens_knight/vol03_chapter_1_fixed/38.jpg",
    "https://img-proxy.imgfo.com/?referer=https://manganelo.com&url=https://s3.mkklcdnv6temp.com/mangakakalot/t1/the_queens_knight/vol03_chapter_1_fixed/39.jpg",
    "https://img-proxy.imgfo.com/?referer=https://manganelo.com&url=https://s3.mkklcdnv6temp.com/mangakakalot/t1/the_queens_knight/vol03_chapter_1_fixed/40.jpg",
    "https://img-proxy.imgfo.com/?referer=https://manganelo.com&url=https://s3.mkklcdnv6temp.com/mangakakalot/t1/the_queens_knight/vol03_chapter_1_fixed/41.jpg",
    "https://img-proxy.imgfo.com/?referer=https://manganelo.com&url=https://s3.mkklcdnv6temp.com/mangakakalot/t1/the_queens_knight/vol03_chapter_1_fixed/42.jpg",
    "https://img-proxy.imgfo.com/?referer=https://manganelo.com&url=https://s3.mkklcdnv6temp.com/mangakakalot/t1/the_queens_knight/vol03_chapter_1_fixed/43.jpg",
    "https://img-proxy.imgfo.com/?referer=https://manganelo.com&url=https://s3.mkklcdnv6temp.com/mangakakalot/t1/the_queens_knight/vol03_chapter_1_fixed/44.jpg",
    "https://img-proxy.imgfo.com/?referer=https://manganelo.com&url=https://s3.mkklcdnv6temp.com/mangakakalot/t1/the_queens_knight/vol03_chapter_1_fixed/45.jpg",
    "https://img-proxy.imgfo.com/?referer=https://manganelo.com&url=https://s3.mkklcdnv6temp.com/mangakakalot/t1/the_queens_knight/vol03_chapter_1_fixed/46.jpg",
    "https://img-proxy.imgfo.com/?referer=https://manganelo.com&url=https://s3.mkklcdnv6temp.com/mangakakalot/t1/the_queens_knight/vol03_chapter_1_fixed/47.jpg",
    "https://img-proxy.imgfo.com/?referer=https://manganelo.com&url=https://s3.mkklcdnv6temp.com/mangakakalot/t1/the_queens_knight/vol03_chapter_1_fixed/48.jpg",
    "https://img-proxy.imgfo.com/?referer=https://manganelo.com&url=https://s3.mkklcdnv6temp.com/mangakakalot/t1/the_queens_knight/vol03_chapter_1_fixed/49.jpg",
    "https://img-proxy.imgfo.com/?referer=https://manganelo.com&url=https://s3.mkklcdnv6temp.com/mangakakalot/t1/the_queens_knight/vol03_chapter_1_fixed/50.jpg",
    "https://img-proxy.imgfo.com/?referer=https://manganelo.com&url=https://s3.mkklcdnv6temp.com/mangakakalot/t1/the_queens_knight/vol03_chapter_1_fixed/51.jpg",
    "https://img-proxy.imgfo.com/?referer=https://manganelo.com&url=https://s3.mkklcdnv6temp.com/mangakakalot/t1/the_queens_knight/vol03_chapter_1_fixed/52.jpg",
    "https://img-proxy.imgfo.com/?referer=https://manganelo.com&url=https://s3.mkklcdnv6temp.com/mangakakalot/t1/the_queens_knight/vol03_chapter_1_fixed/53.jpg",
    "https://img-proxy.imgfo.com/?referer=https://manganelo.com&url=https://s3.mkklcdnv6temp.com/mangakakalot/t1/the_queens_knight/vol03_chapter_1_fixed/54.jpg",
    "https://img-proxy.imgfo.com/?referer=https://manganelo.com&url=https://s3.mkklcdnv6temp.com/mangakakalot/t1/the_queens_knight/vol03_chapter_1_fixed/55.jpg",
    "https://img-proxy.imgfo.com/?referer=https://manganelo.com&url=https://s3.mkklcdnv6temp.com/mangakakalot/t1/the_queens_knight/vol03_chapter_1_fixed/56.jpg",
    "https://img-proxy.imgfo.com/?referer=https://manganelo.com&url=https://s3.mkklcdnv6temp.com/mangakakalot/t1/the_queens_knight/vol03_chapter_1_fixed/57.jpg",
    "https://img-proxy.imgfo.com/?referer=https://manganelo.com&url=https://s3.mkklcdnv6temp.com/mangakakalot/t1/the_queens_knight/vol03_chapter_1_fixed/58.jpg",
    "https://img-proxy.imgfo.com/?referer=https://manganelo.com&url=https://s3.mkklcdnv6temp.com/mangakakalot/t1/the_queens_knight/vol03_chapter_1_fixed/59.jpg",
    "https://img-proxy.imgfo.com/?referer=https://manganelo.com&url=https://s3.mkklcdnv6temp.com/mangakakalot/t1/the_queens_knight/vol03_chapter_1_fixed/60.jpg",
    "https://img-proxy.imgfo.com/?referer=https://manganelo.com&url=https://s3.mkklcdnv6temp.com/mangakakalot/t1/the_queens_knight/vol03_chapter_1_fixed/61.jpg",
    "https://img-proxy.imgfo.com/?referer=https://manganelo.com&url=https://s3.mkklcdnv6temp.com/mangakakalot/t1/the_queens_knight/vol03_chapter_1_fixed/62.jpg",
    "https://img-proxy.imgfo.com/?referer=https://manganelo.com&url=https://s3.mkklcdnv6temp.com/mangakakalot/t1/the_queens_knight/vol03_chapter_1_fixed/63.jpg",
    "https://img-proxy.imgfo.com/?referer=https://manganelo.com&url=https://s3.mkklcdnv6temp.com/mangakakalot/t1/the_queens_knight/vol03_chapter_1_fixed/64.jpg",
    "https://img-proxy.imgfo.com/?referer=https://manganelo.com&url=https://s3.mkklcdnv6temp.com/mangakakalot/t1/the_queens_knight/vol03_chapter_1_fixed/65.jpg",
    "https://img-proxy.imgfo.com/?referer=https://manganelo.com&url=https://s3.mkklcdnv6temp.com/mangakakalot/t1/the_queens_knight/vol03_chapter_1_fixed/66.jpg",
    "https://img-proxy.imgfo.com/?referer=https://manganelo.com&url=https://s3.mkklcdnv6temp.com/mangakakalot/t1/the_queens_knight/vol03_chapter_1_fixed/67.jpg",
    "https://img-proxy.imgfo.com/?referer=https://manganelo.com&url=https://s3.mkklcdnv6temp.com/mangakakalot/t1/the_queens_knight/vol03_chapter_1_fixed/68.jpg",
    "https://img-proxy.imgfo.com/?referer=https://manganelo.com&url=https://s3.mkklcdnv6temp.com/mangakakalot/t1/the_queens_knight/vol03_chapter_1_fixed/69.jpg",
    "https://img-proxy.imgfo.com/?referer=https://manganelo.com&url=https://s3.mkklcdnv6temp.com/mangakakalot/t1/the_queens_knight/vol03_chapter_1_fixed/70.jpg",
    "https://img-proxy.imgfo.com/?referer=https://manganelo.com&url=https://s3.mkklcdnv6temp.com/mangakakalot/t1/the_queens_knight/vol03_chapter_1_fixed/71.jpg",
    "https://img-proxy.imgfo.com/?referer=https://manganelo.com&url=https://s3.mkklcdnv6temp.com/mangakakalot/t1/the_queens_knight/vol03_chapter_1_fixed/72.jpg",
    "https://img-proxy.imgfo.com/?referer=https://manganelo.com&url=https://s3.mkklcdnv6temp.com/mangakakalot/t1/the_queens_knight/vol03_chapter_1_fixed/73.jpg",
    "https://img-proxy.imgfo.com/?referer=https://manganelo.com&url=https://s3.mkklcdnv6temp.com/mangakakalot/t1/the_queens_knight/vol03_chapter_1_fixed/74.jpg",
    "https://img-proxy.imgfo.com/?referer=https://manganelo.com&url=https://s3.mkklcdnv6temp.com/mangakakalot/t1/the_queens_knight/vol03_chapter_1_fixed/75.jpg",
    "https://img-proxy.imgfo.com/?referer=https://manganelo.com&url=https://s3.mkklcdnv6temp.com/mangakakalot/t1/the_queens_knight/vol03_chapter_1_fixed/76.jpg",
    "https://img-proxy.imgfo.com/?referer=https://manganelo.com&url=https://s3.mkklcdnv6temp.com/mangakakalot/t1/the_queens_knight/vol03_chapter_1_fixed/77.jpg",
    "https://img-proxy.imgfo.com/?referer=https://manganelo.com&url=https://s3.mkklcdnv6temp.com/mangakakalot/t1/the_queens_knight/vol03_chapter_1_fixed/78.jpg",
    "https://img-proxy.imgfo.com/?referer=https://manganelo.com&url=https://s3.mkklcdnv6temp.com/mangakakalot/t1/the_queens_knight/vol03_chapter_1_fixed/79.jpg",
    "https://img-proxy.imgfo.com/?referer=https://manganelo.com&url=https://s3.mkklcdnv6temp.com/mangakakalot/t1/the_queens_knight/vol03_chapter_1_fixed/80.jpg",
    "https://img-proxy.imgfo.com/?referer=https://manganelo.com&url=https://s3.mkklcdnv6temp.com/mangakakalot/t1/the_queens_knight/vol03_chapter_1_fixed/81.jpg",
    "https://img-proxy.imgfo.com/?referer=https://manganelo.com&url=https://s3.mkklcdnv6temp.com/mangakakalot/t1/the_queens_knight/vol03_chapter_1_fixed/82.jpg",
    "https://img-proxy.imgfo.com/?referer=https://manganelo.com&url=https://s3.mkklcdnv6temp.com/mangakakalot/t1/the_queens_knight/vol03_chapter_1_fixed/83.jpg",
    "https://img-proxy.imgfo.com/?referer=https://manganelo.com&url=https://s3.mkklcdnv6temp.com/mangakakalot/t1/the_queens_knight/vol03_chapter_1_fixed/84.jpg",
    "https://img-proxy.imgfo.com/?referer=https://manganelo.com&url=https://s3.mkklcdnv6temp.com/mangakakalot/t1/the_queens_knight/vol03_chapter_1_fixed/85.jpg",
    "https://img-proxy.imgfo.com/?referer=https://manganelo.com&url=https://s3.mkklcdnv6temp.com/mangakakalot/t1/the_queens_knight/vol03_chapter_1_fixed/86.jpg",
    "https://img-proxy.imgfo.com/?referer=https://manganelo.com&url=https://s3.mkklcdnv6temp.com/mangakakalot/t1/the_queens_knight/vol03_chapter_1_fixed/87.jpg",
    "https://img-proxy.imgfo.com/?referer=https://manganelo.com&url=https://s3.mkklcdnv6temp.com/mangakakalot/t1/the_queens_knight/vol03_chapter_1_fixed/88.jpg",
    "https://img-proxy.imgfo.com/?referer=https://manganelo.com&url=https://s3.mkklcdnv6temp.com/mangakakalot/t1/the_queens_knight/vol03_chapter_1_fixed/89.jpg",
    "https://img-proxy.imgfo.com/?referer=https://manganelo.com&url=https://s3.mkklcdnv6temp.com/mangakakalot/t1/the_queens_knight/vol03_chapter_1_fixed/90.jpg",
    "https://img-proxy.imgfo.com/?referer=https://manganelo.com&url=https://s3.mkklcdnv6temp.com/mangakakalot/t1/the_queens_knight/vol03_chapter_1_fixed/91.jpg",
    "https://img-proxy.imgfo.com/?referer=https://manganelo.com&url=https://s3.mkklcdnv6temp.com/mangakakalot/t1/the_queens_knight/vol03_chapter_1_fixed/92.jpg",
    "https://img-proxy.imgfo.com/?referer=https://manganelo.com&url=https://s3.mkklcdnv6temp.com/mangakakalot/t1/the_queens_knight/vol03_chapter_1_fixed/93.jpg",
    "https://img-proxy.imgfo.com/?referer=https://manganelo.com&url=https://s3.mkklcdnv6temp.com/mangakakalot/t1/the_queens_knight/vol03_chapter_1_fixed/94.jpg",
    "https://img-proxy.imgfo.com/?referer=https://manganelo.com&url=https://s3.mkklcdnv6temp.com/mangakakalot/t1/the_queens_knight/vol03_chapter_1_fixed/95.jpg",
    "https://img-proxy.imgfo.com/?referer=https://manganelo.com&url=https://s3.mkklcdnv6temp.com/mangakakalot/t1/the_queens_knight/vol03_chapter_1_fixed/96.jpg",
    "https://img-proxy.imgfo.com/?referer=https://manganelo.com&url=https://s3.mkklcdnv6temp.com/mangakakalot/t1/the_queens_knight/vol03_chapter_1_fixed/97.jpg",
    "https://img-proxy.imgfo.com/?referer=https://manganelo.com&url=https://s3.mkklcdnv6temp.com/mangakakalot/t1/the_queens_knight/vol03_chapter_1_fixed/98.jpg",
    "https://img-proxy.imgfo.com/?referer=https://manganelo.com&url=https://s3.mkklcdnv6temp.com/mangakakalot/t1/the_queens_knight/vol03_chapter_1_fixed/99.jpg",
    "https://img-proxy.imgfo.com/?referer=https://manganelo.com&url=https://s3.mkklcdnv6temp.com/mangakakalot/t1/the_queens_knight/vol03_chapter_1_fixed/100.jpg",
    "https://img-proxy.imgfo.com/?referer=https://manganelo.com&url=https://s3.mkklcdnv6temp.com/mangakakalot/t1/the_queens_knight/vol03_chapter_1_fixed/101.jpg"
  ]
}