{
  "cover": "https://avt.mkklcdnv6.com/11/v/4-1583470149.jpg",
  "title": "Ane-Mone Seikaten",
  "original": "アネ☆モネ 生花店 ; アネ☆モネ生花店～南マキ傑作短編集～ ; 秋牡丹☆鲜花店MINAMI MAKI杰作短篇集 ; Ane Mone Seikaten ; Ane☆Mone Florist ; Ane☆Mone Flower Shop ; Ane☆Mone Seikaten",
  "genre": "Comedy, Romance, Shoujo, Manga",
  "author": "Minami Maki",
  "status": "Completed",
  "backlink": "https://manganu.com/collections/minami-maki/ane-mone-seikaten/",
  "description": "• Ane?Mone Seikaten\nA cute and funny little story about a baby-faced high school girl Mone Saeki who inadvertently falls in love with a grade schooler Ren Anesaki!\n• Everyday Treasures\n• Batsu-san\n• Day Dream Biriba",
  "language": "English",
  "images": [
    "https://img-proxy.imgfo.com/?referer=https://manganelo.com&url=https://s41.mkklcdnv6temp.com/mangakakalot/a1/anemone_seikaten/vol1_chapter_3_batsusan/1.jpg",
    "https://img-proxy.imgfo.com/?referer=https://manganelo.com&url=https://s41.mkklcdnv6temp.com/mangakakalot/a1/anemone_seikaten/vol1_chapter_3_batsusan/2.jpg",
    "https://img-proxy.imgfo.com/?referer=https://manganelo.com&url=https://s41.mkklcdnv6temp.com/mangakakalot/a1/anemone_seikaten/vol1_chapter_3_batsusan/3.jpg",
    "https://img-proxy.imgfo.com/?referer=https://manganelo.com&url=https://s41.mkklcdnv6temp.com/mangakakalot/a1/anemone_seikaten/vol1_chapter_3_batsusan/4.jpg",
    "https://img-proxy.imgfo.com/?referer=https://manganelo.com&url=https://s41.mkklcdnv6temp.com/mangakakalot/a1/anemone_seikaten/vol1_chapter_3_batsusan/5.jpg",
    "https://img-proxy.imgfo.com/?referer=https://manganelo.com&url=https://s41.mkklcdnv6temp.com/mangakakalot/a1/anemone_seikaten/vol1_chapter_3_batsusan/6.jpg",
    "https://img-proxy.imgfo.com/?referer=https://manganelo.com&url=https://s41.mkklcdnv6temp.com/mangakakalot/a1/anemone_seikaten/vol1_chapter_3_batsusan/7.jpg",
    "https://img-proxy.imgfo.com/?referer=https://manganelo.com&url=https://s41.mkklcdnv6temp.com/mangakakalot/a1/anemone_seikaten/vol1_chapter_3_batsusan/8.jpg",
    "https://img-proxy.imgfo.com/?referer=https://manganelo.com&url=https://s41.mkklcdnv6temp.com/mangakakalot/a1/anemone_seikaten/vol1_chapter_3_batsusan/9.jpg",
    "https://img-proxy.imgfo.com/?referer=https://manganelo.com&url=https://s41.mkklcdnv6temp.com/mangakakalot/a1/anemone_seikaten/vol1_chapter_3_batsusan/10.jpg",
    "https://img-proxy.imgfo.com/?referer=https://manganelo.com&url=https://s41.mkklcdnv6temp.com/mangakakalot/a1/anemone_seikaten/vol1_chapter_3_batsusan/11.jpg",
    "https://img-proxy.imgfo.com/?referer=https://manganelo.com&url=https://s41.mkklcdnv6temp.com/mangakakalot/a1/anemone_seikaten/vol1_chapter_3_batsusan/12.jpg",
    "https://img-proxy.imgfo.com/?referer=https://manganelo.com&url=https://s41.mkklcdnv6temp.com/mangakakalot/a1/anemone_seikaten/vol1_chapter_3_batsusan/13.jpg",
    "https://img-proxy.imgfo.com/?referer=https://manganelo.com&url=https://s41.mkklcdnv6temp.com/mangakakalot/a1/anemone_seikaten/vol1_chapter_3_batsusan/14.jpg",
    "https://img-proxy.imgfo.com/?referer=https://manganelo.com&url=https://s41.mkklcdnv6temp.com/mangakakalot/a1/anemone_seikaten/vol1_chapter_3_batsusan/15.jpg",
    "https://img-proxy.imgfo.com/?referer=https://manganelo.com&url=https://s41.mkklcdnv6temp.com/mangakakalot/a1/anemone_seikaten/vol1_chapter_3_batsusan/16.jpg",
    "https://img-proxy.imgfo.com/?referer=https://manganelo.com&url=https://s41.mkklcdnv6temp.com/mangakakalot/a1/anemone_seikaten/vol1_chapter_3_batsusan/17.jpg",
    "https://img-proxy.imgfo.com/?referer=https://manganelo.com&url=https://s41.mkklcdnv6temp.com/mangakakalot/a1/anemone_seikaten/vol1_chapter_3_batsusan/18.jpg",
    "https://img-proxy.imgfo.com/?referer=https://manganelo.com&url=https://s41.mkklcdnv6temp.com/mangakakalot/a1/anemone_seikaten/vol1_chapter_3_batsusan/19.jpg",
    "https://img-proxy.imgfo.com/?referer=https://manganelo.com&url=https://s41.mkklcdnv6temp.com/mangakakalot/a1/anemone_seikaten/vol1_chapter_3_batsusan/20.jpg",
    "https://img-proxy.imgfo.com/?referer=https://manganelo.com&url=https://s41.mkklcdnv6temp.com/mangakakalot/a1/anemone_seikaten/vol1_chapter_3_batsusan/21.jpg",
    "https://img-proxy.imgfo.com/?referer=https://manganelo.com&url=https://s41.mkklcdnv6temp.com/mangakakalot/a1/anemone_seikaten/vol1_chapter_3_batsusan/22.jpg",
    "https://img-proxy.imgfo.com/?referer=https://manganelo.com&url=https://s41.mkklcdnv6temp.com/mangakakalot/a1/anemone_seikaten/vol1_chapter_3_batsusan/23.jpg",
    "https://img-proxy.imgfo.com/?referer=https://manganelo.com&url=https://s41.mkklcdnv6temp.com/mangakakalot/a1/anemone_seikaten/vol1_chapter_3_batsusan/24.jpg",
    "https://img-proxy.imgfo.com/?referer=https://manganelo.com&url=https://s41.mkklcdnv6temp.com/mangakakalot/a1/anemone_seikaten/vol1_chapter_3_batsusan/25.jpg",
    "https://img-proxy.imgfo.com/?referer=https://manganelo.com&url=https://s41.mkklcdnv6temp.com/mangakakalot/a1/anemone_seikaten/vol1_chapter_3_batsusan/26.jpg",
    "https://img-proxy.imgfo.com/?referer=https://manganelo.com&url=https://s41.mkklcdnv6temp.com/mangakakalot/a1/anemone_seikaten/vol1_chapter_3_batsusan/27.jpg",
    "https://img-proxy.imgfo.com/?referer=https://manganelo.com&url=https://s41.mkklcdnv6temp.com/mangakakalot/a1/anemone_seikaten/vol1_chapter_3_batsusan/28.jpg",
    "https://img-proxy.imgfo.com/?referer=https://manganelo.com&url=https://s41.mkklcdnv6temp.com/mangakakalot/a1/anemone_seikaten/vol1_chapter_3_batsusan/29.jpg",
    "https://img-proxy.imgfo.com/?referer=https://manganelo.com&url=https://s41.mkklcdnv6temp.com/mangakakalot/a1/anemone_seikaten/vol1_chapter_3_batsusan/30.jpg",
    "https://img-proxy.imgfo.com/?referer=https://manganelo.com&url=https://s41.mkklcdnv6temp.com/mangakakalot/a1/anemone_seikaten/vol1_chapter_3_batsusan/31.jpg",
    "https://img-proxy.imgfo.com/?referer=https://manganelo.com&url=https://s41.mkklcdnv6temp.com/mangakakalot/a1/anemone_seikaten/vol1_chapter_3_batsusan/32.jpg",
    "https://img-proxy.imgfo.com/?referer=https://manganelo.com&url=https://s41.mkklcdnv6temp.com/mangakakalot/a1/anemone_seikaten/vol1_chapter_3_batsusan/33.jpg",
    "https://img-proxy.imgfo.com/?referer=https://manganelo.com&url=https://s41.mkklcdnv6temp.com/mangakakalot/a1/anemone_seikaten/vol1_chapter_3_batsusan/34.jpg",
    "https://img-proxy.imgfo.com/?referer=https://manganelo.com&url=https://s41.mkklcdnv6temp.com/mangakakalot/a1/anemone_seikaten/vol1_chapter_3_batsusan/35.jpg",
    "https://img-proxy.imgfo.com/?referer=https://manganelo.com&url=https://s41.mkklcdnv6temp.com/mangakakalot/a1/anemone_seikaten/vol1_chapter_3_batsusan/36.jpg",
    "https://img-proxy.imgfo.com/?referer=https://manganelo.com&url=https://s41.mkklcdnv6temp.com/mangakakalot/a1/anemone_seikaten/vol1_chapter_3_batsusan/37.jpg",
    "https://img-proxy.imgfo.com/?referer=https://manganelo.com&url=https://s41.mkklcdnv6temp.com/mangakakalot/a1/anemone_seikaten/vol1_chapter_3_batsusan/38.jpg",
    "https://img-proxy.imgfo.com/?referer=https://manganelo.com&url=https://s41.mkklcdnv6temp.com/mangakakalot/a1/anemone_seikaten/vol1_chapter_3_batsusan/39.jpg",
    "https://img-proxy.imgfo.com/?referer=https://manganelo.com&url=https://s41.mkklcdnv6temp.com/mangakakalot/a1/anemone_seikaten/vol1_chapter_3_batsusan/40.jpg",
    "https://img-proxy.imgfo.com/?referer=https://manganelo.com&url=https://s41.mkklcdnv6temp.com/mangakakalot/a1/anemone_seikaten/vol1_chapter_3_batsusan/41.jpg",
    "https://img-proxy.imgfo.com/?referer=https://manganelo.com&url=https://s41.mkklcdnv6temp.com/mangakakalot/a1/anemone_seikaten/vol1_chapter_3_batsusan/42.jpg",
    "https://img-proxy.imgfo.com/?referer=https://manganelo.com&url=https://s41.mkklcdnv6temp.com/mangakakalot/a1/anemone_seikaten/vol1_chapter_3_batsusan/43.jpg",
    "https://img-proxy.imgfo.com/?referer=https://manganelo.com&url=https://s41.mkklcdnv6temp.com/mangakakalot/a1/anemone_seikaten/vol1_chapter_3_batsusan/44.jpg",
    "https://img-proxy.imgfo.com/?referer=https://manganelo.com&url=https://s41.mkklcdnv6temp.com/mangakakalot/a1/anemone_seikaten/vol1_chapter_3_batsusan/45.jpg",
    "https://img-proxy.imgfo.com/?referer=https://manganelo.com&url=https://s41.mkklcdnv6temp.com/mangakakalot/a1/anemone_seikaten/vol1_chapter_3_batsusan/46.jpg",
    "https://img-proxy.imgfo.com/?referer=https://manganelo.com&url=https://s41.mkklcdnv6temp.com/mangakakalot/a1/anemone_seikaten/vol1_chapter_3_batsusan/47.jpg",
    "https://img-proxy.imgfo.com/?referer=https://manganelo.com&url=https://s41.mkklcdnv6temp.com/mangakakalot/a1/anemone_seikaten/vol1_chapter_3_batsusan/48.jpg",
    "https://img-proxy.imgfo.com/?referer=https://manganelo.com&url=https://s41.mkklcdnv6temp.com/mangakakalot/a1/anemone_seikaten/vol1_chapter_3_batsusan/49.jpg",
    "https://img-proxy.imgfo.com/?referer=https://manganelo.com&url=https://s41.mkklcdnv6temp.com/mangakakalot/a1/anemone_seikaten/vol1_chapter_3_batsusan/50.jpg",
    "https://img-proxy.imgfo.com/?referer=https://manganelo.com&url=https://s41.mkklcdnv6temp.com/mangakakalot/a1/anemone_seikaten/vol1_chapter_3_batsusan/51.jpg",
    "https://img-proxy.imgfo.com/?referer=https://manganelo.com&url=https://s41.mkklcdnv6temp.com/mangakakalot/a1/anemone_seikaten/vol1_chapter_3_batsusan/52.jpg",
    "https://img-proxy.imgfo.com/?referer=https://manganelo.com&url=https://s41.mkklcdnv6temp.com/mangakakalot/a1/anemone_seikaten/vol1_chapter_3_batsusan/53.jpg",
    "https://img-proxy.imgfo.com/?referer=https://manganelo.com&url=https://s41.mkklcdnv6temp.com/mangakakalot/a1/anemone_seikaten/vol1_chapter_3_batsusan/54.jpg",
    "https://img-proxy.imgfo.com/?referer=https://manganelo.com&url=https://s41.mkklcdnv6temp.com/mangakakalot/a1/anemone_seikaten/vol1_chapter_3_batsusan/55.jpg"
  ]
}