{
  "cover": "https://avt.mkklcdnv6.com/3/h/1-1583463794.jpg",
  "title": "Tough",
  "original": "Free Fight (French); Tough Season 2 (English); TOUGH－タフ (Japanese); 高校鉄拳伝タフ; High School Iron Fist Legend Tough",
  "genre": "Action, Drama, Martial arts, Mature, Seinen, Sports, Manga",
  "author": "Saruwatari Tetsuya",
  "status": "Completed",
  "backlink": "https://manganu.com/collections/saruwatari-tetsuya/tough/",
  "description": "This is a mixed martial arts fighting manga about the Miyazawa school of martial arts. Initially, it is about Kiichi trying to heal his father after he was nearly killed by his brother Kiryu. But then it goes on to be less about that as his father recovers and some tournament style fighting begins. At that point various apparently overwhelming opponents will encounter Kiichi on his way to the top. The objectives of the various characters start to play a more and more important role, as well as the different philosophical projections of several martial arts and disciplines.",
  "language": "English",
  "images": [
    "https://img-proxy.imgfo.com/?referer=https://manganelo.com&url=https://s3.mkklcdnv6temp.com/mangakakalot/t2/tough/vol18_chapter_189/1.jpg",
    "https://img-proxy.imgfo.com/?referer=https://manganelo.com&url=https://s3.mkklcdnv6temp.com/mangakakalot/t2/tough/vol18_chapter_189/2.jpg",
    "https://img-proxy.imgfo.com/?referer=https://manganelo.com&url=https://s3.mkklcdnv6temp.com/mangakakalot/t2/tough/vol18_chapter_189/3.jpg",
    "https://img-proxy.imgfo.com/?referer=https://manganelo.com&url=https://s3.mkklcdnv6temp.com/mangakakalot/t2/tough/vol18_chapter_189/4.jpg",
    "https://img-proxy.imgfo.com/?referer=https://manganelo.com&url=https://s3.mkklcdnv6temp.com/mangakakalot/t2/tough/vol18_chapter_189/5.jpg",
    "https://img-proxy.imgfo.com/?referer=https://manganelo.com&url=https://s3.mkklcdnv6temp.com/mangakakalot/t2/tough/vol18_chapter_189/6.jpg",
    "https://img-proxy.imgfo.com/?referer=https://manganelo.com&url=https://s3.mkklcdnv6temp.com/mangakakalot/t2/tough/vol18_chapter_189/7.jpg",
    "https://img-proxy.imgfo.com/?referer=https://manganelo.com&url=https://s3.mkklcdnv6temp.com/mangakakalot/t2/tough/vol18_chapter_189/8.jpg",
    "https://img-proxy.imgfo.com/?referer=https://manganelo.com&url=https://s3.mkklcdnv6temp.com/mangakakalot/t2/tough/vol18_chapter_189/9.jpg",
    "https://img-proxy.imgfo.com/?referer=https://manganelo.com&url=https://s3.mkklcdnv6temp.com/mangakakalot/t2/tough/vol18_chapter_189/10.jpg",
    "https://img-proxy.imgfo.com/?referer=https://manganelo.com&url=https://s3.mkklcdnv6temp.com/mangakakalot/t2/tough/vol18_chapter_189/11.jpg",
    "https://img-proxy.imgfo.com/?referer=https://manganelo.com&url=https://s3.mkklcdnv6temp.com/mangakakalot/t2/tough/vol18_chapter_189/12.jpg",
    "https://img-proxy.imgfo.com/?referer=https://manganelo.com&url=https://s3.mkklcdnv6temp.com/mangakakalot/t2/tough/vol18_chapter_189/13.jpg",
    "https://img-proxy.imgfo.com/?referer=https://manganelo.com&url=https://s3.mkklcdnv6temp.com/mangakakalot/t2/tough/vol18_chapter_189/14.jpg",
    "https://img-proxy.imgfo.com/?referer=https://manganelo.com&url=https://s3.mkklcdnv6temp.com/mangakakalot/t2/tough/vol18_chapter_189/15.jpg",
    "https://img-proxy.imgfo.com/?referer=https://manganelo.com&url=https://s3.mkklcdnv6temp.com/mangakakalot/t2/tough/vol18_chapter_189/16.jpg",
    "https://img-proxy.imgfo.com/?referer=https://manganelo.com&url=https://s3.mkklcdnv6temp.com/mangakakalot/t2/tough/vol18_chapter_189/17.jpg",
    "https://img-proxy.imgfo.com/?referer=https://manganelo.com&url=https://s3.mkklcdnv6temp.com/mangakakalot/t2/tough/vol18_chapter_189/18.jpg"
  ]
}