{
  "cover": "https://avt.mkklcdnv6.com/30/l/1-1583464892.jpg",
  "title": "T-Rex Na Kanojo",
  "original": "T-REXな彼女 ; She's a T-Rex",
  "genre": "Comedy, Ecchi, Fantasy, Shounen, Manga",
  "author": "Sanzan",
  "status": "Completed",
  "backlink": "https://manganu.com/collections/sanzan/t-rex-na-kanojo/",
  "description": "Humans and dinosaurs peacefully co-exist in our modern age. One night, Yuuma Asahikawa meets the feral t-rex, Churio. Follow the lives of (secret) ex-delinquent, Yuuma, and the very Cretaceous Churio as they spend their days together!",
  "language": "English",
  "images": [
    "https://img-proxy.imgfo.com/?referer=https://manganelo.com&url=https://s7.mkklcdnv6temp.com/mangakakalot/t2/trex_na_kanojo/chapter_2v2_a_rainy_day_with_her/1.jpg",
    "https://img-proxy.imgfo.com/?referer=https://manganelo.com&url=https://s7.mkklcdnv6temp.com/mangakakalot/t2/trex_na_kanojo/chapter_2v2_a_rainy_day_with_her/2.jpg",
    "https://img-proxy.imgfo.com/?referer=https://manganelo.com&url=https://s7.mkklcdnv6temp.com/mangakakalot/t2/trex_na_kanojo/chapter_2v2_a_rainy_day_with_her/3.jpg",
    "https://img-proxy.imgfo.com/?referer=https://manganelo.com&url=https://s7.mkklcdnv6temp.com/mangakakalot/t2/trex_na_kanojo/chapter_2v2_a_rainy_day_with_her/4.jpg",
    "https://img-proxy.imgfo.com/?referer=https://manganelo.com&url=https://s7.mkklcdnv6temp.com/mangakakalot/t2/trex_na_kanojo/chapter_2v2_a_rainy_day_with_her/5.jpg",
    "https://img-proxy.imgfo.com/?referer=https://manganelo.com&url=https://s7.mkklcdnv6temp.com/mangakakalot/t2/trex_na_kanojo/chapter_2v2_a_rainy_day_with_her/6.jpg",
    "https://img-proxy.imgfo.com/?referer=https://manganelo.com&url=https://s7.mkklcdnv6temp.com/mangakakalot/t2/trex_na_kanojo/chapter_2v2_a_rainy_day_with_her/7.jpg",
    "https://img-proxy.imgfo.com/?referer=https://manganelo.com&url=https://s7.mkklcdnv6temp.com/mangakakalot/t2/trex_na_kanojo/chapter_2v2_a_rainy_day_with_her/8.jpg"
  ]
}