{
  "cover": "https://avt.mkklcdnv6.com/31/l/12-1583487003.jpg",
  "title": "Lodoss Tousenki: Pharis No Seijo",
  "original": "ロードス島戦記 ファリスの聖女 ; Pharis no Seijô ; Record of Lodoss War - The Lady of Pharis ; The Lady of Pharis",
  "genre": "Action, Adventure, Fantasy, Manga",
  "author": "Mizuno Ryo",
  "status": "Completed",
  "backlink": "https://manganu.com/collections/mizuno-ryo/lodoss-tousenki-pharis-no-seijo/",
  "description": "There was a time when Lodoss Island was pure and the forces of light and darkness were in balance. It only took the greed of one man to change the face of Lodoss forever. Now it's up to the warriors of legend to restore the tenuous balance.\nThis is the conflict that will decide the future of Lodoss Island! The forces of Light and Darkness are at odds, and only a rag-tag band of warriors stands between a powerful succubus and the destruction of all creation!",
  "language": "English",
  "images": [
    "https://img-proxy.imgfo.com/?referer=https://manganelo.com&url=https://s3.mkklcdnv6temp.com/mangakakalot/l2/lodoss_tousenki_pharis_no_seijo/vol02_chapter_2_part_2_end/1.jpg",
    "https://img-proxy.imgfo.com/?referer=https://manganelo.com&url=https://s3.mkklcdnv6temp.com/mangakakalot/l2/lodoss_tousenki_pharis_no_seijo/vol02_chapter_2_part_2_end/2.jpg",
    "https://img-proxy.imgfo.com/?referer=https://manganelo.com&url=https://s3.mkklcdnv6temp.com/mangakakalot/l2/lodoss_tousenki_pharis_no_seijo/vol02_chapter_2_part_2_end/3.jpg",
    "https://img-proxy.imgfo.com/?referer=https://manganelo.com&url=https://s3.mkklcdnv6temp.com/mangakakalot/l2/lodoss_tousenki_pharis_no_seijo/vol02_chapter_2_part_2_end/4.jpg",
    "https://img-proxy.imgfo.com/?referer=https://manganelo.com&url=https://s3.mkklcdnv6temp.com/mangakakalot/l2/lodoss_tousenki_pharis_no_seijo/vol02_chapter_2_part_2_end/5.jpg",
    "https://img-proxy.imgfo.com/?referer=https://manganelo.com&url=https://s3.mkklcdnv6temp.com/mangakakalot/l2/lodoss_tousenki_pharis_no_seijo/vol02_chapter_2_part_2_end/6.jpg",
    "https://img-proxy.imgfo.com/?referer=https://manganelo.com&url=https://s3.mkklcdnv6temp.com/mangakakalot/l2/lodoss_tousenki_pharis_no_seijo/vol02_chapter_2_part_2_end/7.jpg",
    "https://img-proxy.imgfo.com/?referer=https://manganelo.com&url=https://s3.mkklcdnv6temp.com/mangakakalot/l2/lodoss_tousenki_pharis_no_seijo/vol02_chapter_2_part_2_end/8.jpg",
    "https://img-proxy.imgfo.com/?referer=https://manganelo.com&url=https://s3.mkklcdnv6temp.com/mangakakalot/l2/lodoss_tousenki_pharis_no_seijo/vol02_chapter_2_part_2_end/9.jpg",
    "https://img-proxy.imgfo.com/?referer=https://manganelo.com&url=https://s3.mkklcdnv6temp.com/mangakakalot/l2/lodoss_tousenki_pharis_no_seijo/vol02_chapter_2_part_2_end/10.jpg",
    "https://img-proxy.imgfo.com/?referer=https://manganelo.com&url=https://s3.mkklcdnv6temp.com/mangakakalot/l2/lodoss_tousenki_pharis_no_seijo/vol02_chapter_2_part_2_end/11.jpg",
    "https://img-proxy.imgfo.com/?referer=https://manganelo.com&url=https://s3.mkklcdnv6temp.com/mangakakalot/l2/lodoss_tousenki_pharis_no_seijo/vol02_chapter_2_part_2_end/12.jpg",
    "https://img-proxy.imgfo.com/?referer=https://manganelo.com&url=https://s3.mkklcdnv6temp.com/mangakakalot/l2/lodoss_tousenki_pharis_no_seijo/vol02_chapter_2_part_2_end/13.jpg",
    "https://img-proxy.imgfo.com/?referer=https://manganelo.com&url=https://s3.mkklcdnv6temp.com/mangakakalot/l2/lodoss_tousenki_pharis_no_seijo/vol02_chapter_2_part_2_end/14.jpg",
    "https://img-proxy.imgfo.com/?referer=https://manganelo.com&url=https://s3.mkklcdnv6temp.com/mangakakalot/l2/lodoss_tousenki_pharis_no_seijo/vol02_chapter_2_part_2_end/15.jpg",
    "https://img-proxy.imgfo.com/?referer=https://manganelo.com&url=https://s3.mkklcdnv6temp.com/mangakakalot/l2/lodoss_tousenki_pharis_no_seijo/vol02_chapter_2_part_2_end/16.jpg",
    "https://img-proxy.imgfo.com/?referer=https://manganelo.com&url=https://s3.mkklcdnv6temp.com/mangakakalot/l2/lodoss_tousenki_pharis_no_seijo/vol02_chapter_2_part_2_end/17.jpg",
    "https://img-proxy.imgfo.com/?referer=https://manganelo.com&url=https://s3.mkklcdnv6temp.com/mangakakalot/l2/lodoss_tousenki_pharis_no_seijo/vol02_chapter_2_part_2_end/18.jpg",
    "https://img-proxy.imgfo.com/?referer=https://manganelo.com&url=https://s3.mkklcdnv6temp.com/mangakakalot/l2/lodoss_tousenki_pharis_no_seijo/vol02_chapter_2_part_2_end/19.jpg",
    "https://img-proxy.imgfo.com/?referer=https://manganelo.com&url=https://s3.mkklcdnv6temp.com/mangakakalot/l2/lodoss_tousenki_pharis_no_seijo/vol02_chapter_2_part_2_end/20.jpg",
    "https://img-proxy.imgfo.com/?referer=https://manganelo.com&url=https://s3.mkklcdnv6temp.com/mangakakalot/l2/lodoss_tousenki_pharis_no_seijo/vol02_chapter_2_part_2_end/21.jpg",
    "https://img-proxy.imgfo.com/?referer=https://manganelo.com&url=https://s3.mkklcdnv6temp.com/mangakakalot/l2/lodoss_tousenki_pharis_no_seijo/vol02_chapter_2_part_2_end/22.jpg",
    "https://img-proxy.imgfo.com/?referer=https://manganelo.com&url=https://s3.mkklcdnv6temp.com/mangakakalot/l2/lodoss_tousenki_pharis_no_seijo/vol02_chapter_2_part_2_end/23.jpg",
    "https://img-proxy.imgfo.com/?referer=https://manganelo.com&url=https://s3.mkklcdnv6temp.com/mangakakalot/l2/lodoss_tousenki_pharis_no_seijo/vol02_chapter_2_part_2_end/24.jpg",
    "https://img-proxy.imgfo.com/?referer=https://manganelo.com&url=https://s3.mkklcdnv6temp.com/mangakakalot/l2/lodoss_tousenki_pharis_no_seijo/vol02_chapter_2_part_2_end/25.jpg",
    "https://img-proxy.imgfo.com/?referer=https://manganelo.com&url=https://s3.mkklcdnv6temp.com/mangakakalot/l2/lodoss_tousenki_pharis_no_seijo/vol02_chapter_2_part_2_end/26.jpg",
    "https://img-proxy.imgfo.com/?referer=https://manganelo.com&url=https://s3.mkklcdnv6temp.com/mangakakalot/l2/lodoss_tousenki_pharis_no_seijo/vol02_chapter_2_part_2_end/27.jpg",
    "https://img-proxy.imgfo.com/?referer=https://manganelo.com&url=https://s3.mkklcdnv6temp.com/mangakakalot/l2/lodoss_tousenki_pharis_no_seijo/vol02_chapter_2_part_2_end/28.jpg",
    "https://img-proxy.imgfo.com/?referer=https://manganelo.com&url=https://s3.mkklcdnv6temp.com/mangakakalot/l2/lodoss_tousenki_pharis_no_seijo/vol02_chapter_2_part_2_end/29.jpg",
    "https://img-proxy.imgfo.com/?referer=https://manganelo.com&url=https://s3.mkklcdnv6temp.com/mangakakalot/l2/lodoss_tousenki_pharis_no_seijo/vol02_chapter_2_part_2_end/30.jpg",
    "https://img-proxy.imgfo.com/?referer=https://manganelo.com&url=https://s3.mkklcdnv6temp.com/mangakakalot/l2/lodoss_tousenki_pharis_no_seijo/vol02_chapter_2_part_2_end/31.jpg",
    "https://img-proxy.imgfo.com/?referer=https://manganelo.com&url=https://s3.mkklcdnv6temp.com/mangakakalot/l2/lodoss_tousenki_pharis_no_seijo/vol02_chapter_2_part_2_end/32.jpg",
    "https://img-proxy.imgfo.com/?referer=https://manganelo.com&url=https://s3.mkklcdnv6temp.com/mangakakalot/l2/lodoss_tousenki_pharis_no_seijo/vol02_chapter_2_part_2_end/33.jpg",
    "https://img-proxy.imgfo.com/?referer=https://manganelo.com&url=https://s3.mkklcdnv6temp.com/mangakakalot/l2/lodoss_tousenki_pharis_no_seijo/vol02_chapter_2_part_2_end/34.jpg",
    "https://img-proxy.imgfo.com/?referer=https://manganelo.com&url=https://s3.mkklcdnv6temp.com/mangakakalot/l2/lodoss_tousenki_pharis_no_seijo/vol02_chapter_2_part_2_end/35.jpg",
    "https://img-proxy.imgfo.com/?referer=https://manganelo.com&url=https://s3.mkklcdnv6temp.com/mangakakalot/l2/lodoss_tousenki_pharis_no_seijo/vol02_chapter_2_part_2_end/36.jpg",
    "https://img-proxy.imgfo.com/?referer=https://manganelo.com&url=https://s3.mkklcdnv6temp.com/mangakakalot/l2/lodoss_tousenki_pharis_no_seijo/vol02_chapter_2_part_2_end/37.jpg",
    "https://img-proxy.imgfo.com/?referer=https://manganelo.com&url=https://s3.mkklcdnv6temp.com/mangakakalot/l2/lodoss_tousenki_pharis_no_seijo/vol02_chapter_2_part_2_end/38.jpg",
    "https://img-proxy.imgfo.com/?referer=https://manganelo.com&url=https://s3.mkklcdnv6temp.com/mangakakalot/l2/lodoss_tousenki_pharis_no_seijo/vol02_chapter_2_part_2_end/39.jpg",
    "https://img-proxy.imgfo.com/?referer=https://manganelo.com&url=https://s3.mkklcdnv6temp.com/mangakakalot/l2/lodoss_tousenki_pharis_no_seijo/vol02_chapter_2_part_2_end/40.jpg",
    "https://img-proxy.imgfo.com/?referer=https://manganelo.com&url=https://s3.mkklcdnv6temp.com/mangakakalot/l2/lodoss_tousenki_pharis_no_seijo/vol02_chapter_2_part_2_end/41.jpg",
    "https://img-proxy.imgfo.com/?referer=https://manganelo.com&url=https://s3.mkklcdnv6temp.com/mangakakalot/l2/lodoss_tousenki_pharis_no_seijo/vol02_chapter_2_part_2_end/42.jpg",
    "https://img-proxy.imgfo.com/?referer=https://manganelo.com&url=https://s3.mkklcdnv6temp.com/mangakakalot/l2/lodoss_tousenki_pharis_no_seijo/vol02_chapter_2_part_2_end/43.jpg",
    "https://img-proxy.imgfo.com/?referer=https://manganelo.com&url=https://s3.mkklcdnv6temp.com/mangakakalot/l2/lodoss_tousenki_pharis_no_seijo/vol02_chapter_2_part_2_end/44.jpg",
    "https://img-proxy.imgfo.com/?referer=https://manganelo.com&url=https://s3.mkklcdnv6temp.com/mangakakalot/l2/lodoss_tousenki_pharis_no_seijo/vol02_chapter_2_part_2_end/45.jpg",
    "https://img-proxy.imgfo.com/?referer=https://manganelo.com&url=https://s3.mkklcdnv6temp.com/mangakakalot/l2/lodoss_tousenki_pharis_no_seijo/vol02_chapter_2_part_2_end/46.jpg",
    "https://img-proxy.imgfo.com/?referer=https://manganelo.com&url=https://s3.mkklcdnv6temp.com/mangakakalot/l2/lodoss_tousenki_pharis_no_seijo/vol02_chapter_2_part_2_end/47.jpg",
    "https://img-proxy.imgfo.com/?referer=https://manganelo.com&url=https://s3.mkklcdnv6temp.com/mangakakalot/l2/lodoss_tousenki_pharis_no_seijo/vol02_chapter_2_part_2_end/48.jpg",
    "https://img-proxy.imgfo.com/?referer=https://manganelo.com&url=https://s3.mkklcdnv6temp.com/mangakakalot/l2/lodoss_tousenki_pharis_no_seijo/vol02_chapter_2_part_2_end/49.jpg",
    "https://img-proxy.imgfo.com/?referer=https://manganelo.com&url=https://s3.mkklcdnv6temp.com/mangakakalot/l2/lodoss_tousenki_pharis_no_seijo/vol02_chapter_2_part_2_end/50.jpg",
    "https://img-proxy.imgfo.com/?referer=https://manganelo.com&url=https://s3.mkklcdnv6temp.com/mangakakalot/l2/lodoss_tousenki_pharis_no_seijo/vol02_chapter_2_part_2_end/51.jpg",
    "https://img-proxy.imgfo.com/?referer=https://manganelo.com&url=https://s3.mkklcdnv6temp.com/mangakakalot/l2/lodoss_tousenki_pharis_no_seijo/vol02_chapter_2_part_2_end/52.jpg",
    "https://img-proxy.imgfo.com/?referer=https://manganelo.com&url=https://s3.mkklcdnv6temp.com/mangakakalot/l2/lodoss_tousenki_pharis_no_seijo/vol02_chapter_2_part_2_end/53.jpg",
    "https://img-proxy.imgfo.com/?referer=https://manganelo.com&url=https://s3.mkklcdnv6temp.com/mangakakalot/l2/lodoss_tousenki_pharis_no_seijo/vol02_chapter_2_part_2_end/54.jpg",
    "https://img-proxy.imgfo.com/?referer=https://manganelo.com&url=https://s3.mkklcdnv6temp.com/mangakakalot/l2/lodoss_tousenki_pharis_no_seijo/vol02_chapter_2_part_2_end/55.jpg",
    "https://img-proxy.imgfo.com/?referer=https://manganelo.com&url=https://s3.mkklcdnv6temp.com/mangakakalot/l2/lodoss_tousenki_pharis_no_seijo/vol02_chapter_2_part_2_end/56.jpg",
    "https://img-proxy.imgfo.com/?referer=https://manganelo.com&url=https://s3.mkklcdnv6temp.com/mangakakalot/l2/lodoss_tousenki_pharis_no_seijo/vol02_chapter_2_part_2_end/57.jpg",
    "https://img-proxy.imgfo.com/?referer=https://manganelo.com&url=https://s3.mkklcdnv6temp.com/mangakakalot/l2/lodoss_tousenki_pharis_no_seijo/vol02_chapter_2_part_2_end/58.jpg",
    "https://img-proxy.imgfo.com/?referer=https://manganelo.com&url=https://s3.mkklcdnv6temp.com/mangakakalot/l2/lodoss_tousenki_pharis_no_seijo/vol02_chapter_2_part_2_end/59.jpg",
    "https://img-proxy.imgfo.com/?referer=https://manganelo.com&url=https://s3.mkklcdnv6temp.com/mangakakalot/l2/lodoss_tousenki_pharis_no_seijo/vol02_chapter_2_part_2_end/60.jpg",
    "https://img-proxy.imgfo.com/?referer=https://manganelo.com&url=https://s3.mkklcdnv6temp.com/mangakakalot/l2/lodoss_tousenki_pharis_no_seijo/vol02_chapter_2_part_2_end/61.jpg",
    "https://img-proxy.imgfo.com/?referer=https://manganelo.com&url=https://s3.mkklcdnv6temp.com/mangakakalot/l2/lodoss_tousenki_pharis_no_seijo/vol02_chapter_2_part_2_end/62.jpg",
    "https://img-proxy.imgfo.com/?referer=https://manganelo.com&url=https://s3.mkklcdnv6temp.com/mangakakalot/l2/lodoss_tousenki_pharis_no_seijo/vol02_chapter_2_part_2_end/63.jpg",
    "https://img-proxy.imgfo.com/?referer=https://manganelo.com&url=https://s3.mkklcdnv6temp.com/mangakakalot/l2/lodoss_tousenki_pharis_no_seijo/vol02_chapter_2_part_2_end/64.jpg",
    "https://img-proxy.imgfo.com/?referer=https://manganelo.com&url=https://s3.mkklcdnv6temp.com/mangakakalot/l2/lodoss_tousenki_pharis_no_seijo/vol02_chapter_2_part_2_end/65.jpg",
    "https://img-proxy.imgfo.com/?referer=https://manganelo.com&url=https://s3.mkklcdnv6temp.com/mangakakalot/l2/lodoss_tousenki_pharis_no_seijo/vol02_chapter_2_part_2_end/66.jpg",
    "https://img-proxy.imgfo.com/?referer=https://manganelo.com&url=https://s3.mkklcdnv6temp.com/mangakakalot/l2/lodoss_tousenki_pharis_no_seijo/vol02_chapter_2_part_2_end/67.jpg",
    "https://img-proxy.imgfo.com/?referer=https://manganelo.com&url=https://s3.mkklcdnv6temp.com/mangakakalot/l2/lodoss_tousenki_pharis_no_seijo/vol02_chapter_2_part_2_end/68.jpg",
    "https://img-proxy.imgfo.com/?referer=https://manganelo.com&url=https://s3.mkklcdnv6temp.com/mangakakalot/l2/lodoss_tousenki_pharis_no_seijo/vol02_chapter_2_part_2_end/69.jpg",
    "https://img-proxy.imgfo.com/?referer=https://manganelo.com&url=https://s3.mkklcdnv6temp.com/mangakakalot/l2/lodoss_tousenki_pharis_no_seijo/vol02_chapter_2_part_2_end/70.jpg",
    "https://img-proxy.imgfo.com/?referer=https://manganelo.com&url=https://s3.mkklcdnv6temp.com/mangakakalot/l2/lodoss_tousenki_pharis_no_seijo/vol02_chapter_2_part_2_end/71.jpg",
    "https://img-proxy.imgfo.com/?referer=https://manganelo.com&url=https://s3.mkklcdnv6temp.com/mangakakalot/l2/lodoss_tousenki_pharis_no_seijo/vol02_chapter_2_part_2_end/72.jpg",
    "https://img-proxy.imgfo.com/?referer=https://manganelo.com&url=https://s3.mkklcdnv6temp.com/mangakakalot/l2/lodoss_tousenki_pharis_no_seijo/vol02_chapter_2_part_2_end/73.jpg",
    "https://img-proxy.imgfo.com/?referer=https://manganelo.com&url=https://s3.mkklcdnv6temp.com/mangakakalot/l2/lodoss_tousenki_pharis_no_seijo/vol02_chapter_2_part_2_end/74.jpg",
    "https://img-proxy.imgfo.com/?referer=https://manganelo.com&url=https://s3.mkklcdnv6temp.com/mangakakalot/l2/lodoss_tousenki_pharis_no_seijo/vol02_chapter_2_part_2_end/75.jpg",
    "https://img-proxy.imgfo.com/?referer=https://manganelo.com&url=https://s3.mkklcdnv6temp.com/mangakakalot/l2/lodoss_tousenki_pharis_no_seijo/vol02_chapter_2_part_2_end/76.jpg",
    "https://img-proxy.imgfo.com/?referer=https://manganelo.com&url=https://s3.mkklcdnv6temp.com/mangakakalot/l2/lodoss_tousenki_pharis_no_seijo/vol02_chapter_2_part_2_end/77.jpg",
    "https://img-proxy.imgfo.com/?referer=https://manganelo.com&url=https://s3.mkklcdnv6temp.com/mangakakalot/l2/lodoss_tousenki_pharis_no_seijo/vol02_chapter_2_part_2_end/78.jpg",
    "https://img-proxy.imgfo.com/?referer=https://manganelo.com&url=https://s3.mkklcdnv6temp.com/mangakakalot/l2/lodoss_tousenki_pharis_no_seijo/vol02_chapter_2_part_2_end/79.jpg",
    "https://img-proxy.imgfo.com/?referer=https://manganelo.com&url=https://s3.mkklcdnv6temp.com/mangakakalot/l2/lodoss_tousenki_pharis_no_seijo/vol02_chapter_2_part_2_end/80.jpg",
    "https://img-proxy.imgfo.com/?referer=https://manganelo.com&url=https://s3.mkklcdnv6temp.com/mangakakalot/l2/lodoss_tousenki_pharis_no_seijo/vol02_chapter_2_part_2_end/81.jpg",
    "https://img-proxy.imgfo.com/?referer=https://manganelo.com&url=https://s3.mkklcdnv6temp.com/mangakakalot/l2/lodoss_tousenki_pharis_no_seijo/vol02_chapter_2_part_2_end/82.jpg",
    "https://img-proxy.imgfo.com/?referer=https://manganelo.com&url=https://s3.mkklcdnv6temp.com/mangakakalot/l2/lodoss_tousenki_pharis_no_seijo/vol02_chapter_2_part_2_end/83.jpg",
    "https://img-proxy.imgfo.com/?referer=https://manganelo.com&url=https://s3.mkklcdnv6temp.com/mangakakalot/l2/lodoss_tousenki_pharis_no_seijo/vol02_chapter_2_part_2_end/84.jpg",
    "https://img-proxy.imgfo.com/?referer=https://manganelo.com&url=https://s3.mkklcdnv6temp.com/mangakakalot/l2/lodoss_tousenki_pharis_no_seijo/vol02_chapter_2_part_2_end/85.jpg",
    "https://img-proxy.imgfo.com/?referer=https://manganelo.com&url=https://s3.mkklcdnv6temp.com/mangakakalot/l2/lodoss_tousenki_pharis_no_seijo/vol02_chapter_2_part_2_end/86.jpg",
    "https://img-proxy.imgfo.com/?referer=https://manganelo.com&url=https://s3.mkklcdnv6temp.com/mangakakalot/l2/lodoss_tousenki_pharis_no_seijo/vol02_chapter_2_part_2_end/87.jpg",
    "https://img-proxy.imgfo.com/?referer=https://manganelo.com&url=https://s3.mkklcdnv6temp.com/mangakakalot/l2/lodoss_tousenki_pharis_no_seijo/vol02_chapter_2_part_2_end/88.jpg",
    "https://img-proxy.imgfo.com/?referer=https://manganelo.com&url=https://s3.mkklcdnv6temp.com/mangakakalot/l2/lodoss_tousenki_pharis_no_seijo/vol02_chapter_2_part_2_end/89.jpg",
    "https://img-proxy.imgfo.com/?referer=https://manganelo.com&url=https://s3.mkklcdnv6temp.com/mangakakalot/l2/lodoss_tousenki_pharis_no_seijo/vol02_chapter_2_part_2_end/90.jpg",
    "https://img-proxy.imgfo.com/?referer=https://manganelo.com&url=https://s3.mkklcdnv6temp.com/mangakakalot/l2/lodoss_tousenki_pharis_no_seijo/vol02_chapter_2_part_2_end/91.jpg",
    "https://img-proxy.imgfo.com/?referer=https://manganelo.com&url=https://s3.mkklcdnv6temp.com/mangakakalot/l2/lodoss_tousenki_pharis_no_seijo/vol02_chapter_2_part_2_end/92.jpg",
    "https://img-proxy.imgfo.com/?referer=https://manganelo.com&url=https://s3.mkklcdnv6temp.com/mangakakalot/l2/lodoss_tousenki_pharis_no_seijo/vol02_chapter_2_part_2_end/93.jpg",
    "https://img-proxy.imgfo.com/?referer=https://manganelo.com&url=https://s3.mkklcdnv6temp.com/mangakakalot/l2/lodoss_tousenki_pharis_no_seijo/vol02_chapter_2_part_2_end/94.jpg",
    "https://img-proxy.imgfo.com/?referer=https://manganelo.com&url=https://s3.mkklcdnv6temp.com/mangakakalot/l2/lodoss_tousenki_pharis_no_seijo/vol02_chapter_2_part_2_end/95.jpg",
    "https://img-proxy.imgfo.com/?referer=https://manganelo.com&url=https://s3.mkklcdnv6temp.com/mangakakalot/l2/lodoss_tousenki_pharis_no_seijo/vol02_chapter_2_part_2_end/96.jpg",
    "https://img-proxy.imgfo.com/?referer=https://manganelo.com&url=https://s3.mkklcdnv6temp.com/mangakakalot/l2/lodoss_tousenki_pharis_no_seijo/vol02_chapter_2_part_2_end/97.jpg",
    "https://img-proxy.imgfo.com/?referer=https://manganelo.com&url=https://s3.mkklcdnv6temp.com/mangakakalot/l2/lodoss_tousenki_pharis_no_seijo/vol02_chapter_2_part_2_end/98.jpg",
    "https://img-proxy.imgfo.com/?referer=https://manganelo.com&url=https://s3.mkklcdnv6temp.com/mangakakalot/l2/lodoss_tousenki_pharis_no_seijo/vol02_chapter_2_part_2_end/99.jpg",
    "https://img-proxy.imgfo.com/?referer=https://manganelo.com&url=https://s3.mkklcdnv6temp.com/mangakakalot/l2/lodoss_tousenki_pharis_no_seijo/vol02_chapter_2_part_2_end/100.jpg",
    "https://img-proxy.imgfo.com/?referer=https://manganelo.com&url=https://s3.mkklcdnv6temp.com/mangakakalot/l2/lodoss_tousenki_pharis_no_seijo/vol02_chapter_2_part_2_end/101.jpg",
    "https://img-proxy.imgfo.com/?referer=https://manganelo.com&url=https://s3.mkklcdnv6temp.com/mangakakalot/l2/lodoss_tousenki_pharis_no_seijo/vol02_chapter_2_part_2_end/102.jpg",
    "https://img-proxy.imgfo.com/?referer=https://manganelo.com&url=https://s3.mkklcdnv6temp.com/mangakakalot/l2/lodoss_tousenki_pharis_no_seijo/vol02_chapter_2_part_2_end/103.jpg",
    "https://img-proxy.imgfo.com/?referer=https://manganelo.com&url=https://s3.mkklcdnv6temp.com/mangakakalot/l2/lodoss_tousenki_pharis_no_seijo/vol02_chapter_2_part_2_end/104.jpg",
    "https://img-proxy.imgfo.com/?referer=https://manganelo.com&url=https://s3.mkklcdnv6temp.com/mangakakalot/l2/lodoss_tousenki_pharis_no_seijo/vol02_chapter_2_part_2_end/105.jpg",
    "https://img-proxy.imgfo.com/?referer=https://manganelo.com&url=https://s3.mkklcdnv6temp.com/mangakakalot/l2/lodoss_tousenki_pharis_no_seijo/vol02_chapter_2_part_2_end/106.jpg",
    "https://img-proxy.imgfo.com/?referer=https://manganelo.com&url=https://s3.mkklcdnv6temp.com/mangakakalot/l2/lodoss_tousenki_pharis_no_seijo/vol02_chapter_2_part_2_end/107.jpg",
    "https://img-proxy.imgfo.com/?referer=https://manganelo.com&url=https://s3.mkklcdnv6temp.com/mangakakalot/l2/lodoss_tousenki_pharis_no_seijo/vol02_chapter_2_part_2_end/108.jpg",
    "https://img-proxy.imgfo.com/?referer=https://manganelo.com&url=https://s3.mkklcdnv6temp.com/mangakakalot/l2/lodoss_tousenki_pharis_no_seijo/vol02_chapter_2_part_2_end/109.jpg",
    "https://img-proxy.imgfo.com/?referer=https://manganelo.com&url=https://s3.mkklcdnv6temp.com/mangakakalot/l2/lodoss_tousenki_pharis_no_seijo/vol02_chapter_2_part_2_end/110.jpg",
    "https://img-proxy.imgfo.com/?referer=https://manganelo.com&url=https://s3.mkklcdnv6temp.com/mangakakalot/l2/lodoss_tousenki_pharis_no_seijo/vol02_chapter_2_part_2_end/111.jpg",
    "https://img-proxy.imgfo.com/?referer=https://manganelo.com&url=https://s3.mkklcdnv6temp.com/mangakakalot/l2/lodoss_tousenki_pharis_no_seijo/vol02_chapter_2_part_2_end/112.jpg",
    "https://img-proxy.imgfo.com/?referer=https://manganelo.com&url=https://s3.mkklcdnv6temp.com/mangakakalot/l2/lodoss_tousenki_pharis_no_seijo/vol02_chapter_2_part_2_end/113.jpg",
    "https://img-proxy.imgfo.com/?referer=https://manganelo.com&url=https://s3.mkklcdnv6temp.com/mangakakalot/l2/lodoss_tousenki_pharis_no_seijo/vol02_chapter_2_part_2_end/114.jpg",
    "https://img-proxy.imgfo.com/?referer=https://manganelo.com&url=https://s3.mkklcdnv6temp.com/mangakakalot/l2/lodoss_tousenki_pharis_no_seijo/vol02_chapter_2_part_2_end/115.jpg",
    "https://img-proxy.imgfo.com/?referer=https://manganelo.com&url=https://s3.mkklcdnv6temp.com/mangakakalot/l2/lodoss_tousenki_pharis_no_seijo/vol02_chapter_2_part_2_end/116.jpg",
    "https://img-proxy.imgfo.com/?referer=https://manganelo.com&url=https://s3.mkklcdnv6temp.com/mangakakalot/l2/lodoss_tousenki_pharis_no_seijo/vol02_chapter_2_part_2_end/117.jpg",
    "https://img-proxy.imgfo.com/?referer=https://manganelo.com&url=https://s3.mkklcdnv6temp.com/mangakakalot/l2/lodoss_tousenki_pharis_no_seijo/vol02_chapter_2_part_2_end/118.jpg",
    "https://img-proxy.imgfo.com/?referer=https://manganelo.com&url=https://s3.mkklcdnv6temp.com/mangakakalot/l2/lodoss_tousenki_pharis_no_seijo/vol02_chapter_2_part_2_end/119.jpg",
    "https://img-proxy.imgfo.com/?referer=https://manganelo.com&url=https://s3.mkklcdnv6temp.com/mangakakalot/l2/lodoss_tousenki_pharis_no_seijo/vol02_chapter_2_part_2_end/120.jpg",
    "https://img-proxy.imgfo.com/?referer=https://manganelo.com&url=https://s3.mkklcdnv6temp.com/mangakakalot/l2/lodoss_tousenki_pharis_no_seijo/vol02_chapter_2_part_2_end/121.jpg",
    "https://img-proxy.imgfo.com/?referer=https://manganelo.com&url=https://s3.mkklcdnv6temp.com/mangakakalot/l2/lodoss_tousenki_pharis_no_seijo/vol02_chapter_2_part_2_end/122.jpg",
    "https://img-proxy.imgfo.com/?referer=https://manganelo.com&url=https://s3.mkklcdnv6temp.com/mangakakalot/l2/lodoss_tousenki_pharis_no_seijo/vol02_chapter_2_part_2_end/123.jpg"
  ]
}