{
  "cover": "https://avt.mkklcdnv6.com/11/u/6-1583474584.jpg",
  "title": "Battle Angel Alita",
  "genre": "Action, Mature, Sci fi, Seinen, Manga",
  "author": "Kishiro Yukito",
  "status": "Completed",
  "backlink": "https://manganu.com/collections/kishiro-yukito/battle-angel-alita/",
  "description": "Alita is a powerful cyborg with a soft heart and a mysterious past. Her second lease on life isn&#39;t easy: her heart is broken, she gains and loses friends to the cruel world of the Scrapyard far below the Utopian city of Tiphares, and she serves many masters in her quest to protect the innocent and create a new life for herself.",
  "language": "English",
  "images": [
    "https://img-proxy.imgfo.com/?referer=https://manganelo.com&url=https://s6.mkklcdnv6temp.com/mangakakalot/b1/battle_angel_alita/vol6_chapter_4_hell_beast/1.jpg",
    "https://img-proxy.imgfo.com/?referer=https://manganelo.com&url=https://s6.mkklcdnv6temp.com/mangakakalot/b1/battle_angel_alita/vol6_chapter_4_hell_beast/2.jpg",
    "https://img-proxy.imgfo.com/?referer=https://manganelo.com&url=https://s6.mkklcdnv6temp.com/mangakakalot/b1/battle_angel_alita/vol6_chapter_4_hell_beast/3.jpg",
    "https://img-proxy.imgfo.com/?referer=https://manganelo.com&url=https://s6.mkklcdnv6temp.com/mangakakalot/b1/battle_angel_alita/vol6_chapter_4_hell_beast/4.jpg",
    "https://img-proxy.imgfo.com/?referer=https://manganelo.com&url=https://s6.mkklcdnv6temp.com/mangakakalot/b1/battle_angel_alita/vol6_chapter_4_hell_beast/5.jpg",
    "https://img-proxy.imgfo.com/?referer=https://manganelo.com&url=https://s6.mkklcdnv6temp.com/mangakakalot/b1/battle_angel_alita/vol6_chapter_4_hell_beast/6.jpg",
    "https://img-proxy.imgfo.com/?referer=https://manganelo.com&url=https://s6.mkklcdnv6temp.com/mangakakalot/b1/battle_angel_alita/vol6_chapter_4_hell_beast/7.jpg",
    "https://img-proxy.imgfo.com/?referer=https://manganelo.com&url=https://s6.mkklcdnv6temp.com/mangakakalot/b1/battle_angel_alita/vol6_chapter_4_hell_beast/8.jpg",
    "https://img-proxy.imgfo.com/?referer=https://manganelo.com&url=https://s6.mkklcdnv6temp.com/mangakakalot/b1/battle_angel_alita/vol6_chapter_4_hell_beast/9.jpg",
    "https://img-proxy.imgfo.com/?referer=https://manganelo.com&url=https://s6.mkklcdnv6temp.com/mangakakalot/b1/battle_angel_alita/vol6_chapter_4_hell_beast/10.jpg",
    "https://img-proxy.imgfo.com/?referer=https://manganelo.com&url=https://s6.mkklcdnv6temp.com/mangakakalot/b1/battle_angel_alita/vol6_chapter_4_hell_beast/11.jpg",
    "https://img-proxy.imgfo.com/?referer=https://manganelo.com&url=https://s6.mkklcdnv6temp.com/mangakakalot/b1/battle_angel_alita/vol6_chapter_4_hell_beast/12.jpg",
    "https://img-proxy.imgfo.com/?referer=https://manganelo.com&url=https://s6.mkklcdnv6temp.com/mangakakalot/b1/battle_angel_alita/vol6_chapter_4_hell_beast/13.jpg",
    "https://img-proxy.imgfo.com/?referer=https://manganelo.com&url=https://s6.mkklcdnv6temp.com/mangakakalot/b1/battle_angel_alita/vol6_chapter_4_hell_beast/14.jpg",
    "https://img-proxy.imgfo.com/?referer=https://manganelo.com&url=https://s6.mkklcdnv6temp.com/mangakakalot/b1/battle_angel_alita/vol6_chapter_4_hell_beast/15.jpg",
    "https://img-proxy.imgfo.com/?referer=https://manganelo.com&url=https://s6.mkklcdnv6temp.com/mangakakalot/b1/battle_angel_alita/vol6_chapter_4_hell_beast/16.jpg",
    "https://img-proxy.imgfo.com/?referer=https://manganelo.com&url=https://s6.mkklcdnv6temp.com/mangakakalot/b1/battle_angel_alita/vol6_chapter_4_hell_beast/17.jpg",
    "https://img-proxy.imgfo.com/?referer=https://manganelo.com&url=https://s6.mkklcdnv6temp.com/mangakakalot/b1/battle_angel_alita/vol6_chapter_4_hell_beast/18.jpg",
    "https://img-proxy.imgfo.com/?referer=https://manganelo.com&url=https://s6.mkklcdnv6temp.com/mangakakalot/b1/battle_angel_alita/vol6_chapter_4_hell_beast/19.jpg",
    "https://img-proxy.imgfo.com/?referer=https://manganelo.com&url=https://s6.mkklcdnv6temp.com/mangakakalot/b1/battle_angel_alita/vol6_chapter_4_hell_beast/20.jpg",
    "https://img-proxy.imgfo.com/?referer=https://manganelo.com&url=https://s6.mkklcdnv6temp.com/mangakakalot/b1/battle_angel_alita/vol6_chapter_4_hell_beast/21.jpg",
    "https://img-proxy.imgfo.com/?referer=https://manganelo.com&url=https://s6.mkklcdnv6temp.com/mangakakalot/b1/battle_angel_alita/vol6_chapter_4_hell_beast/22.jpg",
    "https://img-proxy.imgfo.com/?referer=https://manganelo.com&url=https://s6.mkklcdnv6temp.com/mangakakalot/b1/battle_angel_alita/vol6_chapter_4_hell_beast/23.jpg",
    "https://img-proxy.imgfo.com/?referer=https://manganelo.com&url=https://s6.mkklcdnv6temp.com/mangakakalot/b1/battle_angel_alita/vol6_chapter_4_hell_beast/24.jpg",
    "https://img-proxy.imgfo.com/?referer=https://manganelo.com&url=https://s6.mkklcdnv6temp.com/mangakakalot/b1/battle_angel_alita/vol6_chapter_4_hell_beast/25.jpg",
    "https://img-proxy.imgfo.com/?referer=https://manganelo.com&url=https://s6.mkklcdnv6temp.com/mangakakalot/b1/battle_angel_alita/vol6_chapter_4_hell_beast/26.jpg",
    "https://img-proxy.imgfo.com/?referer=https://manganelo.com&url=https://s6.mkklcdnv6temp.com/mangakakalot/b1/battle_angel_alita/vol6_chapter_4_hell_beast/27.jpg",
    "https://img-proxy.imgfo.com/?referer=https://manganelo.com&url=https://s6.mkklcdnv6temp.com/mangakakalot/b1/battle_angel_alita/vol6_chapter_4_hell_beast/28.jpg",
    "https://img-proxy.imgfo.com/?referer=https://manganelo.com&url=https://s6.mkklcdnv6temp.com/mangakakalot/b1/battle_angel_alita/vol6_chapter_4_hell_beast/29.jpg",
    "https://img-proxy.imgfo.com/?referer=https://manganelo.com&url=https://s6.mkklcdnv6temp.com/mangakakalot/b1/battle_angel_alita/vol6_chapter_4_hell_beast/30.jpg",
    "https://img-proxy.imgfo.com/?referer=https://manganelo.com&url=https://s6.mkklcdnv6temp.com/mangakakalot/b1/battle_angel_alita/vol6_chapter_4_hell_beast/31.jpg",
    "https://img-proxy.imgfo.com/?referer=https://manganelo.com&url=https://s6.mkklcdnv6temp.com/mangakakalot/b1/battle_angel_alita/vol6_chapter_4_hell_beast/32.jpg",
    "https://img-proxy.imgfo.com/?referer=https://manganelo.com&url=https://s6.mkklcdnv6temp.com/mangakakalot/b1/battle_angel_alita/vol6_chapter_4_hell_beast/33.jpg",
    "https://img-proxy.imgfo.com/?referer=https://manganelo.com&url=https://s6.mkklcdnv6temp.com/mangakakalot/b1/battle_angel_alita/vol6_chapter_4_hell_beast/34.jpg",
    "https://img-proxy.imgfo.com/?referer=https://manganelo.com&url=https://s6.mkklcdnv6temp.com/mangakakalot/b1/battle_angel_alita/vol6_chapter_4_hell_beast/35.jpg",
    "https://img-proxy.imgfo.com/?referer=https://manganelo.com&url=https://s6.mkklcdnv6temp.com/mangakakalot/b1/battle_angel_alita/vol6_chapter_4_hell_beast/36.jpg",
    "https://img-proxy.imgfo.com/?referer=https://manganelo.com&url=https://s6.mkklcdnv6temp.com/mangakakalot/b1/battle_angel_alita/vol6_chapter_4_hell_beast/37.jpg",
    "https://img-proxy.imgfo.com/?referer=https://manganelo.com&url=https://s6.mkklcdnv6temp.com/mangakakalot/b1/battle_angel_alita/vol6_chapter_4_hell_beast/38.jpg",
    "https://img-proxy.imgfo.com/?referer=https://manganelo.com&url=https://s6.mkklcdnv6temp.com/mangakakalot/b1/battle_angel_alita/vol6_chapter_4_hell_beast/39.jpg",
    "https://img-proxy.imgfo.com/?referer=https://manganelo.com&url=https://s6.mkklcdnv6temp.com/mangakakalot/b1/battle_angel_alita/vol6_chapter_4_hell_beast/40.jpg",
    "https://img-proxy.imgfo.com/?referer=https://manganelo.com&url=https://s6.mkklcdnv6temp.com/mangakakalot/b1/battle_angel_alita/vol6_chapter_4_hell_beast/41.jpg",
    "https://img-proxy.imgfo.com/?referer=https://manganelo.com&url=https://s6.mkklcdnv6temp.com/mangakakalot/b1/battle_angel_alita/vol6_chapter_4_hell_beast/42.jpg",
    "https://img-proxy.imgfo.com/?referer=https://manganelo.com&url=https://s6.mkklcdnv6temp.com/mangakakalot/b1/battle_angel_alita/vol6_chapter_4_hell_beast/43.jpg",
    "https://img-proxy.imgfo.com/?referer=https://manganelo.com&url=https://s6.mkklcdnv6temp.com/mangakakalot/b1/battle_angel_alita/vol6_chapter_4_hell_beast/44.jpg",
    "https://img-proxy.imgfo.com/?referer=https://manganelo.com&url=https://s6.mkklcdnv6temp.com/mangakakalot/b1/battle_angel_alita/vol6_chapter_4_hell_beast/45.jpg",
    "https://img-proxy.imgfo.com/?referer=https://manganelo.com&url=https://s6.mkklcdnv6temp.com/mangakakalot/b1/battle_angel_alita/vol6_chapter_4_hell_beast/46.jpg",
    "https://img-proxy.imgfo.com/?referer=https://manganelo.com&url=https://s6.mkklcdnv6temp.com/mangakakalot/b1/battle_angel_alita/vol6_chapter_4_hell_beast/47.jpg"
  ]
}