{
  "cover": "https://avt.mkklcdnv6.com/11/u/6-1583474584.jpg",
  "title": "Battle Angel Alita",
  "genre": "Action, Mature, Sci fi, Seinen, Manga",
  "author": "Kishiro Yukito",
  "status": "Completed",
  "backlink": "https://manganu.com/collections/kishiro-yukito/battle-angel-alita/",
  "description": "Alita is a powerful cyborg with a soft heart and a mysterious past. Her second lease on life isn&#39;t easy: her heart is broken, she gains and loses friends to the cruel world of the Scrapyard far below the Utopian city of Tiphares, and she serves many masters in her quest to protect the innocent and create a new life for herself.",
  "language": "English",
  "images": [
    "https://img-proxy.imgfo.com/?referer=https://manganelo.com&url=https://s6.mkklcdnv6temp.com/mangakakalot/b1/battle_angel_alita/vol6_chapter_2_angel_of_death/1.jpg",
    "https://img-proxy.imgfo.com/?referer=https://manganelo.com&url=https://s6.mkklcdnv6temp.com/mangakakalot/b1/battle_angel_alita/vol6_chapter_2_angel_of_death/2.jpg",
    "https://img-proxy.imgfo.com/?referer=https://manganelo.com&url=https://s6.mkklcdnv6temp.com/mangakakalot/b1/battle_angel_alita/vol6_chapter_2_angel_of_death/3.jpg",
    "https://img-proxy.imgfo.com/?referer=https://manganelo.com&url=https://s6.mkklcdnv6temp.com/mangakakalot/b1/battle_angel_alita/vol6_chapter_2_angel_of_death/4.jpg",
    "https://img-proxy.imgfo.com/?referer=https://manganelo.com&url=https://s6.mkklcdnv6temp.com/mangakakalot/b1/battle_angel_alita/vol6_chapter_2_angel_of_death/5.jpg",
    "https://img-proxy.imgfo.com/?referer=https://manganelo.com&url=https://s6.mkklcdnv6temp.com/mangakakalot/b1/battle_angel_alita/vol6_chapter_2_angel_of_death/6.jpg",
    "https://img-proxy.imgfo.com/?referer=https://manganelo.com&url=https://s6.mkklcdnv6temp.com/mangakakalot/b1/battle_angel_alita/vol6_chapter_2_angel_of_death/7.jpg",
    "https://img-proxy.imgfo.com/?referer=https://manganelo.com&url=https://s6.mkklcdnv6temp.com/mangakakalot/b1/battle_angel_alita/vol6_chapter_2_angel_of_death/8.jpg",
    "https://img-proxy.imgfo.com/?referer=https://manganelo.com&url=https://s6.mkklcdnv6temp.com/mangakakalot/b1/battle_angel_alita/vol6_chapter_2_angel_of_death/9.jpg",
    "https://img-proxy.imgfo.com/?referer=https://manganelo.com&url=https://s6.mkklcdnv6temp.com/mangakakalot/b1/battle_angel_alita/vol6_chapter_2_angel_of_death/10.jpg",
    "https://img-proxy.imgfo.com/?referer=https://manganelo.com&url=https://s6.mkklcdnv6temp.com/mangakakalot/b1/battle_angel_alita/vol6_chapter_2_angel_of_death/11.jpg",
    "https://img-proxy.imgfo.com/?referer=https://manganelo.com&url=https://s6.mkklcdnv6temp.com/mangakakalot/b1/battle_angel_alita/vol6_chapter_2_angel_of_death/12.jpg",
    "https://img-proxy.imgfo.com/?referer=https://manganelo.com&url=https://s6.mkklcdnv6temp.com/mangakakalot/b1/battle_angel_alita/vol6_chapter_2_angel_of_death/13.jpg",
    "https://img-proxy.imgfo.com/?referer=https://manganelo.com&url=https://s6.mkklcdnv6temp.com/mangakakalot/b1/battle_angel_alita/vol6_chapter_2_angel_of_death/14.jpg",
    "https://img-proxy.imgfo.com/?referer=https://manganelo.com&url=https://s6.mkklcdnv6temp.com/mangakakalot/b1/battle_angel_alita/vol6_chapter_2_angel_of_death/15.jpg",
    "https://img-proxy.imgfo.com/?referer=https://manganelo.com&url=https://s6.mkklcdnv6temp.com/mangakakalot/b1/battle_angel_alita/vol6_chapter_2_angel_of_death/16.jpg",
    "https://img-proxy.imgfo.com/?referer=https://manganelo.com&url=https://s6.mkklcdnv6temp.com/mangakakalot/b1/battle_angel_alita/vol6_chapter_2_angel_of_death/17.jpg",
    "https://img-proxy.imgfo.com/?referer=https://manganelo.com&url=https://s6.mkklcdnv6temp.com/mangakakalot/b1/battle_angel_alita/vol6_chapter_2_angel_of_death/18.jpg",
    "https://img-proxy.imgfo.com/?referer=https://manganelo.com&url=https://s6.mkklcdnv6temp.com/mangakakalot/b1/battle_angel_alita/vol6_chapter_2_angel_of_death/19.jpg",
    "https://img-proxy.imgfo.com/?referer=https://manganelo.com&url=https://s6.mkklcdnv6temp.com/mangakakalot/b1/battle_angel_alita/vol6_chapter_2_angel_of_death/20.jpg",
    "https://img-proxy.imgfo.com/?referer=https://manganelo.com&url=https://s6.mkklcdnv6temp.com/mangakakalot/b1/battle_angel_alita/vol6_chapter_2_angel_of_death/21.jpg",
    "https://img-proxy.imgfo.com/?referer=https://manganelo.com&url=https://s6.mkklcdnv6temp.com/mangakakalot/b1/battle_angel_alita/vol6_chapter_2_angel_of_death/22.jpg",
    "https://img-proxy.imgfo.com/?referer=https://manganelo.com&url=https://s6.mkklcdnv6temp.com/mangakakalot/b1/battle_angel_alita/vol6_chapter_2_angel_of_death/23.jpg",
    "https://img-proxy.imgfo.com/?referer=https://manganelo.com&url=https://s6.mkklcdnv6temp.com/mangakakalot/b1/battle_angel_alita/vol6_chapter_2_angel_of_death/24.jpg",
    "https://img-proxy.imgfo.com/?referer=https://manganelo.com&url=https://s6.mkklcdnv6temp.com/mangakakalot/b1/battle_angel_alita/vol6_chapter_2_angel_of_death/25.jpg",
    "https://img-proxy.imgfo.com/?referer=https://manganelo.com&url=https://s6.mkklcdnv6temp.com/mangakakalot/b1/battle_angel_alita/vol6_chapter_2_angel_of_death/26.jpg",
    "https://img-proxy.imgfo.com/?referer=https://manganelo.com&url=https://s6.mkklcdnv6temp.com/mangakakalot/b1/battle_angel_alita/vol6_chapter_2_angel_of_death/27.jpg",
    "https://img-proxy.imgfo.com/?referer=https://manganelo.com&url=https://s6.mkklcdnv6temp.com/mangakakalot/b1/battle_angel_alita/vol6_chapter_2_angel_of_death/28.jpg",
    "https://img-proxy.imgfo.com/?referer=https://manganelo.com&url=https://s6.mkklcdnv6temp.com/mangakakalot/b1/battle_angel_alita/vol6_chapter_2_angel_of_death/29.jpg",
    "https://img-proxy.imgfo.com/?referer=https://manganelo.com&url=https://s6.mkklcdnv6temp.com/mangakakalot/b1/battle_angel_alita/vol6_chapter_2_angel_of_death/30.jpg",
    "https://img-proxy.imgfo.com/?referer=https://manganelo.com&url=https://s6.mkklcdnv6temp.com/mangakakalot/b1/battle_angel_alita/vol6_chapter_2_angel_of_death/31.jpg",
    "https://img-proxy.imgfo.com/?referer=https://manganelo.com&url=https://s6.mkklcdnv6temp.com/mangakakalot/b1/battle_angel_alita/vol6_chapter_2_angel_of_death/32.jpg",
    "https://img-proxy.imgfo.com/?referer=https://manganelo.com&url=https://s6.mkklcdnv6temp.com/mangakakalot/b1/battle_angel_alita/vol6_chapter_2_angel_of_death/33.jpg",
    "https://img-proxy.imgfo.com/?referer=https://manganelo.com&url=https://s6.mkklcdnv6temp.com/mangakakalot/b1/battle_angel_alita/vol6_chapter_2_angel_of_death/34.jpg",
    "https://img-proxy.imgfo.com/?referer=https://manganelo.com&url=https://s6.mkklcdnv6temp.com/mangakakalot/b1/battle_angel_alita/vol6_chapter_2_angel_of_death/35.jpg",
    "https://img-proxy.imgfo.com/?referer=https://manganelo.com&url=https://s6.mkklcdnv6temp.com/mangakakalot/b1/battle_angel_alita/vol6_chapter_2_angel_of_death/36.jpg",
    "https://img-proxy.imgfo.com/?referer=https://manganelo.com&url=https://s6.mkklcdnv6temp.com/mangakakalot/b1/battle_angel_alita/vol6_chapter_2_angel_of_death/37.jpg",
    "https://img-proxy.imgfo.com/?referer=https://manganelo.com&url=https://s6.mkklcdnv6temp.com/mangakakalot/b1/battle_angel_alita/vol6_chapter_2_angel_of_death/38.jpg",
    "https://img-proxy.imgfo.com/?referer=https://manganelo.com&url=https://s6.mkklcdnv6temp.com/mangakakalot/b1/battle_angel_alita/vol6_chapter_2_angel_of_death/39.jpg",
    "https://img-proxy.imgfo.com/?referer=https://manganelo.com&url=https://s6.mkklcdnv6temp.com/mangakakalot/b1/battle_angel_alita/vol6_chapter_2_angel_of_death/40.jpg",
    "https://img-proxy.imgfo.com/?referer=https://manganelo.com&url=https://s6.mkklcdnv6temp.com/mangakakalot/b1/battle_angel_alita/vol6_chapter_2_angel_of_death/41.jpg",
    "https://img-proxy.imgfo.com/?referer=https://manganelo.com&url=https://s6.mkklcdnv6temp.com/mangakakalot/b1/battle_angel_alita/vol6_chapter_2_angel_of_death/42.jpg",
    "https://img-proxy.imgfo.com/?referer=https://manganelo.com&url=https://s6.mkklcdnv6temp.com/mangakakalot/b1/battle_angel_alita/vol6_chapter_2_angel_of_death/43.jpg"
  ]
}