{
  "cover": "https://avt.mkklcdnv6.com/42/l/17-1583496789.jpg",
  "title": "The Bones Of An Invisible Person",
  "original": "Huesos humanos transparentes; Toumei Ningen no Hone; Прозрачные человеческие кости; 透明人間の骨",
  "genre": "Drama, School life, Seinen, Supernatural, Manhwa",
  "author": "Ogino Jun",
  "status": "Completed",
  "backlink": "https://manganu.com/collections/ogino-jun/the-bones-of-an-invisible-person/",
  "description": "An abusive father, an indifferent brother, a mother forced to endure it all, and her, Kinomiya Aya, a girl living in a family that&#39;s fallen apart. One day she makes a wish: &quot;I don&#39;t want to be here...&quot;, and finds herself with the ability to turn invisible. This is the story of how one girl takes back her own pain and her chance at a normal life.",
  "language": "English",
  "images": [
    "https://img-proxy.imgfo.com/?referer=https://manganelo.com&url=https://s6.mkklcdnv6temp.com/mangakakalot/f2/ft918339/vol4_chapter_19/1.jpg",
    "https://img-proxy.imgfo.com/?referer=https://manganelo.com&url=https://s6.mkklcdnv6temp.com/mangakakalot/f2/ft918339/vol4_chapter_19/2.jpg",
    "https://img-proxy.imgfo.com/?referer=https://manganelo.com&url=https://s6.mkklcdnv6temp.com/mangakakalot/f2/ft918339/vol4_chapter_19/3.jpg",
    "https://img-proxy.imgfo.com/?referer=https://manganelo.com&url=https://s6.mkklcdnv6temp.com/mangakakalot/f2/ft918339/vol4_chapter_19/4.jpg",
    "https://img-proxy.imgfo.com/?referer=https://manganelo.com&url=https://s6.mkklcdnv6temp.com/mangakakalot/f2/ft918339/vol4_chapter_19/5.jpg",
    "https://img-proxy.imgfo.com/?referer=https://manganelo.com&url=https://s6.mkklcdnv6temp.com/mangakakalot/f2/ft918339/vol4_chapter_19/6.jpg",
    "https://img-proxy.imgfo.com/?referer=https://manganelo.com&url=https://s6.mkklcdnv6temp.com/mangakakalot/f2/ft918339/vol4_chapter_19/7.jpg",
    "https://img-proxy.imgfo.com/?referer=https://manganelo.com&url=https://s6.mkklcdnv6temp.com/mangakakalot/f2/ft918339/vol4_chapter_19/8.jpg",
    "https://img-proxy.imgfo.com/?referer=https://manganelo.com&url=https://s6.mkklcdnv6temp.com/mangakakalot/f2/ft918339/vol4_chapter_19/9.jpg",
    "https://img-proxy.imgfo.com/?referer=https://manganelo.com&url=https://s6.mkklcdnv6temp.com/mangakakalot/f2/ft918339/vol4_chapter_19/10.jpg",
    "https://img-proxy.imgfo.com/?referer=https://manganelo.com&url=https://s6.mkklcdnv6temp.com/mangakakalot/f2/ft918339/vol4_chapter_19/11.jpg",
    "https://img-proxy.imgfo.com/?referer=https://manganelo.com&url=https://s6.mkklcdnv6temp.com/mangakakalot/f2/ft918339/vol4_chapter_19/12.jpg",
    "https://img-proxy.imgfo.com/?referer=https://manganelo.com&url=https://s6.mkklcdnv6temp.com/mangakakalot/f2/ft918339/vol4_chapter_19/13.jpg",
    "https://img-proxy.imgfo.com/?referer=https://manganelo.com&url=https://s6.mkklcdnv6temp.com/mangakakalot/f2/ft918339/vol4_chapter_19/14.jpg",
    "https://img-proxy.imgfo.com/?referer=https://manganelo.com&url=https://s6.mkklcdnv6temp.com/mangakakalot/f2/ft918339/vol4_chapter_19/15.jpg",
    "https://img-proxy.imgfo.com/?referer=https://manganelo.com&url=https://s6.mkklcdnv6temp.com/mangakakalot/f2/ft918339/vol4_chapter_19/16.jpg",
    "https://img-proxy.imgfo.com/?referer=https://manganelo.com&url=https://s6.mkklcdnv6temp.com/mangakakalot/f2/ft918339/vol4_chapter_19/17.jpg",
    "https://img-proxy.imgfo.com/?referer=https://manganelo.com&url=https://s6.mkklcdnv6temp.com/mangakakalot/f2/ft918339/vol4_chapter_19/18.jpg",
    "https://img-proxy.imgfo.com/?referer=https://manganelo.com&url=https://s6.mkklcdnv6temp.com/mangakakalot/f2/ft918339/vol4_chapter_19/19.jpg",
    "https://img-proxy.imgfo.com/?referer=https://manganelo.com&url=https://s6.mkklcdnv6temp.com/mangakakalot/f2/ft918339/vol4_chapter_19/20.jpg",
    "https://img-proxy.imgfo.com/?referer=https://manganelo.com&url=https://s6.mkklcdnv6temp.com/mangakakalot/f2/ft918339/vol4_chapter_19/21.jpg",
    "https://img-proxy.imgfo.com/?referer=https://manganelo.com&url=https://s6.mkklcdnv6temp.com/mangakakalot/f2/ft918339/vol4_chapter_19/22.jpg",
    "https://img-proxy.imgfo.com/?referer=https://manganelo.com&url=https://s6.mkklcdnv6temp.com/mangakakalot/f2/ft918339/vol4_chapter_19/23.jpg",
    "https://img-proxy.imgfo.com/?referer=https://manganelo.com&url=https://s6.mkklcdnv6temp.com/mangakakalot/f2/ft918339/vol4_chapter_19/24.jpg",
    "https://img-proxy.imgfo.com/?referer=https://manganelo.com&url=https://s6.mkklcdnv6temp.com/mangakakalot/f2/ft918339/vol4_chapter_19/25.jpg",
    "https://img-proxy.imgfo.com/?referer=https://manganelo.com&url=https://s6.mkklcdnv6temp.com/mangakakalot/f2/ft918339/vol4_chapter_19/26.jpg",
    "https://img-proxy.imgfo.com/?referer=https://manganelo.com&url=https://s6.mkklcdnv6temp.com/mangakakalot/f2/ft918339/vol4_chapter_19/27.jpg",
    "https://img-proxy.imgfo.com/?referer=https://manganelo.com&url=https://s6.mkklcdnv6temp.com/mangakakalot/f2/ft918339/vol4_chapter_19/28.jpg",
    "https://img-proxy.imgfo.com/?referer=https://manganelo.com&url=https://s6.mkklcdnv6temp.com/mangakakalot/f2/ft918339/vol4_chapter_19/29.jpg",
    "https://img-proxy.imgfo.com/?referer=https://manganelo.com&url=https://s6.mkklcdnv6temp.com/mangakakalot/f2/ft918339/vol4_chapter_19/30.jpg",
    "https://img-proxy.imgfo.com/?referer=https://manganelo.com&url=https://s6.mkklcdnv6temp.com/mangakakalot/f2/ft918339/vol4_chapter_19/31.jpg"
  ]
}