{
  "cover": "https://avt.mkklcdnv6.com/23/s/4-1583470655.jpg",
  "title": "Nozoki Ana",
  "original": "ノゾキ アナ; ノ・ゾ・キ・ア・ナ (Japanese); 偷窺孔; 窥视孔 (Chinese); 엿보기구멍 (Korean); A Peep Hole (English); Heimliche Blicke (German); NO-ZO-KI-A-NA; Nozokiana; Peeping Hole; Lỗ Nhìn Trộm; Kẽ Hở (Vietnamese - Tiếng Việt - TV)",
  "genre": "Action, Adult, Comedy, Drama, Ecchi, Harem, Romance, School life, Seinen, Manga",
  "author": "Honna Wakou",
  "status": "Completed",
  "backlink": "https://manganu.com/collections/honna-wakou/nozoki-ana/",
  "description": "Nozoki Ana loves of artwork pupil Tatsuhiko Kido and follows the life. He finds a hole-in-the-wall of his flat through which he&#39;s a view of the neighboring flat after relocating to Tokyo to to go to art-school. He sees his lovely neighbor, Emiru Ikuno, masturbating, when he looks through it. She allows him in to the flat, when he goes across the street to inform her about the hole. Sadly for him, he falls, trips, and eventually ends up up on the very top of her. An image of these snaps in this difficult position and insists that she&#39;ll just erase the image if he enables her and leaves the hole. But she is not selfish - he might peep on on her behalf also. This starts an existence of each of them of them &quot;peeping&quot; on each other.\n\n\nThe remaining narrative follows Kido through his regular life and his sexual associations while he makes do with being equally peeped on and motivated to peep on his neighbour. Finally giving in to temptation, Kido peeps on Emiru seeing her masturbating and falls into several traps set by Emiru who records him kissing her and sucking on her boobs. Later in the narrative Kido, even although Emiru attempts to prevent him, realizes that Kotobiki Yuri, his girl friend, is utilizing her other boy friend who will not care what she does to be cheated on by him. This prompts Kido to stop their relationship. Seduce him and Yuri afterwards attempts to make up with Kido, stating she really wants to be with him rather than her other boy friend, but is declined.\n\nWith Kido believing that Emiru is concealing another side to her, the narrative continues. When Emiru lies about adoring him, Kido and another woman, Madoka Watari, who looks perfect for him finally date. She&#39;s initially incredibly unwilling to get rid of her virginity but finally relents and they begin dating. As time passes Kido understands that he&#39;s emotions for Emiru and he breaks up with Madoka. He seeks Emiru&#39;s buddy, Maki, who tells him the reason Emiru has become what she&#39;s out. In spite of this disclosure, he continues to adore her. They connect the night before their commencement, but another day Emiru leaves Kido prior to the commencement ceremony however he makes one final rule within their peeping sport which was to have finished using their commencement: before continuing, he&#39;ll wait on her for 12 months. A year after commencement he returns from a class reunion to discover that she&#39;s came back and they eventually get to be the few these were were destined to be.",
  "language": "English",
  "images": [
    "https://img-proxy.imgfo.com/?referer=https://manganelo.com&url=https://s7.mkklcdnv6temp.com/mangakakalot/n2/nozoki_ana/vol1_chapter_1_a_peephole/28.jpg",
    "https://img-proxy.imgfo.com/?referer=https://manganelo.com&url=https://s7.mkklcdnv6temp.com/mangakakalot/n2/nozoki_ana/vol1_chapter_1_a_peephole/29.jpg",
    "https://img-proxy.imgfo.com/?referer=https://manganelo.com&url=https://s7.mkklcdnv6temp.com/mangakakalot/n2/nozoki_ana/vol1_chapter_1_a_peephole/30.jpg",
    "https://img-proxy.imgfo.com/?referer=https://manganelo.com&url=https://s7.mkklcdnv6temp.com/mangakakalot/n2/nozoki_ana/vol1_chapter_1_a_peephole/31.jpg",
    "https://img-proxy.imgfo.com/?referer=https://manganelo.com&url=https://s7.mkklcdnv6temp.com/mangakakalot/n2/nozoki_ana/vol1_chapter_1_a_peephole/32.jpg",
    "https://img-proxy.imgfo.com/?referer=https://manganelo.com&url=https://s7.mkklcdnv6temp.com/mangakakalot/n2/nozoki_ana/vol1_chapter_1_a_peephole/33.jpg",
    "https://img-proxy.imgfo.com/?referer=https://manganelo.com&url=https://s7.mkklcdnv6temp.com/mangakakalot/n2/nozoki_ana/vol1_chapter_1_a_peephole/34.jpg",
    "https://img-proxy.imgfo.com/?referer=https://manganelo.com&url=https://s7.mkklcdnv6temp.com/mangakakalot/n2/nozoki_ana/vol1_chapter_1_a_peephole/35.jpg",
    "https://img-proxy.imgfo.com/?referer=https://manganelo.com&url=https://s7.mkklcdnv6temp.com/mangakakalot/n2/nozoki_ana/vol1_chapter_1_a_peephole/36.jpg",
    "https://img-proxy.imgfo.com/?referer=https://manganelo.com&url=https://s7.mkklcdnv6temp.com/mangakakalot/n2/nozoki_ana/vol1_chapter_1_a_peephole/37.jpg",
    "https://img-proxy.imgfo.com/?referer=https://manganelo.com&url=https://s7.mkklcdnv6temp.com/mangakakalot/n2/nozoki_ana/vol1_chapter_1_a_peephole/38.jpg",
    "https://img-proxy.imgfo.com/?referer=https://manganelo.com&url=https://s7.mkklcdnv6temp.com/mangakakalot/n2/nozoki_ana/vol1_chapter_1_a_peephole/39.jpg",
    "https://img-proxy.imgfo.com/?referer=https://manganelo.com&url=https://s7.mkklcdnv6temp.com/mangakakalot/n2/nozoki_ana/vol1_chapter_1_a_peephole/40.jpg",
    "https://img-proxy.imgfo.com/?referer=https://manganelo.com&url=https://s7.mkklcdnv6temp.com/mangakakalot/n2/nozoki_ana/vol1_chapter_1_a_peephole/41.jpg",
    "https://img-proxy.imgfo.com/?referer=https://manganelo.com&url=https://s7.mkklcdnv6temp.com/mangakakalot/n2/nozoki_ana/vol1_chapter_1_a_peephole/42.jpg",
    "https://img-proxy.imgfo.com/?referer=https://manganelo.com&url=https://s7.mkklcdnv6temp.com/mangakakalot/n2/nozoki_ana/vol1_chapter_1_a_peephole/43.jpg",
    "https://img-proxy.imgfo.com/?referer=https://manganelo.com&url=https://s7.mkklcdnv6temp.com/mangakakalot/n2/nozoki_ana/vol1_chapter_1_a_peephole/44.jpg",
    "https://img-proxy.imgfo.com/?referer=https://manganelo.com&url=https://s7.mkklcdnv6temp.com/mangakakalot/n2/nozoki_ana/vol1_chapter_1_a_peephole/45.jpg",
    "https://img-proxy.imgfo.com/?referer=https://manganelo.com&url=https://s7.mkklcdnv6temp.com/mangakakalot/n2/nozoki_ana/vol1_chapter_1_a_peephole/46.jpg",
    "https://img-proxy.imgfo.com/?referer=https://manganelo.com&url=https://s7.mkklcdnv6temp.com/mangakakalot/n2/nozoki_ana/vol1_chapter_1_a_peephole/47.jpg",
    "https://img-proxy.imgfo.com/?referer=https://manganelo.com&url=https://s7.mkklcdnv6temp.com/mangakakalot/n2/nozoki_ana/vol1_chapter_1_a_peephole/48.jpg",
    "https://img-proxy.imgfo.com/?referer=https://manganelo.com&url=https://s7.mkklcdnv6temp.com/mangakakalot/n2/nozoki_ana/vol1_chapter_1_a_peephole/49.jpg",
    "https://img-proxy.imgfo.com/?referer=https://manganelo.com&url=https://s7.mkklcdnv6temp.com/mangakakalot/n2/nozoki_ana/vol1_chapter_1_a_peephole/50.jpg",
    "https://img-proxy.imgfo.com/?referer=https://manganelo.com&url=https://s7.mkklcdnv6temp.com/mangakakalot/n2/nozoki_ana/vol1_chapter_1_a_peephole/51.jpg",
    "https://img-proxy.imgfo.com/?referer=https://manganelo.com&url=https://s7.mkklcdnv6temp.com/mangakakalot/n2/nozoki_ana/vol1_chapter_1_a_peephole/52.jpg",
    "https://img-proxy.imgfo.com/?referer=https://manganelo.com&url=https://s7.mkklcdnv6temp.com/mangakakalot/n2/nozoki_ana/vol1_chapter_1_a_peephole/53.jpg",
    "https://img-proxy.imgfo.com/?referer=https://manganelo.com&url=https://s7.mkklcdnv6temp.com/mangakakalot/n2/nozoki_ana/vol1_chapter_1_a_peephole/54.jpg",
    "https://img-proxy.imgfo.com/?referer=https://manganelo.com&url=https://s7.mkklcdnv6temp.com/mangakakalot/n2/nozoki_ana/vol1_chapter_1_a_peephole/55.jpg"
  ]
}