{
  "cover": "https://avt.mkklcdnv6.com/11/p/4-1583470140.jpg",
  "title": "Angelic Layer",
  "original": "エンジェリックレイヤー ; 機動天使 エンジェリックレイヤー ; 엔젤릭 레이어 ; Kidou Tenshi Angelic Layer ; Mobile Angel Angelic Layer",
  "genre": "Action, Comedy, Sci fi, Shounen, Manga",
  "author": "Ohkawa Ageha",
  "status": "Completed",
  "backlink": "https://manganu.com/collections/ohkawa-ageha/angelic-layer/",
  "description": "In the future, the most popular game in the world is Angelic Layer. Contestants must raise and train their own &#39;Angels&#39; (or fighting dolls) to compete in tournaments. Enter Misaki Suzuhara, sixth grade Angelic Layer prodigy. With her speed-type angel, Hikaru, many people think Misaki stands a chance at winning the championship. She&#39;ll have a lot of help along the way, but the road to victory will be not be an easy route, especially for someone as young as Misaki.",
  "language": "English",
  "images": [
    "https://img-proxy.imgfo.com/?referer=https://manganelo.com&url=https://s3.mkklcdnv6temp.com/mangakakalot/a1/angelic_layer/vol1_chapter_2/1.jpg",
    "https://img-proxy.imgfo.com/?referer=https://manganelo.com&url=https://s3.mkklcdnv6temp.com/mangakakalot/a1/angelic_layer/vol1_chapter_2/2.jpg",
    "https://img-proxy.imgfo.com/?referer=https://manganelo.com&url=https://s3.mkklcdnv6temp.com/mangakakalot/a1/angelic_layer/vol1_chapter_2/3.jpg",
    "https://img-proxy.imgfo.com/?referer=https://manganelo.com&url=https://s3.mkklcdnv6temp.com/mangakakalot/a1/angelic_layer/vol1_chapter_2/4.jpg",
    "https://img-proxy.imgfo.com/?referer=https://manganelo.com&url=https://s3.mkklcdnv6temp.com/mangakakalot/a1/angelic_layer/vol1_chapter_2/5.jpg",
    "https://img-proxy.imgfo.com/?referer=https://manganelo.com&url=https://s3.mkklcdnv6temp.com/mangakakalot/a1/angelic_layer/vol1_chapter_2/6.jpg",
    "https://img-proxy.imgfo.com/?referer=https://manganelo.com&url=https://s3.mkklcdnv6temp.com/mangakakalot/a1/angelic_layer/vol1_chapter_2/7.jpg",
    "https://img-proxy.imgfo.com/?referer=https://manganelo.com&url=https://s3.mkklcdnv6temp.com/mangakakalot/a1/angelic_layer/vol1_chapter_2/8.jpg",
    "https://img-proxy.imgfo.com/?referer=https://manganelo.com&url=https://s3.mkklcdnv6temp.com/mangakakalot/a1/angelic_layer/vol1_chapter_2/9.jpg",
    "https://img-proxy.imgfo.com/?referer=https://manganelo.com&url=https://s3.mkklcdnv6temp.com/mangakakalot/a1/angelic_layer/vol1_chapter_2/10.jpg",
    "https://img-proxy.imgfo.com/?referer=https://manganelo.com&url=https://s3.mkklcdnv6temp.com/mangakakalot/a1/angelic_layer/vol1_chapter_2/11.jpg",
    "https://img-proxy.imgfo.com/?referer=https://manganelo.com&url=https://s3.mkklcdnv6temp.com/mangakakalot/a1/angelic_layer/vol1_chapter_2/12.jpg",
    "https://img-proxy.imgfo.com/?referer=https://manganelo.com&url=https://s3.mkklcdnv6temp.com/mangakakalot/a1/angelic_layer/vol1_chapter_2/13.jpg",
    "https://img-proxy.imgfo.com/?referer=https://manganelo.com&url=https://s3.mkklcdnv6temp.com/mangakakalot/a1/angelic_layer/vol1_chapter_2/14.jpg",
    "https://img-proxy.imgfo.com/?referer=https://manganelo.com&url=https://s3.mkklcdnv6temp.com/mangakakalot/a1/angelic_layer/vol1_chapter_2/15.jpg",
    "https://img-proxy.imgfo.com/?referer=https://manganelo.com&url=https://s3.mkklcdnv6temp.com/mangakakalot/a1/angelic_layer/vol1_chapter_2/16.jpg",
    "https://img-proxy.imgfo.com/?referer=https://manganelo.com&url=https://s3.mkklcdnv6temp.com/mangakakalot/a1/angelic_layer/vol1_chapter_2/17.jpg"
  ]
}