{
  "cover": "https://avt.mkklcdnv6.com/48/o/6-1583476215.jpg",
  "title": "Arisa",
  "original": "ありさ ; アリサ ; ARISA亚里纱 ; ARISA双子迷情",
  "genre": "Drama, Mystery, Psychological, Romance, School life, Shoujo, Manga",
  "author": "Ando Natsumi",
  "status": "Completed",
  "backlink": "https://manganu.com/collections/ando-natsumi/arisa/",
  "description": "For years the rash tomboyish Tsubasa had communicated with her twin through letters. She had formed the idea that the gentle Arisa led a joyful school life. But upon Arisa's sudden suicide attempt, Tsubasa vows to find the reason behind her twin's actions by taking her place at school. But will this supposed joyful life be too much for Tsubasa to handle? What does it have to do with the people disappearing from Arisa's school...",
  "language": "English",
  "images": [
    "https://img-proxy.imgfo.com/?referer=https://manganelo.com&url=https://s5.mkklcdnv6temp.com/mangakakalot/a2/arisa/vol10_chapter_36_the_flower_bouquet_given_to_k/1.jpg",
    "https://img-proxy.imgfo.com/?referer=https://manganelo.com&url=https://s5.mkklcdnv6temp.com/mangakakalot/a2/arisa/vol10_chapter_36_the_flower_bouquet_given_to_k/2.jpg",
    "https://img-proxy.imgfo.com/?referer=https://manganelo.com&url=https://s5.mkklcdnv6temp.com/mangakakalot/a2/arisa/vol10_chapter_36_the_flower_bouquet_given_to_k/3.jpg",
    "https://img-proxy.imgfo.com/?referer=https://manganelo.com&url=https://s5.mkklcdnv6temp.com/mangakakalot/a2/arisa/vol10_chapter_36_the_flower_bouquet_given_to_k/4.jpg",
    "https://img-proxy.imgfo.com/?referer=https://manganelo.com&url=https://s5.mkklcdnv6temp.com/mangakakalot/a2/arisa/vol10_chapter_36_the_flower_bouquet_given_to_k/5.jpg",
    "https://img-proxy.imgfo.com/?referer=https://manganelo.com&url=https://s5.mkklcdnv6temp.com/mangakakalot/a2/arisa/vol10_chapter_36_the_flower_bouquet_given_to_k/6.jpg",
    "https://img-proxy.imgfo.com/?referer=https://manganelo.com&url=https://s5.mkklcdnv6temp.com/mangakakalot/a2/arisa/vol10_chapter_36_the_flower_bouquet_given_to_k/7.jpg",
    "https://img-proxy.imgfo.com/?referer=https://manganelo.com&url=https://s5.mkklcdnv6temp.com/mangakakalot/a2/arisa/vol10_chapter_36_the_flower_bouquet_given_to_k/8.jpg",
    "https://img-proxy.imgfo.com/?referer=https://manganelo.com&url=https://s5.mkklcdnv6temp.com/mangakakalot/a2/arisa/vol10_chapter_36_the_flower_bouquet_given_to_k/9.jpg",
    "https://img-proxy.imgfo.com/?referer=https://manganelo.com&url=https://s5.mkklcdnv6temp.com/mangakakalot/a2/arisa/vol10_chapter_36_the_flower_bouquet_given_to_k/10.jpg",
    "https://img-proxy.imgfo.com/?referer=https://manganelo.com&url=https://s5.mkklcdnv6temp.com/mangakakalot/a2/arisa/vol10_chapter_36_the_flower_bouquet_given_to_k/11.jpg",
    "https://img-proxy.imgfo.com/?referer=https://manganelo.com&url=https://s5.mkklcdnv6temp.com/mangakakalot/a2/arisa/vol10_chapter_36_the_flower_bouquet_given_to_k/12.jpg",
    "https://img-proxy.imgfo.com/?referer=https://manganelo.com&url=https://s5.mkklcdnv6temp.com/mangakakalot/a2/arisa/vol10_chapter_36_the_flower_bouquet_given_to_k/13.jpg",
    "https://img-proxy.imgfo.com/?referer=https://manganelo.com&url=https://s5.mkklcdnv6temp.com/mangakakalot/a2/arisa/vol10_chapter_36_the_flower_bouquet_given_to_k/14.jpg",
    "https://img-proxy.imgfo.com/?referer=https://manganelo.com&url=https://s5.mkklcdnv6temp.com/mangakakalot/a2/arisa/vol10_chapter_36_the_flower_bouquet_given_to_k/15.jpg",
    "https://img-proxy.imgfo.com/?referer=https://manganelo.com&url=https://s5.mkklcdnv6temp.com/mangakakalot/a2/arisa/vol10_chapter_36_the_flower_bouquet_given_to_k/16.jpg",
    "https://img-proxy.imgfo.com/?referer=https://manganelo.com&url=https://s5.mkklcdnv6temp.com/mangakakalot/a2/arisa/vol10_chapter_36_the_flower_bouquet_given_to_k/17.jpg",
    "https://img-proxy.imgfo.com/?referer=https://manganelo.com&url=https://s5.mkklcdnv6temp.com/mangakakalot/a2/arisa/vol10_chapter_36_the_flower_bouquet_given_to_k/18.jpg",
    "https://img-proxy.imgfo.com/?referer=https://manganelo.com&url=https://s5.mkklcdnv6temp.com/mangakakalot/a2/arisa/vol10_chapter_36_the_flower_bouquet_given_to_k/19.jpg",
    "https://img-proxy.imgfo.com/?referer=https://manganelo.com&url=https://s5.mkklcdnv6temp.com/mangakakalot/a2/arisa/vol10_chapter_36_the_flower_bouquet_given_to_k/20.jpg",
    "https://img-proxy.imgfo.com/?referer=https://manganelo.com&url=https://s5.mkklcdnv6temp.com/mangakakalot/a2/arisa/vol10_chapter_36_the_flower_bouquet_given_to_k/21.jpg",
    "https://img-proxy.imgfo.com/?referer=https://manganelo.com&url=https://s5.mkklcdnv6temp.com/mangakakalot/a2/arisa/vol10_chapter_36_the_flower_bouquet_given_to_k/22.jpg",
    "https://img-proxy.imgfo.com/?referer=https://manganelo.com&url=https://s5.mkklcdnv6temp.com/mangakakalot/a2/arisa/vol10_chapter_36_the_flower_bouquet_given_to_k/23.jpg",
    "https://img-proxy.imgfo.com/?referer=https://manganelo.com&url=https://s5.mkklcdnv6temp.com/mangakakalot/a2/arisa/vol10_chapter_36_the_flower_bouquet_given_to_k/24.jpg",
    "https://img-proxy.imgfo.com/?referer=https://manganelo.com&url=https://s5.mkklcdnv6temp.com/mangakakalot/a2/arisa/vol10_chapter_36_the_flower_bouquet_given_to_k/25.jpg",
    "https://img-proxy.imgfo.com/?referer=https://manganelo.com&url=https://s5.mkklcdnv6temp.com/mangakakalot/a2/arisa/vol10_chapter_36_the_flower_bouquet_given_to_k/26.jpg",
    "https://img-proxy.imgfo.com/?referer=https://manganelo.com&url=https://s5.mkklcdnv6temp.com/mangakakalot/a2/arisa/vol10_chapter_36_the_flower_bouquet_given_to_k/27.jpg",
    "https://img-proxy.imgfo.com/?referer=https://manganelo.com&url=https://s5.mkklcdnv6temp.com/mangakakalot/a2/arisa/vol10_chapter_36_the_flower_bouquet_given_to_k/28.jpg",
    "https://img-proxy.imgfo.com/?referer=https://manganelo.com&url=https://s5.mkklcdnv6temp.com/mangakakalot/a2/arisa/vol10_chapter_36_the_flower_bouquet_given_to_k/29.jpg",
    "https://img-proxy.imgfo.com/?referer=https://manganelo.com&url=https://s5.mkklcdnv6temp.com/mangakakalot/a2/arisa/vol10_chapter_36_the_flower_bouquet_given_to_k/30.jpg",
    "https://img-proxy.imgfo.com/?referer=https://manganelo.com&url=https://s5.mkklcdnv6temp.com/mangakakalot/a2/arisa/vol10_chapter_36_the_flower_bouquet_given_to_k/31.jpg",
    "https://img-proxy.imgfo.com/?referer=https://manganelo.com&url=https://s5.mkklcdnv6temp.com/mangakakalot/a2/arisa/vol10_chapter_36_the_flower_bouquet_given_to_k/32.jpg",
    "https://img-proxy.imgfo.com/?referer=https://manganelo.com&url=https://s5.mkklcdnv6temp.com/mangakakalot/a2/arisa/vol10_chapter_36_the_flower_bouquet_given_to_k/33.jpg",
    "https://img-proxy.imgfo.com/?referer=https://manganelo.com&url=https://s5.mkklcdnv6temp.com/mangakakalot/a2/arisa/vol10_chapter_36_the_flower_bouquet_given_to_k/34.jpg",
    "https://img-proxy.imgfo.com/?referer=https://manganelo.com&url=https://s5.mkklcdnv6temp.com/mangakakalot/a2/arisa/vol10_chapter_36_the_flower_bouquet_given_to_k/35.jpg",
    "https://img-proxy.imgfo.com/?referer=https://manganelo.com&url=https://s5.mkklcdnv6temp.com/mangakakalot/a2/arisa/vol10_chapter_36_the_flower_bouquet_given_to_k/36.jpg",
    "https://img-proxy.imgfo.com/?referer=https://manganelo.com&url=https://s5.mkklcdnv6temp.com/mangakakalot/a2/arisa/vol10_chapter_36_the_flower_bouquet_given_to_k/37.jpg",
    "https://img-proxy.imgfo.com/?referer=https://manganelo.com&url=https://s5.mkklcdnv6temp.com/mangakakalot/a2/arisa/vol10_chapter_36_the_flower_bouquet_given_to_k/38.jpg",
    "https://img-proxy.imgfo.com/?referer=https://manganelo.com&url=https://s5.mkklcdnv6temp.com/mangakakalot/a2/arisa/vol10_chapter_36_the_flower_bouquet_given_to_k/39.jpg",
    "https://img-proxy.imgfo.com/?referer=https://manganelo.com&url=https://s5.mkklcdnv6temp.com/mangakakalot/a2/arisa/vol10_chapter_36_the_flower_bouquet_given_to_k/40.jpg",
    "https://img-proxy.imgfo.com/?referer=https://manganelo.com&url=https://s5.mkklcdnv6temp.com/mangakakalot/a2/arisa/vol10_chapter_36_the_flower_bouquet_given_to_k/41.jpg"
  ]
}