{
  "cover": "https://avt.mkklcdnv6.com/13/d/5-1583472361.jpg",
  "title": "Love Lucky",
  "original": "ラブ・らっきぃ ; 偶像結婚白書 ; 偶像H生活 ; 愛情幸運星",
  "genre": "Adult, Comedy, Ecchi, Mature, Romance, Seinen, Manga",
  "author": "Katsu Aki",
  "status": "Completed",
  "backlink": "https://manganu.com/collections/katsu-aki/love-lucky/",
  "description": "Fuuta, who has average looks and is a salaryman never had luck with women. However, one day he met a strange girl in a dating agency. She always wears a different mask whenever they go out for dates. One day, Fuuta saved her from what he thought were thieves, and she confessed and proposed to him after that moment. On the night they got married, she takes off her mask and finally reveals her identity. She's the super-idol singer Kirari who Fuuta admires! Thus starts their life as a married couple.",
  "language": "English",
  "images": [
    "https://img-proxy.imgfo.com/?referer=https://manganelo.com&url=https://s6.mkklcdnv6temp.com/mangakakalot/l2/love_lucky/vol4_chapter_33/1.jpg",
    "https://img-proxy.imgfo.com/?referer=https://manganelo.com&url=https://s6.mkklcdnv6temp.com/mangakakalot/l2/love_lucky/vol4_chapter_33/2.jpg",
    "https://img-proxy.imgfo.com/?referer=https://manganelo.com&url=https://s6.mkklcdnv6temp.com/mangakakalot/l2/love_lucky/vol4_chapter_33/3.jpg",
    "https://img-proxy.imgfo.com/?referer=https://manganelo.com&url=https://s6.mkklcdnv6temp.com/mangakakalot/l2/love_lucky/vol4_chapter_33/4.jpg",
    "https://img-proxy.imgfo.com/?referer=https://manganelo.com&url=https://s6.mkklcdnv6temp.com/mangakakalot/l2/love_lucky/vol4_chapter_33/5.jpg",
    "https://img-proxy.imgfo.com/?referer=https://manganelo.com&url=https://s6.mkklcdnv6temp.com/mangakakalot/l2/love_lucky/vol4_chapter_33/6.jpg",
    "https://img-proxy.imgfo.com/?referer=https://manganelo.com&url=https://s6.mkklcdnv6temp.com/mangakakalot/l2/love_lucky/vol4_chapter_33/7.jpg",
    "https://img-proxy.imgfo.com/?referer=https://manganelo.com&url=https://s6.mkklcdnv6temp.com/mangakakalot/l2/love_lucky/vol4_chapter_33/8.jpg",
    "https://img-proxy.imgfo.com/?referer=https://manganelo.com&url=https://s6.mkklcdnv6temp.com/mangakakalot/l2/love_lucky/vol4_chapter_33/9.jpg",
    "https://img-proxy.imgfo.com/?referer=https://manganelo.com&url=https://s6.mkklcdnv6temp.com/mangakakalot/l2/love_lucky/vol4_chapter_33/10.jpg",
    "https://img-proxy.imgfo.com/?referer=https://manganelo.com&url=https://s6.mkklcdnv6temp.com/mangakakalot/l2/love_lucky/vol4_chapter_33/11.jpg",
    "https://img-proxy.imgfo.com/?referer=https://manganelo.com&url=https://s6.mkklcdnv6temp.com/mangakakalot/l2/love_lucky/vol4_chapter_33/12.jpg",
    "https://img-proxy.imgfo.com/?referer=https://manganelo.com&url=https://s6.mkklcdnv6temp.com/mangakakalot/l2/love_lucky/vol4_chapter_33/13.jpg",
    "https://img-proxy.imgfo.com/?referer=https://manganelo.com&url=https://s6.mkklcdnv6temp.com/mangakakalot/l2/love_lucky/vol4_chapter_33/14.jpg",
    "https://img-proxy.imgfo.com/?referer=https://manganelo.com&url=https://s6.mkklcdnv6temp.com/mangakakalot/l2/love_lucky/vol4_chapter_33/15.jpg",
    "https://img-proxy.imgfo.com/?referer=https://manganelo.com&url=https://s6.mkklcdnv6temp.com/mangakakalot/l2/love_lucky/vol4_chapter_33/16.jpg",
    "https://img-proxy.imgfo.com/?referer=https://manganelo.com&url=https://s6.mkklcdnv6temp.com/mangakakalot/l2/love_lucky/vol4_chapter_33/17.jpg",
    "https://img-proxy.imgfo.com/?referer=https://manganelo.com&url=https://s6.mkklcdnv6temp.com/mangakakalot/l2/love_lucky/vol4_chapter_33/18.jpg",
    "https://img-proxy.imgfo.com/?referer=https://manganelo.com&url=https://s6.mkklcdnv6temp.com/mangakakalot/l2/love_lucky/vol4_chapter_33/19.jpg",
    "https://img-proxy.imgfo.com/?referer=https://manganelo.com&url=https://s6.mkklcdnv6temp.com/mangakakalot/l2/love_lucky/vol4_chapter_33/20.jpg"
  ]
}