{
  "cover": "https://avt.mkklcdnv6.com/3/r/13-1583487857.jpg",
  "title": "Kikagaku Ehon",
  "original": "幾何学絵本",
  "genre": "Oneshot, Shounen ai, Slice of life, Manga",
  "author": "Takaboshi Asako",
  "status": "Completed",
  "backlink": "https://manganu.com/collections/takaboshi-asako/kikagaku-ehon/",
  "description": "From mochi*mochi:\nA new part-time worker transfers to the children's book section where Ritsu Izaki works. He seems to be attached to Ritsu, but he always slacks off at work...!?",
  "language": "English",
  "images": [
    "https://img-proxy.imgfo.com/?referer=https://manganelo.com&url=https://s3.mkklcdnv6temp.com/mangakakalot/k1/kikagaku_ehon/vol01_chapter_0011/1.jpg",
    "https://img-proxy.imgfo.com/?referer=https://manganelo.com&url=https://s3.mkklcdnv6temp.com/mangakakalot/k1/kikagaku_ehon/vol01_chapter_0011/2.jpg",
    "https://img-proxy.imgfo.com/?referer=https://manganelo.com&url=https://s3.mkklcdnv6temp.com/mangakakalot/k1/kikagaku_ehon/vol01_chapter_0011/3.jpg",
    "https://img-proxy.imgfo.com/?referer=https://manganelo.com&url=https://s3.mkklcdnv6temp.com/mangakakalot/k1/kikagaku_ehon/vol01_chapter_0011/4.jpg",
    "https://img-proxy.imgfo.com/?referer=https://manganelo.com&url=https://s3.mkklcdnv6temp.com/mangakakalot/k1/kikagaku_ehon/vol01_chapter_0011/5.jpg",
    "https://img-proxy.imgfo.com/?referer=https://manganelo.com&url=https://s3.mkklcdnv6temp.com/mangakakalot/k1/kikagaku_ehon/vol01_chapter_0011/6.jpg",
    "https://img-proxy.imgfo.com/?referer=https://manganelo.com&url=https://s3.mkklcdnv6temp.com/mangakakalot/k1/kikagaku_ehon/vol01_chapter_0011/7.jpg",
    "https://img-proxy.imgfo.com/?referer=https://manganelo.com&url=https://s3.mkklcdnv6temp.com/mangakakalot/k1/kikagaku_ehon/vol01_chapter_0011/8.jpg",
    "https://img-proxy.imgfo.com/?referer=https://manganelo.com&url=https://s3.mkklcdnv6temp.com/mangakakalot/k1/kikagaku_ehon/vol01_chapter_0011/9.jpg",
    "https://img-proxy.imgfo.com/?referer=https://manganelo.com&url=https://s3.mkklcdnv6temp.com/mangakakalot/k1/kikagaku_ehon/vol01_chapter_0011/10.jpg",
    "https://img-proxy.imgfo.com/?referer=https://manganelo.com&url=https://s3.mkklcdnv6temp.com/mangakakalot/k1/kikagaku_ehon/vol01_chapter_0011/11.jpg",
    "https://img-proxy.imgfo.com/?referer=https://manganelo.com&url=https://s3.mkklcdnv6temp.com/mangakakalot/k1/kikagaku_ehon/vol01_chapter_0011/12.jpg",
    "https://img-proxy.imgfo.com/?referer=https://manganelo.com&url=https://s3.mkklcdnv6temp.com/mangakakalot/k1/kikagaku_ehon/vol01_chapter_0011/13.jpg",
    "https://img-proxy.imgfo.com/?referer=https://manganelo.com&url=https://s3.mkklcdnv6temp.com/mangakakalot/k1/kikagaku_ehon/vol01_chapter_0011/14.jpg",
    "https://img-proxy.imgfo.com/?referer=https://manganelo.com&url=https://s3.mkklcdnv6temp.com/mangakakalot/k1/kikagaku_ehon/vol01_chapter_0011/15.jpg",
    "https://img-proxy.imgfo.com/?referer=https://manganelo.com&url=https://s3.mkklcdnv6temp.com/mangakakalot/k1/kikagaku_ehon/vol01_chapter_0011/16.jpg",
    "https://img-proxy.imgfo.com/?referer=https://manganelo.com&url=https://s3.mkklcdnv6temp.com/mangakakalot/k1/kikagaku_ehon/vol01_chapter_0011/17.jpg",
    "https://img-proxy.imgfo.com/?referer=https://manganelo.com&url=https://s3.mkklcdnv6temp.com/mangakakalot/k1/kikagaku_ehon/vol01_chapter_0011/18.jpg",
    "https://img-proxy.imgfo.com/?referer=https://manganelo.com&url=https://s3.mkklcdnv6temp.com/mangakakalot/k1/kikagaku_ehon/vol01_chapter_0011/19.jpg",
    "https://img-proxy.imgfo.com/?referer=https://manganelo.com&url=https://s3.mkklcdnv6temp.com/mangakakalot/k1/kikagaku_ehon/vol01_chapter_0011/20.jpg",
    "https://img-proxy.imgfo.com/?referer=https://manganelo.com&url=https://s3.mkklcdnv6temp.com/mangakakalot/k1/kikagaku_ehon/vol01_chapter_0011/21.jpg",
    "https://img-proxy.imgfo.com/?referer=https://manganelo.com&url=https://s3.mkklcdnv6temp.com/mangakakalot/k1/kikagaku_ehon/vol01_chapter_0011/22.jpg",
    "https://img-proxy.imgfo.com/?referer=https://manganelo.com&url=https://s3.mkklcdnv6temp.com/mangakakalot/k1/kikagaku_ehon/vol01_chapter_0011/23.jpg",
    "https://img-proxy.imgfo.com/?referer=https://manganelo.com&url=https://s3.mkklcdnv6temp.com/mangakakalot/k1/kikagaku_ehon/vol01_chapter_0011/24.jpg",
    "https://img-proxy.imgfo.com/?referer=https://manganelo.com&url=https://s3.mkklcdnv6temp.com/mangakakalot/k1/kikagaku_ehon/vol01_chapter_0011/25.jpg",
    "https://img-proxy.imgfo.com/?referer=https://manganelo.com&url=https://s3.mkklcdnv6temp.com/mangakakalot/k1/kikagaku_ehon/vol01_chapter_0011/26.jpg",
    "https://img-proxy.imgfo.com/?referer=https://manganelo.com&url=https://s3.mkklcdnv6temp.com/mangakakalot/k1/kikagaku_ehon/vol01_chapter_0011/27.jpg",
    "https://img-proxy.imgfo.com/?referer=https://manganelo.com&url=https://s3.mkklcdnv6temp.com/mangakakalot/k1/kikagaku_ehon/vol01_chapter_0011/28.jpg",
    "https://img-proxy.imgfo.com/?referer=https://manganelo.com&url=https://s3.mkklcdnv6temp.com/mangakakalot/k1/kikagaku_ehon/vol01_chapter_0011/29.jpg",
    "https://img-proxy.imgfo.com/?referer=https://manganelo.com&url=https://s3.mkklcdnv6temp.com/mangakakalot/k1/kikagaku_ehon/vol01_chapter_0011/30.jpg",
    "https://img-proxy.imgfo.com/?referer=https://manganelo.com&url=https://s3.mkklcdnv6temp.com/mangakakalot/k1/kikagaku_ehon/vol01_chapter_0011/31.jpg",
    "https://img-proxy.imgfo.com/?referer=https://manganelo.com&url=https://s3.mkklcdnv6temp.com/mangakakalot/k1/kikagaku_ehon/vol01_chapter_0011/32.jpg",
    "https://img-proxy.imgfo.com/?referer=https://manganelo.com&url=https://s3.mkklcdnv6temp.com/mangakakalot/k1/kikagaku_ehon/vol01_chapter_0011/33.jpg",
    "https://img-proxy.imgfo.com/?referer=https://manganelo.com&url=https://s3.mkklcdnv6temp.com/mangakakalot/k1/kikagaku_ehon/vol01_chapter_0011/34.jpg",
    "https://img-proxy.imgfo.com/?referer=https://manganelo.com&url=https://s3.mkklcdnv6temp.com/mangakakalot/k1/kikagaku_ehon/vol01_chapter_0011/35.jpg",
    "https://img-proxy.imgfo.com/?referer=https://manganelo.com&url=https://s3.mkklcdnv6temp.com/mangakakalot/k1/kikagaku_ehon/vol01_chapter_0011/36.jpg"
  ]
}