{
  "cover": "https://avt.mkklcdnv6.com/29/r/19-1583500259.jpg",
  "title": "I'm The Demon Lord, But Nobody Found Out Yet, Right?",
  "original": "I'm The Demon Lord, But Nobody Found Out Yet, Right? ,Ore Maou,Ore, Maou dakedo Baretenai yo ne?,オレ、魔王だけどバレてないよね?",
  "genre": "Action, Adventure, Comedy, Fantasy, Romance, Manga",
  "author": "Goyou Yashio",
  "status": "Completed",
  "backlink": "https://manganu.com/collections/goyou-yashio/im-the-demon-lord-but-nobody-found-out-yet-right/",
  "description": "From a lineage of elite demon lords, the current demon lord Eugene Satania - Vidorick has one secret way of relaxing from the stress he accumulates in the demon world. Which is to go to the human world under the guise as the human named Sayano Yuuji, mixing into common everyday folk to enjoy himself! Now a rookie-low-class demon suddenly appeared in front of him, named Mist. With a good-for-nothing low-class demon at his side, Yuuji now has to hide his identity at all costs! Let&#39;s start this suspicious rom-com!",
  "language": "English",
  "images": [
    "https://img-proxy.imgfo.com/?referer=https://manganelo.com&url=https://s7.mkklcdnv6temp.com/mangakakalot/e2/ev920729/vol1_chapter_1_maousama_is_a_fearful_demon/1.jpg",
    "https://img-proxy.imgfo.com/?referer=https://manganelo.com&url=https://s7.mkklcdnv6temp.com/mangakakalot/e2/ev920729/vol1_chapter_1_maousama_is_a_fearful_demon/2.jpg",
    "https://img-proxy.imgfo.com/?referer=https://manganelo.com&url=https://s7.mkklcdnv6temp.com/mangakakalot/e2/ev920729/vol1_chapter_1_maousama_is_a_fearful_demon/3.jpg",
    "https://img-proxy.imgfo.com/?referer=https://manganelo.com&url=https://s7.mkklcdnv6temp.com/mangakakalot/e2/ev920729/vol1_chapter_1_maousama_is_a_fearful_demon/4.jpg",
    "https://img-proxy.imgfo.com/?referer=https://manganelo.com&url=https://s7.mkklcdnv6temp.com/mangakakalot/e2/ev920729/vol1_chapter_1_maousama_is_a_fearful_demon/5.jpg",
    "https://img-proxy.imgfo.com/?referer=https://manganelo.com&url=https://s7.mkklcdnv6temp.com/mangakakalot/e2/ev920729/vol1_chapter_1_maousama_is_a_fearful_demon/6.jpg",
    "https://img-proxy.imgfo.com/?referer=https://manganelo.com&url=https://s7.mkklcdnv6temp.com/mangakakalot/e2/ev920729/vol1_chapter_1_maousama_is_a_fearful_demon/7.jpg",
    "https://img-proxy.imgfo.com/?referer=https://manganelo.com&url=https://s7.mkklcdnv6temp.com/mangakakalot/e2/ev920729/vol1_chapter_1_maousama_is_a_fearful_demon/8.jpg",
    "https://img-proxy.imgfo.com/?referer=https://manganelo.com&url=https://s7.mkklcdnv6temp.com/mangakakalot/e2/ev920729/vol1_chapter_1_maousama_is_a_fearful_demon/9.jpg",
    "https://img-proxy.imgfo.com/?referer=https://manganelo.com&url=https://s7.mkklcdnv6temp.com/mangakakalot/e2/ev920729/vol1_chapter_1_maousama_is_a_fearful_demon/10.jpg",
    "https://img-proxy.imgfo.com/?referer=https://manganelo.com&url=https://s7.mkklcdnv6temp.com/mangakakalot/e2/ev920729/vol1_chapter_1_maousama_is_a_fearful_demon/11.jpg",
    "https://img-proxy.imgfo.com/?referer=https://manganelo.com&url=https://s7.mkklcdnv6temp.com/mangakakalot/e2/ev920729/vol1_chapter_1_maousama_is_a_fearful_demon/12.jpg",
    "https://img-proxy.imgfo.com/?referer=https://manganelo.com&url=https://s7.mkklcdnv6temp.com/mangakakalot/e2/ev920729/vol1_chapter_1_maousama_is_a_fearful_demon/13.jpg",
    "https://img-proxy.imgfo.com/?referer=https://manganelo.com&url=https://s7.mkklcdnv6temp.com/mangakakalot/e2/ev920729/vol1_chapter_1_maousama_is_a_fearful_demon/14.jpg",
    "https://img-proxy.imgfo.com/?referer=https://manganelo.com&url=https://s7.mkklcdnv6temp.com/mangakakalot/e2/ev920729/vol1_chapter_1_maousama_is_a_fearful_demon/15.jpg",
    "https://img-proxy.imgfo.com/?referer=https://manganelo.com&url=https://s7.mkklcdnv6temp.com/mangakakalot/e2/ev920729/vol1_chapter_1_maousama_is_a_fearful_demon/16.jpg",
    "https://img-proxy.imgfo.com/?referer=https://manganelo.com&url=https://s7.mkklcdnv6temp.com/mangakakalot/e2/ev920729/vol1_chapter_1_maousama_is_a_fearful_demon/17.jpg",
    "https://img-proxy.imgfo.com/?referer=https://manganelo.com&url=https://s7.mkklcdnv6temp.com/mangakakalot/e2/ev920729/vol1_chapter_1_maousama_is_a_fearful_demon/18.jpg",
    "https://img-proxy.imgfo.com/?referer=https://manganelo.com&url=https://s7.mkklcdnv6temp.com/mangakakalot/e2/ev920729/vol1_chapter_1_maousama_is_a_fearful_demon/19.jpg",
    "https://img-proxy.imgfo.com/?referer=https://manganelo.com&url=https://s7.mkklcdnv6temp.com/mangakakalot/e2/ev920729/vol1_chapter_1_maousama_is_a_fearful_demon/20.jpg",
    "https://img-proxy.imgfo.com/?referer=https://manganelo.com&url=https://s7.mkklcdnv6temp.com/mangakakalot/e2/ev920729/vol1_chapter_1_maousama_is_a_fearful_demon/21.jpg",
    "https://img-proxy.imgfo.com/?referer=https://manganelo.com&url=https://s7.mkklcdnv6temp.com/mangakakalot/e2/ev920729/vol1_chapter_1_maousama_is_a_fearful_demon/22.jpg",
    "https://img-proxy.imgfo.com/?referer=https://manganelo.com&url=https://s7.mkklcdnv6temp.com/mangakakalot/e2/ev920729/vol1_chapter_1_maousama_is_a_fearful_demon/23.jpg",
    "https://img-proxy.imgfo.com/?referer=https://manganelo.com&url=https://s7.mkklcdnv6temp.com/mangakakalot/e2/ev920729/vol1_chapter_1_maousama_is_a_fearful_demon/24.jpg",
    "https://img-proxy.imgfo.com/?referer=https://manganelo.com&url=https://s7.mkklcdnv6temp.com/mangakakalot/e2/ev920729/vol1_chapter_1_maousama_is_a_fearful_demon/25.jpg",
    "https://img-proxy.imgfo.com/?referer=https://manganelo.com&url=https://s7.mkklcdnv6temp.com/mangakakalot/e2/ev920729/vol1_chapter_1_maousama_is_a_fearful_demon/26.jpg",
    "https://img-proxy.imgfo.com/?referer=https://manganelo.com&url=https://s7.mkklcdnv6temp.com/mangakakalot/e2/ev920729/vol1_chapter_1_maousama_is_a_fearful_demon/27.jpg",
    "https://img-proxy.imgfo.com/?referer=https://manganelo.com&url=https://s7.mkklcdnv6temp.com/mangakakalot/e2/ev920729/vol1_chapter_1_maousama_is_a_fearful_demon/28.jpg",
    "https://img-proxy.imgfo.com/?referer=https://manganelo.com&url=https://s7.mkklcdnv6temp.com/mangakakalot/e2/ev920729/vol1_chapter_1_maousama_is_a_fearful_demon/29.jpg",
    "https://img-proxy.imgfo.com/?referer=https://manganelo.com&url=https://s7.mkklcdnv6temp.com/mangakakalot/e2/ev920729/vol1_chapter_1_maousama_is_a_fearful_demon/30.jpg",
    "https://img-proxy.imgfo.com/?referer=https://manganelo.com&url=https://s7.mkklcdnv6temp.com/mangakakalot/e2/ev920729/vol1_chapter_1_maousama_is_a_fearful_demon/31.jpg",
    "https://img-proxy.imgfo.com/?referer=https://manganelo.com&url=https://s7.mkklcdnv6temp.com/mangakakalot/e2/ev920729/vol1_chapter_1_maousama_is_a_fearful_demon/32.jpg",
    "https://img-proxy.imgfo.com/?referer=https://manganelo.com&url=https://s7.mkklcdnv6temp.com/mangakakalot/e2/ev920729/vol1_chapter_1_maousama_is_a_fearful_demon/33.jpg",
    "https://img-proxy.imgfo.com/?referer=https://manganelo.com&url=https://s7.mkklcdnv6temp.com/mangakakalot/e2/ev920729/vol1_chapter_1_maousama_is_a_fearful_demon/34.jpg",
    "https://img-proxy.imgfo.com/?referer=https://manganelo.com&url=https://s7.mkklcdnv6temp.com/mangakakalot/e2/ev920729/vol1_chapter_1_maousama_is_a_fearful_demon/35.jpg",
    "https://img-proxy.imgfo.com/?referer=https://manganelo.com&url=https://s7.mkklcdnv6temp.com/mangakakalot/e2/ev920729/vol1_chapter_1_maousama_is_a_fearful_demon/36.jpg"
  ]
}