{
  "cover": "https://avt.mkklcdnv6.com/48/r/12-1583487668.jpg",
  "title": "Koi Suru One Fourth",
  "original": "四分之一的恋情 ; 四分之一的戀情 ; 恋する1/4 ; 1/4的恋情 ; 1/4的戀情 ; Koi Suru 1/4 ; Koi Suru 1/4th ; Koisuru 1/4 ; In Love One-Fourth ; 1/4 tình yêu (Vietnamese)",
  "genre": "Drama, Romance, Shoujo, Manga",
  "author": "Tajima Mimi",
  "status": "Completed",
  "backlink": "https://manganu.com/collections/tajima-mimi/koi-suru-one-fourth/",
  "description": "Impossibility:\nYoshida Miake is a charismatic first year high school student that is in love with her best friend whom she had known all of her life. The only problem that occurs is the fact that he has no interest in her whatsoever. Heartbroken, she finds comfort from \"Mr. Black\" and slowly begins to develop feelings for him. But how would a she develop a relationship with a person that exchanges kisses for lunch?",
  "language": "English",
  "images": [
    "https://img-proxy.imgfo.com/?referer=https://manganelo.com&url=https://s7.mkklcdnv6temp.com/mangakakalot/k2/koi_suru_one_fourth/vol05_chapter_7/1.jpg",
    "https://img-proxy.imgfo.com/?referer=https://manganelo.com&url=https://s7.mkklcdnv6temp.com/mangakakalot/k2/koi_suru_one_fourth/vol05_chapter_7/2.jpg",
    "https://img-proxy.imgfo.com/?referer=https://manganelo.com&url=https://s7.mkklcdnv6temp.com/mangakakalot/k2/koi_suru_one_fourth/vol05_chapter_7/3.jpg",
    "https://img-proxy.imgfo.com/?referer=https://manganelo.com&url=https://s7.mkklcdnv6temp.com/mangakakalot/k2/koi_suru_one_fourth/vol05_chapter_7/4.jpg",
    "https://img-proxy.imgfo.com/?referer=https://manganelo.com&url=https://s7.mkklcdnv6temp.com/mangakakalot/k2/koi_suru_one_fourth/vol05_chapter_7/5.jpg",
    "https://img-proxy.imgfo.com/?referer=https://manganelo.com&url=https://s7.mkklcdnv6temp.com/mangakakalot/k2/koi_suru_one_fourth/vol05_chapter_7/6.jpg",
    "https://img-proxy.imgfo.com/?referer=https://manganelo.com&url=https://s7.mkklcdnv6temp.com/mangakakalot/k2/koi_suru_one_fourth/vol05_chapter_7/7.jpg",
    "https://img-proxy.imgfo.com/?referer=https://manganelo.com&url=https://s7.mkklcdnv6temp.com/mangakakalot/k2/koi_suru_one_fourth/vol05_chapter_7/8.jpg",
    "https://img-proxy.imgfo.com/?referer=https://manganelo.com&url=https://s7.mkklcdnv6temp.com/mangakakalot/k2/koi_suru_one_fourth/vol05_chapter_7/9.jpg",
    "https://img-proxy.imgfo.com/?referer=https://manganelo.com&url=https://s7.mkklcdnv6temp.com/mangakakalot/k2/koi_suru_one_fourth/vol05_chapter_7/10.jpg",
    "https://img-proxy.imgfo.com/?referer=https://manganelo.com&url=https://s7.mkklcdnv6temp.com/mangakakalot/k2/koi_suru_one_fourth/vol05_chapter_7/11.jpg",
    "https://img-proxy.imgfo.com/?referer=https://manganelo.com&url=https://s7.mkklcdnv6temp.com/mangakakalot/k2/koi_suru_one_fourth/vol05_chapter_7/12.jpg",
    "https://img-proxy.imgfo.com/?referer=https://manganelo.com&url=https://s7.mkklcdnv6temp.com/mangakakalot/k2/koi_suru_one_fourth/vol05_chapter_7/13.jpg",
    "https://img-proxy.imgfo.com/?referer=https://manganelo.com&url=https://s7.mkklcdnv6temp.com/mangakakalot/k2/koi_suru_one_fourth/vol05_chapter_7/14.jpg",
    "https://img-proxy.imgfo.com/?referer=https://manganelo.com&url=https://s7.mkklcdnv6temp.com/mangakakalot/k2/koi_suru_one_fourth/vol05_chapter_7/15.jpg",
    "https://img-proxy.imgfo.com/?referer=https://manganelo.com&url=https://s7.mkklcdnv6temp.com/mangakakalot/k2/koi_suru_one_fourth/vol05_chapter_7/16.jpg",
    "https://img-proxy.imgfo.com/?referer=https://manganelo.com&url=https://s7.mkklcdnv6temp.com/mangakakalot/k2/koi_suru_one_fourth/vol05_chapter_7/17.jpg",
    "https://img-proxy.imgfo.com/?referer=https://manganelo.com&url=https://s7.mkklcdnv6temp.com/mangakakalot/k2/koi_suru_one_fourth/vol05_chapter_7/18.jpg",
    "https://img-proxy.imgfo.com/?referer=https://manganelo.com&url=https://s7.mkklcdnv6temp.com/mangakakalot/k2/koi_suru_one_fourth/vol05_chapter_7/19.jpg",
    "https://img-proxy.imgfo.com/?referer=https://manganelo.com&url=https://s7.mkklcdnv6temp.com/mangakakalot/k2/koi_suru_one_fourth/vol05_chapter_7/20.jpg",
    "https://img-proxy.imgfo.com/?referer=https://manganelo.com&url=https://s7.mkklcdnv6temp.com/mangakakalot/k2/koi_suru_one_fourth/vol05_chapter_7/21.jpg",
    "https://img-proxy.imgfo.com/?referer=https://manganelo.com&url=https://s7.mkklcdnv6temp.com/mangakakalot/k2/koi_suru_one_fourth/vol05_chapter_7/22.jpg",
    "https://img-proxy.imgfo.com/?referer=https://manganelo.com&url=https://s7.mkklcdnv6temp.com/mangakakalot/k2/koi_suru_one_fourth/vol05_chapter_7/23.jpg",
    "https://img-proxy.imgfo.com/?referer=https://manganelo.com&url=https://s7.mkklcdnv6temp.com/mangakakalot/k2/koi_suru_one_fourth/vol05_chapter_7/24.jpg",
    "https://img-proxy.imgfo.com/?referer=https://manganelo.com&url=https://s7.mkklcdnv6temp.com/mangakakalot/k2/koi_suru_one_fourth/vol05_chapter_7/25.jpg",
    "https://img-proxy.imgfo.com/?referer=https://manganelo.com&url=https://s7.mkklcdnv6temp.com/mangakakalot/k2/koi_suru_one_fourth/vol05_chapter_7/26.jpg",
    "https://img-proxy.imgfo.com/?referer=https://manganelo.com&url=https://s7.mkklcdnv6temp.com/mangakakalot/k2/koi_suru_one_fourth/vol05_chapter_7/27.jpg",
    "https://img-proxy.imgfo.com/?referer=https://manganelo.com&url=https://s7.mkklcdnv6temp.com/mangakakalot/k2/koi_suru_one_fourth/vol05_chapter_7/28.jpg",
    "https://img-proxy.imgfo.com/?referer=https://manganelo.com&url=https://s7.mkklcdnv6temp.com/mangakakalot/k2/koi_suru_one_fourth/vol05_chapter_7/29.jpg",
    "https://img-proxy.imgfo.com/?referer=https://manganelo.com&url=https://s7.mkklcdnv6temp.com/mangakakalot/k2/koi_suru_one_fourth/vol05_chapter_7/30.jpg"
  ]
}