{
  "cover": "https://avt.mkklcdnv6.com/28/q/4-1583470866.jpg",
  "title": "Gokusen",
  "original": "ごくせん ; 极道鲜师 ; 極道の先生 ; Gokudo no Sensei",
  "genre": "Action, Comedy, Josei, Romance, School life, Slice of life, Manga",
  "author": "Morimoto Kozueko",
  "status": "Completed",
  "backlink": "https://manganu.com/collections/morimoto-kozueko/gokusen/",
  "description": "At first glance this looks like the female version of GTO. However Kumiko is the daughter of a Yakuza boss and must hide her background so she doesn't get fired from her first teaching job. Comparisons aside, Gokusen stands in it own right with its witty humour and dialogue.\nFrom Baka-Updates:\nFresh out of college, Kumiko \"Yankumi\" Yamaguchi becomes a math teacher at an all-boys high school. Unfortunately for her, she's assigned by the school board as the homeroom teacher for class 2-D, which happens to be the class of delinquent students. When the class attempts to make a living hell out of Yankumi's career, they fail as her persistence and aggression gain their respect. However, little does anyone in the school know that Yankumi is actually heir to the Kuroda Group - one of Tokyo's most powerful yakuza clans.\n-ANN",
  "language": "English",
  "images": [
    "https://img-proxy.imgfo.com/?referer=https://manganelo.com&url=https://s41.mkklcdnv6temp.com/mangakakalot/g2/gokusen/vol13_chapter_118_chairmans_ambition_once_again/1.jpg",
    "https://img-proxy.imgfo.com/?referer=https://manganelo.com&url=https://s41.mkklcdnv6temp.com/mangakakalot/g2/gokusen/vol13_chapter_118_chairmans_ambition_once_again/2.jpg",
    "https://img-proxy.imgfo.com/?referer=https://manganelo.com&url=https://s41.mkklcdnv6temp.com/mangakakalot/g2/gokusen/vol13_chapter_118_chairmans_ambition_once_again/3.jpg",
    "https://img-proxy.imgfo.com/?referer=https://manganelo.com&url=https://s41.mkklcdnv6temp.com/mangakakalot/g2/gokusen/vol13_chapter_118_chairmans_ambition_once_again/4.jpg",
    "https://img-proxy.imgfo.com/?referer=https://manganelo.com&url=https://s41.mkklcdnv6temp.com/mangakakalot/g2/gokusen/vol13_chapter_118_chairmans_ambition_once_again/5.jpg",
    "https://img-proxy.imgfo.com/?referer=https://manganelo.com&url=https://s41.mkklcdnv6temp.com/mangakakalot/g2/gokusen/vol13_chapter_118_chairmans_ambition_once_again/6.jpg",
    "https://img-proxy.imgfo.com/?referer=https://manganelo.com&url=https://s41.mkklcdnv6temp.com/mangakakalot/g2/gokusen/vol13_chapter_118_chairmans_ambition_once_again/7.jpg",
    "https://img-proxy.imgfo.com/?referer=https://manganelo.com&url=https://s41.mkklcdnv6temp.com/mangakakalot/g2/gokusen/vol13_chapter_118_chairmans_ambition_once_again/8.jpg",
    "https://img-proxy.imgfo.com/?referer=https://manganelo.com&url=https://s41.mkklcdnv6temp.com/mangakakalot/g2/gokusen/vol13_chapter_118_chairmans_ambition_once_again/9.jpg",
    "https://img-proxy.imgfo.com/?referer=https://manganelo.com&url=https://s41.mkklcdnv6temp.com/mangakakalot/g2/gokusen/vol13_chapter_118_chairmans_ambition_once_again/10.jpg",
    "https://img-proxy.imgfo.com/?referer=https://manganelo.com&url=https://s41.mkklcdnv6temp.com/mangakakalot/g2/gokusen/vol13_chapter_118_chairmans_ambition_once_again/11.jpg",
    "https://img-proxy.imgfo.com/?referer=https://manganelo.com&url=https://s41.mkklcdnv6temp.com/mangakakalot/g2/gokusen/vol13_chapter_118_chairmans_ambition_once_again/12.jpg",
    "https://img-proxy.imgfo.com/?referer=https://manganelo.com&url=https://s41.mkklcdnv6temp.com/mangakakalot/g2/gokusen/vol13_chapter_118_chairmans_ambition_once_again/13.jpg",
    "https://img-proxy.imgfo.com/?referer=https://manganelo.com&url=https://s41.mkklcdnv6temp.com/mangakakalot/g2/gokusen/vol13_chapter_118_chairmans_ambition_once_again/14.jpg",
    "https://img-proxy.imgfo.com/?referer=https://manganelo.com&url=https://s41.mkklcdnv6temp.com/mangakakalot/g2/gokusen/vol13_chapter_118_chairmans_ambition_once_again/15.jpg",
    "https://img-proxy.imgfo.com/?referer=https://manganelo.com&url=https://s41.mkklcdnv6temp.com/mangakakalot/g2/gokusen/vol13_chapter_118_chairmans_ambition_once_again/16.jpg",
    "https://img-proxy.imgfo.com/?referer=https://manganelo.com&url=https://s41.mkklcdnv6temp.com/mangakakalot/g2/gokusen/vol13_chapter_118_chairmans_ambition_once_again/17.jpg",
    "https://img-proxy.imgfo.com/?referer=https://manganelo.com&url=https://s41.mkklcdnv6temp.com/mangakakalot/g2/gokusen/vol13_chapter_118_chairmans_ambition_once_again/18.jpg",
    "https://img-proxy.imgfo.com/?referer=https://manganelo.com&url=https://s41.mkklcdnv6temp.com/mangakakalot/g2/gokusen/vol13_chapter_118_chairmans_ambition_once_again/19.jpg",
    "https://img-proxy.imgfo.com/?referer=https://manganelo.com&url=https://s41.mkklcdnv6temp.com/mangakakalot/g2/gokusen/vol13_chapter_118_chairmans_ambition_once_again/20.jpg",
    "https://img-proxy.imgfo.com/?referer=https://manganelo.com&url=https://s41.mkklcdnv6temp.com/mangakakalot/g2/gokusen/vol13_chapter_118_chairmans_ambition_once_again/21.jpg",
    "https://img-proxy.imgfo.com/?referer=https://manganelo.com&url=https://s41.mkklcdnv6temp.com/mangakakalot/g2/gokusen/vol13_chapter_118_chairmans_ambition_once_again/22.jpg",
    "https://img-proxy.imgfo.com/?referer=https://manganelo.com&url=https://s41.mkklcdnv6temp.com/mangakakalot/g2/gokusen/vol13_chapter_118_chairmans_ambition_once_again/23.jpg",
    "https://img-proxy.imgfo.com/?referer=https://manganelo.com&url=https://s41.mkklcdnv6temp.com/mangakakalot/g2/gokusen/vol13_chapter_118_chairmans_ambition_once_again/24.jpg",
    "https://img-proxy.imgfo.com/?referer=https://manganelo.com&url=https://s41.mkklcdnv6temp.com/mangakakalot/g2/gokusen/vol13_chapter_118_chairmans_ambition_once_again/25.jpg",
    "https://img-proxy.imgfo.com/?referer=https://manganelo.com&url=https://s41.mkklcdnv6temp.com/mangakakalot/g2/gokusen/vol13_chapter_118_chairmans_ambition_once_again/26.jpg",
    "https://img-proxy.imgfo.com/?referer=https://manganelo.com&url=https://s41.mkklcdnv6temp.com/mangakakalot/g2/gokusen/vol13_chapter_118_chairmans_ambition_once_again/27.jpg"
  ]
}