{
  "cover": "https://avt.mkklcdnv6.com/6/c/5-1583472092.jpg",
  "title": "Sensei, Kiite Yo",
  "original": "先生、聞いてよ ; 老师,好好地听哟 ; 老師，聽我說嘛! ; Natsu wa Ginga no Ame ga Furu ; Sensei, Kiiteyo ; Sensei, Listen Up, Yo ; Yo Sensei, Listen Up",
  "genre": "Comedy, Romance, School life, Shoujo, Supernatural, Manga",
  "author": "Makita Nao",
  "status": "Completed",
  "backlink": "https://manganu.com/collections/makita-nao/sensei-kiite-yo/",
  "description": "From Chibi Manga:\nUta thought that her homeroom teacher was a geek, but she saw him when he was dressed differently. Sensei was actually a handsome rock-n-roll singer!? Since Uta had always wanted to have a boyfriend, she threatened him to \"go out with her\" and she wouldn't tell anyone his secret! but she ends up really falling in love with her teacher..!?\nContains:\n• Natsu wa Ginga no Ame ga Furu\nSummer Holidays. She didn't want to visit her grandmother, who she is on bad terms with, so she spends O-bon festival alone like she wanted. (Only for watching the house though!) And the person who appears in front of Akari is...!?",
  "language": "English",
  "images": [
    "https://img-proxy.imgfo.com/?referer=https://manganelo.com&url=https://s7.mkklcdnv6temp.com/mangakakalot/s1/sensei_kiite_yo/vol1_chapter_4_natsu_wa_ginga_no_ame_ga_furu/1.jpg",
    "https://img-proxy.imgfo.com/?referer=https://manganelo.com&url=https://s7.mkklcdnv6temp.com/mangakakalot/s1/sensei_kiite_yo/vol1_chapter_4_natsu_wa_ginga_no_ame_ga_furu/2.jpg",
    "https://img-proxy.imgfo.com/?referer=https://manganelo.com&url=https://s7.mkklcdnv6temp.com/mangakakalot/s1/sensei_kiite_yo/vol1_chapter_4_natsu_wa_ginga_no_ame_ga_furu/3.jpg",
    "https://img-proxy.imgfo.com/?referer=https://manganelo.com&url=https://s7.mkklcdnv6temp.com/mangakakalot/s1/sensei_kiite_yo/vol1_chapter_4_natsu_wa_ginga_no_ame_ga_furu/4.jpg",
    "https://img-proxy.imgfo.com/?referer=https://manganelo.com&url=https://s7.mkklcdnv6temp.com/mangakakalot/s1/sensei_kiite_yo/vol1_chapter_4_natsu_wa_ginga_no_ame_ga_furu/5.jpg",
    "https://img-proxy.imgfo.com/?referer=https://manganelo.com&url=https://s7.mkklcdnv6temp.com/mangakakalot/s1/sensei_kiite_yo/vol1_chapter_4_natsu_wa_ginga_no_ame_ga_furu/6.jpg",
    "https://img-proxy.imgfo.com/?referer=https://manganelo.com&url=https://s7.mkklcdnv6temp.com/mangakakalot/s1/sensei_kiite_yo/vol1_chapter_4_natsu_wa_ginga_no_ame_ga_furu/7.jpg",
    "https://img-proxy.imgfo.com/?referer=https://manganelo.com&url=https://s7.mkklcdnv6temp.com/mangakakalot/s1/sensei_kiite_yo/vol1_chapter_4_natsu_wa_ginga_no_ame_ga_furu/8.jpg",
    "https://img-proxy.imgfo.com/?referer=https://manganelo.com&url=https://s7.mkklcdnv6temp.com/mangakakalot/s1/sensei_kiite_yo/vol1_chapter_4_natsu_wa_ginga_no_ame_ga_furu/9.jpg",
    "https://img-proxy.imgfo.com/?referer=https://manganelo.com&url=https://s7.mkklcdnv6temp.com/mangakakalot/s1/sensei_kiite_yo/vol1_chapter_4_natsu_wa_ginga_no_ame_ga_furu/10.jpg",
    "https://img-proxy.imgfo.com/?referer=https://manganelo.com&url=https://s7.mkklcdnv6temp.com/mangakakalot/s1/sensei_kiite_yo/vol1_chapter_4_natsu_wa_ginga_no_ame_ga_furu/11.jpg",
    "https://img-proxy.imgfo.com/?referer=https://manganelo.com&url=https://s7.mkklcdnv6temp.com/mangakakalot/s1/sensei_kiite_yo/vol1_chapter_4_natsu_wa_ginga_no_ame_ga_furu/12.jpg",
    "https://img-proxy.imgfo.com/?referer=https://manganelo.com&url=https://s7.mkklcdnv6temp.com/mangakakalot/s1/sensei_kiite_yo/vol1_chapter_4_natsu_wa_ginga_no_ame_ga_furu/13.jpg",
    "https://img-proxy.imgfo.com/?referer=https://manganelo.com&url=https://s7.mkklcdnv6temp.com/mangakakalot/s1/sensei_kiite_yo/vol1_chapter_4_natsu_wa_ginga_no_ame_ga_furu/14.jpg",
    "https://img-proxy.imgfo.com/?referer=https://manganelo.com&url=https://s7.mkklcdnv6temp.com/mangakakalot/s1/sensei_kiite_yo/vol1_chapter_4_natsu_wa_ginga_no_ame_ga_furu/15.jpg",
    "https://img-proxy.imgfo.com/?referer=https://manganelo.com&url=https://s7.mkklcdnv6temp.com/mangakakalot/s1/sensei_kiite_yo/vol1_chapter_4_natsu_wa_ginga_no_ame_ga_furu/16.jpg",
    "https://img-proxy.imgfo.com/?referer=https://manganelo.com&url=https://s7.mkklcdnv6temp.com/mangakakalot/s1/sensei_kiite_yo/vol1_chapter_4_natsu_wa_ginga_no_ame_ga_furu/17.jpg",
    "https://img-proxy.imgfo.com/?referer=https://manganelo.com&url=https://s7.mkklcdnv6temp.com/mangakakalot/s1/sensei_kiite_yo/vol1_chapter_4_natsu_wa_ginga_no_ame_ga_furu/18.jpg",
    "https://img-proxy.imgfo.com/?referer=https://manganelo.com&url=https://s7.mkklcdnv6temp.com/mangakakalot/s1/sensei_kiite_yo/vol1_chapter_4_natsu_wa_ginga_no_ame_ga_furu/19.jpg",
    "https://img-proxy.imgfo.com/?referer=https://manganelo.com&url=https://s7.mkklcdnv6temp.com/mangakakalot/s1/sensei_kiite_yo/vol1_chapter_4_natsu_wa_ginga_no_ame_ga_furu/20.jpg",
    "https://img-proxy.imgfo.com/?referer=https://manganelo.com&url=https://s7.mkklcdnv6temp.com/mangakakalot/s1/sensei_kiite_yo/vol1_chapter_4_natsu_wa_ginga_no_ame_ga_furu/21.jpg",
    "https://img-proxy.imgfo.com/?referer=https://manganelo.com&url=https://s7.mkklcdnv6temp.com/mangakakalot/s1/sensei_kiite_yo/vol1_chapter_4_natsu_wa_ginga_no_ame_ga_furu/22.jpg",
    "https://img-proxy.imgfo.com/?referer=https://manganelo.com&url=https://s7.mkklcdnv6temp.com/mangakakalot/s1/sensei_kiite_yo/vol1_chapter_4_natsu_wa_ginga_no_ame_ga_furu/23.jpg",
    "https://img-proxy.imgfo.com/?referer=https://manganelo.com&url=https://s7.mkklcdnv6temp.com/mangakakalot/s1/sensei_kiite_yo/vol1_chapter_4_natsu_wa_ginga_no_ame_ga_furu/24.jpg",
    "https://img-proxy.imgfo.com/?referer=https://manganelo.com&url=https://s7.mkklcdnv6temp.com/mangakakalot/s1/sensei_kiite_yo/vol1_chapter_4_natsu_wa_ginga_no_ame_ga_furu/25.jpg",
    "https://img-proxy.imgfo.com/?referer=https://manganelo.com&url=https://s7.mkklcdnv6temp.com/mangakakalot/s1/sensei_kiite_yo/vol1_chapter_4_natsu_wa_ginga_no_ame_ga_furu/26.jpg",
    "https://img-proxy.imgfo.com/?referer=https://manganelo.com&url=https://s7.mkklcdnv6temp.com/mangakakalot/s1/sensei_kiite_yo/vol1_chapter_4_natsu_wa_ginga_no_ame_ga_furu/27.jpg",
    "https://img-proxy.imgfo.com/?referer=https://manganelo.com&url=https://s7.mkklcdnv6temp.com/mangakakalot/s1/sensei_kiite_yo/vol1_chapter_4_natsu_wa_ginga_no_ame_ga_furu/28.jpg",
    "https://img-proxy.imgfo.com/?referer=https://manganelo.com&url=https://s7.mkklcdnv6temp.com/mangakakalot/s1/sensei_kiite_yo/vol1_chapter_4_natsu_wa_ginga_no_ame_ga_furu/29.jpg",
    "https://img-proxy.imgfo.com/?referer=https://manganelo.com&url=https://s7.mkklcdnv6temp.com/mangakakalot/s1/sensei_kiite_yo/vol1_chapter_4_natsu_wa_ginga_no_ame_ga_furu/30.jpg",
    "https://img-proxy.imgfo.com/?referer=https://manganelo.com&url=https://s7.mkklcdnv6temp.com/mangakakalot/s1/sensei_kiite_yo/vol1_chapter_4_natsu_wa_ginga_no_ame_ga_furu/31.jpg",
    "https://img-proxy.imgfo.com/?referer=https://manganelo.com&url=https://s7.mkklcdnv6temp.com/mangakakalot/s1/sensei_kiite_yo/vol1_chapter_4_natsu_wa_ginga_no_ame_ga_furu/32.jpg",
    "https://img-proxy.imgfo.com/?referer=https://manganelo.com&url=https://s7.mkklcdnv6temp.com/mangakakalot/s1/sensei_kiite_yo/vol1_chapter_4_natsu_wa_ginga_no_ame_ga_furu/33.jpg",
    "https://img-proxy.imgfo.com/?referer=https://manganelo.com&url=https://s7.mkklcdnv6temp.com/mangakakalot/s1/sensei_kiite_yo/vol1_chapter_4_natsu_wa_ginga_no_ame_ga_furu/34.jpg",
    "https://img-proxy.imgfo.com/?referer=https://manganelo.com&url=https://s7.mkklcdnv6temp.com/mangakakalot/s1/sensei_kiite_yo/vol1_chapter_4_natsu_wa_ginga_no_ame_ga_furu/35.jpg",
    "https://img-proxy.imgfo.com/?referer=https://manganelo.com&url=https://s7.mkklcdnv6temp.com/mangakakalot/s1/sensei_kiite_yo/vol1_chapter_4_natsu_wa_ginga_no_ame_ga_furu/36.jpg",
    "https://img-proxy.imgfo.com/?referer=https://manganelo.com&url=https://s7.mkklcdnv6temp.com/mangakakalot/s1/sensei_kiite_yo/vol1_chapter_4_natsu_wa_ginga_no_ame_ga_furu/37.jpg",
    "https://img-proxy.imgfo.com/?referer=https://manganelo.com&url=https://s7.mkklcdnv6temp.com/mangakakalot/s1/sensei_kiite_yo/vol1_chapter_4_natsu_wa_ginga_no_ame_ga_furu/38.jpg",
    "https://img-proxy.imgfo.com/?referer=https://manganelo.com&url=https://s7.mkklcdnv6temp.com/mangakakalot/s1/sensei_kiite_yo/vol1_chapter_4_natsu_wa_ginga_no_ame_ga_furu/39.jpg",
    "https://img-proxy.imgfo.com/?referer=https://manganelo.com&url=https://s7.mkklcdnv6temp.com/mangakakalot/s1/sensei_kiite_yo/vol1_chapter_4_natsu_wa_ginga_no_ame_ga_furu/40.jpg",
    "https://img-proxy.imgfo.com/?referer=https://manganelo.com&url=https://s7.mkklcdnv6temp.com/mangakakalot/s1/sensei_kiite_yo/vol1_chapter_4_natsu_wa_ginga_no_ame_ga_furu/41.jpg",
    "https://img-proxy.imgfo.com/?referer=https://manganelo.com&url=https://s7.mkklcdnv6temp.com/mangakakalot/s1/sensei_kiite_yo/vol1_chapter_4_natsu_wa_ginga_no_ame_ga_furu/42.jpg",
    "https://img-proxy.imgfo.com/?referer=https://manganelo.com&url=https://s7.mkklcdnv6temp.com/mangakakalot/s1/sensei_kiite_yo/vol1_chapter_4_natsu_wa_ginga_no_ame_ga_furu/43.jpg",
    "https://img-proxy.imgfo.com/?referer=https://manganelo.com&url=https://s7.mkklcdnv6temp.com/mangakakalot/s1/sensei_kiite_yo/vol1_chapter_4_natsu_wa_ginga_no_ame_ga_furu/44.jpg",
    "https://img-proxy.imgfo.com/?referer=https://manganelo.com&url=https://s7.mkklcdnv6temp.com/mangakakalot/s1/sensei_kiite_yo/vol1_chapter_4_natsu_wa_ginga_no_ame_ga_furu/45.jpg",
    "https://img-proxy.imgfo.com/?referer=https://manganelo.com&url=https://s7.mkklcdnv6temp.com/mangakakalot/s1/sensei_kiite_yo/vol1_chapter_4_natsu_wa_ginga_no_ame_ga_furu/46.jpg",
    "https://img-proxy.imgfo.com/?referer=https://manganelo.com&url=https://s7.mkklcdnv6temp.com/mangakakalot/s1/sensei_kiite_yo/vol1_chapter_4_natsu_wa_ginga_no_ame_ga_furu/47.jpg",
    "https://img-proxy.imgfo.com/?referer=https://manganelo.com&url=https://s7.mkklcdnv6temp.com/mangakakalot/s1/sensei_kiite_yo/vol1_chapter_4_natsu_wa_ginga_no_ame_ga_furu/48.jpg",
    "https://img-proxy.imgfo.com/?referer=https://manganelo.com&url=https://s7.mkklcdnv6temp.com/mangakakalot/s1/sensei_kiite_yo/vol1_chapter_4_natsu_wa_ginga_no_ame_ga_furu/49.jpg",
    "https://img-proxy.imgfo.com/?referer=https://manganelo.com&url=https://s7.mkklcdnv6temp.com/mangakakalot/s1/sensei_kiite_yo/vol1_chapter_4_natsu_wa_ginga_no_ame_ga_furu/50.jpg",
    "https://img-proxy.imgfo.com/?referer=https://manganelo.com&url=https://s7.mkklcdnv6temp.com/mangakakalot/s1/sensei_kiite_yo/vol1_chapter_4_natsu_wa_ginga_no_ame_ga_furu/51.jpg",
    "https://img-proxy.imgfo.com/?referer=https://manganelo.com&url=https://s7.mkklcdnv6temp.com/mangakakalot/s1/sensei_kiite_yo/vol1_chapter_4_natsu_wa_ginga_no_ame_ga_furu/52.jpg",
    "https://img-proxy.imgfo.com/?referer=https://manganelo.com&url=https://s7.mkklcdnv6temp.com/mangakakalot/s1/sensei_kiite_yo/vol1_chapter_4_natsu_wa_ginga_no_ame_ga_furu/53.jpg"
  ]
}