{
  "cover": "https://avt.mkklcdnv6.com/13/t/13-1583488244.jpg",
  "title": "Husky And Medley",
  "original": "ハスキーとメドレー ; Hasukii x Medoree",
  "genre": "Romance, School life, Shoujo ai, Slice of life, Yuri, Manga",
  "author": "Medley",
  "status": "Completed",
  "backlink": "https://manganu.com/collections/medley/husky-and-medley/",
  "description": "A manga adaptation of an internet thread in which a girl attempts to reveal her \"perfect\" friend's weakpoint, confessing her love for her in the process, and the relationship between them thereafter.",
  "language": "English",
  "images": [
    "https://img-proxy.imgfo.com/?referer=https://manganelo.com&url=https://s7.mkklcdnv6temp.com/mangakakalot/h2/husky_and_medley/vol1_chapter_1_i_wanna_expose_my_perfect_classmates_weak_point/1.jpg",
    "https://img-proxy.imgfo.com/?referer=https://manganelo.com&url=https://s7.mkklcdnv6temp.com/mangakakalot/h2/husky_and_medley/vol1_chapter_1_i_wanna_expose_my_perfect_classmates_weak_point/2.jpg",
    "https://img-proxy.imgfo.com/?referer=https://manganelo.com&url=https://s7.mkklcdnv6temp.com/mangakakalot/h2/husky_and_medley/vol1_chapter_1_i_wanna_expose_my_perfect_classmates_weak_point/3.jpg",
    "https://img-proxy.imgfo.com/?referer=https://manganelo.com&url=https://s7.mkklcdnv6temp.com/mangakakalot/h2/husky_and_medley/vol1_chapter_1_i_wanna_expose_my_perfect_classmates_weak_point/4.jpg",
    "https://img-proxy.imgfo.com/?referer=https://manganelo.com&url=https://s7.mkklcdnv6temp.com/mangakakalot/h2/husky_and_medley/vol1_chapter_1_i_wanna_expose_my_perfect_classmates_weak_point/5.jpg",
    "https://img-proxy.imgfo.com/?referer=https://manganelo.com&url=https://s7.mkklcdnv6temp.com/mangakakalot/h2/husky_and_medley/vol1_chapter_1_i_wanna_expose_my_perfect_classmates_weak_point/6.jpg",
    "https://img-proxy.imgfo.com/?referer=https://manganelo.com&url=https://s7.mkklcdnv6temp.com/mangakakalot/h2/husky_and_medley/vol1_chapter_1_i_wanna_expose_my_perfect_classmates_weak_point/7.jpg",
    "https://img-proxy.imgfo.com/?referer=https://manganelo.com&url=https://s7.mkklcdnv6temp.com/mangakakalot/h2/husky_and_medley/vol1_chapter_1_i_wanna_expose_my_perfect_classmates_weak_point/8.jpg",
    "https://img-proxy.imgfo.com/?referer=https://manganelo.com&url=https://s7.mkklcdnv6temp.com/mangakakalot/h2/husky_and_medley/vol1_chapter_1_i_wanna_expose_my_perfect_classmates_weak_point/9.jpg",
    "https://img-proxy.imgfo.com/?referer=https://manganelo.com&url=https://s7.mkklcdnv6temp.com/mangakakalot/h2/husky_and_medley/vol1_chapter_1_i_wanna_expose_my_perfect_classmates_weak_point/10.jpg",
    "https://img-proxy.imgfo.com/?referer=https://manganelo.com&url=https://s7.mkklcdnv6temp.com/mangakakalot/h2/husky_and_medley/vol1_chapter_1_i_wanna_expose_my_perfect_classmates_weak_point/11.jpg",
    "https://img-proxy.imgfo.com/?referer=https://manganelo.com&url=https://s7.mkklcdnv6temp.com/mangakakalot/h2/husky_and_medley/vol1_chapter_1_i_wanna_expose_my_perfect_classmates_weak_point/12.jpg",
    "https://img-proxy.imgfo.com/?referer=https://manganelo.com&url=https://s7.mkklcdnv6temp.com/mangakakalot/h2/husky_and_medley/vol1_chapter_1_i_wanna_expose_my_perfect_classmates_weak_point/13.jpg",
    "https://img-proxy.imgfo.com/?referer=https://manganelo.com&url=https://s7.mkklcdnv6temp.com/mangakakalot/h2/husky_and_medley/vol1_chapter_1_i_wanna_expose_my_perfect_classmates_weak_point/14.jpg",
    "https://img-proxy.imgfo.com/?referer=https://manganelo.com&url=https://s7.mkklcdnv6temp.com/mangakakalot/h2/husky_and_medley/vol1_chapter_1_i_wanna_expose_my_perfect_classmates_weak_point/15.jpg",
    "https://img-proxy.imgfo.com/?referer=https://manganelo.com&url=https://s7.mkklcdnv6temp.com/mangakakalot/h2/husky_and_medley/vol1_chapter_1_i_wanna_expose_my_perfect_classmates_weak_point/16.jpg",
    "https://img-proxy.imgfo.com/?referer=https://manganelo.com&url=https://s7.mkklcdnv6temp.com/mangakakalot/h2/husky_and_medley/vol1_chapter_1_i_wanna_expose_my_perfect_classmates_weak_point/17.jpg",
    "https://img-proxy.imgfo.com/?referer=https://manganelo.com&url=https://s7.mkklcdnv6temp.com/mangakakalot/h2/husky_and_medley/vol1_chapter_1_i_wanna_expose_my_perfect_classmates_weak_point/18.jpg",
    "https://img-proxy.imgfo.com/?referer=https://manganelo.com&url=https://s7.mkklcdnv6temp.com/mangakakalot/h2/husky_and_medley/vol1_chapter_1_i_wanna_expose_my_perfect_classmates_weak_point/19.jpg",
    "https://img-proxy.imgfo.com/?referer=https://manganelo.com&url=https://s7.mkklcdnv6temp.com/mangakakalot/h2/husky_and_medley/vol1_chapter_1_i_wanna_expose_my_perfect_classmates_weak_point/20.jpg",
    "https://img-proxy.imgfo.com/?referer=https://manganelo.com&url=https://s7.mkklcdnv6temp.com/mangakakalot/h2/husky_and_medley/vol1_chapter_1_i_wanna_expose_my_perfect_classmates_weak_point/21.jpg",
    "https://img-proxy.imgfo.com/?referer=https://manganelo.com&url=https://s7.mkklcdnv6temp.com/mangakakalot/h2/husky_and_medley/vol1_chapter_1_i_wanna_expose_my_perfect_classmates_weak_point/22.jpg",
    "https://img-proxy.imgfo.com/?referer=https://manganelo.com&url=https://s7.mkklcdnv6temp.com/mangakakalot/h2/husky_and_medley/vol1_chapter_1_i_wanna_expose_my_perfect_classmates_weak_point/23.jpg",
    "https://img-proxy.imgfo.com/?referer=https://manganelo.com&url=https://s7.mkklcdnv6temp.com/mangakakalot/h2/husky_and_medley/vol1_chapter_1_i_wanna_expose_my_perfect_classmates_weak_point/24.jpg",
    "https://img-proxy.imgfo.com/?referer=https://manganelo.com&url=https://s7.mkklcdnv6temp.com/mangakakalot/h2/husky_and_medley/vol1_chapter_1_i_wanna_expose_my_perfect_classmates_weak_point/25.jpg",
    "https://img-proxy.imgfo.com/?referer=https://manganelo.com&url=https://s7.mkklcdnv6temp.com/mangakakalot/h2/husky_and_medley/vol1_chapter_1_i_wanna_expose_my_perfect_classmates_weak_point/26.jpg",
    "https://img-proxy.imgfo.com/?referer=https://manganelo.com&url=https://s7.mkklcdnv6temp.com/mangakakalot/h2/husky_and_medley/vol1_chapter_1_i_wanna_expose_my_perfect_classmates_weak_point/27.jpg",
    "https://img-proxy.imgfo.com/?referer=https://manganelo.com&url=https://s7.mkklcdnv6temp.com/mangakakalot/h2/husky_and_medley/vol1_chapter_1_i_wanna_expose_my_perfect_classmates_weak_point/28.jpg",
    "https://img-proxy.imgfo.com/?referer=https://manganelo.com&url=https://s7.mkklcdnv6temp.com/mangakakalot/h2/husky_and_medley/vol1_chapter_1_i_wanna_expose_my_perfect_classmates_weak_point/29.jpg",
    "https://img-proxy.imgfo.com/?referer=https://manganelo.com&url=https://s7.mkklcdnv6temp.com/mangakakalot/h2/husky_and_medley/vol1_chapter_1_i_wanna_expose_my_perfect_classmates_weak_point/30.jpg",
    "https://img-proxy.imgfo.com/?referer=https://manganelo.com&url=https://s7.mkklcdnv6temp.com/mangakakalot/h2/husky_and_medley/vol1_chapter_1_i_wanna_expose_my_perfect_classmates_weak_point/31.jpg",
    "https://img-proxy.imgfo.com/?referer=https://manganelo.com&url=https://s7.mkklcdnv6temp.com/mangakakalot/h2/husky_and_medley/vol1_chapter_1_i_wanna_expose_my_perfect_classmates_weak_point/32.jpg",
    "https://img-proxy.imgfo.com/?referer=https://manganelo.com&url=https://s7.mkklcdnv6temp.com/mangakakalot/h2/husky_and_medley/vol1_chapter_1_i_wanna_expose_my_perfect_classmates_weak_point/33.jpg",
    "https://img-proxy.imgfo.com/?referer=https://manganelo.com&url=https://s7.mkklcdnv6temp.com/mangakakalot/h2/husky_and_medley/vol1_chapter_1_i_wanna_expose_my_perfect_classmates_weak_point/34.jpg",
    "https://img-proxy.imgfo.com/?referer=https://manganelo.com&url=https://s7.mkklcdnv6temp.com/mangakakalot/h2/husky_and_medley/vol1_chapter_1_i_wanna_expose_my_perfect_classmates_weak_point/35.jpg",
    "https://img-proxy.imgfo.com/?referer=https://manganelo.com&url=https://s7.mkklcdnv6temp.com/mangakakalot/h2/husky_and_medley/vol1_chapter_1_i_wanna_expose_my_perfect_classmates_weak_point/36.jpg"
  ]
}