{
  "cover": "https://avt.mkklcdnv6.com/8/o/11-1583484315.jpg",
  "title": "Grim Reaper",
  "original": "グリムリーパー ; Battle Gothic Guardian ; Battle Gothic Guardian グリムリーパー ; Battle Gothic Guardian Grim Reaper",
  "genre": "Fantasy, Shounen, Supernatural, Manga",
  "author": "Marimo",
  "status": "Completed",
  "backlink": "https://manganu.com/collections/marimo/grim-reaper/",
  "description": "Yuuka Shinchiro is a 2nd year highschool student whose parents passed away several years in an accident. When he's walking through a park at night, a child's head jumps into his hands and he's bitten by an alien. Soon after, he wakes up and dismisses what happened as just part of his dream. When he wakes up, the bite mark is appears just where it was in his \"dream\"! The next morning, the news reports that a child's head is found in a park along with lots of blood. As he goes to check out the scene, he finds a violent man asking him about the \"abyss\". The violent man later visits his house and calls him a Grim Reaper.",
  "language": "English",
  "images": [
    "https://img-proxy.imgfo.com/?referer=https://manganelo.com&url=https://s41.mkklcdnv6temp.com/mangakakalot/g2/grim_reaper/vol1_chapter_5_out_of_control/1.jpg",
    "https://img-proxy.imgfo.com/?referer=https://manganelo.com&url=https://s41.mkklcdnv6temp.com/mangakakalot/g2/grim_reaper/vol1_chapter_5_out_of_control/2.jpg",
    "https://img-proxy.imgfo.com/?referer=https://manganelo.com&url=https://s41.mkklcdnv6temp.com/mangakakalot/g2/grim_reaper/vol1_chapter_5_out_of_control/3.jpg",
    "https://img-proxy.imgfo.com/?referer=https://manganelo.com&url=https://s41.mkklcdnv6temp.com/mangakakalot/g2/grim_reaper/vol1_chapter_5_out_of_control/4.jpg",
    "https://img-proxy.imgfo.com/?referer=https://manganelo.com&url=https://s41.mkklcdnv6temp.com/mangakakalot/g2/grim_reaper/vol1_chapter_5_out_of_control/5.jpg",
    "https://img-proxy.imgfo.com/?referer=https://manganelo.com&url=https://s41.mkklcdnv6temp.com/mangakakalot/g2/grim_reaper/vol1_chapter_5_out_of_control/6.jpg",
    "https://img-proxy.imgfo.com/?referer=https://manganelo.com&url=https://s41.mkklcdnv6temp.com/mangakakalot/g2/grim_reaper/vol1_chapter_5_out_of_control/7.jpg",
    "https://img-proxy.imgfo.com/?referer=https://manganelo.com&url=https://s41.mkklcdnv6temp.com/mangakakalot/g2/grim_reaper/vol1_chapter_5_out_of_control/8.jpg",
    "https://img-proxy.imgfo.com/?referer=https://manganelo.com&url=https://s41.mkklcdnv6temp.com/mangakakalot/g2/grim_reaper/vol1_chapter_5_out_of_control/9.jpg",
    "https://img-proxy.imgfo.com/?referer=https://manganelo.com&url=https://s41.mkklcdnv6temp.com/mangakakalot/g2/grim_reaper/vol1_chapter_5_out_of_control/10.jpg",
    "https://img-proxy.imgfo.com/?referer=https://manganelo.com&url=https://s41.mkklcdnv6temp.com/mangakakalot/g2/grim_reaper/vol1_chapter_5_out_of_control/11.jpg",
    "https://img-proxy.imgfo.com/?referer=https://manganelo.com&url=https://s41.mkklcdnv6temp.com/mangakakalot/g2/grim_reaper/vol1_chapter_5_out_of_control/12.jpg",
    "https://img-proxy.imgfo.com/?referer=https://manganelo.com&url=https://s41.mkklcdnv6temp.com/mangakakalot/g2/grim_reaper/vol1_chapter_5_out_of_control/13.jpg",
    "https://img-proxy.imgfo.com/?referer=https://manganelo.com&url=https://s41.mkklcdnv6temp.com/mangakakalot/g2/grim_reaper/vol1_chapter_5_out_of_control/14.jpg",
    "https://img-proxy.imgfo.com/?referer=https://manganelo.com&url=https://s41.mkklcdnv6temp.com/mangakakalot/g2/grim_reaper/vol1_chapter_5_out_of_control/15.jpg",
    "https://img-proxy.imgfo.com/?referer=https://manganelo.com&url=https://s41.mkklcdnv6temp.com/mangakakalot/g2/grim_reaper/vol1_chapter_5_out_of_control/16.jpg",
    "https://img-proxy.imgfo.com/?referer=https://manganelo.com&url=https://s41.mkklcdnv6temp.com/mangakakalot/g2/grim_reaper/vol1_chapter_5_out_of_control/17.jpg",
    "https://img-proxy.imgfo.com/?referer=https://manganelo.com&url=https://s41.mkklcdnv6temp.com/mangakakalot/g2/grim_reaper/vol1_chapter_5_out_of_control/18.jpg",
    "https://img-proxy.imgfo.com/?referer=https://manganelo.com&url=https://s41.mkklcdnv6temp.com/mangakakalot/g2/grim_reaper/vol1_chapter_5_out_of_control/19.jpg",
    "https://img-proxy.imgfo.com/?referer=https://manganelo.com&url=https://s41.mkklcdnv6temp.com/mangakakalot/g2/grim_reaper/vol1_chapter_5_out_of_control/20.jpg",
    "https://img-proxy.imgfo.com/?referer=https://manganelo.com&url=https://s41.mkklcdnv6temp.com/mangakakalot/g2/grim_reaper/vol1_chapter_5_out_of_control/21.jpg",
    "https://img-proxy.imgfo.com/?referer=https://manganelo.com&url=https://s41.mkklcdnv6temp.com/mangakakalot/g2/grim_reaper/vol1_chapter_5_out_of_control/22.jpg",
    "https://img-proxy.imgfo.com/?referer=https://manganelo.com&url=https://s41.mkklcdnv6temp.com/mangakakalot/g2/grim_reaper/vol1_chapter_5_out_of_control/23.jpg",
    "https://img-proxy.imgfo.com/?referer=https://manganelo.com&url=https://s41.mkklcdnv6temp.com/mangakakalot/g2/grim_reaper/vol1_chapter_5_out_of_control/24.jpg",
    "https://img-proxy.imgfo.com/?referer=https://manganelo.com&url=https://s41.mkklcdnv6temp.com/mangakakalot/g2/grim_reaper/vol1_chapter_5_out_of_control/25.jpg",
    "https://img-proxy.imgfo.com/?referer=https://manganelo.com&url=https://s41.mkklcdnv6temp.com/mangakakalot/g2/grim_reaper/vol1_chapter_5_out_of_control/26.jpg",
    "https://img-proxy.imgfo.com/?referer=https://manganelo.com&url=https://s41.mkklcdnv6temp.com/mangakakalot/g2/grim_reaper/vol1_chapter_5_out_of_control/27.jpg",
    "https://img-proxy.imgfo.com/?referer=https://manganelo.com&url=https://s41.mkklcdnv6temp.com/mangakakalot/g2/grim_reaper/vol1_chapter_5_out_of_control/28.jpg",
    "https://img-proxy.imgfo.com/?referer=https://manganelo.com&url=https://s41.mkklcdnv6temp.com/mangakakalot/g2/grim_reaper/vol1_chapter_5_out_of_control/29.jpg",
    "https://img-proxy.imgfo.com/?referer=https://manganelo.com&url=https://s41.mkklcdnv6temp.com/mangakakalot/g2/grim_reaper/vol1_chapter_5_out_of_control/30.jpg",
    "https://img-proxy.imgfo.com/?referer=https://manganelo.com&url=https://s41.mkklcdnv6temp.com/mangakakalot/g2/grim_reaper/vol1_chapter_5_out_of_control/31.jpg"
  ]
}