{
  "cover": "https://avt.mkklcdnv6.com/1/p/8-1583480156.jpg",
  "title": "Katakoi No Tsuki",
  "original": "单恋之月 ; 單戀之月 ; 片恋の月 ; Moon of One Sided Love ; Moon of One-sided Love ; The Moon in One-sided Love",
  "genre": "Drama, Romance, Shoujo, Manga",
  "author": "Mitsuki Kako",
  "status": "Completed",
  "backlink": "https://manganu.com/collections/mitsuki-kako/katakoi-no-tsuki/",
  "description": "From Serenus Dreamers:\nKurumi likes Souta-kun, but what happens when Kurumi witnesses Souta-Kun hugging one of her friends? Could Souta-kun already have someone he likes or is Kurumi misunderstanding? What can she do if that girl is her friend, too!?",
  "language": "English",
  "images": [
    "https://img-proxy.imgfo.com/?referer=https://manganelo.com&url=https://s3.mkklcdnv6temp.com/mangakakalot/k1/katakoi_no_tsuki/vol01_chapter_6_vol_01/1.jpg",
    "https://img-proxy.imgfo.com/?referer=https://manganelo.com&url=https://s3.mkklcdnv6temp.com/mangakakalot/k1/katakoi_no_tsuki/vol01_chapter_6_vol_01/2.jpg",
    "https://img-proxy.imgfo.com/?referer=https://manganelo.com&url=https://s3.mkklcdnv6temp.com/mangakakalot/k1/katakoi_no_tsuki/vol01_chapter_6_vol_01/3.jpg",
    "https://img-proxy.imgfo.com/?referer=https://manganelo.com&url=https://s3.mkklcdnv6temp.com/mangakakalot/k1/katakoi_no_tsuki/vol01_chapter_6_vol_01/4.jpg",
    "https://img-proxy.imgfo.com/?referer=https://manganelo.com&url=https://s3.mkklcdnv6temp.com/mangakakalot/k1/katakoi_no_tsuki/vol01_chapter_6_vol_01/5.jpg",
    "https://img-proxy.imgfo.com/?referer=https://manganelo.com&url=https://s3.mkklcdnv6temp.com/mangakakalot/k1/katakoi_no_tsuki/vol01_chapter_6_vol_01/6.jpg",
    "https://img-proxy.imgfo.com/?referer=https://manganelo.com&url=https://s3.mkklcdnv6temp.com/mangakakalot/k1/katakoi_no_tsuki/vol01_chapter_6_vol_01/7.jpg",
    "https://img-proxy.imgfo.com/?referer=https://manganelo.com&url=https://s3.mkklcdnv6temp.com/mangakakalot/k1/katakoi_no_tsuki/vol01_chapter_6_vol_01/8.jpg",
    "https://img-proxy.imgfo.com/?referer=https://manganelo.com&url=https://s3.mkklcdnv6temp.com/mangakakalot/k1/katakoi_no_tsuki/vol01_chapter_6_vol_01/9.jpg",
    "https://img-proxy.imgfo.com/?referer=https://manganelo.com&url=https://s3.mkklcdnv6temp.com/mangakakalot/k1/katakoi_no_tsuki/vol01_chapter_6_vol_01/10.jpg",
    "https://img-proxy.imgfo.com/?referer=https://manganelo.com&url=https://s3.mkklcdnv6temp.com/mangakakalot/k1/katakoi_no_tsuki/vol01_chapter_6_vol_01/11.jpg",
    "https://img-proxy.imgfo.com/?referer=https://manganelo.com&url=https://s3.mkklcdnv6temp.com/mangakakalot/k1/katakoi_no_tsuki/vol01_chapter_6_vol_01/12.jpg",
    "https://img-proxy.imgfo.com/?referer=https://manganelo.com&url=https://s3.mkklcdnv6temp.com/mangakakalot/k1/katakoi_no_tsuki/vol01_chapter_6_vol_01/13.jpg",
    "https://img-proxy.imgfo.com/?referer=https://manganelo.com&url=https://s3.mkklcdnv6temp.com/mangakakalot/k1/katakoi_no_tsuki/vol01_chapter_6_vol_01/14.jpg",
    "https://img-proxy.imgfo.com/?referer=https://manganelo.com&url=https://s3.mkklcdnv6temp.com/mangakakalot/k1/katakoi_no_tsuki/vol01_chapter_6_vol_01/15.jpg",
    "https://img-proxy.imgfo.com/?referer=https://manganelo.com&url=https://s3.mkklcdnv6temp.com/mangakakalot/k1/katakoi_no_tsuki/vol01_chapter_6_vol_01/16.jpg",
    "https://img-proxy.imgfo.com/?referer=https://manganelo.com&url=https://s3.mkklcdnv6temp.com/mangakakalot/k1/katakoi_no_tsuki/vol01_chapter_6_vol_01/17.jpg",
    "https://img-proxy.imgfo.com/?referer=https://manganelo.com&url=https://s3.mkklcdnv6temp.com/mangakakalot/k1/katakoi_no_tsuki/vol01_chapter_6_vol_01/18.jpg",
    "https://img-proxy.imgfo.com/?referer=https://manganelo.com&url=https://s3.mkklcdnv6temp.com/mangakakalot/k1/katakoi_no_tsuki/vol01_chapter_6_vol_01/19.jpg",
    "https://img-proxy.imgfo.com/?referer=https://manganelo.com&url=https://s3.mkklcdnv6temp.com/mangakakalot/k1/katakoi_no_tsuki/vol01_chapter_6_vol_01/20.jpg",
    "https://img-proxy.imgfo.com/?referer=https://manganelo.com&url=https://s3.mkklcdnv6temp.com/mangakakalot/k1/katakoi_no_tsuki/vol01_chapter_6_vol_01/21.jpg",
    "https://img-proxy.imgfo.com/?referer=https://manganelo.com&url=https://s3.mkklcdnv6temp.com/mangakakalot/k1/katakoi_no_tsuki/vol01_chapter_6_vol_01/22.jpg",
    "https://img-proxy.imgfo.com/?referer=https://manganelo.com&url=https://s3.mkklcdnv6temp.com/mangakakalot/k1/katakoi_no_tsuki/vol01_chapter_6_vol_01/23.jpg",
    "https://img-proxy.imgfo.com/?referer=https://manganelo.com&url=https://s3.mkklcdnv6temp.com/mangakakalot/k1/katakoi_no_tsuki/vol01_chapter_6_vol_01/24.jpg",
    "https://img-proxy.imgfo.com/?referer=https://manganelo.com&url=https://s3.mkklcdnv6temp.com/mangakakalot/k1/katakoi_no_tsuki/vol01_chapter_6_vol_01/25.jpg",
    "https://img-proxy.imgfo.com/?referer=https://manganelo.com&url=https://s3.mkklcdnv6temp.com/mangakakalot/k1/katakoi_no_tsuki/vol01_chapter_6_vol_01/26.jpg",
    "https://img-proxy.imgfo.com/?referer=https://manganelo.com&url=https://s3.mkklcdnv6temp.com/mangakakalot/k1/katakoi_no_tsuki/vol01_chapter_6_vol_01/27.jpg",
    "https://img-proxy.imgfo.com/?referer=https://manganelo.com&url=https://s3.mkklcdnv6temp.com/mangakakalot/k1/katakoi_no_tsuki/vol01_chapter_6_vol_01/28.jpg"
  ]
}