{
  "cover": "https://avt.mkklcdnv6.com/7/p/7-1583476587.jpg",
  "title": "Afuresou Na Pool",
  "original": "あふれそうなプール ; 溢满之池 ; Afure sou na Pool ; Afuresouna Pool ; As the Pool Floods with Water ; As the Pool Overflows With Water",
  "genre": "Drama, School life, Slice of life, Yaoi, Manga",
  "author": "Ishihara Satoru",
  "status": "Completed",
  "backlink": "https://manganu.com/collections/ishihara-satoru/afuresou-na-pool/",
  "description": "Iriya Tetsuo was the nice, quiet kid that everybody knows. Until well-meant prodding on the part of Hanada Satoshi made him choose the 'easy' way out. He purposely failed the entrance exam to a good school, and picked fights so that he wouldn't have to be around Hanada anymore.\nThe last thing he expected or wanted was for strong-willed Kizu Ryouji to show any interest in him. The sparks fly between the two, while Iriya's best friend Kasuga Ryouta watches jealously...\nSide Story: Hikone\nA 64-page short story on Hikone's (Kizu's friend) past. We finally see behind his jokester exterior, and into his private life. In middle school he was on a reckless path to self-destruction, toying with the biker teams (gangs). And one day, he attacked the wrong team. Now their leader Takasu will teach Hikone a lesson he will never forget.\n(~from translated-treasures)",
  "language": "English",
  "images": [
    "https://img-proxy.imgfo.com/?referer=https://manganelo.com&url=https://s6.mkklcdnv6temp.com/mangakakalot/a1/afuresou_na_pool/vol4_chapter_19_drowned_fish/1.jpg",
    "https://img-proxy.imgfo.com/?referer=https://manganelo.com&url=https://s6.mkklcdnv6temp.com/mangakakalot/a1/afuresou_na_pool/vol4_chapter_19_drowned_fish/2.jpg",
    "https://img-proxy.imgfo.com/?referer=https://manganelo.com&url=https://s6.mkklcdnv6temp.com/mangakakalot/a1/afuresou_na_pool/vol4_chapter_19_drowned_fish/3.jpg",
    "https://img-proxy.imgfo.com/?referer=https://manganelo.com&url=https://s6.mkklcdnv6temp.com/mangakakalot/a1/afuresou_na_pool/vol4_chapter_19_drowned_fish/4.jpg",
    "https://img-proxy.imgfo.com/?referer=https://manganelo.com&url=https://s6.mkklcdnv6temp.com/mangakakalot/a1/afuresou_na_pool/vol4_chapter_19_drowned_fish/5.jpg",
    "https://img-proxy.imgfo.com/?referer=https://manganelo.com&url=https://s6.mkklcdnv6temp.com/mangakakalot/a1/afuresou_na_pool/vol4_chapter_19_drowned_fish/6.jpg",
    "https://img-proxy.imgfo.com/?referer=https://manganelo.com&url=https://s6.mkklcdnv6temp.com/mangakakalot/a1/afuresou_na_pool/vol4_chapter_19_drowned_fish/7.jpg",
    "https://img-proxy.imgfo.com/?referer=https://manganelo.com&url=https://s6.mkklcdnv6temp.com/mangakakalot/a1/afuresou_na_pool/vol4_chapter_19_drowned_fish/8.jpg",
    "https://img-proxy.imgfo.com/?referer=https://manganelo.com&url=https://s6.mkklcdnv6temp.com/mangakakalot/a1/afuresou_na_pool/vol4_chapter_19_drowned_fish/9.jpg",
    "https://img-proxy.imgfo.com/?referer=https://manganelo.com&url=https://s6.mkklcdnv6temp.com/mangakakalot/a1/afuresou_na_pool/vol4_chapter_19_drowned_fish/10.jpg",
    "https://img-proxy.imgfo.com/?referer=https://manganelo.com&url=https://s6.mkklcdnv6temp.com/mangakakalot/a1/afuresou_na_pool/vol4_chapter_19_drowned_fish/11.jpg",
    "https://img-proxy.imgfo.com/?referer=https://manganelo.com&url=https://s6.mkklcdnv6temp.com/mangakakalot/a1/afuresou_na_pool/vol4_chapter_19_drowned_fish/12.jpg",
    "https://img-proxy.imgfo.com/?referer=https://manganelo.com&url=https://s6.mkklcdnv6temp.com/mangakakalot/a1/afuresou_na_pool/vol4_chapter_19_drowned_fish/13.jpg",
    "https://img-proxy.imgfo.com/?referer=https://manganelo.com&url=https://s6.mkklcdnv6temp.com/mangakakalot/a1/afuresou_na_pool/vol4_chapter_19_drowned_fish/14.jpg",
    "https://img-proxy.imgfo.com/?referer=https://manganelo.com&url=https://s6.mkklcdnv6temp.com/mangakakalot/a1/afuresou_na_pool/vol4_chapter_19_drowned_fish/15.jpg",
    "https://img-proxy.imgfo.com/?referer=https://manganelo.com&url=https://s6.mkklcdnv6temp.com/mangakakalot/a1/afuresou_na_pool/vol4_chapter_19_drowned_fish/16.jpg",
    "https://img-proxy.imgfo.com/?referer=https://manganelo.com&url=https://s6.mkklcdnv6temp.com/mangakakalot/a1/afuresou_na_pool/vol4_chapter_19_drowned_fish/17.jpg",
    "https://img-proxy.imgfo.com/?referer=https://manganelo.com&url=https://s6.mkklcdnv6temp.com/mangakakalot/a1/afuresou_na_pool/vol4_chapter_19_drowned_fish/18.jpg",
    "https://img-proxy.imgfo.com/?referer=https://manganelo.com&url=https://s6.mkklcdnv6temp.com/mangakakalot/a1/afuresou_na_pool/vol4_chapter_19_drowned_fish/19.jpg",
    "https://img-proxy.imgfo.com/?referer=https://manganelo.com&url=https://s6.mkklcdnv6temp.com/mangakakalot/a1/afuresou_na_pool/vol4_chapter_19_drowned_fish/20.jpg",
    "https://img-proxy.imgfo.com/?referer=https://manganelo.com&url=https://s6.mkklcdnv6temp.com/mangakakalot/a1/afuresou_na_pool/vol4_chapter_19_drowned_fish/21.jpg",
    "https://img-proxy.imgfo.com/?referer=https://manganelo.com&url=https://s6.mkklcdnv6temp.com/mangakakalot/a1/afuresou_na_pool/vol4_chapter_19_drowned_fish/22.jpg",
    "https://img-proxy.imgfo.com/?referer=https://manganelo.com&url=https://s6.mkklcdnv6temp.com/mangakakalot/a1/afuresou_na_pool/vol4_chapter_19_drowned_fish/23.jpg",
    "https://img-proxy.imgfo.com/?referer=https://manganelo.com&url=https://s6.mkklcdnv6temp.com/mangakakalot/a1/afuresou_na_pool/vol4_chapter_19_drowned_fish/24.jpg",
    "https://img-proxy.imgfo.com/?referer=https://manganelo.com&url=https://s6.mkklcdnv6temp.com/mangakakalot/a1/afuresou_na_pool/vol4_chapter_19_drowned_fish/25.jpg",
    "https://img-proxy.imgfo.com/?referer=https://manganelo.com&url=https://s6.mkklcdnv6temp.com/mangakakalot/a1/afuresou_na_pool/vol4_chapter_19_drowned_fish/26.jpg",
    "https://img-proxy.imgfo.com/?referer=https://manganelo.com&url=https://s6.mkklcdnv6temp.com/mangakakalot/a1/afuresou_na_pool/vol4_chapter_19_drowned_fish/27.jpg",
    "https://img-proxy.imgfo.com/?referer=https://manganelo.com&url=https://s6.mkklcdnv6temp.com/mangakakalot/a1/afuresou_na_pool/vol4_chapter_19_drowned_fish/28.jpg",
    "https://img-proxy.imgfo.com/?referer=https://manganelo.com&url=https://s6.mkklcdnv6temp.com/mangakakalot/a1/afuresou_na_pool/vol4_chapter_19_drowned_fish/29.jpg",
    "https://img-proxy.imgfo.com/?referer=https://manganelo.com&url=https://s6.mkklcdnv6temp.com/mangakakalot/a1/afuresou_na_pool/vol4_chapter_19_drowned_fish/30.jpg",
    "https://img-proxy.imgfo.com/?referer=https://manganelo.com&url=https://s6.mkklcdnv6temp.com/mangakakalot/a1/afuresou_na_pool/vol4_chapter_19_drowned_fish/31.jpg",
    "https://img-proxy.imgfo.com/?referer=https://manganelo.com&url=https://s6.mkklcdnv6temp.com/mangakakalot/a1/afuresou_na_pool/vol4_chapter_19_drowned_fish/32.jpg",
    "https://img-proxy.imgfo.com/?referer=https://manganelo.com&url=https://s6.mkklcdnv6temp.com/mangakakalot/a1/afuresou_na_pool/vol4_chapter_19_drowned_fish/33.jpg",
    "https://img-proxy.imgfo.com/?referer=https://manganelo.com&url=https://s6.mkklcdnv6temp.com/mangakakalot/a1/afuresou_na_pool/vol4_chapter_19_drowned_fish/34.jpg",
    "https://img-proxy.imgfo.com/?referer=https://manganelo.com&url=https://s6.mkklcdnv6temp.com/mangakakalot/a1/afuresou_na_pool/vol4_chapter_19_drowned_fish/35.jpg",
    "https://img-proxy.imgfo.com/?referer=https://manganelo.com&url=https://s6.mkklcdnv6temp.com/mangakakalot/a1/afuresou_na_pool/vol4_chapter_19_drowned_fish/36.jpg"
  ]
}