{
  "cover": "https://avt.mkklcdnv6.com/6/m/5-1583472107.jpg",
  "title": "Sasameki Koto",
  "original": "ささめきこと ; 轻声密语 ; Sasamekikoto ; Sasamekikoto (French) ; Whispered Words",
  "genre": "Comedy, Drama, School life, Seinen, Shoujo ai, Slice of life, Manga",
  "author": "Ikeda Takashi",
  "status": "Completed",
  "backlink": "https://manganu.com/collections/ikeda-takashi/sasameki-koto/",
  "description": "Sasameki Koto is the story of Murasame Sumika, an intelligent and athletically gifted girl who just happens to be in love with her best friend, Kazama Ushio. Unable to confess her feelings, Sumika can only stay by her side and watch over her. After all, the biggest obstacle to her love is something that she can't change. It has nothing to do with the fact they're both girls; Sumika just isn't Kazama's type!\nKazama is only into cute girls and Sumika's cool personality just doesn't fit the bill. Much to her friend's dismay, Kazama is always eager to share news about her latest crush. With the duo's knack for attracting trouble, it looks like Sumika's trials have only just begun.",
  "language": "English",
  "images": [
    "https://img-proxy.imgfo.com/?referer=https://manganelo.com&url=https://s6.mkklcdnv6temp.com/mangakakalot/s1/sasameki_koto/vol7_chapter_35_spring_evening/1.jpg",
    "https://img-proxy.imgfo.com/?referer=https://manganelo.com&url=https://s6.mkklcdnv6temp.com/mangakakalot/s1/sasameki_koto/vol7_chapter_35_spring_evening/2.jpg",
    "https://img-proxy.imgfo.com/?referer=https://manganelo.com&url=https://s6.mkklcdnv6temp.com/mangakakalot/s1/sasameki_koto/vol7_chapter_35_spring_evening/3.jpg",
    "https://img-proxy.imgfo.com/?referer=https://manganelo.com&url=https://s6.mkklcdnv6temp.com/mangakakalot/s1/sasameki_koto/vol7_chapter_35_spring_evening/4.jpg",
    "https://img-proxy.imgfo.com/?referer=https://manganelo.com&url=https://s6.mkklcdnv6temp.com/mangakakalot/s1/sasameki_koto/vol7_chapter_35_spring_evening/5.jpg",
    "https://img-proxy.imgfo.com/?referer=https://manganelo.com&url=https://s6.mkklcdnv6temp.com/mangakakalot/s1/sasameki_koto/vol7_chapter_35_spring_evening/6.jpg",
    "https://img-proxy.imgfo.com/?referer=https://manganelo.com&url=https://s6.mkklcdnv6temp.com/mangakakalot/s1/sasameki_koto/vol7_chapter_35_spring_evening/7.jpg",
    "https://img-proxy.imgfo.com/?referer=https://manganelo.com&url=https://s6.mkklcdnv6temp.com/mangakakalot/s1/sasameki_koto/vol7_chapter_35_spring_evening/8.jpg",
    "https://img-proxy.imgfo.com/?referer=https://manganelo.com&url=https://s6.mkklcdnv6temp.com/mangakakalot/s1/sasameki_koto/vol7_chapter_35_spring_evening/9.jpg",
    "https://img-proxy.imgfo.com/?referer=https://manganelo.com&url=https://s6.mkklcdnv6temp.com/mangakakalot/s1/sasameki_koto/vol7_chapter_35_spring_evening/10.jpg",
    "https://img-proxy.imgfo.com/?referer=https://manganelo.com&url=https://s6.mkklcdnv6temp.com/mangakakalot/s1/sasameki_koto/vol7_chapter_35_spring_evening/11.jpg",
    "https://img-proxy.imgfo.com/?referer=https://manganelo.com&url=https://s6.mkklcdnv6temp.com/mangakakalot/s1/sasameki_koto/vol7_chapter_35_spring_evening/12.jpg",
    "https://img-proxy.imgfo.com/?referer=https://manganelo.com&url=https://s6.mkklcdnv6temp.com/mangakakalot/s1/sasameki_koto/vol7_chapter_35_spring_evening/13.jpg",
    "https://img-proxy.imgfo.com/?referer=https://manganelo.com&url=https://s6.mkklcdnv6temp.com/mangakakalot/s1/sasameki_koto/vol7_chapter_35_spring_evening/14.jpg",
    "https://img-proxy.imgfo.com/?referer=https://manganelo.com&url=https://s6.mkklcdnv6temp.com/mangakakalot/s1/sasameki_koto/vol7_chapter_35_spring_evening/15.jpg",
    "https://img-proxy.imgfo.com/?referer=https://manganelo.com&url=https://s6.mkklcdnv6temp.com/mangakakalot/s1/sasameki_koto/vol7_chapter_35_spring_evening/16.jpg",
    "https://img-proxy.imgfo.com/?referer=https://manganelo.com&url=https://s6.mkklcdnv6temp.com/mangakakalot/s1/sasameki_koto/vol7_chapter_35_spring_evening/17.jpg",
    "https://img-proxy.imgfo.com/?referer=https://manganelo.com&url=https://s6.mkklcdnv6temp.com/mangakakalot/s1/sasameki_koto/vol7_chapter_35_spring_evening/18.jpg",
    "https://img-proxy.imgfo.com/?referer=https://manganelo.com&url=https://s6.mkklcdnv6temp.com/mangakakalot/s1/sasameki_koto/vol7_chapter_35_spring_evening/19.jpg",
    "https://img-proxy.imgfo.com/?referer=https://manganelo.com&url=https://s6.mkklcdnv6temp.com/mangakakalot/s1/sasameki_koto/vol7_chapter_35_spring_evening/20.jpg",
    "https://img-proxy.imgfo.com/?referer=https://manganelo.com&url=https://s6.mkklcdnv6temp.com/mangakakalot/s1/sasameki_koto/vol7_chapter_35_spring_evening/21.jpg",
    "https://img-proxy.imgfo.com/?referer=https://manganelo.com&url=https://s6.mkklcdnv6temp.com/mangakakalot/s1/sasameki_koto/vol7_chapter_35_spring_evening/22.jpg",
    "https://img-proxy.imgfo.com/?referer=https://manganelo.com&url=https://s6.mkklcdnv6temp.com/mangakakalot/s1/sasameki_koto/vol7_chapter_35_spring_evening/23.jpg",
    "https://img-proxy.imgfo.com/?referer=https://manganelo.com&url=https://s6.mkklcdnv6temp.com/mangakakalot/s1/sasameki_koto/vol7_chapter_35_spring_evening/24.jpg",
    "https://img-proxy.imgfo.com/?referer=https://manganelo.com&url=https://s6.mkklcdnv6temp.com/mangakakalot/s1/sasameki_koto/vol7_chapter_35_spring_evening/25.jpg",
    "https://img-proxy.imgfo.com/?referer=https://manganelo.com&url=https://s6.mkklcdnv6temp.com/mangakakalot/s1/sasameki_koto/vol7_chapter_35_spring_evening/26.jpg",
    "https://img-proxy.imgfo.com/?referer=https://manganelo.com&url=https://s6.mkklcdnv6temp.com/mangakakalot/s1/sasameki_koto/vol7_chapter_35_spring_evening/27.jpg",
    "https://img-proxy.imgfo.com/?referer=https://manganelo.com&url=https://s6.mkklcdnv6temp.com/mangakakalot/s1/sasameki_koto/vol7_chapter_35_spring_evening/28.jpg",
    "https://img-proxy.imgfo.com/?referer=https://manganelo.com&url=https://s6.mkklcdnv6temp.com/mangakakalot/s1/sasameki_koto/vol7_chapter_35_spring_evening/29.jpg",
    "https://img-proxy.imgfo.com/?referer=https://manganelo.com&url=https://s6.mkklcdnv6temp.com/mangakakalot/s1/sasameki_koto/vol7_chapter_35_spring_evening/30.jpg",
    "https://img-proxy.imgfo.com/?referer=https://manganelo.com&url=https://s6.mkklcdnv6temp.com/mangakakalot/s1/sasameki_koto/vol7_chapter_35_spring_evening/31.jpg",
    "https://img-proxy.imgfo.com/?referer=https://manganelo.com&url=https://s6.mkklcdnv6temp.com/mangakakalot/s1/sasameki_koto/vol7_chapter_35_spring_evening/32.jpg",
    "https://img-proxy.imgfo.com/?referer=https://manganelo.com&url=https://s6.mkklcdnv6temp.com/mangakakalot/s1/sasameki_koto/vol7_chapter_35_spring_evening/33.jpg",
    "https://img-proxy.imgfo.com/?referer=https://manganelo.com&url=https://s6.mkklcdnv6temp.com/mangakakalot/s1/sasameki_koto/vol7_chapter_35_spring_evening/34.jpg",
    "https://img-proxy.imgfo.com/?referer=https://manganelo.com&url=https://s6.mkklcdnv6temp.com/mangakakalot/s1/sasameki_koto/vol7_chapter_35_spring_evening/35.jpg"
  ]
}