{
  "cover": "https://avt.mkklcdnv6.com/15/n/4-1583470301.jpg",
  "title": "Shibatora",
  "original": "シバトラ ; 少年刑警 ; ลางสังหาร ; 시바토라",
  "genre": "Action, Comedy, Drama, Mystery, Shounen, Supernatural, Tragedy, Manga",
  "author": "Ando Yuma",
  "status": "Completed",
  "backlink": "https://manganu.com/collections/ando-yuma/shibatora/",
  "description": "Officer Shibata Taketora works in a local koban (a small police office). He may have a child-like face on the outside, but he's more serious than anyone in his pursuit of justice! With his goal being to become a detective, Taketora confronts everyday problems that happen within the town! Various incidents within the street make him chase after and apprehend criminals!",
  "language": "English",
  "images": [
    "https://img-proxy.imgfo.com/?referer=https://manganelo.com&url=https://s6.mkklcdnv6temp.com/mangakakalot/s1/shibatora/vol13_chapter_104_recommendation_to_lie/1.jpg",
    "https://img-proxy.imgfo.com/?referer=https://manganelo.com&url=https://s6.mkklcdnv6temp.com/mangakakalot/s1/shibatora/vol13_chapter_104_recommendation_to_lie/2.jpg",
    "https://img-proxy.imgfo.com/?referer=https://manganelo.com&url=https://s6.mkklcdnv6temp.com/mangakakalot/s1/shibatora/vol13_chapter_104_recommendation_to_lie/3.jpg",
    "https://img-proxy.imgfo.com/?referer=https://manganelo.com&url=https://s6.mkklcdnv6temp.com/mangakakalot/s1/shibatora/vol13_chapter_104_recommendation_to_lie/4.jpg",
    "https://img-proxy.imgfo.com/?referer=https://manganelo.com&url=https://s6.mkklcdnv6temp.com/mangakakalot/s1/shibatora/vol13_chapter_104_recommendation_to_lie/5.jpg",
    "https://img-proxy.imgfo.com/?referer=https://manganelo.com&url=https://s6.mkklcdnv6temp.com/mangakakalot/s1/shibatora/vol13_chapter_104_recommendation_to_lie/6.jpg",
    "https://img-proxy.imgfo.com/?referer=https://manganelo.com&url=https://s6.mkklcdnv6temp.com/mangakakalot/s1/shibatora/vol13_chapter_104_recommendation_to_lie/7.jpg",
    "https://img-proxy.imgfo.com/?referer=https://manganelo.com&url=https://s6.mkklcdnv6temp.com/mangakakalot/s1/shibatora/vol13_chapter_104_recommendation_to_lie/8.jpg",
    "https://img-proxy.imgfo.com/?referer=https://manganelo.com&url=https://s6.mkklcdnv6temp.com/mangakakalot/s1/shibatora/vol13_chapter_104_recommendation_to_lie/9.jpg",
    "https://img-proxy.imgfo.com/?referer=https://manganelo.com&url=https://s6.mkklcdnv6temp.com/mangakakalot/s1/shibatora/vol13_chapter_104_recommendation_to_lie/10.jpg",
    "https://img-proxy.imgfo.com/?referer=https://manganelo.com&url=https://s6.mkklcdnv6temp.com/mangakakalot/s1/shibatora/vol13_chapter_104_recommendation_to_lie/11.jpg",
    "https://img-proxy.imgfo.com/?referer=https://manganelo.com&url=https://s6.mkklcdnv6temp.com/mangakakalot/s1/shibatora/vol13_chapter_104_recommendation_to_lie/12.jpg",
    "https://img-proxy.imgfo.com/?referer=https://manganelo.com&url=https://s6.mkklcdnv6temp.com/mangakakalot/s1/shibatora/vol13_chapter_104_recommendation_to_lie/13.jpg",
    "https://img-proxy.imgfo.com/?referer=https://manganelo.com&url=https://s6.mkklcdnv6temp.com/mangakakalot/s1/shibatora/vol13_chapter_104_recommendation_to_lie/14.jpg",
    "https://img-proxy.imgfo.com/?referer=https://manganelo.com&url=https://s6.mkklcdnv6temp.com/mangakakalot/s1/shibatora/vol13_chapter_104_recommendation_to_lie/15.jpg",
    "https://img-proxy.imgfo.com/?referer=https://manganelo.com&url=https://s6.mkklcdnv6temp.com/mangakakalot/s1/shibatora/vol13_chapter_104_recommendation_to_lie/16.jpg",
    "https://img-proxy.imgfo.com/?referer=https://manganelo.com&url=https://s6.mkklcdnv6temp.com/mangakakalot/s1/shibatora/vol13_chapter_104_recommendation_to_lie/17.jpg",
    "https://img-proxy.imgfo.com/?referer=https://manganelo.com&url=https://s6.mkklcdnv6temp.com/mangakakalot/s1/shibatora/vol13_chapter_104_recommendation_to_lie/18.jpg",
    "https://img-proxy.imgfo.com/?referer=https://manganelo.com&url=https://s6.mkklcdnv6temp.com/mangakakalot/s1/shibatora/vol13_chapter_104_recommendation_to_lie/19.jpg",
    "https://img-proxy.imgfo.com/?referer=https://manganelo.com&url=https://s6.mkklcdnv6temp.com/mangakakalot/s1/shibatora/vol13_chapter_104_recommendation_to_lie/20.jpg",
    "https://img-proxy.imgfo.com/?referer=https://manganelo.com&url=https://s6.mkklcdnv6temp.com/mangakakalot/s1/shibatora/vol13_chapter_104_recommendation_to_lie/21.jpg",
    "https://img-proxy.imgfo.com/?referer=https://manganelo.com&url=https://s6.mkklcdnv6temp.com/mangakakalot/s1/shibatora/vol13_chapter_104_recommendation_to_lie/22.jpg",
    "https://img-proxy.imgfo.com/?referer=https://manganelo.com&url=https://s6.mkklcdnv6temp.com/mangakakalot/s1/shibatora/vol13_chapter_104_recommendation_to_lie/23.jpg",
    "https://img-proxy.imgfo.com/?referer=https://manganelo.com&url=https://s6.mkklcdnv6temp.com/mangakakalot/s1/shibatora/vol13_chapter_104_recommendation_to_lie/24.jpg",
    "https://img-proxy.imgfo.com/?referer=https://manganelo.com&url=https://s6.mkklcdnv6temp.com/mangakakalot/s1/shibatora/vol13_chapter_104_recommendation_to_lie/25.jpg"
  ]
}