{
  "cover": "https://avt.mkklcdnv6.com/15/n/4-1583470301.jpg",
  "title": "Shibatora",
  "original": "シバトラ ; 少年刑警 ; ลางสังหาร ; 시바토라",
  "genre": "Action, Comedy, Drama, Mystery, Shounen, Supernatural, Tragedy, Manga",
  "author": "Ando Yuma",
  "status": "Completed",
  "backlink": "https://manganu.com/collections/ando-yuma/shibatora/",
  "description": "Officer Shibata Taketora works in a local koban (a small police office). He may have a child-like face on the outside, but he's more serious than anyone in his pursuit of justice! With his goal being to become a detective, Taketora confronts everyday problems that happen within the town! Various incidents within the street make him chase after and apprehend criminals!",
  "language": "English",
  "images": [
    "https://img-proxy.imgfo.com/?referer=https://manganelo.com&url=https://s6.mkklcdnv6temp.com/mangakakalot/s1/shibatora/vol10_chapter_80_ultimatum/1.jpg",
    "https://img-proxy.imgfo.com/?referer=https://manganelo.com&url=https://s6.mkklcdnv6temp.com/mangakakalot/s1/shibatora/vol10_chapter_80_ultimatum/2.jpg",
    "https://img-proxy.imgfo.com/?referer=https://manganelo.com&url=https://s6.mkklcdnv6temp.com/mangakakalot/s1/shibatora/vol10_chapter_80_ultimatum/3.jpg",
    "https://img-proxy.imgfo.com/?referer=https://manganelo.com&url=https://s6.mkklcdnv6temp.com/mangakakalot/s1/shibatora/vol10_chapter_80_ultimatum/4.jpg",
    "https://img-proxy.imgfo.com/?referer=https://manganelo.com&url=https://s6.mkklcdnv6temp.com/mangakakalot/s1/shibatora/vol10_chapter_80_ultimatum/5.jpg",
    "https://img-proxy.imgfo.com/?referer=https://manganelo.com&url=https://s6.mkklcdnv6temp.com/mangakakalot/s1/shibatora/vol10_chapter_80_ultimatum/6.jpg",
    "https://img-proxy.imgfo.com/?referer=https://manganelo.com&url=https://s6.mkklcdnv6temp.com/mangakakalot/s1/shibatora/vol10_chapter_80_ultimatum/7.jpg",
    "https://img-proxy.imgfo.com/?referer=https://manganelo.com&url=https://s6.mkklcdnv6temp.com/mangakakalot/s1/shibatora/vol10_chapter_80_ultimatum/8.jpg",
    "https://img-proxy.imgfo.com/?referer=https://manganelo.com&url=https://s6.mkklcdnv6temp.com/mangakakalot/s1/shibatora/vol10_chapter_80_ultimatum/9.jpg",
    "https://img-proxy.imgfo.com/?referer=https://manganelo.com&url=https://s6.mkklcdnv6temp.com/mangakakalot/s1/shibatora/vol10_chapter_80_ultimatum/10.jpg",
    "https://img-proxy.imgfo.com/?referer=https://manganelo.com&url=https://s6.mkklcdnv6temp.com/mangakakalot/s1/shibatora/vol10_chapter_80_ultimatum/11.jpg",
    "https://img-proxy.imgfo.com/?referer=https://manganelo.com&url=https://s6.mkklcdnv6temp.com/mangakakalot/s1/shibatora/vol10_chapter_80_ultimatum/12.jpg",
    "https://img-proxy.imgfo.com/?referer=https://manganelo.com&url=https://s6.mkklcdnv6temp.com/mangakakalot/s1/shibatora/vol10_chapter_80_ultimatum/13.jpg",
    "https://img-proxy.imgfo.com/?referer=https://manganelo.com&url=https://s6.mkklcdnv6temp.com/mangakakalot/s1/shibatora/vol10_chapter_80_ultimatum/14.jpg",
    "https://img-proxy.imgfo.com/?referer=https://manganelo.com&url=https://s6.mkklcdnv6temp.com/mangakakalot/s1/shibatora/vol10_chapter_80_ultimatum/15.jpg",
    "https://img-proxy.imgfo.com/?referer=https://manganelo.com&url=https://s6.mkklcdnv6temp.com/mangakakalot/s1/shibatora/vol10_chapter_80_ultimatum/16.jpg",
    "https://img-proxy.imgfo.com/?referer=https://manganelo.com&url=https://s6.mkklcdnv6temp.com/mangakakalot/s1/shibatora/vol10_chapter_80_ultimatum/17.jpg",
    "https://img-proxy.imgfo.com/?referer=https://manganelo.com&url=https://s6.mkklcdnv6temp.com/mangakakalot/s1/shibatora/vol10_chapter_80_ultimatum/18.jpg",
    "https://img-proxy.imgfo.com/?referer=https://manganelo.com&url=https://s6.mkklcdnv6temp.com/mangakakalot/s1/shibatora/vol10_chapter_80_ultimatum/19.jpg",
    "https://img-proxy.imgfo.com/?referer=https://manganelo.com&url=https://s6.mkklcdnv6temp.com/mangakakalot/s1/shibatora/vol10_chapter_80_ultimatum/20.jpg",
    "https://img-proxy.imgfo.com/?referer=https://manganelo.com&url=https://s6.mkklcdnv6temp.com/mangakakalot/s1/shibatora/vol10_chapter_80_ultimatum/21.jpg"
  ]
}