{
  "cover": "https://avt.mkklcdnv6.com/20/x/4-1583470526.jpg",
  "title": "Mayo Chiki!",
  "original": "まよチキ! ; 美少年管家的秘密! ; 迷える執事とチキンな俺と ; 迷茫管家与懦弱的我 ; Mayo Chiki ; Mayoeru Shitsuji to Chikin na Ore to ; The Wavering Butler and Myself the Chicken",
  "genre": "Comedy, Ecchi, Gender bender, Harem, Romance, School life, Seinen",
  "author": "Asano Hajime",
  "status": "Completed",
  "backlink": "https://manganu.com/collections/asano-hajime/mayo-chiki/",
  "description": "Konoe Subaru, a classmate of Sakamachi Kinjirou, has been serving as the butler of Suzutsuki Kanade in school. Due to an accident, Sakamachi discovers Konoe&#39;s secret...that he is actually a she!? Apparently she will be removed from her position if anyone at school finds out. What will unfold from this chain of events?",
  "language": "English",
  "images": [
    "https://img-proxy.imgfo.com/?referer=https://manganelo.com&url=https://s41.mkklcdnv6temp.com/mangakakalot/m1/mayo_chiki/vol1_chapter_5_wolf_and_sheep/1.jpg",
    "https://img-proxy.imgfo.com/?referer=https://manganelo.com&url=https://s41.mkklcdnv6temp.com/mangakakalot/m1/mayo_chiki/vol1_chapter_5_wolf_and_sheep/2.jpg",
    "https://img-proxy.imgfo.com/?referer=https://manganelo.com&url=https://s41.mkklcdnv6temp.com/mangakakalot/m1/mayo_chiki/vol1_chapter_5_wolf_and_sheep/3.jpg",
    "https://img-proxy.imgfo.com/?referer=https://manganelo.com&url=https://s41.mkklcdnv6temp.com/mangakakalot/m1/mayo_chiki/vol1_chapter_5_wolf_and_sheep/4.jpg",
    "https://img-proxy.imgfo.com/?referer=https://manganelo.com&url=https://s41.mkklcdnv6temp.com/mangakakalot/m1/mayo_chiki/vol1_chapter_5_wolf_and_sheep/5.jpg",
    "https://img-proxy.imgfo.com/?referer=https://manganelo.com&url=https://s41.mkklcdnv6temp.com/mangakakalot/m1/mayo_chiki/vol1_chapter_5_wolf_and_sheep/6.jpg",
    "https://img-proxy.imgfo.com/?referer=https://manganelo.com&url=https://s41.mkklcdnv6temp.com/mangakakalot/m1/mayo_chiki/vol1_chapter_5_wolf_and_sheep/7.jpg",
    "https://img-proxy.imgfo.com/?referer=https://manganelo.com&url=https://s41.mkklcdnv6temp.com/mangakakalot/m1/mayo_chiki/vol1_chapter_5_wolf_and_sheep/8.jpg",
    "https://img-proxy.imgfo.com/?referer=https://manganelo.com&url=https://s41.mkklcdnv6temp.com/mangakakalot/m1/mayo_chiki/vol1_chapter_5_wolf_and_sheep/9.jpg",
    "https://img-proxy.imgfo.com/?referer=https://manganelo.com&url=https://s41.mkklcdnv6temp.com/mangakakalot/m1/mayo_chiki/vol1_chapter_5_wolf_and_sheep/10.jpg",
    "https://img-proxy.imgfo.com/?referer=https://manganelo.com&url=https://s41.mkklcdnv6temp.com/mangakakalot/m1/mayo_chiki/vol1_chapter_5_wolf_and_sheep/11.jpg",
    "https://img-proxy.imgfo.com/?referer=https://manganelo.com&url=https://s41.mkklcdnv6temp.com/mangakakalot/m1/mayo_chiki/vol1_chapter_5_wolf_and_sheep/12.jpg",
    "https://img-proxy.imgfo.com/?referer=https://manganelo.com&url=https://s41.mkklcdnv6temp.com/mangakakalot/m1/mayo_chiki/vol1_chapter_5_wolf_and_sheep/13.jpg",
    "https://img-proxy.imgfo.com/?referer=https://manganelo.com&url=https://s41.mkklcdnv6temp.com/mangakakalot/m1/mayo_chiki/vol1_chapter_5_wolf_and_sheep/14.jpg",
    "https://img-proxy.imgfo.com/?referer=https://manganelo.com&url=https://s41.mkklcdnv6temp.com/mangakakalot/m1/mayo_chiki/vol1_chapter_5_wolf_and_sheep/15.jpg",
    "https://img-proxy.imgfo.com/?referer=https://manganelo.com&url=https://s41.mkklcdnv6temp.com/mangakakalot/m1/mayo_chiki/vol1_chapter_5_wolf_and_sheep/16.jpg",
    "https://img-proxy.imgfo.com/?referer=https://manganelo.com&url=https://s41.mkklcdnv6temp.com/mangakakalot/m1/mayo_chiki/vol1_chapter_5_wolf_and_sheep/17.jpg",
    "https://img-proxy.imgfo.com/?referer=https://manganelo.com&url=https://s41.mkklcdnv6temp.com/mangakakalot/m1/mayo_chiki/vol1_chapter_5_wolf_and_sheep/18.jpg",
    "https://img-proxy.imgfo.com/?referer=https://manganelo.com&url=https://s41.mkklcdnv6temp.com/mangakakalot/m1/mayo_chiki/vol1_chapter_5_wolf_and_sheep/19.jpg",
    "https://img-proxy.imgfo.com/?referer=https://manganelo.com&url=https://s41.mkklcdnv6temp.com/mangakakalot/m1/mayo_chiki/vol1_chapter_5_wolf_and_sheep/20.jpg",
    "https://img-proxy.imgfo.com/?referer=https://manganelo.com&url=https://s41.mkklcdnv6temp.com/mangakakalot/m1/mayo_chiki/vol1_chapter_5_wolf_and_sheep/21.jpg",
    "https://img-proxy.imgfo.com/?referer=https://manganelo.com&url=https://s41.mkklcdnv6temp.com/mangakakalot/m1/mayo_chiki/vol1_chapter_5_wolf_and_sheep/22.jpg",
    "https://img-proxy.imgfo.com/?referer=https://manganelo.com&url=https://s41.mkklcdnv6temp.com/mangakakalot/m1/mayo_chiki/vol1_chapter_5_wolf_and_sheep/23.jpg",
    "https://img-proxy.imgfo.com/?referer=https://manganelo.com&url=https://s41.mkklcdnv6temp.com/mangakakalot/m1/mayo_chiki/vol1_chapter_5_wolf_and_sheep/24.jpg",
    "https://img-proxy.imgfo.com/?referer=https://manganelo.com&url=https://s41.mkklcdnv6temp.com/mangakakalot/m1/mayo_chiki/vol1_chapter_5_wolf_and_sheep/25.jpg",
    "https://img-proxy.imgfo.com/?referer=https://manganelo.com&url=https://s41.mkklcdnv6temp.com/mangakakalot/m1/mayo_chiki/vol1_chapter_5_wolf_and_sheep/26.jpg",
    "https://img-proxy.imgfo.com/?referer=https://manganelo.com&url=https://s41.mkklcdnv6temp.com/mangakakalot/m1/mayo_chiki/vol1_chapter_5_wolf_and_sheep/27.jpg",
    "https://img-proxy.imgfo.com/?referer=https://manganelo.com&url=https://s41.mkklcdnv6temp.com/mangakakalot/m1/mayo_chiki/vol1_chapter_5_wolf_and_sheep/28.jpg",
    "https://img-proxy.imgfo.com/?referer=https://manganelo.com&url=https://s41.mkklcdnv6temp.com/mangakakalot/m1/mayo_chiki/vol1_chapter_5_wolf_and_sheep/29.jpg",
    "https://img-proxy.imgfo.com/?referer=https://manganelo.com&url=https://s41.mkklcdnv6temp.com/mangakakalot/m1/mayo_chiki/vol1_chapter_5_wolf_and_sheep/30.jpg",
    "https://img-proxy.imgfo.com/?referer=https://manganelo.com&url=https://s41.mkklcdnv6temp.com/mangakakalot/m1/mayo_chiki/vol1_chapter_5_wolf_and_sheep/31.jpg",
    "https://img-proxy.imgfo.com/?referer=https://manganelo.com&url=https://s41.mkklcdnv6temp.com/mangakakalot/m1/mayo_chiki/vol1_chapter_5_wolf_and_sheep/32.jpg",
    "https://img-proxy.imgfo.com/?referer=https://manganelo.com&url=https://s41.mkklcdnv6temp.com/mangakakalot/m1/mayo_chiki/vol1_chapter_5_wolf_and_sheep/33.jpg",
    "https://img-proxy.imgfo.com/?referer=https://manganelo.com&url=https://s41.mkklcdnv6temp.com/mangakakalot/m1/mayo_chiki/vol1_chapter_5_wolf_and_sheep/34.jpg"
  ]
}