{
  "cover": "https://avt.mkklcdnv6.com/20/x/4-1583470526.jpg",
  "title": "Mayo Chiki!",
  "original": "まよチキ! ; 美少年管家的秘密! ; 迷える執事とチキンな俺と ; 迷茫管家与懦弱的我 ; Mayo Chiki ; Mayoeru Shitsuji to Chikin na Ore to ; The Wavering Butler and Myself the Chicken",
  "genre": "Comedy, Ecchi, Gender bender, Harem, Romance, School life, Seinen",
  "author": "Asano Hajime",
  "status": "Completed",
  "backlink": "https://manganu.com/collections/asano-hajime/mayo-chiki/",
  "description": "Konoe Subaru, a classmate of Sakamachi Kinjirou, has been serving as the butler of Suzutsuki Kanade in school. Due to an accident, Sakamachi discovers Konoe&#39;s secret...that he is actually a she!? Apparently she will be removed from her position if anyone at school finds out. What will unfold from this chain of events?",
  "language": "English",
  "images": [
    "https://img-proxy.imgfo.com/?referer=https://manganelo.com&url=https://s41.mkklcdnv6temp.com/mangakakalot/m1/mayo_chiki/vol3_chapter_11_exciting_culture_festival/1.jpg",
    "https://img-proxy.imgfo.com/?referer=https://manganelo.com&url=https://s41.mkklcdnv6temp.com/mangakakalot/m1/mayo_chiki/vol3_chapter_11_exciting_culture_festival/2.jpg",
    "https://img-proxy.imgfo.com/?referer=https://manganelo.com&url=https://s41.mkklcdnv6temp.com/mangakakalot/m1/mayo_chiki/vol3_chapter_11_exciting_culture_festival/3.jpg",
    "https://img-proxy.imgfo.com/?referer=https://manganelo.com&url=https://s41.mkklcdnv6temp.com/mangakakalot/m1/mayo_chiki/vol3_chapter_11_exciting_culture_festival/4.jpg",
    "https://img-proxy.imgfo.com/?referer=https://manganelo.com&url=https://s41.mkklcdnv6temp.com/mangakakalot/m1/mayo_chiki/vol3_chapter_11_exciting_culture_festival/5.jpg",
    "https://img-proxy.imgfo.com/?referer=https://manganelo.com&url=https://s41.mkklcdnv6temp.com/mangakakalot/m1/mayo_chiki/vol3_chapter_11_exciting_culture_festival/6.jpg",
    "https://img-proxy.imgfo.com/?referer=https://manganelo.com&url=https://s41.mkklcdnv6temp.com/mangakakalot/m1/mayo_chiki/vol3_chapter_11_exciting_culture_festival/7.jpg",
    "https://img-proxy.imgfo.com/?referer=https://manganelo.com&url=https://s41.mkklcdnv6temp.com/mangakakalot/m1/mayo_chiki/vol3_chapter_11_exciting_culture_festival/8.jpg",
    "https://img-proxy.imgfo.com/?referer=https://manganelo.com&url=https://s41.mkklcdnv6temp.com/mangakakalot/m1/mayo_chiki/vol3_chapter_11_exciting_culture_festival/9.jpg",
    "https://img-proxy.imgfo.com/?referer=https://manganelo.com&url=https://s41.mkklcdnv6temp.com/mangakakalot/m1/mayo_chiki/vol3_chapter_11_exciting_culture_festival/10.jpg",
    "https://img-proxy.imgfo.com/?referer=https://manganelo.com&url=https://s41.mkklcdnv6temp.com/mangakakalot/m1/mayo_chiki/vol3_chapter_11_exciting_culture_festival/11.jpg",
    "https://img-proxy.imgfo.com/?referer=https://manganelo.com&url=https://s41.mkklcdnv6temp.com/mangakakalot/m1/mayo_chiki/vol3_chapter_11_exciting_culture_festival/12.jpg",
    "https://img-proxy.imgfo.com/?referer=https://manganelo.com&url=https://s41.mkklcdnv6temp.com/mangakakalot/m1/mayo_chiki/vol3_chapter_11_exciting_culture_festival/13.jpg",
    "https://img-proxy.imgfo.com/?referer=https://manganelo.com&url=https://s41.mkklcdnv6temp.com/mangakakalot/m1/mayo_chiki/vol3_chapter_11_exciting_culture_festival/14.jpg",
    "https://img-proxy.imgfo.com/?referer=https://manganelo.com&url=https://s41.mkklcdnv6temp.com/mangakakalot/m1/mayo_chiki/vol3_chapter_11_exciting_culture_festival/15.jpg",
    "https://img-proxy.imgfo.com/?referer=https://manganelo.com&url=https://s41.mkklcdnv6temp.com/mangakakalot/m1/mayo_chiki/vol3_chapter_11_exciting_culture_festival/16.jpg",
    "https://img-proxy.imgfo.com/?referer=https://manganelo.com&url=https://s41.mkklcdnv6temp.com/mangakakalot/m1/mayo_chiki/vol3_chapter_11_exciting_culture_festival/17.jpg",
    "https://img-proxy.imgfo.com/?referer=https://manganelo.com&url=https://s41.mkklcdnv6temp.com/mangakakalot/m1/mayo_chiki/vol3_chapter_11_exciting_culture_festival/18.jpg",
    "https://img-proxy.imgfo.com/?referer=https://manganelo.com&url=https://s41.mkklcdnv6temp.com/mangakakalot/m1/mayo_chiki/vol3_chapter_11_exciting_culture_festival/19.jpg",
    "https://img-proxy.imgfo.com/?referer=https://manganelo.com&url=https://s41.mkklcdnv6temp.com/mangakakalot/m1/mayo_chiki/vol3_chapter_11_exciting_culture_festival/20.jpg",
    "https://img-proxy.imgfo.com/?referer=https://manganelo.com&url=https://s41.mkklcdnv6temp.com/mangakakalot/m1/mayo_chiki/vol3_chapter_11_exciting_culture_festival/21.jpg",
    "https://img-proxy.imgfo.com/?referer=https://manganelo.com&url=https://s41.mkklcdnv6temp.com/mangakakalot/m1/mayo_chiki/vol3_chapter_11_exciting_culture_festival/22.jpg",
    "https://img-proxy.imgfo.com/?referer=https://manganelo.com&url=https://s41.mkklcdnv6temp.com/mangakakalot/m1/mayo_chiki/vol3_chapter_11_exciting_culture_festival/23.jpg",
    "https://img-proxy.imgfo.com/?referer=https://manganelo.com&url=https://s41.mkklcdnv6temp.com/mangakakalot/m1/mayo_chiki/vol3_chapter_11_exciting_culture_festival/24.jpg",
    "https://img-proxy.imgfo.com/?referer=https://manganelo.com&url=https://s41.mkklcdnv6temp.com/mangakakalot/m1/mayo_chiki/vol3_chapter_11_exciting_culture_festival/25.jpg",
    "https://img-proxy.imgfo.com/?referer=https://manganelo.com&url=https://s41.mkklcdnv6temp.com/mangakakalot/m1/mayo_chiki/vol3_chapter_11_exciting_culture_festival/26.jpg",
    "https://img-proxy.imgfo.com/?referer=https://manganelo.com&url=https://s41.mkklcdnv6temp.com/mangakakalot/m1/mayo_chiki/vol3_chapter_11_exciting_culture_festival/27.jpg",
    "https://img-proxy.imgfo.com/?referer=https://manganelo.com&url=https://s41.mkklcdnv6temp.com/mangakakalot/m1/mayo_chiki/vol3_chapter_11_exciting_culture_festival/28.jpg",
    "https://img-proxy.imgfo.com/?referer=https://manganelo.com&url=https://s41.mkklcdnv6temp.com/mangakakalot/m1/mayo_chiki/vol3_chapter_11_exciting_culture_festival/29.jpg",
    "https://img-proxy.imgfo.com/?referer=https://manganelo.com&url=https://s41.mkklcdnv6temp.com/mangakakalot/m1/mayo_chiki/vol3_chapter_11_exciting_culture_festival/30.jpg",
    "https://img-proxy.imgfo.com/?referer=https://manganelo.com&url=https://s41.mkklcdnv6temp.com/mangakakalot/m1/mayo_chiki/vol3_chapter_11_exciting_culture_festival/31.jpg",
    "https://img-proxy.imgfo.com/?referer=https://manganelo.com&url=https://s41.mkklcdnv6temp.com/mangakakalot/m1/mayo_chiki/vol3_chapter_11_exciting_culture_festival/32.jpg",
    "https://img-proxy.imgfo.com/?referer=https://manganelo.com&url=https://s41.mkklcdnv6temp.com/mangakakalot/m1/mayo_chiki/vol3_chapter_11_exciting_culture_festival/33.jpg",
    "https://img-proxy.imgfo.com/?referer=https://manganelo.com&url=https://s41.mkklcdnv6temp.com/mangakakalot/m1/mayo_chiki/vol3_chapter_11_exciting_culture_festival/34.jpg"
  ]
}