{
  "cover": "https://avt.mkklcdnv6.com/43/w/10-1583483750.jpg",
  "title": "Koudelka",
  "original": "クーデルカ",
  "genre": "Adventure, Historical, Shounen, Supernatural, Manga",
  "author": "Iwahara Yuji",
  "status": "Completed",
  "backlink": "https://manganu.com/collections/iwahara-yuji/koudelka/",
  "description": "This manga is something of a side story to the Playstation game of the same name, though you don't have to have played the game to understand it. London, 1899: A girl with special powers runs away from the sanatorium, a hospital where she'd been kept. Her name is Koudelka, but that's all she remembers about herself. She meets up with a boy called Joshua, and together they flee from the agents of the sanatorium, who seem to be obsessed with her. Will Koudelka be able to escape from her pursuers, regain her memories, and discover the mystery that is her own power?",
  "language": "English",
  "images": [
    "https://img-proxy.imgfo.com/?referer=https://manganelo.com&url=https://s3.mkklcdnv6temp.com/mangakakalot/k2/koudelka/vol2_chapter_7/1.jpg",
    "https://img-proxy.imgfo.com/?referer=https://manganelo.com&url=https://s3.mkklcdnv6temp.com/mangakakalot/k2/koudelka/vol2_chapter_7/2.jpg",
    "https://img-proxy.imgfo.com/?referer=https://manganelo.com&url=https://s3.mkklcdnv6temp.com/mangakakalot/k2/koudelka/vol2_chapter_7/3.jpg",
    "https://img-proxy.imgfo.com/?referer=https://manganelo.com&url=https://s3.mkklcdnv6temp.com/mangakakalot/k2/koudelka/vol2_chapter_7/4.jpg",
    "https://img-proxy.imgfo.com/?referer=https://manganelo.com&url=https://s3.mkklcdnv6temp.com/mangakakalot/k2/koudelka/vol2_chapter_7/5.jpg",
    "https://img-proxy.imgfo.com/?referer=https://manganelo.com&url=https://s3.mkklcdnv6temp.com/mangakakalot/k2/koudelka/vol2_chapter_7/6.jpg",
    "https://img-proxy.imgfo.com/?referer=https://manganelo.com&url=https://s3.mkklcdnv6temp.com/mangakakalot/k2/koudelka/vol2_chapter_7/7.jpg",
    "https://img-proxy.imgfo.com/?referer=https://manganelo.com&url=https://s3.mkklcdnv6temp.com/mangakakalot/k2/koudelka/vol2_chapter_7/8.jpg",
    "https://img-proxy.imgfo.com/?referer=https://manganelo.com&url=https://s3.mkklcdnv6temp.com/mangakakalot/k2/koudelka/vol2_chapter_7/9.jpg",
    "https://img-proxy.imgfo.com/?referer=https://manganelo.com&url=https://s3.mkklcdnv6temp.com/mangakakalot/k2/koudelka/vol2_chapter_7/10.jpg",
    "https://img-proxy.imgfo.com/?referer=https://manganelo.com&url=https://s3.mkklcdnv6temp.com/mangakakalot/k2/koudelka/vol2_chapter_7/11.jpg",
    "https://img-proxy.imgfo.com/?referer=https://manganelo.com&url=https://s3.mkklcdnv6temp.com/mangakakalot/k2/koudelka/vol2_chapter_7/12.jpg",
    "https://img-proxy.imgfo.com/?referer=https://manganelo.com&url=https://s3.mkklcdnv6temp.com/mangakakalot/k2/koudelka/vol2_chapter_7/13.jpg",
    "https://img-proxy.imgfo.com/?referer=https://manganelo.com&url=https://s3.mkklcdnv6temp.com/mangakakalot/k2/koudelka/vol2_chapter_7/14.jpg",
    "https://img-proxy.imgfo.com/?referer=https://manganelo.com&url=https://s3.mkklcdnv6temp.com/mangakakalot/k2/koudelka/vol2_chapter_7/15.jpg",
    "https://img-proxy.imgfo.com/?referer=https://manganelo.com&url=https://s3.mkklcdnv6temp.com/mangakakalot/k2/koudelka/vol2_chapter_7/16.jpg",
    "https://img-proxy.imgfo.com/?referer=https://manganelo.com&url=https://s3.mkklcdnv6temp.com/mangakakalot/k2/koudelka/vol2_chapter_7/17.jpg",
    "https://img-proxy.imgfo.com/?referer=https://manganelo.com&url=https://s3.mkklcdnv6temp.com/mangakakalot/k2/koudelka/vol2_chapter_7/18.jpg",
    "https://img-proxy.imgfo.com/?referer=https://manganelo.com&url=https://s3.mkklcdnv6temp.com/mangakakalot/k2/koudelka/vol2_chapter_7/19.jpg",
    "https://img-proxy.imgfo.com/?referer=https://manganelo.com&url=https://s3.mkklcdnv6temp.com/mangakakalot/k2/koudelka/vol2_chapter_7/20.jpg",
    "https://img-proxy.imgfo.com/?referer=https://manganelo.com&url=https://s3.mkklcdnv6temp.com/mangakakalot/k2/koudelka/vol2_chapter_7/21.jpg",
    "https://img-proxy.imgfo.com/?referer=https://manganelo.com&url=https://s3.mkklcdnv6temp.com/mangakakalot/k2/koudelka/vol2_chapter_7/22.jpg",
    "https://img-proxy.imgfo.com/?referer=https://manganelo.com&url=https://s3.mkklcdnv6temp.com/mangakakalot/k2/koudelka/vol2_chapter_7/23.jpg",
    "https://img-proxy.imgfo.com/?referer=https://manganelo.com&url=https://s3.mkklcdnv6temp.com/mangakakalot/k2/koudelka/vol2_chapter_7/24.jpg",
    "https://img-proxy.imgfo.com/?referer=https://manganelo.com&url=https://s3.mkklcdnv6temp.com/mangakakalot/k2/koudelka/vol2_chapter_7/25.jpg",
    "https://img-proxy.imgfo.com/?referer=https://manganelo.com&url=https://s3.mkklcdnv6temp.com/mangakakalot/k2/koudelka/vol2_chapter_7/26.jpg",
    "https://img-proxy.imgfo.com/?referer=https://manganelo.com&url=https://s3.mkklcdnv6temp.com/mangakakalot/k2/koudelka/vol2_chapter_7/27.jpg",
    "https://img-proxy.imgfo.com/?referer=https://manganelo.com&url=https://s3.mkklcdnv6temp.com/mangakakalot/k2/koudelka/vol2_chapter_7/28.jpg",
    "https://img-proxy.imgfo.com/?referer=https://manganelo.com&url=https://s3.mkklcdnv6temp.com/mangakakalot/k2/koudelka/vol2_chapter_7/29.jpg",
    "https://img-proxy.imgfo.com/?referer=https://manganelo.com&url=https://s3.mkklcdnv6temp.com/mangakakalot/k2/koudelka/vol2_chapter_7/30.jpg",
    "https://img-proxy.imgfo.com/?referer=https://manganelo.com&url=https://s3.mkklcdnv6temp.com/mangakakalot/k2/koudelka/vol2_chapter_7/31.jpg",
    "https://img-proxy.imgfo.com/?referer=https://manganelo.com&url=https://s3.mkklcdnv6temp.com/mangakakalot/k2/koudelka/vol2_chapter_7/32.jpg",
    "https://img-proxy.imgfo.com/?referer=https://manganelo.com&url=https://s3.mkklcdnv6temp.com/mangakakalot/k2/koudelka/vol2_chapter_7/33.jpg"
  ]
}