{
  "cover": "https://avt.mkklcdnv6.com/9/v/6-1583474504.jpg",
  "title": "Death Note",
  "original": "デスノート (Japanese) ; 死亡筆記 (Chinese-Traditional) ; 死亡笔记 (Chinese-Simplified) ; 데스노트 (Korean) ;Death Note Manga ; quyển sổ thiên mệnh (Vietnamese) ; Зошит смерті (Ukranian) ; Тетрадь смерти (Russian)",
  "genre": "Action, Adult, Adventure, Comedy, Doujinshi, Drama, Fantasy, Horror, Mystery, Psychological, Shounen, Supernatural, Tragedy, Manga",
  "author": "Ohba Tsugumi",
  "status": "Completed",
  "backlink": "https://manganu.com/collections/ohba-tsugumi/death-note/",
  "description": "Death Note Manga is a Japanese manga series written by Tsugumi Ohba and illustrated by Takeshi Obata. The storyline follows a high school student who falls upon a supernatural laptop from a shinigami named Ryuk that allows its user the power to kill anyone whose name and face he understands, Light Yagami. The series centres around Light&#39;s subsequent attempts to make and rule a world &quot;cleansed of evil&quot; as a &quot;God&quot; using this located laptop, as well as the efforts of a detective called L to stop him. Light Yagami is a blase young prodigy who resents all things bad. His life experiences a radical change when he falls upon the &quot;Death Note&quot;, a laptop that kills anyone whose name is written inside. After testing with all the laptop, its credibility is confirmed by Light and is joined through an unexpected house guest - the previous owner of the laptop, a shinigami called Ryuk. Light tells Ryuk of his plan to exterminate all of the individuals he considers unfair and wrong in the planet, until only individuals whom he&#39;s deemed truthful and type stay. Once he ends creating this utopia, he means to rule over it as the self proclaimed &quot;God of the new world&quot;.\n\n\nMain character in Death Note manga\n\nShortly, the inexplicable deaths of offenders get the eye of Interpol as well as the world-renowned detective, &quot;L&quot;. L stages a fake public appearance and immediately deduces the serial killer, openly called &quot;Kira&quot; (based on the Japanese pronunciation of the word &quot;killer&quot;), is situated in the Kanto area and will kill people without direct contact. Lighting starts a cat and mouse game with him, and recognizes that L will be his biggest hindrance, in the efforts of stopping his life and learning his identity.\n\nBy helping his task force and L track down Kira light efforts to produce an alibi. His strategy is impeded well-known model Misa Amane by a lovestruck second Kira, and her shinigami Rem. Misa trails him to his house, where he consents to be her boyfriend in exchange for her obedience and conformity and identifies Light as the primary Kira. Nevertheless, Misa&#39;s infatuation with Light shortly drives her to make several errors that are tactical and L begins to discover the two increasingly more funny from the second. Misa interrogated and is soon arrested and Light turns himself in voluntarily shortly after. They both subsequently relinquish ownership of the Death Notes, erasing their memories of everything they did involved using the publication.\n\n\nDeath Note Manga",
  "language": "English",
  "images": [
    "https://img-proxy.imgfo.com/?referer=https://manganelo.com&url=https://s5.mkklcdnv6temp.com/mangakakalot/r1/read_death_note_manga_online/vol4_chapter_29/1.jpg",
    "https://img-proxy.imgfo.com/?referer=https://manganelo.com&url=https://s5.mkklcdnv6temp.com/mangakakalot/r1/read_death_note_manga_online/vol4_chapter_29/2.jpg",
    "https://img-proxy.imgfo.com/?referer=https://manganelo.com&url=https://s5.mkklcdnv6temp.com/mangakakalot/r1/read_death_note_manga_online/vol4_chapter_29/3.jpg",
    "https://img-proxy.imgfo.com/?referer=https://manganelo.com&url=https://s5.mkklcdnv6temp.com/mangakakalot/r1/read_death_note_manga_online/vol4_chapter_29/4.jpg",
    "https://img-proxy.imgfo.com/?referer=https://manganelo.com&url=https://s5.mkklcdnv6temp.com/mangakakalot/r1/read_death_note_manga_online/vol4_chapter_29/5.jpg",
    "https://img-proxy.imgfo.com/?referer=https://manganelo.com&url=https://s5.mkklcdnv6temp.com/mangakakalot/r1/read_death_note_manga_online/vol4_chapter_29/6.jpg",
    "https://img-proxy.imgfo.com/?referer=https://manganelo.com&url=https://s5.mkklcdnv6temp.com/mangakakalot/r1/read_death_note_manga_online/vol4_chapter_29/7.jpg",
    "https://img-proxy.imgfo.com/?referer=https://manganelo.com&url=https://s5.mkklcdnv6temp.com/mangakakalot/r1/read_death_note_manga_online/vol4_chapter_29/8.jpg",
    "https://img-proxy.imgfo.com/?referer=https://manganelo.com&url=https://s5.mkklcdnv6temp.com/mangakakalot/r1/read_death_note_manga_online/vol4_chapter_29/9.jpg",
    "https://img-proxy.imgfo.com/?referer=https://manganelo.com&url=https://s5.mkklcdnv6temp.com/mangakakalot/r1/read_death_note_manga_online/vol4_chapter_29/10.jpg",
    "https://img-proxy.imgfo.com/?referer=https://manganelo.com&url=https://s5.mkklcdnv6temp.com/mangakakalot/r1/read_death_note_manga_online/vol4_chapter_29/11.jpg",
    "https://img-proxy.imgfo.com/?referer=https://manganelo.com&url=https://s5.mkklcdnv6temp.com/mangakakalot/r1/read_death_note_manga_online/vol4_chapter_29/12.jpg",
    "https://img-proxy.imgfo.com/?referer=https://manganelo.com&url=https://s5.mkklcdnv6temp.com/mangakakalot/r1/read_death_note_manga_online/vol4_chapter_29/13.jpg",
    "https://img-proxy.imgfo.com/?referer=https://manganelo.com&url=https://s5.mkklcdnv6temp.com/mangakakalot/r1/read_death_note_manga_online/vol4_chapter_29/14.jpg",
    "https://img-proxy.imgfo.com/?referer=https://manganelo.com&url=https://s5.mkklcdnv6temp.com/mangakakalot/r1/read_death_note_manga_online/vol4_chapter_29/15.jpg",
    "https://img-proxy.imgfo.com/?referer=https://manganelo.com&url=https://s5.mkklcdnv6temp.com/mangakakalot/r1/read_death_note_manga_online/vol4_chapter_29/16.jpg",
    "https://img-proxy.imgfo.com/?referer=https://manganelo.com&url=https://s5.mkklcdnv6temp.com/mangakakalot/r1/read_death_note_manga_online/vol4_chapter_29/17.jpg",
    "https://img-proxy.imgfo.com/?referer=https://manganelo.com&url=https://s5.mkklcdnv6temp.com/mangakakalot/r1/read_death_note_manga_online/vol4_chapter_29/18.jpg",
    "https://img-proxy.imgfo.com/?referer=https://manganelo.com&url=https://s5.mkklcdnv6temp.com/mangakakalot/r1/read_death_note_manga_online/vol4_chapter_29/19.jpg",
    "https://img-proxy.imgfo.com/?referer=https://manganelo.com&url=https://s5.mkklcdnv6temp.com/mangakakalot/r1/read_death_note_manga_online/vol4_chapter_29/20.jpg",
    "https://img-proxy.imgfo.com/?referer=https://manganelo.com&url=https://s5.mkklcdnv6temp.com/mangakakalot/r1/read_death_note_manga_online/vol4_chapter_29/21.jpg",
    "https://img-proxy.imgfo.com/?referer=https://manganelo.com&url=https://s5.mkklcdnv6temp.com/mangakakalot/r1/read_death_note_manga_online/vol4_chapter_29/22.jpg",
    "https://img-proxy.imgfo.com/?referer=https://manganelo.com&url=https://s5.mkklcdnv6temp.com/mangakakalot/r1/read_death_note_manga_online/vol4_chapter_29/23.jpg"
  ]
}