{
  "cover": "https://avt.mkklcdnv6.com/50/j/9-1583482188.jpg",
  "title": "Haruyuki Bus",
  "original": "春浪漫巴士 ; 春行きバス ; A Bus Bound for Spring ; Bus for Spring ; Haru Yuki Bus ; Un bus passe (French) ; Bus du Printemps (French) ; Romantis Bas Musim Bunga (Malay)",
  "genre": "Drama, Romance, School life, Shoujo, Manga",
  "author": "Usami Maki",
  "status": "Completed",
  "backlink": "https://manganu.com/collections/usami-maki/haruyuki-bus/",
  "description": "From Lovers-Dream:\nA boy riding on a bicycle is always observed from the bus at the same time of the day and the same place. One day, a girl happens to meet his gaze. Her eyes met his. Though it is a usual bus running everywhere, it is always carrying different feelings of passengers, such as painful love or one-sided love.\nnote* this is a series of oneshots",
  "language": "English",
  "images": [
    "https://img-proxy.imgfo.com/?referer=https://manganelo.com&url=https://s6.mkklcdnv6temp.com/mangakakalot/h1/haruyuki_bus/vol3_chapter_10_lovecoloured_intersection_point/1.jpg",
    "https://img-proxy.imgfo.com/?referer=https://manganelo.com&url=https://s6.mkklcdnv6temp.com/mangakakalot/h1/haruyuki_bus/vol3_chapter_10_lovecoloured_intersection_point/2.jpg",
    "https://img-proxy.imgfo.com/?referer=https://manganelo.com&url=https://s6.mkklcdnv6temp.com/mangakakalot/h1/haruyuki_bus/vol3_chapter_10_lovecoloured_intersection_point/3.jpg",
    "https://img-proxy.imgfo.com/?referer=https://manganelo.com&url=https://s6.mkklcdnv6temp.com/mangakakalot/h1/haruyuki_bus/vol3_chapter_10_lovecoloured_intersection_point/4.jpg",
    "https://img-proxy.imgfo.com/?referer=https://manganelo.com&url=https://s6.mkklcdnv6temp.com/mangakakalot/h1/haruyuki_bus/vol3_chapter_10_lovecoloured_intersection_point/5.jpg",
    "https://img-proxy.imgfo.com/?referer=https://manganelo.com&url=https://s6.mkklcdnv6temp.com/mangakakalot/h1/haruyuki_bus/vol3_chapter_10_lovecoloured_intersection_point/6.jpg",
    "https://img-proxy.imgfo.com/?referer=https://manganelo.com&url=https://s6.mkklcdnv6temp.com/mangakakalot/h1/haruyuki_bus/vol3_chapter_10_lovecoloured_intersection_point/7.jpg",
    "https://img-proxy.imgfo.com/?referer=https://manganelo.com&url=https://s6.mkklcdnv6temp.com/mangakakalot/h1/haruyuki_bus/vol3_chapter_10_lovecoloured_intersection_point/8.jpg",
    "https://img-proxy.imgfo.com/?referer=https://manganelo.com&url=https://s6.mkklcdnv6temp.com/mangakakalot/h1/haruyuki_bus/vol3_chapter_10_lovecoloured_intersection_point/9.jpg",
    "https://img-proxy.imgfo.com/?referer=https://manganelo.com&url=https://s6.mkklcdnv6temp.com/mangakakalot/h1/haruyuki_bus/vol3_chapter_10_lovecoloured_intersection_point/10.jpg",
    "https://img-proxy.imgfo.com/?referer=https://manganelo.com&url=https://s6.mkklcdnv6temp.com/mangakakalot/h1/haruyuki_bus/vol3_chapter_10_lovecoloured_intersection_point/11.jpg",
    "https://img-proxy.imgfo.com/?referer=https://manganelo.com&url=https://s6.mkklcdnv6temp.com/mangakakalot/h1/haruyuki_bus/vol3_chapter_10_lovecoloured_intersection_point/12.jpg",
    "https://img-proxy.imgfo.com/?referer=https://manganelo.com&url=https://s6.mkklcdnv6temp.com/mangakakalot/h1/haruyuki_bus/vol3_chapter_10_lovecoloured_intersection_point/13.jpg",
    "https://img-proxy.imgfo.com/?referer=https://manganelo.com&url=https://s6.mkklcdnv6temp.com/mangakakalot/h1/haruyuki_bus/vol3_chapter_10_lovecoloured_intersection_point/14.jpg",
    "https://img-proxy.imgfo.com/?referer=https://manganelo.com&url=https://s6.mkklcdnv6temp.com/mangakakalot/h1/haruyuki_bus/vol3_chapter_10_lovecoloured_intersection_point/15.jpg",
    "https://img-proxy.imgfo.com/?referer=https://manganelo.com&url=https://s6.mkklcdnv6temp.com/mangakakalot/h1/haruyuki_bus/vol3_chapter_10_lovecoloured_intersection_point/16.jpg",
    "https://img-proxy.imgfo.com/?referer=https://manganelo.com&url=https://s6.mkklcdnv6temp.com/mangakakalot/h1/haruyuki_bus/vol3_chapter_10_lovecoloured_intersection_point/17.jpg",
    "https://img-proxy.imgfo.com/?referer=https://manganelo.com&url=https://s6.mkklcdnv6temp.com/mangakakalot/h1/haruyuki_bus/vol3_chapter_10_lovecoloured_intersection_point/18.jpg",
    "https://img-proxy.imgfo.com/?referer=https://manganelo.com&url=https://s6.mkklcdnv6temp.com/mangakakalot/h1/haruyuki_bus/vol3_chapter_10_lovecoloured_intersection_point/19.jpg",
    "https://img-proxy.imgfo.com/?referer=https://manganelo.com&url=https://s6.mkklcdnv6temp.com/mangakakalot/h1/haruyuki_bus/vol3_chapter_10_lovecoloured_intersection_point/20.jpg",
    "https://img-proxy.imgfo.com/?referer=https://manganelo.com&url=https://s6.mkklcdnv6temp.com/mangakakalot/h1/haruyuki_bus/vol3_chapter_10_lovecoloured_intersection_point/21.jpg",
    "https://img-proxy.imgfo.com/?referer=https://manganelo.com&url=https://s6.mkklcdnv6temp.com/mangakakalot/h1/haruyuki_bus/vol3_chapter_10_lovecoloured_intersection_point/22.jpg",
    "https://img-proxy.imgfo.com/?referer=https://manganelo.com&url=https://s6.mkklcdnv6temp.com/mangakakalot/h1/haruyuki_bus/vol3_chapter_10_lovecoloured_intersection_point/23.jpg",
    "https://img-proxy.imgfo.com/?referer=https://manganelo.com&url=https://s6.mkklcdnv6temp.com/mangakakalot/h1/haruyuki_bus/vol3_chapter_10_lovecoloured_intersection_point/24.jpg",
    "https://img-proxy.imgfo.com/?referer=https://manganelo.com&url=https://s6.mkklcdnv6temp.com/mangakakalot/h1/haruyuki_bus/vol3_chapter_10_lovecoloured_intersection_point/25.jpg",
    "https://img-proxy.imgfo.com/?referer=https://manganelo.com&url=https://s6.mkklcdnv6temp.com/mangakakalot/h1/haruyuki_bus/vol3_chapter_10_lovecoloured_intersection_point/26.jpg",
    "https://img-proxy.imgfo.com/?referer=https://manganelo.com&url=https://s6.mkklcdnv6temp.com/mangakakalot/h1/haruyuki_bus/vol3_chapter_10_lovecoloured_intersection_point/27.jpg",
    "https://img-proxy.imgfo.com/?referer=https://manganelo.com&url=https://s6.mkklcdnv6temp.com/mangakakalot/h1/haruyuki_bus/vol3_chapter_10_lovecoloured_intersection_point/28.jpg",
    "https://img-proxy.imgfo.com/?referer=https://manganelo.com&url=https://s6.mkklcdnv6temp.com/mangakakalot/h1/haruyuki_bus/vol3_chapter_10_lovecoloured_intersection_point/29.jpg",
    "https://img-proxy.imgfo.com/?referer=https://manganelo.com&url=https://s6.mkklcdnv6temp.com/mangakakalot/h1/haruyuki_bus/vol3_chapter_10_lovecoloured_intersection_point/30.jpg",
    "https://img-proxy.imgfo.com/?referer=https://manganelo.com&url=https://s6.mkklcdnv6temp.com/mangakakalot/h1/haruyuki_bus/vol3_chapter_10_lovecoloured_intersection_point/31.jpg",
    "https://img-proxy.imgfo.com/?referer=https://manganelo.com&url=https://s6.mkklcdnv6temp.com/mangakakalot/h1/haruyuki_bus/vol3_chapter_10_lovecoloured_intersection_point/32.jpg",
    "https://img-proxy.imgfo.com/?referer=https://manganelo.com&url=https://s6.mkklcdnv6temp.com/mangakakalot/h1/haruyuki_bus/vol3_chapter_10_lovecoloured_intersection_point/33.jpg",
    "https://img-proxy.imgfo.com/?referer=https://manganelo.com&url=https://s6.mkklcdnv6temp.com/mangakakalot/h1/haruyuki_bus/vol3_chapter_10_lovecoloured_intersection_point/34.jpg",
    "https://img-proxy.imgfo.com/?referer=https://manganelo.com&url=https://s6.mkklcdnv6temp.com/mangakakalot/h1/haruyuki_bus/vol3_chapter_10_lovecoloured_intersection_point/35.jpg",
    "https://img-proxy.imgfo.com/?referer=https://manganelo.com&url=https://s6.mkklcdnv6temp.com/mangakakalot/h1/haruyuki_bus/vol3_chapter_10_lovecoloured_intersection_point/36.jpg",
    "https://img-proxy.imgfo.com/?referer=https://manganelo.com&url=https://s6.mkklcdnv6temp.com/mangakakalot/h1/haruyuki_bus/vol3_chapter_10_lovecoloured_intersection_point/37.jpg",
    "https://img-proxy.imgfo.com/?referer=https://manganelo.com&url=https://s6.mkklcdnv6temp.com/mangakakalot/h1/haruyuki_bus/vol3_chapter_10_lovecoloured_intersection_point/38.jpg",
    "https://img-proxy.imgfo.com/?referer=https://manganelo.com&url=https://s6.mkklcdnv6temp.com/mangakakalot/h1/haruyuki_bus/vol3_chapter_10_lovecoloured_intersection_point/39.jpg",
    "https://img-proxy.imgfo.com/?referer=https://manganelo.com&url=https://s6.mkklcdnv6temp.com/mangakakalot/h1/haruyuki_bus/vol3_chapter_10_lovecoloured_intersection_point/40.jpg",
    "https://img-proxy.imgfo.com/?referer=https://manganelo.com&url=https://s6.mkklcdnv6temp.com/mangakakalot/h1/haruyuki_bus/vol3_chapter_10_lovecoloured_intersection_point/41.jpg",
    "https://img-proxy.imgfo.com/?referer=https://manganelo.com&url=https://s6.mkklcdnv6temp.com/mangakakalot/h1/haruyuki_bus/vol3_chapter_10_lovecoloured_intersection_point/42.jpg",
    "https://img-proxy.imgfo.com/?referer=https://manganelo.com&url=https://s6.mkklcdnv6temp.com/mangakakalot/h1/haruyuki_bus/vol3_chapter_10_lovecoloured_intersection_point/43.jpg",
    "https://img-proxy.imgfo.com/?referer=https://manganelo.com&url=https://s6.mkklcdnv6temp.com/mangakakalot/h1/haruyuki_bus/vol3_chapter_10_lovecoloured_intersection_point/44.jpg",
    "https://img-proxy.imgfo.com/?referer=https://manganelo.com&url=https://s6.mkklcdnv6temp.com/mangakakalot/h1/haruyuki_bus/vol3_chapter_10_lovecoloured_intersection_point/45.jpg",
    "https://img-proxy.imgfo.com/?referer=https://manganelo.com&url=https://s6.mkklcdnv6temp.com/mangakakalot/h1/haruyuki_bus/vol3_chapter_10_lovecoloured_intersection_point/46.jpg",
    "https://img-proxy.imgfo.com/?referer=https://manganelo.com&url=https://s6.mkklcdnv6temp.com/mangakakalot/h1/haruyuki_bus/vol3_chapter_10_lovecoloured_intersection_point/47.jpg",
    "https://img-proxy.imgfo.com/?referer=https://manganelo.com&url=https://s6.mkklcdnv6temp.com/mangakakalot/h1/haruyuki_bus/vol3_chapter_10_lovecoloured_intersection_point/48.jpg",
    "https://img-proxy.imgfo.com/?referer=https://manganelo.com&url=https://s6.mkklcdnv6temp.com/mangakakalot/h1/haruyuki_bus/vol3_chapter_10_lovecoloured_intersection_point/49.jpg",
    "https://img-proxy.imgfo.com/?referer=https://manganelo.com&url=https://s6.mkklcdnv6temp.com/mangakakalot/h1/haruyuki_bus/vol3_chapter_10_lovecoloured_intersection_point/50.jpg",
    "https://img-proxy.imgfo.com/?referer=https://manganelo.com&url=https://s6.mkklcdnv6temp.com/mangakakalot/h1/haruyuki_bus/vol3_chapter_10_lovecoloured_intersection_point/51.jpg",
    "https://img-proxy.imgfo.com/?referer=https://manganelo.com&url=https://s6.mkklcdnv6temp.com/mangakakalot/h1/haruyuki_bus/vol3_chapter_10_lovecoloured_intersection_point/52.jpg",
    "https://img-proxy.imgfo.com/?referer=https://manganelo.com&url=https://s6.mkklcdnv6temp.com/mangakakalot/h1/haruyuki_bus/vol3_chapter_10_lovecoloured_intersection_point/53.jpg"
  ]
}