{
  "cover": "https://avt.mkklcdnv6.com/42/r/15-1583493195.jpg",
  "title": "Kaiyuu No Mori",
  "original": "Прогулки по лесу ; 回游の森 ; 洄游之森 ; Journeys through the Forest ; Migrations through the Forest ; Paseos por el Bosque (Spanish) ; The Migratory Forest - A Collection of Walks ; Walks in the Forest",
  "genre": "Drama, Mature, Psychological, Romance, Seinen, Slice of life, Manga",
  "author": "Haibara Yaku",
  "status": "Completed",
  "backlink": "https://manganu.com/collections/haibara-yaku/kaiyuu-no-mori/",
  "description": "Low instincts, guilt, sin and fascination for the forbidden meet inside this forest full of harsh and fascinating tales. Because, after all, all human beings have secrets. Some hide feelings condemned by society and other hide the darkest and most shocking secrets...",
  "language": "English",
  "images": [
    "https://img-proxy.imgfo.com/?referer=https://manganelo.com&url=https://s7.mkklcdnv6temp.com/mangakakalot/k1/kaiyuu_no_mori/vol1_chapter_2_a_grave_for_a_goldfish/1.jpg",
    "https://img-proxy.imgfo.com/?referer=https://manganelo.com&url=https://s7.mkklcdnv6temp.com/mangakakalot/k1/kaiyuu_no_mori/vol1_chapter_2_a_grave_for_a_goldfish/2.jpg",
    "https://img-proxy.imgfo.com/?referer=https://manganelo.com&url=https://s7.mkklcdnv6temp.com/mangakakalot/k1/kaiyuu_no_mori/vol1_chapter_2_a_grave_for_a_goldfish/3.jpg",
    "https://img-proxy.imgfo.com/?referer=https://manganelo.com&url=https://s7.mkklcdnv6temp.com/mangakakalot/k1/kaiyuu_no_mori/vol1_chapter_2_a_grave_for_a_goldfish/4.jpg",
    "https://img-proxy.imgfo.com/?referer=https://manganelo.com&url=https://s7.mkklcdnv6temp.com/mangakakalot/k1/kaiyuu_no_mori/vol1_chapter_2_a_grave_for_a_goldfish/5.jpg",
    "https://img-proxy.imgfo.com/?referer=https://manganelo.com&url=https://s7.mkklcdnv6temp.com/mangakakalot/k1/kaiyuu_no_mori/vol1_chapter_2_a_grave_for_a_goldfish/6.jpg",
    "https://img-proxy.imgfo.com/?referer=https://manganelo.com&url=https://s7.mkklcdnv6temp.com/mangakakalot/k1/kaiyuu_no_mori/vol1_chapter_2_a_grave_for_a_goldfish/7.jpg",
    "https://img-proxy.imgfo.com/?referer=https://manganelo.com&url=https://s7.mkklcdnv6temp.com/mangakakalot/k1/kaiyuu_no_mori/vol1_chapter_2_a_grave_for_a_goldfish/8.jpg",
    "https://img-proxy.imgfo.com/?referer=https://manganelo.com&url=https://s7.mkklcdnv6temp.com/mangakakalot/k1/kaiyuu_no_mori/vol1_chapter_2_a_grave_for_a_goldfish/9.jpg",
    "https://img-proxy.imgfo.com/?referer=https://manganelo.com&url=https://s7.mkklcdnv6temp.com/mangakakalot/k1/kaiyuu_no_mori/vol1_chapter_2_a_grave_for_a_goldfish/10.jpg",
    "https://img-proxy.imgfo.com/?referer=https://manganelo.com&url=https://s7.mkklcdnv6temp.com/mangakakalot/k1/kaiyuu_no_mori/vol1_chapter_2_a_grave_for_a_goldfish/11.jpg",
    "https://img-proxy.imgfo.com/?referer=https://manganelo.com&url=https://s7.mkklcdnv6temp.com/mangakakalot/k1/kaiyuu_no_mori/vol1_chapter_2_a_grave_for_a_goldfish/12.jpg",
    "https://img-proxy.imgfo.com/?referer=https://manganelo.com&url=https://s7.mkklcdnv6temp.com/mangakakalot/k1/kaiyuu_no_mori/vol1_chapter_2_a_grave_for_a_goldfish/13.jpg",
    "https://img-proxy.imgfo.com/?referer=https://manganelo.com&url=https://s7.mkklcdnv6temp.com/mangakakalot/k1/kaiyuu_no_mori/vol1_chapter_2_a_grave_for_a_goldfish/14.jpg",
    "https://img-proxy.imgfo.com/?referer=https://manganelo.com&url=https://s7.mkklcdnv6temp.com/mangakakalot/k1/kaiyuu_no_mori/vol1_chapter_2_a_grave_for_a_goldfish/15.jpg",
    "https://img-proxy.imgfo.com/?referer=https://manganelo.com&url=https://s7.mkklcdnv6temp.com/mangakakalot/k1/kaiyuu_no_mori/vol1_chapter_2_a_grave_for_a_goldfish/16.jpg",
    "https://img-proxy.imgfo.com/?referer=https://manganelo.com&url=https://s7.mkklcdnv6temp.com/mangakakalot/k1/kaiyuu_no_mori/vol1_chapter_2_a_grave_for_a_goldfish/17.jpg",
    "https://img-proxy.imgfo.com/?referer=https://manganelo.com&url=https://s7.mkklcdnv6temp.com/mangakakalot/k1/kaiyuu_no_mori/vol1_chapter_2_a_grave_for_a_goldfish/18.jpg",
    "https://img-proxy.imgfo.com/?referer=https://manganelo.com&url=https://s7.mkklcdnv6temp.com/mangakakalot/k1/kaiyuu_no_mori/vol1_chapter_2_a_grave_for_a_goldfish/19.jpg",
    "https://img-proxy.imgfo.com/?referer=https://manganelo.com&url=https://s7.mkklcdnv6temp.com/mangakakalot/k1/kaiyuu_no_mori/vol1_chapter_2_a_grave_for_a_goldfish/20.jpg",
    "https://img-proxy.imgfo.com/?referer=https://manganelo.com&url=https://s7.mkklcdnv6temp.com/mangakakalot/k1/kaiyuu_no_mori/vol1_chapter_2_a_grave_for_a_goldfish/21.jpg",
    "https://img-proxy.imgfo.com/?referer=https://manganelo.com&url=https://s7.mkklcdnv6temp.com/mangakakalot/k1/kaiyuu_no_mori/vol1_chapter_2_a_grave_for_a_goldfish/22.jpg",
    "https://img-proxy.imgfo.com/?referer=https://manganelo.com&url=https://s7.mkklcdnv6temp.com/mangakakalot/k1/kaiyuu_no_mori/vol1_chapter_2_a_grave_for_a_goldfish/23.jpg",
    "https://img-proxy.imgfo.com/?referer=https://manganelo.com&url=https://s7.mkklcdnv6temp.com/mangakakalot/k1/kaiyuu_no_mori/vol1_chapter_2_a_grave_for_a_goldfish/24.jpg",
    "https://img-proxy.imgfo.com/?referer=https://manganelo.com&url=https://s7.mkklcdnv6temp.com/mangakakalot/k1/kaiyuu_no_mori/vol1_chapter_2_a_grave_for_a_goldfish/25.jpg",
    "https://img-proxy.imgfo.com/?referer=https://manganelo.com&url=https://s7.mkklcdnv6temp.com/mangakakalot/k1/kaiyuu_no_mori/vol1_chapter_2_a_grave_for_a_goldfish/26.jpg",
    "https://img-proxy.imgfo.com/?referer=https://manganelo.com&url=https://s7.mkklcdnv6temp.com/mangakakalot/k1/kaiyuu_no_mori/vol1_chapter_2_a_grave_for_a_goldfish/27.jpg",
    "https://img-proxy.imgfo.com/?referer=https://manganelo.com&url=https://s7.mkklcdnv6temp.com/mangakakalot/k1/kaiyuu_no_mori/vol1_chapter_2_a_grave_for_a_goldfish/28.jpg",
    "https://img-proxy.imgfo.com/?referer=https://manganelo.com&url=https://s7.mkklcdnv6temp.com/mangakakalot/k1/kaiyuu_no_mori/vol1_chapter_2_a_grave_for_a_goldfish/29.jpg",
    "https://img-proxy.imgfo.com/?referer=https://manganelo.com&url=https://s7.mkklcdnv6temp.com/mangakakalot/k1/kaiyuu_no_mori/vol1_chapter_2_a_grave_for_a_goldfish/30.jpg"
  ]
}