{
  "cover": "https://avt.mkklcdnv6.com/16/x/5-1583472508.jpg",
  "title": "Hoop Men",
  "original": "フープメン ; 篮球救世主 ; Hoopmen",
  "genre": "Comedy, Romance, School life, Shounen, Sports, Manga",
  "author": "Kawaguchi Yukinori",
  "status": "Completed",
  "backlink": "https://manganu.com/collections/kawaguchi-yukinori/hoop-men/",
  "description": "Satou Yuuho gets called out by the cute basketball club manager, Koganei Mao. He thinks that it is a love confession, only to find out that it is only to help the basketball club...",
  "language": "English",
  "images": [
    "https://img-proxy.imgfo.com/?referer=https://manganelo.com&url=https://s41.mkklcdnv6temp.com/mangakakalot/h2/hoop_men/vol1_chapter_13_crush_him/1.jpg",
    "https://img-proxy.imgfo.com/?referer=https://manganelo.com&url=https://s41.mkklcdnv6temp.com/mangakakalot/h2/hoop_men/vol1_chapter_13_crush_him/2.jpg",
    "https://img-proxy.imgfo.com/?referer=https://manganelo.com&url=https://s41.mkklcdnv6temp.com/mangakakalot/h2/hoop_men/vol1_chapter_13_crush_him/3.jpg",
    "https://img-proxy.imgfo.com/?referer=https://manganelo.com&url=https://s41.mkklcdnv6temp.com/mangakakalot/h2/hoop_men/vol1_chapter_13_crush_him/4.jpg",
    "https://img-proxy.imgfo.com/?referer=https://manganelo.com&url=https://s41.mkklcdnv6temp.com/mangakakalot/h2/hoop_men/vol1_chapter_13_crush_him/5.jpg",
    "https://img-proxy.imgfo.com/?referer=https://manganelo.com&url=https://s41.mkklcdnv6temp.com/mangakakalot/h2/hoop_men/vol1_chapter_13_crush_him/6.jpg",
    "https://img-proxy.imgfo.com/?referer=https://manganelo.com&url=https://s41.mkklcdnv6temp.com/mangakakalot/h2/hoop_men/vol1_chapter_13_crush_him/7.jpg",
    "https://img-proxy.imgfo.com/?referer=https://manganelo.com&url=https://s41.mkklcdnv6temp.com/mangakakalot/h2/hoop_men/vol1_chapter_13_crush_him/8.jpg",
    "https://img-proxy.imgfo.com/?referer=https://manganelo.com&url=https://s41.mkklcdnv6temp.com/mangakakalot/h2/hoop_men/vol1_chapter_13_crush_him/9.jpg",
    "https://img-proxy.imgfo.com/?referer=https://manganelo.com&url=https://s41.mkklcdnv6temp.com/mangakakalot/h2/hoop_men/vol1_chapter_13_crush_him/10.jpg",
    "https://img-proxy.imgfo.com/?referer=https://manganelo.com&url=https://s41.mkklcdnv6temp.com/mangakakalot/h2/hoop_men/vol1_chapter_13_crush_him/11.jpg",
    "https://img-proxy.imgfo.com/?referer=https://manganelo.com&url=https://s41.mkklcdnv6temp.com/mangakakalot/h2/hoop_men/vol1_chapter_13_crush_him/12.jpg",
    "https://img-proxy.imgfo.com/?referer=https://manganelo.com&url=https://s41.mkklcdnv6temp.com/mangakakalot/h2/hoop_men/vol1_chapter_13_crush_him/13.jpg",
    "https://img-proxy.imgfo.com/?referer=https://manganelo.com&url=https://s41.mkklcdnv6temp.com/mangakakalot/h2/hoop_men/vol1_chapter_13_crush_him/14.jpg",
    "https://img-proxy.imgfo.com/?referer=https://manganelo.com&url=https://s41.mkklcdnv6temp.com/mangakakalot/h2/hoop_men/vol1_chapter_13_crush_him/15.jpg",
    "https://img-proxy.imgfo.com/?referer=https://manganelo.com&url=https://s41.mkklcdnv6temp.com/mangakakalot/h2/hoop_men/vol1_chapter_13_crush_him/16.jpg",
    "https://img-proxy.imgfo.com/?referer=https://manganelo.com&url=https://s41.mkklcdnv6temp.com/mangakakalot/h2/hoop_men/vol1_chapter_13_crush_him/17.jpg",
    "https://img-proxy.imgfo.com/?referer=https://manganelo.com&url=https://s41.mkklcdnv6temp.com/mangakakalot/h2/hoop_men/vol1_chapter_13_crush_him/18.jpg",
    "https://img-proxy.imgfo.com/?referer=https://manganelo.com&url=https://s41.mkklcdnv6temp.com/mangakakalot/h2/hoop_men/vol1_chapter_13_crush_him/19.jpg",
    "https://img-proxy.imgfo.com/?referer=https://manganelo.com&url=https://s41.mkklcdnv6temp.com/mangakakalot/h2/hoop_men/vol1_chapter_13_crush_him/20.jpg"
  ]
}