{
  "cover": "https://avt.mkklcdnv6.com/42/f/7-1583477873.jpg",
  "title": "Smash!",
  "original": "スマッシュ! ; 羽球小子",
  "genre": "Romance, School life, Shounen, Slice of life, Sports, Manga",
  "author": "Saki Kaori",
  "status": "Completed",
  "backlink": "https://manganu.com/collections/saki-kaori/smash/",
  "description": "From Bado-Scans:\nSmash! is about two childhood friends (Shouta and Miwa) who share a common love for Badminton. Miwa, who's in love with Shouta, tries to persuade Shouta to apply to the same badminton school as her but the latter being of a carefree, easy-going and dense nature, brushes her away and states that he only plays badminton for fun.\nHowever, Shouta's perspective of badminton quickly changes after a fateful encounter with Yuuhi (a mute girl). In his search for his badminton goddess Yuuhi, Shouta met Anan and thereafter, decides that he's going to pursue badminton more seriously...",
  "language": "English",
  "images": [
    "https://img-proxy.imgfo.com/?referer=https://manganelo.com&url=https://s41.mkklcdnv6temp.com/mangakakalot/s1/smash/vol7_chapter_63_give_your_best/1.jpg",
    "https://img-proxy.imgfo.com/?referer=https://manganelo.com&url=https://s41.mkklcdnv6temp.com/mangakakalot/s1/smash/vol7_chapter_63_give_your_best/2.jpg",
    "https://img-proxy.imgfo.com/?referer=https://manganelo.com&url=https://s41.mkklcdnv6temp.com/mangakakalot/s1/smash/vol7_chapter_63_give_your_best/3.jpg",
    "https://img-proxy.imgfo.com/?referer=https://manganelo.com&url=https://s41.mkklcdnv6temp.com/mangakakalot/s1/smash/vol7_chapter_63_give_your_best/4.jpg",
    "https://img-proxy.imgfo.com/?referer=https://manganelo.com&url=https://s41.mkklcdnv6temp.com/mangakakalot/s1/smash/vol7_chapter_63_give_your_best/5.jpg",
    "https://img-proxy.imgfo.com/?referer=https://manganelo.com&url=https://s41.mkklcdnv6temp.com/mangakakalot/s1/smash/vol7_chapter_63_give_your_best/6.jpg",
    "https://img-proxy.imgfo.com/?referer=https://manganelo.com&url=https://s41.mkklcdnv6temp.com/mangakakalot/s1/smash/vol7_chapter_63_give_your_best/7.jpg",
    "https://img-proxy.imgfo.com/?referer=https://manganelo.com&url=https://s41.mkklcdnv6temp.com/mangakakalot/s1/smash/vol7_chapter_63_give_your_best/8.jpg",
    "https://img-proxy.imgfo.com/?referer=https://manganelo.com&url=https://s41.mkklcdnv6temp.com/mangakakalot/s1/smash/vol7_chapter_63_give_your_best/9.jpg",
    "https://img-proxy.imgfo.com/?referer=https://manganelo.com&url=https://s41.mkklcdnv6temp.com/mangakakalot/s1/smash/vol7_chapter_63_give_your_best/10.jpg",
    "https://img-proxy.imgfo.com/?referer=https://manganelo.com&url=https://s41.mkklcdnv6temp.com/mangakakalot/s1/smash/vol7_chapter_63_give_your_best/11.jpg",
    "https://img-proxy.imgfo.com/?referer=https://manganelo.com&url=https://s41.mkklcdnv6temp.com/mangakakalot/s1/smash/vol7_chapter_63_give_your_best/12.jpg",
    "https://img-proxy.imgfo.com/?referer=https://manganelo.com&url=https://s41.mkklcdnv6temp.com/mangakakalot/s1/smash/vol7_chapter_63_give_your_best/13.jpg",
    "https://img-proxy.imgfo.com/?referer=https://manganelo.com&url=https://s41.mkklcdnv6temp.com/mangakakalot/s1/smash/vol7_chapter_63_give_your_best/14.jpg",
    "https://img-proxy.imgfo.com/?referer=https://manganelo.com&url=https://s41.mkklcdnv6temp.com/mangakakalot/s1/smash/vol7_chapter_63_give_your_best/15.jpg",
    "https://img-proxy.imgfo.com/?referer=https://manganelo.com&url=https://s41.mkklcdnv6temp.com/mangakakalot/s1/smash/vol7_chapter_63_give_your_best/16.jpg",
    "https://img-proxy.imgfo.com/?referer=https://manganelo.com&url=https://s41.mkklcdnv6temp.com/mangakakalot/s1/smash/vol7_chapter_63_give_your_best/17.jpg",
    "https://img-proxy.imgfo.com/?referer=https://manganelo.com&url=https://s41.mkklcdnv6temp.com/mangakakalot/s1/smash/vol7_chapter_63_give_your_best/18.jpg",
    "https://img-proxy.imgfo.com/?referer=https://manganelo.com&url=https://s41.mkklcdnv6temp.com/mangakakalot/s1/smash/vol7_chapter_63_give_your_best/19.jpg"
  ]
}