{
  "cover": "https://avt.mkklcdnv6.com/25/f/1-1583464686.jpg",
  "title": "Sakuranbo Syndrome",
  "original": "さくらんぼシンドローム ; さくらんぼシンドロームCherry Syndrome (Japanese); 丘比特的恶作剧II樱桃症候群 (Chinese); Cherry Syndrome - Cupid's mischief II; Cupid II: Cherry Syndrome; Cupid No Itazura 2 Cherry Syndrome; Cupid No Itazura 2 Sakuranbo Syndrome; Sakuranbo Syndrome Cupid no Itazura II; Cupid's Prank 2: Cherry Syndrome",
  "genre": "Adult, Comedy, Drama, Romance, Seinen, Slice of life, Manga",
  "author": "Kitazaki Taku",
  "status": "Completed",
  "backlink": "https://manganu.com/collections/kitazaki-taku/sakuranbo-syndrome/",
  "description": "&quot;Progressive Rejuvenation Syndrome.&quot; This is an extremely rare disease causing the inflicted person to gradually become younger. The main character of this story, Munenori Agawa, is the only person that could save Rena Amami from this odd disease. Agawa&#39;s saliva is the only thing that can halt the disease from making Rena younger, so they must kiss everyday in order for her to survive. This causes an immense amount of conflict and drama between Agawa and his new girlfriend, Sayako Asou. This triangle relationship story tests the capabilities and limitations of human love.",
  "language": "English",
  "images": [
    "https://img-proxy.imgfo.com/?referer=https://manganelo.com&url=https://s6.mkklcdnv6temp.com/mangakakalot/s1/sakuranbo_syndrome/vol5_chapter_45_that_was_directed_at_you/1.jpg",
    "https://img-proxy.imgfo.com/?referer=https://manganelo.com&url=https://s6.mkklcdnv6temp.com/mangakakalot/s1/sakuranbo_syndrome/vol5_chapter_45_that_was_directed_at_you/2.jpg",
    "https://img-proxy.imgfo.com/?referer=https://manganelo.com&url=https://s6.mkklcdnv6temp.com/mangakakalot/s1/sakuranbo_syndrome/vol5_chapter_45_that_was_directed_at_you/3.jpg",
    "https://img-proxy.imgfo.com/?referer=https://manganelo.com&url=https://s6.mkklcdnv6temp.com/mangakakalot/s1/sakuranbo_syndrome/vol5_chapter_45_that_was_directed_at_you/4.jpg",
    "https://img-proxy.imgfo.com/?referer=https://manganelo.com&url=https://s6.mkklcdnv6temp.com/mangakakalot/s1/sakuranbo_syndrome/vol5_chapter_45_that_was_directed_at_you/5.jpg",
    "https://img-proxy.imgfo.com/?referer=https://manganelo.com&url=https://s6.mkklcdnv6temp.com/mangakakalot/s1/sakuranbo_syndrome/vol5_chapter_45_that_was_directed_at_you/6.jpg",
    "https://img-proxy.imgfo.com/?referer=https://manganelo.com&url=https://s6.mkklcdnv6temp.com/mangakakalot/s1/sakuranbo_syndrome/vol5_chapter_45_that_was_directed_at_you/7.jpg",
    "https://img-proxy.imgfo.com/?referer=https://manganelo.com&url=https://s6.mkklcdnv6temp.com/mangakakalot/s1/sakuranbo_syndrome/vol5_chapter_45_that_was_directed_at_you/8.jpg",
    "https://img-proxy.imgfo.com/?referer=https://manganelo.com&url=https://s6.mkklcdnv6temp.com/mangakakalot/s1/sakuranbo_syndrome/vol5_chapter_45_that_was_directed_at_you/9.jpg",
    "https://img-proxy.imgfo.com/?referer=https://manganelo.com&url=https://s6.mkklcdnv6temp.com/mangakakalot/s1/sakuranbo_syndrome/vol5_chapter_45_that_was_directed_at_you/10.jpg",
    "https://img-proxy.imgfo.com/?referer=https://manganelo.com&url=https://s6.mkklcdnv6temp.com/mangakakalot/s1/sakuranbo_syndrome/vol5_chapter_45_that_was_directed_at_you/11.jpg",
    "https://img-proxy.imgfo.com/?referer=https://manganelo.com&url=https://s6.mkklcdnv6temp.com/mangakakalot/s1/sakuranbo_syndrome/vol5_chapter_45_that_was_directed_at_you/12.jpg",
    "https://img-proxy.imgfo.com/?referer=https://manganelo.com&url=https://s6.mkklcdnv6temp.com/mangakakalot/s1/sakuranbo_syndrome/vol5_chapter_45_that_was_directed_at_you/13.jpg",
    "https://img-proxy.imgfo.com/?referer=https://manganelo.com&url=https://s6.mkklcdnv6temp.com/mangakakalot/s1/sakuranbo_syndrome/vol5_chapter_45_that_was_directed_at_you/14.jpg",
    "https://img-proxy.imgfo.com/?referer=https://manganelo.com&url=https://s6.mkklcdnv6temp.com/mangakakalot/s1/sakuranbo_syndrome/vol5_chapter_45_that_was_directed_at_you/15.jpg",
    "https://img-proxy.imgfo.com/?referer=https://manganelo.com&url=https://s6.mkklcdnv6temp.com/mangakakalot/s1/sakuranbo_syndrome/vol5_chapter_45_that_was_directed_at_you/16.jpg",
    "https://img-proxy.imgfo.com/?referer=https://manganelo.com&url=https://s6.mkklcdnv6temp.com/mangakakalot/s1/sakuranbo_syndrome/vol5_chapter_45_that_was_directed_at_you/17.jpg",
    "https://img-proxy.imgfo.com/?referer=https://manganelo.com&url=https://s6.mkklcdnv6temp.com/mangakakalot/s1/sakuranbo_syndrome/vol5_chapter_45_that_was_directed_at_you/18.jpg",
    "https://img-proxy.imgfo.com/?referer=https://manganelo.com&url=https://s6.mkklcdnv6temp.com/mangakakalot/s1/sakuranbo_syndrome/vol5_chapter_45_that_was_directed_at_you/19.jpg"
  ]
}