{
  "cover": "https://avt.mkklcdnv6.com/16/f/13-1583488337.jpg",
  "title": "Hishoshitsu No Himitsu",
  "original": "秘書室の秘密 ; Secret of a Secretary ; The Secret of a Secretariat ; The Secret of a Secretary",
  "genre": "Yaoi, Manga",
  "author": "Kanzaki Takashi",
  "status": "Completed",
  "backlink": "https://manganu.com/collections/kanzaki-takashi/hishoshitsu-no-himitsu/",
  "description": "1) For Tomorrow\nThe Nagaoka General detective agency is on the verge of bankruptcy. Nori, the son’s owner, is doing everything he can while his father is away to keep the business afloat, despite his lack of experience with investigating. His biggest challenge? The lazy, perverted ex-cop, Aoi-chan, who is their best and only detective. It seems a waste of his talents to be with the agency, but he is determined to make Nori his. So, when Aoi’s childhood friend and rival, Miyasako Yukari, shows up to offer them both an investigative job worth more money than the agency has seen in a while, he reluctantly accepts. But, the job is almost too easy. And, it seems rather suspicious that Yukari would request both Nori and Aoi to work the case. What is his real reason for hiring Nori? What kind of unexpected danger is waiting?\n2) For the Two of Us\nNori and Aoi are struggling with their newfound love and have yet to complete that final step to consummate the relationship. On top of that, Yukari is keeping Aoi incredibly busy with troublesome jobs, which is the agency’s only source of steady income. Nori takes on a case to search for a missing father, and Aoi tells him to leave the job to him, but then suddenly leaves for an indefinite amount of time claiming the need to do some work for Yukari. Nori begins to feel guilty at his inability to effectively contribute to the agency and his fear of giving himself completely to his lover. But, when Yukari shows up the following day looking for Aoi, Nori learns that his lover has lied to him. Will Nori be able to solve the case of the missing father on his own? And what will happen between the couple if Nori is able to locate Aoi?\n3) The Secret of a Secretary\nUsami is the manager of the secretaries for YM Company, run by Miyasako Yukari. He is constantly witness to Yukari’s immoral and perverted behavior with all of the secretaries. It is the secret of the secretary room that many of the young men within were transferred there for the sole reason of becoming Yukari’s sexual flavor of the week. What’s worse is how Yukari shamelessly uses them as a tool to blackmail ther companies. Usami respects his director, but can’t understand that side of him. Even more, he can’t understand why he has feelings for the man; why he wants to push the director down and dominate that proud guy. The very idea excites him. What will happen when he finally confesses these desires to Yukari? Will his dreams of topping the confident director be fulfilled? And why does he have the feeling that Yukari has his own agenda?\n4) The Boss’s Secret\nYukari hasn’t changed at all, much to Usami’s dismay. But when Yukari has sex with others, Usami rarely complains even though he is jealous. Usami’s desires to be seme are also strong, but he has not yet learned to fight for what he wants. Is Yukari teasing him too much?\n5) The Devil & The Love Revolution\nIwata Daichi is a newbie teacher, finally landing a job as a P.E. teacher. But, on his first day touring the school, he stumbles across another teacher, Yoshizawa, in a compromising situation with a student. In his efforts to question and scold Yoshizawa, Iwata is forced into his own compromising situation and taken advantage of by Yoshizawa, who threatens to use their encounter against the new teacher unless Iwata holds his tongue about what he saw. Iwata has always believed himself to be straight, but when starts to see things in a new light afterwards, and becomes a confidant for students in love. A series of misunderstandings shows both teachers how much they may have misjudged one another. Will Iwata realize his true self when Yoshizawa decides to be serious with him?\n6) Their Position\nKamio and Akagi work for the same company, having joined at the same time and being the same age. Time and time again, though, Akagi excels over Kamio. Whether it’d be by achievements, popularity with the ladies, or in school, Akagi is always ahead of Kamio. So, when Akagi’s business proposal is chosen, he wants Kamio to be his assistant, telling his coworker that ‘Kamio is enough’. Kamio believes it is to pick on him and treat him as an underling. But, what can Kamio believe when Akagi confesses the true reasons for choosing him as an assistant? Is it really just to make fun of him or does Akagi have deeper feelings for his contemporary? And what are the two of them to do when they are accidentally locked within their office building overnight?",
  "language": "English",
  "images": [
    "https://img-proxy.imgfo.com/?referer=https://manganelo.com&url=https://s3.mkklcdnv6temp.com/mangakakalot/h1/hishoshitsu_no_himitsu/vol1_chapter_3_the_secret_of_a_secretary/1.jpg",
    "https://img-proxy.imgfo.com/?referer=https://manganelo.com&url=https://s3.mkklcdnv6temp.com/mangakakalot/h1/hishoshitsu_no_himitsu/vol1_chapter_3_the_secret_of_a_secretary/2.jpg",
    "https://img-proxy.imgfo.com/?referer=https://manganelo.com&url=https://s3.mkklcdnv6temp.com/mangakakalot/h1/hishoshitsu_no_himitsu/vol1_chapter_3_the_secret_of_a_secretary/3.jpg",
    "https://img-proxy.imgfo.com/?referer=https://manganelo.com&url=https://s3.mkklcdnv6temp.com/mangakakalot/h1/hishoshitsu_no_himitsu/vol1_chapter_3_the_secret_of_a_secretary/4.jpg",
    "https://img-proxy.imgfo.com/?referer=https://manganelo.com&url=https://s3.mkklcdnv6temp.com/mangakakalot/h1/hishoshitsu_no_himitsu/vol1_chapter_3_the_secret_of_a_secretary/5.jpg",
    "https://img-proxy.imgfo.com/?referer=https://manganelo.com&url=https://s3.mkklcdnv6temp.com/mangakakalot/h1/hishoshitsu_no_himitsu/vol1_chapter_3_the_secret_of_a_secretary/6.jpg",
    "https://img-proxy.imgfo.com/?referer=https://manganelo.com&url=https://s3.mkklcdnv6temp.com/mangakakalot/h1/hishoshitsu_no_himitsu/vol1_chapter_3_the_secret_of_a_secretary/7.jpg",
    "https://img-proxy.imgfo.com/?referer=https://manganelo.com&url=https://s3.mkklcdnv6temp.com/mangakakalot/h1/hishoshitsu_no_himitsu/vol1_chapter_3_the_secret_of_a_secretary/8.jpg",
    "https://img-proxy.imgfo.com/?referer=https://manganelo.com&url=https://s3.mkklcdnv6temp.com/mangakakalot/h1/hishoshitsu_no_himitsu/vol1_chapter_3_the_secret_of_a_secretary/9.jpg",
    "https://img-proxy.imgfo.com/?referer=https://manganelo.com&url=https://s3.mkklcdnv6temp.com/mangakakalot/h1/hishoshitsu_no_himitsu/vol1_chapter_3_the_secret_of_a_secretary/10.jpg",
    "https://img-proxy.imgfo.com/?referer=https://manganelo.com&url=https://s3.mkklcdnv6temp.com/mangakakalot/h1/hishoshitsu_no_himitsu/vol1_chapter_3_the_secret_of_a_secretary/11.jpg",
    "https://img-proxy.imgfo.com/?referer=https://manganelo.com&url=https://s3.mkklcdnv6temp.com/mangakakalot/h1/hishoshitsu_no_himitsu/vol1_chapter_3_the_secret_of_a_secretary/12.jpg",
    "https://img-proxy.imgfo.com/?referer=https://manganelo.com&url=https://s3.mkklcdnv6temp.com/mangakakalot/h1/hishoshitsu_no_himitsu/vol1_chapter_3_the_secret_of_a_secretary/13.jpg",
    "https://img-proxy.imgfo.com/?referer=https://manganelo.com&url=https://s3.mkklcdnv6temp.com/mangakakalot/h1/hishoshitsu_no_himitsu/vol1_chapter_3_the_secret_of_a_secretary/14.jpg",
    "https://img-proxy.imgfo.com/?referer=https://manganelo.com&url=https://s3.mkklcdnv6temp.com/mangakakalot/h1/hishoshitsu_no_himitsu/vol1_chapter_3_the_secret_of_a_secretary/15.jpg",
    "https://img-proxy.imgfo.com/?referer=https://manganelo.com&url=https://s3.mkklcdnv6temp.com/mangakakalot/h1/hishoshitsu_no_himitsu/vol1_chapter_3_the_secret_of_a_secretary/16.jpg",
    "https://img-proxy.imgfo.com/?referer=https://manganelo.com&url=https://s3.mkklcdnv6temp.com/mangakakalot/h1/hishoshitsu_no_himitsu/vol1_chapter_3_the_secret_of_a_secretary/17.jpg",
    "https://img-proxy.imgfo.com/?referer=https://manganelo.com&url=https://s3.mkklcdnv6temp.com/mangakakalot/h1/hishoshitsu_no_himitsu/vol1_chapter_3_the_secret_of_a_secretary/18.jpg",
    "https://img-proxy.imgfo.com/?referer=https://manganelo.com&url=https://s3.mkklcdnv6temp.com/mangakakalot/h1/hishoshitsu_no_himitsu/vol1_chapter_3_the_secret_of_a_secretary/19.jpg",
    "https://img-proxy.imgfo.com/?referer=https://manganelo.com&url=https://s3.mkklcdnv6temp.com/mangakakalot/h1/hishoshitsu_no_himitsu/vol1_chapter_3_the_secret_of_a_secretary/20.jpg",
    "https://img-proxy.imgfo.com/?referer=https://manganelo.com&url=https://s3.mkklcdnv6temp.com/mangakakalot/h1/hishoshitsu_no_himitsu/vol1_chapter_3_the_secret_of_a_secretary/21.jpg",
    "https://img-proxy.imgfo.com/?referer=https://manganelo.com&url=https://s3.mkklcdnv6temp.com/mangakakalot/h1/hishoshitsu_no_himitsu/vol1_chapter_3_the_secret_of_a_secretary/22.jpg",
    "https://img-proxy.imgfo.com/?referer=https://manganelo.com&url=https://s3.mkklcdnv6temp.com/mangakakalot/h1/hishoshitsu_no_himitsu/vol1_chapter_3_the_secret_of_a_secretary/23.jpg",
    "https://img-proxy.imgfo.com/?referer=https://manganelo.com&url=https://s3.mkklcdnv6temp.com/mangakakalot/h1/hishoshitsu_no_himitsu/vol1_chapter_3_the_secret_of_a_secretary/24.jpg",
    "https://img-proxy.imgfo.com/?referer=https://manganelo.com&url=https://s3.mkklcdnv6temp.com/mangakakalot/h1/hishoshitsu_no_himitsu/vol1_chapter_3_the_secret_of_a_secretary/25.jpg",
    "https://img-proxy.imgfo.com/?referer=https://manganelo.com&url=https://s3.mkklcdnv6temp.com/mangakakalot/h1/hishoshitsu_no_himitsu/vol1_chapter_3_the_secret_of_a_secretary/26.jpg",
    "https://img-proxy.imgfo.com/?referer=https://manganelo.com&url=https://s3.mkklcdnv6temp.com/mangakakalot/h1/hishoshitsu_no_himitsu/vol1_chapter_3_the_secret_of_a_secretary/27.jpg",
    "https://img-proxy.imgfo.com/?referer=https://manganelo.com&url=https://s3.mkklcdnv6temp.com/mangakakalot/h1/hishoshitsu_no_himitsu/vol1_chapter_3_the_secret_of_a_secretary/28.jpg",
    "https://img-proxy.imgfo.com/?referer=https://manganelo.com&url=https://s3.mkklcdnv6temp.com/mangakakalot/h1/hishoshitsu_no_himitsu/vol1_chapter_3_the_secret_of_a_secretary/29.jpg",
    "https://img-proxy.imgfo.com/?referer=https://manganelo.com&url=https://s3.mkklcdnv6temp.com/mangakakalot/h1/hishoshitsu_no_himitsu/vol1_chapter_3_the_secret_of_a_secretary/30.jpg",
    "https://img-proxy.imgfo.com/?referer=https://manganelo.com&url=https://s3.mkklcdnv6temp.com/mangakakalot/h1/hishoshitsu_no_himitsu/vol1_chapter_3_the_secret_of_a_secretary/31.jpg",
    "https://img-proxy.imgfo.com/?referer=https://manganelo.com&url=https://s3.mkklcdnv6temp.com/mangakakalot/h1/hishoshitsu_no_himitsu/vol1_chapter_3_the_secret_of_a_secretary/32.jpg",
    "https://img-proxy.imgfo.com/?referer=https://manganelo.com&url=https://s3.mkklcdnv6temp.com/mangakakalot/h1/hishoshitsu_no_himitsu/vol1_chapter_3_the_secret_of_a_secretary/33.jpg",
    "https://img-proxy.imgfo.com/?referer=https://manganelo.com&url=https://s3.mkklcdnv6temp.com/mangakakalot/h1/hishoshitsu_no_himitsu/vol1_chapter_3_the_secret_of_a_secretary/34.jpg",
    "https://img-proxy.imgfo.com/?referer=https://manganelo.com&url=https://s3.mkklcdnv6temp.com/mangakakalot/h1/hishoshitsu_no_himitsu/vol1_chapter_3_the_secret_of_a_secretary/35.jpg",
    "https://img-proxy.imgfo.com/?referer=https://manganelo.com&url=https://s3.mkklcdnv6temp.com/mangakakalot/h1/hishoshitsu_no_himitsu/vol1_chapter_3_the_secret_of_a_secretary/36.jpg",
    "https://img-proxy.imgfo.com/?referer=https://manganelo.com&url=https://s3.mkklcdnv6temp.com/mangakakalot/h1/hishoshitsu_no_himitsu/vol1_chapter_3_the_secret_of_a_secretary/37.jpg"
  ]
}