{
  "cover": "https://avt.mkklcdnv6.com/10/v/5-1583472281.jpg",
  "title": "Mx0",
  "original": "エム×ゼロ ; 魔爱 ; M×0 ; Magic x 0 ; MxZero ; M Times Zero ; 엠x제로 ; เอ็มxซีโร่",
  "genre": "Action, Adventure, Comedy, Fantasy, Harem, Romance, School life, Shounen, Slice of life, Supernatural, Manga",
  "author": "Kano Yasuhiro",
  "status": "Completed",
  "backlink": "https://manganu.com/collections/kano-yasuhiro/mx0/",
  "description": "During a flashback, an interviewer inquires Kuzumi Taiga, a prospective student for Seinagi Private High School, on what he would do if he could use magic, during his entrance interview. He replies, \"take over the world\", with an outburst of laughter, from an attractive girl, following his answer. After the entrance exam, the school rejects his application; although he recalls almost nothing after this event, he does recall the girl, and believes the cause of his school of choice rejecting his application involves her.\nWandering around outside of the school the next day, Kuzumi tries to enter, but an invisible barrier blocks him. A teacher, Mr. Hiiragi, confuses Kuzumi for a student of the school ditching class and pulls Kuzumi into the school through the barrier.\nSeinagi Private High School is actually a magic school and Kuzumi is a teenager with no magical skill.",
  "language": "English",
  "images": [
    "https://img-proxy.imgfo.com/?referer=https://manganelo.com&url=https://s5.mkklcdnv6temp.com/mangakakalot/m2/mx0/vol5_chapter_45_class_matches_9/1.jpg",
    "https://img-proxy.imgfo.com/?referer=https://manganelo.com&url=https://s5.mkklcdnv6temp.com/mangakakalot/m2/mx0/vol5_chapter_45_class_matches_9/2.jpg",
    "https://img-proxy.imgfo.com/?referer=https://manganelo.com&url=https://s5.mkklcdnv6temp.com/mangakakalot/m2/mx0/vol5_chapter_45_class_matches_9/3.jpg",
    "https://img-proxy.imgfo.com/?referer=https://manganelo.com&url=https://s5.mkklcdnv6temp.com/mangakakalot/m2/mx0/vol5_chapter_45_class_matches_9/4.jpg",
    "https://img-proxy.imgfo.com/?referer=https://manganelo.com&url=https://s5.mkklcdnv6temp.com/mangakakalot/m2/mx0/vol5_chapter_45_class_matches_9/5.jpg",
    "https://img-proxy.imgfo.com/?referer=https://manganelo.com&url=https://s5.mkklcdnv6temp.com/mangakakalot/m2/mx0/vol5_chapter_45_class_matches_9/6.jpg",
    "https://img-proxy.imgfo.com/?referer=https://manganelo.com&url=https://s5.mkklcdnv6temp.com/mangakakalot/m2/mx0/vol5_chapter_45_class_matches_9/7.jpg",
    "https://img-proxy.imgfo.com/?referer=https://manganelo.com&url=https://s5.mkklcdnv6temp.com/mangakakalot/m2/mx0/vol5_chapter_45_class_matches_9/8.jpg",
    "https://img-proxy.imgfo.com/?referer=https://manganelo.com&url=https://s5.mkklcdnv6temp.com/mangakakalot/m2/mx0/vol5_chapter_45_class_matches_9/9.jpg",
    "https://img-proxy.imgfo.com/?referer=https://manganelo.com&url=https://s5.mkklcdnv6temp.com/mangakakalot/m2/mx0/vol5_chapter_45_class_matches_9/10.jpg",
    "https://img-proxy.imgfo.com/?referer=https://manganelo.com&url=https://s5.mkklcdnv6temp.com/mangakakalot/m2/mx0/vol5_chapter_45_class_matches_9/11.jpg",
    "https://img-proxy.imgfo.com/?referer=https://manganelo.com&url=https://s5.mkklcdnv6temp.com/mangakakalot/m2/mx0/vol5_chapter_45_class_matches_9/12.jpg",
    "https://img-proxy.imgfo.com/?referer=https://manganelo.com&url=https://s5.mkklcdnv6temp.com/mangakakalot/m2/mx0/vol5_chapter_45_class_matches_9/13.jpg",
    "https://img-proxy.imgfo.com/?referer=https://manganelo.com&url=https://s5.mkklcdnv6temp.com/mangakakalot/m2/mx0/vol5_chapter_45_class_matches_9/14.jpg",
    "https://img-proxy.imgfo.com/?referer=https://manganelo.com&url=https://s5.mkklcdnv6temp.com/mangakakalot/m2/mx0/vol5_chapter_45_class_matches_9/15.jpg",
    "https://img-proxy.imgfo.com/?referer=https://manganelo.com&url=https://s5.mkklcdnv6temp.com/mangakakalot/m2/mx0/vol5_chapter_45_class_matches_9/16.jpg",
    "https://img-proxy.imgfo.com/?referer=https://manganelo.com&url=https://s5.mkklcdnv6temp.com/mangakakalot/m2/mx0/vol5_chapter_45_class_matches_9/17.jpg"
  ]
}