{
  "cover": "https://avt.mkklcdnv6.com/10/w/13-1583488142.jpg",
  "title": "Island",
  "original": "アイランド. ; 아일랜드",
  "genre": "Action, Horror, Mature, Seinen, Supernatural, Manga",
  "author": "Youn In-Wan",
  "status": "Completed",
  "backlink": "https://manganu.com/collections/youn-in-wan/island/",
  "description": "[Taken from Tokyopop]: Miho, a woman of beauty, intelligence and temper, comes to Cheju Island to teach school and is immediately flung into a world of terror and the supernatural. A demon attacks her and she is saved by the chance appearance of a mystery man with seemingly only one mission... demon killing.",
  "language": "English",
  "images": [
    "https://img-proxy.imgfo.com/?referer=https://manganelo.com&url=https://s3.mkklcdnv6temp.com/mangakakalot/i2/island/vol7_chapter_46_another_homeland_part_27/1.jpg",
    "https://img-proxy.imgfo.com/?referer=https://manganelo.com&url=https://s3.mkklcdnv6temp.com/mangakakalot/i2/island/vol7_chapter_46_another_homeland_part_27/2.jpg",
    "https://img-proxy.imgfo.com/?referer=https://manganelo.com&url=https://s3.mkklcdnv6temp.com/mangakakalot/i2/island/vol7_chapter_46_another_homeland_part_27/3.jpg",
    "https://img-proxy.imgfo.com/?referer=https://manganelo.com&url=https://s3.mkklcdnv6temp.com/mangakakalot/i2/island/vol7_chapter_46_another_homeland_part_27/4.jpg",
    "https://img-proxy.imgfo.com/?referer=https://manganelo.com&url=https://s3.mkklcdnv6temp.com/mangakakalot/i2/island/vol7_chapter_46_another_homeland_part_27/5.jpg",
    "https://img-proxy.imgfo.com/?referer=https://manganelo.com&url=https://s3.mkklcdnv6temp.com/mangakakalot/i2/island/vol7_chapter_46_another_homeland_part_27/6.jpg",
    "https://img-proxy.imgfo.com/?referer=https://manganelo.com&url=https://s3.mkklcdnv6temp.com/mangakakalot/i2/island/vol7_chapter_46_another_homeland_part_27/7.jpg",
    "https://img-proxy.imgfo.com/?referer=https://manganelo.com&url=https://s3.mkklcdnv6temp.com/mangakakalot/i2/island/vol7_chapter_46_another_homeland_part_27/8.jpg",
    "https://img-proxy.imgfo.com/?referer=https://manganelo.com&url=https://s3.mkklcdnv6temp.com/mangakakalot/i2/island/vol7_chapter_46_another_homeland_part_27/9.jpg",
    "https://img-proxy.imgfo.com/?referer=https://manganelo.com&url=https://s3.mkklcdnv6temp.com/mangakakalot/i2/island/vol7_chapter_46_another_homeland_part_27/10.jpg",
    "https://img-proxy.imgfo.com/?referer=https://manganelo.com&url=https://s3.mkklcdnv6temp.com/mangakakalot/i2/island/vol7_chapter_46_another_homeland_part_27/11.jpg",
    "https://img-proxy.imgfo.com/?referer=https://manganelo.com&url=https://s3.mkklcdnv6temp.com/mangakakalot/i2/island/vol7_chapter_46_another_homeland_part_27/12.jpg",
    "https://img-proxy.imgfo.com/?referer=https://manganelo.com&url=https://s3.mkklcdnv6temp.com/mangakakalot/i2/island/vol7_chapter_46_another_homeland_part_27/13.jpg",
    "https://img-proxy.imgfo.com/?referer=https://manganelo.com&url=https://s3.mkklcdnv6temp.com/mangakakalot/i2/island/vol7_chapter_46_another_homeland_part_27/14.jpg",
    "https://img-proxy.imgfo.com/?referer=https://manganelo.com&url=https://s3.mkklcdnv6temp.com/mangakakalot/i2/island/vol7_chapter_46_another_homeland_part_27/15.jpg",
    "https://img-proxy.imgfo.com/?referer=https://manganelo.com&url=https://s3.mkklcdnv6temp.com/mangakakalot/i2/island/vol7_chapter_46_another_homeland_part_27/16.jpg",
    "https://img-proxy.imgfo.com/?referer=https://manganelo.com&url=https://s3.mkklcdnv6temp.com/mangakakalot/i2/island/vol7_chapter_46_another_homeland_part_27/17.jpg",
    "https://img-proxy.imgfo.com/?referer=https://manganelo.com&url=https://s3.mkklcdnv6temp.com/mangakakalot/i2/island/vol7_chapter_46_another_homeland_part_27/18.jpg",
    "https://img-proxy.imgfo.com/?referer=https://manganelo.com&url=https://s3.mkklcdnv6temp.com/mangakakalot/i2/island/vol7_chapter_46_another_homeland_part_27/19.jpg",
    "https://img-proxy.imgfo.com/?referer=https://manganelo.com&url=https://s3.mkklcdnv6temp.com/mangakakalot/i2/island/vol7_chapter_46_another_homeland_part_27/20.jpg",
    "https://img-proxy.imgfo.com/?referer=https://manganelo.com&url=https://s3.mkklcdnv6temp.com/mangakakalot/i2/island/vol7_chapter_46_another_homeland_part_27/21.jpg",
    "https://img-proxy.imgfo.com/?referer=https://manganelo.com&url=https://s3.mkklcdnv6temp.com/mangakakalot/i2/island/vol7_chapter_46_another_homeland_part_27/22.jpg",
    "https://img-proxy.imgfo.com/?referer=https://manganelo.com&url=https://s3.mkklcdnv6temp.com/mangakakalot/i2/island/vol7_chapter_46_another_homeland_part_27/23.jpg",
    "https://img-proxy.imgfo.com/?referer=https://manganelo.com&url=https://s3.mkklcdnv6temp.com/mangakakalot/i2/island/vol7_chapter_46_another_homeland_part_27/24.jpg",
    "https://img-proxy.imgfo.com/?referer=https://manganelo.com&url=https://s3.mkklcdnv6temp.com/mangakakalot/i2/island/vol7_chapter_46_another_homeland_part_27/25.jpg",
    "https://img-proxy.imgfo.com/?referer=https://manganelo.com&url=https://s3.mkklcdnv6temp.com/mangakakalot/i2/island/vol7_chapter_46_another_homeland_part_27/26.jpg",
    "https://img-proxy.imgfo.com/?referer=https://manganelo.com&url=https://s3.mkklcdnv6temp.com/mangakakalot/i2/island/vol7_chapter_46_another_homeland_part_27/27.jpg",
    "https://img-proxy.imgfo.com/?referer=https://manganelo.com&url=https://s3.mkklcdnv6temp.com/mangakakalot/i2/island/vol7_chapter_46_another_homeland_part_27/28.jpg",
    "https://img-proxy.imgfo.com/?referer=https://manganelo.com&url=https://s3.mkklcdnv6temp.com/mangakakalot/i2/island/vol7_chapter_46_another_homeland_part_27/29.jpg",
    "https://img-proxy.imgfo.com/?referer=https://manganelo.com&url=https://s3.mkklcdnv6temp.com/mangakakalot/i2/island/vol7_chapter_46_another_homeland_part_27/30.jpg",
    "https://img-proxy.imgfo.com/?referer=https://manganelo.com&url=https://s3.mkklcdnv6temp.com/mangakakalot/i2/island/vol7_chapter_46_another_homeland_part_27/31.jpg",
    "https://img-proxy.imgfo.com/?referer=https://manganelo.com&url=https://s3.mkklcdnv6temp.com/mangakakalot/i2/island/vol7_chapter_46_another_homeland_part_27/32.jpg",
    "https://img-proxy.imgfo.com/?referer=https://manganelo.com&url=https://s3.mkklcdnv6temp.com/mangakakalot/i2/island/vol7_chapter_46_another_homeland_part_27/33.jpg",
    "https://img-proxy.imgfo.com/?referer=https://manganelo.com&url=https://s3.mkklcdnv6temp.com/mangakakalot/i2/island/vol7_chapter_46_another_homeland_part_27/34.jpg",
    "https://img-proxy.imgfo.com/?referer=https://manganelo.com&url=https://s3.mkklcdnv6temp.com/mangakakalot/i2/island/vol7_chapter_46_another_homeland_part_27/35.jpg",
    "https://img-proxy.imgfo.com/?referer=https://manganelo.com&url=https://s3.mkklcdnv6temp.com/mangakakalot/i2/island/vol7_chapter_46_another_homeland_part_27/36.jpg",
    "https://img-proxy.imgfo.com/?referer=https://manganelo.com&url=https://s3.mkklcdnv6temp.com/mangakakalot/i2/island/vol7_chapter_46_another_homeland_part_27/37.jpg",
    "https://img-proxy.imgfo.com/?referer=https://manganelo.com&url=https://s3.mkklcdnv6temp.com/mangakakalot/i2/island/vol7_chapter_46_another_homeland_part_27/38.jpg",
    "https://img-proxy.imgfo.com/?referer=https://manganelo.com&url=https://s3.mkklcdnv6temp.com/mangakakalot/i2/island/vol7_chapter_46_another_homeland_part_27/39.jpg",
    "https://img-proxy.imgfo.com/?referer=https://manganelo.com&url=https://s3.mkklcdnv6temp.com/mangakakalot/i2/island/vol7_chapter_46_another_homeland_part_27/40.jpg",
    "https://img-proxy.imgfo.com/?referer=https://manganelo.com&url=https://s3.mkklcdnv6temp.com/mangakakalot/i2/island/vol7_chapter_46_another_homeland_part_27/41.jpg",
    "https://img-proxy.imgfo.com/?referer=https://manganelo.com&url=https://s3.mkklcdnv6temp.com/mangakakalot/i2/island/vol7_chapter_46_another_homeland_part_27/42.jpg",
    "https://img-proxy.imgfo.com/?referer=https://manganelo.com&url=https://s3.mkklcdnv6temp.com/mangakakalot/i2/island/vol7_chapter_46_another_homeland_part_27/43.jpg",
    "https://img-proxy.imgfo.com/?referer=https://manganelo.com&url=https://s3.mkklcdnv6temp.com/mangakakalot/i2/island/vol7_chapter_46_another_homeland_part_27/44.jpg",
    "https://img-proxy.imgfo.com/?referer=https://manganelo.com&url=https://s3.mkklcdnv6temp.com/mangakakalot/i2/island/vol7_chapter_46_another_homeland_part_27/45.jpg",
    "https://img-proxy.imgfo.com/?referer=https://manganelo.com&url=https://s3.mkklcdnv6temp.com/mangakakalot/i2/island/vol7_chapter_46_another_homeland_part_27/46.jpg",
    "https://img-proxy.imgfo.com/?referer=https://manganelo.com&url=https://s3.mkklcdnv6temp.com/mangakakalot/i2/island/vol7_chapter_46_another_homeland_part_27/47.jpg",
    "https://img-proxy.imgfo.com/?referer=https://manganelo.com&url=https://s3.mkklcdnv6temp.com/mangakakalot/i2/island/vol7_chapter_46_another_homeland_part_27/48.jpg",
    "https://img-proxy.imgfo.com/?referer=https://manganelo.com&url=https://s3.mkklcdnv6temp.com/mangakakalot/i2/island/vol7_chapter_46_another_homeland_part_27/49.jpg",
    "https://img-proxy.imgfo.com/?referer=https://manganelo.com&url=https://s3.mkklcdnv6temp.com/mangakakalot/i2/island/vol7_chapter_46_another_homeland_part_27/50.jpg",
    "https://img-proxy.imgfo.com/?referer=https://manganelo.com&url=https://s3.mkklcdnv6temp.com/mangakakalot/i2/island/vol7_chapter_46_another_homeland_part_27/51.jpg",
    "https://img-proxy.imgfo.com/?referer=https://manganelo.com&url=https://s3.mkklcdnv6temp.com/mangakakalot/i2/island/vol7_chapter_46_another_homeland_part_27/52.jpg",
    "https://img-proxy.imgfo.com/?referer=https://manganelo.com&url=https://s3.mkklcdnv6temp.com/mangakakalot/i2/island/vol7_chapter_46_another_homeland_part_27/53.jpg",
    "https://img-proxy.imgfo.com/?referer=https://manganelo.com&url=https://s3.mkklcdnv6temp.com/mangakakalot/i2/island/vol7_chapter_46_another_homeland_part_27/54.jpg",
    "https://img-proxy.imgfo.com/?referer=https://manganelo.com&url=https://s3.mkklcdnv6temp.com/mangakakalot/i2/island/vol7_chapter_46_another_homeland_part_27/55.jpg",
    "https://img-proxy.imgfo.com/?referer=https://manganelo.com&url=https://s3.mkklcdnv6temp.com/mangakakalot/i2/island/vol7_chapter_46_another_homeland_part_27/56.jpg",
    "https://img-proxy.imgfo.com/?referer=https://manganelo.com&url=https://s3.mkklcdnv6temp.com/mangakakalot/i2/island/vol7_chapter_46_another_homeland_part_27/57.jpg",
    "https://img-proxy.imgfo.com/?referer=https://manganelo.com&url=https://s3.mkklcdnv6temp.com/mangakakalot/i2/island/vol7_chapter_46_another_homeland_part_27/58.jpg",
    "https://img-proxy.imgfo.com/?referer=https://manganelo.com&url=https://s3.mkklcdnv6temp.com/mangakakalot/i2/island/vol7_chapter_46_another_homeland_part_27/59.jpg",
    "https://img-proxy.imgfo.com/?referer=https://manganelo.com&url=https://s3.mkklcdnv6temp.com/mangakakalot/i2/island/vol7_chapter_46_another_homeland_part_27/60.jpg",
    "https://img-proxy.imgfo.com/?referer=https://manganelo.com&url=https://s3.mkklcdnv6temp.com/mangakakalot/i2/island/vol7_chapter_46_another_homeland_part_27/61.jpg",
    "https://img-proxy.imgfo.com/?referer=https://manganelo.com&url=https://s3.mkklcdnv6temp.com/mangakakalot/i2/island/vol7_chapter_46_another_homeland_part_27/62.jpg",
    "https://img-proxy.imgfo.com/?referer=https://manganelo.com&url=https://s3.mkklcdnv6temp.com/mangakakalot/i2/island/vol7_chapter_46_another_homeland_part_27/63.jpg",
    "https://img-proxy.imgfo.com/?referer=https://manganelo.com&url=https://s3.mkklcdnv6temp.com/mangakakalot/i2/island/vol7_chapter_46_another_homeland_part_27/64.jpg",
    "https://img-proxy.imgfo.com/?referer=https://manganelo.com&url=https://s3.mkklcdnv6temp.com/mangakakalot/i2/island/vol7_chapter_46_another_homeland_part_27/65.jpg",
    "https://img-proxy.imgfo.com/?referer=https://manganelo.com&url=https://s3.mkklcdnv6temp.com/mangakakalot/i2/island/vol7_chapter_46_another_homeland_part_27/66.jpg",
    "https://img-proxy.imgfo.com/?referer=https://manganelo.com&url=https://s3.mkklcdnv6temp.com/mangakakalot/i2/island/vol7_chapter_46_another_homeland_part_27/67.jpg",
    "https://img-proxy.imgfo.com/?referer=https://manganelo.com&url=https://s3.mkklcdnv6temp.com/mangakakalot/i2/island/vol7_chapter_46_another_homeland_part_27/68.jpg"
  ]
}