{
  "cover": "https://avt.mkklcdnv6.com/7/g/5-1583472149.jpg",
  "title": "Raruto",
  "genre": "Action, Comedy, Martial arts, Manga",
  "author": "Jesús García Ferrer (Jesulink)",
  "status": "Completed",
  "backlink": "https://manganu.com/collections/jesus-garcia-ferrer-jesulink/raruto/",
  "description": "Raruto is a Spanish webcomic by Jesús García Ferrer (Jesulink), published from 2005 to 2008, and is a parody of the Japanese manga Naruto with absurd humor and a careless super-deformed artstyle. There is a sequel, Raruto Sisepuede, ongoing since 2008. Despite the artwork, Raruto became the most well-known parody of Naruto in Spain, and has been sold in printed volumes in manga conventions in Spain.The popularity of Raruto led Jesulink to start a new manga, &quot;5 Elementos&quot;, which despite being also published online, has sold over 15000 copies in its printed format.Sequel:&gt; Raruto Sisepuede(http://mangapark.com/search?q=sp/raruto-sisepuede)",
  "language": "English",
  "images": [
    "https://img-proxy.imgfo.com/?referer=https://manganelo.com&url=https://s41.mkklcdnv6temp.com/mangakakalot/r1/raruto/vol2_chapter_16_bestseller/1.jpg",
    "https://img-proxy.imgfo.com/?referer=https://manganelo.com&url=https://s41.mkklcdnv6temp.com/mangakakalot/r1/raruto/vol2_chapter_16_bestseller/2.jpg",
    "https://img-proxy.imgfo.com/?referer=https://manganelo.com&url=https://s41.mkklcdnv6temp.com/mangakakalot/r1/raruto/vol2_chapter_16_bestseller/3.jpg",
    "https://img-proxy.imgfo.com/?referer=https://manganelo.com&url=https://s41.mkklcdnv6temp.com/mangakakalot/r1/raruto/vol2_chapter_16_bestseller/4.jpg",
    "https://img-proxy.imgfo.com/?referer=https://manganelo.com&url=https://s41.mkklcdnv6temp.com/mangakakalot/r1/raruto/vol2_chapter_16_bestseller/5.jpg",
    "https://img-proxy.imgfo.com/?referer=https://manganelo.com&url=https://s41.mkklcdnv6temp.com/mangakakalot/r1/raruto/vol2_chapter_16_bestseller/6.jpg",
    "https://img-proxy.imgfo.com/?referer=https://manganelo.com&url=https://s41.mkklcdnv6temp.com/mangakakalot/r1/raruto/vol2_chapter_16_bestseller/7.jpg",
    "https://img-proxy.imgfo.com/?referer=https://manganelo.com&url=https://s41.mkklcdnv6temp.com/mangakakalot/r1/raruto/vol2_chapter_16_bestseller/8.jpg",
    "https://img-proxy.imgfo.com/?referer=https://manganelo.com&url=https://s41.mkklcdnv6temp.com/mangakakalot/r1/raruto/vol2_chapter_16_bestseller/9.jpg",
    "https://img-proxy.imgfo.com/?referer=https://manganelo.com&url=https://s41.mkklcdnv6temp.com/mangakakalot/r1/raruto/vol2_chapter_16_bestseller/10.jpg",
    "https://img-proxy.imgfo.com/?referer=https://manganelo.com&url=https://s41.mkklcdnv6temp.com/mangakakalot/r1/raruto/vol2_chapter_16_bestseller/11.jpg",
    "https://img-proxy.imgfo.com/?referer=https://manganelo.com&url=https://s41.mkklcdnv6temp.com/mangakakalot/r1/raruto/vol2_chapter_16_bestseller/12.jpg",
    "https://img-proxy.imgfo.com/?referer=https://manganelo.com&url=https://s41.mkklcdnv6temp.com/mangakakalot/r1/raruto/vol2_chapter_16_bestseller/13.jpg",
    "https://img-proxy.imgfo.com/?referer=https://manganelo.com&url=https://s41.mkklcdnv6temp.com/mangakakalot/r1/raruto/vol2_chapter_16_bestseller/14.jpg",
    "https://img-proxy.imgfo.com/?referer=https://manganelo.com&url=https://s41.mkklcdnv6temp.com/mangakakalot/r1/raruto/vol2_chapter_16_bestseller/15.jpg",
    "https://img-proxy.imgfo.com/?referer=https://manganelo.com&url=https://s41.mkklcdnv6temp.com/mangakakalot/r1/raruto/vol2_chapter_16_bestseller/16.jpg"
  ]
}