{
  "cover": "https://avt.mkklcdnv6.com/17/m/4-1583470382.jpg",
  "title": "Cowboy Bebop: Shooting Star",
  "original": "シューティングスタービバップ カウボーイビバップ ; Shooting Start Bebop Cowboy Bebop",
  "genre": "Action, Adventure, Comedy, Sci fi, Shoujo, Manga",
  "author": "Kuga Cain",
  "status": "Completed",
  "backlink": "https://manganu.com/collections/kuga-cain/cowboy-bebop-shooting-star/",
  "description": "From Tokyopop:\nKai Lucas hires the Bebop crew to find his mischievous doppelganger, but the bounty goes bust and Spike and Jet once again find themselves broke - and hungry. And to add to their woes, Spike ends up mysteriously on the police's most wanted list, either the butt of a joke or the victim of a severe computer glitch. But what's worse, being targeted by every bounty hunter in the solar system, or taking on a kid-genius, a genius puppy and a genus: fatale, species: femme as part of the crew. Well, if Scorpion or the Dragon Head Family doesn't kill them, the extra mouths to feed certainly will.",
  "language": "English",
  "images": [
    "https://img-proxy.imgfo.com/?referer=https://manganelo.com&url=https://s41.mkklcdnv6temp.com/mangakakalot/c2/cowboy_bebop_shooting_star/vol01_chapter_02/1.jpg",
    "https://img-proxy.imgfo.com/?referer=https://manganelo.com&url=https://s41.mkklcdnv6temp.com/mangakakalot/c2/cowboy_bebop_shooting_star/vol01_chapter_02/2.jpg",
    "https://img-proxy.imgfo.com/?referer=https://manganelo.com&url=https://s41.mkklcdnv6temp.com/mangakakalot/c2/cowboy_bebop_shooting_star/vol01_chapter_02/3.jpg",
    "https://img-proxy.imgfo.com/?referer=https://manganelo.com&url=https://s41.mkklcdnv6temp.com/mangakakalot/c2/cowboy_bebop_shooting_star/vol01_chapter_02/4.jpg",
    "https://img-proxy.imgfo.com/?referer=https://manganelo.com&url=https://s41.mkklcdnv6temp.com/mangakakalot/c2/cowboy_bebop_shooting_star/vol01_chapter_02/5.jpg",
    "https://img-proxy.imgfo.com/?referer=https://manganelo.com&url=https://s41.mkklcdnv6temp.com/mangakakalot/c2/cowboy_bebop_shooting_star/vol01_chapter_02/6.jpg",
    "https://img-proxy.imgfo.com/?referer=https://manganelo.com&url=https://s41.mkklcdnv6temp.com/mangakakalot/c2/cowboy_bebop_shooting_star/vol01_chapter_02/7.jpg",
    "https://img-proxy.imgfo.com/?referer=https://manganelo.com&url=https://s41.mkklcdnv6temp.com/mangakakalot/c2/cowboy_bebop_shooting_star/vol01_chapter_02/8.jpg",
    "https://img-proxy.imgfo.com/?referer=https://manganelo.com&url=https://s41.mkklcdnv6temp.com/mangakakalot/c2/cowboy_bebop_shooting_star/vol01_chapter_02/9.jpg",
    "https://img-proxy.imgfo.com/?referer=https://manganelo.com&url=https://s41.mkklcdnv6temp.com/mangakakalot/c2/cowboy_bebop_shooting_star/vol01_chapter_02/10.jpg",
    "https://img-proxy.imgfo.com/?referer=https://manganelo.com&url=https://s41.mkklcdnv6temp.com/mangakakalot/c2/cowboy_bebop_shooting_star/vol01_chapter_02/11.jpg",
    "https://img-proxy.imgfo.com/?referer=https://manganelo.com&url=https://s41.mkklcdnv6temp.com/mangakakalot/c2/cowboy_bebop_shooting_star/vol01_chapter_02/12.jpg",
    "https://img-proxy.imgfo.com/?referer=https://manganelo.com&url=https://s41.mkklcdnv6temp.com/mangakakalot/c2/cowboy_bebop_shooting_star/vol01_chapter_02/13.jpg",
    "https://img-proxy.imgfo.com/?referer=https://manganelo.com&url=https://s41.mkklcdnv6temp.com/mangakakalot/c2/cowboy_bebop_shooting_star/vol01_chapter_02/14.jpg",
    "https://img-proxy.imgfo.com/?referer=https://manganelo.com&url=https://s41.mkklcdnv6temp.com/mangakakalot/c2/cowboy_bebop_shooting_star/vol01_chapter_02/15.jpg",
    "https://img-proxy.imgfo.com/?referer=https://manganelo.com&url=https://s41.mkklcdnv6temp.com/mangakakalot/c2/cowboy_bebop_shooting_star/vol01_chapter_02/16.jpg",
    "https://img-proxy.imgfo.com/?referer=https://manganelo.com&url=https://s41.mkklcdnv6temp.com/mangakakalot/c2/cowboy_bebop_shooting_star/vol01_chapter_02/17.jpg",
    "https://img-proxy.imgfo.com/?referer=https://manganelo.com&url=https://s41.mkklcdnv6temp.com/mangakakalot/c2/cowboy_bebop_shooting_star/vol01_chapter_02/18.jpg",
    "https://img-proxy.imgfo.com/?referer=https://manganelo.com&url=https://s41.mkklcdnv6temp.com/mangakakalot/c2/cowboy_bebop_shooting_star/vol01_chapter_02/19.jpg",
    "https://img-proxy.imgfo.com/?referer=https://manganelo.com&url=https://s41.mkklcdnv6temp.com/mangakakalot/c2/cowboy_bebop_shooting_star/vol01_chapter_02/20.jpg",
    "https://img-proxy.imgfo.com/?referer=https://manganelo.com&url=https://s41.mkklcdnv6temp.com/mangakakalot/c2/cowboy_bebop_shooting_star/vol01_chapter_02/21.jpg",
    "https://img-proxy.imgfo.com/?referer=https://manganelo.com&url=https://s41.mkklcdnv6temp.com/mangakakalot/c2/cowboy_bebop_shooting_star/vol01_chapter_02/22.jpg",
    "https://img-proxy.imgfo.com/?referer=https://manganelo.com&url=https://s41.mkklcdnv6temp.com/mangakakalot/c2/cowboy_bebop_shooting_star/vol01_chapter_02/23.jpg",
    "https://img-proxy.imgfo.com/?referer=https://manganelo.com&url=https://s41.mkklcdnv6temp.com/mangakakalot/c2/cowboy_bebop_shooting_star/vol01_chapter_02/24.jpg",
    "https://img-proxy.imgfo.com/?referer=https://manganelo.com&url=https://s41.mkklcdnv6temp.com/mangakakalot/c2/cowboy_bebop_shooting_star/vol01_chapter_02/25.jpg",
    "https://img-proxy.imgfo.com/?referer=https://manganelo.com&url=https://s41.mkklcdnv6temp.com/mangakakalot/c2/cowboy_bebop_shooting_star/vol01_chapter_02/26.jpg",
    "https://img-proxy.imgfo.com/?referer=https://manganelo.com&url=https://s41.mkklcdnv6temp.com/mangakakalot/c2/cowboy_bebop_shooting_star/vol01_chapter_02/27.jpg",
    "https://img-proxy.imgfo.com/?referer=https://manganelo.com&url=https://s41.mkklcdnv6temp.com/mangakakalot/c2/cowboy_bebop_shooting_star/vol01_chapter_02/28.jpg",
    "https://img-proxy.imgfo.com/?referer=https://manganelo.com&url=https://s41.mkklcdnv6temp.com/mangakakalot/c2/cowboy_bebop_shooting_star/vol01_chapter_02/29.jpg",
    "https://img-proxy.imgfo.com/?referer=https://manganelo.com&url=https://s41.mkklcdnv6temp.com/mangakakalot/c2/cowboy_bebop_shooting_star/vol01_chapter_02/30.jpg",
    "https://img-proxy.imgfo.com/?referer=https://manganelo.com&url=https://s41.mkklcdnv6temp.com/mangakakalot/c2/cowboy_bebop_shooting_star/vol01_chapter_02/31.jpg",
    "https://img-proxy.imgfo.com/?referer=https://manganelo.com&url=https://s41.mkklcdnv6temp.com/mangakakalot/c2/cowboy_bebop_shooting_star/vol01_chapter_02/32.jpg",
    "https://img-proxy.imgfo.com/?referer=https://manganelo.com&url=https://s41.mkklcdnv6temp.com/mangakakalot/c2/cowboy_bebop_shooting_star/vol01_chapter_02/33.jpg",
    "https://img-proxy.imgfo.com/?referer=https://manganelo.com&url=https://s41.mkklcdnv6temp.com/mangakakalot/c2/cowboy_bebop_shooting_star/vol01_chapter_02/34.jpg",
    "https://img-proxy.imgfo.com/?referer=https://manganelo.com&url=https://s41.mkklcdnv6temp.com/mangakakalot/c2/cowboy_bebop_shooting_star/vol01_chapter_02/35.jpg",
    "https://img-proxy.imgfo.com/?referer=https://manganelo.com&url=https://s41.mkklcdnv6temp.com/mangakakalot/c2/cowboy_bebop_shooting_star/vol01_chapter_02/36.jpg",
    "https://img-proxy.imgfo.com/?referer=https://manganelo.com&url=https://s41.mkklcdnv6temp.com/mangakakalot/c2/cowboy_bebop_shooting_star/vol01_chapter_02/37.jpg",
    "https://img-proxy.imgfo.com/?referer=https://manganelo.com&url=https://s41.mkklcdnv6temp.com/mangakakalot/c2/cowboy_bebop_shooting_star/vol01_chapter_02/38.jpg",
    "https://img-proxy.imgfo.com/?referer=https://manganelo.com&url=https://s41.mkklcdnv6temp.com/mangakakalot/c2/cowboy_bebop_shooting_star/vol01_chapter_02/39.jpg",
    "https://img-proxy.imgfo.com/?referer=https://manganelo.com&url=https://s41.mkklcdnv6temp.com/mangakakalot/c2/cowboy_bebop_shooting_star/vol01_chapter_02/40.jpg",
    "https://img-proxy.imgfo.com/?referer=https://manganelo.com&url=https://s41.mkklcdnv6temp.com/mangakakalot/c2/cowboy_bebop_shooting_star/vol01_chapter_02/41.jpg",
    "https://img-proxy.imgfo.com/?referer=https://manganelo.com&url=https://s41.mkklcdnv6temp.com/mangakakalot/c2/cowboy_bebop_shooting_star/vol01_chapter_02/42.jpg",
    "https://img-proxy.imgfo.com/?referer=https://manganelo.com&url=https://s41.mkklcdnv6temp.com/mangakakalot/c2/cowboy_bebop_shooting_star/vol01_chapter_02/43.jpg",
    "https://img-proxy.imgfo.com/?referer=https://manganelo.com&url=https://s41.mkklcdnv6temp.com/mangakakalot/c2/cowboy_bebop_shooting_star/vol01_chapter_02/44.jpg",
    "https://img-proxy.imgfo.com/?referer=https://manganelo.com&url=https://s41.mkklcdnv6temp.com/mangakakalot/c2/cowboy_bebop_shooting_star/vol01_chapter_02/45.jpg",
    "https://img-proxy.imgfo.com/?referer=https://manganelo.com&url=https://s41.mkklcdnv6temp.com/mangakakalot/c2/cowboy_bebop_shooting_star/vol01_chapter_02/46.jpg",
    "https://img-proxy.imgfo.com/?referer=https://manganelo.com&url=https://s41.mkklcdnv6temp.com/mangakakalot/c2/cowboy_bebop_shooting_star/vol01_chapter_02/47.jpg",
    "https://img-proxy.imgfo.com/?referer=https://manganelo.com&url=https://s41.mkklcdnv6temp.com/mangakakalot/c2/cowboy_bebop_shooting_star/vol01_chapter_02/48.jpg",
    "https://img-proxy.imgfo.com/?referer=https://manganelo.com&url=https://s41.mkklcdnv6temp.com/mangakakalot/c2/cowboy_bebop_shooting_star/vol01_chapter_02/49.jpg",
    "https://img-proxy.imgfo.com/?referer=https://manganelo.com&url=https://s41.mkklcdnv6temp.com/mangakakalot/c2/cowboy_bebop_shooting_star/vol01_chapter_02/50.jpg",
    "https://img-proxy.imgfo.com/?referer=https://manganelo.com&url=https://s41.mkklcdnv6temp.com/mangakakalot/c2/cowboy_bebop_shooting_star/vol01_chapter_02/51.jpg",
    "https://img-proxy.imgfo.com/?referer=https://manganelo.com&url=https://s41.mkklcdnv6temp.com/mangakakalot/c2/cowboy_bebop_shooting_star/vol01_chapter_02/52.jpg"
  ]
}