{
  "cover": "https://avt.mkklcdnv6.com/13/g/13-1583488226.jpg",
  "title": "I-Revo",
  "original": "アイレボ-Ice Revolution- ; 冰上革命 ; 冰之旋舞 ; AiRebo ; AiRevo ; I-Revo -Ice Revolution- ; Ice Revolution",
  "genre": "Romance, Shounen, Sports, Manga",
  "author": "Tsutsumi Aya",
  "status": "Completed",
  "backlink": "https://manganu.com/collections/tsutsumi-aya/i-revo/",
  "description": "Being the daughter of a dojo manager, Oosawa Masaki has been practicing nothing but karate. Her chance encounter with a certain young man sparks her interest in figure skating. Can a mannish Masaki transform into a sweet, lovely girl on the skating ring?",
  "language": "English",
  "images": [
    "https://img-proxy.imgfo.com/?referer=https://manganelo.com&url=https://s3.mkklcdnv6temp.com/mangakakalot/i2/irevo/vol1_chapter_2_before_you_learn_to_skate/1.jpg",
    "https://img-proxy.imgfo.com/?referer=https://manganelo.com&url=https://s3.mkklcdnv6temp.com/mangakakalot/i2/irevo/vol1_chapter_2_before_you_learn_to_skate/2.jpg",
    "https://img-proxy.imgfo.com/?referer=https://manganelo.com&url=https://s3.mkklcdnv6temp.com/mangakakalot/i2/irevo/vol1_chapter_2_before_you_learn_to_skate/3.jpg",
    "https://img-proxy.imgfo.com/?referer=https://manganelo.com&url=https://s3.mkklcdnv6temp.com/mangakakalot/i2/irevo/vol1_chapter_2_before_you_learn_to_skate/4.jpg",
    "https://img-proxy.imgfo.com/?referer=https://manganelo.com&url=https://s3.mkklcdnv6temp.com/mangakakalot/i2/irevo/vol1_chapter_2_before_you_learn_to_skate/5.jpg",
    "https://img-proxy.imgfo.com/?referer=https://manganelo.com&url=https://s3.mkklcdnv6temp.com/mangakakalot/i2/irevo/vol1_chapter_2_before_you_learn_to_skate/6.jpg",
    "https://img-proxy.imgfo.com/?referer=https://manganelo.com&url=https://s3.mkklcdnv6temp.com/mangakakalot/i2/irevo/vol1_chapter_2_before_you_learn_to_skate/7.jpg",
    "https://img-proxy.imgfo.com/?referer=https://manganelo.com&url=https://s3.mkklcdnv6temp.com/mangakakalot/i2/irevo/vol1_chapter_2_before_you_learn_to_skate/8.jpg",
    "https://img-proxy.imgfo.com/?referer=https://manganelo.com&url=https://s3.mkklcdnv6temp.com/mangakakalot/i2/irevo/vol1_chapter_2_before_you_learn_to_skate/9.jpg",
    "https://img-proxy.imgfo.com/?referer=https://manganelo.com&url=https://s3.mkklcdnv6temp.com/mangakakalot/i2/irevo/vol1_chapter_2_before_you_learn_to_skate/10.jpg",
    "https://img-proxy.imgfo.com/?referer=https://manganelo.com&url=https://s3.mkklcdnv6temp.com/mangakakalot/i2/irevo/vol1_chapter_2_before_you_learn_to_skate/11.jpg",
    "https://img-proxy.imgfo.com/?referer=https://manganelo.com&url=https://s3.mkklcdnv6temp.com/mangakakalot/i2/irevo/vol1_chapter_2_before_you_learn_to_skate/12.jpg",
    "https://img-proxy.imgfo.com/?referer=https://manganelo.com&url=https://s3.mkklcdnv6temp.com/mangakakalot/i2/irevo/vol1_chapter_2_before_you_learn_to_skate/13.jpg",
    "https://img-proxy.imgfo.com/?referer=https://manganelo.com&url=https://s3.mkklcdnv6temp.com/mangakakalot/i2/irevo/vol1_chapter_2_before_you_learn_to_skate/14.jpg",
    "https://img-proxy.imgfo.com/?referer=https://manganelo.com&url=https://s3.mkklcdnv6temp.com/mangakakalot/i2/irevo/vol1_chapter_2_before_you_learn_to_skate/15.jpg",
    "https://img-proxy.imgfo.com/?referer=https://manganelo.com&url=https://s3.mkklcdnv6temp.com/mangakakalot/i2/irevo/vol1_chapter_2_before_you_learn_to_skate/16.jpg",
    "https://img-proxy.imgfo.com/?referer=https://manganelo.com&url=https://s3.mkklcdnv6temp.com/mangakakalot/i2/irevo/vol1_chapter_2_before_you_learn_to_skate/17.jpg",
    "https://img-proxy.imgfo.com/?referer=https://manganelo.com&url=https://s3.mkklcdnv6temp.com/mangakakalot/i2/irevo/vol1_chapter_2_before_you_learn_to_skate/18.jpg",
    "https://img-proxy.imgfo.com/?referer=https://manganelo.com&url=https://s3.mkklcdnv6temp.com/mangakakalot/i2/irevo/vol1_chapter_2_before_you_learn_to_skate/19.jpg",
    "https://img-proxy.imgfo.com/?referer=https://manganelo.com&url=https://s3.mkklcdnv6temp.com/mangakakalot/i2/irevo/vol1_chapter_2_before_you_learn_to_skate/20.jpg",
    "https://img-proxy.imgfo.com/?referer=https://manganelo.com&url=https://s3.mkklcdnv6temp.com/mangakakalot/i2/irevo/vol1_chapter_2_before_you_learn_to_skate/21.jpg",
    "https://img-proxy.imgfo.com/?referer=https://manganelo.com&url=https://s3.mkklcdnv6temp.com/mangakakalot/i2/irevo/vol1_chapter_2_before_you_learn_to_skate/22.jpg",
    "https://img-proxy.imgfo.com/?referer=https://manganelo.com&url=https://s3.mkklcdnv6temp.com/mangakakalot/i2/irevo/vol1_chapter_2_before_you_learn_to_skate/23.jpg",
    "https://img-proxy.imgfo.com/?referer=https://manganelo.com&url=https://s3.mkklcdnv6temp.com/mangakakalot/i2/irevo/vol1_chapter_2_before_you_learn_to_skate/24.jpg",
    "https://img-proxy.imgfo.com/?referer=https://manganelo.com&url=https://s3.mkklcdnv6temp.com/mangakakalot/i2/irevo/vol1_chapter_2_before_you_learn_to_skate/25.jpg",
    "https://img-proxy.imgfo.com/?referer=https://manganelo.com&url=https://s3.mkklcdnv6temp.com/mangakakalot/i2/irevo/vol1_chapter_2_before_you_learn_to_skate/26.jpg",
    "https://img-proxy.imgfo.com/?referer=https://manganelo.com&url=https://s3.mkklcdnv6temp.com/mangakakalot/i2/irevo/vol1_chapter_2_before_you_learn_to_skate/27.jpg",
    "https://img-proxy.imgfo.com/?referer=https://manganelo.com&url=https://s3.mkklcdnv6temp.com/mangakakalot/i2/irevo/vol1_chapter_2_before_you_learn_to_skate/28.jpg",
    "https://img-proxy.imgfo.com/?referer=https://manganelo.com&url=https://s3.mkklcdnv6temp.com/mangakakalot/i2/irevo/vol1_chapter_2_before_you_learn_to_skate/29.jpg",
    "https://img-proxy.imgfo.com/?referer=https://manganelo.com&url=https://s3.mkklcdnv6temp.com/mangakakalot/i2/irevo/vol1_chapter_2_before_you_learn_to_skate/30.jpg",
    "https://img-proxy.imgfo.com/?referer=https://manganelo.com&url=https://s3.mkklcdnv6temp.com/mangakakalot/i2/irevo/vol1_chapter_2_before_you_learn_to_skate/31.jpg",
    "https://img-proxy.imgfo.com/?referer=https://manganelo.com&url=https://s3.mkklcdnv6temp.com/mangakakalot/i2/irevo/vol1_chapter_2_before_you_learn_to_skate/32.jpg",
    "https://img-proxy.imgfo.com/?referer=https://manganelo.com&url=https://s3.mkklcdnv6temp.com/mangakakalot/i2/irevo/vol1_chapter_2_before_you_learn_to_skate/33.jpg",
    "https://img-proxy.imgfo.com/?referer=https://manganelo.com&url=https://s3.mkklcdnv6temp.com/mangakakalot/i2/irevo/vol1_chapter_2_before_you_learn_to_skate/34.jpg",
    "https://img-proxy.imgfo.com/?referer=https://manganelo.com&url=https://s3.mkklcdnv6temp.com/mangakakalot/i2/irevo/vol1_chapter_2_before_you_learn_to_skate/35.jpg",
    "https://img-proxy.imgfo.com/?referer=https://manganelo.com&url=https://s3.mkklcdnv6temp.com/mangakakalot/i2/irevo/vol1_chapter_2_before_you_learn_to_skate/36.jpg",
    "https://img-proxy.imgfo.com/?referer=https://manganelo.com&url=https://s3.mkklcdnv6temp.com/mangakakalot/i2/irevo/vol1_chapter_2_before_you_learn_to_skate/37.jpg",
    "https://img-proxy.imgfo.com/?referer=https://manganelo.com&url=https://s3.mkklcdnv6temp.com/mangakakalot/i2/irevo/vol1_chapter_2_before_you_learn_to_skate/38.jpg",
    "https://img-proxy.imgfo.com/?referer=https://manganelo.com&url=https://s3.mkklcdnv6temp.com/mangakakalot/i2/irevo/vol1_chapter_2_before_you_learn_to_skate/39.jpg",
    "https://img-proxy.imgfo.com/?referer=https://manganelo.com&url=https://s3.mkklcdnv6temp.com/mangakakalot/i2/irevo/vol1_chapter_2_before_you_learn_to_skate/40.jpg",
    "https://img-proxy.imgfo.com/?referer=https://manganelo.com&url=https://s3.mkklcdnv6temp.com/mangakakalot/i2/irevo/vol1_chapter_2_before_you_learn_to_skate/41.jpg",
    "https://img-proxy.imgfo.com/?referer=https://manganelo.com&url=https://s3.mkklcdnv6temp.com/mangakakalot/i2/irevo/vol1_chapter_2_before_you_learn_to_skate/42.jpg",
    "https://img-proxy.imgfo.com/?referer=https://manganelo.com&url=https://s3.mkklcdnv6temp.com/mangakakalot/i2/irevo/vol1_chapter_2_before_you_learn_to_skate/43.jpg",
    "https://img-proxy.imgfo.com/?referer=https://manganelo.com&url=https://s3.mkklcdnv6temp.com/mangakakalot/i2/irevo/vol1_chapter_2_before_you_learn_to_skate/44.jpg",
    "https://img-proxy.imgfo.com/?referer=https://manganelo.com&url=https://s3.mkklcdnv6temp.com/mangakakalot/i2/irevo/vol1_chapter_2_before_you_learn_to_skate/45.jpg",
    "https://img-proxy.imgfo.com/?referer=https://manganelo.com&url=https://s3.mkklcdnv6temp.com/mangakakalot/i2/irevo/vol1_chapter_2_before_you_learn_to_skate/46.jpg",
    "https://img-proxy.imgfo.com/?referer=https://manganelo.com&url=https://s3.mkklcdnv6temp.com/mangakakalot/i2/irevo/vol1_chapter_2_before_you_learn_to_skate/47.jpg",
    "https://img-proxy.imgfo.com/?referer=https://manganelo.com&url=https://s3.mkklcdnv6temp.com/mangakakalot/i2/irevo/vol1_chapter_2_before_you_learn_to_skate/48.jpg",
    "https://img-proxy.imgfo.com/?referer=https://manganelo.com&url=https://s3.mkklcdnv6temp.com/mangakakalot/i2/irevo/vol1_chapter_2_before_you_learn_to_skate/49.jpg",
    "https://img-proxy.imgfo.com/?referer=https://manganelo.com&url=https://s3.mkklcdnv6temp.com/mangakakalot/i2/irevo/vol1_chapter_2_before_you_learn_to_skate/50.jpg",
    "https://img-proxy.imgfo.com/?referer=https://manganelo.com&url=https://s3.mkklcdnv6temp.com/mangakakalot/i2/irevo/vol1_chapter_2_before_you_learn_to_skate/51.jpg",
    "https://img-proxy.imgfo.com/?referer=https://manganelo.com&url=https://s3.mkklcdnv6temp.com/mangakakalot/i2/irevo/vol1_chapter_2_before_you_learn_to_skate/52.jpg",
    "https://img-proxy.imgfo.com/?referer=https://manganelo.com&url=https://s3.mkklcdnv6temp.com/mangakakalot/i2/irevo/vol1_chapter_2_before_you_learn_to_skate/53.jpg",
    "https://img-proxy.imgfo.com/?referer=https://manganelo.com&url=https://s3.mkklcdnv6temp.com/mangakakalot/i2/irevo/vol1_chapter_2_before_you_learn_to_skate/54.jpg",
    "https://img-proxy.imgfo.com/?referer=https://manganelo.com&url=https://s3.mkklcdnv6temp.com/mangakakalot/i2/irevo/vol1_chapter_2_before_you_learn_to_skate/55.jpg",
    "https://img-proxy.imgfo.com/?referer=https://manganelo.com&url=https://s3.mkklcdnv6temp.com/mangakakalot/i2/irevo/vol1_chapter_2_before_you_learn_to_skate/56.jpg",
    "https://img-proxy.imgfo.com/?referer=https://manganelo.com&url=https://s3.mkklcdnv6temp.com/mangakakalot/i2/irevo/vol1_chapter_2_before_you_learn_to_skate/57.jpg",
    "https://img-proxy.imgfo.com/?referer=https://manganelo.com&url=https://s3.mkklcdnv6temp.com/mangakakalot/i2/irevo/vol1_chapter_2_before_you_learn_to_skate/58.jpg"
  ]
}