{
  "cover": "https://avt.mkklcdnv6.com/50/f/3-1583469654.jpg",
  "title": "Eat-Man",
  "original": "イートマン ; Eatman",
  "genre": "Action, Adventure, Comedy, Sci fi, Shounen, Manga",
  "author": "Yoshitomi Akihito",
  "status": "Completed",
  "backlink": "https://manganu.com/collections/yoshitomi-akihito/eat-man/",
  "description": "From B-U: Eat-man tells the missions of the adventurer/mercenary Bolt Crank. A cool guy that has the ability to manifest from his hands ANYTHING that he ate (hence the name of the manga). He takes on missions from people who are willing to pay the most but he's still an average good guy. Don't worry, it's not a spoiler cuz there are many plot twists. Truly worth reading.\nThere are 19 volumes in total. However Viz only worked on till volume 2 or 3. The rest are scanlated.\nFrom manga jouhou: Eat-Man is a manga by Akihito Yoshitomi, serialized monthly in Dengeki Comics GAO! Anthology. Eat-Man follows the adventures of Bolt Crank a man who has the ability to eat anything(and I do mean ANY thing) and reform it through his arms at any time as he needs it. For example, he eats someone's gun, and he can reform it in his hand and it's fully functional. Being a Mercenary for hire, this ability naturally comes in handy.\nThe stories of Eat-Man follow Bolt Crank as he goes through various jobs, or sometimes back to an old acquaintance for a favor or to finish a job started a long time ago. There isn't a consistent plotline overall, most of the time each story is a one-shot, with sometimes two-parters. Some details from previous stories are carried over, and characters come back to make other appearances in later stories.",
  "language": "English",
  "images": [
    "https://img-proxy.imgfo.com/?referer=https://manganelo.com&url=https://s41.mkklcdnv6temp.com/mangakakalot/e1/eatman/vol19_chapter_81_omen/1.jpg",
    "https://img-proxy.imgfo.com/?referer=https://manganelo.com&url=https://s41.mkklcdnv6temp.com/mangakakalot/e1/eatman/vol19_chapter_81_omen/2.jpg",
    "https://img-proxy.imgfo.com/?referer=https://manganelo.com&url=https://s41.mkklcdnv6temp.com/mangakakalot/e1/eatman/vol19_chapter_81_omen/3.jpg",
    "https://img-proxy.imgfo.com/?referer=https://manganelo.com&url=https://s41.mkklcdnv6temp.com/mangakakalot/e1/eatman/vol19_chapter_81_omen/4.jpg",
    "https://img-proxy.imgfo.com/?referer=https://manganelo.com&url=https://s41.mkklcdnv6temp.com/mangakakalot/e1/eatman/vol19_chapter_81_omen/5.jpg",
    "https://img-proxy.imgfo.com/?referer=https://manganelo.com&url=https://s41.mkklcdnv6temp.com/mangakakalot/e1/eatman/vol19_chapter_81_omen/6.jpg",
    "https://img-proxy.imgfo.com/?referer=https://manganelo.com&url=https://s41.mkklcdnv6temp.com/mangakakalot/e1/eatman/vol19_chapter_81_omen/7.jpg",
    "https://img-proxy.imgfo.com/?referer=https://manganelo.com&url=https://s41.mkklcdnv6temp.com/mangakakalot/e1/eatman/vol19_chapter_81_omen/8.jpg",
    "https://img-proxy.imgfo.com/?referer=https://manganelo.com&url=https://s41.mkklcdnv6temp.com/mangakakalot/e1/eatman/vol19_chapter_81_omen/9.jpg",
    "https://img-proxy.imgfo.com/?referer=https://manganelo.com&url=https://s41.mkklcdnv6temp.com/mangakakalot/e1/eatman/vol19_chapter_81_omen/10.jpg",
    "https://img-proxy.imgfo.com/?referer=https://manganelo.com&url=https://s41.mkklcdnv6temp.com/mangakakalot/e1/eatman/vol19_chapter_81_omen/11.jpg",
    "https://img-proxy.imgfo.com/?referer=https://manganelo.com&url=https://s41.mkklcdnv6temp.com/mangakakalot/e1/eatman/vol19_chapter_81_omen/12.jpg",
    "https://img-proxy.imgfo.com/?referer=https://manganelo.com&url=https://s41.mkklcdnv6temp.com/mangakakalot/e1/eatman/vol19_chapter_81_omen/13.jpg",
    "https://img-proxy.imgfo.com/?referer=https://manganelo.com&url=https://s41.mkklcdnv6temp.com/mangakakalot/e1/eatman/vol19_chapter_81_omen/14.jpg",
    "https://img-proxy.imgfo.com/?referer=https://manganelo.com&url=https://s41.mkklcdnv6temp.com/mangakakalot/e1/eatman/vol19_chapter_81_omen/15.jpg",
    "https://img-proxy.imgfo.com/?referer=https://manganelo.com&url=https://s41.mkklcdnv6temp.com/mangakakalot/e1/eatman/vol19_chapter_81_omen/16.jpg",
    "https://img-proxy.imgfo.com/?referer=https://manganelo.com&url=https://s41.mkklcdnv6temp.com/mangakakalot/e1/eatman/vol19_chapter_81_omen/17.jpg",
    "https://img-proxy.imgfo.com/?referer=https://manganelo.com&url=https://s41.mkklcdnv6temp.com/mangakakalot/e1/eatman/vol19_chapter_81_omen/18.jpg",
    "https://img-proxy.imgfo.com/?referer=https://manganelo.com&url=https://s41.mkklcdnv6temp.com/mangakakalot/e1/eatman/vol19_chapter_81_omen/19.jpg",
    "https://img-proxy.imgfo.com/?referer=https://manganelo.com&url=https://s41.mkklcdnv6temp.com/mangakakalot/e1/eatman/vol19_chapter_81_omen/20.jpg",
    "https://img-proxy.imgfo.com/?referer=https://manganelo.com&url=https://s41.mkklcdnv6temp.com/mangakakalot/e1/eatman/vol19_chapter_81_omen/21.jpg",
    "https://img-proxy.imgfo.com/?referer=https://manganelo.com&url=https://s41.mkklcdnv6temp.com/mangakakalot/e1/eatman/vol19_chapter_81_omen/22.jpg",
    "https://img-proxy.imgfo.com/?referer=https://manganelo.com&url=https://s41.mkklcdnv6temp.com/mangakakalot/e1/eatman/vol19_chapter_81_omen/23.jpg",
    "https://img-proxy.imgfo.com/?referer=https://manganelo.com&url=https://s41.mkklcdnv6temp.com/mangakakalot/e1/eatman/vol19_chapter_81_omen/24.jpg",
    "https://img-proxy.imgfo.com/?referer=https://manganelo.com&url=https://s41.mkklcdnv6temp.com/mangakakalot/e1/eatman/vol19_chapter_81_omen/25.jpg",
    "https://img-proxy.imgfo.com/?referer=https://manganelo.com&url=https://s41.mkklcdnv6temp.com/mangakakalot/e1/eatman/vol19_chapter_81_omen/26.jpg",
    "https://img-proxy.imgfo.com/?referer=https://manganelo.com&url=https://s41.mkklcdnv6temp.com/mangakakalot/e1/eatman/vol19_chapter_81_omen/27.jpg",
    "https://img-proxy.imgfo.com/?referer=https://manganelo.com&url=https://s41.mkklcdnv6temp.com/mangakakalot/e1/eatman/vol19_chapter_81_omen/28.jpg",
    "https://img-proxy.imgfo.com/?referer=https://manganelo.com&url=https://s41.mkklcdnv6temp.com/mangakakalot/e1/eatman/vol19_chapter_81_omen/29.jpg",
    "https://img-proxy.imgfo.com/?referer=https://manganelo.com&url=https://s41.mkklcdnv6temp.com/mangakakalot/e1/eatman/vol19_chapter_81_omen/30.jpg",
    "https://img-proxy.imgfo.com/?referer=https://manganelo.com&url=https://s41.mkklcdnv6temp.com/mangakakalot/e1/eatman/vol19_chapter_81_omen/31.jpg",
    "https://img-proxy.imgfo.com/?referer=https://manganelo.com&url=https://s41.mkklcdnv6temp.com/mangakakalot/e1/eatman/vol19_chapter_81_omen/32.jpg",
    "https://img-proxy.imgfo.com/?referer=https://manganelo.com&url=https://s41.mkklcdnv6temp.com/mangakakalot/e1/eatman/vol19_chapter_81_omen/33.jpg"
  ]
}