{
  "cover": "https://avt.mkklcdnv6.com/50/f/3-1583469654.jpg",
  "title": "Eat-Man",
  "original": "イートマン ; Eatman",
  "genre": "Action, Adventure, Comedy, Sci fi, Shounen, Manga",
  "author": "Yoshitomi Akihito",
  "status": "Completed",
  "backlink": "https://manganu.com/collections/yoshitomi-akihito/eat-man/",
  "description": "From B-U: Eat-man tells the missions of the adventurer/mercenary Bolt Crank. A cool guy that has the ability to manifest from his hands ANYTHING that he ate (hence the name of the manga). He takes on missions from people who are willing to pay the most but he's still an average good guy. Don't worry, it's not a spoiler cuz there are many plot twists. Truly worth reading.\nThere are 19 volumes in total. However Viz only worked on till volume 2 or 3. The rest are scanlated.\nFrom manga jouhou: Eat-Man is a manga by Akihito Yoshitomi, serialized monthly in Dengeki Comics GAO! Anthology. Eat-Man follows the adventures of Bolt Crank a man who has the ability to eat anything(and I do mean ANY thing) and reform it through his arms at any time as he needs it. For example, he eats someone's gun, and he can reform it in his hand and it's fully functional. Being a Mercenary for hire, this ability naturally comes in handy.\nThe stories of Eat-Man follow Bolt Crank as he goes through various jobs, or sometimes back to an old acquaintance for a favor or to finish a job started a long time ago. There isn't a consistent plotline overall, most of the time each story is a one-shot, with sometimes two-parters. Some details from previous stories are carried over, and characters come back to make other appearances in later stories.",
  "language": "English",
  "images": [
    "https://img-proxy.imgfo.com/?referer=https://manganelo.com&url=https://s41.mkklcdnv6temp.com/mangakakalot/e1/eatman/vol6_chapter_18_18_circus_19_a_flower_petal_20_thief/1.jpg",
    "https://img-proxy.imgfo.com/?referer=https://manganelo.com&url=https://s41.mkklcdnv6temp.com/mangakakalot/e1/eatman/vol6_chapter_18_18_circus_19_a_flower_petal_20_thief/2.jpg",
    "https://img-proxy.imgfo.com/?referer=https://manganelo.com&url=https://s41.mkklcdnv6temp.com/mangakakalot/e1/eatman/vol6_chapter_18_18_circus_19_a_flower_petal_20_thief/3.jpg",
    "https://img-proxy.imgfo.com/?referer=https://manganelo.com&url=https://s41.mkklcdnv6temp.com/mangakakalot/e1/eatman/vol6_chapter_18_18_circus_19_a_flower_petal_20_thief/4.jpg",
    "https://img-proxy.imgfo.com/?referer=https://manganelo.com&url=https://s41.mkklcdnv6temp.com/mangakakalot/e1/eatman/vol6_chapter_18_18_circus_19_a_flower_petal_20_thief/5.jpg",
    "https://img-proxy.imgfo.com/?referer=https://manganelo.com&url=https://s41.mkklcdnv6temp.com/mangakakalot/e1/eatman/vol6_chapter_18_18_circus_19_a_flower_petal_20_thief/6.jpg",
    "https://img-proxy.imgfo.com/?referer=https://manganelo.com&url=https://s41.mkklcdnv6temp.com/mangakakalot/e1/eatman/vol6_chapter_18_18_circus_19_a_flower_petal_20_thief/7.jpg",
    "https://img-proxy.imgfo.com/?referer=https://manganelo.com&url=https://s41.mkklcdnv6temp.com/mangakakalot/e1/eatman/vol6_chapter_18_18_circus_19_a_flower_petal_20_thief/8.jpg",
    "https://img-proxy.imgfo.com/?referer=https://manganelo.com&url=https://s41.mkklcdnv6temp.com/mangakakalot/e1/eatman/vol6_chapter_18_18_circus_19_a_flower_petal_20_thief/9.jpg",
    "https://img-proxy.imgfo.com/?referer=https://manganelo.com&url=https://s41.mkklcdnv6temp.com/mangakakalot/e1/eatman/vol6_chapter_18_18_circus_19_a_flower_petal_20_thief/10.jpg",
    "https://img-proxy.imgfo.com/?referer=https://manganelo.com&url=https://s41.mkklcdnv6temp.com/mangakakalot/e1/eatman/vol6_chapter_18_18_circus_19_a_flower_petal_20_thief/11.jpg",
    "https://img-proxy.imgfo.com/?referer=https://manganelo.com&url=https://s41.mkklcdnv6temp.com/mangakakalot/e1/eatman/vol6_chapter_18_18_circus_19_a_flower_petal_20_thief/12.jpg",
    "https://img-proxy.imgfo.com/?referer=https://manganelo.com&url=https://s41.mkklcdnv6temp.com/mangakakalot/e1/eatman/vol6_chapter_18_18_circus_19_a_flower_petal_20_thief/13.jpg",
    "https://img-proxy.imgfo.com/?referer=https://manganelo.com&url=https://s41.mkklcdnv6temp.com/mangakakalot/e1/eatman/vol6_chapter_18_18_circus_19_a_flower_petal_20_thief/14.jpg",
    "https://img-proxy.imgfo.com/?referer=https://manganelo.com&url=https://s41.mkklcdnv6temp.com/mangakakalot/e1/eatman/vol6_chapter_18_18_circus_19_a_flower_petal_20_thief/15.jpg",
    "https://img-proxy.imgfo.com/?referer=https://manganelo.com&url=https://s41.mkklcdnv6temp.com/mangakakalot/e1/eatman/vol6_chapter_18_18_circus_19_a_flower_petal_20_thief/16.jpg",
    "https://img-proxy.imgfo.com/?referer=https://manganelo.com&url=https://s41.mkklcdnv6temp.com/mangakakalot/e1/eatman/vol6_chapter_18_18_circus_19_a_flower_petal_20_thief/17.jpg",
    "https://img-proxy.imgfo.com/?referer=https://manganelo.com&url=https://s41.mkklcdnv6temp.com/mangakakalot/e1/eatman/vol6_chapter_18_18_circus_19_a_flower_petal_20_thief/18.jpg",
    "https://img-proxy.imgfo.com/?referer=https://manganelo.com&url=https://s41.mkklcdnv6temp.com/mangakakalot/e1/eatman/vol6_chapter_18_18_circus_19_a_flower_petal_20_thief/19.jpg",
    "https://img-proxy.imgfo.com/?referer=https://manganelo.com&url=https://s41.mkklcdnv6temp.com/mangakakalot/e1/eatman/vol6_chapter_18_18_circus_19_a_flower_petal_20_thief/20.jpg",
    "https://img-proxy.imgfo.com/?referer=https://manganelo.com&url=https://s41.mkklcdnv6temp.com/mangakakalot/e1/eatman/vol6_chapter_18_18_circus_19_a_flower_petal_20_thief/21.jpg",
    "https://img-proxy.imgfo.com/?referer=https://manganelo.com&url=https://s41.mkklcdnv6temp.com/mangakakalot/e1/eatman/vol6_chapter_18_18_circus_19_a_flower_petal_20_thief/22.jpg",
    "https://img-proxy.imgfo.com/?referer=https://manganelo.com&url=https://s41.mkklcdnv6temp.com/mangakakalot/e1/eatman/vol6_chapter_18_18_circus_19_a_flower_petal_20_thief/23.jpg",
    "https://img-proxy.imgfo.com/?referer=https://manganelo.com&url=https://s41.mkklcdnv6temp.com/mangakakalot/e1/eatman/vol6_chapter_18_18_circus_19_a_flower_petal_20_thief/24.jpg",
    "https://img-proxy.imgfo.com/?referer=https://manganelo.com&url=https://s41.mkklcdnv6temp.com/mangakakalot/e1/eatman/vol6_chapter_18_18_circus_19_a_flower_petal_20_thief/25.jpg",
    "https://img-proxy.imgfo.com/?referer=https://manganelo.com&url=https://s41.mkklcdnv6temp.com/mangakakalot/e1/eatman/vol6_chapter_18_18_circus_19_a_flower_petal_20_thief/26.jpg",
    "https://img-proxy.imgfo.com/?referer=https://manganelo.com&url=https://s41.mkklcdnv6temp.com/mangakakalot/e1/eatman/vol6_chapter_18_18_circus_19_a_flower_petal_20_thief/27.jpg",
    "https://img-proxy.imgfo.com/?referer=https://manganelo.com&url=https://s41.mkklcdnv6temp.com/mangakakalot/e1/eatman/vol6_chapter_18_18_circus_19_a_flower_petal_20_thief/28.jpg",
    "https://img-proxy.imgfo.com/?referer=https://manganelo.com&url=https://s41.mkklcdnv6temp.com/mangakakalot/e1/eatman/vol6_chapter_18_18_circus_19_a_flower_petal_20_thief/29.jpg",
    "https://img-proxy.imgfo.com/?referer=https://manganelo.com&url=https://s41.mkklcdnv6temp.com/mangakakalot/e1/eatman/vol6_chapter_18_18_circus_19_a_flower_petal_20_thief/30.jpg",
    "https://img-proxy.imgfo.com/?referer=https://manganelo.com&url=https://s41.mkklcdnv6temp.com/mangakakalot/e1/eatman/vol6_chapter_18_18_circus_19_a_flower_petal_20_thief/31.jpg",
    "https://img-proxy.imgfo.com/?referer=https://manganelo.com&url=https://s41.mkklcdnv6temp.com/mangakakalot/e1/eatman/vol6_chapter_18_18_circus_19_a_flower_petal_20_thief/32.jpg",
    "https://img-proxy.imgfo.com/?referer=https://manganelo.com&url=https://s41.mkklcdnv6temp.com/mangakakalot/e1/eatman/vol6_chapter_18_18_circus_19_a_flower_petal_20_thief/33.jpg",
    "https://img-proxy.imgfo.com/?referer=https://manganelo.com&url=https://s41.mkklcdnv6temp.com/mangakakalot/e1/eatman/vol6_chapter_18_18_circus_19_a_flower_petal_20_thief/34.jpg",
    "https://img-proxy.imgfo.com/?referer=https://manganelo.com&url=https://s41.mkklcdnv6temp.com/mangakakalot/e1/eatman/vol6_chapter_18_18_circus_19_a_flower_petal_20_thief/35.jpg",
    "https://img-proxy.imgfo.com/?referer=https://manganelo.com&url=https://s41.mkklcdnv6temp.com/mangakakalot/e1/eatman/vol6_chapter_18_18_circus_19_a_flower_petal_20_thief/36.jpg",
    "https://img-proxy.imgfo.com/?referer=https://manganelo.com&url=https://s41.mkklcdnv6temp.com/mangakakalot/e1/eatman/vol6_chapter_18_18_circus_19_a_flower_petal_20_thief/37.jpg",
    "https://img-proxy.imgfo.com/?referer=https://manganelo.com&url=https://s41.mkklcdnv6temp.com/mangakakalot/e1/eatman/vol6_chapter_18_18_circus_19_a_flower_petal_20_thief/38.jpg",
    "https://img-proxy.imgfo.com/?referer=https://manganelo.com&url=https://s41.mkklcdnv6temp.com/mangakakalot/e1/eatman/vol6_chapter_18_18_circus_19_a_flower_petal_20_thief/39.jpg",
    "https://img-proxy.imgfo.com/?referer=https://manganelo.com&url=https://s41.mkklcdnv6temp.com/mangakakalot/e1/eatman/vol6_chapter_18_18_circus_19_a_flower_petal_20_thief/40.jpg",
    "https://img-proxy.imgfo.com/?referer=https://manganelo.com&url=https://s41.mkklcdnv6temp.com/mangakakalot/e1/eatman/vol6_chapter_18_18_circus_19_a_flower_petal_20_thief/41.jpg",
    "https://img-proxy.imgfo.com/?referer=https://manganelo.com&url=https://s41.mkklcdnv6temp.com/mangakakalot/e1/eatman/vol6_chapter_18_18_circus_19_a_flower_petal_20_thief/42.jpg",
    "https://img-proxy.imgfo.com/?referer=https://manganelo.com&url=https://s41.mkklcdnv6temp.com/mangakakalot/e1/eatman/vol6_chapter_18_18_circus_19_a_flower_petal_20_thief/43.jpg",
    "https://img-proxy.imgfo.com/?referer=https://manganelo.com&url=https://s41.mkklcdnv6temp.com/mangakakalot/e1/eatman/vol6_chapter_18_18_circus_19_a_flower_petal_20_thief/44.jpg",
    "https://img-proxy.imgfo.com/?referer=https://manganelo.com&url=https://s41.mkklcdnv6temp.com/mangakakalot/e1/eatman/vol6_chapter_18_18_circus_19_a_flower_petal_20_thief/45.jpg",
    "https://img-proxy.imgfo.com/?referer=https://manganelo.com&url=https://s41.mkklcdnv6temp.com/mangakakalot/e1/eatman/vol6_chapter_18_18_circus_19_a_flower_petal_20_thief/46.jpg",
    "https://img-proxy.imgfo.com/?referer=https://manganelo.com&url=https://s41.mkklcdnv6temp.com/mangakakalot/e1/eatman/vol6_chapter_18_18_circus_19_a_flower_petal_20_thief/47.jpg",
    "https://img-proxy.imgfo.com/?referer=https://manganelo.com&url=https://s41.mkklcdnv6temp.com/mangakakalot/e1/eatman/vol6_chapter_18_18_circus_19_a_flower_petal_20_thief/48.jpg",
    "https://img-proxy.imgfo.com/?referer=https://manganelo.com&url=https://s41.mkklcdnv6temp.com/mangakakalot/e1/eatman/vol6_chapter_18_18_circus_19_a_flower_petal_20_thief/49.jpg",
    "https://img-proxy.imgfo.com/?referer=https://manganelo.com&url=https://s41.mkklcdnv6temp.com/mangakakalot/e1/eatman/vol6_chapter_18_18_circus_19_a_flower_petal_20_thief/50.jpg",
    "https://img-proxy.imgfo.com/?referer=https://manganelo.com&url=https://s41.mkklcdnv6temp.com/mangakakalot/e1/eatman/vol6_chapter_18_18_circus_19_a_flower_petal_20_thief/51.jpg",
    "https://img-proxy.imgfo.com/?referer=https://manganelo.com&url=https://s41.mkklcdnv6temp.com/mangakakalot/e1/eatman/vol6_chapter_18_18_circus_19_a_flower_petal_20_thief/52.jpg",
    "https://img-proxy.imgfo.com/?referer=https://manganelo.com&url=https://s41.mkklcdnv6temp.com/mangakakalot/e1/eatman/vol6_chapter_18_18_circus_19_a_flower_petal_20_thief/53.jpg",
    "https://img-proxy.imgfo.com/?referer=https://manganelo.com&url=https://s41.mkklcdnv6temp.com/mangakakalot/e1/eatman/vol6_chapter_18_18_circus_19_a_flower_petal_20_thief/54.jpg",
    "https://img-proxy.imgfo.com/?referer=https://manganelo.com&url=https://s41.mkklcdnv6temp.com/mangakakalot/e1/eatman/vol6_chapter_18_18_circus_19_a_flower_petal_20_thief/55.jpg",
    "https://img-proxy.imgfo.com/?referer=https://manganelo.com&url=https://s41.mkklcdnv6temp.com/mangakakalot/e1/eatman/vol6_chapter_18_18_circus_19_a_flower_petal_20_thief/56.jpg",
    "https://img-proxy.imgfo.com/?referer=https://manganelo.com&url=https://s41.mkklcdnv6temp.com/mangakakalot/e1/eatman/vol6_chapter_18_18_circus_19_a_flower_petal_20_thief/57.jpg",
    "https://img-proxy.imgfo.com/?referer=https://manganelo.com&url=https://s41.mkklcdnv6temp.com/mangakakalot/e1/eatman/vol6_chapter_18_18_circus_19_a_flower_petal_20_thief/58.jpg",
    "https://img-proxy.imgfo.com/?referer=https://manganelo.com&url=https://s41.mkklcdnv6temp.com/mangakakalot/e1/eatman/vol6_chapter_18_18_circus_19_a_flower_petal_20_thief/59.jpg",
    "https://img-proxy.imgfo.com/?referer=https://manganelo.com&url=https://s41.mkklcdnv6temp.com/mangakakalot/e1/eatman/vol6_chapter_18_18_circus_19_a_flower_petal_20_thief/60.jpg",
    "https://img-proxy.imgfo.com/?referer=https://manganelo.com&url=https://s41.mkklcdnv6temp.com/mangakakalot/e1/eatman/vol6_chapter_18_18_circus_19_a_flower_petal_20_thief/61.jpg",
    "https://img-proxy.imgfo.com/?referer=https://manganelo.com&url=https://s41.mkklcdnv6temp.com/mangakakalot/e1/eatman/vol6_chapter_18_18_circus_19_a_flower_petal_20_thief/62.jpg",
    "https://img-proxy.imgfo.com/?referer=https://manganelo.com&url=https://s41.mkklcdnv6temp.com/mangakakalot/e1/eatman/vol6_chapter_18_18_circus_19_a_flower_petal_20_thief/63.jpg",
    "https://img-proxy.imgfo.com/?referer=https://manganelo.com&url=https://s41.mkklcdnv6temp.com/mangakakalot/e1/eatman/vol6_chapter_18_18_circus_19_a_flower_petal_20_thief/64.jpg",
    "https://img-proxy.imgfo.com/?referer=https://manganelo.com&url=https://s41.mkklcdnv6temp.com/mangakakalot/e1/eatman/vol6_chapter_18_18_circus_19_a_flower_petal_20_thief/65.jpg",
    "https://img-proxy.imgfo.com/?referer=https://manganelo.com&url=https://s41.mkklcdnv6temp.com/mangakakalot/e1/eatman/vol6_chapter_18_18_circus_19_a_flower_petal_20_thief/66.jpg",
    "https://img-proxy.imgfo.com/?referer=https://manganelo.com&url=https://s41.mkklcdnv6temp.com/mangakakalot/e1/eatman/vol6_chapter_18_18_circus_19_a_flower_petal_20_thief/67.jpg",
    "https://img-proxy.imgfo.com/?referer=https://manganelo.com&url=https://s41.mkklcdnv6temp.com/mangakakalot/e1/eatman/vol6_chapter_18_18_circus_19_a_flower_petal_20_thief/68.jpg",
    "https://img-proxy.imgfo.com/?referer=https://manganelo.com&url=https://s41.mkklcdnv6temp.com/mangakakalot/e1/eatman/vol6_chapter_18_18_circus_19_a_flower_petal_20_thief/69.jpg",
    "https://img-proxy.imgfo.com/?referer=https://manganelo.com&url=https://s41.mkklcdnv6temp.com/mangakakalot/e1/eatman/vol6_chapter_18_18_circus_19_a_flower_petal_20_thief/70.jpg",
    "https://img-proxy.imgfo.com/?referer=https://manganelo.com&url=https://s41.mkklcdnv6temp.com/mangakakalot/e1/eatman/vol6_chapter_18_18_circus_19_a_flower_petal_20_thief/71.jpg",
    "https://img-proxy.imgfo.com/?referer=https://manganelo.com&url=https://s41.mkklcdnv6temp.com/mangakakalot/e1/eatman/vol6_chapter_18_18_circus_19_a_flower_petal_20_thief/72.jpg",
    "https://img-proxy.imgfo.com/?referer=https://manganelo.com&url=https://s41.mkklcdnv6temp.com/mangakakalot/e1/eatman/vol6_chapter_18_18_circus_19_a_flower_petal_20_thief/73.jpg",
    "https://img-proxy.imgfo.com/?referer=https://manganelo.com&url=https://s41.mkklcdnv6temp.com/mangakakalot/e1/eatman/vol6_chapter_18_18_circus_19_a_flower_petal_20_thief/74.jpg",
    "https://img-proxy.imgfo.com/?referer=https://manganelo.com&url=https://s41.mkklcdnv6temp.com/mangakakalot/e1/eatman/vol6_chapter_18_18_circus_19_a_flower_petal_20_thief/75.jpg",
    "https://img-proxy.imgfo.com/?referer=https://manganelo.com&url=https://s41.mkklcdnv6temp.com/mangakakalot/e1/eatman/vol6_chapter_18_18_circus_19_a_flower_petal_20_thief/76.jpg",
    "https://img-proxy.imgfo.com/?referer=https://manganelo.com&url=https://s41.mkklcdnv6temp.com/mangakakalot/e1/eatman/vol6_chapter_18_18_circus_19_a_flower_petal_20_thief/77.jpg",
    "https://img-proxy.imgfo.com/?referer=https://manganelo.com&url=https://s41.mkklcdnv6temp.com/mangakakalot/e1/eatman/vol6_chapter_18_18_circus_19_a_flower_petal_20_thief/78.jpg",
    "https://img-proxy.imgfo.com/?referer=https://manganelo.com&url=https://s41.mkklcdnv6temp.com/mangakakalot/e1/eatman/vol6_chapter_18_18_circus_19_a_flower_petal_20_thief/79.jpg",
    "https://img-proxy.imgfo.com/?referer=https://manganelo.com&url=https://s41.mkklcdnv6temp.com/mangakakalot/e1/eatman/vol6_chapter_18_18_circus_19_a_flower_petal_20_thief/80.jpg",
    "https://img-proxy.imgfo.com/?referer=https://manganelo.com&url=https://s41.mkklcdnv6temp.com/mangakakalot/e1/eatman/vol6_chapter_18_18_circus_19_a_flower_petal_20_thief/81.jpg",
    "https://img-proxy.imgfo.com/?referer=https://manganelo.com&url=https://s41.mkklcdnv6temp.com/mangakakalot/e1/eatman/vol6_chapter_18_18_circus_19_a_flower_petal_20_thief/82.jpg",
    "https://img-proxy.imgfo.com/?referer=https://manganelo.com&url=https://s41.mkklcdnv6temp.com/mangakakalot/e1/eatman/vol6_chapter_18_18_circus_19_a_flower_petal_20_thief/83.jpg",
    "https://img-proxy.imgfo.com/?referer=https://manganelo.com&url=https://s41.mkklcdnv6temp.com/mangakakalot/e1/eatman/vol6_chapter_18_18_circus_19_a_flower_petal_20_thief/84.jpg",
    "https://img-proxy.imgfo.com/?referer=https://manganelo.com&url=https://s41.mkklcdnv6temp.com/mangakakalot/e1/eatman/vol6_chapter_18_18_circus_19_a_flower_petal_20_thief/85.jpg",
    "https://img-proxy.imgfo.com/?referer=https://manganelo.com&url=https://s41.mkklcdnv6temp.com/mangakakalot/e1/eatman/vol6_chapter_18_18_circus_19_a_flower_petal_20_thief/86.jpg",
    "https://img-proxy.imgfo.com/?referer=https://manganelo.com&url=https://s41.mkklcdnv6temp.com/mangakakalot/e1/eatman/vol6_chapter_18_18_circus_19_a_flower_petal_20_thief/87.jpg",
    "https://img-proxy.imgfo.com/?referer=https://manganelo.com&url=https://s41.mkklcdnv6temp.com/mangakakalot/e1/eatman/vol6_chapter_18_18_circus_19_a_flower_petal_20_thief/88.jpg",
    "https://img-proxy.imgfo.com/?referer=https://manganelo.com&url=https://s41.mkklcdnv6temp.com/mangakakalot/e1/eatman/vol6_chapter_18_18_circus_19_a_flower_petal_20_thief/89.jpg",
    "https://img-proxy.imgfo.com/?referer=https://manganelo.com&url=https://s41.mkklcdnv6temp.com/mangakakalot/e1/eatman/vol6_chapter_18_18_circus_19_a_flower_petal_20_thief/90.jpg",
    "https://img-proxy.imgfo.com/?referer=https://manganelo.com&url=https://s41.mkklcdnv6temp.com/mangakakalot/e1/eatman/vol6_chapter_18_18_circus_19_a_flower_petal_20_thief/91.jpg",
    "https://img-proxy.imgfo.com/?referer=https://manganelo.com&url=https://s41.mkklcdnv6temp.com/mangakakalot/e1/eatman/vol6_chapter_18_18_circus_19_a_flower_petal_20_thief/92.jpg",
    "https://img-proxy.imgfo.com/?referer=https://manganelo.com&url=https://s41.mkklcdnv6temp.com/mangakakalot/e1/eatman/vol6_chapter_18_18_circus_19_a_flower_petal_20_thief/93.jpg",
    "https://img-proxy.imgfo.com/?referer=https://manganelo.com&url=https://s41.mkklcdnv6temp.com/mangakakalot/e1/eatman/vol6_chapter_18_18_circus_19_a_flower_petal_20_thief/94.jpg",
    "https://img-proxy.imgfo.com/?referer=https://manganelo.com&url=https://s41.mkklcdnv6temp.com/mangakakalot/e1/eatman/vol6_chapter_18_18_circus_19_a_flower_petal_20_thief/95.jpg",
    "https://img-proxy.imgfo.com/?referer=https://manganelo.com&url=https://s41.mkklcdnv6temp.com/mangakakalot/e1/eatman/vol6_chapter_18_18_circus_19_a_flower_petal_20_thief/96.jpg",
    "https://img-proxy.imgfo.com/?referer=https://manganelo.com&url=https://s41.mkklcdnv6temp.com/mangakakalot/e1/eatman/vol6_chapter_18_18_circus_19_a_flower_petal_20_thief/97.jpg",
    "https://img-proxy.imgfo.com/?referer=https://manganelo.com&url=https://s41.mkklcdnv6temp.com/mangakakalot/e1/eatman/vol6_chapter_18_18_circus_19_a_flower_petal_20_thief/98.jpg",
    "https://img-proxy.imgfo.com/?referer=https://manganelo.com&url=https://s41.mkklcdnv6temp.com/mangakakalot/e1/eatman/vol6_chapter_18_18_circus_19_a_flower_petal_20_thief/99.jpg",
    "https://img-proxy.imgfo.com/?referer=https://manganelo.com&url=https://s41.mkklcdnv6temp.com/mangakakalot/e1/eatman/vol6_chapter_18_18_circus_19_a_flower_petal_20_thief/100.jpg",
    "https://img-proxy.imgfo.com/?referer=https://manganelo.com&url=https://s41.mkklcdnv6temp.com/mangakakalot/e1/eatman/vol6_chapter_18_18_circus_19_a_flower_petal_20_thief/101.jpg",
    "https://img-proxy.imgfo.com/?referer=https://manganelo.com&url=https://s41.mkklcdnv6temp.com/mangakakalot/e1/eatman/vol6_chapter_18_18_circus_19_a_flower_petal_20_thief/102.jpg",
    "https://img-proxy.imgfo.com/?referer=https://manganelo.com&url=https://s41.mkklcdnv6temp.com/mangakakalot/e1/eatman/vol6_chapter_18_18_circus_19_a_flower_petal_20_thief/103.jpg",
    "https://img-proxy.imgfo.com/?referer=https://manganelo.com&url=https://s41.mkklcdnv6temp.com/mangakakalot/e1/eatman/vol6_chapter_18_18_circus_19_a_flower_petal_20_thief/104.jpg"
  ]
}