{
  "cover": "https://avt.mkklcdnv6.com/7/m/7-1583476582.jpg",
  "title": "Ageha",
  "original": "アゲハ ; 蝴蝶 ; 蝴蝶Butterfly ; Butterfly (SAKURAI Ami)",
  "genre": "Drama, Psychological, Romance, Shoujo, Tragedy, Manga",
  "author": "Sakurai Ami",
  "status": "Completed",
  "backlink": "https://manganu.com/collections/sakurai-ami/ageha/",
  "description": "From Serenus-Dreamers:\n1. Ageha\nYuuri and Miu had always been best friends. They tried hard together to become fashion models. However, Miu got to debut first, and their relationship started to break down. Surging dark feelings and jealousy... what is there beyond Yuuri’s agony…?!\n2. Eternal Rainbow\n3. Kiss Me, Baby",
  "language": "English",
  "images": [
    "https://img-proxy.imgfo.com/?referer=https://manganelo.com&url=https://s7.mkklcdnv6temp.com/mangakakalot/a1/ageha/vol1_chapter_3_kiss_me_baby/1.jpg",
    "https://img-proxy.imgfo.com/?referer=https://manganelo.com&url=https://s7.mkklcdnv6temp.com/mangakakalot/a1/ageha/vol1_chapter_3_kiss_me_baby/2.jpg",
    "https://img-proxy.imgfo.com/?referer=https://manganelo.com&url=https://s7.mkklcdnv6temp.com/mangakakalot/a1/ageha/vol1_chapter_3_kiss_me_baby/3.jpg",
    "https://img-proxy.imgfo.com/?referer=https://manganelo.com&url=https://s7.mkklcdnv6temp.com/mangakakalot/a1/ageha/vol1_chapter_3_kiss_me_baby/4.jpg",
    "https://img-proxy.imgfo.com/?referer=https://manganelo.com&url=https://s7.mkklcdnv6temp.com/mangakakalot/a1/ageha/vol1_chapter_3_kiss_me_baby/5.jpg",
    "https://img-proxy.imgfo.com/?referer=https://manganelo.com&url=https://s7.mkklcdnv6temp.com/mangakakalot/a1/ageha/vol1_chapter_3_kiss_me_baby/6.jpg",
    "https://img-proxy.imgfo.com/?referer=https://manganelo.com&url=https://s7.mkklcdnv6temp.com/mangakakalot/a1/ageha/vol1_chapter_3_kiss_me_baby/7.jpg",
    "https://img-proxy.imgfo.com/?referer=https://manganelo.com&url=https://s7.mkklcdnv6temp.com/mangakakalot/a1/ageha/vol1_chapter_3_kiss_me_baby/8.jpg",
    "https://img-proxy.imgfo.com/?referer=https://manganelo.com&url=https://s7.mkklcdnv6temp.com/mangakakalot/a1/ageha/vol1_chapter_3_kiss_me_baby/9.jpg",
    "https://img-proxy.imgfo.com/?referer=https://manganelo.com&url=https://s7.mkklcdnv6temp.com/mangakakalot/a1/ageha/vol1_chapter_3_kiss_me_baby/10.jpg",
    "https://img-proxy.imgfo.com/?referer=https://manganelo.com&url=https://s7.mkklcdnv6temp.com/mangakakalot/a1/ageha/vol1_chapter_3_kiss_me_baby/11.jpg",
    "https://img-proxy.imgfo.com/?referer=https://manganelo.com&url=https://s7.mkklcdnv6temp.com/mangakakalot/a1/ageha/vol1_chapter_3_kiss_me_baby/12.jpg",
    "https://img-proxy.imgfo.com/?referer=https://manganelo.com&url=https://s7.mkklcdnv6temp.com/mangakakalot/a1/ageha/vol1_chapter_3_kiss_me_baby/13.jpg",
    "https://img-proxy.imgfo.com/?referer=https://manganelo.com&url=https://s7.mkklcdnv6temp.com/mangakakalot/a1/ageha/vol1_chapter_3_kiss_me_baby/14.jpg",
    "https://img-proxy.imgfo.com/?referer=https://manganelo.com&url=https://s7.mkklcdnv6temp.com/mangakakalot/a1/ageha/vol1_chapter_3_kiss_me_baby/15.jpg",
    "https://img-proxy.imgfo.com/?referer=https://manganelo.com&url=https://s7.mkklcdnv6temp.com/mangakakalot/a1/ageha/vol1_chapter_3_kiss_me_baby/16.jpg",
    "https://img-proxy.imgfo.com/?referer=https://manganelo.com&url=https://s7.mkklcdnv6temp.com/mangakakalot/a1/ageha/vol1_chapter_3_kiss_me_baby/17.jpg",
    "https://img-proxy.imgfo.com/?referer=https://manganelo.com&url=https://s7.mkklcdnv6temp.com/mangakakalot/a1/ageha/vol1_chapter_3_kiss_me_baby/18.jpg",
    "https://img-proxy.imgfo.com/?referer=https://manganelo.com&url=https://s7.mkklcdnv6temp.com/mangakakalot/a1/ageha/vol1_chapter_3_kiss_me_baby/19.jpg",
    "https://img-proxy.imgfo.com/?referer=https://manganelo.com&url=https://s7.mkklcdnv6temp.com/mangakakalot/a1/ageha/vol1_chapter_3_kiss_me_baby/20.jpg",
    "https://img-proxy.imgfo.com/?referer=https://manganelo.com&url=https://s7.mkklcdnv6temp.com/mangakakalot/a1/ageha/vol1_chapter_3_kiss_me_baby/21.jpg",
    "https://img-proxy.imgfo.com/?referer=https://manganelo.com&url=https://s7.mkklcdnv6temp.com/mangakakalot/a1/ageha/vol1_chapter_3_kiss_me_baby/22.jpg",
    "https://img-proxy.imgfo.com/?referer=https://manganelo.com&url=https://s7.mkklcdnv6temp.com/mangakakalot/a1/ageha/vol1_chapter_3_kiss_me_baby/23.jpg",
    "https://img-proxy.imgfo.com/?referer=https://manganelo.com&url=https://s7.mkklcdnv6temp.com/mangakakalot/a1/ageha/vol1_chapter_3_kiss_me_baby/24.jpg",
    "https://img-proxy.imgfo.com/?referer=https://manganelo.com&url=https://s7.mkklcdnv6temp.com/mangakakalot/a1/ageha/vol1_chapter_3_kiss_me_baby/25.jpg",
    "https://img-proxy.imgfo.com/?referer=https://manganelo.com&url=https://s7.mkklcdnv6temp.com/mangakakalot/a1/ageha/vol1_chapter_3_kiss_me_baby/26.jpg",
    "https://img-proxy.imgfo.com/?referer=https://manganelo.com&url=https://s7.mkklcdnv6temp.com/mangakakalot/a1/ageha/vol1_chapter_3_kiss_me_baby/27.jpg",
    "https://img-proxy.imgfo.com/?referer=https://manganelo.com&url=https://s7.mkklcdnv6temp.com/mangakakalot/a1/ageha/vol1_chapter_3_kiss_me_baby/28.jpg",
    "https://img-proxy.imgfo.com/?referer=https://manganelo.com&url=https://s7.mkklcdnv6temp.com/mangakakalot/a1/ageha/vol1_chapter_3_kiss_me_baby/29.jpg",
    "https://img-proxy.imgfo.com/?referer=https://manganelo.com&url=https://s7.mkklcdnv6temp.com/mangakakalot/a1/ageha/vol1_chapter_3_kiss_me_baby/30.jpg",
    "https://img-proxy.imgfo.com/?referer=https://manganelo.com&url=https://s7.mkklcdnv6temp.com/mangakakalot/a1/ageha/vol1_chapter_3_kiss_me_baby/31.jpg",
    "https://img-proxy.imgfo.com/?referer=https://manganelo.com&url=https://s7.mkklcdnv6temp.com/mangakakalot/a1/ageha/vol1_chapter_3_kiss_me_baby/32.jpg",
    "https://img-proxy.imgfo.com/?referer=https://manganelo.com&url=https://s7.mkklcdnv6temp.com/mangakakalot/a1/ageha/vol1_chapter_3_kiss_me_baby/33.jpg",
    "https://img-proxy.imgfo.com/?referer=https://manganelo.com&url=https://s7.mkklcdnv6temp.com/mangakakalot/a1/ageha/vol1_chapter_3_kiss_me_baby/34.jpg",
    "https://img-proxy.imgfo.com/?referer=https://manganelo.com&url=https://s7.mkklcdnv6temp.com/mangakakalot/a1/ageha/vol1_chapter_3_kiss_me_baby/35.jpg",
    "https://img-proxy.imgfo.com/?referer=https://manganelo.com&url=https://s7.mkklcdnv6temp.com/mangakakalot/a1/ageha/vol1_chapter_3_kiss_me_baby/36.jpg",
    "https://img-proxy.imgfo.com/?referer=https://manganelo.com&url=https://s7.mkklcdnv6temp.com/mangakakalot/a1/ageha/vol1_chapter_3_kiss_me_baby/37.jpg",
    "https://img-proxy.imgfo.com/?referer=https://manganelo.com&url=https://s7.mkklcdnv6temp.com/mangakakalot/a1/ageha/vol1_chapter_3_kiss_me_baby/38.jpg",
    "https://img-proxy.imgfo.com/?referer=https://manganelo.com&url=https://s7.mkklcdnv6temp.com/mangakakalot/a1/ageha/vol1_chapter_3_kiss_me_baby/39.jpg",
    "https://img-proxy.imgfo.com/?referer=https://manganelo.com&url=https://s7.mkklcdnv6temp.com/mangakakalot/a1/ageha/vol1_chapter_3_kiss_me_baby/40.jpg",
    "https://img-proxy.imgfo.com/?referer=https://manganelo.com&url=https://s7.mkklcdnv6temp.com/mangakakalot/a1/ageha/vol1_chapter_3_kiss_me_baby/41.jpg",
    "https://img-proxy.imgfo.com/?referer=https://manganelo.com&url=https://s7.mkklcdnv6temp.com/mangakakalot/a1/ageha/vol1_chapter_3_kiss_me_baby/42.jpg",
    "https://img-proxy.imgfo.com/?referer=https://manganelo.com&url=https://s7.mkklcdnv6temp.com/mangakakalot/a1/ageha/vol1_chapter_3_kiss_me_baby/43.jpg",
    "https://img-proxy.imgfo.com/?referer=https://manganelo.com&url=https://s7.mkklcdnv6temp.com/mangakakalot/a1/ageha/vol1_chapter_3_kiss_me_baby/44.jpg",
    "https://img-proxy.imgfo.com/?referer=https://manganelo.com&url=https://s7.mkklcdnv6temp.com/mangakakalot/a1/ageha/vol1_chapter_3_kiss_me_baby/45.jpg",
    "https://img-proxy.imgfo.com/?referer=https://manganelo.com&url=https://s7.mkklcdnv6temp.com/mangakakalot/a1/ageha/vol1_chapter_3_kiss_me_baby/46.jpg",
    "https://img-proxy.imgfo.com/?referer=https://manganelo.com&url=https://s7.mkklcdnv6temp.com/mangakakalot/a1/ageha/vol1_chapter_3_kiss_me_baby/47.jpg",
    "https://img-proxy.imgfo.com/?referer=https://manganelo.com&url=https://s7.mkklcdnv6temp.com/mangakakalot/a1/ageha/vol1_chapter_3_kiss_me_baby/48.jpg"
  ]
}