{
  "cover": "https://avt.mkklcdnv6.com/11/q/5-1583472309.jpg",
  "title": "Midori No Hibi",
  "original": "美鳥の日々 ; 美鸟伴身边 ; Midori Days ; Midori's Days ; Hari Midori (Malaysia)",
  "genre": "Comedy, Ecchi, Harem, Romance, School life, Shounen, Supernatural, Manga",
  "author": "Inoue Kazurou",
  "status": "Completed",
  "backlink": "https://manganu.com/collections/inoue-kazurou/midori-no-hibi/",
  "description": "Seiji Sawamura is the toughest seventeen-year-old in town, feared by all for his fighting prowess and his deadly \"devil's right hand.\" But at heart, Seiji is a softy, and all he wants is an end to his seventeen-year history of being a lonely single guy. Unfortunately his tough-guy reputation only serves to decrease his popularity with the ladies. However, what happens when Midori, the only girl who actually has a crush on him, replaces his \"devil's right hand?\"",
  "language": "English",
  "images": [
    "https://img-proxy.imgfo.com/?referer=https://manganelo.com&url=https://s41.mkklcdnv6temp.com/mangakakalot/m1/midori_no_hibi/vol1_chapter_7_chinups/1.jpg",
    "https://img-proxy.imgfo.com/?referer=https://manganelo.com&url=https://s41.mkklcdnv6temp.com/mangakakalot/m1/midori_no_hibi/vol1_chapter_7_chinups/2.jpg",
    "https://img-proxy.imgfo.com/?referer=https://manganelo.com&url=https://s41.mkklcdnv6temp.com/mangakakalot/m1/midori_no_hibi/vol1_chapter_7_chinups/3.jpg",
    "https://img-proxy.imgfo.com/?referer=https://manganelo.com&url=https://s41.mkklcdnv6temp.com/mangakakalot/m1/midori_no_hibi/vol1_chapter_7_chinups/4.jpg",
    "https://img-proxy.imgfo.com/?referer=https://manganelo.com&url=https://s41.mkklcdnv6temp.com/mangakakalot/m1/midori_no_hibi/vol1_chapter_7_chinups/5.jpg",
    "https://img-proxy.imgfo.com/?referer=https://manganelo.com&url=https://s41.mkklcdnv6temp.com/mangakakalot/m1/midori_no_hibi/vol1_chapter_7_chinups/6.jpg",
    "https://img-proxy.imgfo.com/?referer=https://manganelo.com&url=https://s41.mkklcdnv6temp.com/mangakakalot/m1/midori_no_hibi/vol1_chapter_7_chinups/7.jpg",
    "https://img-proxy.imgfo.com/?referer=https://manganelo.com&url=https://s41.mkklcdnv6temp.com/mangakakalot/m1/midori_no_hibi/vol1_chapter_7_chinups/8.jpg",
    "https://img-proxy.imgfo.com/?referer=https://manganelo.com&url=https://s41.mkklcdnv6temp.com/mangakakalot/m1/midori_no_hibi/vol1_chapter_7_chinups/9.jpg",
    "https://img-proxy.imgfo.com/?referer=https://manganelo.com&url=https://s41.mkklcdnv6temp.com/mangakakalot/m1/midori_no_hibi/vol1_chapter_7_chinups/10.jpg",
    "https://img-proxy.imgfo.com/?referer=https://manganelo.com&url=https://s41.mkklcdnv6temp.com/mangakakalot/m1/midori_no_hibi/vol1_chapter_7_chinups/11.jpg",
    "https://img-proxy.imgfo.com/?referer=https://manganelo.com&url=https://s41.mkklcdnv6temp.com/mangakakalot/m1/midori_no_hibi/vol1_chapter_7_chinups/12.jpg",
    "https://img-proxy.imgfo.com/?referer=https://manganelo.com&url=https://s41.mkklcdnv6temp.com/mangakakalot/m1/midori_no_hibi/vol1_chapter_7_chinups/13.jpg",
    "https://img-proxy.imgfo.com/?referer=https://manganelo.com&url=https://s41.mkklcdnv6temp.com/mangakakalot/m1/midori_no_hibi/vol1_chapter_7_chinups/14.jpg",
    "https://img-proxy.imgfo.com/?referer=https://manganelo.com&url=https://s41.mkklcdnv6temp.com/mangakakalot/m1/midori_no_hibi/vol1_chapter_7_chinups/15.jpg",
    "https://img-proxy.imgfo.com/?referer=https://manganelo.com&url=https://s41.mkklcdnv6temp.com/mangakakalot/m1/midori_no_hibi/vol1_chapter_7_chinups/16.jpg"
  ]
}