{
  "cover": "https://avt.mkklcdnv6.com/13/j/4-1583470215.jpg",
  "title": "Akaneiro Ni Somaru Saka",
  "original": "あかね色に染まる坂 ; 染成茜色的坂道 ; 染红的街道 ; Akane Iro ni Somaru Saka ; Akane-Iro ni Somaru Saka ; Akasaka",
  "genre": "Comedy, Drama, Harem, Romance, School life, Seinen, Manga",
  "author": "Sakazuki Homare",
  "status": "Completed",
  "backlink": "https://manganu.com/collections/sakazuki-homare/akaneiro-ni-somaru-saka/",
  "description": "In order to protect the girl Yuuhi Katagiri, a new transfer student, ...from danger, Junichi Nagase is forced to kiss her. Not understanding what happend, she screams at him, not knowing that her father has arranged for her to marry him",
  "language": "English",
  "images": [
    "https://img-proxy.imgfo.com/?referer=https://manganelo.com&url=https://s41.mkklcdnv6temp.com/mangakakalot/a1/akaneiro_ni_somaru_saka/vol2_chapter_10_ones_love_secret/1.jpg",
    "https://img-proxy.imgfo.com/?referer=https://manganelo.com&url=https://s41.mkklcdnv6temp.com/mangakakalot/a1/akaneiro_ni_somaru_saka/vol2_chapter_10_ones_love_secret/2.jpg",
    "https://img-proxy.imgfo.com/?referer=https://manganelo.com&url=https://s41.mkklcdnv6temp.com/mangakakalot/a1/akaneiro_ni_somaru_saka/vol2_chapter_10_ones_love_secret/3.jpg",
    "https://img-proxy.imgfo.com/?referer=https://manganelo.com&url=https://s41.mkklcdnv6temp.com/mangakakalot/a1/akaneiro_ni_somaru_saka/vol2_chapter_10_ones_love_secret/4.jpg",
    "https://img-proxy.imgfo.com/?referer=https://manganelo.com&url=https://s41.mkklcdnv6temp.com/mangakakalot/a1/akaneiro_ni_somaru_saka/vol2_chapter_10_ones_love_secret/5.jpg",
    "https://img-proxy.imgfo.com/?referer=https://manganelo.com&url=https://s41.mkklcdnv6temp.com/mangakakalot/a1/akaneiro_ni_somaru_saka/vol2_chapter_10_ones_love_secret/6.jpg",
    "https://img-proxy.imgfo.com/?referer=https://manganelo.com&url=https://s41.mkklcdnv6temp.com/mangakakalot/a1/akaneiro_ni_somaru_saka/vol2_chapter_10_ones_love_secret/7.jpg",
    "https://img-proxy.imgfo.com/?referer=https://manganelo.com&url=https://s41.mkklcdnv6temp.com/mangakakalot/a1/akaneiro_ni_somaru_saka/vol2_chapter_10_ones_love_secret/8.jpg",
    "https://img-proxy.imgfo.com/?referer=https://manganelo.com&url=https://s41.mkklcdnv6temp.com/mangakakalot/a1/akaneiro_ni_somaru_saka/vol2_chapter_10_ones_love_secret/9.jpg",
    "https://img-proxy.imgfo.com/?referer=https://manganelo.com&url=https://s41.mkklcdnv6temp.com/mangakakalot/a1/akaneiro_ni_somaru_saka/vol2_chapter_10_ones_love_secret/10.jpg",
    "https://img-proxy.imgfo.com/?referer=https://manganelo.com&url=https://s41.mkklcdnv6temp.com/mangakakalot/a1/akaneiro_ni_somaru_saka/vol2_chapter_10_ones_love_secret/11.jpg",
    "https://img-proxy.imgfo.com/?referer=https://manganelo.com&url=https://s41.mkklcdnv6temp.com/mangakakalot/a1/akaneiro_ni_somaru_saka/vol2_chapter_10_ones_love_secret/12.jpg",
    "https://img-proxy.imgfo.com/?referer=https://manganelo.com&url=https://s41.mkklcdnv6temp.com/mangakakalot/a1/akaneiro_ni_somaru_saka/vol2_chapter_10_ones_love_secret/13.jpg",
    "https://img-proxy.imgfo.com/?referer=https://manganelo.com&url=https://s41.mkklcdnv6temp.com/mangakakalot/a1/akaneiro_ni_somaru_saka/vol2_chapter_10_ones_love_secret/14.jpg",
    "https://img-proxy.imgfo.com/?referer=https://manganelo.com&url=https://s41.mkklcdnv6temp.com/mangakakalot/a1/akaneiro_ni_somaru_saka/vol2_chapter_10_ones_love_secret/15.jpg",
    "https://img-proxy.imgfo.com/?referer=https://manganelo.com&url=https://s41.mkklcdnv6temp.com/mangakakalot/a1/akaneiro_ni_somaru_saka/vol2_chapter_10_ones_love_secret/16.jpg",
    "https://img-proxy.imgfo.com/?referer=https://manganelo.com&url=https://s41.mkklcdnv6temp.com/mangakakalot/a1/akaneiro_ni_somaru_saka/vol2_chapter_10_ones_love_secret/17.jpg",
    "https://img-proxy.imgfo.com/?referer=https://manganelo.com&url=https://s41.mkklcdnv6temp.com/mangakakalot/a1/akaneiro_ni_somaru_saka/vol2_chapter_10_ones_love_secret/18.jpg",
    "https://img-proxy.imgfo.com/?referer=https://manganelo.com&url=https://s41.mkklcdnv6temp.com/mangakakalot/a1/akaneiro_ni_somaru_saka/vol2_chapter_10_ones_love_secret/19.jpg",
    "https://img-proxy.imgfo.com/?referer=https://manganelo.com&url=https://s41.mkklcdnv6temp.com/mangakakalot/a1/akaneiro_ni_somaru_saka/vol2_chapter_10_ones_love_secret/20.jpg",
    "https://img-proxy.imgfo.com/?referer=https://manganelo.com&url=https://s41.mkklcdnv6temp.com/mangakakalot/a1/akaneiro_ni_somaru_saka/vol2_chapter_10_ones_love_secret/21.jpg",
    "https://img-proxy.imgfo.com/?referer=https://manganelo.com&url=https://s41.mkklcdnv6temp.com/mangakakalot/a1/akaneiro_ni_somaru_saka/vol2_chapter_10_ones_love_secret/22.jpg",
    "https://img-proxy.imgfo.com/?referer=https://manganelo.com&url=https://s41.mkklcdnv6temp.com/mangakakalot/a1/akaneiro_ni_somaru_saka/vol2_chapter_10_ones_love_secret/23.jpg",
    "https://img-proxy.imgfo.com/?referer=https://manganelo.com&url=https://s41.mkklcdnv6temp.com/mangakakalot/a1/akaneiro_ni_somaru_saka/vol2_chapter_10_ones_love_secret/24.jpg",
    "https://img-proxy.imgfo.com/?referer=https://manganelo.com&url=https://s41.mkklcdnv6temp.com/mangakakalot/a1/akaneiro_ni_somaru_saka/vol2_chapter_10_ones_love_secret/25.jpg",
    "https://img-proxy.imgfo.com/?referer=https://manganelo.com&url=https://s41.mkklcdnv6temp.com/mangakakalot/a1/akaneiro_ni_somaru_saka/vol2_chapter_10_ones_love_secret/26.jpg",
    "https://img-proxy.imgfo.com/?referer=https://manganelo.com&url=https://s41.mkklcdnv6temp.com/mangakakalot/a1/akaneiro_ni_somaru_saka/vol2_chapter_10_ones_love_secret/27.jpg",
    "https://img-proxy.imgfo.com/?referer=https://manganelo.com&url=https://s41.mkklcdnv6temp.com/mangakakalot/a1/akaneiro_ni_somaru_saka/vol2_chapter_10_ones_love_secret/28.jpg",
    "https://img-proxy.imgfo.com/?referer=https://manganelo.com&url=https://s41.mkklcdnv6temp.com/mangakakalot/a1/akaneiro_ni_somaru_saka/vol2_chapter_10_ones_love_secret/29.jpg",
    "https://img-proxy.imgfo.com/?referer=https://manganelo.com&url=https://s41.mkklcdnv6temp.com/mangakakalot/a1/akaneiro_ni_somaru_saka/vol2_chapter_10_ones_love_secret/30.jpg"
  ]
}