{
  "cover": "https://avt.mkklcdnv6.com/46/v/4-1583471659.jpg",
  "title": "Nodame Cantabile",
  "original": "のだめカンタービレ ; 交响情人梦 ; 노다메 칸타빌레",
  "genre": "Comedy, Drama, Josei, Romance, School life, Slice of life, Manga",
  "author": "Ninomiya Tomoko",
  "status": "Completed",
  "backlink": "https://manganu.com/collections/ninomiya-tomoko/nodame-cantabile/",
  "description": "Winner of the 2004 Kodansha Manga Award.\nFrom Del Rey:\nThe son of a famous pianist, music student Shinichi Chiaki dreams of studying abroad and becoming a conductor like his mentor. Unfortunately, his fear of flying grounds his lofty plans! As he watches other classmates achieve what he has always wanted, Shinichi wonders if he should quit music altogether.\nThen one day he meets fellow student Megumi Noda, also known as Nodame. This oddball girl cannot cook, clean, or even read a music score, but she can play the piano in incomparable Cantabile style. And she teaches Chiaki something that he has forgotten: to enjoy his music, no matter where he is.",
  "language": "English",
  "images": [
    "https://img-proxy.imgfo.com/?referer=https://manganelo.com&url=https://s6.mkklcdnv6temp.com/mangakakalot/n2/nodame_cantabile/vol23_chapter_135/1.jpg",
    "https://img-proxy.imgfo.com/?referer=https://manganelo.com&url=https://s6.mkklcdnv6temp.com/mangakakalot/n2/nodame_cantabile/vol23_chapter_135/2.jpg",
    "https://img-proxy.imgfo.com/?referer=https://manganelo.com&url=https://s6.mkklcdnv6temp.com/mangakakalot/n2/nodame_cantabile/vol23_chapter_135/3.jpg",
    "https://img-proxy.imgfo.com/?referer=https://manganelo.com&url=https://s6.mkklcdnv6temp.com/mangakakalot/n2/nodame_cantabile/vol23_chapter_135/4.jpg",
    "https://img-proxy.imgfo.com/?referer=https://manganelo.com&url=https://s6.mkklcdnv6temp.com/mangakakalot/n2/nodame_cantabile/vol23_chapter_135/5.jpg",
    "https://img-proxy.imgfo.com/?referer=https://manganelo.com&url=https://s6.mkklcdnv6temp.com/mangakakalot/n2/nodame_cantabile/vol23_chapter_135/6.jpg",
    "https://img-proxy.imgfo.com/?referer=https://manganelo.com&url=https://s6.mkklcdnv6temp.com/mangakakalot/n2/nodame_cantabile/vol23_chapter_135/7.jpg",
    "https://img-proxy.imgfo.com/?referer=https://manganelo.com&url=https://s6.mkklcdnv6temp.com/mangakakalot/n2/nodame_cantabile/vol23_chapter_135/8.jpg",
    "https://img-proxy.imgfo.com/?referer=https://manganelo.com&url=https://s6.mkklcdnv6temp.com/mangakakalot/n2/nodame_cantabile/vol23_chapter_135/9.jpg",
    "https://img-proxy.imgfo.com/?referer=https://manganelo.com&url=https://s6.mkklcdnv6temp.com/mangakakalot/n2/nodame_cantabile/vol23_chapter_135/10.jpg",
    "https://img-proxy.imgfo.com/?referer=https://manganelo.com&url=https://s6.mkklcdnv6temp.com/mangakakalot/n2/nodame_cantabile/vol23_chapter_135/11.jpg",
    "https://img-proxy.imgfo.com/?referer=https://manganelo.com&url=https://s6.mkklcdnv6temp.com/mangakakalot/n2/nodame_cantabile/vol23_chapter_135/12.jpg",
    "https://img-proxy.imgfo.com/?referer=https://manganelo.com&url=https://s6.mkklcdnv6temp.com/mangakakalot/n2/nodame_cantabile/vol23_chapter_135/13.jpg",
    "https://img-proxy.imgfo.com/?referer=https://manganelo.com&url=https://s6.mkklcdnv6temp.com/mangakakalot/n2/nodame_cantabile/vol23_chapter_135/14.jpg",
    "https://img-proxy.imgfo.com/?referer=https://manganelo.com&url=https://s6.mkklcdnv6temp.com/mangakakalot/n2/nodame_cantabile/vol23_chapter_135/15.jpg",
    "https://img-proxy.imgfo.com/?referer=https://manganelo.com&url=https://s6.mkklcdnv6temp.com/mangakakalot/n2/nodame_cantabile/vol23_chapter_135/16.jpg",
    "https://img-proxy.imgfo.com/?referer=https://manganelo.com&url=https://s6.mkklcdnv6temp.com/mangakakalot/n2/nodame_cantabile/vol23_chapter_135/17.jpg",
    "https://img-proxy.imgfo.com/?referer=https://manganelo.com&url=https://s6.mkklcdnv6temp.com/mangakakalot/n2/nodame_cantabile/vol23_chapter_135/18.jpg",
    "https://img-proxy.imgfo.com/?referer=https://manganelo.com&url=https://s6.mkklcdnv6temp.com/mangakakalot/n2/nodame_cantabile/vol23_chapter_135/19.jpg",
    "https://img-proxy.imgfo.com/?referer=https://manganelo.com&url=https://s6.mkklcdnv6temp.com/mangakakalot/n2/nodame_cantabile/vol23_chapter_135/20.jpg",
    "https://img-proxy.imgfo.com/?referer=https://manganelo.com&url=https://s6.mkklcdnv6temp.com/mangakakalot/n2/nodame_cantabile/vol23_chapter_135/21.jpg",
    "https://img-proxy.imgfo.com/?referer=https://manganelo.com&url=https://s6.mkklcdnv6temp.com/mangakakalot/n2/nodame_cantabile/vol23_chapter_135/22.jpg",
    "https://img-proxy.imgfo.com/?referer=https://manganelo.com&url=https://s6.mkklcdnv6temp.com/mangakakalot/n2/nodame_cantabile/vol23_chapter_135/23.jpg"
  ]
}