{
  "cover": "https://avt.mkklcdnv6.com/36/d/6-1583475592.jpg",
  "title": "Captain Tsubasa",
  "original": "キャプテン翼 ; 足球小将 ; كابتن ماجد arabic",
  "genre": "Drama, Shounen, Sports, Manga",
  "author": "Takahashi Yoichi",
  "status": "Completed",
  "backlink": "https://manganu.com/collections/takahashi-yoichi/captain-tsubasa/",
  "description": "11-year-old Tsubasa Ohzora transfers to his new school where he quickly becomes the star of the school's soccer team. His Brazilian coach, Roberto Hongo, notices the potential of the young athlete and soon offers him a chance to come with him to Brazil. Young Tsubasa trains more and more and is with each passing game more confident in his abilities. Old enemies become his friends and the World Cup seems closer and closer for him.",
  "language": "English",
  "images": [
    "https://img-proxy.imgfo.com/?referer=https://manganelo.com&url=https://s3.mkklcdnv6temp.com/mangakakalot/c1/captain_tsubasa/vol19_chapter_71_number_10_versus_number_10/1.jpg",
    "https://img-proxy.imgfo.com/?referer=https://manganelo.com&url=https://s3.mkklcdnv6temp.com/mangakakalot/c1/captain_tsubasa/vol19_chapter_71_number_10_versus_number_10/2.jpg",
    "https://img-proxy.imgfo.com/?referer=https://manganelo.com&url=https://s3.mkklcdnv6temp.com/mangakakalot/c1/captain_tsubasa/vol19_chapter_71_number_10_versus_number_10/3.jpg",
    "https://img-proxy.imgfo.com/?referer=https://manganelo.com&url=https://s3.mkklcdnv6temp.com/mangakakalot/c1/captain_tsubasa/vol19_chapter_71_number_10_versus_number_10/4.jpg",
    "https://img-proxy.imgfo.com/?referer=https://manganelo.com&url=https://s3.mkklcdnv6temp.com/mangakakalot/c1/captain_tsubasa/vol19_chapter_71_number_10_versus_number_10/5.jpg",
    "https://img-proxy.imgfo.com/?referer=https://manganelo.com&url=https://s3.mkklcdnv6temp.com/mangakakalot/c1/captain_tsubasa/vol19_chapter_71_number_10_versus_number_10/6.jpg",
    "https://img-proxy.imgfo.com/?referer=https://manganelo.com&url=https://s3.mkklcdnv6temp.com/mangakakalot/c1/captain_tsubasa/vol19_chapter_71_number_10_versus_number_10/7.jpg",
    "https://img-proxy.imgfo.com/?referer=https://manganelo.com&url=https://s3.mkklcdnv6temp.com/mangakakalot/c1/captain_tsubasa/vol19_chapter_71_number_10_versus_number_10/8.jpg",
    "https://img-proxy.imgfo.com/?referer=https://manganelo.com&url=https://s3.mkklcdnv6temp.com/mangakakalot/c1/captain_tsubasa/vol19_chapter_71_number_10_versus_number_10/9.jpg",
    "https://img-proxy.imgfo.com/?referer=https://manganelo.com&url=https://s3.mkklcdnv6temp.com/mangakakalot/c1/captain_tsubasa/vol19_chapter_71_number_10_versus_number_10/10.jpg",
    "https://img-proxy.imgfo.com/?referer=https://manganelo.com&url=https://s3.mkklcdnv6temp.com/mangakakalot/c1/captain_tsubasa/vol19_chapter_71_number_10_versus_number_10/11.jpg",
    "https://img-proxy.imgfo.com/?referer=https://manganelo.com&url=https://s3.mkklcdnv6temp.com/mangakakalot/c1/captain_tsubasa/vol19_chapter_71_number_10_versus_number_10/12.jpg",
    "https://img-proxy.imgfo.com/?referer=https://manganelo.com&url=https://s3.mkklcdnv6temp.com/mangakakalot/c1/captain_tsubasa/vol19_chapter_71_number_10_versus_number_10/13.jpg",
    "https://img-proxy.imgfo.com/?referer=https://manganelo.com&url=https://s3.mkklcdnv6temp.com/mangakakalot/c1/captain_tsubasa/vol19_chapter_71_number_10_versus_number_10/14.jpg",
    "https://img-proxy.imgfo.com/?referer=https://manganelo.com&url=https://s3.mkklcdnv6temp.com/mangakakalot/c1/captain_tsubasa/vol19_chapter_71_number_10_versus_number_10/15.jpg",
    "https://img-proxy.imgfo.com/?referer=https://manganelo.com&url=https://s3.mkklcdnv6temp.com/mangakakalot/c1/captain_tsubasa/vol19_chapter_71_number_10_versus_number_10/16.jpg",
    "https://img-proxy.imgfo.com/?referer=https://manganelo.com&url=https://s3.mkklcdnv6temp.com/mangakakalot/c1/captain_tsubasa/vol19_chapter_71_number_10_versus_number_10/17.jpg",
    "https://img-proxy.imgfo.com/?referer=https://manganelo.com&url=https://s3.mkklcdnv6temp.com/mangakakalot/c1/captain_tsubasa/vol19_chapter_71_number_10_versus_number_10/18.jpg",
    "https://img-proxy.imgfo.com/?referer=https://manganelo.com&url=https://s3.mkklcdnv6temp.com/mangakakalot/c1/captain_tsubasa/vol19_chapter_71_number_10_versus_number_10/19.jpg",
    "https://img-proxy.imgfo.com/?referer=https://manganelo.com&url=https://s3.mkklcdnv6temp.com/mangakakalot/c1/captain_tsubasa/vol19_chapter_71_number_10_versus_number_10/20.jpg",
    "https://img-proxy.imgfo.com/?referer=https://manganelo.com&url=https://s3.mkklcdnv6temp.com/mangakakalot/c1/captain_tsubasa/vol19_chapter_71_number_10_versus_number_10/21.jpg",
    "https://img-proxy.imgfo.com/?referer=https://manganelo.com&url=https://s3.mkklcdnv6temp.com/mangakakalot/c1/captain_tsubasa/vol19_chapter_71_number_10_versus_number_10/22.jpg",
    "https://img-proxy.imgfo.com/?referer=https://manganelo.com&url=https://s3.mkklcdnv6temp.com/mangakakalot/c1/captain_tsubasa/vol19_chapter_71_number_10_versus_number_10/23.jpg",
    "https://img-proxy.imgfo.com/?referer=https://manganelo.com&url=https://s3.mkklcdnv6temp.com/mangakakalot/c1/captain_tsubasa/vol19_chapter_71_number_10_versus_number_10/24.jpg",
    "https://img-proxy.imgfo.com/?referer=https://manganelo.com&url=https://s3.mkklcdnv6temp.com/mangakakalot/c1/captain_tsubasa/vol19_chapter_71_number_10_versus_number_10/25.jpg",
    "https://img-proxy.imgfo.com/?referer=https://manganelo.com&url=https://s3.mkklcdnv6temp.com/mangakakalot/c1/captain_tsubasa/vol19_chapter_71_number_10_versus_number_10/26.jpg",
    "https://img-proxy.imgfo.com/?referer=https://manganelo.com&url=https://s3.mkklcdnv6temp.com/mangakakalot/c1/captain_tsubasa/vol19_chapter_71_number_10_versus_number_10/27.jpg",
    "https://img-proxy.imgfo.com/?referer=https://manganelo.com&url=https://s3.mkklcdnv6temp.com/mangakakalot/c1/captain_tsubasa/vol19_chapter_71_number_10_versus_number_10/28.jpg",
    "https://img-proxy.imgfo.com/?referer=https://manganelo.com&url=https://s3.mkklcdnv6temp.com/mangakakalot/c1/captain_tsubasa/vol19_chapter_71_number_10_versus_number_10/29.jpg",
    "https://img-proxy.imgfo.com/?referer=https://manganelo.com&url=https://s3.mkklcdnv6temp.com/mangakakalot/c1/captain_tsubasa/vol19_chapter_71_number_10_versus_number_10/30.jpg",
    "https://img-proxy.imgfo.com/?referer=https://manganelo.com&url=https://s3.mkklcdnv6temp.com/mangakakalot/c1/captain_tsubasa/vol19_chapter_71_number_10_versus_number_10/31.jpg",
    "https://img-proxy.imgfo.com/?referer=https://manganelo.com&url=https://s3.mkklcdnv6temp.com/mangakakalot/c1/captain_tsubasa/vol19_chapter_71_number_10_versus_number_10/32.jpg",
    "https://img-proxy.imgfo.com/?referer=https://manganelo.com&url=https://s3.mkklcdnv6temp.com/mangakakalot/c1/captain_tsubasa/vol19_chapter_71_number_10_versus_number_10/33.jpg",
    "https://img-proxy.imgfo.com/?referer=https://manganelo.com&url=https://s3.mkklcdnv6temp.com/mangakakalot/c1/captain_tsubasa/vol19_chapter_71_number_10_versus_number_10/34.jpg",
    "https://img-proxy.imgfo.com/?referer=https://manganelo.com&url=https://s3.mkklcdnv6temp.com/mangakakalot/c1/captain_tsubasa/vol19_chapter_71_number_10_versus_number_10/35.jpg",
    "https://img-proxy.imgfo.com/?referer=https://manganelo.com&url=https://s3.mkklcdnv6temp.com/mangakakalot/c1/captain_tsubasa/vol19_chapter_71_number_10_versus_number_10/36.jpg",
    "https://img-proxy.imgfo.com/?referer=https://manganelo.com&url=https://s3.mkklcdnv6temp.com/mangakakalot/c1/captain_tsubasa/vol19_chapter_71_number_10_versus_number_10/37.jpg",
    "https://img-proxy.imgfo.com/?referer=https://manganelo.com&url=https://s3.mkklcdnv6temp.com/mangakakalot/c1/captain_tsubasa/vol19_chapter_71_number_10_versus_number_10/38.jpg",
    "https://img-proxy.imgfo.com/?referer=https://manganelo.com&url=https://s3.mkklcdnv6temp.com/mangakakalot/c1/captain_tsubasa/vol19_chapter_71_number_10_versus_number_10/39.jpg",
    "https://img-proxy.imgfo.com/?referer=https://manganelo.com&url=https://s3.mkklcdnv6temp.com/mangakakalot/c1/captain_tsubasa/vol19_chapter_71_number_10_versus_number_10/40.jpg",
    "https://img-proxy.imgfo.com/?referer=https://manganelo.com&url=https://s3.mkklcdnv6temp.com/mangakakalot/c1/captain_tsubasa/vol19_chapter_71_number_10_versus_number_10/41.jpg",
    "https://img-proxy.imgfo.com/?referer=https://manganelo.com&url=https://s3.mkklcdnv6temp.com/mangakakalot/c1/captain_tsubasa/vol19_chapter_71_number_10_versus_number_10/42.jpg",
    "https://img-proxy.imgfo.com/?referer=https://manganelo.com&url=https://s3.mkklcdnv6temp.com/mangakakalot/c1/captain_tsubasa/vol19_chapter_71_number_10_versus_number_10/43.jpg",
    "https://img-proxy.imgfo.com/?referer=https://manganelo.com&url=https://s3.mkklcdnv6temp.com/mangakakalot/c1/captain_tsubasa/vol19_chapter_71_number_10_versus_number_10/44.jpg",
    "https://img-proxy.imgfo.com/?referer=https://manganelo.com&url=https://s3.mkklcdnv6temp.com/mangakakalot/c1/captain_tsubasa/vol19_chapter_71_number_10_versus_number_10/45.jpg",
    "https://img-proxy.imgfo.com/?referer=https://manganelo.com&url=https://s3.mkklcdnv6temp.com/mangakakalot/c1/captain_tsubasa/vol19_chapter_71_number_10_versus_number_10/46.jpg",
    "https://img-proxy.imgfo.com/?referer=https://manganelo.com&url=https://s3.mkklcdnv6temp.com/mangakakalot/c1/captain_tsubasa/vol19_chapter_71_number_10_versus_number_10/47.jpg",
    "https://img-proxy.imgfo.com/?referer=https://manganelo.com&url=https://s3.mkklcdnv6temp.com/mangakakalot/c1/captain_tsubasa/vol19_chapter_71_number_10_versus_number_10/48.jpg",
    "https://img-proxy.imgfo.com/?referer=https://manganelo.com&url=https://s3.mkklcdnv6temp.com/mangakakalot/c1/captain_tsubasa/vol19_chapter_71_number_10_versus_number_10/49.jpg",
    "https://img-proxy.imgfo.com/?referer=https://manganelo.com&url=https://s3.mkklcdnv6temp.com/mangakakalot/c1/captain_tsubasa/vol19_chapter_71_number_10_versus_number_10/50.jpg",
    "https://img-proxy.imgfo.com/?referer=https://manganelo.com&url=https://s3.mkklcdnv6temp.com/mangakakalot/c1/captain_tsubasa/vol19_chapter_71_number_10_versus_number_10/51.jpg",
    "https://img-proxy.imgfo.com/?referer=https://manganelo.com&url=https://s3.mkklcdnv6temp.com/mangakakalot/c1/captain_tsubasa/vol19_chapter_71_number_10_versus_number_10/52.jpg",
    "https://img-proxy.imgfo.com/?referer=https://manganelo.com&url=https://s3.mkklcdnv6temp.com/mangakakalot/c1/captain_tsubasa/vol19_chapter_71_number_10_versus_number_10/53.jpg"
  ]
}