{
  "cover": "https://avt.mkklcdnv6.com/5/w/7-1583476516.jpg",
  "title": "Aishite Baby",
  "original": "あいしてベイビー",
  "genre": "Drama, School life, Smut, Yaoi, Manga",
  "author": "Watanabe Asia",
  "status": "Completed",
  "backlink": "https://manganu.com/collections/watanabe-asia/aishite-baby/",
  "description": "17 Ringo Kinoshita falls in love at first sight with student teacher Yashachi Kai but where are the rose colored days of his first love? Unrequited love is bad enough but it seems like Kai-sensei can't stand him at all. With a prank gone wrong and a series of misunderstandings just how will these two come together or will they just be driven further apart?",
  "language": "English",
  "images": [
    "https://img-proxy.imgfo.com/?referer=https://manganelo.com&url=https://s41.mkklcdnv6temp.com/mangakakalot/a1/aishite_baby/vol1_chapter_65_extras/1.jpg",
    "https://img-proxy.imgfo.com/?referer=https://manganelo.com&url=https://s41.mkklcdnv6temp.com/mangakakalot/a1/aishite_baby/vol1_chapter_65_extras/2.jpg",
    "https://img-proxy.imgfo.com/?referer=https://manganelo.com&url=https://s41.mkklcdnv6temp.com/mangakakalot/a1/aishite_baby/vol1_chapter_65_extras/3.jpg",
    "https://img-proxy.imgfo.com/?referer=https://manganelo.com&url=https://s41.mkklcdnv6temp.com/mangakakalot/a1/aishite_baby/vol1_chapter_65_extras/4.jpg",
    "https://img-proxy.imgfo.com/?referer=https://manganelo.com&url=https://s41.mkklcdnv6temp.com/mangakakalot/a1/aishite_baby/vol1_chapter_65_extras/5.jpg",
    "https://img-proxy.imgfo.com/?referer=https://manganelo.com&url=https://s41.mkklcdnv6temp.com/mangakakalot/a1/aishite_baby/vol1_chapter_65_extras/6.jpg",
    "https://img-proxy.imgfo.com/?referer=https://manganelo.com&url=https://s41.mkklcdnv6temp.com/mangakakalot/a1/aishite_baby/vol1_chapter_65_extras/7.jpg",
    "https://img-proxy.imgfo.com/?referer=https://manganelo.com&url=https://s41.mkklcdnv6temp.com/mangakakalot/a1/aishite_baby/vol1_chapter_65_extras/8.jpg",
    "https://img-proxy.imgfo.com/?referer=https://manganelo.com&url=https://s41.mkklcdnv6temp.com/mangakakalot/a1/aishite_baby/vol1_chapter_65_extras/9.jpg",
    "https://img-proxy.imgfo.com/?referer=https://manganelo.com&url=https://s41.mkklcdnv6temp.com/mangakakalot/a1/aishite_baby/vol1_chapter_65_extras/10.jpg",
    "https://img-proxy.imgfo.com/?referer=https://manganelo.com&url=https://s41.mkklcdnv6temp.com/mangakakalot/a1/aishite_baby/vol1_chapter_65_extras/11.jpg",
    "https://img-proxy.imgfo.com/?referer=https://manganelo.com&url=https://s41.mkklcdnv6temp.com/mangakakalot/a1/aishite_baby/vol1_chapter_65_extras/12.jpg"
  ]
}