{
  "cover": "https://avt.mkklcdnv6.com/2/y/18-1583497188.jpg",
  "title": "Sukitte Ii Na Yo",
  "original": "Di \"Te Amo\"; Say \"I Love You\"; พูดว่ารักกับฉันสิ; 只要你说你爱我; 好きっていいなよ。; 사랑한다고 말해",
  "genre": "Comedy, Drama, Romance, School life, Shoujo, Slice of life, Manga",
  "author": "Azuki Kanae",
  "status": "Completed",
  "backlink": "https://manganu.com/collections/azuki-kanae/sukitte-ii-na-yo/",
  "description": "Mei Tachibana has spent her 16 years without making either boyfriend or friends. One day, she drop-kicks a popular boy in school, Yamato Kurosawa, because of a misunderstanding but for some reason it seems that he takes a liking to her and one-sidedly claims that they&rsquo;re friends. Furthermore, he not only protects Mei from a stalker, he does it with a kiss&hellip;?!!",
  "language": "English",
  "images": [
    "https://img-proxy.imgfo.com/?referer=https://manganelo.com&url=https://s7.mkklcdnv6temp.com/mangakakalot/t1/tk918639/vol2_chapter_6/1.jpg",
    "https://img-proxy.imgfo.com/?referer=https://manganelo.com&url=https://s7.mkklcdnv6temp.com/mangakakalot/t1/tk918639/vol2_chapter_6/2.jpg",
    "https://img-proxy.imgfo.com/?referer=https://manganelo.com&url=https://s7.mkklcdnv6temp.com/mangakakalot/t1/tk918639/vol2_chapter_6/3.jpg",
    "https://img-proxy.imgfo.com/?referer=https://manganelo.com&url=https://s7.mkklcdnv6temp.com/mangakakalot/t1/tk918639/vol2_chapter_6/4.jpg",
    "https://img-proxy.imgfo.com/?referer=https://manganelo.com&url=https://s7.mkklcdnv6temp.com/mangakakalot/t1/tk918639/vol2_chapter_6/5.jpg",
    "https://img-proxy.imgfo.com/?referer=https://manganelo.com&url=https://s7.mkklcdnv6temp.com/mangakakalot/t1/tk918639/vol2_chapter_6/6.jpg",
    "https://img-proxy.imgfo.com/?referer=https://manganelo.com&url=https://s7.mkklcdnv6temp.com/mangakakalot/t1/tk918639/vol2_chapter_6/7.jpg",
    "https://img-proxy.imgfo.com/?referer=https://manganelo.com&url=https://s7.mkklcdnv6temp.com/mangakakalot/t1/tk918639/vol2_chapter_6/8.jpg",
    "https://img-proxy.imgfo.com/?referer=https://manganelo.com&url=https://s7.mkklcdnv6temp.com/mangakakalot/t1/tk918639/vol2_chapter_6/9.jpg",
    "https://img-proxy.imgfo.com/?referer=https://manganelo.com&url=https://s7.mkklcdnv6temp.com/mangakakalot/t1/tk918639/vol2_chapter_6/10.jpg",
    "https://img-proxy.imgfo.com/?referer=https://manganelo.com&url=https://s7.mkklcdnv6temp.com/mangakakalot/t1/tk918639/vol2_chapter_6/11.jpg",
    "https://img-proxy.imgfo.com/?referer=https://manganelo.com&url=https://s7.mkklcdnv6temp.com/mangakakalot/t1/tk918639/vol2_chapter_6/12.jpg",
    "https://img-proxy.imgfo.com/?referer=https://manganelo.com&url=https://s7.mkklcdnv6temp.com/mangakakalot/t1/tk918639/vol2_chapter_6/13.jpg",
    "https://img-proxy.imgfo.com/?referer=https://manganelo.com&url=https://s7.mkklcdnv6temp.com/mangakakalot/t1/tk918639/vol2_chapter_6/14.jpg",
    "https://img-proxy.imgfo.com/?referer=https://manganelo.com&url=https://s7.mkklcdnv6temp.com/mangakakalot/t1/tk918639/vol2_chapter_6/15.jpg",
    "https://img-proxy.imgfo.com/?referer=https://manganelo.com&url=https://s7.mkklcdnv6temp.com/mangakakalot/t1/tk918639/vol2_chapter_6/16.jpg",
    "https://img-proxy.imgfo.com/?referer=https://manganelo.com&url=https://s7.mkklcdnv6temp.com/mangakakalot/t1/tk918639/vol2_chapter_6/17.jpg",
    "https://img-proxy.imgfo.com/?referer=https://manganelo.com&url=https://s7.mkklcdnv6temp.com/mangakakalot/t1/tk918639/vol2_chapter_6/18.jpg",
    "https://img-proxy.imgfo.com/?referer=https://manganelo.com&url=https://s7.mkklcdnv6temp.com/mangakakalot/t1/tk918639/vol2_chapter_6/19.jpg",
    "https://img-proxy.imgfo.com/?referer=https://manganelo.com&url=https://s7.mkklcdnv6temp.com/mangakakalot/t1/tk918639/vol2_chapter_6/20.jpg",
    "https://img-proxy.imgfo.com/?referer=https://manganelo.com&url=https://s7.mkklcdnv6temp.com/mangakakalot/t1/tk918639/vol2_chapter_6/21.jpg",
    "https://img-proxy.imgfo.com/?referer=https://manganelo.com&url=https://s7.mkklcdnv6temp.com/mangakakalot/t1/tk918639/vol2_chapter_6/22.jpg",
    "https://img-proxy.imgfo.com/?referer=https://manganelo.com&url=https://s7.mkklcdnv6temp.com/mangakakalot/t1/tk918639/vol2_chapter_6/23.jpg",
    "https://img-proxy.imgfo.com/?referer=https://manganelo.com&url=https://s7.mkklcdnv6temp.com/mangakakalot/t1/tk918639/vol2_chapter_6/24.jpg",
    "https://img-proxy.imgfo.com/?referer=https://manganelo.com&url=https://s7.mkklcdnv6temp.com/mangakakalot/t1/tk918639/vol2_chapter_6/25.jpg",
    "https://img-proxy.imgfo.com/?referer=https://manganelo.com&url=https://s7.mkklcdnv6temp.com/mangakakalot/t1/tk918639/vol2_chapter_6/26.jpg",
    "https://img-proxy.imgfo.com/?referer=https://manganelo.com&url=https://s7.mkklcdnv6temp.com/mangakakalot/t1/tk918639/vol2_chapter_6/27.jpg",
    "https://img-proxy.imgfo.com/?referer=https://manganelo.com&url=https://s7.mkklcdnv6temp.com/mangakakalot/t1/tk918639/vol2_chapter_6/28.jpg",
    "https://img-proxy.imgfo.com/?referer=https://manganelo.com&url=https://s7.mkklcdnv6temp.com/mangakakalot/t1/tk918639/vol2_chapter_6/29.jpg",
    "https://img-proxy.imgfo.com/?referer=https://manganelo.com&url=https://s7.mkklcdnv6temp.com/mangakakalot/t1/tk918639/vol2_chapter_6/30.jpg",
    "https://img-proxy.imgfo.com/?referer=https://manganelo.com&url=https://s7.mkklcdnv6temp.com/mangakakalot/t1/tk918639/vol2_chapter_6/31.jpg",
    "https://img-proxy.imgfo.com/?referer=https://manganelo.com&url=https://s7.mkklcdnv6temp.com/mangakakalot/t1/tk918639/vol2_chapter_6/32.jpg",
    "https://img-proxy.imgfo.com/?referer=https://manganelo.com&url=https://s7.mkklcdnv6temp.com/mangakakalot/t1/tk918639/vol2_chapter_6/33.jpg"
  ]
}