{
  "cover": "https://avt.mkklcdnv6.com/12/e/19-1583499556.jpg",
  "title": "Pico-Pico Boy",
  "original": "Pico Pico Shounen ,Pico Pico Boy,Pico-Pico Shounen,ピコピコ少年,PICO-PICO少年",
  "genre": "Seinen, Slice of life, Manga",
  "author": "Rensuke Oshikiri",
  "status": "Completed",
  "backlink": "https://manganu.com/collections/rensuke-oshikiri/pico-pico-boy/",
  "description": "During that time, I might have been dead had it not been for video games. Because so much time has passed, I can finally talk about it... This is an auto-biographical manga about my video game-centered youth! In &ldquo;Boy&#39;s First Love,&rdquo; I tell the story of the girl with whom I bonded over a mutual addiction to video games. In &ldquo;Candy Shoppe Boy,&rdquo; I describe the utopia that was that old candy shoppe. Where is that shoppe now? &ldquo;Boy in Line&rdquo; is the story of my harrowing night spent outside a game store waiting in line to buy Final Fantasy V. Where is my soulmate? Find out in &ldquo;Sentimental Heart Boy.&rdquo; Where was my favorite place to play games on a rainy day? &ldquo;Secret Castle Boy&rdquo; answers that question. All stories are true!!",
  "language": "English",
  "images": [
    "https://img-proxy.imgfo.com/?referer=https://manganelo.com&url=https://s6.mkklcdnv6temp.com/mangakakalot/q1/qa920256/vol1_secret_castle_boy/1.jpg",
    "https://img-proxy.imgfo.com/?referer=https://manganelo.com&url=https://s6.mkklcdnv6temp.com/mangakakalot/q1/qa920256/vol1_secret_castle_boy/2.jpg",
    "https://img-proxy.imgfo.com/?referer=https://manganelo.com&url=https://s6.mkklcdnv6temp.com/mangakakalot/q1/qa920256/vol1_secret_castle_boy/3.jpg",
    "https://img-proxy.imgfo.com/?referer=https://manganelo.com&url=https://s6.mkklcdnv6temp.com/mangakakalot/q1/qa920256/vol1_secret_castle_boy/4.jpg",
    "https://img-proxy.imgfo.com/?referer=https://manganelo.com&url=https://s6.mkklcdnv6temp.com/mangakakalot/q1/qa920256/vol1_secret_castle_boy/5.jpg",
    "https://img-proxy.imgfo.com/?referer=https://manganelo.com&url=https://s6.mkklcdnv6temp.com/mangakakalot/q1/qa920256/vol1_secret_castle_boy/6.jpg",
    "https://img-proxy.imgfo.com/?referer=https://manganelo.com&url=https://s6.mkklcdnv6temp.com/mangakakalot/q1/qa920256/vol1_secret_castle_boy/7.jpg",
    "https://img-proxy.imgfo.com/?referer=https://manganelo.com&url=https://s6.mkklcdnv6temp.com/mangakakalot/q1/qa920256/vol1_secret_castle_boy/8.jpg",
    "https://img-proxy.imgfo.com/?referer=https://manganelo.com&url=https://s6.mkklcdnv6temp.com/mangakakalot/q1/qa920256/vol1_secret_castle_boy/9.jpg",
    "https://img-proxy.imgfo.com/?referer=https://manganelo.com&url=https://s6.mkklcdnv6temp.com/mangakakalot/q1/qa920256/vol1_secret_castle_boy/10.jpg",
    "https://img-proxy.imgfo.com/?referer=https://manganelo.com&url=https://s6.mkklcdnv6temp.com/mangakakalot/q1/qa920256/vol1_secret_castle_boy/11.jpg",
    "https://img-proxy.imgfo.com/?referer=https://manganelo.com&url=https://s6.mkklcdnv6temp.com/mangakakalot/q1/qa920256/vol1_secret_castle_boy/12.jpg",
    "https://img-proxy.imgfo.com/?referer=https://manganelo.com&url=https://s6.mkklcdnv6temp.com/mangakakalot/q1/qa920256/vol1_secret_castle_boy/13.jpg",
    "https://img-proxy.imgfo.com/?referer=https://manganelo.com&url=https://s6.mkklcdnv6temp.com/mangakakalot/q1/qa920256/vol1_secret_castle_boy/14.jpg",
    "https://img-proxy.imgfo.com/?referer=https://manganelo.com&url=https://s6.mkklcdnv6temp.com/mangakakalot/q1/qa920256/vol1_secret_castle_boy/15.jpg",
    "https://img-proxy.imgfo.com/?referer=https://manganelo.com&url=https://s6.mkklcdnv6temp.com/mangakakalot/q1/qa920256/vol1_secret_castle_boy/16.jpg",
    "https://img-proxy.imgfo.com/?referer=https://manganelo.com&url=https://s6.mkklcdnv6temp.com/mangakakalot/q1/qa920256/vol1_secret_castle_boy/17.jpg"
  ]
}