{
  "cover": "https://avt.mkklcdnv6.com/45/z/4-1583471622.jpg",
  "title": "Q And A",
  "original": "A (ADACHI Mitsuru) ; Q Ando A ; QあんどA ; A",
  "genre": "Comedy, Romance, School life, Shounen, Slice of life, Sports, Supernatural, Manga",
  "author": "Adachi Mitsuru",
  "status": "Completed",
  "backlink": "https://manganu.com/collections/adachi-mitsuru/q-and-a/",
  "description": "Atsushi Ando (15) moves back to his home town with his family after 6 years. The story focuses on the fortunes and misfortunes he encounters in this town mostly due to pranks pulled by the ghost of his older brother, Hitsushi Ando, AKA Q-Chan, whose death prompted the family to move away in the first place.\nThe catch is, only Atsushi can see his brother's ghost.",
  "language": "English",
  "images": [
    "https://img-proxy.imgfo.com/?referer=https://manganelo.com&url=https://s7.mkklcdnv6temp.com/mangakakalot/q2/q_and_a/vol3_chapter_15_whats_your_favorite_food/1.jpg",
    "https://img-proxy.imgfo.com/?referer=https://manganelo.com&url=https://s7.mkklcdnv6temp.com/mangakakalot/q2/q_and_a/vol3_chapter_15_whats_your_favorite_food/2.jpg",
    "https://img-proxy.imgfo.com/?referer=https://manganelo.com&url=https://s7.mkklcdnv6temp.com/mangakakalot/q2/q_and_a/vol3_chapter_15_whats_your_favorite_food/3.jpg",
    "https://img-proxy.imgfo.com/?referer=https://manganelo.com&url=https://s7.mkklcdnv6temp.com/mangakakalot/q2/q_and_a/vol3_chapter_15_whats_your_favorite_food/4.jpg",
    "https://img-proxy.imgfo.com/?referer=https://manganelo.com&url=https://s7.mkklcdnv6temp.com/mangakakalot/q2/q_and_a/vol3_chapter_15_whats_your_favorite_food/5.jpg",
    "https://img-proxy.imgfo.com/?referer=https://manganelo.com&url=https://s7.mkklcdnv6temp.com/mangakakalot/q2/q_and_a/vol3_chapter_15_whats_your_favorite_food/6.jpg",
    "https://img-proxy.imgfo.com/?referer=https://manganelo.com&url=https://s7.mkklcdnv6temp.com/mangakakalot/q2/q_and_a/vol3_chapter_15_whats_your_favorite_food/7.jpg",
    "https://img-proxy.imgfo.com/?referer=https://manganelo.com&url=https://s7.mkklcdnv6temp.com/mangakakalot/q2/q_and_a/vol3_chapter_15_whats_your_favorite_food/8.jpg",
    "https://img-proxy.imgfo.com/?referer=https://manganelo.com&url=https://s7.mkklcdnv6temp.com/mangakakalot/q2/q_and_a/vol3_chapter_15_whats_your_favorite_food/9.jpg",
    "https://img-proxy.imgfo.com/?referer=https://manganelo.com&url=https://s7.mkklcdnv6temp.com/mangakakalot/q2/q_and_a/vol3_chapter_15_whats_your_favorite_food/10.jpg",
    "https://img-proxy.imgfo.com/?referer=https://manganelo.com&url=https://s7.mkklcdnv6temp.com/mangakakalot/q2/q_and_a/vol3_chapter_15_whats_your_favorite_food/11.jpg",
    "https://img-proxy.imgfo.com/?referer=https://manganelo.com&url=https://s7.mkklcdnv6temp.com/mangakakalot/q2/q_and_a/vol3_chapter_15_whats_your_favorite_food/12.jpg",
    "https://img-proxy.imgfo.com/?referer=https://manganelo.com&url=https://s7.mkklcdnv6temp.com/mangakakalot/q2/q_and_a/vol3_chapter_15_whats_your_favorite_food/13.jpg",
    "https://img-proxy.imgfo.com/?referer=https://manganelo.com&url=https://s7.mkklcdnv6temp.com/mangakakalot/q2/q_and_a/vol3_chapter_15_whats_your_favorite_food/14.jpg",
    "https://img-proxy.imgfo.com/?referer=https://manganelo.com&url=https://s7.mkklcdnv6temp.com/mangakakalot/q2/q_and_a/vol3_chapter_15_whats_your_favorite_food/15.jpg",
    "https://img-proxy.imgfo.com/?referer=https://manganelo.com&url=https://s7.mkklcdnv6temp.com/mangakakalot/q2/q_and_a/vol3_chapter_15_whats_your_favorite_food/16.jpg",
    "https://img-proxy.imgfo.com/?referer=https://manganelo.com&url=https://s7.mkklcdnv6temp.com/mangakakalot/q2/q_and_a/vol3_chapter_15_whats_your_favorite_food/17.jpg",
    "https://img-proxy.imgfo.com/?referer=https://manganelo.com&url=https://s7.mkklcdnv6temp.com/mangakakalot/q2/q_and_a/vol3_chapter_15_whats_your_favorite_food/18.jpg",
    "https://img-proxy.imgfo.com/?referer=https://manganelo.com&url=https://s7.mkklcdnv6temp.com/mangakakalot/q2/q_and_a/vol3_chapter_15_whats_your_favorite_food/19.jpg",
    "https://img-proxy.imgfo.com/?referer=https://manganelo.com&url=https://s7.mkklcdnv6temp.com/mangakakalot/q2/q_and_a/vol3_chapter_15_whats_your_favorite_food/20.jpg",
    "https://img-proxy.imgfo.com/?referer=https://manganelo.com&url=https://s7.mkklcdnv6temp.com/mangakakalot/q2/q_and_a/vol3_chapter_15_whats_your_favorite_food/21.jpg",
    "https://img-proxy.imgfo.com/?referer=https://manganelo.com&url=https://s7.mkklcdnv6temp.com/mangakakalot/q2/q_and_a/vol3_chapter_15_whats_your_favorite_food/22.jpg",
    "https://img-proxy.imgfo.com/?referer=https://manganelo.com&url=https://s7.mkklcdnv6temp.com/mangakakalot/q2/q_and_a/vol3_chapter_15_whats_your_favorite_food/23.jpg",
    "https://img-proxy.imgfo.com/?referer=https://manganelo.com&url=https://s7.mkklcdnv6temp.com/mangakakalot/q2/q_and_a/vol3_chapter_15_whats_your_favorite_food/24.jpg",
    "https://img-proxy.imgfo.com/?referer=https://manganelo.com&url=https://s7.mkklcdnv6temp.com/mangakakalot/q2/q_and_a/vol3_chapter_15_whats_your_favorite_food/25.jpg",
    "https://img-proxy.imgfo.com/?referer=https://manganelo.com&url=https://s7.mkklcdnv6temp.com/mangakakalot/q2/q_and_a/vol3_chapter_15_whats_your_favorite_food/26.jpg",
    "https://img-proxy.imgfo.com/?referer=https://manganelo.com&url=https://s7.mkklcdnv6temp.com/mangakakalot/q2/q_and_a/vol3_chapter_15_whats_your_favorite_food/27.jpg",
    "https://img-proxy.imgfo.com/?referer=https://manganelo.com&url=https://s7.mkklcdnv6temp.com/mangakakalot/q2/q_and_a/vol3_chapter_15_whats_your_favorite_food/28.jpg",
    "https://img-proxy.imgfo.com/?referer=https://manganelo.com&url=https://s7.mkklcdnv6temp.com/mangakakalot/q2/q_and_a/vol3_chapter_15_whats_your_favorite_food/29.jpg",
    "https://img-proxy.imgfo.com/?referer=https://manganelo.com&url=https://s7.mkklcdnv6temp.com/mangakakalot/q2/q_and_a/vol3_chapter_15_whats_your_favorite_food/30.jpg",
    "https://img-proxy.imgfo.com/?referer=https://manganelo.com&url=https://s7.mkklcdnv6temp.com/mangakakalot/q2/q_and_a/vol3_chapter_15_whats_your_favorite_food/31.jpg",
    "https://img-proxy.imgfo.com/?referer=https://manganelo.com&url=https://s7.mkklcdnv6temp.com/mangakakalot/q2/q_and_a/vol3_chapter_15_whats_your_favorite_food/32.jpg",
    "https://img-proxy.imgfo.com/?referer=https://manganelo.com&url=https://s7.mkklcdnv6temp.com/mangakakalot/q2/q_and_a/vol3_chapter_15_whats_your_favorite_food/33.jpg",
    "https://img-proxy.imgfo.com/?referer=https://manganelo.com&url=https://s7.mkklcdnv6temp.com/mangakakalot/q2/q_and_a/vol3_chapter_15_whats_your_favorite_food/34.jpg",
    "https://img-proxy.imgfo.com/?referer=https://manganelo.com&url=https://s7.mkklcdnv6temp.com/mangakakalot/q2/q_and_a/vol3_chapter_15_whats_your_favorite_food/35.jpg",
    "https://img-proxy.imgfo.com/?referer=https://manganelo.com&url=https://s7.mkklcdnv6temp.com/mangakakalot/q2/q_and_a/vol3_chapter_15_whats_your_favorite_food/36.jpg",
    "https://img-proxy.imgfo.com/?referer=https://manganelo.com&url=https://s7.mkklcdnv6temp.com/mangakakalot/q2/q_and_a/vol3_chapter_15_whats_your_favorite_food/37.jpg",
    "https://img-proxy.imgfo.com/?referer=https://manganelo.com&url=https://s7.mkklcdnv6temp.com/mangakakalot/q2/q_and_a/vol3_chapter_15_whats_your_favorite_food/38.jpg"
  ]
}