{
  "cover": "https://avt.mkklcdnv6.com/46/l/4-1583471643.jpg",
  "title": "Otome No Iroha!",
  "original": "乙女のいろは！ ; A Maiden's Beginning! ; Otome no Iroha",
  "genre": "Action, Adult, Comedy, Ecchi, Fantasy, Gender bender, School life, Manga",
  "author": "Mikage",
  "status": "Completed",
  "backlink": "https://manganu.com/collections/mikage/otome-no-iroha/",
  "description": "Iroha, a masculine girl, and Hifumi, a feminine boy, are siblings who have transferred to a different middle school and moved to their grandparents&rsquo; house. However, after the first night much to their surprise they both change bodies, Iroha into a boy and Hifumi into a girl while Iroha tries to get back her girl body how will this turn?",
  "language": "English",
  "images": [
    "https://img-proxy.imgfo.com/?referer=https://manganelo.com&url=https://s6.mkklcdnv6temp.com/mangakakalot/r1/read_otome_no_iroha/vol1_chapter_1/1.jpg",
    "https://img-proxy.imgfo.com/?referer=https://manganelo.com&url=https://s6.mkklcdnv6temp.com/mangakakalot/r1/read_otome_no_iroha/vol1_chapter_1/2.jpg",
    "https://img-proxy.imgfo.com/?referer=https://manganelo.com&url=https://s6.mkklcdnv6temp.com/mangakakalot/r1/read_otome_no_iroha/vol1_chapter_1/3.jpg",
    "https://img-proxy.imgfo.com/?referer=https://manganelo.com&url=https://s6.mkklcdnv6temp.com/mangakakalot/r1/read_otome_no_iroha/vol1_chapter_1/4.jpg",
    "https://img-proxy.imgfo.com/?referer=https://manganelo.com&url=https://s6.mkklcdnv6temp.com/mangakakalot/r1/read_otome_no_iroha/vol1_chapter_1/5.jpg",
    "https://img-proxy.imgfo.com/?referer=https://manganelo.com&url=https://s6.mkklcdnv6temp.com/mangakakalot/r1/read_otome_no_iroha/vol1_chapter_1/6.jpg",
    "https://img-proxy.imgfo.com/?referer=https://manganelo.com&url=https://s6.mkklcdnv6temp.com/mangakakalot/r1/read_otome_no_iroha/vol1_chapter_1/7.jpg",
    "https://img-proxy.imgfo.com/?referer=https://manganelo.com&url=https://s6.mkklcdnv6temp.com/mangakakalot/r1/read_otome_no_iroha/vol1_chapter_1/8.jpg",
    "https://img-proxy.imgfo.com/?referer=https://manganelo.com&url=https://s6.mkklcdnv6temp.com/mangakakalot/r1/read_otome_no_iroha/vol1_chapter_1/9.jpg",
    "https://img-proxy.imgfo.com/?referer=https://manganelo.com&url=https://s6.mkklcdnv6temp.com/mangakakalot/r1/read_otome_no_iroha/vol1_chapter_1/10.jpg",
    "https://img-proxy.imgfo.com/?referer=https://manganelo.com&url=https://s6.mkklcdnv6temp.com/mangakakalot/r1/read_otome_no_iroha/vol1_chapter_1/11.jpg",
    "https://img-proxy.imgfo.com/?referer=https://manganelo.com&url=https://s6.mkklcdnv6temp.com/mangakakalot/r1/read_otome_no_iroha/vol1_chapter_1/12.jpg",
    "https://img-proxy.imgfo.com/?referer=https://manganelo.com&url=https://s6.mkklcdnv6temp.com/mangakakalot/r1/read_otome_no_iroha/vol1_chapter_1/13.jpg",
    "https://img-proxy.imgfo.com/?referer=https://manganelo.com&url=https://s6.mkklcdnv6temp.com/mangakakalot/r1/read_otome_no_iroha/vol1_chapter_1/14.jpg",
    "https://img-proxy.imgfo.com/?referer=https://manganelo.com&url=https://s6.mkklcdnv6temp.com/mangakakalot/r1/read_otome_no_iroha/vol1_chapter_1/15.jpg",
    "https://img-proxy.imgfo.com/?referer=https://manganelo.com&url=https://s6.mkklcdnv6temp.com/mangakakalot/r1/read_otome_no_iroha/vol1_chapter_1/16.jpg",
    "https://img-proxy.imgfo.com/?referer=https://manganelo.com&url=https://s6.mkklcdnv6temp.com/mangakakalot/r1/read_otome_no_iroha/vol1_chapter_1/17.jpg",
    "https://img-proxy.imgfo.com/?referer=https://manganelo.com&url=https://s6.mkklcdnv6temp.com/mangakakalot/r1/read_otome_no_iroha/vol1_chapter_1/18.jpg",
    "https://img-proxy.imgfo.com/?referer=https://manganelo.com&url=https://s6.mkklcdnv6temp.com/mangakakalot/r1/read_otome_no_iroha/vol1_chapter_1/19.jpg",
    "https://img-proxy.imgfo.com/?referer=https://manganelo.com&url=https://s6.mkklcdnv6temp.com/mangakakalot/r1/read_otome_no_iroha/vol1_chapter_1/20.jpg",
    "https://img-proxy.imgfo.com/?referer=https://manganelo.com&url=https://s6.mkklcdnv6temp.com/mangakakalot/r1/read_otome_no_iroha/vol1_chapter_1/21.jpg",
    "https://img-proxy.imgfo.com/?referer=https://manganelo.com&url=https://s6.mkklcdnv6temp.com/mangakakalot/r1/read_otome_no_iroha/vol1_chapter_1/22.jpg",
    "https://img-proxy.imgfo.com/?referer=https://manganelo.com&url=https://s6.mkklcdnv6temp.com/mangakakalot/r1/read_otome_no_iroha/vol1_chapter_1/23.jpg",
    "https://img-proxy.imgfo.com/?referer=https://manganelo.com&url=https://s6.mkklcdnv6temp.com/mangakakalot/r1/read_otome_no_iroha/vol1_chapter_1/24.jpg",
    "https://img-proxy.imgfo.com/?referer=https://manganelo.com&url=https://s6.mkklcdnv6temp.com/mangakakalot/r1/read_otome_no_iroha/vol1_chapter_1/25.jpg",
    "https://img-proxy.imgfo.com/?referer=https://manganelo.com&url=https://s6.mkklcdnv6temp.com/mangakakalot/r1/read_otome_no_iroha/vol1_chapter_1/26.jpg",
    "https://img-proxy.imgfo.com/?referer=https://manganelo.com&url=https://s6.mkklcdnv6temp.com/mangakakalot/r1/read_otome_no_iroha/vol1_chapter_1/27.jpg",
    "https://img-proxy.imgfo.com/?referer=https://manganelo.com&url=https://s6.mkklcdnv6temp.com/mangakakalot/r1/read_otome_no_iroha/vol1_chapter_1/28.jpg",
    "https://img-proxy.imgfo.com/?referer=https://manganelo.com&url=https://s6.mkklcdnv6temp.com/mangakakalot/r1/read_otome_no_iroha/vol1_chapter_1/29.jpg",
    "https://img-proxy.imgfo.com/?referer=https://manganelo.com&url=https://s6.mkklcdnv6temp.com/mangakakalot/r1/read_otome_no_iroha/vol1_chapter_1/30.jpg",
    "https://img-proxy.imgfo.com/?referer=https://manganelo.com&url=https://s6.mkklcdnv6temp.com/mangakakalot/r1/read_otome_no_iroha/vol1_chapter_1/31.jpg",
    "https://img-proxy.imgfo.com/?referer=https://manganelo.com&url=https://s6.mkklcdnv6temp.com/mangakakalot/r1/read_otome_no_iroha/vol1_chapter_1/32.jpg",
    "https://img-proxy.imgfo.com/?referer=https://manganelo.com&url=https://s6.mkklcdnv6temp.com/mangakakalot/r1/read_otome_no_iroha/vol1_chapter_1/33.jpg",
    "https://img-proxy.imgfo.com/?referer=https://manganelo.com&url=https://s6.mkklcdnv6temp.com/mangakakalot/r1/read_otome_no_iroha/vol1_chapter_1/34.jpg"
  ]
}