{
  "cover": "https://avt.mkklcdnv6.com/5/v/13-1583487937.jpg",
  "title": "Kare No Ondo",
  "original": "彼の温度 ; His Temperature",
  "genre": "Drama, Romance, Shoujo, Tragedy, Manga",
  "author": "Miyagawa Masayo",
  "status": "Completed",
  "backlink": "https://manganu.com/collections/miyagawa-masayo/kare-no-ondo/",
  "description": "Ito is a girl whose father beats her, nonetheless hides it from the people around her. But when things spiral out of control only Ibuki is willing to reach out his hand to try and save her. As the two are drawn together, however, he is simultaneously tied down by obligations difficult to break away from no matter where his heart lays.",
  "language": "English",
  "images": [
    "https://img-proxy.imgfo.com/?referer=https://manganelo.com&url=https://s7.mkklcdnv6temp.com/mangakakalot/k1/kare_no_ondo/vol3_chapter_17_liaison/1.jpg",
    "https://img-proxy.imgfo.com/?referer=https://manganelo.com&url=https://s7.mkklcdnv6temp.com/mangakakalot/k1/kare_no_ondo/vol3_chapter_17_liaison/2.jpg",
    "https://img-proxy.imgfo.com/?referer=https://manganelo.com&url=https://s7.mkklcdnv6temp.com/mangakakalot/k1/kare_no_ondo/vol3_chapter_17_liaison/3.jpg",
    "https://img-proxy.imgfo.com/?referer=https://manganelo.com&url=https://s7.mkklcdnv6temp.com/mangakakalot/k1/kare_no_ondo/vol3_chapter_17_liaison/4.jpg",
    "https://img-proxy.imgfo.com/?referer=https://manganelo.com&url=https://s7.mkklcdnv6temp.com/mangakakalot/k1/kare_no_ondo/vol3_chapter_17_liaison/5.jpg",
    "https://img-proxy.imgfo.com/?referer=https://manganelo.com&url=https://s7.mkklcdnv6temp.com/mangakakalot/k1/kare_no_ondo/vol3_chapter_17_liaison/6.jpg",
    "https://img-proxy.imgfo.com/?referer=https://manganelo.com&url=https://s7.mkklcdnv6temp.com/mangakakalot/k1/kare_no_ondo/vol3_chapter_17_liaison/7.jpg",
    "https://img-proxy.imgfo.com/?referer=https://manganelo.com&url=https://s7.mkklcdnv6temp.com/mangakakalot/k1/kare_no_ondo/vol3_chapter_17_liaison/8.jpg",
    "https://img-proxy.imgfo.com/?referer=https://manganelo.com&url=https://s7.mkklcdnv6temp.com/mangakakalot/k1/kare_no_ondo/vol3_chapter_17_liaison/9.jpg",
    "https://img-proxy.imgfo.com/?referer=https://manganelo.com&url=https://s7.mkklcdnv6temp.com/mangakakalot/k1/kare_no_ondo/vol3_chapter_17_liaison/10.jpg",
    "https://img-proxy.imgfo.com/?referer=https://manganelo.com&url=https://s7.mkklcdnv6temp.com/mangakakalot/k1/kare_no_ondo/vol3_chapter_17_liaison/11.jpg",
    "https://img-proxy.imgfo.com/?referer=https://manganelo.com&url=https://s7.mkklcdnv6temp.com/mangakakalot/k1/kare_no_ondo/vol3_chapter_17_liaison/12.jpg",
    "https://img-proxy.imgfo.com/?referer=https://manganelo.com&url=https://s7.mkklcdnv6temp.com/mangakakalot/k1/kare_no_ondo/vol3_chapter_17_liaison/13.jpg",
    "https://img-proxy.imgfo.com/?referer=https://manganelo.com&url=https://s7.mkklcdnv6temp.com/mangakakalot/k1/kare_no_ondo/vol3_chapter_17_liaison/14.jpg",
    "https://img-proxy.imgfo.com/?referer=https://manganelo.com&url=https://s7.mkklcdnv6temp.com/mangakakalot/k1/kare_no_ondo/vol3_chapter_17_liaison/15.jpg",
    "https://img-proxy.imgfo.com/?referer=https://manganelo.com&url=https://s7.mkklcdnv6temp.com/mangakakalot/k1/kare_no_ondo/vol3_chapter_17_liaison/16.jpg",
    "https://img-proxy.imgfo.com/?referer=https://manganelo.com&url=https://s7.mkklcdnv6temp.com/mangakakalot/k1/kare_no_ondo/vol3_chapter_17_liaison/17.jpg",
    "https://img-proxy.imgfo.com/?referer=https://manganelo.com&url=https://s7.mkklcdnv6temp.com/mangakakalot/k1/kare_no_ondo/vol3_chapter_17_liaison/18.jpg"
  ]
}