{
  "cover": "https://avt.mkklcdnv6.com/49/v/1-1583465671.jpg",
  "title": "Links",
  "original": "リンクス",
  "genre": "Comedy, Romance, Shounen ai, Tragedy, Manga",
  "author": "Kizu Natsuki",
  "status": "Completed",
  "backlink": "https://manganu.com/collections/kizu-natsuki/links/",
  "description": "Links summary is updating. Come visit our website sometime to read the latest chapter of Links. If you have any question about this manga, Please don't hesitate to contact us or translate team. Hope you enjoy it.",
  "language": "English",
  "images": [
    "https://img-proxy.imgfo.com/?referer=https://manganelo.com&url=https://s7.mkklcdnv6temp.com/mangakakalot/l1/links/vol1_chapter_7_extras_animate_bonus_paper_end/1.jpg",
    "https://img-proxy.imgfo.com/?referer=https://manganelo.com&url=https://s7.mkklcdnv6temp.com/mangakakalot/l1/links/vol1_chapter_7_extras_animate_bonus_paper_end/2.jpg",
    "https://img-proxy.imgfo.com/?referer=https://manganelo.com&url=https://s7.mkklcdnv6temp.com/mangakakalot/l1/links/vol1_chapter_7_extras_animate_bonus_paper_end/3.jpg",
    "https://img-proxy.imgfo.com/?referer=https://manganelo.com&url=https://s7.mkklcdnv6temp.com/mangakakalot/l1/links/vol1_chapter_7_extras_animate_bonus_paper_end/4.jpg",
    "https://img-proxy.imgfo.com/?referer=https://manganelo.com&url=https://s7.mkklcdnv6temp.com/mangakakalot/l1/links/vol1_chapter_7_extras_animate_bonus_paper_end/5.jpg",
    "https://img-proxy.imgfo.com/?referer=https://manganelo.com&url=https://s7.mkklcdnv6temp.com/mangakakalot/l1/links/vol1_chapter_7_extras_animate_bonus_paper_end/6.jpg",
    "https://img-proxy.imgfo.com/?referer=https://manganelo.com&url=https://s7.mkklcdnv6temp.com/mangakakalot/l1/links/vol1_chapter_7_extras_animate_bonus_paper_end/7.jpg",
    "https://img-proxy.imgfo.com/?referer=https://manganelo.com&url=https://s7.mkklcdnv6temp.com/mangakakalot/l1/links/vol1_chapter_7_extras_animate_bonus_paper_end/8.jpg",
    "https://img-proxy.imgfo.com/?referer=https://manganelo.com&url=https://s7.mkklcdnv6temp.com/mangakakalot/l1/links/vol1_chapter_7_extras_animate_bonus_paper_end/9.jpg",
    "https://img-proxy.imgfo.com/?referer=https://manganelo.com&url=https://s7.mkklcdnv6temp.com/mangakakalot/l1/links/vol1_chapter_7_extras_animate_bonus_paper_end/10.jpg",
    "https://img-proxy.imgfo.com/?referer=https://manganelo.com&url=https://s7.mkklcdnv6temp.com/mangakakalot/l1/links/vol1_chapter_7_extras_animate_bonus_paper_end/11.jpg",
    "https://img-proxy.imgfo.com/?referer=https://manganelo.com&url=https://s7.mkklcdnv6temp.com/mangakakalot/l1/links/vol1_chapter_7_extras_animate_bonus_paper_end/12.jpg",
    "https://img-proxy.imgfo.com/?referer=https://manganelo.com&url=https://s7.mkklcdnv6temp.com/mangakakalot/l1/links/vol1_chapter_7_extras_animate_bonus_paper_end/13.jpg",
    "https://img-proxy.imgfo.com/?referer=https://manganelo.com&url=https://s7.mkklcdnv6temp.com/mangakakalot/l1/links/vol1_chapter_7_extras_animate_bonus_paper_end/14.jpg",
    "https://img-proxy.imgfo.com/?referer=https://manganelo.com&url=https://s7.mkklcdnv6temp.com/mangakakalot/l1/links/vol1_chapter_7_extras_animate_bonus_paper_end/15.jpg",
    "https://img-proxy.imgfo.com/?referer=https://manganelo.com&url=https://s7.mkklcdnv6temp.com/mangakakalot/l1/links/vol1_chapter_7_extras_animate_bonus_paper_end/16.jpg",
    "https://img-proxy.imgfo.com/?referer=https://manganelo.com&url=https://s7.mkklcdnv6temp.com/mangakakalot/l1/links/vol1_chapter_7_extras_animate_bonus_paper_end/17.jpg",
    "https://img-proxy.imgfo.com/?referer=https://manganelo.com&url=https://s7.mkklcdnv6temp.com/mangakakalot/l1/links/vol1_chapter_7_extras_animate_bonus_paper_end/18.jpg"
  ]
}