{
  "cover": "https://avt.mkklcdnv6.com/45/p/3-1583469469.jpg",
  "title": "Doubutsu No Kuni",
  "original": "どうぶつの国 ; 动物之国 ; 动物之国word ; Animal Country ; Animal Kingdom ; Animal Land",
  "genre": "Action, Adventure, Comedy, Drama, Fantasy, Sci fi, Shounen, Manga",
  "author": "Raiku Makoto",
  "status": "Completed",
  "backlink": "https://manganu.com/collections/raiku-makoto/doubutsu-no-kuni/",
  "description": "Akiyama resume:\nOne day a tanuki named Monoko stumbles across a baby abandoned by its mother. Having no family of her own, she raises the baby to the best of her ability even though they originate from different species. Hardships and enemies face the tanukis but that doesn't stop Monoko protecting the baby at all costs. Many trials await this baby as it grows and communicates with the animal world.",
  "language": "English",
  "images": [
    "https://img-proxy.imgfo.com/?referer=https://manganelo.com&url=https://s6.mkklcdnv6temp.com/mangakakalot/d2/doubutsu_no_kuni/vol6_chapter_19_the_humans_of_animal_country/1.jpg",
    "https://img-proxy.imgfo.com/?referer=https://manganelo.com&url=https://s6.mkklcdnv6temp.com/mangakakalot/d2/doubutsu_no_kuni/vol6_chapter_19_the_humans_of_animal_country/2.jpg",
    "https://img-proxy.imgfo.com/?referer=https://manganelo.com&url=https://s6.mkklcdnv6temp.com/mangakakalot/d2/doubutsu_no_kuni/vol6_chapter_19_the_humans_of_animal_country/3.jpg",
    "https://img-proxy.imgfo.com/?referer=https://manganelo.com&url=https://s6.mkklcdnv6temp.com/mangakakalot/d2/doubutsu_no_kuni/vol6_chapter_19_the_humans_of_animal_country/4.jpg",
    "https://img-proxy.imgfo.com/?referer=https://manganelo.com&url=https://s6.mkklcdnv6temp.com/mangakakalot/d2/doubutsu_no_kuni/vol6_chapter_19_the_humans_of_animal_country/5.jpg",
    "https://img-proxy.imgfo.com/?referer=https://manganelo.com&url=https://s6.mkklcdnv6temp.com/mangakakalot/d2/doubutsu_no_kuni/vol6_chapter_19_the_humans_of_animal_country/6.jpg",
    "https://img-proxy.imgfo.com/?referer=https://manganelo.com&url=https://s6.mkklcdnv6temp.com/mangakakalot/d2/doubutsu_no_kuni/vol6_chapter_19_the_humans_of_animal_country/7.jpg",
    "https://img-proxy.imgfo.com/?referer=https://manganelo.com&url=https://s6.mkklcdnv6temp.com/mangakakalot/d2/doubutsu_no_kuni/vol6_chapter_19_the_humans_of_animal_country/8.jpg",
    "https://img-proxy.imgfo.com/?referer=https://manganelo.com&url=https://s6.mkklcdnv6temp.com/mangakakalot/d2/doubutsu_no_kuni/vol6_chapter_19_the_humans_of_animal_country/9.jpg",
    "https://img-proxy.imgfo.com/?referer=https://manganelo.com&url=https://s6.mkklcdnv6temp.com/mangakakalot/d2/doubutsu_no_kuni/vol6_chapter_19_the_humans_of_animal_country/10.jpg",
    "https://img-proxy.imgfo.com/?referer=https://manganelo.com&url=https://s6.mkklcdnv6temp.com/mangakakalot/d2/doubutsu_no_kuni/vol6_chapter_19_the_humans_of_animal_country/11.jpg",
    "https://img-proxy.imgfo.com/?referer=https://manganelo.com&url=https://s6.mkklcdnv6temp.com/mangakakalot/d2/doubutsu_no_kuni/vol6_chapter_19_the_humans_of_animal_country/12.jpg",
    "https://img-proxy.imgfo.com/?referer=https://manganelo.com&url=https://s6.mkklcdnv6temp.com/mangakakalot/d2/doubutsu_no_kuni/vol6_chapter_19_the_humans_of_animal_country/13.jpg",
    "https://img-proxy.imgfo.com/?referer=https://manganelo.com&url=https://s6.mkklcdnv6temp.com/mangakakalot/d2/doubutsu_no_kuni/vol6_chapter_19_the_humans_of_animal_country/14.jpg",
    "https://img-proxy.imgfo.com/?referer=https://manganelo.com&url=https://s6.mkklcdnv6temp.com/mangakakalot/d2/doubutsu_no_kuni/vol6_chapter_19_the_humans_of_animal_country/15.jpg",
    "https://img-proxy.imgfo.com/?referer=https://manganelo.com&url=https://s6.mkklcdnv6temp.com/mangakakalot/d2/doubutsu_no_kuni/vol6_chapter_19_the_humans_of_animal_country/16.jpg",
    "https://img-proxy.imgfo.com/?referer=https://manganelo.com&url=https://s6.mkklcdnv6temp.com/mangakakalot/d2/doubutsu_no_kuni/vol6_chapter_19_the_humans_of_animal_country/17.jpg",
    "https://img-proxy.imgfo.com/?referer=https://manganelo.com&url=https://s6.mkklcdnv6temp.com/mangakakalot/d2/doubutsu_no_kuni/vol6_chapter_19_the_humans_of_animal_country/18.jpg",
    "https://img-proxy.imgfo.com/?referer=https://manganelo.com&url=https://s6.mkklcdnv6temp.com/mangakakalot/d2/doubutsu_no_kuni/vol6_chapter_19_the_humans_of_animal_country/19.jpg",
    "https://img-proxy.imgfo.com/?referer=https://manganelo.com&url=https://s6.mkklcdnv6temp.com/mangakakalot/d2/doubutsu_no_kuni/vol6_chapter_19_the_humans_of_animal_country/20.jpg",
    "https://img-proxy.imgfo.com/?referer=https://manganelo.com&url=https://s6.mkklcdnv6temp.com/mangakakalot/d2/doubutsu_no_kuni/vol6_chapter_19_the_humans_of_animal_country/21.jpg",
    "https://img-proxy.imgfo.com/?referer=https://manganelo.com&url=https://s6.mkklcdnv6temp.com/mangakakalot/d2/doubutsu_no_kuni/vol6_chapter_19_the_humans_of_animal_country/22.jpg",
    "https://img-proxy.imgfo.com/?referer=https://manganelo.com&url=https://s6.mkklcdnv6temp.com/mangakakalot/d2/doubutsu_no_kuni/vol6_chapter_19_the_humans_of_animal_country/23.jpg",
    "https://img-proxy.imgfo.com/?referer=https://manganelo.com&url=https://s6.mkklcdnv6temp.com/mangakakalot/d2/doubutsu_no_kuni/vol6_chapter_19_the_humans_of_animal_country/24.jpg",
    "https://img-proxy.imgfo.com/?referer=https://manganelo.com&url=https://s6.mkklcdnv6temp.com/mangakakalot/d2/doubutsu_no_kuni/vol6_chapter_19_the_humans_of_animal_country/25.jpg",
    "https://img-proxy.imgfo.com/?referer=https://manganelo.com&url=https://s6.mkklcdnv6temp.com/mangakakalot/d2/doubutsu_no_kuni/vol6_chapter_19_the_humans_of_animal_country/26.jpg",
    "https://img-proxy.imgfo.com/?referer=https://manganelo.com&url=https://s6.mkklcdnv6temp.com/mangakakalot/d2/doubutsu_no_kuni/vol6_chapter_19_the_humans_of_animal_country/27.jpg",
    "https://img-proxy.imgfo.com/?referer=https://manganelo.com&url=https://s6.mkklcdnv6temp.com/mangakakalot/d2/doubutsu_no_kuni/vol6_chapter_19_the_humans_of_animal_country/28.jpg",
    "https://img-proxy.imgfo.com/?referer=https://manganelo.com&url=https://s6.mkklcdnv6temp.com/mangakakalot/d2/doubutsu_no_kuni/vol6_chapter_19_the_humans_of_animal_country/29.jpg",
    "https://img-proxy.imgfo.com/?referer=https://manganelo.com&url=https://s6.mkklcdnv6temp.com/mangakakalot/d2/doubutsu_no_kuni/vol6_chapter_19_the_humans_of_animal_country/30.jpg",
    "https://img-proxy.imgfo.com/?referer=https://manganelo.com&url=https://s6.mkklcdnv6temp.com/mangakakalot/d2/doubutsu_no_kuni/vol6_chapter_19_the_humans_of_animal_country/31.jpg",
    "https://img-proxy.imgfo.com/?referer=https://manganelo.com&url=https://s6.mkklcdnv6temp.com/mangakakalot/d2/doubutsu_no_kuni/vol6_chapter_19_the_humans_of_animal_country/32.jpg",
    "https://img-proxy.imgfo.com/?referer=https://manganelo.com&url=https://s6.mkklcdnv6temp.com/mangakakalot/d2/doubutsu_no_kuni/vol6_chapter_19_the_humans_of_animal_country/33.jpg",
    "https://img-proxy.imgfo.com/?referer=https://manganelo.com&url=https://s6.mkklcdnv6temp.com/mangakakalot/d2/doubutsu_no_kuni/vol6_chapter_19_the_humans_of_animal_country/34.jpg",
    "https://img-proxy.imgfo.com/?referer=https://manganelo.com&url=https://s6.mkklcdnv6temp.com/mangakakalot/d2/doubutsu_no_kuni/vol6_chapter_19_the_humans_of_animal_country/35.jpg",
    "https://img-proxy.imgfo.com/?referer=https://manganelo.com&url=https://s6.mkklcdnv6temp.com/mangakakalot/d2/doubutsu_no_kuni/vol6_chapter_19_the_humans_of_animal_country/36.jpg",
    "https://img-proxy.imgfo.com/?referer=https://manganelo.com&url=https://s6.mkklcdnv6temp.com/mangakakalot/d2/doubutsu_no_kuni/vol6_chapter_19_the_humans_of_animal_country/37.jpg",
    "https://img-proxy.imgfo.com/?referer=https://manganelo.com&url=https://s6.mkklcdnv6temp.com/mangakakalot/d2/doubutsu_no_kuni/vol6_chapter_19_the_humans_of_animal_country/38.jpg",
    "https://img-proxy.imgfo.com/?referer=https://manganelo.com&url=https://s6.mkklcdnv6temp.com/mangakakalot/d2/doubutsu_no_kuni/vol6_chapter_19_the_humans_of_animal_country/39.jpg",
    "https://img-proxy.imgfo.com/?referer=https://manganelo.com&url=https://s6.mkklcdnv6temp.com/mangakakalot/d2/doubutsu_no_kuni/vol6_chapter_19_the_humans_of_animal_country/40.jpg",
    "https://img-proxy.imgfo.com/?referer=https://manganelo.com&url=https://s6.mkklcdnv6temp.com/mangakakalot/d2/doubutsu_no_kuni/vol6_chapter_19_the_humans_of_animal_country/41.jpg",
    "https://img-proxy.imgfo.com/?referer=https://manganelo.com&url=https://s6.mkklcdnv6temp.com/mangakakalot/d2/doubutsu_no_kuni/vol6_chapter_19_the_humans_of_animal_country/42.jpg",
    "https://img-proxy.imgfo.com/?referer=https://manganelo.com&url=https://s6.mkklcdnv6temp.com/mangakakalot/d2/doubutsu_no_kuni/vol6_chapter_19_the_humans_of_animal_country/43.jpg",
    "https://img-proxy.imgfo.com/?referer=https://manganelo.com&url=https://s6.mkklcdnv6temp.com/mangakakalot/d2/doubutsu_no_kuni/vol6_chapter_19_the_humans_of_animal_country/44.jpg",
    "https://img-proxy.imgfo.com/?referer=https://manganelo.com&url=https://s6.mkklcdnv6temp.com/mangakakalot/d2/doubutsu_no_kuni/vol6_chapter_19_the_humans_of_animal_country/45.jpg",
    "https://img-proxy.imgfo.com/?referer=https://manganelo.com&url=https://s6.mkklcdnv6temp.com/mangakakalot/d2/doubutsu_no_kuni/vol6_chapter_19_the_humans_of_animal_country/46.jpg",
    "https://img-proxy.imgfo.com/?referer=https://manganelo.com&url=https://s6.mkklcdnv6temp.com/mangakakalot/d2/doubutsu_no_kuni/vol6_chapter_19_the_humans_of_animal_country/47.jpg",
    "https://img-proxy.imgfo.com/?referer=https://manganelo.com&url=https://s6.mkklcdnv6temp.com/mangakakalot/d2/doubutsu_no_kuni/vol6_chapter_19_the_humans_of_animal_country/48.jpg",
    "https://img-proxy.imgfo.com/?referer=https://manganelo.com&url=https://s6.mkklcdnv6temp.com/mangakakalot/d2/doubutsu_no_kuni/vol6_chapter_19_the_humans_of_animal_country/49.jpg",
    "https://img-proxy.imgfo.com/?referer=https://manganelo.com&url=https://s6.mkklcdnv6temp.com/mangakakalot/d2/doubutsu_no_kuni/vol6_chapter_19_the_humans_of_animal_country/50.jpg",
    "https://img-proxy.imgfo.com/?referer=https://manganelo.com&url=https://s6.mkklcdnv6temp.com/mangakakalot/d2/doubutsu_no_kuni/vol6_chapter_19_the_humans_of_animal_country/51.jpg",
    "https://img-proxy.imgfo.com/?referer=https://manganelo.com&url=https://s6.mkklcdnv6temp.com/mangakakalot/d2/doubutsu_no_kuni/vol6_chapter_19_the_humans_of_animal_country/52.jpg"
  ]
}