{
  "cover": "https://avt.mkklcdnv6.com/10/p/5-1583472272.jpg",
  "title": "Nangoku Shounen Papuwa-kun",
  "original": "南国少年パプワくん ; Nankoku Shounen Papuwa-kun ; Papuwa-kun, the Boy From the South",
  "genre": "Adventure, Comedy, Shounen, Manga",
  "author": "Shibata Ami",
  "status": "Completed",
  "backlink": "https://manganu.com/collections/shibata-ami/nangoku-shounen-papuwa-kun/",
  "description": "From Neptise Scans:\nThe story follows Shintaro, the Ganma Army's #1, after he gets stranded on the wacky Papuwa Island.",
  "language": "English",
  "images": [
    "https://img-proxy.imgfo.com/?referer=https://manganelo.com&url=https://s3.mkklcdnv6temp.com/mangakakalot/n1/nangoku_shounen_papuwakun/vol4_chapter_29_the_wizard_nagoya_willow/1.jpg",
    "https://img-proxy.imgfo.com/?referer=https://manganelo.com&url=https://s3.mkklcdnv6temp.com/mangakakalot/n1/nangoku_shounen_papuwakun/vol4_chapter_29_the_wizard_nagoya_willow/2.jpg",
    "https://img-proxy.imgfo.com/?referer=https://manganelo.com&url=https://s3.mkklcdnv6temp.com/mangakakalot/n1/nangoku_shounen_papuwakun/vol4_chapter_29_the_wizard_nagoya_willow/3.jpg",
    "https://img-proxy.imgfo.com/?referer=https://manganelo.com&url=https://s3.mkklcdnv6temp.com/mangakakalot/n1/nangoku_shounen_papuwakun/vol4_chapter_29_the_wizard_nagoya_willow/4.jpg",
    "https://img-proxy.imgfo.com/?referer=https://manganelo.com&url=https://s3.mkklcdnv6temp.com/mangakakalot/n1/nangoku_shounen_papuwakun/vol4_chapter_29_the_wizard_nagoya_willow/5.jpg",
    "https://img-proxy.imgfo.com/?referer=https://manganelo.com&url=https://s3.mkklcdnv6temp.com/mangakakalot/n1/nangoku_shounen_papuwakun/vol4_chapter_29_the_wizard_nagoya_willow/6.jpg",
    "https://img-proxy.imgfo.com/?referer=https://manganelo.com&url=https://s3.mkklcdnv6temp.com/mangakakalot/n1/nangoku_shounen_papuwakun/vol4_chapter_29_the_wizard_nagoya_willow/7.jpg",
    "https://img-proxy.imgfo.com/?referer=https://manganelo.com&url=https://s3.mkklcdnv6temp.com/mangakakalot/n1/nangoku_shounen_papuwakun/vol4_chapter_29_the_wizard_nagoya_willow/8.jpg",
    "https://img-proxy.imgfo.com/?referer=https://manganelo.com&url=https://s3.mkklcdnv6temp.com/mangakakalot/n1/nangoku_shounen_papuwakun/vol4_chapter_29_the_wizard_nagoya_willow/9.jpg",
    "https://img-proxy.imgfo.com/?referer=https://manganelo.com&url=https://s3.mkklcdnv6temp.com/mangakakalot/n1/nangoku_shounen_papuwakun/vol4_chapter_29_the_wizard_nagoya_willow/10.jpg",
    "https://img-proxy.imgfo.com/?referer=https://manganelo.com&url=https://s3.mkklcdnv6temp.com/mangakakalot/n1/nangoku_shounen_papuwakun/vol4_chapter_29_the_wizard_nagoya_willow/11.jpg",
    "https://img-proxy.imgfo.com/?referer=https://manganelo.com&url=https://s3.mkklcdnv6temp.com/mangakakalot/n1/nangoku_shounen_papuwakun/vol4_chapter_29_the_wizard_nagoya_willow/12.jpg",
    "https://img-proxy.imgfo.com/?referer=https://manganelo.com&url=https://s3.mkklcdnv6temp.com/mangakakalot/n1/nangoku_shounen_papuwakun/vol4_chapter_29_the_wizard_nagoya_willow/13.jpg",
    "https://img-proxy.imgfo.com/?referer=https://manganelo.com&url=https://s3.mkklcdnv6temp.com/mangakakalot/n1/nangoku_shounen_papuwakun/vol4_chapter_29_the_wizard_nagoya_willow/14.jpg",
    "https://img-proxy.imgfo.com/?referer=https://manganelo.com&url=https://s3.mkklcdnv6temp.com/mangakakalot/n1/nangoku_shounen_papuwakun/vol4_chapter_29_the_wizard_nagoya_willow/15.jpg",
    "https://img-proxy.imgfo.com/?referer=https://manganelo.com&url=https://s3.mkklcdnv6temp.com/mangakakalot/n1/nangoku_shounen_papuwakun/vol4_chapter_29_the_wizard_nagoya_willow/16.jpg"
  ]
}