{
  "cover": "https://avt.mkklcdnv6.com/10/p/5-1583472272.jpg",
  "title": "Nangoku Shounen Papuwa-kun",
  "original": "南国少年パプワくん ; Nankoku Shounen Papuwa-kun ; Papuwa-kun, the Boy From the South",
  "genre": "Adventure, Comedy, Shounen, Manga",
  "author": "Shibata Ami",
  "status": "Completed",
  "backlink": "https://manganu.com/collections/shibata-ami/nangoku-shounen-papuwa-kun/",
  "description": "From Neptise Scans:\nThe story follows Shintaro, the Ganma Army's #1, after he gets stranded on the wacky Papuwa Island.",
  "language": "English",
  "images": [
    "https://img-proxy.imgfo.com/?referer=https://manganelo.com&url=https://s3.mkklcdnv6temp.com/mangakakalot/n1/nangoku_shounen_papuwakun/vol2_chapter_14_the_hanami_monster_yopparider_appears/1.jpg",
    "https://img-proxy.imgfo.com/?referer=https://manganelo.com&url=https://s3.mkklcdnv6temp.com/mangakakalot/n1/nangoku_shounen_papuwakun/vol2_chapter_14_the_hanami_monster_yopparider_appears/2.jpg",
    "https://img-proxy.imgfo.com/?referer=https://manganelo.com&url=https://s3.mkklcdnv6temp.com/mangakakalot/n1/nangoku_shounen_papuwakun/vol2_chapter_14_the_hanami_monster_yopparider_appears/3.jpg",
    "https://img-proxy.imgfo.com/?referer=https://manganelo.com&url=https://s3.mkklcdnv6temp.com/mangakakalot/n1/nangoku_shounen_papuwakun/vol2_chapter_14_the_hanami_monster_yopparider_appears/4.jpg",
    "https://img-proxy.imgfo.com/?referer=https://manganelo.com&url=https://s3.mkklcdnv6temp.com/mangakakalot/n1/nangoku_shounen_papuwakun/vol2_chapter_14_the_hanami_monster_yopparider_appears/5.jpg",
    "https://img-proxy.imgfo.com/?referer=https://manganelo.com&url=https://s3.mkklcdnv6temp.com/mangakakalot/n1/nangoku_shounen_papuwakun/vol2_chapter_14_the_hanami_monster_yopparider_appears/6.jpg",
    "https://img-proxy.imgfo.com/?referer=https://manganelo.com&url=https://s3.mkklcdnv6temp.com/mangakakalot/n1/nangoku_shounen_papuwakun/vol2_chapter_14_the_hanami_monster_yopparider_appears/7.jpg",
    "https://img-proxy.imgfo.com/?referer=https://manganelo.com&url=https://s3.mkklcdnv6temp.com/mangakakalot/n1/nangoku_shounen_papuwakun/vol2_chapter_14_the_hanami_monster_yopparider_appears/8.jpg",
    "https://img-proxy.imgfo.com/?referer=https://manganelo.com&url=https://s3.mkklcdnv6temp.com/mangakakalot/n1/nangoku_shounen_papuwakun/vol2_chapter_14_the_hanami_monster_yopparider_appears/9.jpg",
    "https://img-proxy.imgfo.com/?referer=https://manganelo.com&url=https://s3.mkklcdnv6temp.com/mangakakalot/n1/nangoku_shounen_papuwakun/vol2_chapter_14_the_hanami_monster_yopparider_appears/10.jpg",
    "https://img-proxy.imgfo.com/?referer=https://manganelo.com&url=https://s3.mkklcdnv6temp.com/mangakakalot/n1/nangoku_shounen_papuwakun/vol2_chapter_14_the_hanami_monster_yopparider_appears/11.jpg",
    "https://img-proxy.imgfo.com/?referer=https://manganelo.com&url=https://s3.mkklcdnv6temp.com/mangakakalot/n1/nangoku_shounen_papuwakun/vol2_chapter_14_the_hanami_monster_yopparider_appears/12.jpg",
    "https://img-proxy.imgfo.com/?referer=https://manganelo.com&url=https://s3.mkklcdnv6temp.com/mangakakalot/n1/nangoku_shounen_papuwakun/vol2_chapter_14_the_hanami_monster_yopparider_appears/13.jpg",
    "https://img-proxy.imgfo.com/?referer=https://manganelo.com&url=https://s3.mkklcdnv6temp.com/mangakakalot/n1/nangoku_shounen_papuwakun/vol2_chapter_14_the_hanami_monster_yopparider_appears/14.jpg",
    "https://img-proxy.imgfo.com/?referer=https://manganelo.com&url=https://s3.mkklcdnv6temp.com/mangakakalot/n1/nangoku_shounen_papuwakun/vol2_chapter_14_the_hanami_monster_yopparider_appears/15.jpg",
    "https://img-proxy.imgfo.com/?referer=https://manganelo.com&url=https://s3.mkklcdnv6temp.com/mangakakalot/n1/nangoku_shounen_papuwakun/vol2_chapter_14_the_hanami_monster_yopparider_appears/16.jpg",
    "https://img-proxy.imgfo.com/?referer=https://manganelo.com&url=https://s3.mkklcdnv6temp.com/mangakakalot/n1/nangoku_shounen_papuwakun/vol2_chapter_14_the_hanami_monster_yopparider_appears/17.jpg",
    "https://img-proxy.imgfo.com/?referer=https://manganelo.com&url=https://s3.mkklcdnv6temp.com/mangakakalot/n1/nangoku_shounen_papuwakun/vol2_chapter_14_the_hanami_monster_yopparider_appears/18.jpg",
    "https://img-proxy.imgfo.com/?referer=https://manganelo.com&url=https://s3.mkklcdnv6temp.com/mangakakalot/n1/nangoku_shounen_papuwakun/vol2_chapter_14_the_hanami_monster_yopparider_appears/19.jpg",
    "https://img-proxy.imgfo.com/?referer=https://manganelo.com&url=https://s3.mkklcdnv6temp.com/mangakakalot/n1/nangoku_shounen_papuwakun/vol2_chapter_14_the_hanami_monster_yopparider_appears/20.jpg",
    "https://img-proxy.imgfo.com/?referer=https://manganelo.com&url=https://s3.mkklcdnv6temp.com/mangakakalot/n1/nangoku_shounen_papuwakun/vol2_chapter_14_the_hanami_monster_yopparider_appears/21.jpg",
    "https://img-proxy.imgfo.com/?referer=https://manganelo.com&url=https://s3.mkklcdnv6temp.com/mangakakalot/n1/nangoku_shounen_papuwakun/vol2_chapter_14_the_hanami_monster_yopparider_appears/22.jpg",
    "https://img-proxy.imgfo.com/?referer=https://manganelo.com&url=https://s3.mkklcdnv6temp.com/mangakakalot/n1/nangoku_shounen_papuwakun/vol2_chapter_14_the_hanami_monster_yopparider_appears/23.jpg",
    "https://img-proxy.imgfo.com/?referer=https://manganelo.com&url=https://s3.mkklcdnv6temp.com/mangakakalot/n1/nangoku_shounen_papuwakun/vol2_chapter_14_the_hanami_monster_yopparider_appears/24.jpg"
  ]
}