{
  "cover": "https://avt.mkklcdnv6.com/10/t/10-1583482555.jpg",
  "title": "Tonari No Koakuma Boy",
  "original": "となりの小悪魔 BOY ; となりの小悪魔♡BOY",
  "genre": "Romance, Shoujo, Smut, Manga",
  "author": "Moto Haruka",
  "status": "Completed",
  "backlink": "https://manganu.com/collections/moto-haruka/tonari-no-koakuma-boy/",
  "description": "From Shoujo Crusade:\nSeiji, the younger one, and Ai, two childhood friends, happen to live together.\nAi has an omamori* to get a boyfriend. She thinks she wants 'a very loving but cheeky boy.' But when she accidentally witnesses Seiji's date and kiss, her heart starts hurting. Why...?\nThe sparkling story that first drew Cheese!'s attention, Moto Haruka's debut FC, is now out!!\n*omamori - lucky charm",
  "language": "English",
  "images": [
    "https://img-proxy.imgfo.com/?referer=https://manganelo.com&url=https://s6.mkklcdnv6temp.com/mangakakalot/t2/tonari_no_koakuma_boy/vol1_chapter_2_ore_no_mune_de_nake/1.jpg",
    "https://img-proxy.imgfo.com/?referer=https://manganelo.com&url=https://s6.mkklcdnv6temp.com/mangakakalot/t2/tonari_no_koakuma_boy/vol1_chapter_2_ore_no_mune_de_nake/2.jpg",
    "https://img-proxy.imgfo.com/?referer=https://manganelo.com&url=https://s6.mkklcdnv6temp.com/mangakakalot/t2/tonari_no_koakuma_boy/vol1_chapter_2_ore_no_mune_de_nake/3.jpg",
    "https://img-proxy.imgfo.com/?referer=https://manganelo.com&url=https://s6.mkklcdnv6temp.com/mangakakalot/t2/tonari_no_koakuma_boy/vol1_chapter_2_ore_no_mune_de_nake/4.jpg",
    "https://img-proxy.imgfo.com/?referer=https://manganelo.com&url=https://s6.mkklcdnv6temp.com/mangakakalot/t2/tonari_no_koakuma_boy/vol1_chapter_2_ore_no_mune_de_nake/5.jpg",
    "https://img-proxy.imgfo.com/?referer=https://manganelo.com&url=https://s6.mkklcdnv6temp.com/mangakakalot/t2/tonari_no_koakuma_boy/vol1_chapter_2_ore_no_mune_de_nake/6.jpg",
    "https://img-proxy.imgfo.com/?referer=https://manganelo.com&url=https://s6.mkklcdnv6temp.com/mangakakalot/t2/tonari_no_koakuma_boy/vol1_chapter_2_ore_no_mune_de_nake/7.jpg",
    "https://img-proxy.imgfo.com/?referer=https://manganelo.com&url=https://s6.mkklcdnv6temp.com/mangakakalot/t2/tonari_no_koakuma_boy/vol1_chapter_2_ore_no_mune_de_nake/8.jpg",
    "https://img-proxy.imgfo.com/?referer=https://manganelo.com&url=https://s6.mkklcdnv6temp.com/mangakakalot/t2/tonari_no_koakuma_boy/vol1_chapter_2_ore_no_mune_de_nake/9.jpg",
    "https://img-proxy.imgfo.com/?referer=https://manganelo.com&url=https://s6.mkklcdnv6temp.com/mangakakalot/t2/tonari_no_koakuma_boy/vol1_chapter_2_ore_no_mune_de_nake/10.jpg",
    "https://img-proxy.imgfo.com/?referer=https://manganelo.com&url=https://s6.mkklcdnv6temp.com/mangakakalot/t2/tonari_no_koakuma_boy/vol1_chapter_2_ore_no_mune_de_nake/11.jpg",
    "https://img-proxy.imgfo.com/?referer=https://manganelo.com&url=https://s6.mkklcdnv6temp.com/mangakakalot/t2/tonari_no_koakuma_boy/vol1_chapter_2_ore_no_mune_de_nake/12.jpg",
    "https://img-proxy.imgfo.com/?referer=https://manganelo.com&url=https://s6.mkklcdnv6temp.com/mangakakalot/t2/tonari_no_koakuma_boy/vol1_chapter_2_ore_no_mune_de_nake/13.jpg",
    "https://img-proxy.imgfo.com/?referer=https://manganelo.com&url=https://s6.mkklcdnv6temp.com/mangakakalot/t2/tonari_no_koakuma_boy/vol1_chapter_2_ore_no_mune_de_nake/14.jpg",
    "https://img-proxy.imgfo.com/?referer=https://manganelo.com&url=https://s6.mkklcdnv6temp.com/mangakakalot/t2/tonari_no_koakuma_boy/vol1_chapter_2_ore_no_mune_de_nake/15.jpg",
    "https://img-proxy.imgfo.com/?referer=https://manganelo.com&url=https://s6.mkklcdnv6temp.com/mangakakalot/t2/tonari_no_koakuma_boy/vol1_chapter_2_ore_no_mune_de_nake/16.jpg",
    "https://img-proxy.imgfo.com/?referer=https://manganelo.com&url=https://s6.mkklcdnv6temp.com/mangakakalot/t2/tonari_no_koakuma_boy/vol1_chapter_2_ore_no_mune_de_nake/17.jpg",
    "https://img-proxy.imgfo.com/?referer=https://manganelo.com&url=https://s6.mkklcdnv6temp.com/mangakakalot/t2/tonari_no_koakuma_boy/vol1_chapter_2_ore_no_mune_de_nake/18.jpg",
    "https://img-proxy.imgfo.com/?referer=https://manganelo.com&url=https://s6.mkklcdnv6temp.com/mangakakalot/t2/tonari_no_koakuma_boy/vol1_chapter_2_ore_no_mune_de_nake/19.jpg",
    "https://img-proxy.imgfo.com/?referer=https://manganelo.com&url=https://s6.mkklcdnv6temp.com/mangakakalot/t2/tonari_no_koakuma_boy/vol1_chapter_2_ore_no_mune_de_nake/20.jpg",
    "https://img-proxy.imgfo.com/?referer=https://manganelo.com&url=https://s6.mkklcdnv6temp.com/mangakakalot/t2/tonari_no_koakuma_boy/vol1_chapter_2_ore_no_mune_de_nake/21.jpg",
    "https://img-proxy.imgfo.com/?referer=https://manganelo.com&url=https://s6.mkklcdnv6temp.com/mangakakalot/t2/tonari_no_koakuma_boy/vol1_chapter_2_ore_no_mune_de_nake/22.jpg",
    "https://img-proxy.imgfo.com/?referer=https://manganelo.com&url=https://s6.mkklcdnv6temp.com/mangakakalot/t2/tonari_no_koakuma_boy/vol1_chapter_2_ore_no_mune_de_nake/23.jpg",
    "https://img-proxy.imgfo.com/?referer=https://manganelo.com&url=https://s6.mkklcdnv6temp.com/mangakakalot/t2/tonari_no_koakuma_boy/vol1_chapter_2_ore_no_mune_de_nake/24.jpg",
    "https://img-proxy.imgfo.com/?referer=https://manganelo.com&url=https://s6.mkklcdnv6temp.com/mangakakalot/t2/tonari_no_koakuma_boy/vol1_chapter_2_ore_no_mune_de_nake/25.jpg",
    "https://img-proxy.imgfo.com/?referer=https://manganelo.com&url=https://s6.mkklcdnv6temp.com/mangakakalot/t2/tonari_no_koakuma_boy/vol1_chapter_2_ore_no_mune_de_nake/26.jpg",
    "https://img-proxy.imgfo.com/?referer=https://manganelo.com&url=https://s6.mkklcdnv6temp.com/mangakakalot/t2/tonari_no_koakuma_boy/vol1_chapter_2_ore_no_mune_de_nake/27.jpg",
    "https://img-proxy.imgfo.com/?referer=https://manganelo.com&url=https://s6.mkklcdnv6temp.com/mangakakalot/t2/tonari_no_koakuma_boy/vol1_chapter_2_ore_no_mune_de_nake/28.jpg",
    "https://img-proxy.imgfo.com/?referer=https://manganelo.com&url=https://s6.mkklcdnv6temp.com/mangakakalot/t2/tonari_no_koakuma_boy/vol1_chapter_2_ore_no_mune_de_nake/29.jpg",
    "https://img-proxy.imgfo.com/?referer=https://manganelo.com&url=https://s6.mkklcdnv6temp.com/mangakakalot/t2/tonari_no_koakuma_boy/vol1_chapter_2_ore_no_mune_de_nake/30.jpg",
    "https://img-proxy.imgfo.com/?referer=https://manganelo.com&url=https://s6.mkklcdnv6temp.com/mangakakalot/t2/tonari_no_koakuma_boy/vol1_chapter_2_ore_no_mune_de_nake/31.jpg",
    "https://img-proxy.imgfo.com/?referer=https://manganelo.com&url=https://s6.mkklcdnv6temp.com/mangakakalot/t2/tonari_no_koakuma_boy/vol1_chapter_2_ore_no_mune_de_nake/32.jpg",
    "https://img-proxy.imgfo.com/?referer=https://manganelo.com&url=https://s6.mkklcdnv6temp.com/mangakakalot/t2/tonari_no_koakuma_boy/vol1_chapter_2_ore_no_mune_de_nake/33.jpg",
    "https://img-proxy.imgfo.com/?referer=https://manganelo.com&url=https://s6.mkklcdnv6temp.com/mangakakalot/t2/tonari_no_koakuma_boy/vol1_chapter_2_ore_no_mune_de_nake/34.jpg",
    "https://img-proxy.imgfo.com/?referer=https://manganelo.com&url=https://s6.mkklcdnv6temp.com/mangakakalot/t2/tonari_no_koakuma_boy/vol1_chapter_2_ore_no_mune_de_nake/35.jpg",
    "https://img-proxy.imgfo.com/?referer=https://manganelo.com&url=https://s6.mkklcdnv6temp.com/mangakakalot/t2/tonari_no_koakuma_boy/vol1_chapter_2_ore_no_mune_de_nake/36.jpg"
  ]
}