{
  "cover": "https://avt.mkklcdnv6.com/48/z/4-1583471746.jpg",
  "title": "Immortal Regis",
  "original": "불멸의 레지스 ; Bul-Myeol-eui Rejiseu ; Regis of Immortality",
  "genre": "Action, Comedy, Ecchi, Fantasy, Romance, Shounen, Supernatural, Tragedy, Manhwa",
  "author": "Ga On-Bi",
  "status": "Completed",
  "backlink": "https://manganu.com/collections/ga-on-bi/immortal-regis/",
  "description": "One day, suddenly... a night where the moon shines like never before, a boy meets the otherworldly Serin, a denizen of Chaos, only to be killed and then resurrected. Being an Undead, he can no longer exist with humans due to an ancient law of Chaos. Now he must journey to Chaos to learn of a way to return home and save his brother--who is dying of a rare disease.",
  "language": "English",
  "images": [
    "https://img-proxy.imgfo.com/?referer=https://manganelo.com&url=https://s3.mkklcdnv6temp.com/mangakakalot/i1/immortal_regis/vol2_chapter_10/1.jpg",
    "https://img-proxy.imgfo.com/?referer=https://manganelo.com&url=https://s3.mkklcdnv6temp.com/mangakakalot/i1/immortal_regis/vol2_chapter_10/2.jpg",
    "https://img-proxy.imgfo.com/?referer=https://manganelo.com&url=https://s3.mkklcdnv6temp.com/mangakakalot/i1/immortal_regis/vol2_chapter_10/3.jpg",
    "https://img-proxy.imgfo.com/?referer=https://manganelo.com&url=https://s3.mkklcdnv6temp.com/mangakakalot/i1/immortal_regis/vol2_chapter_10/4.jpg",
    "https://img-proxy.imgfo.com/?referer=https://manganelo.com&url=https://s3.mkklcdnv6temp.com/mangakakalot/i1/immortal_regis/vol2_chapter_10/5.jpg",
    "https://img-proxy.imgfo.com/?referer=https://manganelo.com&url=https://s3.mkklcdnv6temp.com/mangakakalot/i1/immortal_regis/vol2_chapter_10/6.jpg",
    "https://img-proxy.imgfo.com/?referer=https://manganelo.com&url=https://s3.mkklcdnv6temp.com/mangakakalot/i1/immortal_regis/vol2_chapter_10/7.jpg",
    "https://img-proxy.imgfo.com/?referer=https://manganelo.com&url=https://s3.mkklcdnv6temp.com/mangakakalot/i1/immortal_regis/vol2_chapter_10/8.jpg",
    "https://img-proxy.imgfo.com/?referer=https://manganelo.com&url=https://s3.mkklcdnv6temp.com/mangakakalot/i1/immortal_regis/vol2_chapter_10/9.jpg",
    "https://img-proxy.imgfo.com/?referer=https://manganelo.com&url=https://s3.mkklcdnv6temp.com/mangakakalot/i1/immortal_regis/vol2_chapter_10/10.jpg",
    "https://img-proxy.imgfo.com/?referer=https://manganelo.com&url=https://s3.mkklcdnv6temp.com/mangakakalot/i1/immortal_regis/vol2_chapter_10/11.jpg",
    "https://img-proxy.imgfo.com/?referer=https://manganelo.com&url=https://s3.mkklcdnv6temp.com/mangakakalot/i1/immortal_regis/vol2_chapter_10/12.jpg",
    "https://img-proxy.imgfo.com/?referer=https://manganelo.com&url=https://s3.mkklcdnv6temp.com/mangakakalot/i1/immortal_regis/vol2_chapter_10/13.jpg",
    "https://img-proxy.imgfo.com/?referer=https://manganelo.com&url=https://s3.mkklcdnv6temp.com/mangakakalot/i1/immortal_regis/vol2_chapter_10/14.jpg",
    "https://img-proxy.imgfo.com/?referer=https://manganelo.com&url=https://s3.mkklcdnv6temp.com/mangakakalot/i1/immortal_regis/vol2_chapter_10/15.jpg",
    "https://img-proxy.imgfo.com/?referer=https://manganelo.com&url=https://s3.mkklcdnv6temp.com/mangakakalot/i1/immortal_regis/vol2_chapter_10/16.jpg",
    "https://img-proxy.imgfo.com/?referer=https://manganelo.com&url=https://s3.mkklcdnv6temp.com/mangakakalot/i1/immortal_regis/vol2_chapter_10/17.jpg",
    "https://img-proxy.imgfo.com/?referer=https://manganelo.com&url=https://s3.mkklcdnv6temp.com/mangakakalot/i1/immortal_regis/vol2_chapter_10/18.jpg",
    "https://img-proxy.imgfo.com/?referer=https://manganelo.com&url=https://s3.mkklcdnv6temp.com/mangakakalot/i1/immortal_regis/vol2_chapter_10/19.jpg",
    "https://img-proxy.imgfo.com/?referer=https://manganelo.com&url=https://s3.mkklcdnv6temp.com/mangakakalot/i1/immortal_regis/vol2_chapter_10/20.jpg",
    "https://img-proxy.imgfo.com/?referer=https://manganelo.com&url=https://s3.mkklcdnv6temp.com/mangakakalot/i1/immortal_regis/vol2_chapter_10/21.jpg",
    "https://img-proxy.imgfo.com/?referer=https://manganelo.com&url=https://s3.mkklcdnv6temp.com/mangakakalot/i1/immortal_regis/vol2_chapter_10/22.jpg",
    "https://img-proxy.imgfo.com/?referer=https://manganelo.com&url=https://s3.mkklcdnv6temp.com/mangakakalot/i1/immortal_regis/vol2_chapter_10/23.jpg",
    "https://img-proxy.imgfo.com/?referer=https://manganelo.com&url=https://s3.mkklcdnv6temp.com/mangakakalot/i1/immortal_regis/vol2_chapter_10/24.jpg"
  ]
}