{
  "cover": "https://avt.mkklcdnv6.com/6/l/5-1583472106.jpg",
  "title": "Sasuga No Sarutobi",
  "original": "さすがの猿飛 ; Amazing Sarutobi ; Clever Sarutobi ; L'Académie des Ninjas ; The Academy of Ninjas",
  "genre": "Comedy, Ecchi, Martial arts, Romance, School life, Shounen, Manga",
  "author": "Hosono Fujihiko",
  "status": "Completed",
  "backlink": "https://manganu.com/collections/hosono-fujihiko/sasuga-no-sarutobi/",
  "description": "Nikumaru, meaning \"meatball\" in Japanese, is a seventeen-year-old student at Ninja High School, a special school for the training of ninja. He is short and chubby, but he possesses a super technique known as the \"kamikaze\", where he stirs up a whirlwind with his feet. The series introduces his many adventures and pranks as Nikumaru meets with his rivals both in and out of school.\n[Source: Animenfo]",
  "language": "English",
  "images": [
    "https://img-proxy.imgfo.com/?referer=https://manganelo.com&url=https://s7.mkklcdnv6temp.com/mangakakalot/s1/sasuga_no_sarutobi/vol4_chapter_18_the_never_changing_nikumaru/1.jpg",
    "https://img-proxy.imgfo.com/?referer=https://manganelo.com&url=https://s7.mkklcdnv6temp.com/mangakakalot/s1/sasuga_no_sarutobi/vol4_chapter_18_the_never_changing_nikumaru/2.jpg",
    "https://img-proxy.imgfo.com/?referer=https://manganelo.com&url=https://s7.mkklcdnv6temp.com/mangakakalot/s1/sasuga_no_sarutobi/vol4_chapter_18_the_never_changing_nikumaru/3.jpg",
    "https://img-proxy.imgfo.com/?referer=https://manganelo.com&url=https://s7.mkklcdnv6temp.com/mangakakalot/s1/sasuga_no_sarutobi/vol4_chapter_18_the_never_changing_nikumaru/4.jpg",
    "https://img-proxy.imgfo.com/?referer=https://manganelo.com&url=https://s7.mkklcdnv6temp.com/mangakakalot/s1/sasuga_no_sarutobi/vol4_chapter_18_the_never_changing_nikumaru/5.jpg",
    "https://img-proxy.imgfo.com/?referer=https://manganelo.com&url=https://s7.mkklcdnv6temp.com/mangakakalot/s1/sasuga_no_sarutobi/vol4_chapter_18_the_never_changing_nikumaru/6.jpg",
    "https://img-proxy.imgfo.com/?referer=https://manganelo.com&url=https://s7.mkklcdnv6temp.com/mangakakalot/s1/sasuga_no_sarutobi/vol4_chapter_18_the_never_changing_nikumaru/7.jpg",
    "https://img-proxy.imgfo.com/?referer=https://manganelo.com&url=https://s7.mkklcdnv6temp.com/mangakakalot/s1/sasuga_no_sarutobi/vol4_chapter_18_the_never_changing_nikumaru/8.jpg",
    "https://img-proxy.imgfo.com/?referer=https://manganelo.com&url=https://s7.mkklcdnv6temp.com/mangakakalot/s1/sasuga_no_sarutobi/vol4_chapter_18_the_never_changing_nikumaru/9.jpg",
    "https://img-proxy.imgfo.com/?referer=https://manganelo.com&url=https://s7.mkklcdnv6temp.com/mangakakalot/s1/sasuga_no_sarutobi/vol4_chapter_18_the_never_changing_nikumaru/10.jpg",
    "https://img-proxy.imgfo.com/?referer=https://manganelo.com&url=https://s7.mkklcdnv6temp.com/mangakakalot/s1/sasuga_no_sarutobi/vol4_chapter_18_the_never_changing_nikumaru/11.jpg",
    "https://img-proxy.imgfo.com/?referer=https://manganelo.com&url=https://s7.mkklcdnv6temp.com/mangakakalot/s1/sasuga_no_sarutobi/vol4_chapter_18_the_never_changing_nikumaru/12.jpg",
    "https://img-proxy.imgfo.com/?referer=https://manganelo.com&url=https://s7.mkklcdnv6temp.com/mangakakalot/s1/sasuga_no_sarutobi/vol4_chapter_18_the_never_changing_nikumaru/13.jpg",
    "https://img-proxy.imgfo.com/?referer=https://manganelo.com&url=https://s7.mkklcdnv6temp.com/mangakakalot/s1/sasuga_no_sarutobi/vol4_chapter_18_the_never_changing_nikumaru/14.jpg",
    "https://img-proxy.imgfo.com/?referer=https://manganelo.com&url=https://s7.mkklcdnv6temp.com/mangakakalot/s1/sasuga_no_sarutobi/vol4_chapter_18_the_never_changing_nikumaru/15.jpg",
    "https://img-proxy.imgfo.com/?referer=https://manganelo.com&url=https://s7.mkklcdnv6temp.com/mangakakalot/s1/sasuga_no_sarutobi/vol4_chapter_18_the_never_changing_nikumaru/16.jpg",
    "https://img-proxy.imgfo.com/?referer=https://manganelo.com&url=https://s7.mkklcdnv6temp.com/mangakakalot/s1/sasuga_no_sarutobi/vol4_chapter_18_the_never_changing_nikumaru/17.jpg",
    "https://img-proxy.imgfo.com/?referer=https://manganelo.com&url=https://s7.mkklcdnv6temp.com/mangakakalot/s1/sasuga_no_sarutobi/vol4_chapter_18_the_never_changing_nikumaru/18.jpg",
    "https://img-proxy.imgfo.com/?referer=https://manganelo.com&url=https://s7.mkklcdnv6temp.com/mangakakalot/s1/sasuga_no_sarutobi/vol4_chapter_18_the_never_changing_nikumaru/19.jpg",
    "https://img-proxy.imgfo.com/?referer=https://manganelo.com&url=https://s7.mkklcdnv6temp.com/mangakakalot/s1/sasuga_no_sarutobi/vol4_chapter_18_the_never_changing_nikumaru/20.jpg",
    "https://img-proxy.imgfo.com/?referer=https://manganelo.com&url=https://s7.mkklcdnv6temp.com/mangakakalot/s1/sasuga_no_sarutobi/vol4_chapter_18_the_never_changing_nikumaru/21.jpg",
    "https://img-proxy.imgfo.com/?referer=https://manganelo.com&url=https://s7.mkklcdnv6temp.com/mangakakalot/s1/sasuga_no_sarutobi/vol4_chapter_18_the_never_changing_nikumaru/22.jpg",
    "https://img-proxy.imgfo.com/?referer=https://manganelo.com&url=https://s7.mkklcdnv6temp.com/mangakakalot/s1/sasuga_no_sarutobi/vol4_chapter_18_the_never_changing_nikumaru/23.jpg",
    "https://img-proxy.imgfo.com/?referer=https://manganelo.com&url=https://s7.mkklcdnv6temp.com/mangakakalot/s1/sasuga_no_sarutobi/vol4_chapter_18_the_never_changing_nikumaru/24.jpg",
    "https://img-proxy.imgfo.com/?referer=https://manganelo.com&url=https://s7.mkklcdnv6temp.com/mangakakalot/s1/sasuga_no_sarutobi/vol4_chapter_18_the_never_changing_nikumaru/25.jpg",
    "https://img-proxy.imgfo.com/?referer=https://manganelo.com&url=https://s7.mkklcdnv6temp.com/mangakakalot/s1/sasuga_no_sarutobi/vol4_chapter_18_the_never_changing_nikumaru/26.jpg",
    "https://img-proxy.imgfo.com/?referer=https://manganelo.com&url=https://s7.mkklcdnv6temp.com/mangakakalot/s1/sasuga_no_sarutobi/vol4_chapter_18_the_never_changing_nikumaru/27.jpg",
    "https://img-proxy.imgfo.com/?referer=https://manganelo.com&url=https://s7.mkklcdnv6temp.com/mangakakalot/s1/sasuga_no_sarutobi/vol4_chapter_18_the_never_changing_nikumaru/28.jpg",
    "https://img-proxy.imgfo.com/?referer=https://manganelo.com&url=https://s7.mkklcdnv6temp.com/mangakakalot/s1/sasuga_no_sarutobi/vol4_chapter_18_the_never_changing_nikumaru/29.jpg",
    "https://img-proxy.imgfo.com/?referer=https://manganelo.com&url=https://s7.mkklcdnv6temp.com/mangakakalot/s1/sasuga_no_sarutobi/vol4_chapter_18_the_never_changing_nikumaru/30.jpg",
    "https://img-proxy.imgfo.com/?referer=https://manganelo.com&url=https://s7.mkklcdnv6temp.com/mangakakalot/s1/sasuga_no_sarutobi/vol4_chapter_18_the_never_changing_nikumaru/31.jpg",
    "https://img-proxy.imgfo.com/?referer=https://manganelo.com&url=https://s7.mkklcdnv6temp.com/mangakakalot/s1/sasuga_no_sarutobi/vol4_chapter_18_the_never_changing_nikumaru/32.jpg"
  ]
}