{
  "cover": "https://avt.mkklcdnv6.com/42/m/6-1583475916.jpg",
  "title": "Black & White",
  "genre": "Action, Seinen, Manga",
  "author": "Matsumoto Taiyo",
  "status": "Completed",
  "backlink": "https://manganu.com/collections/matsumoto-taiyo/black-and-white/",
  "description": "Orphaned on the mean streets of Treasure Town, lost boys Black and White must mug, steal and fight to survive. Around them moves a world of corruption and loneliness, small-time crooks and neurotic police officers, and a band of sadistic yakuza who have plans for their once-fair city. Can they rise above their environment? From Baka-Updates",
  "language": "English",
  "images": [
    "https://img-proxy.imgfo.com/?referer=https://manganelo.com&url=https://s5.mkklcdnv6temp.com/mangakakalot/b1/black_white/vol3_chapter_26_the_color_of_black/1.jpg",
    "https://img-proxy.imgfo.com/?referer=https://manganelo.com&url=https://s5.mkklcdnv6temp.com/mangakakalot/b1/black_white/vol3_chapter_26_the_color_of_black/2.jpg",
    "https://img-proxy.imgfo.com/?referer=https://manganelo.com&url=https://s5.mkklcdnv6temp.com/mangakakalot/b1/black_white/vol3_chapter_26_the_color_of_black/3.jpg",
    "https://img-proxy.imgfo.com/?referer=https://manganelo.com&url=https://s5.mkklcdnv6temp.com/mangakakalot/b1/black_white/vol3_chapter_26_the_color_of_black/4.jpg",
    "https://img-proxy.imgfo.com/?referer=https://manganelo.com&url=https://s5.mkklcdnv6temp.com/mangakakalot/b1/black_white/vol3_chapter_26_the_color_of_black/5.jpg",
    "https://img-proxy.imgfo.com/?referer=https://manganelo.com&url=https://s5.mkklcdnv6temp.com/mangakakalot/b1/black_white/vol3_chapter_26_the_color_of_black/6.jpg",
    "https://img-proxy.imgfo.com/?referer=https://manganelo.com&url=https://s5.mkklcdnv6temp.com/mangakakalot/b1/black_white/vol3_chapter_26_the_color_of_black/7.jpg",
    "https://img-proxy.imgfo.com/?referer=https://manganelo.com&url=https://s5.mkklcdnv6temp.com/mangakakalot/b1/black_white/vol3_chapter_26_the_color_of_black/8.jpg",
    "https://img-proxy.imgfo.com/?referer=https://manganelo.com&url=https://s5.mkklcdnv6temp.com/mangakakalot/b1/black_white/vol3_chapter_26_the_color_of_black/9.jpg",
    "https://img-proxy.imgfo.com/?referer=https://manganelo.com&url=https://s5.mkklcdnv6temp.com/mangakakalot/b1/black_white/vol3_chapter_26_the_color_of_black/10.jpg",
    "https://img-proxy.imgfo.com/?referer=https://manganelo.com&url=https://s5.mkklcdnv6temp.com/mangakakalot/b1/black_white/vol3_chapter_26_the_color_of_black/11.jpg",
    "https://img-proxy.imgfo.com/?referer=https://manganelo.com&url=https://s5.mkklcdnv6temp.com/mangakakalot/b1/black_white/vol3_chapter_26_the_color_of_black/12.jpg",
    "https://img-proxy.imgfo.com/?referer=https://manganelo.com&url=https://s5.mkklcdnv6temp.com/mangakakalot/b1/black_white/vol3_chapter_26_the_color_of_black/13.jpg",
    "https://img-proxy.imgfo.com/?referer=https://manganelo.com&url=https://s5.mkklcdnv6temp.com/mangakakalot/b1/black_white/vol3_chapter_26_the_color_of_black/14.jpg",
    "https://img-proxy.imgfo.com/?referer=https://manganelo.com&url=https://s5.mkklcdnv6temp.com/mangakakalot/b1/black_white/vol3_chapter_26_the_color_of_black/15.jpg",
    "https://img-proxy.imgfo.com/?referer=https://manganelo.com&url=https://s5.mkklcdnv6temp.com/mangakakalot/b1/black_white/vol3_chapter_26_the_color_of_black/16.jpg",
    "https://img-proxy.imgfo.com/?referer=https://manganelo.com&url=https://s5.mkklcdnv6temp.com/mangakakalot/b1/black_white/vol3_chapter_26_the_color_of_black/17.jpg",
    "https://img-proxy.imgfo.com/?referer=https://manganelo.com&url=https://s5.mkklcdnv6temp.com/mangakakalot/b1/black_white/vol3_chapter_26_the_color_of_black/18.jpg",
    "https://img-proxy.imgfo.com/?referer=https://manganelo.com&url=https://s5.mkklcdnv6temp.com/mangakakalot/b1/black_white/vol3_chapter_26_the_color_of_black/19.jpg"
  ]
}