{
  "cover": "https://avt.mkklcdnv6.com/5/q/4-1583469893.jpg",
  "title": "Carnivorous Princess Yegrinna",
  "original": "육식공주 예그리나",
  "genre": "Action, Comedy, Ecchi, Fantasy, Romance, School life, Shounen, Supernatural, Manhwa",
  "author": "Ha Il-Kwon",
  "status": "Completed",
  "backlink": "https://manganu.com/collections/ha-il-kwon/carnivorous-princess-yegrinna/",
  "description": "Shik-nam is a student that's obsessed with his grades and studying, so much so that, for him, solving problems and equations can reach erotic levels. Needless to say, his interest in anything other than his studies is near zero.\nThen comes a complication. The animal kingdom is furious with what the world has become, so they sent Yegrinna, the dog princess, to punish the sinful humans for dirtying the world by turning them into animals. And out of all the places she appears, it's at our unfortunate protagonist's room.\nWhat awaits Shik-nam and Yegrinna now that their fateful meeting has set into motion plans long since in wait?",
  "language": "English",
  "images": [
    "https://img-proxy.imgfo.com/?referer=https://manganelo.com&url=https://s6.mkklcdnv6temp.com/mangakakalot/c1/carnivorous_princess_yegrinna/vol4_chapter_19_gonna_go_back_woof/1.jpg",
    "https://img-proxy.imgfo.com/?referer=https://manganelo.com&url=https://s6.mkklcdnv6temp.com/mangakakalot/c1/carnivorous_princess_yegrinna/vol4_chapter_19_gonna_go_back_woof/2.jpg",
    "https://img-proxy.imgfo.com/?referer=https://manganelo.com&url=https://s6.mkklcdnv6temp.com/mangakakalot/c1/carnivorous_princess_yegrinna/vol4_chapter_19_gonna_go_back_woof/3.jpg",
    "https://img-proxy.imgfo.com/?referer=https://manganelo.com&url=https://s6.mkklcdnv6temp.com/mangakakalot/c1/carnivorous_princess_yegrinna/vol4_chapter_19_gonna_go_back_woof/4.jpg",
    "https://img-proxy.imgfo.com/?referer=https://manganelo.com&url=https://s6.mkklcdnv6temp.com/mangakakalot/c1/carnivorous_princess_yegrinna/vol4_chapter_19_gonna_go_back_woof/5.jpg",
    "https://img-proxy.imgfo.com/?referer=https://manganelo.com&url=https://s6.mkklcdnv6temp.com/mangakakalot/c1/carnivorous_princess_yegrinna/vol4_chapter_19_gonna_go_back_woof/6.jpg",
    "https://img-proxy.imgfo.com/?referer=https://manganelo.com&url=https://s6.mkklcdnv6temp.com/mangakakalot/c1/carnivorous_princess_yegrinna/vol4_chapter_19_gonna_go_back_woof/7.jpg",
    "https://img-proxy.imgfo.com/?referer=https://manganelo.com&url=https://s6.mkklcdnv6temp.com/mangakakalot/c1/carnivorous_princess_yegrinna/vol4_chapter_19_gonna_go_back_woof/8.jpg",
    "https://img-proxy.imgfo.com/?referer=https://manganelo.com&url=https://s6.mkklcdnv6temp.com/mangakakalot/c1/carnivorous_princess_yegrinna/vol4_chapter_19_gonna_go_back_woof/9.jpg",
    "https://img-proxy.imgfo.com/?referer=https://manganelo.com&url=https://s6.mkklcdnv6temp.com/mangakakalot/c1/carnivorous_princess_yegrinna/vol4_chapter_19_gonna_go_back_woof/10.jpg",
    "https://img-proxy.imgfo.com/?referer=https://manganelo.com&url=https://s6.mkklcdnv6temp.com/mangakakalot/c1/carnivorous_princess_yegrinna/vol4_chapter_19_gonna_go_back_woof/11.jpg",
    "https://img-proxy.imgfo.com/?referer=https://manganelo.com&url=https://s6.mkklcdnv6temp.com/mangakakalot/c1/carnivorous_princess_yegrinna/vol4_chapter_19_gonna_go_back_woof/12.jpg",
    "https://img-proxy.imgfo.com/?referer=https://manganelo.com&url=https://s6.mkklcdnv6temp.com/mangakakalot/c1/carnivorous_princess_yegrinna/vol4_chapter_19_gonna_go_back_woof/13.jpg",
    "https://img-proxy.imgfo.com/?referer=https://manganelo.com&url=https://s6.mkklcdnv6temp.com/mangakakalot/c1/carnivorous_princess_yegrinna/vol4_chapter_19_gonna_go_back_woof/14.jpg",
    "https://img-proxy.imgfo.com/?referer=https://manganelo.com&url=https://s6.mkklcdnv6temp.com/mangakakalot/c1/carnivorous_princess_yegrinna/vol4_chapter_19_gonna_go_back_woof/15.jpg",
    "https://img-proxy.imgfo.com/?referer=https://manganelo.com&url=https://s6.mkklcdnv6temp.com/mangakakalot/c1/carnivorous_princess_yegrinna/vol4_chapter_19_gonna_go_back_woof/16.jpg",
    "https://img-proxy.imgfo.com/?referer=https://manganelo.com&url=https://s6.mkklcdnv6temp.com/mangakakalot/c1/carnivorous_princess_yegrinna/vol4_chapter_19_gonna_go_back_woof/17.jpg",
    "https://img-proxy.imgfo.com/?referer=https://manganelo.com&url=https://s6.mkklcdnv6temp.com/mangakakalot/c1/carnivorous_princess_yegrinna/vol4_chapter_19_gonna_go_back_woof/18.jpg",
    "https://img-proxy.imgfo.com/?referer=https://manganelo.com&url=https://s6.mkklcdnv6temp.com/mangakakalot/c1/carnivorous_princess_yegrinna/vol4_chapter_19_gonna_go_back_woof/19.jpg",
    "https://img-proxy.imgfo.com/?referer=https://manganelo.com&url=https://s6.mkklcdnv6temp.com/mangakakalot/c1/carnivorous_princess_yegrinna/vol4_chapter_19_gonna_go_back_woof/20.jpg",
    "https://img-proxy.imgfo.com/?referer=https://manganelo.com&url=https://s6.mkklcdnv6temp.com/mangakakalot/c1/carnivorous_princess_yegrinna/vol4_chapter_19_gonna_go_back_woof/21.jpg",
    "https://img-proxy.imgfo.com/?referer=https://manganelo.com&url=https://s6.mkklcdnv6temp.com/mangakakalot/c1/carnivorous_princess_yegrinna/vol4_chapter_19_gonna_go_back_woof/22.jpg",
    "https://img-proxy.imgfo.com/?referer=https://manganelo.com&url=https://s6.mkklcdnv6temp.com/mangakakalot/c1/carnivorous_princess_yegrinna/vol4_chapter_19_gonna_go_back_woof/23.jpg",
    "https://img-proxy.imgfo.com/?referer=https://manganelo.com&url=https://s6.mkklcdnv6temp.com/mangakakalot/c1/carnivorous_princess_yegrinna/vol4_chapter_19_gonna_go_back_woof/24.jpg",
    "https://img-proxy.imgfo.com/?referer=https://manganelo.com&url=https://s6.mkklcdnv6temp.com/mangakakalot/c1/carnivorous_princess_yegrinna/vol4_chapter_19_gonna_go_back_woof/25.jpg",
    "https://img-proxy.imgfo.com/?referer=https://manganelo.com&url=https://s6.mkklcdnv6temp.com/mangakakalot/c1/carnivorous_princess_yegrinna/vol4_chapter_19_gonna_go_back_woof/26.jpg",
    "https://img-proxy.imgfo.com/?referer=https://manganelo.com&url=https://s6.mkklcdnv6temp.com/mangakakalot/c1/carnivorous_princess_yegrinna/vol4_chapter_19_gonna_go_back_woof/27.jpg",
    "https://img-proxy.imgfo.com/?referer=https://manganelo.com&url=https://s6.mkklcdnv6temp.com/mangakakalot/c1/carnivorous_princess_yegrinna/vol4_chapter_19_gonna_go_back_woof/28.jpg",
    "https://img-proxy.imgfo.com/?referer=https://manganelo.com&url=https://s6.mkklcdnv6temp.com/mangakakalot/c1/carnivorous_princess_yegrinna/vol4_chapter_19_gonna_go_back_woof/29.jpg",
    "https://img-proxy.imgfo.com/?referer=https://manganelo.com&url=https://s6.mkklcdnv6temp.com/mangakakalot/c1/carnivorous_princess_yegrinna/vol4_chapter_19_gonna_go_back_woof/30.jpg",
    "https://img-proxy.imgfo.com/?referer=https://manganelo.com&url=https://s6.mkklcdnv6temp.com/mangakakalot/c1/carnivorous_princess_yegrinna/vol4_chapter_19_gonna_go_back_woof/31.jpg",
    "https://img-proxy.imgfo.com/?referer=https://manganelo.com&url=https://s6.mkklcdnv6temp.com/mangakakalot/c1/carnivorous_princess_yegrinna/vol4_chapter_19_gonna_go_back_woof/32.jpg",
    "https://img-proxy.imgfo.com/?referer=https://manganelo.com&url=https://s6.mkklcdnv6temp.com/mangakakalot/c1/carnivorous_princess_yegrinna/vol4_chapter_19_gonna_go_back_woof/33.jpg",
    "https://img-proxy.imgfo.com/?referer=https://manganelo.com&url=https://s6.mkklcdnv6temp.com/mangakakalot/c1/carnivorous_princess_yegrinna/vol4_chapter_19_gonna_go_back_woof/34.jpg",
    "https://img-proxy.imgfo.com/?referer=https://manganelo.com&url=https://s6.mkklcdnv6temp.com/mangakakalot/c1/carnivorous_princess_yegrinna/vol4_chapter_19_gonna_go_back_woof/35.jpg",
    "https://img-proxy.imgfo.com/?referer=https://manganelo.com&url=https://s6.mkklcdnv6temp.com/mangakakalot/c1/carnivorous_princess_yegrinna/vol4_chapter_19_gonna_go_back_woof/36.jpg",
    "https://img-proxy.imgfo.com/?referer=https://manganelo.com&url=https://s6.mkklcdnv6temp.com/mangakakalot/c1/carnivorous_princess_yegrinna/vol4_chapter_19_gonna_go_back_woof/37.jpg"
  ]
}