{
  "cover": "https://avt.mkklcdnv6.com/41/t/7-1583477853.jpg",
  "title": "Ge",
  "original": "GE - Good Ending ; GE～グッドエンディング～ ; Good Ending",
  "genre": "Drama, Mature, Romance, School life, Shounen, Slice of life, Manga",
  "author": "Sasuga Kei",
  "status": "Completed",
  "backlink": "https://manganu.com/collections/sasuga-kei/ge/",
  "description": "A follow-up to a heavy response to the original yomi-kiri manga by the same title. Good Ending follows the main character Utsumi&#39;s interactions with Kurokawa Yuki, a member of the school tennis team, in order for Utsumi to confess his feelings to the captain of the tennis team. It is implied that the title of the manga is derived from the &quot;good endings&quot; that are achieved in visual novels.",
  "language": "English",
  "images": [
    "https://img-proxy.imgfo.com/?referer=https://manganelo.com&url=https://s3v3.mkklcdnv6temp.com/mangakakalot/g1/ge/vol3_chapter_26_date_4/1.jpg",
    "https://img-proxy.imgfo.com/?referer=https://manganelo.com&url=https://s3v3.mkklcdnv6temp.com/mangakakalot/g1/ge/vol3_chapter_26_date_4/2.jpg",
    "https://img-proxy.imgfo.com/?referer=https://manganelo.com&url=https://s3v3.mkklcdnv6temp.com/mangakakalot/g1/ge/vol3_chapter_26_date_4/3.jpg",
    "https://img-proxy.imgfo.com/?referer=https://manganelo.com&url=https://s3v3.mkklcdnv6temp.com/mangakakalot/g1/ge/vol3_chapter_26_date_4/4.jpg",
    "https://img-proxy.imgfo.com/?referer=https://manganelo.com&url=https://s3v3.mkklcdnv6temp.com/mangakakalot/g1/ge/vol3_chapter_26_date_4/5.jpg",
    "https://img-proxy.imgfo.com/?referer=https://manganelo.com&url=https://s3v3.mkklcdnv6temp.com/mangakakalot/g1/ge/vol3_chapter_26_date_4/6.jpg",
    "https://img-proxy.imgfo.com/?referer=https://manganelo.com&url=https://s3v3.mkklcdnv6temp.com/mangakakalot/g1/ge/vol3_chapter_26_date_4/7.jpg",
    "https://img-proxy.imgfo.com/?referer=https://manganelo.com&url=https://s3v3.mkklcdnv6temp.com/mangakakalot/g1/ge/vol3_chapter_26_date_4/8.jpg",
    "https://img-proxy.imgfo.com/?referer=https://manganelo.com&url=https://s3v3.mkklcdnv6temp.com/mangakakalot/g1/ge/vol3_chapter_26_date_4/9.jpg",
    "https://img-proxy.imgfo.com/?referer=https://manganelo.com&url=https://s3v3.mkklcdnv6temp.com/mangakakalot/g1/ge/vol3_chapter_26_date_4/10.jpg",
    "https://img-proxy.imgfo.com/?referer=https://manganelo.com&url=https://s3v3.mkklcdnv6temp.com/mangakakalot/g1/ge/vol3_chapter_26_date_4/11.jpg",
    "https://img-proxy.imgfo.com/?referer=https://manganelo.com&url=https://s3v3.mkklcdnv6temp.com/mangakakalot/g1/ge/vol3_chapter_26_date_4/12.jpg",
    "https://img-proxy.imgfo.com/?referer=https://manganelo.com&url=https://s3v3.mkklcdnv6temp.com/mangakakalot/g1/ge/vol3_chapter_26_date_4/13.jpg",
    "https://img-proxy.imgfo.com/?referer=https://manganelo.com&url=https://s3v3.mkklcdnv6temp.com/mangakakalot/g1/ge/vol3_chapter_26_date_4/14.jpg",
    "https://img-proxy.imgfo.com/?referer=https://manganelo.com&url=https://s3v3.mkklcdnv6temp.com/mangakakalot/g1/ge/vol3_chapter_26_date_4/15.jpg",
    "https://img-proxy.imgfo.com/?referer=https://manganelo.com&url=https://s3v3.mkklcdnv6temp.com/mangakakalot/g1/ge/vol3_chapter_26_date_4/16.jpg",
    "https://img-proxy.imgfo.com/?referer=https://manganelo.com&url=https://s3v3.mkklcdnv6temp.com/mangakakalot/g1/ge/vol3_chapter_26_date_4/17.jpg",
    "https://img-proxy.imgfo.com/?referer=https://manganelo.com&url=https://s3v3.mkklcdnv6temp.com/mangakakalot/g1/ge/vol3_chapter_26_date_4/18.jpg",
    "https://img-proxy.imgfo.com/?referer=https://manganelo.com&url=https://s3v3.mkklcdnv6temp.com/mangakakalot/g1/ge/vol3_chapter_26_date_4/19.jpg",
    "https://img-proxy.imgfo.com/?referer=https://manganelo.com&url=https://s3v3.mkklcdnv6temp.com/mangakakalot/g1/ge/vol3_chapter_26_date_4/20.jpg"
  ]
}