{
  "cover": "https://avt.mkklcdnv6.com/36/h/6-1583475598.jpg",
  "title": "Canon",
  "original": "闇夜CANON ; kanon",
  "genre": "Action, Drama, Horror, Mystery, Romance, Shoujo, Supernatural, Manga",
  "author": "Shiomi Chika",
  "status": "Completed",
  "backlink": "https://manganu.com/collections/shiomi-chika/canon/",
  "description": "From CMX Manga:\nThis suspenseful, supernatural series tells the tale of Canon, the only student to escape from a bloody vampire attack that took the lives of her fellow classmates and turned her into one of the undead. Struggling against the terrible needs that compel her, Canon commits herself to use her powers for good and do whatever she can to avenge the deaths of her friends and her own terrible fate. Joining forces with a talking, vampire crow, she begins her quest to find Rodd, Lord of the Vampires.",
  "language": "English",
  "images": [
    "https://img-proxy.imgfo.com/?referer=https://manganelo.com&url=https://s6.mkklcdnv6temp.com/mangakakalot/c1/canon/vol3_chapter_91_hearts/1.jpg",
    "https://img-proxy.imgfo.com/?referer=https://manganelo.com&url=https://s6.mkklcdnv6temp.com/mangakakalot/c1/canon/vol3_chapter_91_hearts/2.jpg",
    "https://img-proxy.imgfo.com/?referer=https://manganelo.com&url=https://s6.mkklcdnv6temp.com/mangakakalot/c1/canon/vol3_chapter_91_hearts/3.jpg",
    "https://img-proxy.imgfo.com/?referer=https://manganelo.com&url=https://s6.mkklcdnv6temp.com/mangakakalot/c1/canon/vol3_chapter_91_hearts/4.jpg",
    "https://img-proxy.imgfo.com/?referer=https://manganelo.com&url=https://s6.mkklcdnv6temp.com/mangakakalot/c1/canon/vol3_chapter_91_hearts/5.jpg",
    "https://img-proxy.imgfo.com/?referer=https://manganelo.com&url=https://s6.mkklcdnv6temp.com/mangakakalot/c1/canon/vol3_chapter_91_hearts/6.jpg",
    "https://img-proxy.imgfo.com/?referer=https://manganelo.com&url=https://s6.mkklcdnv6temp.com/mangakakalot/c1/canon/vol3_chapter_91_hearts/7.jpg",
    "https://img-proxy.imgfo.com/?referer=https://manganelo.com&url=https://s6.mkklcdnv6temp.com/mangakakalot/c1/canon/vol3_chapter_91_hearts/8.jpg",
    "https://img-proxy.imgfo.com/?referer=https://manganelo.com&url=https://s6.mkklcdnv6temp.com/mangakakalot/c1/canon/vol3_chapter_91_hearts/9.jpg",
    "https://img-proxy.imgfo.com/?referer=https://manganelo.com&url=https://s6.mkklcdnv6temp.com/mangakakalot/c1/canon/vol3_chapter_91_hearts/10.jpg",
    "https://img-proxy.imgfo.com/?referer=https://manganelo.com&url=https://s6.mkklcdnv6temp.com/mangakakalot/c1/canon/vol3_chapter_91_hearts/11.jpg",
    "https://img-proxy.imgfo.com/?referer=https://manganelo.com&url=https://s6.mkklcdnv6temp.com/mangakakalot/c1/canon/vol3_chapter_91_hearts/12.jpg",
    "https://img-proxy.imgfo.com/?referer=https://manganelo.com&url=https://s6.mkklcdnv6temp.com/mangakakalot/c1/canon/vol3_chapter_91_hearts/13.jpg",
    "https://img-proxy.imgfo.com/?referer=https://manganelo.com&url=https://s6.mkklcdnv6temp.com/mangakakalot/c1/canon/vol3_chapter_91_hearts/14.jpg",
    "https://img-proxy.imgfo.com/?referer=https://manganelo.com&url=https://s6.mkklcdnv6temp.com/mangakakalot/c1/canon/vol3_chapter_91_hearts/15.jpg"
  ]
}