{
  "cover": "https://avt.mkklcdnv6.com/35/m/4-1583471147.jpg",
  "title": "Kyou, Koi Wo Hajimemasu",
  "original": "От днес започва любовта ни (Bulgarian) ; היום, התחלנו לאהוב (Hebrew) ; اليوم يبدأ حبنا (Arabic) ; 今天 开始恋爱吧 ; 今日、恋をはじめます ; เมื่อความรัก...มาทักทาย (Thai) ; Σήμερα, η αγάπη μας να αρχίσει! (Greek) ; 3, 2, 1 … Liebe! (German) ; Astazi incepe dragostea noastra (Romanian) ; Aujourd'hui, notre amour commence! (French) ; Bu gün, aşkımız başliyor (Turkish) ; Dziś zaczynamy naszą miłość ; Hoje, o nosso amor começa (European Portuguese) ; Hoy comienza nuestro amor (Spanish) ; Hoy, Nuestro Amor Comienza (S",
  "genre": "Comedy, Drama, Romance, School life, Shoujo, Slice of life, Smut, Manga",
  "author": "Minami Kanan",
  "status": "Completed",
  "backlink": "https://manganu.com/collections/minami-kanan/kyou-koi-wo-hajimemasu/",
  "description": "Tsubaki is a girl who loves making her younger sister's hair pretty every morning, but she doesn't think that kind of style suits herself! The day of her High School Beginning Ceremony, after she failed in being the top student (who usually makes the ceremony speech), she finds herself sitting next to the actual top student of the first years, the worst rude guy ever, Kyouta. She ends up cutting his hair on purpose because of the bad things he says to her. Kyouta demands that Tsubaki pay him back with her body, but Tsubaki fixes his hair instead--making it even shorter! After that, Kyouta unexpectedly kisses Tsubaki and swears that he'll make her his woman.",
  "language": "English",
  "images": [
    "https://img-proxy.imgfo.com/?referer=https://manganelo.com&url=https://s7.mkklcdnv6temp.com/mangakakalot/k2/kyou_koi_wo_hajimemasu/vol9_chapter_57/1.jpg",
    "https://img-proxy.imgfo.com/?referer=https://manganelo.com&url=https://s7.mkklcdnv6temp.com/mangakakalot/k2/kyou_koi_wo_hajimemasu/vol9_chapter_57/2.jpg",
    "https://img-proxy.imgfo.com/?referer=https://manganelo.com&url=https://s7.mkklcdnv6temp.com/mangakakalot/k2/kyou_koi_wo_hajimemasu/vol9_chapter_57/3.jpg",
    "https://img-proxy.imgfo.com/?referer=https://manganelo.com&url=https://s7.mkklcdnv6temp.com/mangakakalot/k2/kyou_koi_wo_hajimemasu/vol9_chapter_57/4.jpg",
    "https://img-proxy.imgfo.com/?referer=https://manganelo.com&url=https://s7.mkklcdnv6temp.com/mangakakalot/k2/kyou_koi_wo_hajimemasu/vol9_chapter_57/5.jpg",
    "https://img-proxy.imgfo.com/?referer=https://manganelo.com&url=https://s7.mkklcdnv6temp.com/mangakakalot/k2/kyou_koi_wo_hajimemasu/vol9_chapter_57/6.jpg",
    "https://img-proxy.imgfo.com/?referer=https://manganelo.com&url=https://s7.mkklcdnv6temp.com/mangakakalot/k2/kyou_koi_wo_hajimemasu/vol9_chapter_57/7.jpg",
    "https://img-proxy.imgfo.com/?referer=https://manganelo.com&url=https://s7.mkklcdnv6temp.com/mangakakalot/k2/kyou_koi_wo_hajimemasu/vol9_chapter_57/8.jpg",
    "https://img-proxy.imgfo.com/?referer=https://manganelo.com&url=https://s7.mkklcdnv6temp.com/mangakakalot/k2/kyou_koi_wo_hajimemasu/vol9_chapter_57/9.jpg",
    "https://img-proxy.imgfo.com/?referer=https://manganelo.com&url=https://s7.mkklcdnv6temp.com/mangakakalot/k2/kyou_koi_wo_hajimemasu/vol9_chapter_57/10.jpg",
    "https://img-proxy.imgfo.com/?referer=https://manganelo.com&url=https://s7.mkklcdnv6temp.com/mangakakalot/k2/kyou_koi_wo_hajimemasu/vol9_chapter_57/11.jpg",
    "https://img-proxy.imgfo.com/?referer=https://manganelo.com&url=https://s7.mkklcdnv6temp.com/mangakakalot/k2/kyou_koi_wo_hajimemasu/vol9_chapter_57/12.jpg",
    "https://img-proxy.imgfo.com/?referer=https://manganelo.com&url=https://s7.mkklcdnv6temp.com/mangakakalot/k2/kyou_koi_wo_hajimemasu/vol9_chapter_57/13.jpg",
    "https://img-proxy.imgfo.com/?referer=https://manganelo.com&url=https://s7.mkklcdnv6temp.com/mangakakalot/k2/kyou_koi_wo_hajimemasu/vol9_chapter_57/14.jpg",
    "https://img-proxy.imgfo.com/?referer=https://manganelo.com&url=https://s7.mkklcdnv6temp.com/mangakakalot/k2/kyou_koi_wo_hajimemasu/vol9_chapter_57/15.jpg",
    "https://img-proxy.imgfo.com/?referer=https://manganelo.com&url=https://s7.mkklcdnv6temp.com/mangakakalot/k2/kyou_koi_wo_hajimemasu/vol9_chapter_57/16.jpg",
    "https://img-proxy.imgfo.com/?referer=https://manganelo.com&url=https://s7.mkklcdnv6temp.com/mangakakalot/k2/kyou_koi_wo_hajimemasu/vol9_chapter_57/17.jpg",
    "https://img-proxy.imgfo.com/?referer=https://manganelo.com&url=https://s7.mkklcdnv6temp.com/mangakakalot/k2/kyou_koi_wo_hajimemasu/vol9_chapter_57/18.jpg",
    "https://img-proxy.imgfo.com/?referer=https://manganelo.com&url=https://s7.mkklcdnv6temp.com/mangakakalot/k2/kyou_koi_wo_hajimemasu/vol9_chapter_57/19.jpg",
    "https://img-proxy.imgfo.com/?referer=https://manganelo.com&url=https://s7.mkklcdnv6temp.com/mangakakalot/k2/kyou_koi_wo_hajimemasu/vol9_chapter_57/20.jpg",
    "https://img-proxy.imgfo.com/?referer=https://manganelo.com&url=https://s7.mkklcdnv6temp.com/mangakakalot/k2/kyou_koi_wo_hajimemasu/vol9_chapter_57/21.jpg",
    "https://img-proxy.imgfo.com/?referer=https://manganelo.com&url=https://s7.mkklcdnv6temp.com/mangakakalot/k2/kyou_koi_wo_hajimemasu/vol9_chapter_57/22.jpg",
    "https://img-proxy.imgfo.com/?referer=https://manganelo.com&url=https://s7.mkklcdnv6temp.com/mangakakalot/k2/kyou_koi_wo_hajimemasu/vol9_chapter_57/23.jpg",
    "https://img-proxy.imgfo.com/?referer=https://manganelo.com&url=https://s7.mkklcdnv6temp.com/mangakakalot/k2/kyou_koi_wo_hajimemasu/vol9_chapter_57/24.jpg",
    "https://img-proxy.imgfo.com/?referer=https://manganelo.com&url=https://s7.mkklcdnv6temp.com/mangakakalot/k2/kyou_koi_wo_hajimemasu/vol9_chapter_57/25.jpg"
  ]
}