{
  "cover": "https://avt.mkklcdnv6.com/39/w/13-1583489230.jpg",
  "title": "Nanashi No Asterism",
  "original": "ななしのアステリズム (Japanese); 无名的星群 (Chinese); Nameless Asterism (English)",
  "genre": "Comedy, Shoujo ai, Slice of life, Manga",
  "author": "Kobayashi Kina",
  "status": "Completed",
  "backlink": "https://manganu.com/collections/kobayashi-kina/nanashi-no-asterism/",
  "description": "Tsukasa Shiratori, Nadeshiko Washio and Mikage Kotooka are three close-knit friends in junior high school. For almost a year, Tsukasa has been harboring a secret she can&#39;t tell anyone: she has a crush on Nadeshiko. She resigns to keep it locked away forever, but then discovers that Nadeshiko has a crush on Mikage. Not wanting to mess up their current relationship, Tsukasa decides to support Nadeshiko in any way she can. However, Mikage has a secret of her own that she can&#39;t share with anyone.",
  "language": "English",
  "images": [
    "https://img-proxy.imgfo.com/?referer=https://manganelo.com&url=https://s41.mkklcdnv6temp.com/mangakakalot/n1/nanashi_no_asterism/vol5_chapter_19_what_should_i_do/1.jpg",
    "https://img-proxy.imgfo.com/?referer=https://manganelo.com&url=https://s41.mkklcdnv6temp.com/mangakakalot/n1/nanashi_no_asterism/vol5_chapter_19_what_should_i_do/2.jpg",
    "https://img-proxy.imgfo.com/?referer=https://manganelo.com&url=https://s41.mkklcdnv6temp.com/mangakakalot/n1/nanashi_no_asterism/vol5_chapter_19_what_should_i_do/3.jpg",
    "https://img-proxy.imgfo.com/?referer=https://manganelo.com&url=https://s41.mkklcdnv6temp.com/mangakakalot/n1/nanashi_no_asterism/vol5_chapter_19_what_should_i_do/4.jpg",
    "https://img-proxy.imgfo.com/?referer=https://manganelo.com&url=https://s41.mkklcdnv6temp.com/mangakakalot/n1/nanashi_no_asterism/vol5_chapter_19_what_should_i_do/5.jpg",
    "https://img-proxy.imgfo.com/?referer=https://manganelo.com&url=https://s41.mkklcdnv6temp.com/mangakakalot/n1/nanashi_no_asterism/vol5_chapter_19_what_should_i_do/6.jpg",
    "https://img-proxy.imgfo.com/?referer=https://manganelo.com&url=https://s41.mkklcdnv6temp.com/mangakakalot/n1/nanashi_no_asterism/vol5_chapter_19_what_should_i_do/7.jpg",
    "https://img-proxy.imgfo.com/?referer=https://manganelo.com&url=https://s41.mkklcdnv6temp.com/mangakakalot/n1/nanashi_no_asterism/vol5_chapter_19_what_should_i_do/8.jpg",
    "https://img-proxy.imgfo.com/?referer=https://manganelo.com&url=https://s41.mkklcdnv6temp.com/mangakakalot/n1/nanashi_no_asterism/vol5_chapter_19_what_should_i_do/9.jpg",
    "https://img-proxy.imgfo.com/?referer=https://manganelo.com&url=https://s41.mkklcdnv6temp.com/mangakakalot/n1/nanashi_no_asterism/vol5_chapter_19_what_should_i_do/10.jpg",
    "https://img-proxy.imgfo.com/?referer=https://manganelo.com&url=https://s41.mkklcdnv6temp.com/mangakakalot/n1/nanashi_no_asterism/vol5_chapter_19_what_should_i_do/11.jpg",
    "https://img-proxy.imgfo.com/?referer=https://manganelo.com&url=https://s41.mkklcdnv6temp.com/mangakakalot/n1/nanashi_no_asterism/vol5_chapter_19_what_should_i_do/12.jpg",
    "https://img-proxy.imgfo.com/?referer=https://manganelo.com&url=https://s41.mkklcdnv6temp.com/mangakakalot/n1/nanashi_no_asterism/vol5_chapter_19_what_should_i_do/13.jpg",
    "https://img-proxy.imgfo.com/?referer=https://manganelo.com&url=https://s41.mkklcdnv6temp.com/mangakakalot/n1/nanashi_no_asterism/vol5_chapter_19_what_should_i_do/14.jpg",
    "https://img-proxy.imgfo.com/?referer=https://manganelo.com&url=https://s41.mkklcdnv6temp.com/mangakakalot/n1/nanashi_no_asterism/vol5_chapter_19_what_should_i_do/15.jpg",
    "https://img-proxy.imgfo.com/?referer=https://manganelo.com&url=https://s41.mkklcdnv6temp.com/mangakakalot/n1/nanashi_no_asterism/vol5_chapter_19_what_should_i_do/16.jpg",
    "https://img-proxy.imgfo.com/?referer=https://manganelo.com&url=https://s41.mkklcdnv6temp.com/mangakakalot/n1/nanashi_no_asterism/vol5_chapter_19_what_should_i_do/17.jpg",
    "https://img-proxy.imgfo.com/?referer=https://manganelo.com&url=https://s41.mkklcdnv6temp.com/mangakakalot/n1/nanashi_no_asterism/vol5_chapter_19_what_should_i_do/18.jpg",
    "https://img-proxy.imgfo.com/?referer=https://manganelo.com&url=https://s41.mkklcdnv6temp.com/mangakakalot/n1/nanashi_no_asterism/vol5_chapter_19_what_should_i_do/19.jpg",
    "https://img-proxy.imgfo.com/?referer=https://manganelo.com&url=https://s41.mkklcdnv6temp.com/mangakakalot/n1/nanashi_no_asterism/vol5_chapter_19_what_should_i_do/20.jpg",
    "https://img-proxy.imgfo.com/?referer=https://manganelo.com&url=https://s41.mkklcdnv6temp.com/mangakakalot/n1/nanashi_no_asterism/vol5_chapter_19_what_should_i_do/21.jpg",
    "https://img-proxy.imgfo.com/?referer=https://manganelo.com&url=https://s41.mkklcdnv6temp.com/mangakakalot/n1/nanashi_no_asterism/vol5_chapter_19_what_should_i_do/22.jpg",
    "https://img-proxy.imgfo.com/?referer=https://manganelo.com&url=https://s41.mkklcdnv6temp.com/mangakakalot/n1/nanashi_no_asterism/vol5_chapter_19_what_should_i_do/23.jpg",
    "https://img-proxy.imgfo.com/?referer=https://manganelo.com&url=https://s41.mkklcdnv6temp.com/mangakakalot/n1/nanashi_no_asterism/vol5_chapter_19_what_should_i_do/24.jpg",
    "https://img-proxy.imgfo.com/?referer=https://manganelo.com&url=https://s41.mkklcdnv6temp.com/mangakakalot/n1/nanashi_no_asterism/vol5_chapter_19_what_should_i_do/25.jpg",
    "https://img-proxy.imgfo.com/?referer=https://manganelo.com&url=https://s41.mkklcdnv6temp.com/mangakakalot/n1/nanashi_no_asterism/vol5_chapter_19_what_should_i_do/26.jpg",
    "https://img-proxy.imgfo.com/?referer=https://manganelo.com&url=https://s41.mkklcdnv6temp.com/mangakakalot/n1/nanashi_no_asterism/vol5_chapter_19_what_should_i_do/27.jpg",
    "https://img-proxy.imgfo.com/?referer=https://manganelo.com&url=https://s41.mkklcdnv6temp.com/mangakakalot/n1/nanashi_no_asterism/vol5_chapter_19_what_should_i_do/28.jpg",
    "https://img-proxy.imgfo.com/?referer=https://manganelo.com&url=https://s41.mkklcdnv6temp.com/mangakakalot/n1/nanashi_no_asterism/vol5_chapter_19_what_should_i_do/29.jpg",
    "https://img-proxy.imgfo.com/?referer=https://manganelo.com&url=https://s41.mkklcdnv6temp.com/mangakakalot/n1/nanashi_no_asterism/vol5_chapter_19_what_should_i_do/30.jpg",
    "https://img-proxy.imgfo.com/?referer=https://manganelo.com&url=https://s41.mkklcdnv6temp.com/mangakakalot/n1/nanashi_no_asterism/vol5_chapter_19_what_should_i_do/31.jpg",
    "https://img-proxy.imgfo.com/?referer=https://manganelo.com&url=https://s41.mkklcdnv6temp.com/mangakakalot/n1/nanashi_no_asterism/vol5_chapter_19_what_should_i_do/32.jpg",
    "https://img-proxy.imgfo.com/?referer=https://manganelo.com&url=https://s41.mkklcdnv6temp.com/mangakakalot/n1/nanashi_no_asterism/vol5_chapter_19_what_should_i_do/33.jpg",
    "https://img-proxy.imgfo.com/?referer=https://manganelo.com&url=https://s41.mkklcdnv6temp.com/mangakakalot/n1/nanashi_no_asterism/vol5_chapter_19_what_should_i_do/34.jpg",
    "https://img-proxy.imgfo.com/?referer=https://manganelo.com&url=https://s41.mkklcdnv6temp.com/mangakakalot/n1/nanashi_no_asterism/vol5_chapter_19_what_should_i_do/35.jpg",
    "https://img-proxy.imgfo.com/?referer=https://manganelo.com&url=https://s41.mkklcdnv6temp.com/mangakakalot/n1/nanashi_no_asterism/vol5_chapter_19_what_should_i_do/36.jpg",
    "https://img-proxy.imgfo.com/?referer=https://manganelo.com&url=https://s41.mkklcdnv6temp.com/mangakakalot/n1/nanashi_no_asterism/vol5_chapter_19_what_should_i_do/37.jpg",
    "https://img-proxy.imgfo.com/?referer=https://manganelo.com&url=https://s41.mkklcdnv6temp.com/mangakakalot/n1/nanashi_no_asterism/vol5_chapter_19_what_should_i_do/38.jpg",
    "https://img-proxy.imgfo.com/?referer=https://manganelo.com&url=https://s41.mkklcdnv6temp.com/mangakakalot/n1/nanashi_no_asterism/vol5_chapter_19_what_should_i_do/39.jpg",
    "https://img-proxy.imgfo.com/?referer=https://manganelo.com&url=https://s41.mkklcdnv6temp.com/mangakakalot/n1/nanashi_no_asterism/vol5_chapter_19_what_should_i_do/40.jpg",
    "https://img-proxy.imgfo.com/?referer=https://manganelo.com&url=https://s41.mkklcdnv6temp.com/mangakakalot/n1/nanashi_no_asterism/vol5_chapter_19_what_should_i_do/41.jpg",
    "https://img-proxy.imgfo.com/?referer=https://manganelo.com&url=https://s41.mkklcdnv6temp.com/mangakakalot/n1/nanashi_no_asterism/vol5_chapter_19_what_should_i_do/42.jpg",
    "https://img-proxy.imgfo.com/?referer=https://manganelo.com&url=https://s41.mkklcdnv6temp.com/mangakakalot/n1/nanashi_no_asterism/vol5_chapter_19_what_should_i_do/43.jpg",
    "https://img-proxy.imgfo.com/?referer=https://manganelo.com&url=https://s41.mkklcdnv6temp.com/mangakakalot/n1/nanashi_no_asterism/vol5_chapter_19_what_should_i_do/44.jpg",
    "https://img-proxy.imgfo.com/?referer=https://manganelo.com&url=https://s41.mkklcdnv6temp.com/mangakakalot/n1/nanashi_no_asterism/vol5_chapter_19_what_should_i_do/45.jpg"
  ]
}