{
  "cover": "https://avt.mkklcdnv6.com/36/l/7-1583477644.jpg",
  "title": "Shikabane Hime",
  "original": "尸姬 ; 屍姫 ; 데드 프린세스 ; Corpse Princess",
  "genre": "Action, Drama, Ecchi, Horror, Mystery, Romance, School life, Shounen, Supernatural, Manga",
  "author": "Akahito Yoshiichi",
  "status": "Completed",
  "backlink": "https://manganu.com/collections/akahito-yoshiichi/shikabane-hime/",
  "description": "The story starts off with a bunch of high-school students, taking the dare to go up to this abandoned building that has been half destroyed by a fire. It was rumoured to be haunted. Just a rumour, right? Not when real corpses start showing up, and they start feeling things grabbing them, and finally zombies going after them! Shikabane Hime is there to save the day. The immortal girl, &ldquo;Shikabane Hime,&rdquo; has the mission to &ldquo;kill&rdquo; 108 corpses. It&rsquo;s a contract she has between herself and the Buddhist monk, Keisei. After 108 corpses, she will finally get her happiness and go to heaven.",
  "language": "English",
  "images": [
    "https://img-proxy.imgfo.com/?referer=https://manganelo.com&url=https://s7.mkklcdnv6temp.com/mangakakalot/x1/xjwu100391564331522/vol23_death_109_conclusion_heartfelt_sendoff/1.jpg",
    "https://img-proxy.imgfo.com/?referer=https://manganelo.com&url=https://s7.mkklcdnv6temp.com/mangakakalot/x1/xjwu100391564331522/vol23_death_109_conclusion_heartfelt_sendoff/2.jpg",
    "https://img-proxy.imgfo.com/?referer=https://manganelo.com&url=https://s7.mkklcdnv6temp.com/mangakakalot/x1/xjwu100391564331522/vol23_death_109_conclusion_heartfelt_sendoff/3.jpg",
    "https://img-proxy.imgfo.com/?referer=https://manganelo.com&url=https://s7.mkklcdnv6temp.com/mangakakalot/x1/xjwu100391564331522/vol23_death_109_conclusion_heartfelt_sendoff/4.jpg",
    "https://img-proxy.imgfo.com/?referer=https://manganelo.com&url=https://s7.mkklcdnv6temp.com/mangakakalot/x1/xjwu100391564331522/vol23_death_109_conclusion_heartfelt_sendoff/5.jpg",
    "https://img-proxy.imgfo.com/?referer=https://manganelo.com&url=https://s7.mkklcdnv6temp.com/mangakakalot/x1/xjwu100391564331522/vol23_death_109_conclusion_heartfelt_sendoff/6.jpg",
    "https://img-proxy.imgfo.com/?referer=https://manganelo.com&url=https://s7.mkklcdnv6temp.com/mangakakalot/x1/xjwu100391564331522/vol23_death_109_conclusion_heartfelt_sendoff/7.jpg",
    "https://img-proxy.imgfo.com/?referer=https://manganelo.com&url=https://s7.mkklcdnv6temp.com/mangakakalot/x1/xjwu100391564331522/vol23_death_109_conclusion_heartfelt_sendoff/8.jpg",
    "https://img-proxy.imgfo.com/?referer=https://manganelo.com&url=https://s7.mkklcdnv6temp.com/mangakakalot/x1/xjwu100391564331522/vol23_death_109_conclusion_heartfelt_sendoff/9.jpg",
    "https://img-proxy.imgfo.com/?referer=https://manganelo.com&url=https://s7.mkklcdnv6temp.com/mangakakalot/x1/xjwu100391564331522/vol23_death_109_conclusion_heartfelt_sendoff/10.jpg",
    "https://img-proxy.imgfo.com/?referer=https://manganelo.com&url=https://s7.mkklcdnv6temp.com/mangakakalot/x1/xjwu100391564331522/vol23_death_109_conclusion_heartfelt_sendoff/11.jpg",
    "https://img-proxy.imgfo.com/?referer=https://manganelo.com&url=https://s7.mkklcdnv6temp.com/mangakakalot/x1/xjwu100391564331522/vol23_death_109_conclusion_heartfelt_sendoff/12.jpg",
    "https://img-proxy.imgfo.com/?referer=https://manganelo.com&url=https://s7.mkklcdnv6temp.com/mangakakalot/x1/xjwu100391564331522/vol23_death_109_conclusion_heartfelt_sendoff/13.jpg",
    "https://img-proxy.imgfo.com/?referer=https://manganelo.com&url=https://s7.mkklcdnv6temp.com/mangakakalot/x1/xjwu100391564331522/vol23_death_109_conclusion_heartfelt_sendoff/14.jpg",
    "https://img-proxy.imgfo.com/?referer=https://manganelo.com&url=https://s7.mkklcdnv6temp.com/mangakakalot/x1/xjwu100391564331522/vol23_death_109_conclusion_heartfelt_sendoff/15.jpg",
    "https://img-proxy.imgfo.com/?referer=https://manganelo.com&url=https://s7.mkklcdnv6temp.com/mangakakalot/x1/xjwu100391564331522/vol23_death_109_conclusion_heartfelt_sendoff/16.jpg",
    "https://img-proxy.imgfo.com/?referer=https://manganelo.com&url=https://s7.mkklcdnv6temp.com/mangakakalot/x1/xjwu100391564331522/vol23_death_109_conclusion_heartfelt_sendoff/17.jpg",
    "https://img-proxy.imgfo.com/?referer=https://manganelo.com&url=https://s7.mkklcdnv6temp.com/mangakakalot/x1/xjwu100391564331522/vol23_death_109_conclusion_heartfelt_sendoff/18.jpg",
    "https://img-proxy.imgfo.com/?referer=https://manganelo.com&url=https://s7.mkklcdnv6temp.com/mangakakalot/x1/xjwu100391564331522/vol23_death_109_conclusion_heartfelt_sendoff/19.jpg",
    "https://img-proxy.imgfo.com/?referer=https://manganelo.com&url=https://s7.mkklcdnv6temp.com/mangakakalot/x1/xjwu100391564331522/vol23_death_109_conclusion_heartfelt_sendoff/20.jpg",
    "https://img-proxy.imgfo.com/?referer=https://manganelo.com&url=https://s7.mkklcdnv6temp.com/mangakakalot/x1/xjwu100391564331522/vol23_death_109_conclusion_heartfelt_sendoff/21.jpg",
    "https://img-proxy.imgfo.com/?referer=https://manganelo.com&url=https://s7.mkklcdnv6temp.com/mangakakalot/x1/xjwu100391564331522/vol23_death_109_conclusion_heartfelt_sendoff/37.jpg",
    "https://img-proxy.imgfo.com/?referer=https://manganelo.com&url=https://s7.mkklcdnv6temp.com/mangakakalot/x1/xjwu100391564331522/vol23_death_109_conclusion_heartfelt_sendoff/38.jpg",
    "https://img-proxy.imgfo.com/?referer=https://manganelo.com&url=https://s7.mkklcdnv6temp.com/mangakakalot/x1/xjwu100391564331522/vol23_death_109_conclusion_heartfelt_sendoff/39.jpg",
    "https://img-proxy.imgfo.com/?referer=https://manganelo.com&url=https://s7.mkklcdnv6temp.com/mangakakalot/x1/xjwu100391564331522/vol23_death_109_conclusion_heartfelt_sendoff/40.jpg",
    "https://img-proxy.imgfo.com/?referer=https://manganelo.com&url=https://s7.mkklcdnv6temp.com/mangakakalot/x1/xjwu100391564331522/vol23_death_109_conclusion_heartfelt_sendoff/41.jpg",
    "https://img-proxy.imgfo.com/?referer=https://manganelo.com&url=https://s7.mkklcdnv6temp.com/mangakakalot/x1/xjwu100391564331522/vol23_death_109_conclusion_heartfelt_sendoff/42.jpg",
    "https://img-proxy.imgfo.com/?referer=https://manganelo.com&url=https://s7.mkklcdnv6temp.com/mangakakalot/x1/xjwu100391564331522/vol23_death_109_conclusion_heartfelt_sendoff/43.jpg",
    "https://img-proxy.imgfo.com/?referer=https://manganelo.com&url=https://s7.mkklcdnv6temp.com/mangakakalot/x1/xjwu100391564331522/vol23_death_109_conclusion_heartfelt_sendoff/44.jpg",
    "https://img-proxy.imgfo.com/?referer=https://manganelo.com&url=https://s7.mkklcdnv6temp.com/mangakakalot/x1/xjwu100391564331522/vol23_death_109_conclusion_heartfelt_sendoff/45.jpg",
    "https://img-proxy.imgfo.com/?referer=https://manganelo.com&url=https://s7.mkklcdnv6temp.com/mangakakalot/x1/xjwu100391564331522/vol23_death_109_conclusion_heartfelt_sendoff/46.jpg",
    "https://img-proxy.imgfo.com/?referer=https://manganelo.com&url=https://s7.mkklcdnv6temp.com/mangakakalot/x1/xjwu100391564331522/vol23_death_109_conclusion_heartfelt_sendoff/47.jpg",
    "https://img-proxy.imgfo.com/?referer=https://manganelo.com&url=https://s7.mkklcdnv6temp.com/mangakakalot/x1/xjwu100391564331522/vol23_death_109_conclusion_heartfelt_sendoff/48.jpg",
    "https://img-proxy.imgfo.com/?referer=https://manganelo.com&url=https://s7.mkklcdnv6temp.com/mangakakalot/x1/xjwu100391564331522/vol23_death_109_conclusion_heartfelt_sendoff/49.jpg",
    "https://img-proxy.imgfo.com/?referer=https://manganelo.com&url=https://s7.mkklcdnv6temp.com/mangakakalot/x1/xjwu100391564331522/vol23_death_109_conclusion_heartfelt_sendoff/50.jpg",
    "https://img-proxy.imgfo.com/?referer=https://manganelo.com&url=https://s7.mkklcdnv6temp.com/mangakakalot/x1/xjwu100391564331522/vol23_death_109_conclusion_heartfelt_sendoff/51.jpg",
    "https://img-proxy.imgfo.com/?referer=https://manganelo.com&url=https://s7.mkklcdnv6temp.com/mangakakalot/x1/xjwu100391564331522/vol23_death_109_conclusion_heartfelt_sendoff/52.jpg",
    "https://img-proxy.imgfo.com/?referer=https://manganelo.com&url=https://s7.mkklcdnv6temp.com/mangakakalot/x1/xjwu100391564331522/vol23_death_109_conclusion_heartfelt_sendoff/53.jpg",
    "https://img-proxy.imgfo.com/?referer=https://manganelo.com&url=https://s7.mkklcdnv6temp.com/mangakakalot/x1/xjwu100391564331522/vol23_death_109_conclusion_heartfelt_sendoff/54.jpg",
    "https://img-proxy.imgfo.com/?referer=https://manganelo.com&url=https://s7.mkklcdnv6temp.com/mangakakalot/x1/xjwu100391564331522/vol23_death_109_conclusion_heartfelt_sendoff/55.jpg",
    "https://img-proxy.imgfo.com/?referer=https://manganelo.com&url=https://s7.mkklcdnv6temp.com/mangakakalot/x1/xjwu100391564331522/vol23_death_109_conclusion_heartfelt_sendoff/56.jpg",
    "https://img-proxy.imgfo.com/?referer=https://manganelo.com&url=https://s7.mkklcdnv6temp.com/mangakakalot/x1/xjwu100391564331522/vol23_death_109_conclusion_heartfelt_sendoff/57.jpg"
  ]
}