{
  "cover": "https://avt.mkklcdnv6.com/36/l/7-1583477644.jpg",
  "title": "Shikabane Hime",
  "original": "尸姬 ; 屍姫 ; 데드 프린세스 ; Corpse Princess",
  "genre": "Action, Drama, Ecchi, Horror, Mystery, Romance, School life, Shounen, Supernatural, Manga",
  "author": "Akahito Yoshiichi",
  "status": "Completed",
  "backlink": "https://manganu.com/collections/akahito-yoshiichi/shikabane-hime/",
  "description": "The story starts off with a bunch of high-school students, taking the dare to go up to this abandoned building that has been half destroyed by a fire. It was rumoured to be haunted. Just a rumour, right? Not when real corpses start showing up, and they start feeling things grabbing them, and finally zombies going after them! Shikabane Hime is there to save the day. The immortal girl, &ldquo;Shikabane Hime,&rdquo; has the mission to &ldquo;kill&rdquo; 108 corpses. It&rsquo;s a contract she has between herself and the Buddhist monk, Keisei. After 108 corpses, she will finally get her happiness and go to heaven.",
  "language": "English",
  "images": [
    "https://img-proxy.imgfo.com/?referer=https://manganelo.com&url=https://s7.mkklcdnv6temp.com/mangakakalot/x1/xjwu100391564331522/vol12_death_53_destiny/1.jpg",
    "https://img-proxy.imgfo.com/?referer=https://manganelo.com&url=https://s7.mkklcdnv6temp.com/mangakakalot/x1/xjwu100391564331522/vol12_death_53_destiny/2.jpg",
    "https://img-proxy.imgfo.com/?referer=https://manganelo.com&url=https://s7.mkklcdnv6temp.com/mangakakalot/x1/xjwu100391564331522/vol12_death_53_destiny/3.jpg",
    "https://img-proxy.imgfo.com/?referer=https://manganelo.com&url=https://s7.mkklcdnv6temp.com/mangakakalot/x1/xjwu100391564331522/vol12_death_53_destiny/4.jpg",
    "https://img-proxy.imgfo.com/?referer=https://manganelo.com&url=https://s7.mkklcdnv6temp.com/mangakakalot/x1/xjwu100391564331522/vol12_death_53_destiny/5.jpg",
    "https://img-proxy.imgfo.com/?referer=https://manganelo.com&url=https://s7.mkklcdnv6temp.com/mangakakalot/x1/xjwu100391564331522/vol12_death_53_destiny/6.jpg",
    "https://img-proxy.imgfo.com/?referer=https://manganelo.com&url=https://s7.mkklcdnv6temp.com/mangakakalot/x1/xjwu100391564331522/vol12_death_53_destiny/7.jpg",
    "https://img-proxy.imgfo.com/?referer=https://manganelo.com&url=https://s7.mkklcdnv6temp.com/mangakakalot/x1/xjwu100391564331522/vol12_death_53_destiny/8.jpg",
    "https://img-proxy.imgfo.com/?referer=https://manganelo.com&url=https://s7.mkklcdnv6temp.com/mangakakalot/x1/xjwu100391564331522/vol12_death_53_destiny/9.jpg",
    "https://img-proxy.imgfo.com/?referer=https://manganelo.com&url=https://s7.mkklcdnv6temp.com/mangakakalot/x1/xjwu100391564331522/vol12_death_53_destiny/10.jpg",
    "https://img-proxy.imgfo.com/?referer=https://manganelo.com&url=https://s7.mkklcdnv6temp.com/mangakakalot/x1/xjwu100391564331522/vol12_death_53_destiny/11.jpg",
    "https://img-proxy.imgfo.com/?referer=https://manganelo.com&url=https://s7.mkklcdnv6temp.com/mangakakalot/x1/xjwu100391564331522/vol12_death_53_destiny/12.jpg",
    "https://img-proxy.imgfo.com/?referer=https://manganelo.com&url=https://s7.mkklcdnv6temp.com/mangakakalot/x1/xjwu100391564331522/vol12_death_53_destiny/13.jpg",
    "https://img-proxy.imgfo.com/?referer=https://manganelo.com&url=https://s7.mkklcdnv6temp.com/mangakakalot/x1/xjwu100391564331522/vol12_death_53_destiny/14.jpg",
    "https://img-proxy.imgfo.com/?referer=https://manganelo.com&url=https://s7.mkklcdnv6temp.com/mangakakalot/x1/xjwu100391564331522/vol12_death_53_destiny/15.jpg",
    "https://img-proxy.imgfo.com/?referer=https://manganelo.com&url=https://s7.mkklcdnv6temp.com/mangakakalot/x1/xjwu100391564331522/vol12_death_53_destiny/16.jpg",
    "https://img-proxy.imgfo.com/?referer=https://manganelo.com&url=https://s7.mkklcdnv6temp.com/mangakakalot/x1/xjwu100391564331522/vol12_death_53_destiny/17.jpg",
    "https://img-proxy.imgfo.com/?referer=https://manganelo.com&url=https://s7.mkklcdnv6temp.com/mangakakalot/x1/xjwu100391564331522/vol12_death_53_destiny/18.jpg",
    "https://img-proxy.imgfo.com/?referer=https://manganelo.com&url=https://s7.mkklcdnv6temp.com/mangakakalot/x1/xjwu100391564331522/vol12_death_53_destiny/19.jpg",
    "https://img-proxy.imgfo.com/?referer=https://manganelo.com&url=https://s7.mkklcdnv6temp.com/mangakakalot/x1/xjwu100391564331522/vol12_death_53_destiny/20.jpg",
    "https://img-proxy.imgfo.com/?referer=https://manganelo.com&url=https://s7.mkklcdnv6temp.com/mangakakalot/x1/xjwu100391564331522/vol12_death_53_destiny/21.jpg",
    "https://img-proxy.imgfo.com/?referer=https://manganelo.com&url=https://s7.mkklcdnv6temp.com/mangakakalot/x1/xjwu100391564331522/vol12_death_53_destiny/22.jpg",
    "https://img-proxy.imgfo.com/?referer=https://manganelo.com&url=https://s7.mkklcdnv6temp.com/mangakakalot/x1/xjwu100391564331522/vol12_death_53_destiny/23.jpg",
    "https://img-proxy.imgfo.com/?referer=https://manganelo.com&url=https://s7.mkklcdnv6temp.com/mangakakalot/x1/xjwu100391564331522/vol12_death_53_destiny/24.jpg",
    "https://img-proxy.imgfo.com/?referer=https://manganelo.com&url=https://s7.mkklcdnv6temp.com/mangakakalot/x1/xjwu100391564331522/vol12_death_53_destiny/25.jpg",
    "https://img-proxy.imgfo.com/?referer=https://manganelo.com&url=https://s7.mkklcdnv6temp.com/mangakakalot/x1/xjwu100391564331522/vol12_death_53_destiny/26.jpg",
    "https://img-proxy.imgfo.com/?referer=https://manganelo.com&url=https://s7.mkklcdnv6temp.com/mangakakalot/x1/xjwu100391564331522/vol12_death_53_destiny/27.jpg",
    "https://img-proxy.imgfo.com/?referer=https://manganelo.com&url=https://s7.mkklcdnv6temp.com/mangakakalot/x1/xjwu100391564331522/vol12_death_53_destiny/28.jpg",
    "https://img-proxy.imgfo.com/?referer=https://manganelo.com&url=https://s7.mkklcdnv6temp.com/mangakakalot/x1/xjwu100391564331522/vol12_death_53_destiny/29.jpg",
    "https://img-proxy.imgfo.com/?referer=https://manganelo.com&url=https://s7.mkklcdnv6temp.com/mangakakalot/x1/xjwu100391564331522/vol12_death_53_destiny/30.jpg",
    "https://img-proxy.imgfo.com/?referer=https://manganelo.com&url=https://s7.mkklcdnv6temp.com/mangakakalot/x1/xjwu100391564331522/vol12_death_53_destiny/31.jpg",
    "https://img-proxy.imgfo.com/?referer=https://manganelo.com&url=https://s7.mkklcdnv6temp.com/mangakakalot/x1/xjwu100391564331522/vol12_death_53_destiny/32.jpg",
    "https://img-proxy.imgfo.com/?referer=https://manganelo.com&url=https://s7.mkklcdnv6temp.com/mangakakalot/x1/xjwu100391564331522/vol12_death_53_destiny/33.jpg",
    "https://img-proxy.imgfo.com/?referer=https://manganelo.com&url=https://s7.mkklcdnv6temp.com/mangakakalot/x1/xjwu100391564331522/vol12_death_53_destiny/34.jpg",
    "https://img-proxy.imgfo.com/?referer=https://manganelo.com&url=https://s7.mkklcdnv6temp.com/mangakakalot/x1/xjwu100391564331522/vol12_death_53_destiny/35.jpg",
    "https://img-proxy.imgfo.com/?referer=https://manganelo.com&url=https://s7.mkklcdnv6temp.com/mangakakalot/x1/xjwu100391564331522/vol12_death_53_destiny/36.jpg",
    "https://img-proxy.imgfo.com/?referer=https://manganelo.com&url=https://s7.mkklcdnv6temp.com/mangakakalot/x1/xjwu100391564331522/vol12_death_53_destiny/37.jpg",
    "https://img-proxy.imgfo.com/?referer=https://manganelo.com&url=https://s7.mkklcdnv6temp.com/mangakakalot/x1/xjwu100391564331522/vol12_death_53_destiny/38.jpg",
    "https://img-proxy.imgfo.com/?referer=https://manganelo.com&url=https://s7.mkklcdnv6temp.com/mangakakalot/x1/xjwu100391564331522/vol12_death_53_destiny/39.jpg",
    "https://img-proxy.imgfo.com/?referer=https://manganelo.com&url=https://s7.mkklcdnv6temp.com/mangakakalot/x1/xjwu100391564331522/vol12_death_53_destiny/40.jpg",
    "https://img-proxy.imgfo.com/?referer=https://manganelo.com&url=https://s7.mkklcdnv6temp.com/mangakakalot/x1/xjwu100391564331522/vol12_death_53_destiny/41.jpg",
    "https://img-proxy.imgfo.com/?referer=https://manganelo.com&url=https://s7.mkklcdnv6temp.com/mangakakalot/x1/xjwu100391564331522/vol12_death_53_destiny/42.jpg",
    "https://img-proxy.imgfo.com/?referer=https://manganelo.com&url=https://s7.mkklcdnv6temp.com/mangakakalot/x1/xjwu100391564331522/vol12_death_53_destiny/43.jpg"
  ]
}