{
  "cover": "https://avt.mkklcdnv6.com/43/w/5-1583473614.jpg",
  "title": "I Wish...",
  "original": "아이 위시 ; I Wish (SEO Hyun-Joo) ; Aš Trokštu (SEO Hyun-Joo) (Lithuanian)",
  "genre": "Comedy, Drama, Fantasy, Romance, Shoujo, Slice of life, Supernatural, Tragedy, Manga",
  "author": "Seo Hyun-Joo",
  "status": "Completed",
  "backlink": "https://manganu.com/collections/seo-hyun-joo/i-wish/",
  "description": "From Tokyopop:\nK is a wizard who can grant wishes--all he asks in return is that which is most precious to the wisher...\nMourning from a horrific loss, Jin Ryu wants K to bring back her parents and brother from the dead. But when K tells her that a wish such as this can only lead to greater tragedy, he agrees to take her on as an apprentice. Now Jin observes K with his various and sundry clients: A father who wants to put a stop to his son's relationship... A young woman who longs for her lover to remember... A boy who will do anything to be accepted...",
  "language": "English",
  "images": [
    "https://img-proxy.imgfo.com/?referer=https://manganelo.com&url=https://s5.mkklcdnv6temp.com/mangakakalot/i2/i_wish/vol03_chapter_6/1.jpg",
    "https://img-proxy.imgfo.com/?referer=https://manganelo.com&url=https://s5.mkklcdnv6temp.com/mangakakalot/i2/i_wish/vol03_chapter_6/2.jpg",
    "https://img-proxy.imgfo.com/?referer=https://manganelo.com&url=https://s5.mkklcdnv6temp.com/mangakakalot/i2/i_wish/vol03_chapter_6/3.jpg",
    "https://img-proxy.imgfo.com/?referer=https://manganelo.com&url=https://s5.mkklcdnv6temp.com/mangakakalot/i2/i_wish/vol03_chapter_6/4.jpg",
    "https://img-proxy.imgfo.com/?referer=https://manganelo.com&url=https://s5.mkklcdnv6temp.com/mangakakalot/i2/i_wish/vol03_chapter_6/5.jpg",
    "https://img-proxy.imgfo.com/?referer=https://manganelo.com&url=https://s5.mkklcdnv6temp.com/mangakakalot/i2/i_wish/vol03_chapter_6/6.jpg",
    "https://img-proxy.imgfo.com/?referer=https://manganelo.com&url=https://s5.mkklcdnv6temp.com/mangakakalot/i2/i_wish/vol03_chapter_6/7.jpg",
    "https://img-proxy.imgfo.com/?referer=https://manganelo.com&url=https://s5.mkklcdnv6temp.com/mangakakalot/i2/i_wish/vol03_chapter_6/8.jpg",
    "https://img-proxy.imgfo.com/?referer=https://manganelo.com&url=https://s5.mkklcdnv6temp.com/mangakakalot/i2/i_wish/vol03_chapter_6/9.jpg",
    "https://img-proxy.imgfo.com/?referer=https://manganelo.com&url=https://s5.mkklcdnv6temp.com/mangakakalot/i2/i_wish/vol03_chapter_6/10.jpg",
    "https://img-proxy.imgfo.com/?referer=https://manganelo.com&url=https://s5.mkklcdnv6temp.com/mangakakalot/i2/i_wish/vol03_chapter_6/11.jpg",
    "https://img-proxy.imgfo.com/?referer=https://manganelo.com&url=https://s5.mkklcdnv6temp.com/mangakakalot/i2/i_wish/vol03_chapter_6/12.jpg",
    "https://img-proxy.imgfo.com/?referer=https://manganelo.com&url=https://s5.mkklcdnv6temp.com/mangakakalot/i2/i_wish/vol03_chapter_6/13.jpg",
    "https://img-proxy.imgfo.com/?referer=https://manganelo.com&url=https://s5.mkklcdnv6temp.com/mangakakalot/i2/i_wish/vol03_chapter_6/14.jpg",
    "https://img-proxy.imgfo.com/?referer=https://manganelo.com&url=https://s5.mkklcdnv6temp.com/mangakakalot/i2/i_wish/vol03_chapter_6/15.jpg",
    "https://img-proxy.imgfo.com/?referer=https://manganelo.com&url=https://s5.mkklcdnv6temp.com/mangakakalot/i2/i_wish/vol03_chapter_6/16.jpg",
    "https://img-proxy.imgfo.com/?referer=https://manganelo.com&url=https://s5.mkklcdnv6temp.com/mangakakalot/i2/i_wish/vol03_chapter_6/17.jpg",
    "https://img-proxy.imgfo.com/?referer=https://manganelo.com&url=https://s5.mkklcdnv6temp.com/mangakakalot/i2/i_wish/vol03_chapter_6/18.jpg",
    "https://img-proxy.imgfo.com/?referer=https://manganelo.com&url=https://s5.mkklcdnv6temp.com/mangakakalot/i2/i_wish/vol03_chapter_6/19.jpg",
    "https://img-proxy.imgfo.com/?referer=https://manganelo.com&url=https://s5.mkklcdnv6temp.com/mangakakalot/i2/i_wish/vol03_chapter_6/20.jpg",
    "https://img-proxy.imgfo.com/?referer=https://manganelo.com&url=https://s5.mkklcdnv6temp.com/mangakakalot/i2/i_wish/vol03_chapter_6/21.jpg",
    "https://img-proxy.imgfo.com/?referer=https://manganelo.com&url=https://s5.mkklcdnv6temp.com/mangakakalot/i2/i_wish/vol03_chapter_6/22.jpg",
    "https://img-proxy.imgfo.com/?referer=https://manganelo.com&url=https://s5.mkklcdnv6temp.com/mangakakalot/i2/i_wish/vol03_chapter_6/23.jpg",
    "https://img-proxy.imgfo.com/?referer=https://manganelo.com&url=https://s5.mkklcdnv6temp.com/mangakakalot/i2/i_wish/vol03_chapter_6/24.jpg"
  ]
}