{
  "cover": "https://avt.mkklcdnv6.com/22/o/4-1583470605.jpg",
  "title": "Watashi No Messiah-Sama",
  "original": "私の救世主さま ; 魔幻救世主 ; My Messiah ; Watashi no Kyuseishu-sama ; Watashi no Messiah ; Watashi no Messiah Sama ; Watashi no Messiah-sama",
  "genre": "Action, Adventure, Comedy, Drama, Ecchi, Fantasy, Romance, Shounen, Supernatural, Tragedy, Manga",
  "author": "Minazuki Suu",
  "status": "Completed",
  "backlink": "https://manganu.com/collections/minazuki-suu/watashi-no-messiah-sama/",
  "description": "Shinya doesn't get stellar grades, he's not athletic, he's a coward, he's a wimp...he's a general good-for-nothing. One day, however; he meets Haruna. A girl that could change his life forever. Haruna tells Shinya he is the Messiah. The Lord chosen to save her world and that she is his shield.\nCould it be true? Could Shinya's life of ineptitude be balance for this one grand cause? Is he really the Messiah? If he is, can he save himself, let alone an entire world?",
  "language": "English",
  "images": [
    "https://img-proxy.imgfo.com/?referer=https://manganelo.com&url=https://s7.mkklcdnv6temp.com/mangakakalot/w1/watashi_no_messiahsama/vol1_chapter_1_me_the_good_for_nothing/1.jpg",
    "https://img-proxy.imgfo.com/?referer=https://manganelo.com&url=https://s7.mkklcdnv6temp.com/mangakakalot/w1/watashi_no_messiahsama/vol1_chapter_1_me_the_good_for_nothing/2.jpg",
    "https://img-proxy.imgfo.com/?referer=https://manganelo.com&url=https://s7.mkklcdnv6temp.com/mangakakalot/w1/watashi_no_messiahsama/vol1_chapter_1_me_the_good_for_nothing/3.jpg",
    "https://img-proxy.imgfo.com/?referer=https://manganelo.com&url=https://s7.mkklcdnv6temp.com/mangakakalot/w1/watashi_no_messiahsama/vol1_chapter_1_me_the_good_for_nothing/4.jpg",
    "https://img-proxy.imgfo.com/?referer=https://manganelo.com&url=https://s7.mkklcdnv6temp.com/mangakakalot/w1/watashi_no_messiahsama/vol1_chapter_1_me_the_good_for_nothing/5.jpg",
    "https://img-proxy.imgfo.com/?referer=https://manganelo.com&url=https://s7.mkklcdnv6temp.com/mangakakalot/w1/watashi_no_messiahsama/vol1_chapter_1_me_the_good_for_nothing/6.jpg",
    "https://img-proxy.imgfo.com/?referer=https://manganelo.com&url=https://s7.mkklcdnv6temp.com/mangakakalot/w1/watashi_no_messiahsama/vol1_chapter_1_me_the_good_for_nothing/7.jpg",
    "https://img-proxy.imgfo.com/?referer=https://manganelo.com&url=https://s7.mkklcdnv6temp.com/mangakakalot/w1/watashi_no_messiahsama/vol1_chapter_1_me_the_good_for_nothing/8.jpg",
    "https://img-proxy.imgfo.com/?referer=https://manganelo.com&url=https://s7.mkklcdnv6temp.com/mangakakalot/w1/watashi_no_messiahsama/vol1_chapter_1_me_the_good_for_nothing/9.jpg",
    "https://img-proxy.imgfo.com/?referer=https://manganelo.com&url=https://s7.mkklcdnv6temp.com/mangakakalot/w1/watashi_no_messiahsama/vol1_chapter_1_me_the_good_for_nothing/10.jpg",
    "https://img-proxy.imgfo.com/?referer=https://manganelo.com&url=https://s7.mkklcdnv6temp.com/mangakakalot/w1/watashi_no_messiahsama/vol1_chapter_1_me_the_good_for_nothing/11.jpg",
    "https://img-proxy.imgfo.com/?referer=https://manganelo.com&url=https://s7.mkklcdnv6temp.com/mangakakalot/w1/watashi_no_messiahsama/vol1_chapter_1_me_the_good_for_nothing/12.jpg",
    "https://img-proxy.imgfo.com/?referer=https://manganelo.com&url=https://s7.mkklcdnv6temp.com/mangakakalot/w1/watashi_no_messiahsama/vol1_chapter_1_me_the_good_for_nothing/13.jpg",
    "https://img-proxy.imgfo.com/?referer=https://manganelo.com&url=https://s7.mkklcdnv6temp.com/mangakakalot/w1/watashi_no_messiahsama/vol1_chapter_1_me_the_good_for_nothing/14.jpg",
    "https://img-proxy.imgfo.com/?referer=https://manganelo.com&url=https://s7.mkklcdnv6temp.com/mangakakalot/w1/watashi_no_messiahsama/vol1_chapter_1_me_the_good_for_nothing/15.jpg",
    "https://img-proxy.imgfo.com/?referer=https://manganelo.com&url=https://s7.mkklcdnv6temp.com/mangakakalot/w1/watashi_no_messiahsama/vol1_chapter_1_me_the_good_for_nothing/16.jpg",
    "https://img-proxy.imgfo.com/?referer=https://manganelo.com&url=https://s7.mkklcdnv6temp.com/mangakakalot/w1/watashi_no_messiahsama/vol1_chapter_1_me_the_good_for_nothing/17.jpg",
    "https://img-proxy.imgfo.com/?referer=https://manganelo.com&url=https://s7.mkklcdnv6temp.com/mangakakalot/w1/watashi_no_messiahsama/vol1_chapter_1_me_the_good_for_nothing/18.jpg",
    "https://img-proxy.imgfo.com/?referer=https://manganelo.com&url=https://s7.mkklcdnv6temp.com/mangakakalot/w1/watashi_no_messiahsama/vol1_chapter_1_me_the_good_for_nothing/19.jpg",
    "https://img-proxy.imgfo.com/?referer=https://manganelo.com&url=https://s7.mkklcdnv6temp.com/mangakakalot/w1/watashi_no_messiahsama/vol1_chapter_1_me_the_good_for_nothing/20.jpg",
    "https://img-proxy.imgfo.com/?referer=https://manganelo.com&url=https://s7.mkklcdnv6temp.com/mangakakalot/w1/watashi_no_messiahsama/vol1_chapter_1_me_the_good_for_nothing/21.jpg",
    "https://img-proxy.imgfo.com/?referer=https://manganelo.com&url=https://s7.mkklcdnv6temp.com/mangakakalot/w1/watashi_no_messiahsama/vol1_chapter_1_me_the_good_for_nothing/22.jpg",
    "https://img-proxy.imgfo.com/?referer=https://manganelo.com&url=https://s7.mkklcdnv6temp.com/mangakakalot/w1/watashi_no_messiahsama/vol1_chapter_1_me_the_good_for_nothing/23.jpg",
    "https://img-proxy.imgfo.com/?referer=https://manganelo.com&url=https://s7.mkklcdnv6temp.com/mangakakalot/w1/watashi_no_messiahsama/vol1_chapter_1_me_the_good_for_nothing/24.jpg",
    "https://img-proxy.imgfo.com/?referer=https://manganelo.com&url=https://s7.mkklcdnv6temp.com/mangakakalot/w1/watashi_no_messiahsama/vol1_chapter_1_me_the_good_for_nothing/25.jpg",
    "https://img-proxy.imgfo.com/?referer=https://manganelo.com&url=https://s7.mkklcdnv6temp.com/mangakakalot/w1/watashi_no_messiahsama/vol1_chapter_1_me_the_good_for_nothing/26.jpg",
    "https://img-proxy.imgfo.com/?referer=https://manganelo.com&url=https://s7.mkklcdnv6temp.com/mangakakalot/w1/watashi_no_messiahsama/vol1_chapter_1_me_the_good_for_nothing/27.jpg",
    "https://img-proxy.imgfo.com/?referer=https://manganelo.com&url=https://s7.mkklcdnv6temp.com/mangakakalot/w1/watashi_no_messiahsama/vol1_chapter_1_me_the_good_for_nothing/28.jpg",
    "https://img-proxy.imgfo.com/?referer=https://manganelo.com&url=https://s7.mkklcdnv6temp.com/mangakakalot/w1/watashi_no_messiahsama/vol1_chapter_1_me_the_good_for_nothing/29.jpg",
    "https://img-proxy.imgfo.com/?referer=https://manganelo.com&url=https://s7.mkklcdnv6temp.com/mangakakalot/w1/watashi_no_messiahsama/vol1_chapter_1_me_the_good_for_nothing/30.jpg",
    "https://img-proxy.imgfo.com/?referer=https://manganelo.com&url=https://s7.mkklcdnv6temp.com/mangakakalot/w1/watashi_no_messiahsama/vol1_chapter_1_me_the_good_for_nothing/31.jpg",
    "https://img-proxy.imgfo.com/?referer=https://manganelo.com&url=https://s7.mkklcdnv6temp.com/mangakakalot/w1/watashi_no_messiahsama/vol1_chapter_1_me_the_good_for_nothing/32.jpg",
    "https://img-proxy.imgfo.com/?referer=https://manganelo.com&url=https://s7.mkklcdnv6temp.com/mangakakalot/w1/watashi_no_messiahsama/vol1_chapter_1_me_the_good_for_nothing/33.jpg",
    "https://img-proxy.imgfo.com/?referer=https://manganelo.com&url=https://s7.mkklcdnv6temp.com/mangakakalot/w1/watashi_no_messiahsama/vol1_chapter_1_me_the_good_for_nothing/34.jpg",
    "https://img-proxy.imgfo.com/?referer=https://manganelo.com&url=https://s7.mkklcdnv6temp.com/mangakakalot/w1/watashi_no_messiahsama/vol1_chapter_1_me_the_good_for_nothing/35.jpg",
    "https://img-proxy.imgfo.com/?referer=https://manganelo.com&url=https://s7.mkklcdnv6temp.com/mangakakalot/w1/watashi_no_messiahsama/vol1_chapter_1_me_the_good_for_nothing/36.jpg",
    "https://img-proxy.imgfo.com/?referer=https://manganelo.com&url=https://s7.mkklcdnv6temp.com/mangakakalot/w1/watashi_no_messiahsama/vol1_chapter_1_me_the_good_for_nothing/37.jpg",
    "https://img-proxy.imgfo.com/?referer=https://manganelo.com&url=https://s7.mkklcdnv6temp.com/mangakakalot/w1/watashi_no_messiahsama/vol1_chapter_1_me_the_good_for_nothing/38.jpg",
    "https://img-proxy.imgfo.com/?referer=https://manganelo.com&url=https://s7.mkklcdnv6temp.com/mangakakalot/w1/watashi_no_messiahsama/vol1_chapter_1_me_the_good_for_nothing/39.jpg",
    "https://img-proxy.imgfo.com/?referer=https://manganelo.com&url=https://s7.mkklcdnv6temp.com/mangakakalot/w1/watashi_no_messiahsama/vol1_chapter_1_me_the_good_for_nothing/40.jpg",
    "https://img-proxy.imgfo.com/?referer=https://manganelo.com&url=https://s7.mkklcdnv6temp.com/mangakakalot/w1/watashi_no_messiahsama/vol1_chapter_1_me_the_good_for_nothing/41.jpg",
    "https://img-proxy.imgfo.com/?referer=https://manganelo.com&url=https://s7.mkklcdnv6temp.com/mangakakalot/w1/watashi_no_messiahsama/vol1_chapter_1_me_the_good_for_nothing/42.jpg",
    "https://img-proxy.imgfo.com/?referer=https://manganelo.com&url=https://s7.mkklcdnv6temp.com/mangakakalot/w1/watashi_no_messiahsama/vol1_chapter_1_me_the_good_for_nothing/43.jpg",
    "https://img-proxy.imgfo.com/?referer=https://manganelo.com&url=https://s7.mkklcdnv6temp.com/mangakakalot/w1/watashi_no_messiahsama/vol1_chapter_1_me_the_good_for_nothing/44.jpg",
    "https://img-proxy.imgfo.com/?referer=https://manganelo.com&url=https://s7.mkklcdnv6temp.com/mangakakalot/w1/watashi_no_messiahsama/vol1_chapter_1_me_the_good_for_nothing/45.jpg",
    "https://img-proxy.imgfo.com/?referer=https://manganelo.com&url=https://s7.mkklcdnv6temp.com/mangakakalot/w1/watashi_no_messiahsama/vol1_chapter_1_me_the_good_for_nothing/46.jpg",
    "https://img-proxy.imgfo.com/?referer=https://manganelo.com&url=https://s7.mkklcdnv6temp.com/mangakakalot/w1/watashi_no_messiahsama/vol1_chapter_1_me_the_good_for_nothing/47.jpg",
    "https://img-proxy.imgfo.com/?referer=https://manganelo.com&url=https://s7.mkklcdnv6temp.com/mangakakalot/w1/watashi_no_messiahsama/vol1_chapter_1_me_the_good_for_nothing/48.jpg"
  ]
}