{
  "cover": "https://avt.mkklcdnv6.com/22/o/4-1583470605.jpg",
  "title": "Watashi No Messiah-Sama",
  "original": "私の救世主さま ; 魔幻救世主 ; My Messiah ; Watashi no Kyuseishu-sama ; Watashi no Messiah ; Watashi no Messiah Sama ; Watashi no Messiah-sama",
  "genre": "Action, Adventure, Comedy, Drama, Ecchi, Fantasy, Romance, Shounen, Supernatural, Tragedy, Manga",
  "author": "Minazuki Suu",
  "status": "Completed",
  "backlink": "https://manganu.com/collections/minazuki-suu/watashi-no-messiah-sama/",
  "description": "Shinya doesn't get stellar grades, he's not athletic, he's a coward, he's a wimp...he's a general good-for-nothing. One day, however; he meets Haruna. A girl that could change his life forever. Haruna tells Shinya he is the Messiah. The Lord chosen to save her world and that she is his shield.\nCould it be true? Could Shinya's life of ineptitude be balance for this one grand cause? Is he really the Messiah? If he is, can he save himself, let alone an entire world?",
  "language": "English",
  "images": [
    "https://img-proxy.imgfo.com/?referer=https://manganelo.com&url=https://s7.mkklcdnv6temp.com/mangakakalot/w1/watashi_no_messiahsama/vol3_chapter_14_happiness/1.jpg",
    "https://img-proxy.imgfo.com/?referer=https://manganelo.com&url=https://s7.mkklcdnv6temp.com/mangakakalot/w1/watashi_no_messiahsama/vol3_chapter_14_happiness/2.jpg",
    "https://img-proxy.imgfo.com/?referer=https://manganelo.com&url=https://s7.mkklcdnv6temp.com/mangakakalot/w1/watashi_no_messiahsama/vol3_chapter_14_happiness/3.jpg",
    "https://img-proxy.imgfo.com/?referer=https://manganelo.com&url=https://s7.mkklcdnv6temp.com/mangakakalot/w1/watashi_no_messiahsama/vol3_chapter_14_happiness/4.jpg",
    "https://img-proxy.imgfo.com/?referer=https://manganelo.com&url=https://s7.mkklcdnv6temp.com/mangakakalot/w1/watashi_no_messiahsama/vol3_chapter_14_happiness/5.jpg",
    "https://img-proxy.imgfo.com/?referer=https://manganelo.com&url=https://s7.mkklcdnv6temp.com/mangakakalot/w1/watashi_no_messiahsama/vol3_chapter_14_happiness/6.jpg",
    "https://img-proxy.imgfo.com/?referer=https://manganelo.com&url=https://s7.mkklcdnv6temp.com/mangakakalot/w1/watashi_no_messiahsama/vol3_chapter_14_happiness/7.jpg",
    "https://img-proxy.imgfo.com/?referer=https://manganelo.com&url=https://s7.mkklcdnv6temp.com/mangakakalot/w1/watashi_no_messiahsama/vol3_chapter_14_happiness/8.jpg",
    "https://img-proxy.imgfo.com/?referer=https://manganelo.com&url=https://s7.mkklcdnv6temp.com/mangakakalot/w1/watashi_no_messiahsama/vol3_chapter_14_happiness/9.jpg",
    "https://img-proxy.imgfo.com/?referer=https://manganelo.com&url=https://s7.mkklcdnv6temp.com/mangakakalot/w1/watashi_no_messiahsama/vol3_chapter_14_happiness/10.jpg",
    "https://img-proxy.imgfo.com/?referer=https://manganelo.com&url=https://s7.mkklcdnv6temp.com/mangakakalot/w1/watashi_no_messiahsama/vol3_chapter_14_happiness/11.jpg",
    "https://img-proxy.imgfo.com/?referer=https://manganelo.com&url=https://s7.mkklcdnv6temp.com/mangakakalot/w1/watashi_no_messiahsama/vol3_chapter_14_happiness/12.jpg",
    "https://img-proxy.imgfo.com/?referer=https://manganelo.com&url=https://s7.mkklcdnv6temp.com/mangakakalot/w1/watashi_no_messiahsama/vol3_chapter_14_happiness/13.jpg",
    "https://img-proxy.imgfo.com/?referer=https://manganelo.com&url=https://s7.mkklcdnv6temp.com/mangakakalot/w1/watashi_no_messiahsama/vol3_chapter_14_happiness/14.jpg",
    "https://img-proxy.imgfo.com/?referer=https://manganelo.com&url=https://s7.mkklcdnv6temp.com/mangakakalot/w1/watashi_no_messiahsama/vol3_chapter_14_happiness/15.jpg",
    "https://img-proxy.imgfo.com/?referer=https://manganelo.com&url=https://s7.mkklcdnv6temp.com/mangakakalot/w1/watashi_no_messiahsama/vol3_chapter_14_happiness/16.jpg",
    "https://img-proxy.imgfo.com/?referer=https://manganelo.com&url=https://s7.mkklcdnv6temp.com/mangakakalot/w1/watashi_no_messiahsama/vol3_chapter_14_happiness/17.jpg",
    "https://img-proxy.imgfo.com/?referer=https://manganelo.com&url=https://s7.mkklcdnv6temp.com/mangakakalot/w1/watashi_no_messiahsama/vol3_chapter_14_happiness/18.jpg",
    "https://img-proxy.imgfo.com/?referer=https://manganelo.com&url=https://s7.mkklcdnv6temp.com/mangakakalot/w1/watashi_no_messiahsama/vol3_chapter_14_happiness/19.jpg",
    "https://img-proxy.imgfo.com/?referer=https://manganelo.com&url=https://s7.mkklcdnv6temp.com/mangakakalot/w1/watashi_no_messiahsama/vol3_chapter_14_happiness/20.jpg",
    "https://img-proxy.imgfo.com/?referer=https://manganelo.com&url=https://s7.mkklcdnv6temp.com/mangakakalot/w1/watashi_no_messiahsama/vol3_chapter_14_happiness/21.jpg",
    "https://img-proxy.imgfo.com/?referer=https://manganelo.com&url=https://s7.mkklcdnv6temp.com/mangakakalot/w1/watashi_no_messiahsama/vol3_chapter_14_happiness/22.jpg",
    "https://img-proxy.imgfo.com/?referer=https://manganelo.com&url=https://s7.mkklcdnv6temp.com/mangakakalot/w1/watashi_no_messiahsama/vol3_chapter_14_happiness/23.jpg",
    "https://img-proxy.imgfo.com/?referer=https://manganelo.com&url=https://s7.mkklcdnv6temp.com/mangakakalot/w1/watashi_no_messiahsama/vol3_chapter_14_happiness/24.jpg",
    "https://img-proxy.imgfo.com/?referer=https://manganelo.com&url=https://s7.mkklcdnv6temp.com/mangakakalot/w1/watashi_no_messiahsama/vol3_chapter_14_happiness/25.jpg",
    "https://img-proxy.imgfo.com/?referer=https://manganelo.com&url=https://s7.mkklcdnv6temp.com/mangakakalot/w1/watashi_no_messiahsama/vol3_chapter_14_happiness/26.jpg",
    "https://img-proxy.imgfo.com/?referer=https://manganelo.com&url=https://s7.mkklcdnv6temp.com/mangakakalot/w1/watashi_no_messiahsama/vol3_chapter_14_happiness/27.jpg",
    "https://img-proxy.imgfo.com/?referer=https://manganelo.com&url=https://s7.mkklcdnv6temp.com/mangakakalot/w1/watashi_no_messiahsama/vol3_chapter_14_happiness/28.jpg",
    "https://img-proxy.imgfo.com/?referer=https://manganelo.com&url=https://s7.mkklcdnv6temp.com/mangakakalot/w1/watashi_no_messiahsama/vol3_chapter_14_happiness/29.jpg",
    "https://img-proxy.imgfo.com/?referer=https://manganelo.com&url=https://s7.mkklcdnv6temp.com/mangakakalot/w1/watashi_no_messiahsama/vol3_chapter_14_happiness/30.jpg",
    "https://img-proxy.imgfo.com/?referer=https://manganelo.com&url=https://s7.mkklcdnv6temp.com/mangakakalot/w1/watashi_no_messiahsama/vol3_chapter_14_happiness/31.jpg",
    "https://img-proxy.imgfo.com/?referer=https://manganelo.com&url=https://s7.mkklcdnv6temp.com/mangakakalot/w1/watashi_no_messiahsama/vol3_chapter_14_happiness/32.jpg",
    "https://img-proxy.imgfo.com/?referer=https://manganelo.com&url=https://s7.mkklcdnv6temp.com/mangakakalot/w1/watashi_no_messiahsama/vol3_chapter_14_happiness/33.jpg",
    "https://img-proxy.imgfo.com/?referer=https://manganelo.com&url=https://s7.mkklcdnv6temp.com/mangakakalot/w1/watashi_no_messiahsama/vol3_chapter_14_happiness/34.jpg",
    "https://img-proxy.imgfo.com/?referer=https://manganelo.com&url=https://s7.mkklcdnv6temp.com/mangakakalot/w1/watashi_no_messiahsama/vol3_chapter_14_happiness/35.jpg",
    "https://img-proxy.imgfo.com/?referer=https://manganelo.com&url=https://s7.mkklcdnv6temp.com/mangakakalot/w1/watashi_no_messiahsama/vol3_chapter_14_happiness/36.jpg",
    "https://img-proxy.imgfo.com/?referer=https://manganelo.com&url=https://s7.mkklcdnv6temp.com/mangakakalot/w1/watashi_no_messiahsama/vol3_chapter_14_happiness/37.jpg",
    "https://img-proxy.imgfo.com/?referer=https://manganelo.com&url=https://s7.mkklcdnv6temp.com/mangakakalot/w1/watashi_no_messiahsama/vol3_chapter_14_happiness/38.jpg",
    "https://img-proxy.imgfo.com/?referer=https://manganelo.com&url=https://s7.mkklcdnv6temp.com/mangakakalot/w1/watashi_no_messiahsama/vol3_chapter_14_happiness/39.jpg",
    "https://img-proxy.imgfo.com/?referer=https://manganelo.com&url=https://s7.mkklcdnv6temp.com/mangakakalot/w1/watashi_no_messiahsama/vol3_chapter_14_happiness/40.jpg",
    "https://img-proxy.imgfo.com/?referer=https://manganelo.com&url=https://s7.mkklcdnv6temp.com/mangakakalot/w1/watashi_no_messiahsama/vol3_chapter_14_happiness/41.jpg",
    "https://img-proxy.imgfo.com/?referer=https://manganelo.com&url=https://s7.mkklcdnv6temp.com/mangakakalot/w1/watashi_no_messiahsama/vol3_chapter_14_happiness/42.jpg",
    "https://img-proxy.imgfo.com/?referer=https://manganelo.com&url=https://s7.mkklcdnv6temp.com/mangakakalot/w1/watashi_no_messiahsama/vol3_chapter_14_happiness/43.jpg",
    "https://img-proxy.imgfo.com/?referer=https://manganelo.com&url=https://s7.mkklcdnv6temp.com/mangakakalot/w1/watashi_no_messiahsama/vol3_chapter_14_happiness/44.jpg",
    "https://img-proxy.imgfo.com/?referer=https://manganelo.com&url=https://s7.mkklcdnv6temp.com/mangakakalot/w1/watashi_no_messiahsama/vol3_chapter_14_happiness/45.jpg",
    "https://img-proxy.imgfo.com/?referer=https://manganelo.com&url=https://s7.mkklcdnv6temp.com/mangakakalot/w1/watashi_no_messiahsama/vol3_chapter_14_happiness/46.jpg"
  ]
}