{
  "cover": "https://avt.mkklcdnv6.com/22/o/4-1583470605.jpg",
  "title": "Watashi No Messiah-Sama",
  "original": "私の救世主さま ; 魔幻救世主 ; My Messiah ; Watashi no Kyuseishu-sama ; Watashi no Messiah ; Watashi no Messiah Sama ; Watashi no Messiah-sama",
  "genre": "Action, Adventure, Comedy, Drama, Ecchi, Fantasy, Romance, Shounen, Supernatural, Tragedy, Manga",
  "author": "Minazuki Suu",
  "status": "Completed",
  "backlink": "https://manganu.com/collections/minazuki-suu/watashi-no-messiah-sama/",
  "description": "Shinya doesn't get stellar grades, he's not athletic, he's a coward, he's a wimp...he's a general good-for-nothing. One day, however; he meets Haruna. A girl that could change his life forever. Haruna tells Shinya he is the Messiah. The Lord chosen to save her world and that she is his shield.\nCould it be true? Could Shinya's life of ineptitude be balance for this one grand cause? Is he really the Messiah? If he is, can he save himself, let alone an entire world?",
  "language": "English",
  "images": [
    "https://img-proxy.imgfo.com/?referer=https://manganelo.com&url=https://s7.mkklcdnv6temp.com/mangakakalot/w1/watashi_no_messiahsama/vol1_chapter_4_reality/1.jpg",
    "https://img-proxy.imgfo.com/?referer=https://manganelo.com&url=https://s7.mkklcdnv6temp.com/mangakakalot/w1/watashi_no_messiahsama/vol1_chapter_4_reality/2.jpg",
    "https://img-proxy.imgfo.com/?referer=https://manganelo.com&url=https://s7.mkklcdnv6temp.com/mangakakalot/w1/watashi_no_messiahsama/vol1_chapter_4_reality/3.jpg",
    "https://img-proxy.imgfo.com/?referer=https://manganelo.com&url=https://s7.mkklcdnv6temp.com/mangakakalot/w1/watashi_no_messiahsama/vol1_chapter_4_reality/4.jpg",
    "https://img-proxy.imgfo.com/?referer=https://manganelo.com&url=https://s7.mkklcdnv6temp.com/mangakakalot/w1/watashi_no_messiahsama/vol1_chapter_4_reality/5.jpg",
    "https://img-proxy.imgfo.com/?referer=https://manganelo.com&url=https://s7.mkklcdnv6temp.com/mangakakalot/w1/watashi_no_messiahsama/vol1_chapter_4_reality/6.jpg",
    "https://img-proxy.imgfo.com/?referer=https://manganelo.com&url=https://s7.mkklcdnv6temp.com/mangakakalot/w1/watashi_no_messiahsama/vol1_chapter_4_reality/7.jpg",
    "https://img-proxy.imgfo.com/?referer=https://manganelo.com&url=https://s7.mkklcdnv6temp.com/mangakakalot/w1/watashi_no_messiahsama/vol1_chapter_4_reality/8.jpg",
    "https://img-proxy.imgfo.com/?referer=https://manganelo.com&url=https://s7.mkklcdnv6temp.com/mangakakalot/w1/watashi_no_messiahsama/vol1_chapter_4_reality/9.jpg",
    "https://img-proxy.imgfo.com/?referer=https://manganelo.com&url=https://s7.mkklcdnv6temp.com/mangakakalot/w1/watashi_no_messiahsama/vol1_chapter_4_reality/10.jpg",
    "https://img-proxy.imgfo.com/?referer=https://manganelo.com&url=https://s7.mkklcdnv6temp.com/mangakakalot/w1/watashi_no_messiahsama/vol1_chapter_4_reality/11.jpg",
    "https://img-proxy.imgfo.com/?referer=https://manganelo.com&url=https://s7.mkklcdnv6temp.com/mangakakalot/w1/watashi_no_messiahsama/vol1_chapter_4_reality/12.jpg",
    "https://img-proxy.imgfo.com/?referer=https://manganelo.com&url=https://s7.mkklcdnv6temp.com/mangakakalot/w1/watashi_no_messiahsama/vol1_chapter_4_reality/13.jpg",
    "https://img-proxy.imgfo.com/?referer=https://manganelo.com&url=https://s7.mkklcdnv6temp.com/mangakakalot/w1/watashi_no_messiahsama/vol1_chapter_4_reality/14.jpg",
    "https://img-proxy.imgfo.com/?referer=https://manganelo.com&url=https://s7.mkklcdnv6temp.com/mangakakalot/w1/watashi_no_messiahsama/vol1_chapter_4_reality/15.jpg",
    "https://img-proxy.imgfo.com/?referer=https://manganelo.com&url=https://s7.mkklcdnv6temp.com/mangakakalot/w1/watashi_no_messiahsama/vol1_chapter_4_reality/16.jpg",
    "https://img-proxy.imgfo.com/?referer=https://manganelo.com&url=https://s7.mkklcdnv6temp.com/mangakakalot/w1/watashi_no_messiahsama/vol1_chapter_4_reality/17.jpg",
    "https://img-proxy.imgfo.com/?referer=https://manganelo.com&url=https://s7.mkklcdnv6temp.com/mangakakalot/w1/watashi_no_messiahsama/vol1_chapter_4_reality/18.jpg",
    "https://img-proxy.imgfo.com/?referer=https://manganelo.com&url=https://s7.mkklcdnv6temp.com/mangakakalot/w1/watashi_no_messiahsama/vol1_chapter_4_reality/19.jpg",
    "https://img-proxy.imgfo.com/?referer=https://manganelo.com&url=https://s7.mkklcdnv6temp.com/mangakakalot/w1/watashi_no_messiahsama/vol1_chapter_4_reality/20.jpg",
    "https://img-proxy.imgfo.com/?referer=https://manganelo.com&url=https://s7.mkklcdnv6temp.com/mangakakalot/w1/watashi_no_messiahsama/vol1_chapter_4_reality/21.jpg",
    "https://img-proxy.imgfo.com/?referer=https://manganelo.com&url=https://s7.mkklcdnv6temp.com/mangakakalot/w1/watashi_no_messiahsama/vol1_chapter_4_reality/22.jpg",
    "https://img-proxy.imgfo.com/?referer=https://manganelo.com&url=https://s7.mkklcdnv6temp.com/mangakakalot/w1/watashi_no_messiahsama/vol1_chapter_4_reality/23.jpg",
    "https://img-proxy.imgfo.com/?referer=https://manganelo.com&url=https://s7.mkklcdnv6temp.com/mangakakalot/w1/watashi_no_messiahsama/vol1_chapter_4_reality/24.jpg",
    "https://img-proxy.imgfo.com/?referer=https://manganelo.com&url=https://s7.mkklcdnv6temp.com/mangakakalot/w1/watashi_no_messiahsama/vol1_chapter_4_reality/25.jpg",
    "https://img-proxy.imgfo.com/?referer=https://manganelo.com&url=https://s7.mkklcdnv6temp.com/mangakakalot/w1/watashi_no_messiahsama/vol1_chapter_4_reality/26.jpg",
    "https://img-proxy.imgfo.com/?referer=https://manganelo.com&url=https://s7.mkklcdnv6temp.com/mangakakalot/w1/watashi_no_messiahsama/vol1_chapter_4_reality/27.jpg",
    "https://img-proxy.imgfo.com/?referer=https://manganelo.com&url=https://s7.mkklcdnv6temp.com/mangakakalot/w1/watashi_no_messiahsama/vol1_chapter_4_reality/28.jpg",
    "https://img-proxy.imgfo.com/?referer=https://manganelo.com&url=https://s7.mkklcdnv6temp.com/mangakakalot/w1/watashi_no_messiahsama/vol1_chapter_4_reality/29.jpg",
    "https://img-proxy.imgfo.com/?referer=https://manganelo.com&url=https://s7.mkklcdnv6temp.com/mangakakalot/w1/watashi_no_messiahsama/vol1_chapter_4_reality/30.jpg",
    "https://img-proxy.imgfo.com/?referer=https://manganelo.com&url=https://s7.mkklcdnv6temp.com/mangakakalot/w1/watashi_no_messiahsama/vol1_chapter_4_reality/31.jpg",
    "https://img-proxy.imgfo.com/?referer=https://manganelo.com&url=https://s7.mkklcdnv6temp.com/mangakakalot/w1/watashi_no_messiahsama/vol1_chapter_4_reality/32.jpg",
    "https://img-proxy.imgfo.com/?referer=https://manganelo.com&url=https://s7.mkklcdnv6temp.com/mangakakalot/w1/watashi_no_messiahsama/vol1_chapter_4_reality/33.jpg",
    "https://img-proxy.imgfo.com/?referer=https://manganelo.com&url=https://s7.mkklcdnv6temp.com/mangakakalot/w1/watashi_no_messiahsama/vol1_chapter_4_reality/34.jpg",
    "https://img-proxy.imgfo.com/?referer=https://manganelo.com&url=https://s7.mkklcdnv6temp.com/mangakakalot/w1/watashi_no_messiahsama/vol1_chapter_4_reality/35.jpg",
    "https://img-proxy.imgfo.com/?referer=https://manganelo.com&url=https://s7.mkklcdnv6temp.com/mangakakalot/w1/watashi_no_messiahsama/vol1_chapter_4_reality/36.jpg"
  ]
}