{
  "cover": "https://avt.mkklcdnv6.com/20/y/5-1583472657.jpg",
  "title": "Yume No Kodomo",
  "original": "夢の子供 ; Children of Dreams",
  "genre": "Comedy, Drama, Psychological, Romance, Yaoi, Manga",
  "author": "Hamada Shouko",
  "status": "Completed",
  "backlink": "https://manganu.com/collections/hamada-shouko/yume-no-kodomo/",
  "description": "Youji Takashima is a high schooler with a major 'sister complex' towards his older sister, Senko, 26, whom he's living with... One day, she introduces him to one of her old friend from college: Ren Akishima. Their first meeting doesn't go as expected, Youji doesn't like Ren and starts to think that he wants to marry his sister. Later, Senko reveals that she's leaving for NY to get some advancement in her job and that she intends to leave Youji with Ren.\n(from EoP website)",
  "language": "English",
  "images": [
    "https://img-proxy.imgfo.com/?referer=https://manganelo.com&url=https://s5.mkklcdnv6temp.com/mangakakalot/y2/yume_no_kodomo/vol02_chapter_2/1.jpg",
    "https://img-proxy.imgfo.com/?referer=https://manganelo.com&url=https://s5.mkklcdnv6temp.com/mangakakalot/y2/yume_no_kodomo/vol02_chapter_2/2.jpg",
    "https://img-proxy.imgfo.com/?referer=https://manganelo.com&url=https://s5.mkklcdnv6temp.com/mangakakalot/y2/yume_no_kodomo/vol02_chapter_2/3.jpg",
    "https://img-proxy.imgfo.com/?referer=https://manganelo.com&url=https://s5.mkklcdnv6temp.com/mangakakalot/y2/yume_no_kodomo/vol02_chapter_2/4.jpg",
    "https://img-proxy.imgfo.com/?referer=https://manganelo.com&url=https://s5.mkklcdnv6temp.com/mangakakalot/y2/yume_no_kodomo/vol02_chapter_2/5.jpg",
    "https://img-proxy.imgfo.com/?referer=https://manganelo.com&url=https://s5.mkklcdnv6temp.com/mangakakalot/y2/yume_no_kodomo/vol02_chapter_2/6.jpg",
    "https://img-proxy.imgfo.com/?referer=https://manganelo.com&url=https://s5.mkklcdnv6temp.com/mangakakalot/y2/yume_no_kodomo/vol02_chapter_2/7.jpg",
    "https://img-proxy.imgfo.com/?referer=https://manganelo.com&url=https://s5.mkklcdnv6temp.com/mangakakalot/y2/yume_no_kodomo/vol02_chapter_2/8.jpg",
    "https://img-proxy.imgfo.com/?referer=https://manganelo.com&url=https://s5.mkklcdnv6temp.com/mangakakalot/y2/yume_no_kodomo/vol02_chapter_2/9.jpg",
    "https://img-proxy.imgfo.com/?referer=https://manganelo.com&url=https://s5.mkklcdnv6temp.com/mangakakalot/y2/yume_no_kodomo/vol02_chapter_2/10.jpg",
    "https://img-proxy.imgfo.com/?referer=https://manganelo.com&url=https://s5.mkklcdnv6temp.com/mangakakalot/y2/yume_no_kodomo/vol02_chapter_2/11.jpg",
    "https://img-proxy.imgfo.com/?referer=https://manganelo.com&url=https://s5.mkklcdnv6temp.com/mangakakalot/y2/yume_no_kodomo/vol02_chapter_2/12.jpg",
    "https://img-proxy.imgfo.com/?referer=https://manganelo.com&url=https://s5.mkklcdnv6temp.com/mangakakalot/y2/yume_no_kodomo/vol02_chapter_2/13.jpg",
    "https://img-proxy.imgfo.com/?referer=https://manganelo.com&url=https://s5.mkklcdnv6temp.com/mangakakalot/y2/yume_no_kodomo/vol02_chapter_2/14.jpg",
    "https://img-proxy.imgfo.com/?referer=https://manganelo.com&url=https://s5.mkklcdnv6temp.com/mangakakalot/y2/yume_no_kodomo/vol02_chapter_2/15.jpg",
    "https://img-proxy.imgfo.com/?referer=https://manganelo.com&url=https://s5.mkklcdnv6temp.com/mangakakalot/y2/yume_no_kodomo/vol02_chapter_2/16.jpg",
    "https://img-proxy.imgfo.com/?referer=https://manganelo.com&url=https://s5.mkklcdnv6temp.com/mangakakalot/y2/yume_no_kodomo/vol02_chapter_2/17.jpg",
    "https://img-proxy.imgfo.com/?referer=https://manganelo.com&url=https://s5.mkklcdnv6temp.com/mangakakalot/y2/yume_no_kodomo/vol02_chapter_2/18.jpg",
    "https://img-proxy.imgfo.com/?referer=https://manganelo.com&url=https://s5.mkklcdnv6temp.com/mangakakalot/y2/yume_no_kodomo/vol02_chapter_2/19.jpg",
    "https://img-proxy.imgfo.com/?referer=https://manganelo.com&url=https://s5.mkklcdnv6temp.com/mangakakalot/y2/yume_no_kodomo/vol02_chapter_2/20.jpg",
    "https://img-proxy.imgfo.com/?referer=https://manganelo.com&url=https://s5.mkklcdnv6temp.com/mangakakalot/y2/yume_no_kodomo/vol02_chapter_2/21.jpg",
    "https://img-proxy.imgfo.com/?referer=https://manganelo.com&url=https://s5.mkklcdnv6temp.com/mangakakalot/y2/yume_no_kodomo/vol02_chapter_2/22.jpg",
    "https://img-proxy.imgfo.com/?referer=https://manganelo.com&url=https://s5.mkklcdnv6temp.com/mangakakalot/y2/yume_no_kodomo/vol02_chapter_2/23.jpg",
    "https://img-proxy.imgfo.com/?referer=https://manganelo.com&url=https://s5.mkklcdnv6temp.com/mangakakalot/y2/yume_no_kodomo/vol02_chapter_2/24.jpg",
    "https://img-proxy.imgfo.com/?referer=https://manganelo.com&url=https://s5.mkklcdnv6temp.com/mangakakalot/y2/yume_no_kodomo/vol02_chapter_2/25.jpg",
    "https://img-proxy.imgfo.com/?referer=https://manganelo.com&url=https://s5.mkklcdnv6temp.com/mangakakalot/y2/yume_no_kodomo/vol02_chapter_2/26.jpg",
    "https://img-proxy.imgfo.com/?referer=https://manganelo.com&url=https://s5.mkklcdnv6temp.com/mangakakalot/y2/yume_no_kodomo/vol02_chapter_2/27.jpg"
  ]
}