{
  "cover": "https://avt.mkklcdnv6.com/21/m/1-1583464542.jpg",
  "title": "Tokyo Ghoul:re",
  "original": "トーキョーグール:re (Japanese); 東京喰種:re (Chinese); Tokyo Ghoul re; Toukyou Kushu re; Toukyou Kushu:re; غول توکیو:دوباره ; غول طوكيو:إعادة ; طوكيو غول:ري (Arabic)",
  "genre": "Action, Horror, Mature, Psychological, Seinen, Supernatural, Tragedy, Manga",
  "author": "Ishida Sui",
  "status": "Completed",
  "backlink": "https://manganu.com/collections/ishida-sui/tokyo-ghoulre/",
  "description": "Part 1 : Tokyo Ghoul\nIn Tokyo, an unchanging despair is lurking. Mysterious man-eating beings, ghouls, run rampant in Tokyo. Living hidden during everyday life, the existence of ghouls, whose true identities are shrouded in mystery, permanently terrorizes Tokyo&#39;s residents. At CCG, the sole institution that investigates and resolves cases related to ghouls, Haise Sasaki has been assigned a certain mission. While dealing with the unruly four problem children known as &quot;Quinx&quot;, has Haise&#39;s days of suffering begun?",
  "language": "English",
  "images": [
    "https://img-proxy.imgfo.com/?referer=https://manganelo.com&url=https://s7.mkklcdnv6temp.com/mangakakalot/r1/read_tokyo_ghoulre/vol5_chapter_45_plan_t/1.jpg",
    "https://img-proxy.imgfo.com/?referer=https://manganelo.com&url=https://s7.mkklcdnv6temp.com/mangakakalot/r1/read_tokyo_ghoulre/vol5_chapter_45_plan_t/2.jpg",
    "https://img-proxy.imgfo.com/?referer=https://manganelo.com&url=https://s7.mkklcdnv6temp.com/mangakakalot/r1/read_tokyo_ghoulre/vol5_chapter_45_plan_t/3.jpg",
    "https://img-proxy.imgfo.com/?referer=https://manganelo.com&url=https://s7.mkklcdnv6temp.com/mangakakalot/r1/read_tokyo_ghoulre/vol5_chapter_45_plan_t/4.jpg",
    "https://img-proxy.imgfo.com/?referer=https://manganelo.com&url=https://s7.mkklcdnv6temp.com/mangakakalot/r1/read_tokyo_ghoulre/vol5_chapter_45_plan_t/5.jpg",
    "https://img-proxy.imgfo.com/?referer=https://manganelo.com&url=https://s7.mkklcdnv6temp.com/mangakakalot/r1/read_tokyo_ghoulre/vol5_chapter_45_plan_t/6.jpg",
    "https://img-proxy.imgfo.com/?referer=https://manganelo.com&url=https://s7.mkklcdnv6temp.com/mangakakalot/r1/read_tokyo_ghoulre/vol5_chapter_45_plan_t/7.jpg",
    "https://img-proxy.imgfo.com/?referer=https://manganelo.com&url=https://s7.mkklcdnv6temp.com/mangakakalot/r1/read_tokyo_ghoulre/vol5_chapter_45_plan_t/8.jpg",
    "https://img-proxy.imgfo.com/?referer=https://manganelo.com&url=https://s7.mkklcdnv6temp.com/mangakakalot/r1/read_tokyo_ghoulre/vol5_chapter_45_plan_t/9.jpg",
    "https://img-proxy.imgfo.com/?referer=https://manganelo.com&url=https://s7.mkklcdnv6temp.com/mangakakalot/r1/read_tokyo_ghoulre/vol5_chapter_45_plan_t/10.jpg",
    "https://img-proxy.imgfo.com/?referer=https://manganelo.com&url=https://s7.mkklcdnv6temp.com/mangakakalot/r1/read_tokyo_ghoulre/vol5_chapter_45_plan_t/11.jpg",
    "https://img-proxy.imgfo.com/?referer=https://manganelo.com&url=https://s7.mkklcdnv6temp.com/mangakakalot/r1/read_tokyo_ghoulre/vol5_chapter_45_plan_t/12.jpg",
    "https://img-proxy.imgfo.com/?referer=https://manganelo.com&url=https://s7.mkklcdnv6temp.com/mangakakalot/r1/read_tokyo_ghoulre/vol5_chapter_45_plan_t/13.jpg",
    "https://img-proxy.imgfo.com/?referer=https://manganelo.com&url=https://s7.mkklcdnv6temp.com/mangakakalot/r1/read_tokyo_ghoulre/vol5_chapter_45_plan_t/14.jpg",
    "https://img-proxy.imgfo.com/?referer=https://manganelo.com&url=https://s7.mkklcdnv6temp.com/mangakakalot/r1/read_tokyo_ghoulre/vol5_chapter_45_plan_t/15.jpg",
    "https://img-proxy.imgfo.com/?referer=https://manganelo.com&url=https://s7.mkklcdnv6temp.com/mangakakalot/r1/read_tokyo_ghoulre/vol5_chapter_45_plan_t/16.jpg",
    "https://img-proxy.imgfo.com/?referer=https://manganelo.com&url=https://s7.mkklcdnv6temp.com/mangakakalot/r1/read_tokyo_ghoulre/vol5_chapter_45_plan_t/17.jpg",
    "https://img-proxy.imgfo.com/?referer=https://manganelo.com&url=https://s7.mkklcdnv6temp.com/mangakakalot/r1/read_tokyo_ghoulre/vol5_chapter_45_plan_t/18.jpg",
    "https://img-proxy.imgfo.com/?referer=https://manganelo.com&url=https://s7.mkklcdnv6temp.com/mangakakalot/r1/read_tokyo_ghoulre/vol5_chapter_45_plan_t/19.jpg",
    "https://img-proxy.imgfo.com/?referer=https://manganelo.com&url=https://s7.mkklcdnv6temp.com/mangakakalot/r1/read_tokyo_ghoulre/vol5_chapter_45_plan_t/20.jpg"
  ]
}