{
  "cover": "http://ww1.heaventoon.com/content/upload/images/5149-read_hana_yori_dango.jpg",
  "title": "Hana Yori Dango",
  "genre": "Action, Adult, Comedy, Cooking, Drama, Manga, Romance, School Life, Shoujo",
  "author": "Kamio Youko",
  "status": "Ongoing",
  "backlink": "https://manganu.com/collections/kamio-youko/hana-yori-dango/",
  "description": "Hana Yori Dango manga summary: From Viz: Although Tsukushi Makino is from a poor family, she attends an elite school for the super rich, where her life has become intertwined with the \"F4,\" the ruling boys of the school, in a whirlwind of love and confusion! In 1996 Hana yori Dango received the Shogakukan Manga Award for shōjo. This is the best selling shoujo manga in history. Boys over Flowers officially ended with volume 36, but Yoko Kamio, just couldnt stay away from her beloved characters! Boys Over Flowers: Jewelry Box (Boys Over Flowers: Hana Yori Dango Some call it Volume 37) contains two short stories that take place 1 year after the end of Boys over Flowers volume 36. It also contains a section with some of the important events in the series that show the characters maturing, plus a special bonus strip! .",
  "language": "English",
  "images": [
    "https://images2-focus-opensocial.googleusercontent.com/gadgets/proxy?container=focus&gadget=a&no_expand=1&resize_h=0&rewriteMime=image%2F*&url=https://img-proxy.imgfo.com/?referer=https://manganelo.com&url=https://s8.mkklcdnv6temp.com/mangakakalot/r1/read_hana_yori_dango/chapter_52/1.jpg",
    "https://images2-focus-opensocial.googleusercontent.com/gadgets/proxy?container=focus&gadget=a&no_expand=1&resize_h=0&rewriteMime=image%2F*&url=https://img-proxy.imgfo.com/?referer=https://manganelo.com&url=https://s8.mkklcdnv6temp.com/mangakakalot/r1/read_hana_yori_dango/chapter_52/2.jpg",
    "https://images2-focus-opensocial.googleusercontent.com/gadgets/proxy?container=focus&gadget=a&no_expand=1&resize_h=0&rewriteMime=image%2F*&url=https://img-proxy.imgfo.com/?referer=https://manganelo.com&url=https://s8.mkklcdnv6temp.com/mangakakalot/r1/read_hana_yori_dango/chapter_52/3.jpg",
    "https://images2-focus-opensocial.googleusercontent.com/gadgets/proxy?container=focus&gadget=a&no_expand=1&resize_h=0&rewriteMime=image%2F*&url=https://img-proxy.imgfo.com/?referer=https://manganelo.com&url=https://s8.mkklcdnv6temp.com/mangakakalot/r1/read_hana_yori_dango/chapter_52/4.jpg",
    "https://images2-focus-opensocial.googleusercontent.com/gadgets/proxy?container=focus&gadget=a&no_expand=1&resize_h=0&rewriteMime=image%2F*&url=https://img-proxy.imgfo.com/?referer=https://manganelo.com&url=https://s8.mkklcdnv6temp.com/mangakakalot/r1/read_hana_yori_dango/chapter_52/5.jpg",
    "https://images2-focus-opensocial.googleusercontent.com/gadgets/proxy?container=focus&gadget=a&no_expand=1&resize_h=0&rewriteMime=image%2F*&url=https://img-proxy.imgfo.com/?referer=https://manganelo.com&url=https://s8.mkklcdnv6temp.com/mangakakalot/r1/read_hana_yori_dango/chapter_52/6.jpg",
    "https://images2-focus-opensocial.googleusercontent.com/gadgets/proxy?container=focus&gadget=a&no_expand=1&resize_h=0&rewriteMime=image%2F*&url=https://img-proxy.imgfo.com/?referer=https://manganelo.com&url=https://s8.mkklcdnv6temp.com/mangakakalot/r1/read_hana_yori_dango/chapter_52/7.jpg",
    "https://images2-focus-opensocial.googleusercontent.com/gadgets/proxy?container=focus&gadget=a&no_expand=1&resize_h=0&rewriteMime=image%2F*&url=https://img-proxy.imgfo.com/?referer=https://manganelo.com&url=https://s8.mkklcdnv6temp.com/mangakakalot/r1/read_hana_yori_dango/chapter_52/8.jpg",
    "https://images2-focus-opensocial.googleusercontent.com/gadgets/proxy?container=focus&gadget=a&no_expand=1&resize_h=0&rewriteMime=image%2F*&url=https://img-proxy.imgfo.com/?referer=https://manganelo.com&url=https://s8.mkklcdnv6temp.com/mangakakalot/r1/read_hana_yori_dango/chapter_52/9.jpg",
    "https://images2-focus-opensocial.googleusercontent.com/gadgets/proxy?container=focus&gadget=a&no_expand=1&resize_h=0&rewriteMime=image%2F*&url=https://img-proxy.imgfo.com/?referer=https://manganelo.com&url=https://s8.mkklcdnv6temp.com/mangakakalot/r1/read_hana_yori_dango/chapter_52/10.jpg",
    "https://images2-focus-opensocial.googleusercontent.com/gadgets/proxy?container=focus&gadget=a&no_expand=1&resize_h=0&rewriteMime=image%2F*&url=https://img-proxy.imgfo.com/?referer=https://manganelo.com&url=https://s8.mkklcdnv6temp.com/mangakakalot/r1/read_hana_yori_dango/chapter_52/11.jpg",
    "https://images2-focus-opensocial.googleusercontent.com/gadgets/proxy?container=focus&gadget=a&no_expand=1&resize_h=0&rewriteMime=image%2F*&url=https://img-proxy.imgfo.com/?referer=https://manganelo.com&url=https://s8.mkklcdnv6temp.com/mangakakalot/r1/read_hana_yori_dango/chapter_52/12.jpg",
    "https://images2-focus-opensocial.googleusercontent.com/gadgets/proxy?container=focus&gadget=a&no_expand=1&resize_h=0&rewriteMime=image%2F*&url=https://img-proxy.imgfo.com/?referer=https://manganelo.com&url=https://s8.mkklcdnv6temp.com/mangakakalot/r1/read_hana_yori_dango/chapter_52/13.jpg",
    "https://images2-focus-opensocial.googleusercontent.com/gadgets/proxy?container=focus&gadget=a&no_expand=1&resize_h=0&rewriteMime=image%2F*&url=https://img-proxy.imgfo.com/?referer=https://manganelo.com&url=https://s8.mkklcdnv6temp.com/mangakakalot/r1/read_hana_yori_dango/chapter_52/14.jpg",
    "https://images2-focus-opensocial.googleusercontent.com/gadgets/proxy?container=focus&gadget=a&no_expand=1&resize_h=0&rewriteMime=image%2F*&url=https://img-proxy.imgfo.com/?referer=https://manganelo.com&url=https://s8.mkklcdnv6temp.com/mangakakalot/r1/read_hana_yori_dango/chapter_52/15.jpg",
    "https://images2-focus-opensocial.googleusercontent.com/gadgets/proxy?container=focus&gadget=a&no_expand=1&resize_h=0&rewriteMime=image%2F*&url=https://img-proxy.imgfo.com/?referer=https://manganelo.com&url=https://s8.mkklcdnv6temp.com/mangakakalot/r1/read_hana_yori_dango/chapter_52/16.jpg",
    "https://images2-focus-opensocial.googleusercontent.com/gadgets/proxy?container=focus&gadget=a&no_expand=1&resize_h=0&rewriteMime=image%2F*&url=https://img-proxy.imgfo.com/?referer=https://manganelo.com&url=https://s8.mkklcdnv6temp.com/mangakakalot/r1/read_hana_yori_dango/chapter_52/17.jpg",
    "https://images2-focus-opensocial.googleusercontent.com/gadgets/proxy?container=focus&gadget=a&no_expand=1&resize_h=0&rewriteMime=image%2F*&url=https://img-proxy.imgfo.com/?referer=https://manganelo.com&url=https://s8.mkklcdnv6temp.com/mangakakalot/r1/read_hana_yori_dango/chapter_52/18.jpg",
    "https://images2-focus-opensocial.googleusercontent.com/gadgets/proxy?container=focus&gadget=a&no_expand=1&resize_h=0&rewriteMime=image%2F*&url=https://img-proxy.imgfo.com/?referer=https://manganelo.com&url=https://s8.mkklcdnv6temp.com/mangakakalot/r1/read_hana_yori_dango/chapter_52/19.jpg",
    "https://images2-focus-opensocial.googleusercontent.com/gadgets/proxy?container=focus&gadget=a&no_expand=1&resize_h=0&rewriteMime=image%2F*&url=https://img-proxy.imgfo.com/?referer=https://manganelo.com&url=https://s8.mkklcdnv6temp.com/mangakakalot/r1/read_hana_yori_dango/chapter_52/20.jpg",
    "https://images2-focus-opensocial.googleusercontent.com/gadgets/proxy?container=focus&gadget=a&no_expand=1&resize_h=0&rewriteMime=image%2F*&url=https://img-proxy.imgfo.com/?referer=https://manganelo.com&url=https://s8.mkklcdnv6temp.com/mangakakalot/r1/read_hana_yori_dango/chapter_52/21.jpg",
    "https://images2-focus-opensocial.googleusercontent.com/gadgets/proxy?container=focus&gadget=a&no_expand=1&resize_h=0&rewriteMime=image%2F*&url=https://img-proxy.imgfo.com/?referer=https://manganelo.com&url=https://s8.mkklcdnv6temp.com/mangakakalot/r1/read_hana_yori_dango/chapter_52/22.jpg",
    "https://images2-focus-opensocial.googleusercontent.com/gadgets/proxy?container=focus&gadget=a&no_expand=1&resize_h=0&rewriteMime=image%2F*&url=https://img-proxy.imgfo.com/?referer=https://manganelo.com&url=https://s8.mkklcdnv6temp.com/mangakakalot/r1/read_hana_yori_dango/chapter_52/23.jpg",
    "https://images2-focus-opensocial.googleusercontent.com/gadgets/proxy?container=focus&gadget=a&no_expand=1&resize_h=0&rewriteMime=image%2F*&url=https://img-proxy.imgfo.com/?referer=https://manganelo.com&url=https://s8.mkklcdnv6temp.com/mangakakalot/r1/read_hana_yori_dango/chapter_52/24.jpg",
    "https://images2-focus-opensocial.googleusercontent.com/gadgets/proxy?container=focus&gadget=a&no_expand=1&resize_h=0&rewriteMime=image%2F*&url=https://img-proxy.imgfo.com/?referer=https://manganelo.com&url=https://s8.mkklcdnv6temp.com/mangakakalot/r1/read_hana_yori_dango/chapter_52/25.jpg",
    "https://images2-focus-opensocial.googleusercontent.com/gadgets/proxy?container=focus&gadget=a&no_expand=1&resize_h=0&rewriteMime=image%2F*&url=https://img-proxy.imgfo.com/?referer=https://manganelo.com&url=https://s8.mkklcdnv6temp.com/mangakakalot/r1/read_hana_yori_dango/chapter_52/26.jpg",
    "https://images2-focus-opensocial.googleusercontent.com/gadgets/proxy?container=focus&gadget=a&no_expand=1&resize_h=0&rewriteMime=image%2F*&url=https://img-proxy.imgfo.com/?referer=https://manganelo.com&url=https://s8.mkklcdnv6temp.com/mangakakalot/r1/read_hana_yori_dango/chapter_52/27.jpg",
    "https://images2-focus-opensocial.googleusercontent.com/gadgets/proxy?container=focus&gadget=a&no_expand=1&resize_h=0&rewriteMime=image%2F*&url=https://img-proxy.imgfo.com/?referer=https://manganelo.com&url=https://s8.mkklcdnv6temp.com/mangakakalot/r1/read_hana_yori_dango/chapter_52/28.jpg",
    "https://images2-focus-opensocial.googleusercontent.com/gadgets/proxy?container=focus&gadget=a&no_expand=1&resize_h=0&rewriteMime=image%2F*&url=https://img-proxy.imgfo.com/?referer=https://manganelo.com&url=https://s8.mkklcdnv6temp.com/mangakakalot/r1/read_hana_yori_dango/chapter_52/29.jpg",
    "https://images2-focus-opensocial.googleusercontent.com/gadgets/proxy?container=focus&gadget=a&no_expand=1&resize_h=0&rewriteMime=image%2F*&url=https://img-proxy.imgfo.com/?referer=https://manganelo.com&url=https://s8.mkklcdnv6temp.com/mangakakalot/r1/read_hana_yori_dango/chapter_52/30.jpg",
    "https://images2-focus-opensocial.googleusercontent.com/gadgets/proxy?container=focus&gadget=a&no_expand=1&resize_h=0&rewriteMime=image%2F*&url=https://img-proxy.imgfo.com/?referer=https://manganelo.com&url=https://s8.mkklcdnv6temp.com/mangakakalot/r1/read_hana_yori_dango/chapter_52/31.jpg",
    "https://images2-focus-opensocial.googleusercontent.com/gadgets/proxy?container=focus&gadget=a&no_expand=1&resize_h=0&rewriteMime=image%2F*&url=https://img-proxy.imgfo.com/?referer=https://manganelo.com&url=https://s8.mkklcdnv6temp.com/mangakakalot/r1/read_hana_yori_dango/chapter_52/32.jpg",
    "https://images2-focus-opensocial.googleusercontent.com/gadgets/proxy?container=focus&gadget=a&no_expand=1&resize_h=0&rewriteMime=image%2F*&url=https://img-proxy.imgfo.com/?referer=https://manganelo.com&url=https://s8.mkklcdnv6temp.com/mangakakalot/r1/read_hana_yori_dango/chapter_52/33.jpg"
  ]
}