{
  "cover": "https://avt.mkklcdnv6.com/24/q/10-1583483060.jpg",
  "title": "Running On Empty",
  "original": "허공의 질주 ; Running through the Sky",
  "genre": "Drama, Romance, Shounen ai, Manhwa",
  "author": "Kim Jea-Eun",
  "status": "Completed",
  "backlink": "https://manganu.com/collections/kim-jea-eun/running-on-empty/",
  "description": "From NOIR\nHan Soo-bum has nothing to lose. Dying seems to be the solution to all his problems. How hard can it be to kill himself? Unless he gets abducted by a hot guy running from the law who has been falsely accused. Where will they run to, and what are these feelings blooming inside our fugitive’s heart? (In full color.)",
  "language": "English",
  "images": [
    "https://img-proxy.imgfo.com/?referer=https://manganelo.com&url=https://s5.mkklcdnv6temp.com/mangakakalot/r2/running_on_empty/vol2_chapter_7/1.jpg",
    "https://img-proxy.imgfo.com/?referer=https://manganelo.com&url=https://s5.mkklcdnv6temp.com/mangakakalot/r2/running_on_empty/vol2_chapter_7/2.jpg",
    "https://img-proxy.imgfo.com/?referer=https://manganelo.com&url=https://s5.mkklcdnv6temp.com/mangakakalot/r2/running_on_empty/vol2_chapter_7/3.jpg",
    "https://img-proxy.imgfo.com/?referer=https://manganelo.com&url=https://s5.mkklcdnv6temp.com/mangakakalot/r2/running_on_empty/vol2_chapter_7/4.jpg",
    "https://img-proxy.imgfo.com/?referer=https://manganelo.com&url=https://s5.mkklcdnv6temp.com/mangakakalot/r2/running_on_empty/vol2_chapter_7/5.jpg",
    "https://img-proxy.imgfo.com/?referer=https://manganelo.com&url=https://s5.mkklcdnv6temp.com/mangakakalot/r2/running_on_empty/vol2_chapter_7/6.jpg",
    "https://img-proxy.imgfo.com/?referer=https://manganelo.com&url=https://s5.mkklcdnv6temp.com/mangakakalot/r2/running_on_empty/vol2_chapter_7/7.jpg",
    "https://img-proxy.imgfo.com/?referer=https://manganelo.com&url=https://s5.mkklcdnv6temp.com/mangakakalot/r2/running_on_empty/vol2_chapter_7/8.jpg",
    "https://img-proxy.imgfo.com/?referer=https://manganelo.com&url=https://s5.mkklcdnv6temp.com/mangakakalot/r2/running_on_empty/vol2_chapter_7/9.jpg",
    "https://img-proxy.imgfo.com/?referer=https://manganelo.com&url=https://s5.mkklcdnv6temp.com/mangakakalot/r2/running_on_empty/vol2_chapter_7/10.jpg",
    "https://img-proxy.imgfo.com/?referer=https://manganelo.com&url=https://s5.mkklcdnv6temp.com/mangakakalot/r2/running_on_empty/vol2_chapter_7/11.jpg",
    "https://img-proxy.imgfo.com/?referer=https://manganelo.com&url=https://s5.mkklcdnv6temp.com/mangakakalot/r2/running_on_empty/vol2_chapter_7/12.jpg",
    "https://img-proxy.imgfo.com/?referer=https://manganelo.com&url=https://s5.mkklcdnv6temp.com/mangakakalot/r2/running_on_empty/vol2_chapter_7/13.jpg",
    "https://img-proxy.imgfo.com/?referer=https://manganelo.com&url=https://s5.mkklcdnv6temp.com/mangakakalot/r2/running_on_empty/vol2_chapter_7/14.jpg",
    "https://img-proxy.imgfo.com/?referer=https://manganelo.com&url=https://s5.mkklcdnv6temp.com/mangakakalot/r2/running_on_empty/vol2_chapter_7/15.jpg",
    "https://img-proxy.imgfo.com/?referer=https://manganelo.com&url=https://s5.mkklcdnv6temp.com/mangakakalot/r2/running_on_empty/vol2_chapter_7/16.jpg",
    "https://img-proxy.imgfo.com/?referer=https://manganelo.com&url=https://s5.mkklcdnv6temp.com/mangakakalot/r2/running_on_empty/vol2_chapter_7/17.jpg",
    "https://img-proxy.imgfo.com/?referer=https://manganelo.com&url=https://s5.mkklcdnv6temp.com/mangakakalot/r2/running_on_empty/vol2_chapter_7/18.jpg"
  ]
}