{
  "cover": "https://avt.mkklcdnv6.com/50/d/5-1583474101.jpg",
  "title": "Beniiro Hero",
  "original": "べにいろヒーロー ; البطل القرمزي ; 紅色HERO ; 艷紅色英雄 ; 홍색 히어로 ; Crimson Hero ; Xứng danh anh hùng",
  "genre": "Drama, Romance, School life, Shoujo, Sports, Manga",
  "author": "Takanashi Mitsuba",
  "status": "Completed",
  "backlink": "https://manganu.com/collections/takanashi-mitsuba/beniiro-hero/",
  "description": "From Viz: All that matters to 15-year-old Nobara Sumiyoshi is volleyball--she&#39;s an awesome player with big-time ambitions. But sometimes it seems like a girl just can&#39;t get a break in the competitive world of high school volleyball. Nobara&#39;s family wants her to inherit the role of &quot;young mistress,&quot; serving rich patrons at her family&#39;s old-fashioned Japanese restaurant. No thanks! When Nobara transfers to Crimson Field High School, known for its top-notch volleyball team, it turns out that her mother will stoop to dirty tricks to keep her off the court. With assistance from her feisty Aunt Momoko, who&#39;s got some connections at Crimson Field, Nobara decides to start playing offense.",
  "language": "English",
  "images": [
    "https://img-proxy.imgfo.com/?referer=https://manganelo.com&url=https://s7.mkklcdnv6temp.com/mangakakalot/b1/beniiro_hero/vol9_chapter_38_kanachans_feelings/1.jpg",
    "https://img-proxy.imgfo.com/?referer=https://manganelo.com&url=https://s7.mkklcdnv6temp.com/mangakakalot/b1/beniiro_hero/vol9_chapter_38_kanachans_feelings/2.jpg",
    "https://img-proxy.imgfo.com/?referer=https://manganelo.com&url=https://s7.mkklcdnv6temp.com/mangakakalot/b1/beniiro_hero/vol9_chapter_38_kanachans_feelings/3.jpg",
    "https://img-proxy.imgfo.com/?referer=https://manganelo.com&url=https://s7.mkklcdnv6temp.com/mangakakalot/b1/beniiro_hero/vol9_chapter_38_kanachans_feelings/4.jpg",
    "https://img-proxy.imgfo.com/?referer=https://manganelo.com&url=https://s7.mkklcdnv6temp.com/mangakakalot/b1/beniiro_hero/vol9_chapter_38_kanachans_feelings/5.jpg",
    "https://img-proxy.imgfo.com/?referer=https://manganelo.com&url=https://s7.mkklcdnv6temp.com/mangakakalot/b1/beniiro_hero/vol9_chapter_38_kanachans_feelings/6.jpg",
    "https://img-proxy.imgfo.com/?referer=https://manganelo.com&url=https://s7.mkklcdnv6temp.com/mangakakalot/b1/beniiro_hero/vol9_chapter_38_kanachans_feelings/7.jpg",
    "https://img-proxy.imgfo.com/?referer=https://manganelo.com&url=https://s7.mkklcdnv6temp.com/mangakakalot/b1/beniiro_hero/vol9_chapter_38_kanachans_feelings/8.jpg",
    "https://img-proxy.imgfo.com/?referer=https://manganelo.com&url=https://s7.mkklcdnv6temp.com/mangakakalot/b1/beniiro_hero/vol9_chapter_38_kanachans_feelings/9.jpg",
    "https://img-proxy.imgfo.com/?referer=https://manganelo.com&url=https://s7.mkklcdnv6temp.com/mangakakalot/b1/beniiro_hero/vol9_chapter_38_kanachans_feelings/10.jpg",
    "https://img-proxy.imgfo.com/?referer=https://manganelo.com&url=https://s7.mkklcdnv6temp.com/mangakakalot/b1/beniiro_hero/vol9_chapter_38_kanachans_feelings/11.jpg",
    "https://img-proxy.imgfo.com/?referer=https://manganelo.com&url=https://s7.mkklcdnv6temp.com/mangakakalot/b1/beniiro_hero/vol9_chapter_38_kanachans_feelings/12.jpg",
    "https://img-proxy.imgfo.com/?referer=https://manganelo.com&url=https://s7.mkklcdnv6temp.com/mangakakalot/b1/beniiro_hero/vol9_chapter_38_kanachans_feelings/13.jpg",
    "https://img-proxy.imgfo.com/?referer=https://manganelo.com&url=https://s7.mkklcdnv6temp.com/mangakakalot/b1/beniiro_hero/vol9_chapter_38_kanachans_feelings/14.jpg",
    "https://img-proxy.imgfo.com/?referer=https://manganelo.com&url=https://s7.mkklcdnv6temp.com/mangakakalot/b1/beniiro_hero/vol9_chapter_38_kanachans_feelings/15.jpg",
    "https://img-proxy.imgfo.com/?referer=https://manganelo.com&url=https://s7.mkklcdnv6temp.com/mangakakalot/b1/beniiro_hero/vol9_chapter_38_kanachans_feelings/16.jpg",
    "https://img-proxy.imgfo.com/?referer=https://manganelo.com&url=https://s7.mkklcdnv6temp.com/mangakakalot/b1/beniiro_hero/vol9_chapter_38_kanachans_feelings/17.jpg",
    "https://img-proxy.imgfo.com/?referer=https://manganelo.com&url=https://s7.mkklcdnv6temp.com/mangakakalot/b1/beniiro_hero/vol9_chapter_38_kanachans_feelings/18.jpg",
    "https://img-proxy.imgfo.com/?referer=https://manganelo.com&url=https://s7.mkklcdnv6temp.com/mangakakalot/b1/beniiro_hero/vol9_chapter_38_kanachans_feelings/19.jpg",
    "https://img-proxy.imgfo.com/?referer=https://manganelo.com&url=https://s7.mkklcdnv6temp.com/mangakakalot/b1/beniiro_hero/vol9_chapter_38_kanachans_feelings/20.jpg",
    "https://img-proxy.imgfo.com/?referer=https://manganelo.com&url=https://s7.mkklcdnv6temp.com/mangakakalot/b1/beniiro_hero/vol9_chapter_38_kanachans_feelings/21.jpg",
    "https://img-proxy.imgfo.com/?referer=https://manganelo.com&url=https://s7.mkklcdnv6temp.com/mangakakalot/b1/beniiro_hero/vol9_chapter_38_kanachans_feelings/22.jpg",
    "https://img-proxy.imgfo.com/?referer=https://manganelo.com&url=https://s7.mkklcdnv6temp.com/mangakakalot/b1/beniiro_hero/vol9_chapter_38_kanachans_feelings/23.jpg",
    "https://img-proxy.imgfo.com/?referer=https://manganelo.com&url=https://s7.mkklcdnv6temp.com/mangakakalot/b1/beniiro_hero/vol9_chapter_38_kanachans_feelings/24.jpg",
    "https://img-proxy.imgfo.com/?referer=https://manganelo.com&url=https://s7.mkklcdnv6temp.com/mangakakalot/b1/beniiro_hero/vol9_chapter_38_kanachans_feelings/25.jpg",
    "https://img-proxy.imgfo.com/?referer=https://manganelo.com&url=https://s7.mkklcdnv6temp.com/mangakakalot/b1/beniiro_hero/vol9_chapter_38_kanachans_feelings/26.jpg",
    "https://img-proxy.imgfo.com/?referer=https://manganelo.com&url=https://s7.mkklcdnv6temp.com/mangakakalot/b1/beniiro_hero/vol9_chapter_38_kanachans_feelings/27.jpg",
    "https://img-proxy.imgfo.com/?referer=https://manganelo.com&url=https://s7.mkklcdnv6temp.com/mangakakalot/b1/beniiro_hero/vol9_chapter_38_kanachans_feelings/28.jpg",
    "https://img-proxy.imgfo.com/?referer=https://manganelo.com&url=https://s7.mkklcdnv6temp.com/mangakakalot/b1/beniiro_hero/vol9_chapter_38_kanachans_feelings/29.jpg",
    "https://img-proxy.imgfo.com/?referer=https://manganelo.com&url=https://s7.mkklcdnv6temp.com/mangakakalot/b1/beniiro_hero/vol9_chapter_38_kanachans_feelings/30.jpg",
    "https://img-proxy.imgfo.com/?referer=https://manganelo.com&url=https://s7.mkklcdnv6temp.com/mangakakalot/b1/beniiro_hero/vol9_chapter_38_kanachans_feelings/31.jpg",
    "https://img-proxy.imgfo.com/?referer=https://manganelo.com&url=https://s7.mkklcdnv6temp.com/mangakakalot/b1/beniiro_hero/vol9_chapter_38_kanachans_feelings/32.jpg",
    "https://img-proxy.imgfo.com/?referer=https://manganelo.com&url=https://s7.mkklcdnv6temp.com/mangakakalot/b1/beniiro_hero/vol9_chapter_38_kanachans_feelings/33.jpg",
    "https://img-proxy.imgfo.com/?referer=https://manganelo.com&url=https://s7.mkklcdnv6temp.com/mangakakalot/b1/beniiro_hero/vol9_chapter_38_kanachans_feelings/34.jpg",
    "https://img-proxy.imgfo.com/?referer=https://manganelo.com&url=https://s7.mkklcdnv6temp.com/mangakakalot/b1/beniiro_hero/vol9_chapter_38_kanachans_feelings/35.jpg",
    "https://img-proxy.imgfo.com/?referer=https://manganelo.com&url=https://s7.mkklcdnv6temp.com/mangakakalot/b1/beniiro_hero/vol9_chapter_38_kanachans_feelings/36.jpg",
    "https://img-proxy.imgfo.com/?referer=https://manganelo.com&url=https://s7.mkklcdnv6temp.com/mangakakalot/b1/beniiro_hero/vol9_chapter_38_kanachans_feelings/37.jpg",
    "https://img-proxy.imgfo.com/?referer=https://manganelo.com&url=https://s7.mkklcdnv6temp.com/mangakakalot/b1/beniiro_hero/vol9_chapter_38_kanachans_feelings/38.jpg",
    "https://img-proxy.imgfo.com/?referer=https://manganelo.com&url=https://s7.mkklcdnv6temp.com/mangakakalot/b1/beniiro_hero/vol9_chapter_38_kanachans_feelings/39.jpg",
    "https://img-proxy.imgfo.com/?referer=https://manganelo.com&url=https://s7.mkklcdnv6temp.com/mangakakalot/b1/beniiro_hero/vol9_chapter_38_kanachans_feelings/40.jpg",
    "https://img-proxy.imgfo.com/?referer=https://manganelo.com&url=https://s7.mkklcdnv6temp.com/mangakakalot/b1/beniiro_hero/vol9_chapter_38_kanachans_feelings/41.jpg",
    "https://img-proxy.imgfo.com/?referer=https://manganelo.com&url=https://s7.mkklcdnv6temp.com/mangakakalot/b1/beniiro_hero/vol9_chapter_38_kanachans_feelings/42.jpg",
    "https://img-proxy.imgfo.com/?referer=https://manganelo.com&url=https://s7.mkklcdnv6temp.com/mangakakalot/b1/beniiro_hero/vol9_chapter_38_kanachans_feelings/43.jpg",
    "https://img-proxy.imgfo.com/?referer=https://manganelo.com&url=https://s7.mkklcdnv6temp.com/mangakakalot/b1/beniiro_hero/vol9_chapter_38_kanachans_feelings/44.jpg",
    "https://img-proxy.imgfo.com/?referer=https://manganelo.com&url=https://s7.mkklcdnv6temp.com/mangakakalot/b1/beniiro_hero/vol9_chapter_38_kanachans_feelings/45.jpg",
    "https://img-proxy.imgfo.com/?referer=https://manganelo.com&url=https://s7.mkklcdnv6temp.com/mangakakalot/b1/beniiro_hero/vol9_chapter_38_kanachans_feelings/46.jpg",
    "https://img-proxy.imgfo.com/?referer=https://manganelo.com&url=https://s7.mkklcdnv6temp.com/mangakakalot/b1/beniiro_hero/vol9_chapter_38_kanachans_feelings/47.jpg",
    "https://img-proxy.imgfo.com/?referer=https://manganelo.com&url=https://s7.mkklcdnv6temp.com/mangakakalot/b1/beniiro_hero/vol9_chapter_38_kanachans_feelings/48.jpg",
    "https://img-proxy.imgfo.com/?referer=https://manganelo.com&url=https://s7.mkklcdnv6temp.com/mangakakalot/b1/beniiro_hero/vol9_chapter_38_kanachans_feelings/49.jpg",
    "https://img-proxy.imgfo.com/?referer=https://manganelo.com&url=https://s7.mkklcdnv6temp.com/mangakakalot/b1/beniiro_hero/vol9_chapter_38_kanachans_feelings/50.jpg",
    "https://img-proxy.imgfo.com/?referer=https://manganelo.com&url=https://s7.mkklcdnv6temp.com/mangakakalot/b1/beniiro_hero/vol9_chapter_38_kanachans_feelings/51.jpg",
    "https://img-proxy.imgfo.com/?referer=https://manganelo.com&url=https://s7.mkklcdnv6temp.com/mangakakalot/b1/beniiro_hero/vol9_chapter_38_kanachans_feelings/52.jpg",
    "https://img-proxy.imgfo.com/?referer=https://manganelo.com&url=https://s7.mkklcdnv6temp.com/mangakakalot/b1/beniiro_hero/vol9_chapter_38_kanachans_feelings/53.jpg",
    "https://img-proxy.imgfo.com/?referer=https://manganelo.com&url=https://s7.mkklcdnv6temp.com/mangakakalot/b1/beniiro_hero/vol9_chapter_38_kanachans_feelings/54.jpg",
    "https://img-proxy.imgfo.com/?referer=https://manganelo.com&url=https://s7.mkklcdnv6temp.com/mangakakalot/b1/beniiro_hero/vol9_chapter_38_kanachans_feelings/55.jpg"
  ]
}