{
  "cover": "https://avt.mkklcdnv6.com/31/i/2-1583466908.jpg",
  "title": "The Voynich Hotel",
  "original": "ヴォイニッチホテル ; The Vovnich Hotel ; The Voynich Hotel ; Voinicchi Hotel ; Voinicchi Hoteru",
  "genre": "Comedy, Ecchi, Horror, Seinen, Manga",
  "author": "Douman Seiman",
  "status": "Completed",
  "backlink": "https://manganu.com/collections/douman-seiman/the-voynich-hotel/",
  "description": "A young man comes to live on a small island in the south seas, and resides in a hotel that is far from ordinary – which matches the guests and staff…",
  "language": "English",
  "images": [
    "https://img-proxy.imgfo.com/?referer=https://manganelo.com&url=https://s5.mkklcdnv6temp.com/mangakakalot/t1/the_voynich_hotel/vol1_chapter_10/1.jpg",
    "https://img-proxy.imgfo.com/?referer=https://manganelo.com&url=https://s5.mkklcdnv6temp.com/mangakakalot/t1/the_voynich_hotel/vol1_chapter_10/2.jpg",
    "https://img-proxy.imgfo.com/?referer=https://manganelo.com&url=https://s5.mkklcdnv6temp.com/mangakakalot/t1/the_voynich_hotel/vol1_chapter_10/3.jpg",
    "https://img-proxy.imgfo.com/?referer=https://manganelo.com&url=https://s5.mkklcdnv6temp.com/mangakakalot/t1/the_voynich_hotel/vol1_chapter_10/4.jpg",
    "https://img-proxy.imgfo.com/?referer=https://manganelo.com&url=https://s5.mkklcdnv6temp.com/mangakakalot/t1/the_voynich_hotel/vol1_chapter_10/5.jpg",
    "https://img-proxy.imgfo.com/?referer=https://manganelo.com&url=https://s5.mkklcdnv6temp.com/mangakakalot/t1/the_voynich_hotel/vol1_chapter_10/6.jpg",
    "https://img-proxy.imgfo.com/?referer=https://manganelo.com&url=https://s5.mkklcdnv6temp.com/mangakakalot/t1/the_voynich_hotel/vol1_chapter_10/7.jpg",
    "https://img-proxy.imgfo.com/?referer=https://manganelo.com&url=https://s5.mkklcdnv6temp.com/mangakakalot/t1/the_voynich_hotel/vol1_chapter_10/8.jpg"
  ]
}