{
  "cover": "https://avt.mkklcdnv6.com/19/p/4-1583470476.jpg",
  "title": "Usotsuki Lily",
  "original": "うそつきリリィ ; Liar Lily ; Usotsuki Riri ; Usotsuki Ririi ; Лъжлива лилия (bulgarian) ; Лживая Лили(russian) ; Vale Lilja (Finnish) ; Melagė Lelija (Lithuanian) ; Yalancı Lily ( Zambak Çiçeği ) (Turkish) ; الكاذبة ليلي (Arabic) ; lily mentirosa (Spanish) ; Sinungaling Lily (tagalog) ; Lily la menteuse (French)",
  "genre": "Comedy, Gender bender, Romance, School life, Shoujo, Manga",
  "author": "Komura Ayumi",
  "status": "Completed",
  "backlink": "https://manganu.com/collections/komura-ayumi/usotsuki-lily/",
  "description": "From Manga Updates\nHinata Saotome is suddenly asked out by En Shinohara, a gorgeous boy in her grade. What she doesn’t know, though, is that his hobby is cross-dressing! En has always hated men, and whenever he sees his own reflection, he punches out whatever is doing the reflecting (windows, mirrors…). To combat this hatred, he dresses up as a girl. Hinata decides to go out with him anyway, despite his weird hobby.",
  "language": "English",
  "images": [
    "https://img-proxy.imgfo.com/?referer=https://manganelo.com&url=https://s3.mkklcdnv6temp.com/mangakakalot/u2/usotsuki_lily/vol6_chapter_37_crossdressing_time_37/1.jpg",
    "https://img-proxy.imgfo.com/?referer=https://manganelo.com&url=https://s3.mkklcdnv6temp.com/mangakakalot/u2/usotsuki_lily/vol6_chapter_37_crossdressing_time_37/2.jpg",
    "https://img-proxy.imgfo.com/?referer=https://manganelo.com&url=https://s3.mkklcdnv6temp.com/mangakakalot/u2/usotsuki_lily/vol6_chapter_37_crossdressing_time_37/3.jpg",
    "https://img-proxy.imgfo.com/?referer=https://manganelo.com&url=https://s3.mkklcdnv6temp.com/mangakakalot/u2/usotsuki_lily/vol6_chapter_37_crossdressing_time_37/4.jpg",
    "https://img-proxy.imgfo.com/?referer=https://manganelo.com&url=https://s3.mkklcdnv6temp.com/mangakakalot/u2/usotsuki_lily/vol6_chapter_37_crossdressing_time_37/5.jpg",
    "https://img-proxy.imgfo.com/?referer=https://manganelo.com&url=https://s3.mkklcdnv6temp.com/mangakakalot/u2/usotsuki_lily/vol6_chapter_37_crossdressing_time_37/6.jpg",
    "https://img-proxy.imgfo.com/?referer=https://manganelo.com&url=https://s3.mkklcdnv6temp.com/mangakakalot/u2/usotsuki_lily/vol6_chapter_37_crossdressing_time_37/7.jpg",
    "https://img-proxy.imgfo.com/?referer=https://manganelo.com&url=https://s3.mkklcdnv6temp.com/mangakakalot/u2/usotsuki_lily/vol6_chapter_37_crossdressing_time_37/8.jpg",
    "https://img-proxy.imgfo.com/?referer=https://manganelo.com&url=https://s3.mkklcdnv6temp.com/mangakakalot/u2/usotsuki_lily/vol6_chapter_37_crossdressing_time_37/9.jpg",
    "https://img-proxy.imgfo.com/?referer=https://manganelo.com&url=https://s3.mkklcdnv6temp.com/mangakakalot/u2/usotsuki_lily/vol6_chapter_37_crossdressing_time_37/10.jpg",
    "https://img-proxy.imgfo.com/?referer=https://manganelo.com&url=https://s3.mkklcdnv6temp.com/mangakakalot/u2/usotsuki_lily/vol6_chapter_37_crossdressing_time_37/11.jpg",
    "https://img-proxy.imgfo.com/?referer=https://manganelo.com&url=https://s3.mkklcdnv6temp.com/mangakakalot/u2/usotsuki_lily/vol6_chapter_37_crossdressing_time_37/12.jpg",
    "https://img-proxy.imgfo.com/?referer=https://manganelo.com&url=https://s3.mkklcdnv6temp.com/mangakakalot/u2/usotsuki_lily/vol6_chapter_37_crossdressing_time_37/13.jpg",
    "https://img-proxy.imgfo.com/?referer=https://manganelo.com&url=https://s3.mkklcdnv6temp.com/mangakakalot/u2/usotsuki_lily/vol6_chapter_37_crossdressing_time_37/14.jpg",
    "https://img-proxy.imgfo.com/?referer=https://manganelo.com&url=https://s3.mkklcdnv6temp.com/mangakakalot/u2/usotsuki_lily/vol6_chapter_37_crossdressing_time_37/15.jpg",
    "https://img-proxy.imgfo.com/?referer=https://manganelo.com&url=https://s3.mkklcdnv6temp.com/mangakakalot/u2/usotsuki_lily/vol6_chapter_37_crossdressing_time_37/16.jpg",
    "https://img-proxy.imgfo.com/?referer=https://manganelo.com&url=https://s3.mkklcdnv6temp.com/mangakakalot/u2/usotsuki_lily/vol6_chapter_37_crossdressing_time_37/17.jpg",
    "https://img-proxy.imgfo.com/?referer=https://manganelo.com&url=https://s3.mkklcdnv6temp.com/mangakakalot/u2/usotsuki_lily/vol6_chapter_37_crossdressing_time_37/18.jpg",
    "https://img-proxy.imgfo.com/?referer=https://manganelo.com&url=https://s3.mkklcdnv6temp.com/mangakakalot/u2/usotsuki_lily/vol6_chapter_37_crossdressing_time_37/19.jpg",
    "https://img-proxy.imgfo.com/?referer=https://manganelo.com&url=https://s3.mkklcdnv6temp.com/mangakakalot/u2/usotsuki_lily/vol6_chapter_37_crossdressing_time_37/20.jpg",
    "https://img-proxy.imgfo.com/?referer=https://manganelo.com&url=https://s3.mkklcdnv6temp.com/mangakakalot/u2/usotsuki_lily/vol6_chapter_37_crossdressing_time_37/21.jpg",
    "https://img-proxy.imgfo.com/?referer=https://manganelo.com&url=https://s3.mkklcdnv6temp.com/mangakakalot/u2/usotsuki_lily/vol6_chapter_37_crossdressing_time_37/22.jpg",
    "https://img-proxy.imgfo.com/?referer=https://manganelo.com&url=https://s3.mkklcdnv6temp.com/mangakakalot/u2/usotsuki_lily/vol6_chapter_37_crossdressing_time_37/23.jpg",
    "https://img-proxy.imgfo.com/?referer=https://manganelo.com&url=https://s3.mkklcdnv6temp.com/mangakakalot/u2/usotsuki_lily/vol6_chapter_37_crossdressing_time_37/24.jpg",
    "https://img-proxy.imgfo.com/?referer=https://manganelo.com&url=https://s3.mkklcdnv6temp.com/mangakakalot/u2/usotsuki_lily/vol6_chapter_37_crossdressing_time_37/25.jpg",
    "https://img-proxy.imgfo.com/?referer=https://manganelo.com&url=https://s3.mkklcdnv6temp.com/mangakakalot/u2/usotsuki_lily/vol6_chapter_37_crossdressing_time_37/26.jpg",
    "https://img-proxy.imgfo.com/?referer=https://manganelo.com&url=https://s3.mkklcdnv6temp.com/mangakakalot/u2/usotsuki_lily/vol6_chapter_37_crossdressing_time_37/27.jpg"
  ]
}