{
  "cover": "https://avt.mkklcdnv6.com/19/p/4-1583470476.jpg",
  "title": "Usotsuki Lily",
  "original": "うそつきリリィ ; Liar Lily ; Usotsuki Riri ; Usotsuki Ririi ; Лъжлива лилия (bulgarian) ; Лживая Лили(russian) ; Vale Lilja (Finnish) ; Melagė Lelija (Lithuanian) ; Yalancı Lily ( Zambak Çiçeği ) (Turkish) ; الكاذبة ليلي (Arabic) ; lily mentirosa (Spanish) ; Sinungaling Lily (tagalog) ; Lily la menteuse (French)",
  "genre": "Comedy, Gender bender, Romance, School life, Shoujo, Manga",
  "author": "Komura Ayumi",
  "status": "Completed",
  "backlink": "https://manganu.com/collections/komura-ayumi/usotsuki-lily/",
  "description": "From Manga Updates\nHinata Saotome is suddenly asked out by En Shinohara, a gorgeous boy in her grade. What she doesn’t know, though, is that his hobby is cross-dressing! En has always hated men, and whenever he sees his own reflection, he punches out whatever is doing the reflecting (windows, mirrors…). To combat this hatred, he dresses up as a girl. Hinata decides to go out with him anyway, despite his weird hobby.",
  "language": "English",
  "images": [
    "https://img-proxy.imgfo.com/?referer=https://manganelo.com&url=https://s3.mkklcdnv6temp.com/mangakakalot/u2/usotsuki_lily/vol0_chapter_3_summer_blizzard_komakoji_4cell_4_koma_epilogue_the_day_t/1.jpg",
    "https://img-proxy.imgfo.com/?referer=https://manganelo.com&url=https://s3.mkklcdnv6temp.com/mangakakalot/u2/usotsuki_lily/vol0_chapter_3_summer_blizzard_komakoji_4cell_4_koma_epilogue_the_day_t/2.jpg",
    "https://img-proxy.imgfo.com/?referer=https://manganelo.com&url=https://s3.mkklcdnv6temp.com/mangakakalot/u2/usotsuki_lily/vol0_chapter_3_summer_blizzard_komakoji_4cell_4_koma_epilogue_the_day_t/3.jpg",
    "https://img-proxy.imgfo.com/?referer=https://manganelo.com&url=https://s3.mkklcdnv6temp.com/mangakakalot/u2/usotsuki_lily/vol0_chapter_3_summer_blizzard_komakoji_4cell_4_koma_epilogue_the_day_t/4.jpg",
    "https://img-proxy.imgfo.com/?referer=https://manganelo.com&url=https://s3.mkklcdnv6temp.com/mangakakalot/u2/usotsuki_lily/vol0_chapter_3_summer_blizzard_komakoji_4cell_4_koma_epilogue_the_day_t/5.jpg",
    "https://img-proxy.imgfo.com/?referer=https://manganelo.com&url=https://s3.mkklcdnv6temp.com/mangakakalot/u2/usotsuki_lily/vol0_chapter_3_summer_blizzard_komakoji_4cell_4_koma_epilogue_the_day_t/6.jpg",
    "https://img-proxy.imgfo.com/?referer=https://manganelo.com&url=https://s3.mkklcdnv6temp.com/mangakakalot/u2/usotsuki_lily/vol0_chapter_3_summer_blizzard_komakoji_4cell_4_koma_epilogue_the_day_t/7.jpg",
    "https://img-proxy.imgfo.com/?referer=https://manganelo.com&url=https://s3.mkklcdnv6temp.com/mangakakalot/u2/usotsuki_lily/vol0_chapter_3_summer_blizzard_komakoji_4cell_4_koma_epilogue_the_day_t/8.jpg",
    "https://img-proxy.imgfo.com/?referer=https://manganelo.com&url=https://s3.mkklcdnv6temp.com/mangakakalot/u2/usotsuki_lily/vol0_chapter_3_summer_blizzard_komakoji_4cell_4_koma_epilogue_the_day_t/9.jpg",
    "https://img-proxy.imgfo.com/?referer=https://manganelo.com&url=https://s3.mkklcdnv6temp.com/mangakakalot/u2/usotsuki_lily/vol0_chapter_3_summer_blizzard_komakoji_4cell_4_koma_epilogue_the_day_t/10.jpg",
    "https://img-proxy.imgfo.com/?referer=https://manganelo.com&url=https://s3.mkklcdnv6temp.com/mangakakalot/u2/usotsuki_lily/vol0_chapter_3_summer_blizzard_komakoji_4cell_4_koma_epilogue_the_day_t/11.jpg",
    "https://img-proxy.imgfo.com/?referer=https://manganelo.com&url=https://s3.mkklcdnv6temp.com/mangakakalot/u2/usotsuki_lily/vol0_chapter_3_summer_blizzard_komakoji_4cell_4_koma_epilogue_the_day_t/12.jpg",
    "https://img-proxy.imgfo.com/?referer=https://manganelo.com&url=https://s3.mkklcdnv6temp.com/mangakakalot/u2/usotsuki_lily/vol0_chapter_3_summer_blizzard_komakoji_4cell_4_koma_epilogue_the_day_t/13.jpg",
    "https://img-proxy.imgfo.com/?referer=https://manganelo.com&url=https://s3.mkklcdnv6temp.com/mangakakalot/u2/usotsuki_lily/vol0_chapter_3_summer_blizzard_komakoji_4cell_4_koma_epilogue_the_day_t/14.jpg",
    "https://img-proxy.imgfo.com/?referer=https://manganelo.com&url=https://s3.mkklcdnv6temp.com/mangakakalot/u2/usotsuki_lily/vol0_chapter_3_summer_blizzard_komakoji_4cell_4_koma_epilogue_the_day_t/15.jpg",
    "https://img-proxy.imgfo.com/?referer=https://manganelo.com&url=https://s3.mkklcdnv6temp.com/mangakakalot/u2/usotsuki_lily/vol0_chapter_3_summer_blizzard_komakoji_4cell_4_koma_epilogue_the_day_t/16.jpg",
    "https://img-proxy.imgfo.com/?referer=https://manganelo.com&url=https://s3.mkklcdnv6temp.com/mangakakalot/u2/usotsuki_lily/vol0_chapter_3_summer_blizzard_komakoji_4cell_4_koma_epilogue_the_day_t/17.jpg",
    "https://img-proxy.imgfo.com/?referer=https://manganelo.com&url=https://s3.mkklcdnv6temp.com/mangakakalot/u2/usotsuki_lily/vol0_chapter_3_summer_blizzard_komakoji_4cell_4_koma_epilogue_the_day_t/18.jpg",
    "https://img-proxy.imgfo.com/?referer=https://manganelo.com&url=https://s3.mkklcdnv6temp.com/mangakakalot/u2/usotsuki_lily/vol0_chapter_3_summer_blizzard_komakoji_4cell_4_koma_epilogue_the_day_t/19.jpg",
    "https://img-proxy.imgfo.com/?referer=https://manganelo.com&url=https://s3.mkklcdnv6temp.com/mangakakalot/u2/usotsuki_lily/vol0_chapter_3_summer_blizzard_komakoji_4cell_4_koma_epilogue_the_day_t/20.jpg",
    "https://img-proxy.imgfo.com/?referer=https://manganelo.com&url=https://s3.mkklcdnv6temp.com/mangakakalot/u2/usotsuki_lily/vol0_chapter_3_summer_blizzard_komakoji_4cell_4_koma_epilogue_the_day_t/21.jpg",
    "https://img-proxy.imgfo.com/?referer=https://manganelo.com&url=https://s3.mkklcdnv6temp.com/mangakakalot/u2/usotsuki_lily/vol0_chapter_3_summer_blizzard_komakoji_4cell_4_koma_epilogue_the_day_t/22.jpg",
    "https://img-proxy.imgfo.com/?referer=https://manganelo.com&url=https://s3.mkklcdnv6temp.com/mangakakalot/u2/usotsuki_lily/vol0_chapter_3_summer_blizzard_komakoji_4cell_4_koma_epilogue_the_day_t/23.jpg",
    "https://img-proxy.imgfo.com/?referer=https://manganelo.com&url=https://s3.mkklcdnv6temp.com/mangakakalot/u2/usotsuki_lily/vol0_chapter_3_summer_blizzard_komakoji_4cell_4_koma_epilogue_the_day_t/24.jpg",
    "https://img-proxy.imgfo.com/?referer=https://manganelo.com&url=https://s3.mkklcdnv6temp.com/mangakakalot/u2/usotsuki_lily/vol0_chapter_3_summer_blizzard_komakoji_4cell_4_koma_epilogue_the_day_t/25.jpg",
    "https://img-proxy.imgfo.com/?referer=https://manganelo.com&url=https://s3.mkklcdnv6temp.com/mangakakalot/u2/usotsuki_lily/vol0_chapter_3_summer_blizzard_komakoji_4cell_4_koma_epilogue_the_day_t/26.jpg",
    "https://img-proxy.imgfo.com/?referer=https://manganelo.com&url=https://s3.mkklcdnv6temp.com/mangakakalot/u2/usotsuki_lily/vol0_chapter_3_summer_blizzard_komakoji_4cell_4_koma_epilogue_the_day_t/27.jpg",
    "https://img-proxy.imgfo.com/?referer=https://manganelo.com&url=https://s3.mkklcdnv6temp.com/mangakakalot/u2/usotsuki_lily/vol0_chapter_3_summer_blizzard_komakoji_4cell_4_koma_epilogue_the_day_t/28.jpg",
    "https://img-proxy.imgfo.com/?referer=https://manganelo.com&url=https://s3.mkklcdnv6temp.com/mangakakalot/u2/usotsuki_lily/vol0_chapter_3_summer_blizzard_komakoji_4cell_4_koma_epilogue_the_day_t/29.jpg",
    "https://img-proxy.imgfo.com/?referer=https://manganelo.com&url=https://s3.mkklcdnv6temp.com/mangakakalot/u2/usotsuki_lily/vol0_chapter_3_summer_blizzard_komakoji_4cell_4_koma_epilogue_the_day_t/30.jpg",
    "https://img-proxy.imgfo.com/?referer=https://manganelo.com&url=https://s3.mkklcdnv6temp.com/mangakakalot/u2/usotsuki_lily/vol0_chapter_3_summer_blizzard_komakoji_4cell_4_koma_epilogue_the_day_t/31.jpg",
    "https://img-proxy.imgfo.com/?referer=https://manganelo.com&url=https://s3.mkklcdnv6temp.com/mangakakalot/u2/usotsuki_lily/vol0_chapter_3_summer_blizzard_komakoji_4cell_4_koma_epilogue_the_day_t/32.jpg",
    "https://img-proxy.imgfo.com/?referer=https://manganelo.com&url=https://s3.mkklcdnv6temp.com/mangakakalot/u2/usotsuki_lily/vol0_chapter_3_summer_blizzard_komakoji_4cell_4_koma_epilogue_the_day_t/33.jpg",
    "https://img-proxy.imgfo.com/?referer=https://manganelo.com&url=https://s3.mkklcdnv6temp.com/mangakakalot/u2/usotsuki_lily/vol0_chapter_3_summer_blizzard_komakoji_4cell_4_koma_epilogue_the_day_t/34.jpg",
    "https://img-proxy.imgfo.com/?referer=https://manganelo.com&url=https://s3.mkklcdnv6temp.com/mangakakalot/u2/usotsuki_lily/vol0_chapter_3_summer_blizzard_komakoji_4cell_4_koma_epilogue_the_day_t/35.jpg",
    "https://img-proxy.imgfo.com/?referer=https://manganelo.com&url=https://s3.mkklcdnv6temp.com/mangakakalot/u2/usotsuki_lily/vol0_chapter_3_summer_blizzard_komakoji_4cell_4_koma_epilogue_the_day_t/36.jpg",
    "https://img-proxy.imgfo.com/?referer=https://manganelo.com&url=https://s3.mkklcdnv6temp.com/mangakakalot/u2/usotsuki_lily/vol0_chapter_3_summer_blizzard_komakoji_4cell_4_koma_epilogue_the_day_t/37.jpg",
    "https://img-proxy.imgfo.com/?referer=https://manganelo.com&url=https://s3.mkklcdnv6temp.com/mangakakalot/u2/usotsuki_lily/vol0_chapter_3_summer_blizzard_komakoji_4cell_4_koma_epilogue_the_day_t/38.jpg",
    "https://img-proxy.imgfo.com/?referer=https://manganelo.com&url=https://s3.mkklcdnv6temp.com/mangakakalot/u2/usotsuki_lily/vol0_chapter_3_summer_blizzard_komakoji_4cell_4_koma_epilogue_the_day_t/39.jpg",
    "https://img-proxy.imgfo.com/?referer=https://manganelo.com&url=https://s3.mkklcdnv6temp.com/mangakakalot/u2/usotsuki_lily/vol0_chapter_3_summer_blizzard_komakoji_4cell_4_koma_epilogue_the_day_t/40.jpg",
    "https://img-proxy.imgfo.com/?referer=https://manganelo.com&url=https://s3.mkklcdnv6temp.com/mangakakalot/u2/usotsuki_lily/vol0_chapter_3_summer_blizzard_komakoji_4cell_4_koma_epilogue_the_day_t/41.jpg",
    "https://img-proxy.imgfo.com/?referer=https://manganelo.com&url=https://s3.mkklcdnv6temp.com/mangakakalot/u2/usotsuki_lily/vol0_chapter_3_summer_blizzard_komakoji_4cell_4_koma_epilogue_the_day_t/42.jpg",
    "https://img-proxy.imgfo.com/?referer=https://manganelo.com&url=https://s3.mkklcdnv6temp.com/mangakakalot/u2/usotsuki_lily/vol0_chapter_3_summer_blizzard_komakoji_4cell_4_koma_epilogue_the_day_t/43.jpg",
    "https://img-proxy.imgfo.com/?referer=https://manganelo.com&url=https://s3.mkklcdnv6temp.com/mangakakalot/u2/usotsuki_lily/vol0_chapter_3_summer_blizzard_komakoji_4cell_4_koma_epilogue_the_day_t/44.jpg",
    "https://img-proxy.imgfo.com/?referer=https://manganelo.com&url=https://s3.mkklcdnv6temp.com/mangakakalot/u2/usotsuki_lily/vol0_chapter_3_summer_blizzard_komakoji_4cell_4_koma_epilogue_the_day_t/45.jpg",
    "https://img-proxy.imgfo.com/?referer=https://manganelo.com&url=https://s3.mkklcdnv6temp.com/mangakakalot/u2/usotsuki_lily/vol0_chapter_3_summer_blizzard_komakoji_4cell_4_koma_epilogue_the_day_t/46.jpg",
    "https://img-proxy.imgfo.com/?referer=https://manganelo.com&url=https://s3.mkklcdnv6temp.com/mangakakalot/u2/usotsuki_lily/vol0_chapter_3_summer_blizzard_komakoji_4cell_4_koma_epilogue_the_day_t/47.jpg",
    "https://img-proxy.imgfo.com/?referer=https://manganelo.com&url=https://s3.mkklcdnv6temp.com/mangakakalot/u2/usotsuki_lily/vol0_chapter_3_summer_blizzard_komakoji_4cell_4_koma_epilogue_the_day_t/48.jpg",
    "https://img-proxy.imgfo.com/?referer=https://manganelo.com&url=https://s3.mkklcdnv6temp.com/mangakakalot/u2/usotsuki_lily/vol0_chapter_3_summer_blizzard_komakoji_4cell_4_koma_epilogue_the_day_t/49.jpg"
  ]
}