{
  "cover": "https://avt.mkklcdnv6.com/15/i/5-1583472444.jpg",
  "title": "Kekkaishi",
  "original": "結界師 ; ผู้ผนึกมาร ; 결계사 ; Kết giới sư ; Kekkaishi Ayakashi Hojinden",
  "genre": "Action, Adult, Adventure, Comedy, Drama, Fantasy, Shounen, Supernatural, Manga",
  "author": "Tanabe Yellow",
  "status": "Completed",
  "backlink": "https://manganu.com/collections/tanabe-yellow/kekkaishi/",
  "description": "By night, junior high student Yoshimori Sumimura is a &quot;kekkaishi&quot;--a demon-hunter who specializes in creating magical barriers around his prey. By day, Yoshimori&#39;s got some other demons to battle: an addiction to sweets and a seriously crotchety grandfather! Yoshimori&#39;s pretty 16-year-old neighbor and childhood friend, Tokine Yukimura, is also a kekkaishi, but their families are feuding over who is the true practitioner of the art. Kekkaishi received the 2007 Shogakukan Manga Award for shounen manga.",
  "language": "English",
  "images": [
    "https://img-proxy.imgfo.com/?referer=https://manganelo.com&url=https://s6.mkklcdnv6temp.com/mangakakalot/r1/read_kekkaishi/vol20_chapter_189_masamori_vs_ougi/1.jpg",
    "https://img-proxy.imgfo.com/?referer=https://manganelo.com&url=https://s6.mkklcdnv6temp.com/mangakakalot/r1/read_kekkaishi/vol20_chapter_189_masamori_vs_ougi/2.jpg",
    "https://img-proxy.imgfo.com/?referer=https://manganelo.com&url=https://s6.mkklcdnv6temp.com/mangakakalot/r1/read_kekkaishi/vol20_chapter_189_masamori_vs_ougi/3.jpg",
    "https://img-proxy.imgfo.com/?referer=https://manganelo.com&url=https://s6.mkklcdnv6temp.com/mangakakalot/r1/read_kekkaishi/vol20_chapter_189_masamori_vs_ougi/4.jpg",
    "https://img-proxy.imgfo.com/?referer=https://manganelo.com&url=https://s6.mkklcdnv6temp.com/mangakakalot/r1/read_kekkaishi/vol20_chapter_189_masamori_vs_ougi/5.jpg",
    "https://img-proxy.imgfo.com/?referer=https://manganelo.com&url=https://s6.mkklcdnv6temp.com/mangakakalot/r1/read_kekkaishi/vol20_chapter_189_masamori_vs_ougi/6.jpg",
    "https://img-proxy.imgfo.com/?referer=https://manganelo.com&url=https://s6.mkklcdnv6temp.com/mangakakalot/r1/read_kekkaishi/vol20_chapter_189_masamori_vs_ougi/7.jpg",
    "https://img-proxy.imgfo.com/?referer=https://manganelo.com&url=https://s6.mkklcdnv6temp.com/mangakakalot/r1/read_kekkaishi/vol20_chapter_189_masamori_vs_ougi/8.jpg",
    "https://img-proxy.imgfo.com/?referer=https://manganelo.com&url=https://s6.mkklcdnv6temp.com/mangakakalot/r1/read_kekkaishi/vol20_chapter_189_masamori_vs_ougi/9.jpg",
    "https://img-proxy.imgfo.com/?referer=https://manganelo.com&url=https://s6.mkklcdnv6temp.com/mangakakalot/r1/read_kekkaishi/vol20_chapter_189_masamori_vs_ougi/10.jpg",
    "https://img-proxy.imgfo.com/?referer=https://manganelo.com&url=https://s6.mkklcdnv6temp.com/mangakakalot/r1/read_kekkaishi/vol20_chapter_189_masamori_vs_ougi/11.jpg",
    "https://img-proxy.imgfo.com/?referer=https://manganelo.com&url=https://s6.mkklcdnv6temp.com/mangakakalot/r1/read_kekkaishi/vol20_chapter_189_masamori_vs_ougi/12.jpg",
    "https://img-proxy.imgfo.com/?referer=https://manganelo.com&url=https://s6.mkklcdnv6temp.com/mangakakalot/r1/read_kekkaishi/vol20_chapter_189_masamori_vs_ougi/13.jpg",
    "https://img-proxy.imgfo.com/?referer=https://manganelo.com&url=https://s6.mkklcdnv6temp.com/mangakakalot/r1/read_kekkaishi/vol20_chapter_189_masamori_vs_ougi/14.jpg",
    "https://img-proxy.imgfo.com/?referer=https://manganelo.com&url=https://s6.mkklcdnv6temp.com/mangakakalot/r1/read_kekkaishi/vol20_chapter_189_masamori_vs_ougi/15.jpg",
    "https://img-proxy.imgfo.com/?referer=https://manganelo.com&url=https://s6.mkklcdnv6temp.com/mangakakalot/r1/read_kekkaishi/vol20_chapter_189_masamori_vs_ougi/16.jpg",
    "https://img-proxy.imgfo.com/?referer=https://manganelo.com&url=https://s6.mkklcdnv6temp.com/mangakakalot/r1/read_kekkaishi/vol20_chapter_189_masamori_vs_ougi/17.jpg",
    "https://img-proxy.imgfo.com/?referer=https://manganelo.com&url=https://s6.mkklcdnv6temp.com/mangakakalot/r1/read_kekkaishi/vol20_chapter_189_masamori_vs_ougi/18.jpg",
    "https://img-proxy.imgfo.com/?referer=https://manganelo.com&url=https://s6.mkklcdnv6temp.com/mangakakalot/r1/read_kekkaishi/vol20_chapter_189_masamori_vs_ougi/19.jpg"
  ]
}