{
  "cover": "https://avt.mkklcdnv6.com/7/l/16-1583493729.jpg",
  "title": "Negima!? Neo",
  "original": "ネギま！？ｎｅｏ ; ネギま！？neo ; 魔法老師neo ; Magister Negi Magi Neo ; Negima Neo ; Negima!? ; Negima!? (FUJIMA Takuya)",
  "genre": "Action, Comedy, Ecchi, Fantasy, Harem, Romance, School life, Shoujo ai, Manga",
  "author": "Akamatsu Ken",
  "status": "Completed",
  "backlink": "https://manganu.com/collections/akamatsu-ken/negima-neo/",
  "description": "Features the same characters and locations as Mahou Sensei Negima!, however, this series has a different story than the original. The new storyline explains the addition of punctuation to the title.",
  "language": "English",
  "images": [
    "https://img-proxy.imgfo.com/?referer=https://manganelo.com&url=https://s7.mkklcdnv6temp.com/mangakakalot/n1/negima_neo/vol06_chapter_027_grand_bleu_friends/1.jpg",
    "https://img-proxy.imgfo.com/?referer=https://manganelo.com&url=https://s7.mkklcdnv6temp.com/mangakakalot/n1/negima_neo/vol06_chapter_027_grand_bleu_friends/2.jpg",
    "https://img-proxy.imgfo.com/?referer=https://manganelo.com&url=https://s7.mkklcdnv6temp.com/mangakakalot/n1/negima_neo/vol06_chapter_027_grand_bleu_friends/3.jpg",
    "https://img-proxy.imgfo.com/?referer=https://manganelo.com&url=https://s7.mkklcdnv6temp.com/mangakakalot/n1/negima_neo/vol06_chapter_027_grand_bleu_friends/4.jpg",
    "https://img-proxy.imgfo.com/?referer=https://manganelo.com&url=https://s7.mkklcdnv6temp.com/mangakakalot/n1/negima_neo/vol06_chapter_027_grand_bleu_friends/5.jpg",
    "https://img-proxy.imgfo.com/?referer=https://manganelo.com&url=https://s7.mkklcdnv6temp.com/mangakakalot/n1/negima_neo/vol06_chapter_027_grand_bleu_friends/6.jpg",
    "https://img-proxy.imgfo.com/?referer=https://manganelo.com&url=https://s7.mkklcdnv6temp.com/mangakakalot/n1/negima_neo/vol06_chapter_027_grand_bleu_friends/7.jpg",
    "https://img-proxy.imgfo.com/?referer=https://manganelo.com&url=https://s7.mkklcdnv6temp.com/mangakakalot/n1/negima_neo/vol06_chapter_027_grand_bleu_friends/8.jpg",
    "https://img-proxy.imgfo.com/?referer=https://manganelo.com&url=https://s7.mkklcdnv6temp.com/mangakakalot/n1/negima_neo/vol06_chapter_027_grand_bleu_friends/9.jpg",
    "https://img-proxy.imgfo.com/?referer=https://manganelo.com&url=https://s7.mkklcdnv6temp.com/mangakakalot/n1/negima_neo/vol06_chapter_027_grand_bleu_friends/10.jpg",
    "https://img-proxy.imgfo.com/?referer=https://manganelo.com&url=https://s7.mkklcdnv6temp.com/mangakakalot/n1/negima_neo/vol06_chapter_027_grand_bleu_friends/11.jpg",
    "https://img-proxy.imgfo.com/?referer=https://manganelo.com&url=https://s7.mkklcdnv6temp.com/mangakakalot/n1/negima_neo/vol06_chapter_027_grand_bleu_friends/12.jpg",
    "https://img-proxy.imgfo.com/?referer=https://manganelo.com&url=https://s7.mkklcdnv6temp.com/mangakakalot/n1/negima_neo/vol06_chapter_027_grand_bleu_friends/13.jpg",
    "https://img-proxy.imgfo.com/?referer=https://manganelo.com&url=https://s7.mkklcdnv6temp.com/mangakakalot/n1/negima_neo/vol06_chapter_027_grand_bleu_friends/14.jpg",
    "https://img-proxy.imgfo.com/?referer=https://manganelo.com&url=https://s7.mkklcdnv6temp.com/mangakakalot/n1/negima_neo/vol06_chapter_027_grand_bleu_friends/15.jpg",
    "https://img-proxy.imgfo.com/?referer=https://manganelo.com&url=https://s7.mkklcdnv6temp.com/mangakakalot/n1/negima_neo/vol06_chapter_027_grand_bleu_friends/16.jpg",
    "https://img-proxy.imgfo.com/?referer=https://manganelo.com&url=https://s7.mkklcdnv6temp.com/mangakakalot/n1/negima_neo/vol06_chapter_027_grand_bleu_friends/17.jpg",
    "https://img-proxy.imgfo.com/?referer=https://manganelo.com&url=https://s7.mkklcdnv6temp.com/mangakakalot/n1/negima_neo/vol06_chapter_027_grand_bleu_friends/18.jpg",
    "https://img-proxy.imgfo.com/?referer=https://manganelo.com&url=https://s7.mkklcdnv6temp.com/mangakakalot/n1/negima_neo/vol06_chapter_027_grand_bleu_friends/19.jpg",
    "https://img-proxy.imgfo.com/?referer=https://manganelo.com&url=https://s7.mkklcdnv6temp.com/mangakakalot/n1/negima_neo/vol06_chapter_027_grand_bleu_friends/20.jpg",
    "https://img-proxy.imgfo.com/?referer=https://manganelo.com&url=https://s7.mkklcdnv6temp.com/mangakakalot/n1/negima_neo/vol06_chapter_027_grand_bleu_friends/21.jpg",
    "https://img-proxy.imgfo.com/?referer=https://manganelo.com&url=https://s7.mkklcdnv6temp.com/mangakakalot/n1/negima_neo/vol06_chapter_027_grand_bleu_friends/22.jpg",
    "https://img-proxy.imgfo.com/?referer=https://manganelo.com&url=https://s7.mkklcdnv6temp.com/mangakakalot/n1/negima_neo/vol06_chapter_027_grand_bleu_friends/23.jpg",
    "https://img-proxy.imgfo.com/?referer=https://manganelo.com&url=https://s7.mkklcdnv6temp.com/mangakakalot/n1/negima_neo/vol06_chapter_027_grand_bleu_friends/24.jpg",
    "https://img-proxy.imgfo.com/?referer=https://manganelo.com&url=https://s7.mkklcdnv6temp.com/mangakakalot/n1/negima_neo/vol06_chapter_027_grand_bleu_friends/25.jpg",
    "https://img-proxy.imgfo.com/?referer=https://manganelo.com&url=https://s7.mkklcdnv6temp.com/mangakakalot/n1/negima_neo/vol06_chapter_027_grand_bleu_friends/26.jpg",
    "https://img-proxy.imgfo.com/?referer=https://manganelo.com&url=https://s7.mkklcdnv6temp.com/mangakakalot/n1/negima_neo/vol06_chapter_027_grand_bleu_friends/27.jpg",
    "https://img-proxy.imgfo.com/?referer=https://manganelo.com&url=https://s7.mkklcdnv6temp.com/mangakakalot/n1/negima_neo/vol06_chapter_027_grand_bleu_friends/28.jpg",
    "https://img-proxy.imgfo.com/?referer=https://manganelo.com&url=https://s7.mkklcdnv6temp.com/mangakakalot/n1/negima_neo/vol06_chapter_027_grand_bleu_friends/29.jpg",
    "https://img-proxy.imgfo.com/?referer=https://manganelo.com&url=https://s7.mkklcdnv6temp.com/mangakakalot/n1/negima_neo/vol06_chapter_027_grand_bleu_friends/30.jpg",
    "https://img-proxy.imgfo.com/?referer=https://manganelo.com&url=https://s7.mkklcdnv6temp.com/mangakakalot/n1/negima_neo/vol06_chapter_027_grand_bleu_friends/31.jpg",
    "https://img-proxy.imgfo.com/?referer=https://manganelo.com&url=https://s7.mkklcdnv6temp.com/mangakakalot/n1/negima_neo/vol06_chapter_027_grand_bleu_friends/32.jpg",
    "https://img-proxy.imgfo.com/?referer=https://manganelo.com&url=https://s7.mkklcdnv6temp.com/mangakakalot/n1/negima_neo/vol06_chapter_027_grand_bleu_friends/33.jpg",
    "https://img-proxy.imgfo.com/?referer=https://manganelo.com&url=https://s7.mkklcdnv6temp.com/mangakakalot/n1/negima_neo/vol06_chapter_027_grand_bleu_friends/34.jpg"
  ]
}