{
  "cover": "https://avt.mkklcdnv6.com/7/l/16-1583493729.jpg",
  "title": "Negima!? Neo",
  "original": "ネギま！？ｎｅｏ ; ネギま！？neo ; 魔法老師neo ; Magister Negi Magi Neo ; Negima Neo ; Negima!? ; Negima!? (FUJIMA Takuya)",
  "genre": "Action, Comedy, Ecchi, Fantasy, Harem, Romance, School life, Shoujo ai, Manga",
  "author": "Akamatsu Ken",
  "status": "Completed",
  "backlink": "https://manganu.com/collections/akamatsu-ken/negima-neo/",
  "description": "Features the same characters and locations as Mahou Sensei Negima!, however, this series has a different story than the original. The new storyline explains the addition of punctuation to the title.",
  "language": "English",
  "images": [
    "https://img-proxy.imgfo.com/?referer=https://manganelo.com&url=https://s7.mkklcdnv6temp.com/mangakakalot/n1/negima_neo/vol02_chapter_008_leave_it_to_the_library_expedition_club_if_youre_looking_for_a_book/1.jpg",
    "https://img-proxy.imgfo.com/?referer=https://manganelo.com&url=https://s7.mkklcdnv6temp.com/mangakakalot/n1/negima_neo/vol02_chapter_008_leave_it_to_the_library_expedition_club_if_youre_looking_for_a_book/2.jpg",
    "https://img-proxy.imgfo.com/?referer=https://manganelo.com&url=https://s7.mkklcdnv6temp.com/mangakakalot/n1/negima_neo/vol02_chapter_008_leave_it_to_the_library_expedition_club_if_youre_looking_for_a_book/3.jpg",
    "https://img-proxy.imgfo.com/?referer=https://manganelo.com&url=https://s7.mkklcdnv6temp.com/mangakakalot/n1/negima_neo/vol02_chapter_008_leave_it_to_the_library_expedition_club_if_youre_looking_for_a_book/4.jpg",
    "https://img-proxy.imgfo.com/?referer=https://manganelo.com&url=https://s7.mkklcdnv6temp.com/mangakakalot/n1/negima_neo/vol02_chapter_008_leave_it_to_the_library_expedition_club_if_youre_looking_for_a_book/5.jpg",
    "https://img-proxy.imgfo.com/?referer=https://manganelo.com&url=https://s7.mkklcdnv6temp.com/mangakakalot/n1/negima_neo/vol02_chapter_008_leave_it_to_the_library_expedition_club_if_youre_looking_for_a_book/6.jpg",
    "https://img-proxy.imgfo.com/?referer=https://manganelo.com&url=https://s7.mkklcdnv6temp.com/mangakakalot/n1/negima_neo/vol02_chapter_008_leave_it_to_the_library_expedition_club_if_youre_looking_for_a_book/7.jpg",
    "https://img-proxy.imgfo.com/?referer=https://manganelo.com&url=https://s7.mkklcdnv6temp.com/mangakakalot/n1/negima_neo/vol02_chapter_008_leave_it_to_the_library_expedition_club_if_youre_looking_for_a_book/8.jpg",
    "https://img-proxy.imgfo.com/?referer=https://manganelo.com&url=https://s7.mkklcdnv6temp.com/mangakakalot/n1/negima_neo/vol02_chapter_008_leave_it_to_the_library_expedition_club_if_youre_looking_for_a_book/9.jpg",
    "https://img-proxy.imgfo.com/?referer=https://manganelo.com&url=https://s7.mkklcdnv6temp.com/mangakakalot/n1/negima_neo/vol02_chapter_008_leave_it_to_the_library_expedition_club_if_youre_looking_for_a_book/10.jpg",
    "https://img-proxy.imgfo.com/?referer=https://manganelo.com&url=https://s7.mkklcdnv6temp.com/mangakakalot/n1/negima_neo/vol02_chapter_008_leave_it_to_the_library_expedition_club_if_youre_looking_for_a_book/11.jpg",
    "https://img-proxy.imgfo.com/?referer=https://manganelo.com&url=https://s7.mkklcdnv6temp.com/mangakakalot/n1/negima_neo/vol02_chapter_008_leave_it_to_the_library_expedition_club_if_youre_looking_for_a_book/12.jpg",
    "https://img-proxy.imgfo.com/?referer=https://manganelo.com&url=https://s7.mkklcdnv6temp.com/mangakakalot/n1/negima_neo/vol02_chapter_008_leave_it_to_the_library_expedition_club_if_youre_looking_for_a_book/13.jpg",
    "https://img-proxy.imgfo.com/?referer=https://manganelo.com&url=https://s7.mkklcdnv6temp.com/mangakakalot/n1/negima_neo/vol02_chapter_008_leave_it_to_the_library_expedition_club_if_youre_looking_for_a_book/14.jpg",
    "https://img-proxy.imgfo.com/?referer=https://manganelo.com&url=https://s7.mkklcdnv6temp.com/mangakakalot/n1/negima_neo/vol02_chapter_008_leave_it_to_the_library_expedition_club_if_youre_looking_for_a_book/15.jpg",
    "https://img-proxy.imgfo.com/?referer=https://manganelo.com&url=https://s7.mkklcdnv6temp.com/mangakakalot/n1/negima_neo/vol02_chapter_008_leave_it_to_the_library_expedition_club_if_youre_looking_for_a_book/16.jpg",
    "https://img-proxy.imgfo.com/?referer=https://manganelo.com&url=https://s7.mkklcdnv6temp.com/mangakakalot/n1/negima_neo/vol02_chapter_008_leave_it_to_the_library_expedition_club_if_youre_looking_for_a_book/17.jpg",
    "https://img-proxy.imgfo.com/?referer=https://manganelo.com&url=https://s7.mkklcdnv6temp.com/mangakakalot/n1/negima_neo/vol02_chapter_008_leave_it_to_the_library_expedition_club_if_youre_looking_for_a_book/18.jpg",
    "https://img-proxy.imgfo.com/?referer=https://manganelo.com&url=https://s7.mkklcdnv6temp.com/mangakakalot/n1/negima_neo/vol02_chapter_008_leave_it_to_the_library_expedition_club_if_youre_looking_for_a_book/19.jpg",
    "https://img-proxy.imgfo.com/?referer=https://manganelo.com&url=https://s7.mkklcdnv6temp.com/mangakakalot/n1/negima_neo/vol02_chapter_008_leave_it_to_the_library_expedition_club_if_youre_looking_for_a_book/20.jpg",
    "https://img-proxy.imgfo.com/?referer=https://manganelo.com&url=https://s7.mkklcdnv6temp.com/mangakakalot/n1/negima_neo/vol02_chapter_008_leave_it_to_the_library_expedition_club_if_youre_looking_for_a_book/21.jpg",
    "https://img-proxy.imgfo.com/?referer=https://manganelo.com&url=https://s7.mkklcdnv6temp.com/mangakakalot/n1/negima_neo/vol02_chapter_008_leave_it_to_the_library_expedition_club_if_youre_looking_for_a_book/22.jpg",
    "https://img-proxy.imgfo.com/?referer=https://manganelo.com&url=https://s7.mkklcdnv6temp.com/mangakakalot/n1/negima_neo/vol02_chapter_008_leave_it_to_the_library_expedition_club_if_youre_looking_for_a_book/23.jpg",
    "https://img-proxy.imgfo.com/?referer=https://manganelo.com&url=https://s7.mkklcdnv6temp.com/mangakakalot/n1/negima_neo/vol02_chapter_008_leave_it_to_the_library_expedition_club_if_youre_looking_for_a_book/24.jpg",
    "https://img-proxy.imgfo.com/?referer=https://manganelo.com&url=https://s7.mkklcdnv6temp.com/mangakakalot/n1/negima_neo/vol02_chapter_008_leave_it_to_the_library_expedition_club_if_youre_looking_for_a_book/25.jpg",
    "https://img-proxy.imgfo.com/?referer=https://manganelo.com&url=https://s7.mkklcdnv6temp.com/mangakakalot/n1/negima_neo/vol02_chapter_008_leave_it_to_the_library_expedition_club_if_youre_looking_for_a_book/26.jpg",
    "https://img-proxy.imgfo.com/?referer=https://manganelo.com&url=https://s7.mkklcdnv6temp.com/mangakakalot/n1/negima_neo/vol02_chapter_008_leave_it_to_the_library_expedition_club_if_youre_looking_for_a_book/27.jpg",
    "https://img-proxy.imgfo.com/?referer=https://manganelo.com&url=https://s7.mkklcdnv6temp.com/mangakakalot/n1/negima_neo/vol02_chapter_008_leave_it_to_the_library_expedition_club_if_youre_looking_for_a_book/28.jpg",
    "https://img-proxy.imgfo.com/?referer=https://manganelo.com&url=https://s7.mkklcdnv6temp.com/mangakakalot/n1/negima_neo/vol02_chapter_008_leave_it_to_the_library_expedition_club_if_youre_looking_for_a_book/29.jpg",
    "https://img-proxy.imgfo.com/?referer=https://manganelo.com&url=https://s7.mkklcdnv6temp.com/mangakakalot/n1/negima_neo/vol02_chapter_008_leave_it_to_the_library_expedition_club_if_youre_looking_for_a_book/30.jpg",
    "https://img-proxy.imgfo.com/?referer=https://manganelo.com&url=https://s7.mkklcdnv6temp.com/mangakakalot/n1/negima_neo/vol02_chapter_008_leave_it_to_the_library_expedition_club_if_youre_looking_for_a_book/31.jpg",
    "https://img-proxy.imgfo.com/?referer=https://manganelo.com&url=https://s7.mkklcdnv6temp.com/mangakakalot/n1/negima_neo/vol02_chapter_008_leave_it_to_the_library_expedition_club_if_youre_looking_for_a_book/32.jpg"
  ]
}