{
  "cover": "https://avt.mkklcdnv6.com/48/a/1-1583465596.jpg",
  "title": "Lotte No Omocha!",
  "original": "ロッテのおもちゃ! ; 洛蒂的玩具 ; 露蒂的玩具 ; Astarotte no Omocha! ; Astarotte's Toy ; Lotte's Toy ; Rotte no Omocha!",
  "genre": "Comedy, Ecchi, Fantasy, Harem, Seinen, Manga",
  "author": "Haga Yui",
  "status": "Completed",
  "backlink": "https://manganu.com/collections/haga-yui/lotte-no-omocha/",
  "description": "In the medieval fantasy world of Alfheimr, succubus princess Astarotte Ygvar--the first princess of the kingdom of Ygvar--has just reached the age of 10. In the coming years, it is necessary for succubi to obtain a male harem. To maintain their appearance, they must consume a substance only found on males called \"Sauzfryma\", better known as semen.\nThe princess, however, detests males and will only agree to create a harem if a human male joins.",
  "language": "English",
  "images": [
    "https://img-proxy.imgfo.com/?referer=https://manganelo.com&url=https://s41.mkklcdnv6temp.com/mangakakalot/l2/lotte_no_omocha/vol2_chapter_15_prodigious_swordsman/1.jpg",
    "https://img-proxy.imgfo.com/?referer=https://manganelo.com&url=https://s41.mkklcdnv6temp.com/mangakakalot/l2/lotte_no_omocha/vol2_chapter_15_prodigious_swordsman/2.jpg",
    "https://img-proxy.imgfo.com/?referer=https://manganelo.com&url=https://s41.mkklcdnv6temp.com/mangakakalot/l2/lotte_no_omocha/vol2_chapter_15_prodigious_swordsman/3.jpg",
    "https://img-proxy.imgfo.com/?referer=https://manganelo.com&url=https://s41.mkklcdnv6temp.com/mangakakalot/l2/lotte_no_omocha/vol2_chapter_15_prodigious_swordsman/4.jpg",
    "https://img-proxy.imgfo.com/?referer=https://manganelo.com&url=https://s41.mkklcdnv6temp.com/mangakakalot/l2/lotte_no_omocha/vol2_chapter_15_prodigious_swordsman/5.jpg",
    "https://img-proxy.imgfo.com/?referer=https://manganelo.com&url=https://s41.mkklcdnv6temp.com/mangakakalot/l2/lotte_no_omocha/vol2_chapter_15_prodigious_swordsman/6.jpg",
    "https://img-proxy.imgfo.com/?referer=https://manganelo.com&url=https://s41.mkklcdnv6temp.com/mangakakalot/l2/lotte_no_omocha/vol2_chapter_15_prodigious_swordsman/7.jpg",
    "https://img-proxy.imgfo.com/?referer=https://manganelo.com&url=https://s41.mkklcdnv6temp.com/mangakakalot/l2/lotte_no_omocha/vol2_chapter_15_prodigious_swordsman/8.jpg",
    "https://img-proxy.imgfo.com/?referer=https://manganelo.com&url=https://s41.mkklcdnv6temp.com/mangakakalot/l2/lotte_no_omocha/vol2_chapter_15_prodigious_swordsman/9.jpg",
    "https://img-proxy.imgfo.com/?referer=https://manganelo.com&url=https://s41.mkklcdnv6temp.com/mangakakalot/l2/lotte_no_omocha/vol2_chapter_15_prodigious_swordsman/10.jpg",
    "https://img-proxy.imgfo.com/?referer=https://manganelo.com&url=https://s41.mkklcdnv6temp.com/mangakakalot/l2/lotte_no_omocha/vol2_chapter_15_prodigious_swordsman/11.jpg",
    "https://img-proxy.imgfo.com/?referer=https://manganelo.com&url=https://s41.mkklcdnv6temp.com/mangakakalot/l2/lotte_no_omocha/vol2_chapter_15_prodigious_swordsman/12.jpg",
    "https://img-proxy.imgfo.com/?referer=https://manganelo.com&url=https://s41.mkklcdnv6temp.com/mangakakalot/l2/lotte_no_omocha/vol2_chapter_15_prodigious_swordsman/13.jpg",
    "https://img-proxy.imgfo.com/?referer=https://manganelo.com&url=https://s41.mkklcdnv6temp.com/mangakakalot/l2/lotte_no_omocha/vol2_chapter_15_prodigious_swordsman/14.jpg",
    "https://img-proxy.imgfo.com/?referer=https://manganelo.com&url=https://s41.mkklcdnv6temp.com/mangakakalot/l2/lotte_no_omocha/vol2_chapter_15_prodigious_swordsman/15.jpg",
    "https://img-proxy.imgfo.com/?referer=https://manganelo.com&url=https://s41.mkklcdnv6temp.com/mangakakalot/l2/lotte_no_omocha/vol2_chapter_15_prodigious_swordsman/16.jpg",
    "https://img-proxy.imgfo.com/?referer=https://manganelo.com&url=https://s41.mkklcdnv6temp.com/mangakakalot/l2/lotte_no_omocha/vol2_chapter_15_prodigious_swordsman/17.jpg",
    "https://img-proxy.imgfo.com/?referer=https://manganelo.com&url=https://s41.mkklcdnv6temp.com/mangakakalot/l2/lotte_no_omocha/vol2_chapter_15_prodigious_swordsman/18.jpg",
    "https://img-proxy.imgfo.com/?referer=https://manganelo.com&url=https://s41.mkklcdnv6temp.com/mangakakalot/l2/lotte_no_omocha/vol2_chapter_15_prodigious_swordsman/19.jpg",
    "https://img-proxy.imgfo.com/?referer=https://manganelo.com&url=https://s41.mkklcdnv6temp.com/mangakakalot/l2/lotte_no_omocha/vol2_chapter_15_prodigious_swordsman/20.jpg",
    "https://img-proxy.imgfo.com/?referer=https://manganelo.com&url=https://s41.mkklcdnv6temp.com/mangakakalot/l2/lotte_no_omocha/vol2_chapter_15_prodigious_swordsman/21.jpg",
    "https://img-proxy.imgfo.com/?referer=https://manganelo.com&url=https://s41.mkklcdnv6temp.com/mangakakalot/l2/lotte_no_omocha/vol2_chapter_15_prodigious_swordsman/22.jpg",
    "https://img-proxy.imgfo.com/?referer=https://manganelo.com&url=https://s41.mkklcdnv6temp.com/mangakakalot/l2/lotte_no_omocha/vol2_chapter_15_prodigious_swordsman/23.jpg",
    "https://img-proxy.imgfo.com/?referer=https://manganelo.com&url=https://s41.mkklcdnv6temp.com/mangakakalot/l2/lotte_no_omocha/vol2_chapter_15_prodigious_swordsman/24.jpg",
    "https://img-proxy.imgfo.com/?referer=https://manganelo.com&url=https://s41.mkklcdnv6temp.com/mangakakalot/l2/lotte_no_omocha/vol2_chapter_15_prodigious_swordsman/25.jpg",
    "https://img-proxy.imgfo.com/?referer=https://manganelo.com&url=https://s41.mkklcdnv6temp.com/mangakakalot/l2/lotte_no_omocha/vol2_chapter_15_prodigious_swordsman/26.jpg",
    "https://img-proxy.imgfo.com/?referer=https://manganelo.com&url=https://s41.mkklcdnv6temp.com/mangakakalot/l2/lotte_no_omocha/vol2_chapter_15_prodigious_swordsman/27.jpg",
    "https://img-proxy.imgfo.com/?referer=https://manganelo.com&url=https://s41.mkklcdnv6temp.com/mangakakalot/l2/lotte_no_omocha/vol2_chapter_15_prodigious_swordsman/28.jpg"
  ]
}