{
  "cover": "https://avt.mkklcdnv6.com/48/a/1-1583465596.jpg",
  "title": "Lotte No Omocha!",
  "original": "ロッテのおもちゃ! ; 洛蒂的玩具 ; 露蒂的玩具 ; Astarotte no Omocha! ; Astarotte's Toy ; Lotte's Toy ; Rotte no Omocha!",
  "genre": "Comedy, Ecchi, Fantasy, Harem, Seinen, Manga",
  "author": "Haga Yui",
  "status": "Completed",
  "backlink": "https://manganu.com/collections/haga-yui/lotte-no-omocha/",
  "description": "In the medieval fantasy world of Alfheimr, succubus princess Astarotte Ygvar--the first princess of the kingdom of Ygvar--has just reached the age of 10. In the coming years, it is necessary for succubi to obtain a male harem. To maintain their appearance, they must consume a substance only found on males called \"Sauzfryma\", better known as semen.\nThe princess, however, detests males and will only agree to create a harem if a human male joins.",
  "language": "English",
  "images": [
    "https://img-proxy.imgfo.com/?referer=https://manganelo.com&url=https://s41.mkklcdnv6temp.com/mangakakalot/l2/lotte_no_omocha/vol5_chapter_35_the_queen_and_the_princess/1.jpg",
    "https://img-proxy.imgfo.com/?referer=https://manganelo.com&url=https://s41.mkklcdnv6temp.com/mangakakalot/l2/lotte_no_omocha/vol5_chapter_35_the_queen_and_the_princess/2.jpg",
    "https://img-proxy.imgfo.com/?referer=https://manganelo.com&url=https://s41.mkklcdnv6temp.com/mangakakalot/l2/lotte_no_omocha/vol5_chapter_35_the_queen_and_the_princess/3.jpg",
    "https://img-proxy.imgfo.com/?referer=https://manganelo.com&url=https://s41.mkklcdnv6temp.com/mangakakalot/l2/lotte_no_omocha/vol5_chapter_35_the_queen_and_the_princess/4.jpg",
    "https://img-proxy.imgfo.com/?referer=https://manganelo.com&url=https://s41.mkklcdnv6temp.com/mangakakalot/l2/lotte_no_omocha/vol5_chapter_35_the_queen_and_the_princess/5.jpg",
    "https://img-proxy.imgfo.com/?referer=https://manganelo.com&url=https://s41.mkklcdnv6temp.com/mangakakalot/l2/lotte_no_omocha/vol5_chapter_35_the_queen_and_the_princess/6.jpg",
    "https://img-proxy.imgfo.com/?referer=https://manganelo.com&url=https://s41.mkklcdnv6temp.com/mangakakalot/l2/lotte_no_omocha/vol5_chapter_35_the_queen_and_the_princess/7.jpg",
    "https://img-proxy.imgfo.com/?referer=https://manganelo.com&url=https://s41.mkklcdnv6temp.com/mangakakalot/l2/lotte_no_omocha/vol5_chapter_35_the_queen_and_the_princess/8.jpg",
    "https://img-proxy.imgfo.com/?referer=https://manganelo.com&url=https://s41.mkklcdnv6temp.com/mangakakalot/l2/lotte_no_omocha/vol5_chapter_35_the_queen_and_the_princess/9.jpg",
    "https://img-proxy.imgfo.com/?referer=https://manganelo.com&url=https://s41.mkklcdnv6temp.com/mangakakalot/l2/lotte_no_omocha/vol5_chapter_35_the_queen_and_the_princess/10.jpg",
    "https://img-proxy.imgfo.com/?referer=https://manganelo.com&url=https://s41.mkklcdnv6temp.com/mangakakalot/l2/lotte_no_omocha/vol5_chapter_35_the_queen_and_the_princess/11.jpg",
    "https://img-proxy.imgfo.com/?referer=https://manganelo.com&url=https://s41.mkklcdnv6temp.com/mangakakalot/l2/lotte_no_omocha/vol5_chapter_35_the_queen_and_the_princess/12.jpg",
    "https://img-proxy.imgfo.com/?referer=https://manganelo.com&url=https://s41.mkklcdnv6temp.com/mangakakalot/l2/lotte_no_omocha/vol5_chapter_35_the_queen_and_the_princess/13.jpg",
    "https://img-proxy.imgfo.com/?referer=https://manganelo.com&url=https://s41.mkklcdnv6temp.com/mangakakalot/l2/lotte_no_omocha/vol5_chapter_35_the_queen_and_the_princess/14.jpg",
    "https://img-proxy.imgfo.com/?referer=https://manganelo.com&url=https://s41.mkklcdnv6temp.com/mangakakalot/l2/lotte_no_omocha/vol5_chapter_35_the_queen_and_the_princess/15.jpg",
    "https://img-proxy.imgfo.com/?referer=https://manganelo.com&url=https://s41.mkklcdnv6temp.com/mangakakalot/l2/lotte_no_omocha/vol5_chapter_35_the_queen_and_the_princess/16.jpg",
    "https://img-proxy.imgfo.com/?referer=https://manganelo.com&url=https://s41.mkklcdnv6temp.com/mangakakalot/l2/lotte_no_omocha/vol5_chapter_35_the_queen_and_the_princess/17.jpg",
    "https://img-proxy.imgfo.com/?referer=https://manganelo.com&url=https://s41.mkklcdnv6temp.com/mangakakalot/l2/lotte_no_omocha/vol5_chapter_35_the_queen_and_the_princess/18.jpg",
    "https://img-proxy.imgfo.com/?referer=https://manganelo.com&url=https://s41.mkklcdnv6temp.com/mangakakalot/l2/lotte_no_omocha/vol5_chapter_35_the_queen_and_the_princess/19.jpg",
    "https://img-proxy.imgfo.com/?referer=https://manganelo.com&url=https://s41.mkklcdnv6temp.com/mangakakalot/l2/lotte_no_omocha/vol5_chapter_35_the_queen_and_the_princess/20.jpg",
    "https://img-proxy.imgfo.com/?referer=https://manganelo.com&url=https://s41.mkklcdnv6temp.com/mangakakalot/l2/lotte_no_omocha/vol5_chapter_35_the_queen_and_the_princess/21.jpg",
    "https://img-proxy.imgfo.com/?referer=https://manganelo.com&url=https://s41.mkklcdnv6temp.com/mangakakalot/l2/lotte_no_omocha/vol5_chapter_35_the_queen_and_the_princess/22.jpg",
    "https://img-proxy.imgfo.com/?referer=https://manganelo.com&url=https://s41.mkklcdnv6temp.com/mangakakalot/l2/lotte_no_omocha/vol5_chapter_35_the_queen_and_the_princess/23.jpg",
    "https://img-proxy.imgfo.com/?referer=https://manganelo.com&url=https://s41.mkklcdnv6temp.com/mangakakalot/l2/lotte_no_omocha/vol5_chapter_35_the_queen_and_the_princess/24.jpg",
    "https://img-proxy.imgfo.com/?referer=https://manganelo.com&url=https://s41.mkklcdnv6temp.com/mangakakalot/l2/lotte_no_omocha/vol5_chapter_35_the_queen_and_the_princess/25.jpg"
  ]
}