{
  "cover": "https://avt.mkklcdnv6.com/20/u/9-1583480907.jpg",
  "title": "Ometura",
  "original": "オモテウラ ; Inside-Out",
  "genre": "Oneshot, Seinen, Slice of life, Manga",
  "author": "Ono Natsume",
  "status": "Completed",
  "backlink": "https://manganu.com/collections/ono-natsume/ometura/",
  "description": "Aki-san&#39;s wife has gone to visit their daughter in Milan, Italy. Not knowing that how things will turn out, he finds a sure sign.",
  "language": "English",
  "images": [
    "https://img-proxy.imgfo.com/?referer=https://manganelo.com&url=https://s6.mkklcdnv6temp.com/mangakakalot/o1/ometura/christmas_morning/1.jpg",
    "https://img-proxy.imgfo.com/?referer=https://manganelo.com&url=https://s6.mkklcdnv6temp.com/mangakakalot/o1/ometura/christmas_morning/2.jpg",
    "https://img-proxy.imgfo.com/?referer=https://manganelo.com&url=https://s6.mkklcdnv6temp.com/mangakakalot/o1/ometura/christmas_morning/3.jpg",
    "https://img-proxy.imgfo.com/?referer=https://manganelo.com&url=https://s6.mkklcdnv6temp.com/mangakakalot/o1/ometura/christmas_morning/4.jpg",
    "https://img-proxy.imgfo.com/?referer=https://manganelo.com&url=https://s6.mkklcdnv6temp.com/mangakakalot/o1/ometura/christmas_morning/5.jpg",
    "https://img-proxy.imgfo.com/?referer=https://manganelo.com&url=https://s6.mkklcdnv6temp.com/mangakakalot/o1/ometura/christmas_morning/6.jpg",
    "https://img-proxy.imgfo.com/?referer=https://manganelo.com&url=https://s6.mkklcdnv6temp.com/mangakakalot/o1/ometura/christmas_morning/7.jpg",
    "https://img-proxy.imgfo.com/?referer=https://manganelo.com&url=https://s6.mkklcdnv6temp.com/mangakakalot/o1/ometura/christmas_morning/8.jpg"
  ]
}