{
  "cover": "https://avt.mkklcdnv6.com/4/b/11-1583484139.jpg",
  "title": "Honeymoon Salad",
  "original": "ハネムーンサラダ ; 蜜月沙拉 ; 허니문 샐러드 ; létəs óunli",
  "genre": "Adult, Drama, Romance, Seinen, Slice of life, Manga",
  "author": "Ninomiya Hikaru",
  "status": "Completed",
  "backlink": "https://manganu.com/collections/ninomiya-hikaru/honeymoon-salad/",
  "description": "His ex-workers keep calling for help; his memory of his first love is traumatic to say the least, he hates his father so much that he'll never go back home, a stranger blames him for pushing her down the stairs, no wonder being pissed is a daily routine for Natsukawa Minori. Then enters one, no two women in his life that will make him too busy to be pissed.",
  "language": "English",
  "images": [
    "https://img-proxy.imgfo.com/?referer=https://manganelo.com&url=https://s7.mkklcdnv6temp.com/mangakakalot/h2/honeymoon_salad/vol3_chapter_17/1.jpg",
    "https://img-proxy.imgfo.com/?referer=https://manganelo.com&url=https://s7.mkklcdnv6temp.com/mangakakalot/h2/honeymoon_salad/vol3_chapter_17/2.jpg",
    "https://img-proxy.imgfo.com/?referer=https://manganelo.com&url=https://s7.mkklcdnv6temp.com/mangakakalot/h2/honeymoon_salad/vol3_chapter_17/3.jpg",
    "https://img-proxy.imgfo.com/?referer=https://manganelo.com&url=https://s7.mkklcdnv6temp.com/mangakakalot/h2/honeymoon_salad/vol3_chapter_17/4.jpg",
    "https://img-proxy.imgfo.com/?referer=https://manganelo.com&url=https://s7.mkklcdnv6temp.com/mangakakalot/h2/honeymoon_salad/vol3_chapter_17/5.jpg",
    "https://img-proxy.imgfo.com/?referer=https://manganelo.com&url=https://s7.mkklcdnv6temp.com/mangakakalot/h2/honeymoon_salad/vol3_chapter_17/6.jpg",
    "https://img-proxy.imgfo.com/?referer=https://manganelo.com&url=https://s7.mkklcdnv6temp.com/mangakakalot/h2/honeymoon_salad/vol3_chapter_17/7.jpg",
    "https://img-proxy.imgfo.com/?referer=https://manganelo.com&url=https://s7.mkklcdnv6temp.com/mangakakalot/h2/honeymoon_salad/vol3_chapter_17/8.jpg",
    "https://img-proxy.imgfo.com/?referer=https://manganelo.com&url=https://s7.mkklcdnv6temp.com/mangakakalot/h2/honeymoon_salad/vol3_chapter_17/9.jpg",
    "https://img-proxy.imgfo.com/?referer=https://manganelo.com&url=https://s7.mkklcdnv6temp.com/mangakakalot/h2/honeymoon_salad/vol3_chapter_17/10.jpg",
    "https://img-proxy.imgfo.com/?referer=https://manganelo.com&url=https://s7.mkklcdnv6temp.com/mangakakalot/h2/honeymoon_salad/vol3_chapter_17/11.jpg",
    "https://img-proxy.imgfo.com/?referer=https://manganelo.com&url=https://s7.mkklcdnv6temp.com/mangakakalot/h2/honeymoon_salad/vol3_chapter_17/12.jpg",
    "https://img-proxy.imgfo.com/?referer=https://manganelo.com&url=https://s7.mkklcdnv6temp.com/mangakakalot/h2/honeymoon_salad/vol3_chapter_17/13.jpg",
    "https://img-proxy.imgfo.com/?referer=https://manganelo.com&url=https://s7.mkklcdnv6temp.com/mangakakalot/h2/honeymoon_salad/vol3_chapter_17/14.jpg",
    "https://img-proxy.imgfo.com/?referer=https://manganelo.com&url=https://s7.mkklcdnv6temp.com/mangakakalot/h2/honeymoon_salad/vol3_chapter_17/15.jpg",
    "https://img-proxy.imgfo.com/?referer=https://manganelo.com&url=https://s7.mkklcdnv6temp.com/mangakakalot/h2/honeymoon_salad/vol3_chapter_17/16.jpg",
    "https://img-proxy.imgfo.com/?referer=https://manganelo.com&url=https://s7.mkklcdnv6temp.com/mangakakalot/h2/honeymoon_salad/vol3_chapter_17/17.jpg",
    "https://img-proxy.imgfo.com/?referer=https://manganelo.com&url=https://s7.mkklcdnv6temp.com/mangakakalot/h2/honeymoon_salad/vol3_chapter_17/18.jpg",
    "https://img-proxy.imgfo.com/?referer=https://manganelo.com&url=https://s7.mkklcdnv6temp.com/mangakakalot/h2/honeymoon_salad/vol3_chapter_17/19.jpg",
    "https://img-proxy.imgfo.com/?referer=https://manganelo.com&url=https://s7.mkklcdnv6temp.com/mangakakalot/h2/honeymoon_salad/vol3_chapter_17/20.jpg",
    "https://img-proxy.imgfo.com/?referer=https://manganelo.com&url=https://s7.mkklcdnv6temp.com/mangakakalot/h2/honeymoon_salad/vol3_chapter_17/21.jpg",
    "https://img-proxy.imgfo.com/?referer=https://manganelo.com&url=https://s7.mkklcdnv6temp.com/mangakakalot/h2/honeymoon_salad/vol3_chapter_17/22.jpg",
    "https://img-proxy.imgfo.com/?referer=https://manganelo.com&url=https://s7.mkklcdnv6temp.com/mangakakalot/h2/honeymoon_salad/vol3_chapter_17/23.jpg",
    "https://img-proxy.imgfo.com/?referer=https://manganelo.com&url=https://s7.mkklcdnv6temp.com/mangakakalot/h2/honeymoon_salad/vol3_chapter_17/24.jpg",
    "https://img-proxy.imgfo.com/?referer=https://manganelo.com&url=https://s7.mkklcdnv6temp.com/mangakakalot/h2/honeymoon_salad/vol3_chapter_17/25.jpg",
    "https://img-proxy.imgfo.com/?referer=https://manganelo.com&url=https://s7.mkklcdnv6temp.com/mangakakalot/h2/honeymoon_salad/vol3_chapter_17/26.jpg",
    "https://img-proxy.imgfo.com/?referer=https://manganelo.com&url=https://s7.mkklcdnv6temp.com/mangakakalot/h2/honeymoon_salad/vol3_chapter_17/27.jpg",
    "https://img-proxy.imgfo.com/?referer=https://manganelo.com&url=https://s7.mkklcdnv6temp.com/mangakakalot/h2/honeymoon_salad/vol3_chapter_17/28.jpg",
    "https://img-proxy.imgfo.com/?referer=https://manganelo.com&url=https://s7.mkklcdnv6temp.com/mangakakalot/h2/honeymoon_salad/vol3_chapter_17/29.jpg",
    "https://img-proxy.imgfo.com/?referer=https://manganelo.com&url=https://s7.mkklcdnv6temp.com/mangakakalot/h2/honeymoon_salad/vol3_chapter_17/30.jpg",
    "https://img-proxy.imgfo.com/?referer=https://manganelo.com&url=https://s7.mkklcdnv6temp.com/mangakakalot/h2/honeymoon_salad/vol3_chapter_17/31.jpg",
    "https://img-proxy.imgfo.com/?referer=https://manganelo.com&url=https://s7.mkklcdnv6temp.com/mangakakalot/h2/honeymoon_salad/vol3_chapter_17/32.jpg",
    "https://img-proxy.imgfo.com/?referer=https://manganelo.com&url=https://s7.mkklcdnv6temp.com/mangakakalot/h2/honeymoon_salad/vol3_chapter_17/33.jpg",
    "https://img-proxy.imgfo.com/?referer=https://manganelo.com&url=https://s7.mkklcdnv6temp.com/mangakakalot/h2/honeymoon_salad/vol3_chapter_17/34.jpg",
    "https://img-proxy.imgfo.com/?referer=https://manganelo.com&url=https://s7.mkklcdnv6temp.com/mangakakalot/h2/honeymoon_salad/vol3_chapter_17/35.jpg",
    "https://img-proxy.imgfo.com/?referer=https://manganelo.com&url=https://s7.mkklcdnv6temp.com/mangakakalot/h2/honeymoon_salad/vol3_chapter_17/36.jpg"
  ]
}