{
  "cover": "https://avt.mkklcdnv6.com/41/d/6-1583475857.jpg",
  "title": "Bloody Monday",
  "original": "ブラッディ・マンデイ ; 血色星期一 ; Bloody Monday Ver. 0 ; Bloody Monday Ver.0 ; 블러디 먼데이(korean) ; Lunes sangriento (spanish) ; Madugong Lunes (Tagalog) ; รหัสมรณะ (Thai)",
  "genre": "Action, Drama, Mature, Psychological, School life, Sci fi, Shounen, Manga",
  "author": "Ryuumon Ryou",
  "status": "Completed",
  "backlink": "https://manganu.com/collections/ryuumon-ryou/bloody-monday/",
  "description": "From Gievmoar:\nA virus deal clinched in Russia on the Christmas eve. Purpose: unknown. Two clues: a mysterious lady \"Maya\", one of the reasons it happened, and \"Bloody Monday\", the keyword for the project.\nThen an incident happened in far-distant city of Tokyo. Fujimaru Takagi, a second year student at Mishiro Gakuin high school, is commissioned to find out the truth by the Public Security Intelligence Agency, for his great ability as a super hacker. Now, Maya approaching to Fujimaru as his high school teacher...",
  "language": "English",
  "images": [
    "https://img-proxy.imgfo.com/?referer=https://manganelo.com&url=https://s3.mkklcdnv6temp.com/mangakakalot/b1/bloody_monday/vol7_chapter_51_the_hardfought_for_destination/1.jpg",
    "https://img-proxy.imgfo.com/?referer=https://manganelo.com&url=https://s3.mkklcdnv6temp.com/mangakakalot/b1/bloody_monday/vol7_chapter_51_the_hardfought_for_destination/2.jpg",
    "https://img-proxy.imgfo.com/?referer=https://manganelo.com&url=https://s3.mkklcdnv6temp.com/mangakakalot/b1/bloody_monday/vol7_chapter_51_the_hardfought_for_destination/3.jpg",
    "https://img-proxy.imgfo.com/?referer=https://manganelo.com&url=https://s3.mkklcdnv6temp.com/mangakakalot/b1/bloody_monday/vol7_chapter_51_the_hardfought_for_destination/4.jpg",
    "https://img-proxy.imgfo.com/?referer=https://manganelo.com&url=https://s3.mkklcdnv6temp.com/mangakakalot/b1/bloody_monday/vol7_chapter_51_the_hardfought_for_destination/5.jpg",
    "https://img-proxy.imgfo.com/?referer=https://manganelo.com&url=https://s3.mkklcdnv6temp.com/mangakakalot/b1/bloody_monday/vol7_chapter_51_the_hardfought_for_destination/6.jpg",
    "https://img-proxy.imgfo.com/?referer=https://manganelo.com&url=https://s3.mkklcdnv6temp.com/mangakakalot/b1/bloody_monday/vol7_chapter_51_the_hardfought_for_destination/7.jpg",
    "https://img-proxy.imgfo.com/?referer=https://manganelo.com&url=https://s3.mkklcdnv6temp.com/mangakakalot/b1/bloody_monday/vol7_chapter_51_the_hardfought_for_destination/8.jpg",
    "https://img-proxy.imgfo.com/?referer=https://manganelo.com&url=https://s3.mkklcdnv6temp.com/mangakakalot/b1/bloody_monday/vol7_chapter_51_the_hardfought_for_destination/9.jpg",
    "https://img-proxy.imgfo.com/?referer=https://manganelo.com&url=https://s3.mkklcdnv6temp.com/mangakakalot/b1/bloody_monday/vol7_chapter_51_the_hardfought_for_destination/10.jpg",
    "https://img-proxy.imgfo.com/?referer=https://manganelo.com&url=https://s3.mkklcdnv6temp.com/mangakakalot/b1/bloody_monday/vol7_chapter_51_the_hardfought_for_destination/11.jpg",
    "https://img-proxy.imgfo.com/?referer=https://manganelo.com&url=https://s3.mkklcdnv6temp.com/mangakakalot/b1/bloody_monday/vol7_chapter_51_the_hardfought_for_destination/12.jpg",
    "https://img-proxy.imgfo.com/?referer=https://manganelo.com&url=https://s3.mkklcdnv6temp.com/mangakakalot/b1/bloody_monday/vol7_chapter_51_the_hardfought_for_destination/13.jpg",
    "https://img-proxy.imgfo.com/?referer=https://manganelo.com&url=https://s3.mkklcdnv6temp.com/mangakakalot/b1/bloody_monday/vol7_chapter_51_the_hardfought_for_destination/14.jpg",
    "https://img-proxy.imgfo.com/?referer=https://manganelo.com&url=https://s3.mkklcdnv6temp.com/mangakakalot/b1/bloody_monday/vol7_chapter_51_the_hardfought_for_destination/15.jpg",
    "https://img-proxy.imgfo.com/?referer=https://manganelo.com&url=https://s3.mkklcdnv6temp.com/mangakakalot/b1/bloody_monday/vol7_chapter_51_the_hardfought_for_destination/16.jpg",
    "https://img-proxy.imgfo.com/?referer=https://manganelo.com&url=https://s3.mkklcdnv6temp.com/mangakakalot/b1/bloody_monday/vol7_chapter_51_the_hardfought_for_destination/17.jpg",
    "https://img-proxy.imgfo.com/?referer=https://manganelo.com&url=https://s3.mkklcdnv6temp.com/mangakakalot/b1/bloody_monday/vol7_chapter_51_the_hardfought_for_destination/18.jpg",
    "https://img-proxy.imgfo.com/?referer=https://manganelo.com&url=https://s3.mkklcdnv6temp.com/mangakakalot/b1/bloody_monday/vol7_chapter_51_the_hardfought_for_destination/19.jpg",
    "https://img-proxy.imgfo.com/?referer=https://manganelo.com&url=https://s3.mkklcdnv6temp.com/mangakakalot/b1/bloody_monday/vol7_chapter_51_the_hardfought_for_destination/20.jpg",
    "https://img-proxy.imgfo.com/?referer=https://manganelo.com&url=https://s3.mkklcdnv6temp.com/mangakakalot/b1/bloody_monday/vol7_chapter_51_the_hardfought_for_destination/21.jpg"
  ]
}