{
  "cover": "https://avt.mkklcdnv6.com/16/b/11-1583484596.jpg",
  "title": "9Th Wonder",
  "genre": "Ecchi, Manga",
  "author": "Retro",
  "status": "Completed",
  "backlink": "https://manganu.com/collections/retro/9th-wonder/",
  "description": "9th Wonder by RETRO, sold at C75(Comiket 75).",
  "language": "English",
  "images": [
    "https://img-proxy.imgfo.com/?referer=https://manganelo.com&url=https://s41.mkklcdnv6temp.com/mangakakalot/02/9th_wonder/vol1_chapter_0/1.jpg",
    "https://img-proxy.imgfo.com/?referer=https://manganelo.com&url=https://s41.mkklcdnv6temp.com/mangakakalot/02/9th_wonder/vol1_chapter_0/2.jpg",
    "https://img-proxy.imgfo.com/?referer=https://manganelo.com&url=https://s41.mkklcdnv6temp.com/mangakakalot/02/9th_wonder/vol1_chapter_0/3.jpg",
    "https://img-proxy.imgfo.com/?referer=https://manganelo.com&url=https://s41.mkklcdnv6temp.com/mangakakalot/02/9th_wonder/vol1_chapter_0/4.jpg",
    "https://img-proxy.imgfo.com/?referer=https://manganelo.com&url=https://s41.mkklcdnv6temp.com/mangakakalot/02/9th_wonder/vol1_chapter_0/5.jpg",
    "https://img-proxy.imgfo.com/?referer=https://manganelo.com&url=https://s41.mkklcdnv6temp.com/mangakakalot/02/9th_wonder/vol1_chapter_0/6.jpg",
    "https://img-proxy.imgfo.com/?referer=https://manganelo.com&url=https://s41.mkklcdnv6temp.com/mangakakalot/02/9th_wonder/vol1_chapter_0/7.jpg",
    "https://img-proxy.imgfo.com/?referer=https://manganelo.com&url=https://s41.mkklcdnv6temp.com/mangakakalot/02/9th_wonder/vol1_chapter_0/8.jpg",
    "https://img-proxy.imgfo.com/?referer=https://manganelo.com&url=https://s41.mkklcdnv6temp.com/mangakakalot/02/9th_wonder/vol1_chapter_0/9.jpg"
  ]
}