{
  "cover": "https://avt.mkklcdnv6.com/45/e/3-1583469452.jpg",
  "title": "Dounimo Nannai Soushi Souai",
  "original": "どうにもなんない相思相愛 ; 就是要和你相思相愛 ; Dou ni mo Nannai Soushi Souai ; Dou nimo Nannai Soushi Souai",
  "genre": "Comedy, Drama, School life, Yaoi, Manga",
  "author": "Yamada Papiko",
  "status": "Completed",
  "backlink": "https://manganu.com/collections/yamada-papiko/dounimo-nannai-soushi-souai/",
  "description": "Genji and Kousaka meets six years later in high school. But is it only Genji who remembers what happened in the past between them? Furthermore, will they move forward into their relationship or will fall apart?",
  "language": "English",
  "images": [
    "https://img-proxy.imgfo.com/?referer=https://manganelo.com&url=https://s7.mkklcdnv6temp.com/mangakakalot/d2/dounimo_nannai_soushi_souai/vol1_chapter_4/1.jpg",
    "https://img-proxy.imgfo.com/?referer=https://manganelo.com&url=https://s7.mkklcdnv6temp.com/mangakakalot/d2/dounimo_nannai_soushi_souai/vol1_chapter_4/2.jpg",
    "https://img-proxy.imgfo.com/?referer=https://manganelo.com&url=https://s7.mkklcdnv6temp.com/mangakakalot/d2/dounimo_nannai_soushi_souai/vol1_chapter_4/3.jpg",
    "https://img-proxy.imgfo.com/?referer=https://manganelo.com&url=https://s7.mkklcdnv6temp.com/mangakakalot/d2/dounimo_nannai_soushi_souai/vol1_chapter_4/4.jpg",
    "https://img-proxy.imgfo.com/?referer=https://manganelo.com&url=https://s7.mkklcdnv6temp.com/mangakakalot/d2/dounimo_nannai_soushi_souai/vol1_chapter_4/5.jpg",
    "https://img-proxy.imgfo.com/?referer=https://manganelo.com&url=https://s7.mkklcdnv6temp.com/mangakakalot/d2/dounimo_nannai_soushi_souai/vol1_chapter_4/6.jpg",
    "https://img-proxy.imgfo.com/?referer=https://manganelo.com&url=https://s7.mkklcdnv6temp.com/mangakakalot/d2/dounimo_nannai_soushi_souai/vol1_chapter_4/7.jpg",
    "https://img-proxy.imgfo.com/?referer=https://manganelo.com&url=https://s7.mkklcdnv6temp.com/mangakakalot/d2/dounimo_nannai_soushi_souai/vol1_chapter_4/8.jpg",
    "https://img-proxy.imgfo.com/?referer=https://manganelo.com&url=https://s7.mkklcdnv6temp.com/mangakakalot/d2/dounimo_nannai_soushi_souai/vol1_chapter_4/9.jpg",
    "https://img-proxy.imgfo.com/?referer=https://manganelo.com&url=https://s7.mkklcdnv6temp.com/mangakakalot/d2/dounimo_nannai_soushi_souai/vol1_chapter_4/10.jpg",
    "https://img-proxy.imgfo.com/?referer=https://manganelo.com&url=https://s7.mkklcdnv6temp.com/mangakakalot/d2/dounimo_nannai_soushi_souai/vol1_chapter_4/11.jpg",
    "https://img-proxy.imgfo.com/?referer=https://manganelo.com&url=https://s7.mkklcdnv6temp.com/mangakakalot/d2/dounimo_nannai_soushi_souai/vol1_chapter_4/12.jpg",
    "https://img-proxy.imgfo.com/?referer=https://manganelo.com&url=https://s7.mkklcdnv6temp.com/mangakakalot/d2/dounimo_nannai_soushi_souai/vol1_chapter_4/13.jpg",
    "https://img-proxy.imgfo.com/?referer=https://manganelo.com&url=https://s7.mkklcdnv6temp.com/mangakakalot/d2/dounimo_nannai_soushi_souai/vol1_chapter_4/14.jpg",
    "https://img-proxy.imgfo.com/?referer=https://manganelo.com&url=https://s7.mkklcdnv6temp.com/mangakakalot/d2/dounimo_nannai_soushi_souai/vol1_chapter_4/15.jpg",
    "https://img-proxy.imgfo.com/?referer=https://manganelo.com&url=https://s7.mkklcdnv6temp.com/mangakakalot/d2/dounimo_nannai_soushi_souai/vol1_chapter_4/16.jpg",
    "https://img-proxy.imgfo.com/?referer=https://manganelo.com&url=https://s7.mkklcdnv6temp.com/mangakakalot/d2/dounimo_nannai_soushi_souai/vol1_chapter_4/17.jpg",
    "https://img-proxy.imgfo.com/?referer=https://manganelo.com&url=https://s7.mkklcdnv6temp.com/mangakakalot/d2/dounimo_nannai_soushi_souai/vol1_chapter_4/18.jpg",
    "https://img-proxy.imgfo.com/?referer=https://manganelo.com&url=https://s7.mkklcdnv6temp.com/mangakakalot/d2/dounimo_nannai_soushi_souai/vol1_chapter_4/19.jpg",
    "https://img-proxy.imgfo.com/?referer=https://manganelo.com&url=https://s7.mkklcdnv6temp.com/mangakakalot/d2/dounimo_nannai_soushi_souai/vol1_chapter_4/20.jpg",
    "https://img-proxy.imgfo.com/?referer=https://manganelo.com&url=https://s7.mkklcdnv6temp.com/mangakakalot/d2/dounimo_nannai_soushi_souai/vol1_chapter_4/21.jpg",
    "https://img-proxy.imgfo.com/?referer=https://manganelo.com&url=https://s7.mkklcdnv6temp.com/mangakakalot/d2/dounimo_nannai_soushi_souai/vol1_chapter_4/22.jpg",
    "https://img-proxy.imgfo.com/?referer=https://manganelo.com&url=https://s7.mkklcdnv6temp.com/mangakakalot/d2/dounimo_nannai_soushi_souai/vol1_chapter_4/23.jpg",
    "https://img-proxy.imgfo.com/?referer=https://manganelo.com&url=https://s7.mkklcdnv6temp.com/mangakakalot/d2/dounimo_nannai_soushi_souai/vol1_chapter_4/24.jpg",
    "https://img-proxy.imgfo.com/?referer=https://manganelo.com&url=https://s7.mkklcdnv6temp.com/mangakakalot/d2/dounimo_nannai_soushi_souai/vol1_chapter_4/25.jpg",
    "https://img-proxy.imgfo.com/?referer=https://manganelo.com&url=https://s7.mkklcdnv6temp.com/mangakakalot/d2/dounimo_nannai_soushi_souai/vol1_chapter_4/26.jpg",
    "https://img-proxy.imgfo.com/?referer=https://manganelo.com&url=https://s7.mkklcdnv6temp.com/mangakakalot/d2/dounimo_nannai_soushi_souai/vol1_chapter_4/27.jpg",
    "https://img-proxy.imgfo.com/?referer=https://manganelo.com&url=https://s7.mkklcdnv6temp.com/mangakakalot/d2/dounimo_nannai_soushi_souai/vol1_chapter_4/28.jpg",
    "https://img-proxy.imgfo.com/?referer=https://manganelo.com&url=https://s7.mkklcdnv6temp.com/mangakakalot/d2/dounimo_nannai_soushi_souai/vol1_chapter_4/29.jpg",
    "https://img-proxy.imgfo.com/?referer=https://manganelo.com&url=https://s7.mkklcdnv6temp.com/mangakakalot/d2/dounimo_nannai_soushi_souai/vol1_chapter_4/30.jpg",
    "https://img-proxy.imgfo.com/?referer=https://manganelo.com&url=https://s7.mkklcdnv6temp.com/mangakakalot/d2/dounimo_nannai_soushi_souai/vol1_chapter_4/31.jpg",
    "https://img-proxy.imgfo.com/?referer=https://manganelo.com&url=https://s7.mkklcdnv6temp.com/mangakakalot/d2/dounimo_nannai_soushi_souai/vol1_chapter_4/32.jpg",
    "https://img-proxy.imgfo.com/?referer=https://manganelo.com&url=https://s7.mkklcdnv6temp.com/mangakakalot/d2/dounimo_nannai_soushi_souai/vol1_chapter_4/33.jpg",
    "https://img-proxy.imgfo.com/?referer=https://manganelo.com&url=https://s7.mkklcdnv6temp.com/mangakakalot/d2/dounimo_nannai_soushi_souai/vol1_chapter_4/34.jpg",
    "https://img-proxy.imgfo.com/?referer=https://manganelo.com&url=https://s7.mkklcdnv6temp.com/mangakakalot/d2/dounimo_nannai_soushi_souai/vol1_chapter_4/35.jpg",
    "https://img-proxy.imgfo.com/?referer=https://manganelo.com&url=https://s7.mkklcdnv6temp.com/mangakakalot/d2/dounimo_nannai_soushi_souai/vol1_chapter_4/36.jpg",
    "https://img-proxy.imgfo.com/?referer=https://manganelo.com&url=https://s7.mkklcdnv6temp.com/mangakakalot/d2/dounimo_nannai_soushi_souai/vol1_chapter_4/37.jpg",
    "https://img-proxy.imgfo.com/?referer=https://manganelo.com&url=https://s7.mkklcdnv6temp.com/mangakakalot/d2/dounimo_nannai_soushi_souai/vol1_chapter_4/38.jpg",
    "https://img-proxy.imgfo.com/?referer=https://manganelo.com&url=https://s7.mkklcdnv6temp.com/mangakakalot/d2/dounimo_nannai_soushi_souai/vol1_chapter_4/39.jpg",
    "https://img-proxy.imgfo.com/?referer=https://manganelo.com&url=https://s7.mkklcdnv6temp.com/mangakakalot/d2/dounimo_nannai_soushi_souai/vol1_chapter_4/40.jpg",
    "https://img-proxy.imgfo.com/?referer=https://manganelo.com&url=https://s7.mkklcdnv6temp.com/mangakakalot/d2/dounimo_nannai_soushi_souai/vol1_chapter_4/41.jpg",
    "https://img-proxy.imgfo.com/?referer=https://manganelo.com&url=https://s7.mkklcdnv6temp.com/mangakakalot/d2/dounimo_nannai_soushi_souai/vol1_chapter_4/42.jpg",
    "https://img-proxy.imgfo.com/?referer=https://manganelo.com&url=https://s7.mkklcdnv6temp.com/mangakakalot/d2/dounimo_nannai_soushi_souai/vol1_chapter_4/43.jpg",
    "https://img-proxy.imgfo.com/?referer=https://manganelo.com&url=https://s7.mkklcdnv6temp.com/mangakakalot/d2/dounimo_nannai_soushi_souai/vol1_chapter_4/44.jpg",
    "https://img-proxy.imgfo.com/?referer=https://manganelo.com&url=https://s7.mkklcdnv6temp.com/mangakakalot/d2/dounimo_nannai_soushi_souai/vol1_chapter_4/45.jpg",
    "https://img-proxy.imgfo.com/?referer=https://manganelo.com&url=https://s7.mkklcdnv6temp.com/mangakakalot/d2/dounimo_nannai_soushi_souai/vol1_chapter_4/46.jpg",
    "https://img-proxy.imgfo.com/?referer=https://manganelo.com&url=https://s7.mkklcdnv6temp.com/mangakakalot/d2/dounimo_nannai_soushi_souai/vol1_chapter_4/47.jpg"
  ]
}