{
  "cover": "https://avt.mkklcdnv6.com/3/p/7-1583476422.jpg",
  "title": "Alive - The Final Evolution",
  "original": "アライブ ; アライブ 最終進化的少年 ; 最終進化少年 ; 最终进化少年 ; 最终进化的少年 ; Alive ; Alive - Last Evolutionary Boy ; Alive: The Final Evolution ; Alive - Saishū Shinka teki Shōnen ; ALIVE - Saishuu Shinkateki Shounen ; Alive - The Final Evolution ; ARAIBU Sai shuu Shinkateki Shonen ; Vivo-El Ultimo Chico Evolucionario ; Vivo- La Ultima Evolucion ; Alive - Den sidste Evolution (Danish)",
  "genre": "Action, Adventure, Drama, Psychological, Romance, Sci fi, Shounen, Supernatural, Tragedy, Manga",
  "author": "Kawashima Tadashi",
  "status": "Completed",
  "backlink": "https://manganu.com/collections/kawashima-tadashi/alive-the-final-evolution/",
  "description": "From Del Rey:\nA strange virus is making its way around the globe, causing its victims to commit suicide. In less than a week, it's become a lethal pandemic. But for a unique few, it does just the opposite... They evolve and become \"Power Users.\"\nTaisuke Kanou and his best friend Hirose both become power users, but Hirose sides with Katsumata, a strange man with no regard for human life.\nThe story follows Kanou as he discovers the secret behind his powers, encounters reporters, other power users, and even the military, as he tries to get his friends back.",
  "language": "English",
  "images": [
    "https://img-proxy.imgfo.com/?referer=https://manganelo.com&url=https://s3.mkklcdnv6temp.com/mangakakalot/a1/alive_the_final_evolution/vol21_chapter_80_views_of_the_world/1.jpg",
    "https://img-proxy.imgfo.com/?referer=https://manganelo.com&url=https://s3.mkklcdnv6temp.com/mangakakalot/a1/alive_the_final_evolution/vol21_chapter_80_views_of_the_world/2.jpg",
    "https://img-proxy.imgfo.com/?referer=https://manganelo.com&url=https://s3.mkklcdnv6temp.com/mangakakalot/a1/alive_the_final_evolution/vol21_chapter_80_views_of_the_world/3.jpg",
    "https://img-proxy.imgfo.com/?referer=https://manganelo.com&url=https://s3.mkklcdnv6temp.com/mangakakalot/a1/alive_the_final_evolution/vol21_chapter_80_views_of_the_world/4.jpg",
    "https://img-proxy.imgfo.com/?referer=https://manganelo.com&url=https://s3.mkklcdnv6temp.com/mangakakalot/a1/alive_the_final_evolution/vol21_chapter_80_views_of_the_world/5.jpg",
    "https://img-proxy.imgfo.com/?referer=https://manganelo.com&url=https://s3.mkklcdnv6temp.com/mangakakalot/a1/alive_the_final_evolution/vol21_chapter_80_views_of_the_world/6.jpg",
    "https://img-proxy.imgfo.com/?referer=https://manganelo.com&url=https://s3.mkklcdnv6temp.com/mangakakalot/a1/alive_the_final_evolution/vol21_chapter_80_views_of_the_world/7.jpg",
    "https://img-proxy.imgfo.com/?referer=https://manganelo.com&url=https://s3.mkklcdnv6temp.com/mangakakalot/a1/alive_the_final_evolution/vol21_chapter_80_views_of_the_world/8.jpg",
    "https://img-proxy.imgfo.com/?referer=https://manganelo.com&url=https://s3.mkklcdnv6temp.com/mangakakalot/a1/alive_the_final_evolution/vol21_chapter_80_views_of_the_world/9.jpg",
    "https://img-proxy.imgfo.com/?referer=https://manganelo.com&url=https://s3.mkklcdnv6temp.com/mangakakalot/a1/alive_the_final_evolution/vol21_chapter_80_views_of_the_world/10.jpg",
    "https://img-proxy.imgfo.com/?referer=https://manganelo.com&url=https://s3.mkklcdnv6temp.com/mangakakalot/a1/alive_the_final_evolution/vol21_chapter_80_views_of_the_world/11.jpg",
    "https://img-proxy.imgfo.com/?referer=https://manganelo.com&url=https://s3.mkklcdnv6temp.com/mangakakalot/a1/alive_the_final_evolution/vol21_chapter_80_views_of_the_world/12.jpg",
    "https://img-proxy.imgfo.com/?referer=https://manganelo.com&url=https://s3.mkklcdnv6temp.com/mangakakalot/a1/alive_the_final_evolution/vol21_chapter_80_views_of_the_world/13.jpg",
    "https://img-proxy.imgfo.com/?referer=https://manganelo.com&url=https://s3.mkklcdnv6temp.com/mangakakalot/a1/alive_the_final_evolution/vol21_chapter_80_views_of_the_world/14.jpg",
    "https://img-proxy.imgfo.com/?referer=https://manganelo.com&url=https://s3.mkklcdnv6temp.com/mangakakalot/a1/alive_the_final_evolution/vol21_chapter_80_views_of_the_world/15.jpg",
    "https://img-proxy.imgfo.com/?referer=https://manganelo.com&url=https://s3.mkklcdnv6temp.com/mangakakalot/a1/alive_the_final_evolution/vol21_chapter_80_views_of_the_world/16.jpg",
    "https://img-proxy.imgfo.com/?referer=https://manganelo.com&url=https://s3.mkklcdnv6temp.com/mangakakalot/a1/alive_the_final_evolution/vol21_chapter_80_views_of_the_world/17.jpg",
    "https://img-proxy.imgfo.com/?referer=https://manganelo.com&url=https://s3.mkklcdnv6temp.com/mangakakalot/a1/alive_the_final_evolution/vol21_chapter_80_views_of_the_world/18.jpg",
    "https://img-proxy.imgfo.com/?referer=https://manganelo.com&url=https://s3.mkklcdnv6temp.com/mangakakalot/a1/alive_the_final_evolution/vol21_chapter_80_views_of_the_world/19.jpg",
    "https://img-proxy.imgfo.com/?referer=https://manganelo.com&url=https://s3.mkklcdnv6temp.com/mangakakalot/a1/alive_the_final_evolution/vol21_chapter_80_views_of_the_world/20.jpg",
    "https://img-proxy.imgfo.com/?referer=https://manganelo.com&url=https://s3.mkklcdnv6temp.com/mangakakalot/a1/alive_the_final_evolution/vol21_chapter_80_views_of_the_world/21.jpg",
    "https://img-proxy.imgfo.com/?referer=https://manganelo.com&url=https://s3.mkklcdnv6temp.com/mangakakalot/a1/alive_the_final_evolution/vol21_chapter_80_views_of_the_world/22.jpg",
    "https://img-proxy.imgfo.com/?referer=https://manganelo.com&url=https://s3.mkklcdnv6temp.com/mangakakalot/a1/alive_the_final_evolution/vol21_chapter_80_views_of_the_world/23.jpg",
    "https://img-proxy.imgfo.com/?referer=https://manganelo.com&url=https://s3.mkklcdnv6temp.com/mangakakalot/a1/alive_the_final_evolution/vol21_chapter_80_views_of_the_world/24.jpg",
    "https://img-proxy.imgfo.com/?referer=https://manganelo.com&url=https://s3.mkklcdnv6temp.com/mangakakalot/a1/alive_the_final_evolution/vol21_chapter_80_views_of_the_world/25.jpg",
    "https://img-proxy.imgfo.com/?referer=https://manganelo.com&url=https://s3.mkklcdnv6temp.com/mangakakalot/a1/alive_the_final_evolution/vol21_chapter_80_views_of_the_world/26.jpg",
    "https://img-proxy.imgfo.com/?referer=https://manganelo.com&url=https://s3.mkklcdnv6temp.com/mangakakalot/a1/alive_the_final_evolution/vol21_chapter_80_views_of_the_world/27.jpg",
    "https://img-proxy.imgfo.com/?referer=https://manganelo.com&url=https://s3.mkklcdnv6temp.com/mangakakalot/a1/alive_the_final_evolution/vol21_chapter_80_views_of_the_world/28.jpg",
    "https://img-proxy.imgfo.com/?referer=https://manganelo.com&url=https://s3.mkklcdnv6temp.com/mangakakalot/a1/alive_the_final_evolution/vol21_chapter_80_views_of_the_world/29.jpg",
    "https://img-proxy.imgfo.com/?referer=https://manganelo.com&url=https://s3.mkklcdnv6temp.com/mangakakalot/a1/alive_the_final_evolution/vol21_chapter_80_views_of_the_world/30.jpg",
    "https://img-proxy.imgfo.com/?referer=https://manganelo.com&url=https://s3.mkklcdnv6temp.com/mangakakalot/a1/alive_the_final_evolution/vol21_chapter_80_views_of_the_world/31.jpg",
    "https://img-proxy.imgfo.com/?referer=https://manganelo.com&url=https://s3.mkklcdnv6temp.com/mangakakalot/a1/alive_the_final_evolution/vol21_chapter_80_views_of_the_world/32.jpg",
    "https://img-proxy.imgfo.com/?referer=https://manganelo.com&url=https://s3.mkklcdnv6temp.com/mangakakalot/a1/alive_the_final_evolution/vol21_chapter_80_views_of_the_world/33.jpg",
    "https://img-proxy.imgfo.com/?referer=https://manganelo.com&url=https://s3.mkklcdnv6temp.com/mangakakalot/a1/alive_the_final_evolution/vol21_chapter_80_views_of_the_world/34.jpg",
    "https://img-proxy.imgfo.com/?referer=https://manganelo.com&url=https://s3.mkklcdnv6temp.com/mangakakalot/a1/alive_the_final_evolution/vol21_chapter_80_views_of_the_world/35.jpg",
    "https://img-proxy.imgfo.com/?referer=https://manganelo.com&url=https://s3.mkklcdnv6temp.com/mangakakalot/a1/alive_the_final_evolution/vol21_chapter_80_views_of_the_world/36.jpg",
    "https://img-proxy.imgfo.com/?referer=https://manganelo.com&url=https://s3.mkklcdnv6temp.com/mangakakalot/a1/alive_the_final_evolution/vol21_chapter_80_views_of_the_world/37.jpg",
    "https://img-proxy.imgfo.com/?referer=https://manganelo.com&url=https://s3.mkklcdnv6temp.com/mangakakalot/a1/alive_the_final_evolution/vol21_chapter_80_views_of_the_world/38.jpg",
    "https://img-proxy.imgfo.com/?referer=https://manganelo.com&url=https://s3.mkklcdnv6temp.com/mangakakalot/a1/alive_the_final_evolution/vol21_chapter_80_views_of_the_world/39.jpg",
    "https://img-proxy.imgfo.com/?referer=https://manganelo.com&url=https://s3.mkklcdnv6temp.com/mangakakalot/a1/alive_the_final_evolution/vol21_chapter_80_views_of_the_world/40.jpg",
    "https://img-proxy.imgfo.com/?referer=https://manganelo.com&url=https://s3.mkklcdnv6temp.com/mangakakalot/a1/alive_the_final_evolution/vol21_chapter_80_views_of_the_world/41.jpg",
    "https://img-proxy.imgfo.com/?referer=https://manganelo.com&url=https://s3.mkklcdnv6temp.com/mangakakalot/a1/alive_the_final_evolution/vol21_chapter_80_views_of_the_world/42.jpg",
    "https://img-proxy.imgfo.com/?referer=https://manganelo.com&url=https://s3.mkklcdnv6temp.com/mangakakalot/a1/alive_the_final_evolution/vol21_chapter_80_views_of_the_world/43.jpg"
  ]
}