{
  "cover": "https://avt.mkklcdnv6.com/3/p/7-1583476422.jpg",
  "title": "Alive - The Final Evolution",
  "original": "アライブ ; アライブ 最終進化的少年 ; 最終進化少年 ; 最终进化少年 ; 最终进化的少年 ; Alive ; Alive - Last Evolutionary Boy ; Alive: The Final Evolution ; Alive - Saishū Shinka teki Shōnen ; ALIVE - Saishuu Shinkateki Shounen ; Alive - The Final Evolution ; ARAIBU Sai shuu Shinkateki Shonen ; Vivo-El Ultimo Chico Evolucionario ; Vivo- La Ultima Evolucion ; Alive - Den sidste Evolution (Danish)",
  "genre": "Action, Adventure, Drama, Psychological, Romance, Sci fi, Shounen, Supernatural, Tragedy, Manga",
  "author": "Kawashima Tadashi",
  "status": "Completed",
  "backlink": "https://manganu.com/collections/kawashima-tadashi/alive-the-final-evolution/",
  "description": "From Del Rey:\nA strange virus is making its way around the globe, causing its victims to commit suicide. In less than a week, it's become a lethal pandemic. But for a unique few, it does just the opposite... They evolve and become \"Power Users.\"\nTaisuke Kanou and his best friend Hirose both become power users, but Hirose sides with Katsumata, a strange man with no regard for human life.\nThe story follows Kanou as he discovers the secret behind his powers, encounters reporters, other power users, and even the military, as he tries to get his friends back.",
  "language": "English",
  "images": [
    "https://img-proxy.imgfo.com/?referer=https://manganelo.com&url=https://s3.mkklcdnv6temp.com/mangakakalot/a1/alive_the_final_evolution/vol8_chapter_30_what/1.jpg",
    "https://img-proxy.imgfo.com/?referer=https://manganelo.com&url=https://s3.mkklcdnv6temp.com/mangakakalot/a1/alive_the_final_evolution/vol8_chapter_30_what/2.jpg",
    "https://img-proxy.imgfo.com/?referer=https://manganelo.com&url=https://s3.mkklcdnv6temp.com/mangakakalot/a1/alive_the_final_evolution/vol8_chapter_30_what/3.jpg",
    "https://img-proxy.imgfo.com/?referer=https://manganelo.com&url=https://s3.mkklcdnv6temp.com/mangakakalot/a1/alive_the_final_evolution/vol8_chapter_30_what/4.jpg",
    "https://img-proxy.imgfo.com/?referer=https://manganelo.com&url=https://s3.mkklcdnv6temp.com/mangakakalot/a1/alive_the_final_evolution/vol8_chapter_30_what/5.jpg",
    "https://img-proxy.imgfo.com/?referer=https://manganelo.com&url=https://s3.mkklcdnv6temp.com/mangakakalot/a1/alive_the_final_evolution/vol8_chapter_30_what/6.jpg",
    "https://img-proxy.imgfo.com/?referer=https://manganelo.com&url=https://s3.mkklcdnv6temp.com/mangakakalot/a1/alive_the_final_evolution/vol8_chapter_30_what/7.jpg",
    "https://img-proxy.imgfo.com/?referer=https://manganelo.com&url=https://s3.mkklcdnv6temp.com/mangakakalot/a1/alive_the_final_evolution/vol8_chapter_30_what/8.jpg",
    "https://img-proxy.imgfo.com/?referer=https://manganelo.com&url=https://s3.mkklcdnv6temp.com/mangakakalot/a1/alive_the_final_evolution/vol8_chapter_30_what/9.jpg",
    "https://img-proxy.imgfo.com/?referer=https://manganelo.com&url=https://s3.mkklcdnv6temp.com/mangakakalot/a1/alive_the_final_evolution/vol8_chapter_30_what/10.jpg",
    "https://img-proxy.imgfo.com/?referer=https://manganelo.com&url=https://s3.mkklcdnv6temp.com/mangakakalot/a1/alive_the_final_evolution/vol8_chapter_30_what/11.jpg",
    "https://img-proxy.imgfo.com/?referer=https://manganelo.com&url=https://s3.mkklcdnv6temp.com/mangakakalot/a1/alive_the_final_evolution/vol8_chapter_30_what/12.jpg",
    "https://img-proxy.imgfo.com/?referer=https://manganelo.com&url=https://s3.mkklcdnv6temp.com/mangakakalot/a1/alive_the_final_evolution/vol8_chapter_30_what/13.jpg",
    "https://img-proxy.imgfo.com/?referer=https://manganelo.com&url=https://s3.mkklcdnv6temp.com/mangakakalot/a1/alive_the_final_evolution/vol8_chapter_30_what/14.jpg",
    "https://img-proxy.imgfo.com/?referer=https://manganelo.com&url=https://s3.mkklcdnv6temp.com/mangakakalot/a1/alive_the_final_evolution/vol8_chapter_30_what/15.jpg",
    "https://img-proxy.imgfo.com/?referer=https://manganelo.com&url=https://s3.mkklcdnv6temp.com/mangakakalot/a1/alive_the_final_evolution/vol8_chapter_30_what/16.jpg",
    "https://img-proxy.imgfo.com/?referer=https://manganelo.com&url=https://s3.mkklcdnv6temp.com/mangakakalot/a1/alive_the_final_evolution/vol8_chapter_30_what/17.jpg",
    "https://img-proxy.imgfo.com/?referer=https://manganelo.com&url=https://s3.mkklcdnv6temp.com/mangakakalot/a1/alive_the_final_evolution/vol8_chapter_30_what/18.jpg",
    "https://img-proxy.imgfo.com/?referer=https://manganelo.com&url=https://s3.mkklcdnv6temp.com/mangakakalot/a1/alive_the_final_evolution/vol8_chapter_30_what/19.jpg",
    "https://img-proxy.imgfo.com/?referer=https://manganelo.com&url=https://s3.mkklcdnv6temp.com/mangakakalot/a1/alive_the_final_evolution/vol8_chapter_30_what/20.jpg",
    "https://img-proxy.imgfo.com/?referer=https://manganelo.com&url=https://s3.mkklcdnv6temp.com/mangakakalot/a1/alive_the_final_evolution/vol8_chapter_30_what/21.jpg",
    "https://img-proxy.imgfo.com/?referer=https://manganelo.com&url=https://s3.mkklcdnv6temp.com/mangakakalot/a1/alive_the_final_evolution/vol8_chapter_30_what/22.jpg",
    "https://img-proxy.imgfo.com/?referer=https://manganelo.com&url=https://s3.mkklcdnv6temp.com/mangakakalot/a1/alive_the_final_evolution/vol8_chapter_30_what/23.jpg",
    "https://img-proxy.imgfo.com/?referer=https://manganelo.com&url=https://s3.mkklcdnv6temp.com/mangakakalot/a1/alive_the_final_evolution/vol8_chapter_30_what/24.jpg",
    "https://img-proxy.imgfo.com/?referer=https://manganelo.com&url=https://s3.mkklcdnv6temp.com/mangakakalot/a1/alive_the_final_evolution/vol8_chapter_30_what/25.jpg",
    "https://img-proxy.imgfo.com/?referer=https://manganelo.com&url=https://s3.mkklcdnv6temp.com/mangakakalot/a1/alive_the_final_evolution/vol8_chapter_30_what/26.jpg",
    "https://img-proxy.imgfo.com/?referer=https://manganelo.com&url=https://s3.mkklcdnv6temp.com/mangakakalot/a1/alive_the_final_evolution/vol8_chapter_30_what/27.jpg",
    "https://img-proxy.imgfo.com/?referer=https://manganelo.com&url=https://s3.mkklcdnv6temp.com/mangakakalot/a1/alive_the_final_evolution/vol8_chapter_30_what/28.jpg",
    "https://img-proxy.imgfo.com/?referer=https://manganelo.com&url=https://s3.mkklcdnv6temp.com/mangakakalot/a1/alive_the_final_evolution/vol8_chapter_30_what/29.jpg",
    "https://img-proxy.imgfo.com/?referer=https://manganelo.com&url=https://s3.mkklcdnv6temp.com/mangakakalot/a1/alive_the_final_evolution/vol8_chapter_30_what/30.jpg",
    "https://img-proxy.imgfo.com/?referer=https://manganelo.com&url=https://s3.mkklcdnv6temp.com/mangakakalot/a1/alive_the_final_evolution/vol8_chapter_30_what/31.jpg",
    "https://img-proxy.imgfo.com/?referer=https://manganelo.com&url=https://s3.mkklcdnv6temp.com/mangakakalot/a1/alive_the_final_evolution/vol8_chapter_30_what/32.jpg",
    "https://img-proxy.imgfo.com/?referer=https://manganelo.com&url=https://s3.mkklcdnv6temp.com/mangakakalot/a1/alive_the_final_evolution/vol8_chapter_30_what/33.jpg",
    "https://img-proxy.imgfo.com/?referer=https://manganelo.com&url=https://s3.mkklcdnv6temp.com/mangakakalot/a1/alive_the_final_evolution/vol8_chapter_30_what/34.jpg",
    "https://img-proxy.imgfo.com/?referer=https://manganelo.com&url=https://s3.mkklcdnv6temp.com/mangakakalot/a1/alive_the_final_evolution/vol8_chapter_30_what/35.jpg",
    "https://img-proxy.imgfo.com/?referer=https://manganelo.com&url=https://s3.mkklcdnv6temp.com/mangakakalot/a1/alive_the_final_evolution/vol8_chapter_30_what/36.jpg",
    "https://img-proxy.imgfo.com/?referer=https://manganelo.com&url=https://s3.mkklcdnv6temp.com/mangakakalot/a1/alive_the_final_evolution/vol8_chapter_30_what/37.jpg",
    "https://img-proxy.imgfo.com/?referer=https://manganelo.com&url=https://s3.mkklcdnv6temp.com/mangakakalot/a1/alive_the_final_evolution/vol8_chapter_30_what/38.jpg",
    "https://img-proxy.imgfo.com/?referer=https://manganelo.com&url=https://s3.mkklcdnv6temp.com/mangakakalot/a1/alive_the_final_evolution/vol8_chapter_30_what/39.jpg",
    "https://img-proxy.imgfo.com/?referer=https://manganelo.com&url=https://s3.mkklcdnv6temp.com/mangakakalot/a1/alive_the_final_evolution/vol8_chapter_30_what/40.jpg",
    "https://img-proxy.imgfo.com/?referer=https://manganelo.com&url=https://s3.mkklcdnv6temp.com/mangakakalot/a1/alive_the_final_evolution/vol8_chapter_30_what/41.jpg",
    "https://img-proxy.imgfo.com/?referer=https://manganelo.com&url=https://s3.mkklcdnv6temp.com/mangakakalot/a1/alive_the_final_evolution/vol8_chapter_30_what/42.jpg",
    "https://img-proxy.imgfo.com/?referer=https://manganelo.com&url=https://s3.mkklcdnv6temp.com/mangakakalot/a1/alive_the_final_evolution/vol8_chapter_30_what/43.jpg",
    "https://img-proxy.imgfo.com/?referer=https://manganelo.com&url=https://s3.mkklcdnv6temp.com/mangakakalot/a1/alive_the_final_evolution/vol8_chapter_30_what/44.jpg"
  ]
}