{
  "cover": "https://avt.mkklcdnv6.com/1/u/4-1583471889.jpg",
  "title": "Urusei Yatsura",
  "original": "The Return of Lum",
  "genre": "Comedy, Romance, School life, Sci fi, Shounen, Supernatural, Manga",
  "author": "Takahashi Rumiko",
  "status": "Completed",
  "backlink": "https://manganu.com/collections/takahashi-rumiko/urusei-yatsura/",
  "description": "What would you do if a tiger skin bikini-clad alien followed you to school every day? Poor Ataru&#39;s life has never returned to normal since volatile extraterrestrial princess Lum fell for him. Now an excruciatingly wealthy and genteel rival, Mendo, adds to Ataru&#39;s torment. Not to mention an unending stream of extraordinary classroom visitors and educational materials including incompetent cherry blossom spirits, a legendary nightmare-eating tapir, and a fourth-dimensional camera that breeches alternate realities.",
  "language": "English",
  "images": [
    "https://img-proxy.imgfo.com/?referer=https://manganelo.com&url=https://s41.mkklcdnv6temp.com/mangakakalot/u2/urusei_yatsura/vol2_chapter_7/1.jpg",
    "https://img-proxy.imgfo.com/?referer=https://manganelo.com&url=https://s41.mkklcdnv6temp.com/mangakakalot/u2/urusei_yatsura/vol2_chapter_7/2.jpg",
    "https://img-proxy.imgfo.com/?referer=https://manganelo.com&url=https://s41.mkklcdnv6temp.com/mangakakalot/u2/urusei_yatsura/vol2_chapter_7/3.jpg",
    "https://img-proxy.imgfo.com/?referer=https://manganelo.com&url=https://s41.mkklcdnv6temp.com/mangakakalot/u2/urusei_yatsura/vol2_chapter_7/4.jpg",
    "https://img-proxy.imgfo.com/?referer=https://manganelo.com&url=https://s41.mkklcdnv6temp.com/mangakakalot/u2/urusei_yatsura/vol2_chapter_7/5.jpg",
    "https://img-proxy.imgfo.com/?referer=https://manganelo.com&url=https://s41.mkklcdnv6temp.com/mangakakalot/u2/urusei_yatsura/vol2_chapter_7/6.jpg",
    "https://img-proxy.imgfo.com/?referer=https://manganelo.com&url=https://s41.mkklcdnv6temp.com/mangakakalot/u2/urusei_yatsura/vol2_chapter_7/7.jpg",
    "https://img-proxy.imgfo.com/?referer=https://manganelo.com&url=https://s41.mkklcdnv6temp.com/mangakakalot/u2/urusei_yatsura/vol2_chapter_7/8.jpg",
    "https://img-proxy.imgfo.com/?referer=https://manganelo.com&url=https://s41.mkklcdnv6temp.com/mangakakalot/u2/urusei_yatsura/vol2_chapter_7/9.jpg",
    "https://img-proxy.imgfo.com/?referer=https://manganelo.com&url=https://s41.mkklcdnv6temp.com/mangakakalot/u2/urusei_yatsura/vol2_chapter_7/10.jpg",
    "https://img-proxy.imgfo.com/?referer=https://manganelo.com&url=https://s41.mkklcdnv6temp.com/mangakakalot/u2/urusei_yatsura/vol2_chapter_7/11.jpg",
    "https://img-proxy.imgfo.com/?referer=https://manganelo.com&url=https://s41.mkklcdnv6temp.com/mangakakalot/u2/urusei_yatsura/vol2_chapter_7/12.jpg",
    "https://img-proxy.imgfo.com/?referer=https://manganelo.com&url=https://s41.mkklcdnv6temp.com/mangakakalot/u2/urusei_yatsura/vol2_chapter_7/13.jpg",
    "https://img-proxy.imgfo.com/?referer=https://manganelo.com&url=https://s41.mkklcdnv6temp.com/mangakakalot/u2/urusei_yatsura/vol2_chapter_7/14.jpg",
    "https://img-proxy.imgfo.com/?referer=https://manganelo.com&url=https://s41.mkklcdnv6temp.com/mangakakalot/u2/urusei_yatsura/vol2_chapter_7/15.jpg",
    "https://img-proxy.imgfo.com/?referer=https://manganelo.com&url=https://s41.mkklcdnv6temp.com/mangakakalot/u2/urusei_yatsura/vol2_chapter_7/16.jpg",
    "https://img-proxy.imgfo.com/?referer=https://manganelo.com&url=https://s41.mkklcdnv6temp.com/mangakakalot/u2/urusei_yatsura/vol2_chapter_7/17.jpg"
  ]
}