{
  "cover": "https://avt.mkklcdnv6.com/48/q/9-1583482131.jpg",
  "title": "Jackals",
  "original": "ジャッカル ; Шакалы (Russian) ; Чакали (Bulgarian)",
  "genre": "Action, Martial arts, Mature, Seinen, Manga",
  "author": "Kim Hyung-Jin",
  "status": "Completed",
  "backlink": "https://manganu.com/collections/kim-hyung-jin/jackals/",
  "description": "Cicero City, a city infested with immigrants where people of all races scramble to find work and shelter. Infested with destruction and slaughter, it's a chaotic society. Living on the outside of society, the Jackals are professional assassins with no allegiance, available to the highest bidder. This is their story.",
  "language": "English",
  "images": [
    "https://img-proxy.imgfo.com/?referer=https://manganelo.com&url=https://s5.mkklcdnv6temp.com/mangakakalot/j1/jackals/vol5_chapter_35_awakening_from_darkness/1.jpg",
    "https://img-proxy.imgfo.com/?referer=https://manganelo.com&url=https://s5.mkklcdnv6temp.com/mangakakalot/j1/jackals/vol5_chapter_35_awakening_from_darkness/2.jpg",
    "https://img-proxy.imgfo.com/?referer=https://manganelo.com&url=https://s5.mkklcdnv6temp.com/mangakakalot/j1/jackals/vol5_chapter_35_awakening_from_darkness/3.jpg",
    "https://img-proxy.imgfo.com/?referer=https://manganelo.com&url=https://s5.mkklcdnv6temp.com/mangakakalot/j1/jackals/vol5_chapter_35_awakening_from_darkness/4.jpg",
    "https://img-proxy.imgfo.com/?referer=https://manganelo.com&url=https://s5.mkklcdnv6temp.com/mangakakalot/j1/jackals/vol5_chapter_35_awakening_from_darkness/5.jpg",
    "https://img-proxy.imgfo.com/?referer=https://manganelo.com&url=https://s5.mkklcdnv6temp.com/mangakakalot/j1/jackals/vol5_chapter_35_awakening_from_darkness/6.jpg",
    "https://img-proxy.imgfo.com/?referer=https://manganelo.com&url=https://s5.mkklcdnv6temp.com/mangakakalot/j1/jackals/vol5_chapter_35_awakening_from_darkness/7.jpg",
    "https://img-proxy.imgfo.com/?referer=https://manganelo.com&url=https://s5.mkklcdnv6temp.com/mangakakalot/j1/jackals/vol5_chapter_35_awakening_from_darkness/8.jpg",
    "https://img-proxy.imgfo.com/?referer=https://manganelo.com&url=https://s5.mkklcdnv6temp.com/mangakakalot/j1/jackals/vol5_chapter_35_awakening_from_darkness/9.jpg",
    "https://img-proxy.imgfo.com/?referer=https://manganelo.com&url=https://s5.mkklcdnv6temp.com/mangakakalot/j1/jackals/vol5_chapter_35_awakening_from_darkness/10.jpg",
    "https://img-proxy.imgfo.com/?referer=https://manganelo.com&url=https://s5.mkklcdnv6temp.com/mangakakalot/j1/jackals/vol5_chapter_35_awakening_from_darkness/11.jpg",
    "https://img-proxy.imgfo.com/?referer=https://manganelo.com&url=https://s5.mkklcdnv6temp.com/mangakakalot/j1/jackals/vol5_chapter_35_awakening_from_darkness/12.jpg",
    "https://img-proxy.imgfo.com/?referer=https://manganelo.com&url=https://s5.mkklcdnv6temp.com/mangakakalot/j1/jackals/vol5_chapter_35_awakening_from_darkness/13.jpg",
    "https://img-proxy.imgfo.com/?referer=https://manganelo.com&url=https://s5.mkklcdnv6temp.com/mangakakalot/j1/jackals/vol5_chapter_35_awakening_from_darkness/14.jpg",
    "https://img-proxy.imgfo.com/?referer=https://manganelo.com&url=https://s5.mkklcdnv6temp.com/mangakakalot/j1/jackals/vol5_chapter_35_awakening_from_darkness/15.jpg",
    "https://img-proxy.imgfo.com/?referer=https://manganelo.com&url=https://s5.mkklcdnv6temp.com/mangakakalot/j1/jackals/vol5_chapter_35_awakening_from_darkness/16.jpg",
    "https://img-proxy.imgfo.com/?referer=https://manganelo.com&url=https://s5.mkklcdnv6temp.com/mangakakalot/j1/jackals/vol5_chapter_35_awakening_from_darkness/17.jpg",
    "https://img-proxy.imgfo.com/?referer=https://manganelo.com&url=https://s5.mkklcdnv6temp.com/mangakakalot/j1/jackals/vol5_chapter_35_awakening_from_darkness/18.jpg",
    "https://img-proxy.imgfo.com/?referer=https://manganelo.com&url=https://s5.mkklcdnv6temp.com/mangakakalot/j1/jackals/vol5_chapter_35_awakening_from_darkness/19.jpg",
    "https://img-proxy.imgfo.com/?referer=https://manganelo.com&url=https://s5.mkklcdnv6temp.com/mangakakalot/j1/jackals/vol5_chapter_35_awakening_from_darkness/20.jpg",
    "https://img-proxy.imgfo.com/?referer=https://manganelo.com&url=https://s5.mkklcdnv6temp.com/mangakakalot/j1/jackals/vol5_chapter_35_awakening_from_darkness/21.jpg",
    "https://img-proxy.imgfo.com/?referer=https://manganelo.com&url=https://s5.mkklcdnv6temp.com/mangakakalot/j1/jackals/vol5_chapter_35_awakening_from_darkness/22.jpg",
    "https://img-proxy.imgfo.com/?referer=https://manganelo.com&url=https://s5.mkklcdnv6temp.com/mangakakalot/j1/jackals/vol5_chapter_35_awakening_from_darkness/23.jpg",
    "https://img-proxy.imgfo.com/?referer=https://manganelo.com&url=https://s5.mkklcdnv6temp.com/mangakakalot/j1/jackals/vol5_chapter_35_awakening_from_darkness/24.jpg",
    "https://img-proxy.imgfo.com/?referer=https://manganelo.com&url=https://s5.mkklcdnv6temp.com/mangakakalot/j1/jackals/vol5_chapter_35_awakening_from_darkness/25.jpg"
  ]
}