{
  "cover": "https://avt.mkklcdnv6.com/42/p/10-1583483707.jpg",
  "title": "Lady Georgie",
  "original": "ジョージィ！ ; Jōjie! ; Georgie!",
  "genre": "Drama, Historical, Romance, Shoujo, Manga",
  "author": "Mann Izawa",
  "status": "Completed",
  "backlink": "https://manganu.com/collections/mann-izawa/lady-georgie/",
  "description": "Georgie is a playful and cute tomboy who lives with her family on a big country farm in Australia. She loves her family, especially her brothers, Abel and Arthur, and they´re all the best of friends. However, Georgie's mother is extremely strict wither her, which puzzles her.\nGeorgie always wears a bracelet, but not just any bracelet; this one holds a secret, one that even she doesn't know. What will become of her world once these secrets are revealed, and will she be able to brave her new world?\nRead left to right.",
  "language": "English",
  "images": [
    "https://img-proxy.imgfo.com/?referer=https://manganelo.com&url=https://s5.mkklcdnv6temp.com/mangakakalot/l1/lady_georgie/vol5_chapter_40/1.jpg",
    "https://img-proxy.imgfo.com/?referer=https://manganelo.com&url=https://s5.mkklcdnv6temp.com/mangakakalot/l1/lady_georgie/vol5_chapter_40/2.jpg",
    "https://img-proxy.imgfo.com/?referer=https://manganelo.com&url=https://s5.mkklcdnv6temp.com/mangakakalot/l1/lady_georgie/vol5_chapter_40/3.jpg",
    "https://img-proxy.imgfo.com/?referer=https://manganelo.com&url=https://s5.mkklcdnv6temp.com/mangakakalot/l1/lady_georgie/vol5_chapter_40/4.jpg",
    "https://img-proxy.imgfo.com/?referer=https://manganelo.com&url=https://s5.mkklcdnv6temp.com/mangakakalot/l1/lady_georgie/vol5_chapter_40/5.jpg",
    "https://img-proxy.imgfo.com/?referer=https://manganelo.com&url=https://s5.mkklcdnv6temp.com/mangakakalot/l1/lady_georgie/vol5_chapter_40/6.jpg",
    "https://img-proxy.imgfo.com/?referer=https://manganelo.com&url=https://s5.mkklcdnv6temp.com/mangakakalot/l1/lady_georgie/vol5_chapter_40/7.jpg",
    "https://img-proxy.imgfo.com/?referer=https://manganelo.com&url=https://s5.mkklcdnv6temp.com/mangakakalot/l1/lady_georgie/vol5_chapter_40/8.jpg",
    "https://img-proxy.imgfo.com/?referer=https://manganelo.com&url=https://s5.mkklcdnv6temp.com/mangakakalot/l1/lady_georgie/vol5_chapter_40/9.jpg",
    "https://img-proxy.imgfo.com/?referer=https://manganelo.com&url=https://s5.mkklcdnv6temp.com/mangakakalot/l1/lady_georgie/vol5_chapter_40/10.jpg",
    "https://img-proxy.imgfo.com/?referer=https://manganelo.com&url=https://s5.mkklcdnv6temp.com/mangakakalot/l1/lady_georgie/vol5_chapter_40/11.jpg",
    "https://img-proxy.imgfo.com/?referer=https://manganelo.com&url=https://s5.mkklcdnv6temp.com/mangakakalot/l1/lady_georgie/vol5_chapter_40/12.jpg",
    "https://img-proxy.imgfo.com/?referer=https://manganelo.com&url=https://s5.mkklcdnv6temp.com/mangakakalot/l1/lady_georgie/vol5_chapter_40/13.jpg",
    "https://img-proxy.imgfo.com/?referer=https://manganelo.com&url=https://s5.mkklcdnv6temp.com/mangakakalot/l1/lady_georgie/vol5_chapter_40/14.jpg",
    "https://img-proxy.imgfo.com/?referer=https://manganelo.com&url=https://s5.mkklcdnv6temp.com/mangakakalot/l1/lady_georgie/vol5_chapter_40/15.jpg",
    "https://img-proxy.imgfo.com/?referer=https://manganelo.com&url=https://s5.mkklcdnv6temp.com/mangakakalot/l1/lady_georgie/vol5_chapter_40/16.jpg",
    "https://img-proxy.imgfo.com/?referer=https://manganelo.com&url=https://s5.mkklcdnv6temp.com/mangakakalot/l1/lady_georgie/vol5_chapter_40/17.jpg",
    "https://img-proxy.imgfo.com/?referer=https://manganelo.com&url=https://s5.mkklcdnv6temp.com/mangakakalot/l1/lady_georgie/vol5_chapter_40/18.jpg",
    "https://img-proxy.imgfo.com/?referer=https://manganelo.com&url=https://s5.mkklcdnv6temp.com/mangakakalot/l1/lady_georgie/vol5_chapter_40/19.jpg",
    "https://img-proxy.imgfo.com/?referer=https://manganelo.com&url=https://s5.mkklcdnv6temp.com/mangakakalot/l1/lady_georgie/vol5_chapter_40/20.jpg",
    "https://img-proxy.imgfo.com/?referer=https://manganelo.com&url=https://s5.mkklcdnv6temp.com/mangakakalot/l1/lady_georgie/vol5_chapter_40/21.jpg",
    "https://img-proxy.imgfo.com/?referer=https://manganelo.com&url=https://s5.mkklcdnv6temp.com/mangakakalot/l1/lady_georgie/vol5_chapter_40/22.jpg",
    "https://img-proxy.imgfo.com/?referer=https://manganelo.com&url=https://s5.mkklcdnv6temp.com/mangakakalot/l1/lady_georgie/vol5_chapter_40/23.jpg",
    "https://img-proxy.imgfo.com/?referer=https://manganelo.com&url=https://s5.mkklcdnv6temp.com/mangakakalot/l1/lady_georgie/vol5_chapter_40/24.jpg",
    "https://img-proxy.imgfo.com/?referer=https://manganelo.com&url=https://s5.mkklcdnv6temp.com/mangakakalot/l1/lady_georgie/vol5_chapter_40/25.jpg"
  ]
}