{
  "cover": "https://avt.mkklcdnv6.com/6/w/4-1583469949.jpg",
  "title": "Bokura No Himitsu O Kyouyuu Shiyou Ka",
  "original": "ボクらの秘密を共有しようか ; Bokura no Himitsu wo Kyouyuu Shiyou ka ; Bokura no Himitsu wo Kyouyuu shiyou ka? ; Colorful Shounen to Monochrome na Atashi ; Itoshi no Hime-chan",
  "genre": "Comedy, Harem, Romance, School life, Shoujo, Supernatural, Manga",
  "author": "Shiraishi Yuki",
  "status": "Completed",
  "backlink": "https://manganu.com/collections/shiraishi-yuki/bokura-no-himitsu-o-kyouyuu-shiyou-ka/",
  "description": "From Intercross:\nYuka goes to Ikimonogakari's room to ask them to solve her love problem, but unfortunately, they couldn't help her. To make her feel better, the people in the club gives her a piece of candy. Yuka eats it, and she suddenly gets cat ears and a tail! What happened to her? Will she ever go back to normal?\n[T/N: Ikimonogakari literally means \"(person) in charge of living beings]\n2. Colorful Shounen to Monochrome na Atashi\nNaoki and Kiyo have known each other for a long time because they live in the same apartment complex. One Valentine's Day, Kiyo gave Naoki a chocolate cake, but Naoki threw it away and laughed it off. Because of that, Kiyo doesn't make sweets anymore! Because Naoki's dad is Kiyo's dad's boss and they are going on a trip, Kiyo has to make food for Naoki. Will Kiyo re-live the trauma of the past?\n3. Kaibutsu-kun ni Rei\nThe first person Yuka and her friend meet at a sports' camp is Kidou-kun, the school 'monster'. Yuka is the only one not scared of him... in fact she falls in love with him. After an incident, Kidou becomes popular... how can Yuka make him notice her? And what if Kidou isn't the only 'monster' in school?\n4. Itoshi no Himeko-chan\nAnri, who is usually bad at handling boys, is asked out by the school's most attractive guy, Takuma! This is so she can gradually get used to guys, however, does Takuma have another agenda in play? What is going to happen between the two?\n5. Shiro no Kiseki",
  "language": "English",
  "images": [
    "https://img-proxy.imgfo.com/?referer=https://manganelo.com&url=https://s5.mkklcdnv6temp.com/mangakakalot/b2/bokura_no_himitsu_o_kyouyuu_shiyou_ka/vol1_chapter_1_bokura_no_himitsu_wo_kyouyuu_shiyou_ka/1.jpg",
    "https://img-proxy.imgfo.com/?referer=https://manganelo.com&url=https://s5.mkklcdnv6temp.com/mangakakalot/b2/bokura_no_himitsu_o_kyouyuu_shiyou_ka/vol1_chapter_1_bokura_no_himitsu_wo_kyouyuu_shiyou_ka/2.jpg",
    "https://img-proxy.imgfo.com/?referer=https://manganelo.com&url=https://s5.mkklcdnv6temp.com/mangakakalot/b2/bokura_no_himitsu_o_kyouyuu_shiyou_ka/vol1_chapter_1_bokura_no_himitsu_wo_kyouyuu_shiyou_ka/3.jpg",
    "https://img-proxy.imgfo.com/?referer=https://manganelo.com&url=https://s5.mkklcdnv6temp.com/mangakakalot/b2/bokura_no_himitsu_o_kyouyuu_shiyou_ka/vol1_chapter_1_bokura_no_himitsu_wo_kyouyuu_shiyou_ka/4.jpg",
    "https://img-proxy.imgfo.com/?referer=https://manganelo.com&url=https://s5.mkklcdnv6temp.com/mangakakalot/b2/bokura_no_himitsu_o_kyouyuu_shiyou_ka/vol1_chapter_1_bokura_no_himitsu_wo_kyouyuu_shiyou_ka/5.jpg",
    "https://img-proxy.imgfo.com/?referer=https://manganelo.com&url=https://s5.mkklcdnv6temp.com/mangakakalot/b2/bokura_no_himitsu_o_kyouyuu_shiyou_ka/vol1_chapter_1_bokura_no_himitsu_wo_kyouyuu_shiyou_ka/6.jpg",
    "https://img-proxy.imgfo.com/?referer=https://manganelo.com&url=https://s5.mkklcdnv6temp.com/mangakakalot/b2/bokura_no_himitsu_o_kyouyuu_shiyou_ka/vol1_chapter_1_bokura_no_himitsu_wo_kyouyuu_shiyou_ka/7.jpg",
    "https://img-proxy.imgfo.com/?referer=https://manganelo.com&url=https://s5.mkklcdnv6temp.com/mangakakalot/b2/bokura_no_himitsu_o_kyouyuu_shiyou_ka/vol1_chapter_1_bokura_no_himitsu_wo_kyouyuu_shiyou_ka/8.jpg",
    "https://img-proxy.imgfo.com/?referer=https://manganelo.com&url=https://s5.mkklcdnv6temp.com/mangakakalot/b2/bokura_no_himitsu_o_kyouyuu_shiyou_ka/vol1_chapter_1_bokura_no_himitsu_wo_kyouyuu_shiyou_ka/9.jpg",
    "https://img-proxy.imgfo.com/?referer=https://manganelo.com&url=https://s5.mkklcdnv6temp.com/mangakakalot/b2/bokura_no_himitsu_o_kyouyuu_shiyou_ka/vol1_chapter_1_bokura_no_himitsu_wo_kyouyuu_shiyou_ka/10.jpg",
    "https://img-proxy.imgfo.com/?referer=https://manganelo.com&url=https://s5.mkklcdnv6temp.com/mangakakalot/b2/bokura_no_himitsu_o_kyouyuu_shiyou_ka/vol1_chapter_1_bokura_no_himitsu_wo_kyouyuu_shiyou_ka/11.jpg",
    "https://img-proxy.imgfo.com/?referer=https://manganelo.com&url=https://s5.mkklcdnv6temp.com/mangakakalot/b2/bokura_no_himitsu_o_kyouyuu_shiyou_ka/vol1_chapter_1_bokura_no_himitsu_wo_kyouyuu_shiyou_ka/12.jpg",
    "https://img-proxy.imgfo.com/?referer=https://manganelo.com&url=https://s5.mkklcdnv6temp.com/mangakakalot/b2/bokura_no_himitsu_o_kyouyuu_shiyou_ka/vol1_chapter_1_bokura_no_himitsu_wo_kyouyuu_shiyou_ka/13.jpg",
    "https://img-proxy.imgfo.com/?referer=https://manganelo.com&url=https://s5.mkklcdnv6temp.com/mangakakalot/b2/bokura_no_himitsu_o_kyouyuu_shiyou_ka/vol1_chapter_1_bokura_no_himitsu_wo_kyouyuu_shiyou_ka/14.jpg",
    "https://img-proxy.imgfo.com/?referer=https://manganelo.com&url=https://s5.mkklcdnv6temp.com/mangakakalot/b2/bokura_no_himitsu_o_kyouyuu_shiyou_ka/vol1_chapter_1_bokura_no_himitsu_wo_kyouyuu_shiyou_ka/15.jpg",
    "https://img-proxy.imgfo.com/?referer=https://manganelo.com&url=https://s5.mkklcdnv6temp.com/mangakakalot/b2/bokura_no_himitsu_o_kyouyuu_shiyou_ka/vol1_chapter_1_bokura_no_himitsu_wo_kyouyuu_shiyou_ka/16.jpg",
    "https://img-proxy.imgfo.com/?referer=https://manganelo.com&url=https://s5.mkklcdnv6temp.com/mangakakalot/b2/bokura_no_himitsu_o_kyouyuu_shiyou_ka/vol1_chapter_1_bokura_no_himitsu_wo_kyouyuu_shiyou_ka/17.jpg",
    "https://img-proxy.imgfo.com/?referer=https://manganelo.com&url=https://s5.mkklcdnv6temp.com/mangakakalot/b2/bokura_no_himitsu_o_kyouyuu_shiyou_ka/vol1_chapter_1_bokura_no_himitsu_wo_kyouyuu_shiyou_ka/18.jpg",
    "https://img-proxy.imgfo.com/?referer=https://manganelo.com&url=https://s5.mkklcdnv6temp.com/mangakakalot/b2/bokura_no_himitsu_o_kyouyuu_shiyou_ka/vol1_chapter_1_bokura_no_himitsu_wo_kyouyuu_shiyou_ka/19.jpg",
    "https://img-proxy.imgfo.com/?referer=https://manganelo.com&url=https://s5.mkklcdnv6temp.com/mangakakalot/b2/bokura_no_himitsu_o_kyouyuu_shiyou_ka/vol1_chapter_1_bokura_no_himitsu_wo_kyouyuu_shiyou_ka/20.jpg",
    "https://img-proxy.imgfo.com/?referer=https://manganelo.com&url=https://s5.mkklcdnv6temp.com/mangakakalot/b2/bokura_no_himitsu_o_kyouyuu_shiyou_ka/vol1_chapter_1_bokura_no_himitsu_wo_kyouyuu_shiyou_ka/21.jpg",
    "https://img-proxy.imgfo.com/?referer=https://manganelo.com&url=https://s5.mkklcdnv6temp.com/mangakakalot/b2/bokura_no_himitsu_o_kyouyuu_shiyou_ka/vol1_chapter_1_bokura_no_himitsu_wo_kyouyuu_shiyou_ka/22.jpg",
    "https://img-proxy.imgfo.com/?referer=https://manganelo.com&url=https://s5.mkklcdnv6temp.com/mangakakalot/b2/bokura_no_himitsu_o_kyouyuu_shiyou_ka/vol1_chapter_1_bokura_no_himitsu_wo_kyouyuu_shiyou_ka/23.jpg",
    "https://img-proxy.imgfo.com/?referer=https://manganelo.com&url=https://s5.mkklcdnv6temp.com/mangakakalot/b2/bokura_no_himitsu_o_kyouyuu_shiyou_ka/vol1_chapter_1_bokura_no_himitsu_wo_kyouyuu_shiyou_ka/24.jpg",
    "https://img-proxy.imgfo.com/?referer=https://manganelo.com&url=https://s5.mkklcdnv6temp.com/mangakakalot/b2/bokura_no_himitsu_o_kyouyuu_shiyou_ka/vol1_chapter_1_bokura_no_himitsu_wo_kyouyuu_shiyou_ka/25.jpg",
    "https://img-proxy.imgfo.com/?referer=https://manganelo.com&url=https://s5.mkklcdnv6temp.com/mangakakalot/b2/bokura_no_himitsu_o_kyouyuu_shiyou_ka/vol1_chapter_1_bokura_no_himitsu_wo_kyouyuu_shiyou_ka/26.jpg",
    "https://img-proxy.imgfo.com/?referer=https://manganelo.com&url=https://s5.mkklcdnv6temp.com/mangakakalot/b2/bokura_no_himitsu_o_kyouyuu_shiyou_ka/vol1_chapter_1_bokura_no_himitsu_wo_kyouyuu_shiyou_ka/27.jpg",
    "https://img-proxy.imgfo.com/?referer=https://manganelo.com&url=https://s5.mkklcdnv6temp.com/mangakakalot/b2/bokura_no_himitsu_o_kyouyuu_shiyou_ka/vol1_chapter_1_bokura_no_himitsu_wo_kyouyuu_shiyou_ka/28.jpg",
    "https://img-proxy.imgfo.com/?referer=https://manganelo.com&url=https://s5.mkklcdnv6temp.com/mangakakalot/b2/bokura_no_himitsu_o_kyouyuu_shiyou_ka/vol1_chapter_1_bokura_no_himitsu_wo_kyouyuu_shiyou_ka/29.jpg",
    "https://img-proxy.imgfo.com/?referer=https://manganelo.com&url=https://s5.mkklcdnv6temp.com/mangakakalot/b2/bokura_no_himitsu_o_kyouyuu_shiyou_ka/vol1_chapter_1_bokura_no_himitsu_wo_kyouyuu_shiyou_ka/30.jpg",
    "https://img-proxy.imgfo.com/?referer=https://manganelo.com&url=https://s5.mkklcdnv6temp.com/mangakakalot/b2/bokura_no_himitsu_o_kyouyuu_shiyou_ka/vol1_chapter_1_bokura_no_himitsu_wo_kyouyuu_shiyou_ka/31.jpg",
    "https://img-proxy.imgfo.com/?referer=https://manganelo.com&url=https://s5.mkklcdnv6temp.com/mangakakalot/b2/bokura_no_himitsu_o_kyouyuu_shiyou_ka/vol1_chapter_1_bokura_no_himitsu_wo_kyouyuu_shiyou_ka/32.jpg",
    "https://img-proxy.imgfo.com/?referer=https://manganelo.com&url=https://s5.mkklcdnv6temp.com/mangakakalot/b2/bokura_no_himitsu_o_kyouyuu_shiyou_ka/vol1_chapter_1_bokura_no_himitsu_wo_kyouyuu_shiyou_ka/33.jpg",
    "https://img-proxy.imgfo.com/?referer=https://manganelo.com&url=https://s5.mkklcdnv6temp.com/mangakakalot/b2/bokura_no_himitsu_o_kyouyuu_shiyou_ka/vol1_chapter_1_bokura_no_himitsu_wo_kyouyuu_shiyou_ka/34.jpg",
    "https://img-proxy.imgfo.com/?referer=https://manganelo.com&url=https://s5.mkklcdnv6temp.com/mangakakalot/b2/bokura_no_himitsu_o_kyouyuu_shiyou_ka/vol1_chapter_1_bokura_no_himitsu_wo_kyouyuu_shiyou_ka/35.jpg",
    "https://img-proxy.imgfo.com/?referer=https://manganelo.com&url=https://s5.mkklcdnv6temp.com/mangakakalot/b2/bokura_no_himitsu_o_kyouyuu_shiyou_ka/vol1_chapter_1_bokura_no_himitsu_wo_kyouyuu_shiyou_ka/36.jpg",
    "https://img-proxy.imgfo.com/?referer=https://manganelo.com&url=https://s5.mkklcdnv6temp.com/mangakakalot/b2/bokura_no_himitsu_o_kyouyuu_shiyou_ka/vol1_chapter_1_bokura_no_himitsu_wo_kyouyuu_shiyou_ka/37.jpg",
    "https://img-proxy.imgfo.com/?referer=https://manganelo.com&url=https://s5.mkklcdnv6temp.com/mangakakalot/b2/bokura_no_himitsu_o_kyouyuu_shiyou_ka/vol1_chapter_1_bokura_no_himitsu_wo_kyouyuu_shiyou_ka/38.jpg",
    "https://img-proxy.imgfo.com/?referer=https://manganelo.com&url=https://s5.mkklcdnv6temp.com/mangakakalot/b2/bokura_no_himitsu_o_kyouyuu_shiyou_ka/vol1_chapter_1_bokura_no_himitsu_wo_kyouyuu_shiyou_ka/39.jpg",
    "https://img-proxy.imgfo.com/?referer=https://manganelo.com&url=https://s5.mkklcdnv6temp.com/mangakakalot/b2/bokura_no_himitsu_o_kyouyuu_shiyou_ka/vol1_chapter_1_bokura_no_himitsu_wo_kyouyuu_shiyou_ka/40.jpg",
    "https://img-proxy.imgfo.com/?referer=https://manganelo.com&url=https://s5.mkklcdnv6temp.com/mangakakalot/b2/bokura_no_himitsu_o_kyouyuu_shiyou_ka/vol1_chapter_1_bokura_no_himitsu_wo_kyouyuu_shiyou_ka/41.jpg",
    "https://img-proxy.imgfo.com/?referer=https://manganelo.com&url=https://s5.mkklcdnv6temp.com/mangakakalot/b2/bokura_no_himitsu_o_kyouyuu_shiyou_ka/vol1_chapter_1_bokura_no_himitsu_wo_kyouyuu_shiyou_ka/42.jpg",
    "https://img-proxy.imgfo.com/?referer=https://manganelo.com&url=https://s5.mkklcdnv6temp.com/mangakakalot/b2/bokura_no_himitsu_o_kyouyuu_shiyou_ka/vol1_chapter_1_bokura_no_himitsu_wo_kyouyuu_shiyou_ka/43.jpg",
    "https://img-proxy.imgfo.com/?referer=https://manganelo.com&url=https://s5.mkklcdnv6temp.com/mangakakalot/b2/bokura_no_himitsu_o_kyouyuu_shiyou_ka/vol1_chapter_1_bokura_no_himitsu_wo_kyouyuu_shiyou_ka/44.jpg",
    "https://img-proxy.imgfo.com/?referer=https://manganelo.com&url=https://s5.mkklcdnv6temp.com/mangakakalot/b2/bokura_no_himitsu_o_kyouyuu_shiyou_ka/vol1_chapter_1_bokura_no_himitsu_wo_kyouyuu_shiyou_ka/45.jpg",
    "https://img-proxy.imgfo.com/?referer=https://manganelo.com&url=https://s5.mkklcdnv6temp.com/mangakakalot/b2/bokura_no_himitsu_o_kyouyuu_shiyou_ka/vol1_chapter_1_bokura_no_himitsu_wo_kyouyuu_shiyou_ka/46.jpg",
    "https://img-proxy.imgfo.com/?referer=https://manganelo.com&url=https://s5.mkklcdnv6temp.com/mangakakalot/b2/bokura_no_himitsu_o_kyouyuu_shiyou_ka/vol1_chapter_1_bokura_no_himitsu_wo_kyouyuu_shiyou_ka/47.jpg",
    "https://img-proxy.imgfo.com/?referer=https://manganelo.com&url=https://s5.mkklcdnv6temp.com/mangakakalot/b2/bokura_no_himitsu_o_kyouyuu_shiyou_ka/vol1_chapter_1_bokura_no_himitsu_wo_kyouyuu_shiyou_ka/48.jpg",
    "https://img-proxy.imgfo.com/?referer=https://manganelo.com&url=https://s5.mkklcdnv6temp.com/mangakakalot/b2/bokura_no_himitsu_o_kyouyuu_shiyou_ka/vol1_chapter_1_bokura_no_himitsu_wo_kyouyuu_shiyou_ka/49.jpg",
    "https://img-proxy.imgfo.com/?referer=https://manganelo.com&url=https://s5.mkklcdnv6temp.com/mangakakalot/b2/bokura_no_himitsu_o_kyouyuu_shiyou_ka/vol1_chapter_1_bokura_no_himitsu_wo_kyouyuu_shiyou_ka/50.jpg",
    "https://img-proxy.imgfo.com/?referer=https://manganelo.com&url=https://s5.mkklcdnv6temp.com/mangakakalot/b2/bokura_no_himitsu_o_kyouyuu_shiyou_ka/vol1_chapter_1_bokura_no_himitsu_wo_kyouyuu_shiyou_ka/51.jpg",
    "https://img-proxy.imgfo.com/?referer=https://manganelo.com&url=https://s5.mkklcdnv6temp.com/mangakakalot/b2/bokura_no_himitsu_o_kyouyuu_shiyou_ka/vol1_chapter_1_bokura_no_himitsu_wo_kyouyuu_shiyou_ka/52.jpg"
  ]
}