{
  "cover": "https://avt.mkklcdnv6.com/44/b/3-1583469404.jpg",
  "title": "Love Riron",
  "original": "Love Theory ; LOVE理論 ; LOVE理论",
  "genre": "Comedy, Ecchi, Romance, Seinen, Supernatural, Manga",
  "author": "Mizuno Keiya",
  "status": "Completed",
  "backlink": "https://manganu.com/collections/mizuno-keiya/love-riron/",
  "description": "Loser Yarahata Kanji can't even have a normal conversation with a girl let alone have any kind of relationship with one. But one day a ghost named Aiya appears and declares that he has been tasked with the mission to change Kanji's life. At this rate, the Yarahata name will not live on so Aiya will become a love doctor and coach him on how to develop relationships with girls.\nThe first hurdle comes when he starts a part time job at a convenience store and sees that his co-worker is a hot girl named Yoshizato Saki who also happens to be the store owner's daughter. With the help of Aiya, Kanji, although stumbling along the way, has a conversation with her and builds a relationship. But he has miles to go if he wants to be the kind of person that can date beautiful women.",
  "language": "English",
  "images": [
    "https://img-proxy.imgfo.com/?referer=https://manganelo.com&url=https://s3.mkklcdnv6temp.com/mangakakalot/l2/love_riron/vol1_chapter_8_the_team_japan_theory/1.jpg",
    "https://img-proxy.imgfo.com/?referer=https://manganelo.com&url=https://s3.mkklcdnv6temp.com/mangakakalot/l2/love_riron/vol1_chapter_8_the_team_japan_theory/2.jpg",
    "https://img-proxy.imgfo.com/?referer=https://manganelo.com&url=https://s3.mkklcdnv6temp.com/mangakakalot/l2/love_riron/vol1_chapter_8_the_team_japan_theory/3.jpg",
    "https://img-proxy.imgfo.com/?referer=https://manganelo.com&url=https://s3.mkklcdnv6temp.com/mangakakalot/l2/love_riron/vol1_chapter_8_the_team_japan_theory/4.jpg",
    "https://img-proxy.imgfo.com/?referer=https://manganelo.com&url=https://s3.mkklcdnv6temp.com/mangakakalot/l2/love_riron/vol1_chapter_8_the_team_japan_theory/5.jpg",
    "https://img-proxy.imgfo.com/?referer=https://manganelo.com&url=https://s3.mkklcdnv6temp.com/mangakakalot/l2/love_riron/vol1_chapter_8_the_team_japan_theory/6.jpg",
    "https://img-proxy.imgfo.com/?referer=https://manganelo.com&url=https://s3.mkklcdnv6temp.com/mangakakalot/l2/love_riron/vol1_chapter_8_the_team_japan_theory/7.jpg",
    "https://img-proxy.imgfo.com/?referer=https://manganelo.com&url=https://s3.mkklcdnv6temp.com/mangakakalot/l2/love_riron/vol1_chapter_8_the_team_japan_theory/8.jpg",
    "https://img-proxy.imgfo.com/?referer=https://manganelo.com&url=https://s3.mkklcdnv6temp.com/mangakakalot/l2/love_riron/vol1_chapter_8_the_team_japan_theory/9.jpg",
    "https://img-proxy.imgfo.com/?referer=https://manganelo.com&url=https://s3.mkklcdnv6temp.com/mangakakalot/l2/love_riron/vol1_chapter_8_the_team_japan_theory/10.jpg",
    "https://img-proxy.imgfo.com/?referer=https://manganelo.com&url=https://s3.mkklcdnv6temp.com/mangakakalot/l2/love_riron/vol1_chapter_8_the_team_japan_theory/11.jpg",
    "https://img-proxy.imgfo.com/?referer=https://manganelo.com&url=https://s3.mkklcdnv6temp.com/mangakakalot/l2/love_riron/vol1_chapter_8_the_team_japan_theory/12.jpg",
    "https://img-proxy.imgfo.com/?referer=https://manganelo.com&url=https://s3.mkklcdnv6temp.com/mangakakalot/l2/love_riron/vol1_chapter_8_the_team_japan_theory/13.jpg",
    "https://img-proxy.imgfo.com/?referer=https://manganelo.com&url=https://s3.mkklcdnv6temp.com/mangakakalot/l2/love_riron/vol1_chapter_8_the_team_japan_theory/14.jpg",
    "https://img-proxy.imgfo.com/?referer=https://manganelo.com&url=https://s3.mkklcdnv6temp.com/mangakakalot/l2/love_riron/vol1_chapter_8_the_team_japan_theory/15.jpg",
    "https://img-proxy.imgfo.com/?referer=https://manganelo.com&url=https://s3.mkklcdnv6temp.com/mangakakalot/l2/love_riron/vol1_chapter_8_the_team_japan_theory/16.jpg",
    "https://img-proxy.imgfo.com/?referer=https://manganelo.com&url=https://s3.mkklcdnv6temp.com/mangakakalot/l2/love_riron/vol1_chapter_8_the_team_japan_theory/17.jpg"
  ]
}