{
  "cover": "https://avt.mkklcdnv6.com/2/s/5-1583471931.jpg",
  "title": "Trigun",
  "genre": "Action, Adventure, Comedy, Sci fi, Shounen, Manga",
  "author": "Nightow Yasuhiro",
  "status": "Completed",
  "backlink": "https://manganu.com/collections/nightow-yasuhiro/trigun/",
  "description": "Vash the Stampede is a gunman on the run with a 60 billion double dollar bounty on his head which has made it difficult for him to go anywhere without being chased and shot at. Because of the bounty, every town he ever visit ends up being destroyed because of his pursuers, and miracliously, no one ever gets killed. Meryl and Milly are two insurance agents that have been sent to find Vash the Stampede and keep him under surveillance so no more damage is caused. Meryl, who leads the pair, can&#39;t believe that the man they have met can possibly be the legendary gunman. This spikey haired, gangly, and blonde young man is extremely friendly, a pacifist, hates blood and suicide, absolutely loves donuts, and is a dork and a crybaby...there is no way he could he be Vash the Stampede, a notorious outlaw. However, there&#39;s more to Vash than just smiles and dounuts.",
  "language": "English",
  "images": [
    "https://img-proxy.imgfo.com/?referer=https://manganelo.com&url=https://s41.mkklcdnv6temp.com/mangakakalot/t2/trigun/vol1_chapter_1_the_160000000000_man/1.jpg",
    "https://img-proxy.imgfo.com/?referer=https://manganelo.com&url=https://s41.mkklcdnv6temp.com/mangakakalot/t2/trigun/vol1_chapter_1_the_160000000000_man/2.jpg",
    "https://img-proxy.imgfo.com/?referer=https://manganelo.com&url=https://s41.mkklcdnv6temp.com/mangakakalot/t2/trigun/vol1_chapter_1_the_160000000000_man/3.jpg",
    "https://img-proxy.imgfo.com/?referer=https://manganelo.com&url=https://s41.mkklcdnv6temp.com/mangakakalot/t2/trigun/vol1_chapter_1_the_160000000000_man/4.jpg",
    "https://img-proxy.imgfo.com/?referer=https://manganelo.com&url=https://s41.mkklcdnv6temp.com/mangakakalot/t2/trigun/vol1_chapter_1_the_160000000000_man/5.jpg",
    "https://img-proxy.imgfo.com/?referer=https://manganelo.com&url=https://s41.mkklcdnv6temp.com/mangakakalot/t2/trigun/vol1_chapter_1_the_160000000000_man/6.jpg",
    "https://img-proxy.imgfo.com/?referer=https://manganelo.com&url=https://s41.mkklcdnv6temp.com/mangakakalot/t2/trigun/vol1_chapter_1_the_160000000000_man/7.jpg",
    "https://img-proxy.imgfo.com/?referer=https://manganelo.com&url=https://s41.mkklcdnv6temp.com/mangakakalot/t2/trigun/vol1_chapter_1_the_160000000000_man/8.jpg",
    "https://img-proxy.imgfo.com/?referer=https://manganelo.com&url=https://s41.mkklcdnv6temp.com/mangakakalot/t2/trigun/vol1_chapter_1_the_160000000000_man/9.jpg",
    "https://img-proxy.imgfo.com/?referer=https://manganelo.com&url=https://s41.mkklcdnv6temp.com/mangakakalot/t2/trigun/vol1_chapter_1_the_160000000000_man/10.jpg",
    "https://img-proxy.imgfo.com/?referer=https://manganelo.com&url=https://s41.mkklcdnv6temp.com/mangakakalot/t2/trigun/vol1_chapter_1_the_160000000000_man/11.jpg",
    "https://img-proxy.imgfo.com/?referer=https://manganelo.com&url=https://s41.mkklcdnv6temp.com/mangakakalot/t2/trigun/vol1_chapter_1_the_160000000000_man/12.jpg",
    "https://img-proxy.imgfo.com/?referer=https://manganelo.com&url=https://s41.mkklcdnv6temp.com/mangakakalot/t2/trigun/vol1_chapter_1_the_160000000000_man/13.jpg",
    "https://img-proxy.imgfo.com/?referer=https://manganelo.com&url=https://s41.mkklcdnv6temp.com/mangakakalot/t2/trigun/vol1_chapter_1_the_160000000000_man/14.jpg",
    "https://img-proxy.imgfo.com/?referer=https://manganelo.com&url=https://s41.mkklcdnv6temp.com/mangakakalot/t2/trigun/vol1_chapter_1_the_160000000000_man/15.jpg",
    "https://img-proxy.imgfo.com/?referer=https://manganelo.com&url=https://s41.mkklcdnv6temp.com/mangakakalot/t2/trigun/vol1_chapter_1_the_160000000000_man/16.jpg",
    "https://img-proxy.imgfo.com/?referer=https://manganelo.com&url=https://s41.mkklcdnv6temp.com/mangakakalot/t2/trigun/vol1_chapter_1_the_160000000000_man/17.jpg",
    "https://img-proxy.imgfo.com/?referer=https://manganelo.com&url=https://s41.mkklcdnv6temp.com/mangakakalot/t2/trigun/vol1_chapter_1_the_160000000000_man/18.jpg",
    "https://img-proxy.imgfo.com/?referer=https://manganelo.com&url=https://s41.mkklcdnv6temp.com/mangakakalot/t2/trigun/vol1_chapter_1_the_160000000000_man/19.jpg",
    "https://img-proxy.imgfo.com/?referer=https://manganelo.com&url=https://s41.mkklcdnv6temp.com/mangakakalot/t2/trigun/vol1_chapter_1_the_160000000000_man/20.jpg",
    "https://img-proxy.imgfo.com/?referer=https://manganelo.com&url=https://s41.mkklcdnv6temp.com/mangakakalot/t2/trigun/vol1_chapter_1_the_160000000000_man/21.jpg",
    "https://img-proxy.imgfo.com/?referer=https://manganelo.com&url=https://s41.mkklcdnv6temp.com/mangakakalot/t2/trigun/vol1_chapter_1_the_160000000000_man/22.jpg",
    "https://img-proxy.imgfo.com/?referer=https://manganelo.com&url=https://s41.mkklcdnv6temp.com/mangakakalot/t2/trigun/vol1_chapter_1_the_160000000000_man/23.jpg",
    "https://img-proxy.imgfo.com/?referer=https://manganelo.com&url=https://s41.mkklcdnv6temp.com/mangakakalot/t2/trigun/vol1_chapter_1_the_160000000000_man/24.jpg",
    "https://img-proxy.imgfo.com/?referer=https://manganelo.com&url=https://s41.mkklcdnv6temp.com/mangakakalot/t2/trigun/vol1_chapter_1_the_160000000000_man/25.jpg",
    "https://img-proxy.imgfo.com/?referer=https://manganelo.com&url=https://s41.mkklcdnv6temp.com/mangakakalot/t2/trigun/vol1_chapter_1_the_160000000000_man/26.jpg",
    "https://img-proxy.imgfo.com/?referer=https://manganelo.com&url=https://s41.mkklcdnv6temp.com/mangakakalot/t2/trigun/vol1_chapter_1_the_160000000000_man/27.jpg",
    "https://img-proxy.imgfo.com/?referer=https://manganelo.com&url=https://s41.mkklcdnv6temp.com/mangakakalot/t2/trigun/vol1_chapter_1_the_160000000000_man/28.jpg",
    "https://img-proxy.imgfo.com/?referer=https://manganelo.com&url=https://s41.mkklcdnv6temp.com/mangakakalot/t2/trigun/vol1_chapter_1_the_160000000000_man/29.jpg",
    "https://img-proxy.imgfo.com/?referer=https://manganelo.com&url=https://s41.mkklcdnv6temp.com/mangakakalot/t2/trigun/vol1_chapter_1_the_160000000000_man/30.jpg",
    "https://img-proxy.imgfo.com/?referer=https://manganelo.com&url=https://s41.mkklcdnv6temp.com/mangakakalot/t2/trigun/vol1_chapter_1_the_160000000000_man/31.jpg"
  ]
}