{
  "cover": "https://avt.mkklcdnv6.com/38/n/9-1583481671.jpg",
  "title": "Tobaku Hakairoku Kaiji",
  "original": "è³­åšç ´æˆ’éŒ²ã‚«ã‚¤ã‚¸ ; Kaiji Part 2 ; Kaiji, Hakairoku",
  "genre": "Drama, Psychological, Seinen, Sports, Tragedy, Manga",
  "author": "Fukumoto Nobuyuki",
  "status": "Completed",
  "backlink": "https://manganu.com/collections/fukumoto-nobuyuki/tobaku-hakairoku-kaiji/",
  "description": "After Kaiji's showdown with Chairman Hyoudo at Starside Hotel Kaiji is forced into labor at an underground mine. With meager wages each day, he will work for decades unless he doesn't do something.\nNow Kaiji must wager his earnings in underground Chinchirorin gambles for a ticket to the rest of the world. But even if he surfaces, he only has one chance to pay back his enormous debt, and that is by challenging the \"unbeatable\" Pachinko machine, The Bog.\nThe Kaiji series is divided into four parts:\n1. Tobaku Mokushiroku Kaiji\n2. Tobaku Hakairoku Kaiji\n3. Tobaku Datenroku Kaiji\n4. Tobaku Datenroku Kaiji: Kazuyahen\nNote: The group ZAWAnons started this manga as volume 14 of the Kaiji series.",
  "language": "English",
  "images": [
    "https://img-proxy.imgfo.com/?referer=https://manganelo.com&url=https://s41.mkklcdnv6temp.com/mangakakalot/t2/tobaku_hakairoku_kaiji/vol13_chapter_129/1.jpg",
    "https://img-proxy.imgfo.com/?referer=https://manganelo.com&url=https://s41.mkklcdnv6temp.com/mangakakalot/t2/tobaku_hakairoku_kaiji/vol13_chapter_129/2.jpg",
    "https://img-proxy.imgfo.com/?referer=https://manganelo.com&url=https://s41.mkklcdnv6temp.com/mangakakalot/t2/tobaku_hakairoku_kaiji/vol13_chapter_129/3.jpg",
    "https://img-proxy.imgfo.com/?referer=https://manganelo.com&url=https://s41.mkklcdnv6temp.com/mangakakalot/t2/tobaku_hakairoku_kaiji/vol13_chapter_129/4.jpg",
    "https://img-proxy.imgfo.com/?referer=https://manganelo.com&url=https://s41.mkklcdnv6temp.com/mangakakalot/t2/tobaku_hakairoku_kaiji/vol13_chapter_129/5.jpg",
    "https://img-proxy.imgfo.com/?referer=https://manganelo.com&url=https://s41.mkklcdnv6temp.com/mangakakalot/t2/tobaku_hakairoku_kaiji/vol13_chapter_129/6.jpg",
    "https://img-proxy.imgfo.com/?referer=https://manganelo.com&url=https://s41.mkklcdnv6temp.com/mangakakalot/t2/tobaku_hakairoku_kaiji/vol13_chapter_129/7.jpg",
    "https://img-proxy.imgfo.com/?referer=https://manganelo.com&url=https://s41.mkklcdnv6temp.com/mangakakalot/t2/tobaku_hakairoku_kaiji/vol13_chapter_129/8.jpg",
    "https://img-proxy.imgfo.com/?referer=https://manganelo.com&url=https://s41.mkklcdnv6temp.com/mangakakalot/t2/tobaku_hakairoku_kaiji/vol13_chapter_129/9.jpg",
    "https://img-proxy.imgfo.com/?referer=https://manganelo.com&url=https://s41.mkklcdnv6temp.com/mangakakalot/t2/tobaku_hakairoku_kaiji/vol13_chapter_129/10.jpg",
    "https://img-proxy.imgfo.com/?referer=https://manganelo.com&url=https://s41.mkklcdnv6temp.com/mangakakalot/t2/tobaku_hakairoku_kaiji/vol13_chapter_129/11.jpg",
    "https://img-proxy.imgfo.com/?referer=https://manganelo.com&url=https://s41.mkklcdnv6temp.com/mangakakalot/t2/tobaku_hakairoku_kaiji/vol13_chapter_129/12.jpg",
    "https://img-proxy.imgfo.com/?referer=https://manganelo.com&url=https://s41.mkklcdnv6temp.com/mangakakalot/t2/tobaku_hakairoku_kaiji/vol13_chapter_129/13.jpg",
    "https://img-proxy.imgfo.com/?referer=https://manganelo.com&url=https://s41.mkklcdnv6temp.com/mangakakalot/t2/tobaku_hakairoku_kaiji/vol13_chapter_129/14.jpg",
    "https://img-proxy.imgfo.com/?referer=https://manganelo.com&url=https://s41.mkklcdnv6temp.com/mangakakalot/t2/tobaku_hakairoku_kaiji/vol13_chapter_129/15.jpg",
    "https://img-proxy.imgfo.com/?referer=https://manganelo.com&url=https://s41.mkklcdnv6temp.com/mangakakalot/t2/tobaku_hakairoku_kaiji/vol13_chapter_129/16.jpg",
    "https://img-proxy.imgfo.com/?referer=https://manganelo.com&url=https://s41.mkklcdnv6temp.com/mangakakalot/t2/tobaku_hakairoku_kaiji/vol13_chapter_129/17.jpg",
    "https://img-proxy.imgfo.com/?referer=https://manganelo.com&url=https://s41.mkklcdnv6temp.com/mangakakalot/t2/tobaku_hakairoku_kaiji/vol13_chapter_129/18.jpg",
    "https://img-proxy.imgfo.com/?referer=https://manganelo.com&url=https://s41.mkklcdnv6temp.com/mangakakalot/t2/tobaku_hakairoku_kaiji/vol13_chapter_129/19.jpg",
    "https://img-proxy.imgfo.com/?referer=https://manganelo.com&url=https://s41.mkklcdnv6temp.com/mangakakalot/t2/tobaku_hakairoku_kaiji/vol13_chapter_129/20.jpg",
    "https://img-proxy.imgfo.com/?referer=https://manganelo.com&url=https://s41.mkklcdnv6temp.com/mangakakalot/t2/tobaku_hakairoku_kaiji/vol13_chapter_129/21.jpg"
  ]
}