{
  "cover": "https://avt.mkklcdnv6.com/35/y/6-1583475582.jpg",
  "title": "Captain Tsubasa World Youth",
  "original": "キャプテン翼 ワールドユース編 ; 足球小将世青篇 ; Kyaputen Tsubasa",
  "genre": "Drama, Shounen, Sports, Manga",
  "author": "Takahashi Yoichi",
  "status": "Completed",
  "backlink": "https://manganu.com/collections/takahashi-yoichi/captain-tsubasa-world-youth/",
  "description": "Tsubasa and his teammates want to win the World Youth, the under-20 world cup. They discover new talented teammates, but also new rivals in Asia and in the rest of the world, and this time, Brazil will be here...",
  "language": "English",
  "images": [
    "https://img-proxy.imgfo.com/?referer=https://manganelo.com&url=https://s5.mkklcdnv6temp.com/mangakakalot/c1/captain_tsubasa_world_youth/vol3_chapter_9_from_bara_to_santana/1.jpg",
    "https://img-proxy.imgfo.com/?referer=https://manganelo.com&url=https://s5.mkklcdnv6temp.com/mangakakalot/c1/captain_tsubasa_world_youth/vol3_chapter_9_from_bara_to_santana/2.jpg",
    "https://img-proxy.imgfo.com/?referer=https://manganelo.com&url=https://s5.mkklcdnv6temp.com/mangakakalot/c1/captain_tsubasa_world_youth/vol3_chapter_9_from_bara_to_santana/3.jpg",
    "https://img-proxy.imgfo.com/?referer=https://manganelo.com&url=https://s5.mkklcdnv6temp.com/mangakakalot/c1/captain_tsubasa_world_youth/vol3_chapter_9_from_bara_to_santana/4.jpg",
    "https://img-proxy.imgfo.com/?referer=https://manganelo.com&url=https://s5.mkklcdnv6temp.com/mangakakalot/c1/captain_tsubasa_world_youth/vol3_chapter_9_from_bara_to_santana/5.jpg",
    "https://img-proxy.imgfo.com/?referer=https://manganelo.com&url=https://s5.mkklcdnv6temp.com/mangakakalot/c1/captain_tsubasa_world_youth/vol3_chapter_9_from_bara_to_santana/6.jpg",
    "https://img-proxy.imgfo.com/?referer=https://manganelo.com&url=https://s5.mkklcdnv6temp.com/mangakakalot/c1/captain_tsubasa_world_youth/vol3_chapter_9_from_bara_to_santana/7.jpg",
    "https://img-proxy.imgfo.com/?referer=https://manganelo.com&url=https://s5.mkklcdnv6temp.com/mangakakalot/c1/captain_tsubasa_world_youth/vol3_chapter_9_from_bara_to_santana/8.jpg",
    "https://img-proxy.imgfo.com/?referer=https://manganelo.com&url=https://s5.mkklcdnv6temp.com/mangakakalot/c1/captain_tsubasa_world_youth/vol3_chapter_9_from_bara_to_santana/9.jpg",
    "https://img-proxy.imgfo.com/?referer=https://manganelo.com&url=https://s5.mkklcdnv6temp.com/mangakakalot/c1/captain_tsubasa_world_youth/vol3_chapter_9_from_bara_to_santana/10.jpg",
    "https://img-proxy.imgfo.com/?referer=https://manganelo.com&url=https://s5.mkklcdnv6temp.com/mangakakalot/c1/captain_tsubasa_world_youth/vol3_chapter_9_from_bara_to_santana/11.jpg",
    "https://img-proxy.imgfo.com/?referer=https://manganelo.com&url=https://s5.mkklcdnv6temp.com/mangakakalot/c1/captain_tsubasa_world_youth/vol3_chapter_9_from_bara_to_santana/12.jpg",
    "https://img-proxy.imgfo.com/?referer=https://manganelo.com&url=https://s5.mkklcdnv6temp.com/mangakakalot/c1/captain_tsubasa_world_youth/vol3_chapter_9_from_bara_to_santana/13.jpg",
    "https://img-proxy.imgfo.com/?referer=https://manganelo.com&url=https://s5.mkklcdnv6temp.com/mangakakalot/c1/captain_tsubasa_world_youth/vol3_chapter_9_from_bara_to_santana/14.jpg",
    "https://img-proxy.imgfo.com/?referer=https://manganelo.com&url=https://s5.mkklcdnv6temp.com/mangakakalot/c1/captain_tsubasa_world_youth/vol3_chapter_9_from_bara_to_santana/15.jpg",
    "https://img-proxy.imgfo.com/?referer=https://manganelo.com&url=https://s5.mkklcdnv6temp.com/mangakakalot/c1/captain_tsubasa_world_youth/vol3_chapter_9_from_bara_to_santana/16.jpg",
    "https://img-proxy.imgfo.com/?referer=https://manganelo.com&url=https://s5.mkklcdnv6temp.com/mangakakalot/c1/captain_tsubasa_world_youth/vol3_chapter_9_from_bara_to_santana/17.jpg",
    "https://img-proxy.imgfo.com/?referer=https://manganelo.com&url=https://s5.mkklcdnv6temp.com/mangakakalot/c1/captain_tsubasa_world_youth/vol3_chapter_9_from_bara_to_santana/18.jpg",
    "https://img-proxy.imgfo.com/?referer=https://manganelo.com&url=https://s5.mkklcdnv6temp.com/mangakakalot/c1/captain_tsubasa_world_youth/vol3_chapter_9_from_bara_to_santana/19.jpg",
    "https://img-proxy.imgfo.com/?referer=https://manganelo.com&url=https://s5.mkklcdnv6temp.com/mangakakalot/c1/captain_tsubasa_world_youth/vol3_chapter_9_from_bara_to_santana/20.jpg",
    "https://img-proxy.imgfo.com/?referer=https://manganelo.com&url=https://s5.mkklcdnv6temp.com/mangakakalot/c1/captain_tsubasa_world_youth/vol3_chapter_9_from_bara_to_santana/21.jpg",
    "https://img-proxy.imgfo.com/?referer=https://manganelo.com&url=https://s5.mkklcdnv6temp.com/mangakakalot/c1/captain_tsubasa_world_youth/vol3_chapter_9_from_bara_to_santana/22.jpg",
    "https://img-proxy.imgfo.com/?referer=https://manganelo.com&url=https://s5.mkklcdnv6temp.com/mangakakalot/c1/captain_tsubasa_world_youth/vol3_chapter_9_from_bara_to_santana/23.jpg",
    "https://img-proxy.imgfo.com/?referer=https://manganelo.com&url=https://s5.mkklcdnv6temp.com/mangakakalot/c1/captain_tsubasa_world_youth/vol3_chapter_9_from_bara_to_santana/24.jpg",
    "https://img-proxy.imgfo.com/?referer=https://manganelo.com&url=https://s5.mkklcdnv6temp.com/mangakakalot/c1/captain_tsubasa_world_youth/vol3_chapter_9_from_bara_to_santana/25.jpg",
    "https://img-proxy.imgfo.com/?referer=https://manganelo.com&url=https://s5.mkklcdnv6temp.com/mangakakalot/c1/captain_tsubasa_world_youth/vol3_chapter_9_from_bara_to_santana/26.jpg",
    "https://img-proxy.imgfo.com/?referer=https://manganelo.com&url=https://s5.mkklcdnv6temp.com/mangakakalot/c1/captain_tsubasa_world_youth/vol3_chapter_9_from_bara_to_santana/27.jpg",
    "https://img-proxy.imgfo.com/?referer=https://manganelo.com&url=https://s5.mkklcdnv6temp.com/mangakakalot/c1/captain_tsubasa_world_youth/vol3_chapter_9_from_bara_to_santana/28.jpg",
    "https://img-proxy.imgfo.com/?referer=https://manganelo.com&url=https://s5.mkklcdnv6temp.com/mangakakalot/c1/captain_tsubasa_world_youth/vol3_chapter_9_from_bara_to_santana/29.jpg"
  ]
}