{
  "cover": "https://avt.mkklcdnv6.com/39/j/2-1583467217.jpg",
  "title": "Watashi No Ookami-Kun",
  "original": "私のオオカミくん (Japanese); 나의 늑대군 (Korean); 我的大神君 (Chinese); ذلك الفتى الذئب ملكي! (Arabic); นายหมาป่าโอกามิคุง (Thai); Mein wildes Geheimnis (German); That Wolf-Boy Is Mine! (English)",
  "genre": "Comedy, Drama, Romance, School life, Shoujo, Supernatural, Manga",
  "author": "Nogiri Youko",
  "status": "Completed",
  "backlink": "https://manganu.com/collections/nogiri-youko/watashi-no-ookami-kun/",
  "description": "Kusonoki Komugi lives with her mother in Tokyo and can&#39;t get along with classmates. Because of her mother&#39;s business trip, she has to stay with her father in Hokkaido for a year. She thinks she will have opportunities to make new friends. She got to sit next to Ookami Yuu, a popular boy who tells her she smells good. One day, she discovers his secret...",
  "language": "English",
  "images": [
    "https://img-proxy.imgfo.com/?referer=https://manganelo.com&url=https://s7.mkklcdnv6temp.com/mangakakalot/w1/watashi_no_ookamikun/vol4_chapter_14/1.jpg",
    "https://img-proxy.imgfo.com/?referer=https://manganelo.com&url=https://s7.mkklcdnv6temp.com/mangakakalot/w1/watashi_no_ookamikun/vol4_chapter_14/2.jpg",
    "https://img-proxy.imgfo.com/?referer=https://manganelo.com&url=https://s7.mkklcdnv6temp.com/mangakakalot/w1/watashi_no_ookamikun/vol4_chapter_14/3.jpg",
    "https://img-proxy.imgfo.com/?referer=https://manganelo.com&url=https://s7.mkklcdnv6temp.com/mangakakalot/w1/watashi_no_ookamikun/vol4_chapter_14/4.jpg",
    "https://img-proxy.imgfo.com/?referer=https://manganelo.com&url=https://s7.mkklcdnv6temp.com/mangakakalot/w1/watashi_no_ookamikun/vol4_chapter_14/5.jpg",
    "https://img-proxy.imgfo.com/?referer=https://manganelo.com&url=https://s7.mkklcdnv6temp.com/mangakakalot/w1/watashi_no_ookamikun/vol4_chapter_14/6.jpg",
    "https://img-proxy.imgfo.com/?referer=https://manganelo.com&url=https://s7.mkklcdnv6temp.com/mangakakalot/w1/watashi_no_ookamikun/vol4_chapter_14/7.jpg",
    "https://img-proxy.imgfo.com/?referer=https://manganelo.com&url=https://s7.mkklcdnv6temp.com/mangakakalot/w1/watashi_no_ookamikun/vol4_chapter_14/8.jpg",
    "https://img-proxy.imgfo.com/?referer=https://manganelo.com&url=https://s7.mkklcdnv6temp.com/mangakakalot/w1/watashi_no_ookamikun/vol4_chapter_14/9.jpg",
    "https://img-proxy.imgfo.com/?referer=https://manganelo.com&url=https://s7.mkklcdnv6temp.com/mangakakalot/w1/watashi_no_ookamikun/vol4_chapter_14/10.jpg",
    "https://img-proxy.imgfo.com/?referer=https://manganelo.com&url=https://s7.mkklcdnv6temp.com/mangakakalot/w1/watashi_no_ookamikun/vol4_chapter_14/11.jpg",
    "https://img-proxy.imgfo.com/?referer=https://manganelo.com&url=https://s7.mkklcdnv6temp.com/mangakakalot/w1/watashi_no_ookamikun/vol4_chapter_14/12.jpg",
    "https://img-proxy.imgfo.com/?referer=https://manganelo.com&url=https://s7.mkklcdnv6temp.com/mangakakalot/w1/watashi_no_ookamikun/vol4_chapter_14/13.jpg",
    "https://img-proxy.imgfo.com/?referer=https://manganelo.com&url=https://s7.mkklcdnv6temp.com/mangakakalot/w1/watashi_no_ookamikun/vol4_chapter_14/14.jpg",
    "https://img-proxy.imgfo.com/?referer=https://manganelo.com&url=https://s7.mkklcdnv6temp.com/mangakakalot/w1/watashi_no_ookamikun/vol4_chapter_14/15.jpg",
    "https://img-proxy.imgfo.com/?referer=https://manganelo.com&url=https://s7.mkklcdnv6temp.com/mangakakalot/w1/watashi_no_ookamikun/vol4_chapter_14/16.jpg",
    "https://img-proxy.imgfo.com/?referer=https://manganelo.com&url=https://s7.mkklcdnv6temp.com/mangakakalot/w1/watashi_no_ookamikun/vol4_chapter_14/17.jpg",
    "https://img-proxy.imgfo.com/?referer=https://manganelo.com&url=https://s7.mkklcdnv6temp.com/mangakakalot/w1/watashi_no_ookamikun/vol4_chapter_14/18.jpg",
    "https://img-proxy.imgfo.com/?referer=https://manganelo.com&url=https://s7.mkklcdnv6temp.com/mangakakalot/w1/watashi_no_ookamikun/vol4_chapter_14/19.jpg",
    "https://img-proxy.imgfo.com/?referer=https://manganelo.com&url=https://s7.mkklcdnv6temp.com/mangakakalot/w1/watashi_no_ookamikun/vol4_chapter_14/20.jpg",
    "https://img-proxy.imgfo.com/?referer=https://manganelo.com&url=https://s7.mkklcdnv6temp.com/mangakakalot/w1/watashi_no_ookamikun/vol4_chapter_14/21.jpg",
    "https://img-proxy.imgfo.com/?referer=https://manganelo.com&url=https://s7.mkklcdnv6temp.com/mangakakalot/w1/watashi_no_ookamikun/vol4_chapter_14/22.jpg",
    "https://img-proxy.imgfo.com/?referer=https://manganelo.com&url=https://s7.mkklcdnv6temp.com/mangakakalot/w1/watashi_no_ookamikun/vol4_chapter_14/23.jpg",
    "https://img-proxy.imgfo.com/?referer=https://manganelo.com&url=https://s7.mkklcdnv6temp.com/mangakakalot/w1/watashi_no_ookamikun/vol4_chapter_14/24.jpg",
    "https://img-proxy.imgfo.com/?referer=https://manganelo.com&url=https://s7.mkklcdnv6temp.com/mangakakalot/w1/watashi_no_ookamikun/vol4_chapter_14/25.jpg",
    "https://img-proxy.imgfo.com/?referer=https://manganelo.com&url=https://s7.mkklcdnv6temp.com/mangakakalot/w1/watashi_no_ookamikun/vol4_chapter_14/26.jpg",
    "https://img-proxy.imgfo.com/?referer=https://manganelo.com&url=https://s7.mkklcdnv6temp.com/mangakakalot/w1/watashi_no_ookamikun/vol4_chapter_14/27.jpg",
    "https://img-proxy.imgfo.com/?referer=https://manganelo.com&url=https://s7.mkklcdnv6temp.com/mangakakalot/w1/watashi_no_ookamikun/vol4_chapter_14/28.jpg",
    "https://img-proxy.imgfo.com/?referer=https://manganelo.com&url=https://s7.mkklcdnv6temp.com/mangakakalot/w1/watashi_no_ookamikun/vol4_chapter_14/29.jpg",
    "https://img-proxy.imgfo.com/?referer=https://manganelo.com&url=https://s7.mkklcdnv6temp.com/mangakakalot/w1/watashi_no_ookamikun/vol4_chapter_14/30.jpg",
    "https://img-proxy.imgfo.com/?referer=https://manganelo.com&url=https://s7.mkklcdnv6temp.com/mangakakalot/w1/watashi_no_ookamikun/vol4_chapter_14/31.jpg"
  ]
}