{
  "cover": "https://avt.mkklcdnv6.com/3/r/7-1583476425.jpg",
  "title": "Alien Nine",
  "original": "Alien 9 ; エイリアン９ ; ALIEN9 ; Eirian 9",
  "genre": "Action, Horror, Sci fi, Seinen, Tragedy, Manga",
  "author": "Tomizawa Hitoshi",
  "status": "Completed",
  "backlink": "https://manganu.com/collections/tomizawa-hitoshi/alien-nine/",
  "description": "In the future, alien invasion is a daily occurrence and everyone must be prepared. Elementary School #9 has assigned three students to fight off the extra-terrestrial threat.",
  "language": "English",
  "images": [
    "https://img-proxy.imgfo.com/?referer=https://manganelo.com&url=https://s7.mkklcdnv6temp.com/mangakakalot/a1/alien_nine/vol01_chapter_2_operation_2_kumi/1.jpg",
    "https://img-proxy.imgfo.com/?referer=https://manganelo.com&url=https://s7.mkklcdnv6temp.com/mangakakalot/a1/alien_nine/vol01_chapter_2_operation_2_kumi/2.jpg",
    "https://img-proxy.imgfo.com/?referer=https://manganelo.com&url=https://s7.mkklcdnv6temp.com/mangakakalot/a1/alien_nine/vol01_chapter_2_operation_2_kumi/3.jpg",
    "https://img-proxy.imgfo.com/?referer=https://manganelo.com&url=https://s7.mkklcdnv6temp.com/mangakakalot/a1/alien_nine/vol01_chapter_2_operation_2_kumi/4.jpg",
    "https://img-proxy.imgfo.com/?referer=https://manganelo.com&url=https://s7.mkklcdnv6temp.com/mangakakalot/a1/alien_nine/vol01_chapter_2_operation_2_kumi/5.jpg",
    "https://img-proxy.imgfo.com/?referer=https://manganelo.com&url=https://s7.mkklcdnv6temp.com/mangakakalot/a1/alien_nine/vol01_chapter_2_operation_2_kumi/6.jpg",
    "https://img-proxy.imgfo.com/?referer=https://manganelo.com&url=https://s7.mkklcdnv6temp.com/mangakakalot/a1/alien_nine/vol01_chapter_2_operation_2_kumi/7.jpg",
    "https://img-proxy.imgfo.com/?referer=https://manganelo.com&url=https://s7.mkklcdnv6temp.com/mangakakalot/a1/alien_nine/vol01_chapter_2_operation_2_kumi/8.jpg",
    "https://img-proxy.imgfo.com/?referer=https://manganelo.com&url=https://s7.mkklcdnv6temp.com/mangakakalot/a1/alien_nine/vol01_chapter_2_operation_2_kumi/9.jpg",
    "https://img-proxy.imgfo.com/?referer=https://manganelo.com&url=https://s7.mkklcdnv6temp.com/mangakakalot/a1/alien_nine/vol01_chapter_2_operation_2_kumi/10.jpg",
    "https://img-proxy.imgfo.com/?referer=https://manganelo.com&url=https://s7.mkklcdnv6temp.com/mangakakalot/a1/alien_nine/vol01_chapter_2_operation_2_kumi/11.jpg",
    "https://img-proxy.imgfo.com/?referer=https://manganelo.com&url=https://s7.mkklcdnv6temp.com/mangakakalot/a1/alien_nine/vol01_chapter_2_operation_2_kumi/12.jpg",
    "https://img-proxy.imgfo.com/?referer=https://manganelo.com&url=https://s7.mkklcdnv6temp.com/mangakakalot/a1/alien_nine/vol01_chapter_2_operation_2_kumi/13.jpg",
    "https://img-proxy.imgfo.com/?referer=https://manganelo.com&url=https://s7.mkklcdnv6temp.com/mangakakalot/a1/alien_nine/vol01_chapter_2_operation_2_kumi/14.jpg",
    "https://img-proxy.imgfo.com/?referer=https://manganelo.com&url=https://s7.mkklcdnv6temp.com/mangakakalot/a1/alien_nine/vol01_chapter_2_operation_2_kumi/15.jpg",
    "https://img-proxy.imgfo.com/?referer=https://manganelo.com&url=https://s7.mkklcdnv6temp.com/mangakakalot/a1/alien_nine/vol01_chapter_2_operation_2_kumi/16.jpg",
    "https://img-proxy.imgfo.com/?referer=https://manganelo.com&url=https://s7.mkklcdnv6temp.com/mangakakalot/a1/alien_nine/vol01_chapter_2_operation_2_kumi/17.jpg",
    "https://img-proxy.imgfo.com/?referer=https://manganelo.com&url=https://s7.mkklcdnv6temp.com/mangakakalot/a1/alien_nine/vol01_chapter_2_operation_2_kumi/18.jpg",
    "https://img-proxy.imgfo.com/?referer=https://manganelo.com&url=https://s7.mkklcdnv6temp.com/mangakakalot/a1/alien_nine/vol01_chapter_2_operation_2_kumi/19.jpg",
    "https://img-proxy.imgfo.com/?referer=https://manganelo.com&url=https://s7.mkklcdnv6temp.com/mangakakalot/a1/alien_nine/vol01_chapter_2_operation_2_kumi/20.jpg",
    "https://img-proxy.imgfo.com/?referer=https://manganelo.com&url=https://s7.mkklcdnv6temp.com/mangakakalot/a1/alien_nine/vol01_chapter_2_operation_2_kumi/21.jpg",
    "https://img-proxy.imgfo.com/?referer=https://manganelo.com&url=https://s7.mkklcdnv6temp.com/mangakakalot/a1/alien_nine/vol01_chapter_2_operation_2_kumi/22.jpg",
    "https://img-proxy.imgfo.com/?referer=https://manganelo.com&url=https://s7.mkklcdnv6temp.com/mangakakalot/a1/alien_nine/vol01_chapter_2_operation_2_kumi/23.jpg"
  ]
}