{
  "cover": "https://avt.mkklcdnv6.com/3/r/7-1583476425.jpg",
  "title": "Alien Nine",
  "original": "Alien 9 ; エイリアン９ ; ALIEN9 ; Eirian 9",
  "genre": "Action, Horror, Sci fi, Seinen, Tragedy, Manga",
  "author": "Tomizawa Hitoshi",
  "status": "Completed",
  "backlink": "https://manganu.com/collections/tomizawa-hitoshi/alien-nine/",
  "description": "In the future, alien invasion is a daily occurrence and everyone must be prepared. Elementary School #9 has assigned three students to fight off the extra-terrestrial threat.",
  "language": "English",
  "images": [
    "https://img-proxy.imgfo.com/?referer=https://manganelo.com&url=https://s7.mkklcdnv6temp.com/mangakakalot/a1/alien_nine/vol03_chapter_26_stop_interfering/1.jpg",
    "https://img-proxy.imgfo.com/?referer=https://manganelo.com&url=https://s7.mkklcdnv6temp.com/mangakakalot/a1/alien_nine/vol03_chapter_26_stop_interfering/2.jpg",
    "https://img-proxy.imgfo.com/?referer=https://manganelo.com&url=https://s7.mkklcdnv6temp.com/mangakakalot/a1/alien_nine/vol03_chapter_26_stop_interfering/3.jpg",
    "https://img-proxy.imgfo.com/?referer=https://manganelo.com&url=https://s7.mkklcdnv6temp.com/mangakakalot/a1/alien_nine/vol03_chapter_26_stop_interfering/4.jpg",
    "https://img-proxy.imgfo.com/?referer=https://manganelo.com&url=https://s7.mkklcdnv6temp.com/mangakakalot/a1/alien_nine/vol03_chapter_26_stop_interfering/5.jpg",
    "https://img-proxy.imgfo.com/?referer=https://manganelo.com&url=https://s7.mkklcdnv6temp.com/mangakakalot/a1/alien_nine/vol03_chapter_26_stop_interfering/6.jpg",
    "https://img-proxy.imgfo.com/?referer=https://manganelo.com&url=https://s7.mkklcdnv6temp.com/mangakakalot/a1/alien_nine/vol03_chapter_26_stop_interfering/7.jpg",
    "https://img-proxy.imgfo.com/?referer=https://manganelo.com&url=https://s7.mkklcdnv6temp.com/mangakakalot/a1/alien_nine/vol03_chapter_26_stop_interfering/8.jpg",
    "https://img-proxy.imgfo.com/?referer=https://manganelo.com&url=https://s7.mkklcdnv6temp.com/mangakakalot/a1/alien_nine/vol03_chapter_26_stop_interfering/9.jpg",
    "https://img-proxy.imgfo.com/?referer=https://manganelo.com&url=https://s7.mkklcdnv6temp.com/mangakakalot/a1/alien_nine/vol03_chapter_26_stop_interfering/10.jpg",
    "https://img-proxy.imgfo.com/?referer=https://manganelo.com&url=https://s7.mkklcdnv6temp.com/mangakakalot/a1/alien_nine/vol03_chapter_26_stop_interfering/11.jpg",
    "https://img-proxy.imgfo.com/?referer=https://manganelo.com&url=https://s7.mkklcdnv6temp.com/mangakakalot/a1/alien_nine/vol03_chapter_26_stop_interfering/12.jpg",
    "https://img-proxy.imgfo.com/?referer=https://manganelo.com&url=https://s7.mkklcdnv6temp.com/mangakakalot/a1/alien_nine/vol03_chapter_26_stop_interfering/13.jpg",
    "https://img-proxy.imgfo.com/?referer=https://manganelo.com&url=https://s7.mkklcdnv6temp.com/mangakakalot/a1/alien_nine/vol03_chapter_26_stop_interfering/14.jpg",
    "https://img-proxy.imgfo.com/?referer=https://manganelo.com&url=https://s7.mkklcdnv6temp.com/mangakakalot/a1/alien_nine/vol03_chapter_26_stop_interfering/15.jpg",
    "https://img-proxy.imgfo.com/?referer=https://manganelo.com&url=https://s7.mkklcdnv6temp.com/mangakakalot/a1/alien_nine/vol03_chapter_26_stop_interfering/16.jpg",
    "https://img-proxy.imgfo.com/?referer=https://manganelo.com&url=https://s7.mkklcdnv6temp.com/mangakakalot/a1/alien_nine/vol03_chapter_26_stop_interfering/17.jpg",
    "https://img-proxy.imgfo.com/?referer=https://manganelo.com&url=https://s7.mkklcdnv6temp.com/mangakakalot/a1/alien_nine/vol03_chapter_26_stop_interfering/18.jpg",
    "https://img-proxy.imgfo.com/?referer=https://manganelo.com&url=https://s7.mkklcdnv6temp.com/mangakakalot/a1/alien_nine/vol03_chapter_26_stop_interfering/19.jpg",
    "https://img-proxy.imgfo.com/?referer=https://manganelo.com&url=https://s7.mkklcdnv6temp.com/mangakakalot/a1/alien_nine/vol03_chapter_26_stop_interfering/20.jpg"
  ]
}