{
  "cover": "https://avt.mkklcdnv6.com/14/n/3-1583468216.jpg",
  "title": "Taiyou No Ie",
  "original": "たいようのいえ ; 太場之家 ; 太阳之家 ; บ้านแสงตะวัน ; House of the Sun",
  "genre": "Comedy, Drama, Romance, School life, Shoujo, Slice of life, Manga",
  "author": "Taamo",
  "status": "Completed",
  "backlink": "https://manganu.com/collections/taamo/taiyou-no-ie/",
  "description": "From Mixini Studios:\n\"Back in the day, this place was like a house of magic. Surely there must have been an invisible wizard living here in such a place so filled with both tears and laughter. Or so I used to think.\"\nWhat’s a young child to do when her mother leaves her father for another man? Or when her father remarries a woman who brings along a child from a previous marriage? Or when her childhood neighbor friend invites her to live with him?\nWinner of the 38th Kodansha Manga Awards for Best Shoujo.",
  "language": "English",
  "images": [
    "https://img-proxy.imgfo.com/?referer=https://manganelo.com&url=https://s5.mkklcdnv6temp.com/mangakakalot/t1/taiyou_no_ie/vol5_chapter_281_diaries_of_a_drunk_sengoku_general/1.jpg",
    "https://img-proxy.imgfo.com/?referer=https://manganelo.com&url=https://s5.mkklcdnv6temp.com/mangakakalot/t1/taiyou_no_ie/vol5_chapter_281_diaries_of_a_drunk_sengoku_general/2.jpg",
    "https://img-proxy.imgfo.com/?referer=https://manganelo.com&url=https://s5.mkklcdnv6temp.com/mangakakalot/t1/taiyou_no_ie/vol5_chapter_281_diaries_of_a_drunk_sengoku_general/3.jpg",
    "https://img-proxy.imgfo.com/?referer=https://manganelo.com&url=https://s5.mkklcdnv6temp.com/mangakakalot/t1/taiyou_no_ie/vol5_chapter_281_diaries_of_a_drunk_sengoku_general/4.jpg",
    "https://img-proxy.imgfo.com/?referer=https://manganelo.com&url=https://s5.mkklcdnv6temp.com/mangakakalot/t1/taiyou_no_ie/vol5_chapter_281_diaries_of_a_drunk_sengoku_general/5.jpg",
    "https://img-proxy.imgfo.com/?referer=https://manganelo.com&url=https://s5.mkklcdnv6temp.com/mangakakalot/t1/taiyou_no_ie/vol5_chapter_281_diaries_of_a_drunk_sengoku_general/6.jpg",
    "https://img-proxy.imgfo.com/?referer=https://manganelo.com&url=https://s5.mkklcdnv6temp.com/mangakakalot/t1/taiyou_no_ie/vol5_chapter_281_diaries_of_a_drunk_sengoku_general/7.jpg",
    "https://img-proxy.imgfo.com/?referer=https://manganelo.com&url=https://s5.mkklcdnv6temp.com/mangakakalot/t1/taiyou_no_ie/vol5_chapter_281_diaries_of_a_drunk_sengoku_general/8.jpg"
  ]
}