{
  "cover": "https://avt.mkklcdnv6.com/14/n/3-1583468216.jpg",
  "title": "Taiyou No Ie",
  "original": "たいようのいえ ; 太場之家 ; 太阳之家 ; บ้านแสงตะวัน ; House of the Sun",
  "genre": "Comedy, Drama, Romance, School life, Shoujo, Slice of life, Manga",
  "author": "Taamo",
  "status": "Completed",
  "backlink": "https://manganu.com/collections/taamo/taiyou-no-ie/",
  "description": "From Mixini Studios:\n\"Back in the day, this place was like a house of magic. Surely there must have been an invisible wizard living here in such a place so filled with both tears and laughter. Or so I used to think.\"\nWhat’s a young child to do when her mother leaves her father for another man? Or when her father remarries a woman who brings along a child from a previous marriage? Or when her childhood neighbor friend invites her to live with him?\nWinner of the 38th Kodansha Manga Awards for Best Shoujo.",
  "language": "English",
  "images": [
    "https://img-proxy.imgfo.com/?referer=https://manganelo.com&url=https://s5.mkklcdnv6temp.com/mangakakalot/t1/taiyou_no_ie/vol1_chapter_3_fireworks_in_april/1.jpg",
    "https://img-proxy.imgfo.com/?referer=https://manganelo.com&url=https://s5.mkklcdnv6temp.com/mangakakalot/t1/taiyou_no_ie/vol1_chapter_3_fireworks_in_april/2.jpg",
    "https://img-proxy.imgfo.com/?referer=https://manganelo.com&url=https://s5.mkklcdnv6temp.com/mangakakalot/t1/taiyou_no_ie/vol1_chapter_3_fireworks_in_april/3.jpg",
    "https://img-proxy.imgfo.com/?referer=https://manganelo.com&url=https://s5.mkklcdnv6temp.com/mangakakalot/t1/taiyou_no_ie/vol1_chapter_3_fireworks_in_april/4.jpg",
    "https://img-proxy.imgfo.com/?referer=https://manganelo.com&url=https://s5.mkklcdnv6temp.com/mangakakalot/t1/taiyou_no_ie/vol1_chapter_3_fireworks_in_april/5.jpg",
    "https://img-proxy.imgfo.com/?referer=https://manganelo.com&url=https://s5.mkklcdnv6temp.com/mangakakalot/t1/taiyou_no_ie/vol1_chapter_3_fireworks_in_april/6.jpg",
    "https://img-proxy.imgfo.com/?referer=https://manganelo.com&url=https://s5.mkklcdnv6temp.com/mangakakalot/t1/taiyou_no_ie/vol1_chapter_3_fireworks_in_april/7.jpg",
    "https://img-proxy.imgfo.com/?referer=https://manganelo.com&url=https://s5.mkklcdnv6temp.com/mangakakalot/t1/taiyou_no_ie/vol1_chapter_3_fireworks_in_april/8.jpg",
    "https://img-proxy.imgfo.com/?referer=https://manganelo.com&url=https://s5.mkklcdnv6temp.com/mangakakalot/t1/taiyou_no_ie/vol1_chapter_3_fireworks_in_april/9.jpg",
    "https://img-proxy.imgfo.com/?referer=https://manganelo.com&url=https://s5.mkklcdnv6temp.com/mangakakalot/t1/taiyou_no_ie/vol1_chapter_3_fireworks_in_april/10.jpg",
    "https://img-proxy.imgfo.com/?referer=https://manganelo.com&url=https://s5.mkklcdnv6temp.com/mangakakalot/t1/taiyou_no_ie/vol1_chapter_3_fireworks_in_april/11.jpg",
    "https://img-proxy.imgfo.com/?referer=https://manganelo.com&url=https://s5.mkklcdnv6temp.com/mangakakalot/t1/taiyou_no_ie/vol1_chapter_3_fireworks_in_april/12.jpg",
    "https://img-proxy.imgfo.com/?referer=https://manganelo.com&url=https://s5.mkklcdnv6temp.com/mangakakalot/t1/taiyou_no_ie/vol1_chapter_3_fireworks_in_april/13.jpg",
    "https://img-proxy.imgfo.com/?referer=https://manganelo.com&url=https://s5.mkklcdnv6temp.com/mangakakalot/t1/taiyou_no_ie/vol1_chapter_3_fireworks_in_april/14.jpg",
    "https://img-proxy.imgfo.com/?referer=https://manganelo.com&url=https://s5.mkklcdnv6temp.com/mangakakalot/t1/taiyou_no_ie/vol1_chapter_3_fireworks_in_april/15.jpg",
    "https://img-proxy.imgfo.com/?referer=https://manganelo.com&url=https://s5.mkklcdnv6temp.com/mangakakalot/t1/taiyou_no_ie/vol1_chapter_3_fireworks_in_april/16.jpg",
    "https://img-proxy.imgfo.com/?referer=https://manganelo.com&url=https://s5.mkklcdnv6temp.com/mangakakalot/t1/taiyou_no_ie/vol1_chapter_3_fireworks_in_april/17.jpg",
    "https://img-proxy.imgfo.com/?referer=https://manganelo.com&url=https://s5.mkklcdnv6temp.com/mangakakalot/t1/taiyou_no_ie/vol1_chapter_3_fireworks_in_april/18.jpg",
    "https://img-proxy.imgfo.com/?referer=https://manganelo.com&url=https://s5.mkklcdnv6temp.com/mangakakalot/t1/taiyou_no_ie/vol1_chapter_3_fireworks_in_april/19.jpg",
    "https://img-proxy.imgfo.com/?referer=https://manganelo.com&url=https://s5.mkklcdnv6temp.com/mangakakalot/t1/taiyou_no_ie/vol1_chapter_3_fireworks_in_april/20.jpg",
    "https://img-proxy.imgfo.com/?referer=https://manganelo.com&url=https://s5.mkklcdnv6temp.com/mangakakalot/t1/taiyou_no_ie/vol1_chapter_3_fireworks_in_april/21.jpg",
    "https://img-proxy.imgfo.com/?referer=https://manganelo.com&url=https://s5.mkklcdnv6temp.com/mangakakalot/t1/taiyou_no_ie/vol1_chapter_3_fireworks_in_april/22.jpg",
    "https://img-proxy.imgfo.com/?referer=https://manganelo.com&url=https://s5.mkklcdnv6temp.com/mangakakalot/t1/taiyou_no_ie/vol1_chapter_3_fireworks_in_april/23.jpg",
    "https://img-proxy.imgfo.com/?referer=https://manganelo.com&url=https://s5.mkklcdnv6temp.com/mangakakalot/t1/taiyou_no_ie/vol1_chapter_3_fireworks_in_april/24.jpg",
    "https://img-proxy.imgfo.com/?referer=https://manganelo.com&url=https://s5.mkklcdnv6temp.com/mangakakalot/t1/taiyou_no_ie/vol1_chapter_3_fireworks_in_april/25.jpg",
    "https://img-proxy.imgfo.com/?referer=https://manganelo.com&url=https://s5.mkklcdnv6temp.com/mangakakalot/t1/taiyou_no_ie/vol1_chapter_3_fireworks_in_april/26.jpg",
    "https://img-proxy.imgfo.com/?referer=https://manganelo.com&url=https://s5.mkklcdnv6temp.com/mangakakalot/t1/taiyou_no_ie/vol1_chapter_3_fireworks_in_april/27.jpg",
    "https://img-proxy.imgfo.com/?referer=https://manganelo.com&url=https://s5.mkklcdnv6temp.com/mangakakalot/t1/taiyou_no_ie/vol1_chapter_3_fireworks_in_april/28.jpg",
    "https://img-proxy.imgfo.com/?referer=https://manganelo.com&url=https://s5.mkklcdnv6temp.com/mangakakalot/t1/taiyou_no_ie/vol1_chapter_3_fireworks_in_april/29.jpg",
    "https://img-proxy.imgfo.com/?referer=https://manganelo.com&url=https://s5.mkklcdnv6temp.com/mangakakalot/t1/taiyou_no_ie/vol1_chapter_3_fireworks_in_april/30.jpg",
    "https://img-proxy.imgfo.com/?referer=https://manganelo.com&url=https://s5.mkklcdnv6temp.com/mangakakalot/t1/taiyou_no_ie/vol1_chapter_3_fireworks_in_april/31.jpg",
    "https://img-proxy.imgfo.com/?referer=https://manganelo.com&url=https://s5.mkklcdnv6temp.com/mangakakalot/t1/taiyou_no_ie/vol1_chapter_3_fireworks_in_april/32.jpg",
    "https://img-proxy.imgfo.com/?referer=https://manganelo.com&url=https://s5.mkklcdnv6temp.com/mangakakalot/t1/taiyou_no_ie/vol1_chapter_3_fireworks_in_april/33.jpg",
    "https://img-proxy.imgfo.com/?referer=https://manganelo.com&url=https://s5.mkklcdnv6temp.com/mangakakalot/t1/taiyou_no_ie/vol1_chapter_3_fireworks_in_april/34.jpg",
    "https://img-proxy.imgfo.com/?referer=https://manganelo.com&url=https://s5.mkklcdnv6temp.com/mangakakalot/t1/taiyou_no_ie/vol1_chapter_3_fireworks_in_april/35.jpg",
    "https://img-proxy.imgfo.com/?referer=https://manganelo.com&url=https://s5.mkklcdnv6temp.com/mangakakalot/t1/taiyou_no_ie/vol1_chapter_3_fireworks_in_april/36.jpg",
    "https://img-proxy.imgfo.com/?referer=https://manganelo.com&url=https://s5.mkklcdnv6temp.com/mangakakalot/t1/taiyou_no_ie/vol1_chapter_3_fireworks_in_april/37.jpg",
    "https://img-proxy.imgfo.com/?referer=https://manganelo.com&url=https://s5.mkklcdnv6temp.com/mangakakalot/t1/taiyou_no_ie/vol1_chapter_3_fireworks_in_april/38.jpg",
    "https://img-proxy.imgfo.com/?referer=https://manganelo.com&url=https://s5.mkklcdnv6temp.com/mangakakalot/t1/taiyou_no_ie/vol1_chapter_3_fireworks_in_april/39.jpg"
  ]
}