{
  "cover": "https://avt.mkklcdnv6.com/22/u/10-1583482995.jpg",
  "title": "Sazanami Cherry",
  "original": "さざなみチェリー",
  "genre": "Gender bender, Romance, School life, Shounen ai, Slice of life, Manga",
  "author": "Kamiyoshi",
  "status": "Completed",
  "backlink": "https://manganu.com/collections/kamiyoshi/sazanami-cherry/",
  "description": "Migiwa Kazuhiro has always been watching Ren, cute, admirable, and his first love. With all his courage, he finally managed to give her a love letter and confessed on a train, only to find that Ren is...!?",
  "language": "English",
  "images": [
    "https://img-proxy.imgfo.com/?referer=https://manganelo.com&url=https://s5.mkklcdnv6temp.com/mangakakalot/s1/sazanami_cherry/vol1_chapter_4_distant_memories/1.jpg",
    "https://img-proxy.imgfo.com/?referer=https://manganelo.com&url=https://s5.mkklcdnv6temp.com/mangakakalot/s1/sazanami_cherry/vol1_chapter_4_distant_memories/2.jpg",
    "https://img-proxy.imgfo.com/?referer=https://manganelo.com&url=https://s5.mkklcdnv6temp.com/mangakakalot/s1/sazanami_cherry/vol1_chapter_4_distant_memories/3.jpg",
    "https://img-proxy.imgfo.com/?referer=https://manganelo.com&url=https://s5.mkklcdnv6temp.com/mangakakalot/s1/sazanami_cherry/vol1_chapter_4_distant_memories/4.jpg",
    "https://img-proxy.imgfo.com/?referer=https://manganelo.com&url=https://s5.mkklcdnv6temp.com/mangakakalot/s1/sazanami_cherry/vol1_chapter_4_distant_memories/5.jpg",
    "https://img-proxy.imgfo.com/?referer=https://manganelo.com&url=https://s5.mkklcdnv6temp.com/mangakakalot/s1/sazanami_cherry/vol1_chapter_4_distant_memories/6.jpg",
    "https://img-proxy.imgfo.com/?referer=https://manganelo.com&url=https://s5.mkklcdnv6temp.com/mangakakalot/s1/sazanami_cherry/vol1_chapter_4_distant_memories/7.jpg",
    "https://img-proxy.imgfo.com/?referer=https://manganelo.com&url=https://s5.mkklcdnv6temp.com/mangakakalot/s1/sazanami_cherry/vol1_chapter_4_distant_memories/8.jpg",
    "https://img-proxy.imgfo.com/?referer=https://manganelo.com&url=https://s5.mkklcdnv6temp.com/mangakakalot/s1/sazanami_cherry/vol1_chapter_4_distant_memories/9.jpg",
    "https://img-proxy.imgfo.com/?referer=https://manganelo.com&url=https://s5.mkklcdnv6temp.com/mangakakalot/s1/sazanami_cherry/vol1_chapter_4_distant_memories/10.jpg",
    "https://img-proxy.imgfo.com/?referer=https://manganelo.com&url=https://s5.mkklcdnv6temp.com/mangakakalot/s1/sazanami_cherry/vol1_chapter_4_distant_memories/11.jpg",
    "https://img-proxy.imgfo.com/?referer=https://manganelo.com&url=https://s5.mkklcdnv6temp.com/mangakakalot/s1/sazanami_cherry/vol1_chapter_4_distant_memories/12.jpg",
    "https://img-proxy.imgfo.com/?referer=https://manganelo.com&url=https://s5.mkklcdnv6temp.com/mangakakalot/s1/sazanami_cherry/vol1_chapter_4_distant_memories/13.jpg",
    "https://img-proxy.imgfo.com/?referer=https://manganelo.com&url=https://s5.mkklcdnv6temp.com/mangakakalot/s1/sazanami_cherry/vol1_chapter_4_distant_memories/14.jpg",
    "https://img-proxy.imgfo.com/?referer=https://manganelo.com&url=https://s5.mkklcdnv6temp.com/mangakakalot/s1/sazanami_cherry/vol1_chapter_4_distant_memories/15.jpg",
    "https://img-proxy.imgfo.com/?referer=https://manganelo.com&url=https://s5.mkklcdnv6temp.com/mangakakalot/s1/sazanami_cherry/vol1_chapter_4_distant_memories/16.jpg",
    "https://img-proxy.imgfo.com/?referer=https://manganelo.com&url=https://s5.mkklcdnv6temp.com/mangakakalot/s1/sazanami_cherry/vol1_chapter_4_distant_memories/17.jpg",
    "https://img-proxy.imgfo.com/?referer=https://manganelo.com&url=https://s5.mkklcdnv6temp.com/mangakakalot/s1/sazanami_cherry/vol1_chapter_4_distant_memories/18.jpg",
    "https://img-proxy.imgfo.com/?referer=https://manganelo.com&url=https://s5.mkklcdnv6temp.com/mangakakalot/s1/sazanami_cherry/vol1_chapter_4_distant_memories/19.jpg",
    "https://img-proxy.imgfo.com/?referer=https://manganelo.com&url=https://s5.mkklcdnv6temp.com/mangakakalot/s1/sazanami_cherry/vol1_chapter_4_distant_memories/20.jpg",
    "https://img-proxy.imgfo.com/?referer=https://manganelo.com&url=https://s5.mkklcdnv6temp.com/mangakakalot/s1/sazanami_cherry/vol1_chapter_4_distant_memories/21.jpg",
    "https://img-proxy.imgfo.com/?referer=https://manganelo.com&url=https://s5.mkklcdnv6temp.com/mangakakalot/s1/sazanami_cherry/vol1_chapter_4_distant_memories/22.jpg",
    "https://img-proxy.imgfo.com/?referer=https://manganelo.com&url=https://s5.mkklcdnv6temp.com/mangakakalot/s1/sazanami_cherry/vol1_chapter_4_distant_memories/23.jpg",
    "https://img-proxy.imgfo.com/?referer=https://manganelo.com&url=https://s5.mkklcdnv6temp.com/mangakakalot/s1/sazanami_cherry/vol1_chapter_4_distant_memories/24.jpg"
  ]
}