{
  "cover": "https://avt.mkklcdnv6.com/47/d/5-1583473736.jpg",
  "title": "Genzo Hitogata Kiwa",
  "original": "幻蔵人形鬼話 ; 幻藏人形鬼话 ; Doll Maker Genzo: A Second Chance for Human Souls ; Genzo - Le Marionnettiste (French) ; Genzou Hitogata Kiwa ; Genzouhito Gatakiwa",
  "genre": "Adventure, Comedy, Historical, Martial arts, Seinen, Supernatural, Manga",
  "author": "Takada Yuuzou",
  "status": "Completed",
  "backlink": "https://manganu.com/collections/takada-yuuzou/genzo-hitogata-kiwa/",
  "description": "The story is set in Japan in the middle ages. Tsujimura Genzo is a puppeteer whose heart has become as hard as stone due to the murder of his beloved wife. In each story, Genzo brings the dead back alive as puppets, and by doing so, he is able to solve mysterious incidents or help a dead man's soul. Kikuhime, a young \"tomboy\" princess is Genzo's companion, who helps him fight the villains.",
  "language": "English",
  "images": [
    "https://img-proxy.imgfo.com/?referer=https://manganelo.com&url=https://s3.mkklcdnv6temp.com/mangakakalot/g1/genzo_hitogata_kiwa/vol02_chapter_5/1.jpg",
    "https://img-proxy.imgfo.com/?referer=https://manganelo.com&url=https://s3.mkklcdnv6temp.com/mangakakalot/g1/genzo_hitogata_kiwa/vol02_chapter_5/2.jpg",
    "https://img-proxy.imgfo.com/?referer=https://manganelo.com&url=https://s3.mkklcdnv6temp.com/mangakakalot/g1/genzo_hitogata_kiwa/vol02_chapter_5/3.jpg",
    "https://img-proxy.imgfo.com/?referer=https://manganelo.com&url=https://s3.mkklcdnv6temp.com/mangakakalot/g1/genzo_hitogata_kiwa/vol02_chapter_5/4.jpg",
    "https://img-proxy.imgfo.com/?referer=https://manganelo.com&url=https://s3.mkklcdnv6temp.com/mangakakalot/g1/genzo_hitogata_kiwa/vol02_chapter_5/5.jpg",
    "https://img-proxy.imgfo.com/?referer=https://manganelo.com&url=https://s3.mkklcdnv6temp.com/mangakakalot/g1/genzo_hitogata_kiwa/vol02_chapter_5/6.jpg",
    "https://img-proxy.imgfo.com/?referer=https://manganelo.com&url=https://s3.mkklcdnv6temp.com/mangakakalot/g1/genzo_hitogata_kiwa/vol02_chapter_5/7.jpg",
    "https://img-proxy.imgfo.com/?referer=https://manganelo.com&url=https://s3.mkklcdnv6temp.com/mangakakalot/g1/genzo_hitogata_kiwa/vol02_chapter_5/8.jpg",
    "https://img-proxy.imgfo.com/?referer=https://manganelo.com&url=https://s3.mkklcdnv6temp.com/mangakakalot/g1/genzo_hitogata_kiwa/vol02_chapter_5/9.jpg",
    "https://img-proxy.imgfo.com/?referer=https://manganelo.com&url=https://s3.mkklcdnv6temp.com/mangakakalot/g1/genzo_hitogata_kiwa/vol02_chapter_5/10.jpg",
    "https://img-proxy.imgfo.com/?referer=https://manganelo.com&url=https://s3.mkklcdnv6temp.com/mangakakalot/g1/genzo_hitogata_kiwa/vol02_chapter_5/11.jpg",
    "https://img-proxy.imgfo.com/?referer=https://manganelo.com&url=https://s3.mkklcdnv6temp.com/mangakakalot/g1/genzo_hitogata_kiwa/vol02_chapter_5/12.jpg",
    "https://img-proxy.imgfo.com/?referer=https://manganelo.com&url=https://s3.mkklcdnv6temp.com/mangakakalot/g1/genzo_hitogata_kiwa/vol02_chapter_5/13.jpg",
    "https://img-proxy.imgfo.com/?referer=https://manganelo.com&url=https://s3.mkklcdnv6temp.com/mangakakalot/g1/genzo_hitogata_kiwa/vol02_chapter_5/14.jpg",
    "https://img-proxy.imgfo.com/?referer=https://manganelo.com&url=https://s3.mkklcdnv6temp.com/mangakakalot/g1/genzo_hitogata_kiwa/vol02_chapter_5/15.jpg",
    "https://img-proxy.imgfo.com/?referer=https://manganelo.com&url=https://s3.mkklcdnv6temp.com/mangakakalot/g1/genzo_hitogata_kiwa/vol02_chapter_5/16.jpg",
    "https://img-proxy.imgfo.com/?referer=https://manganelo.com&url=https://s3.mkklcdnv6temp.com/mangakakalot/g1/genzo_hitogata_kiwa/vol02_chapter_5/17.jpg",
    "https://img-proxy.imgfo.com/?referer=https://manganelo.com&url=https://s3.mkklcdnv6temp.com/mangakakalot/g1/genzo_hitogata_kiwa/vol02_chapter_5/18.jpg",
    "https://img-proxy.imgfo.com/?referer=https://manganelo.com&url=https://s3.mkklcdnv6temp.com/mangakakalot/g1/genzo_hitogata_kiwa/vol02_chapter_5/19.jpg",
    "https://img-proxy.imgfo.com/?referer=https://manganelo.com&url=https://s3.mkklcdnv6temp.com/mangakakalot/g1/genzo_hitogata_kiwa/vol02_chapter_5/20.jpg",
    "https://img-proxy.imgfo.com/?referer=https://manganelo.com&url=https://s3.mkklcdnv6temp.com/mangakakalot/g1/genzo_hitogata_kiwa/vol02_chapter_5/21.jpg",
    "https://img-proxy.imgfo.com/?referer=https://manganelo.com&url=https://s3.mkklcdnv6temp.com/mangakakalot/g1/genzo_hitogata_kiwa/vol02_chapter_5/22.jpg",
    "https://img-proxy.imgfo.com/?referer=https://manganelo.com&url=https://s3.mkklcdnv6temp.com/mangakakalot/g1/genzo_hitogata_kiwa/vol02_chapter_5/23.jpg",
    "https://img-proxy.imgfo.com/?referer=https://manganelo.com&url=https://s3.mkklcdnv6temp.com/mangakakalot/g1/genzo_hitogata_kiwa/vol02_chapter_5/24.jpg",
    "https://img-proxy.imgfo.com/?referer=https://manganelo.com&url=https://s3.mkklcdnv6temp.com/mangakakalot/g1/genzo_hitogata_kiwa/vol02_chapter_5/25.jpg",
    "https://img-proxy.imgfo.com/?referer=https://manganelo.com&url=https://s3.mkklcdnv6temp.com/mangakakalot/g1/genzo_hitogata_kiwa/vol02_chapter_5/26.jpg",
    "https://img-proxy.imgfo.com/?referer=https://manganelo.com&url=https://s3.mkklcdnv6temp.com/mangakakalot/g1/genzo_hitogata_kiwa/vol02_chapter_5/27.jpg",
    "https://img-proxy.imgfo.com/?referer=https://manganelo.com&url=https://s3.mkklcdnv6temp.com/mangakakalot/g1/genzo_hitogata_kiwa/vol02_chapter_5/28.jpg",
    "https://img-proxy.imgfo.com/?referer=https://manganelo.com&url=https://s3.mkklcdnv6temp.com/mangakakalot/g1/genzo_hitogata_kiwa/vol02_chapter_5/29.jpg",
    "https://img-proxy.imgfo.com/?referer=https://manganelo.com&url=https://s3.mkklcdnv6temp.com/mangakakalot/g1/genzo_hitogata_kiwa/vol02_chapter_5/30.jpg",
    "https://img-proxy.imgfo.com/?referer=https://manganelo.com&url=https://s3.mkklcdnv6temp.com/mangakakalot/g1/genzo_hitogata_kiwa/vol02_chapter_5/31.jpg",
    "https://img-proxy.imgfo.com/?referer=https://manganelo.com&url=https://s3.mkklcdnv6temp.com/mangakakalot/g1/genzo_hitogata_kiwa/vol02_chapter_5/32.jpg",
    "https://img-proxy.imgfo.com/?referer=https://manganelo.com&url=https://s3.mkklcdnv6temp.com/mangakakalot/g1/genzo_hitogata_kiwa/vol02_chapter_5/33.jpg",
    "https://img-proxy.imgfo.com/?referer=https://manganelo.com&url=https://s3.mkklcdnv6temp.com/mangakakalot/g1/genzo_hitogata_kiwa/vol02_chapter_5/34.jpg",
    "https://img-proxy.imgfo.com/?referer=https://manganelo.com&url=https://s3.mkklcdnv6temp.com/mangakakalot/g1/genzo_hitogata_kiwa/vol02_chapter_5/35.jpg",
    "https://img-proxy.imgfo.com/?referer=https://manganelo.com&url=https://s3.mkklcdnv6temp.com/mangakakalot/g1/genzo_hitogata_kiwa/vol02_chapter_5/36.jpg",
    "https://img-proxy.imgfo.com/?referer=https://manganelo.com&url=https://s3.mkklcdnv6temp.com/mangakakalot/g1/genzo_hitogata_kiwa/vol02_chapter_5/37.jpg",
    "https://img-proxy.imgfo.com/?referer=https://manganelo.com&url=https://s3.mkklcdnv6temp.com/mangakakalot/g1/genzo_hitogata_kiwa/vol02_chapter_5/38.jpg",
    "https://img-proxy.imgfo.com/?referer=https://manganelo.com&url=https://s3.mkklcdnv6temp.com/mangakakalot/g1/genzo_hitogata_kiwa/vol02_chapter_5/39.jpg",
    "https://img-proxy.imgfo.com/?referer=https://manganelo.com&url=https://s3.mkklcdnv6temp.com/mangakakalot/g1/genzo_hitogata_kiwa/vol02_chapter_5/40.jpg",
    "https://img-proxy.imgfo.com/?referer=https://manganelo.com&url=https://s3.mkklcdnv6temp.com/mangakakalot/g1/genzo_hitogata_kiwa/vol02_chapter_5/41.jpg",
    "https://img-proxy.imgfo.com/?referer=https://manganelo.com&url=https://s3.mkklcdnv6temp.com/mangakakalot/g1/genzo_hitogata_kiwa/vol02_chapter_5/42.jpg",
    "https://img-proxy.imgfo.com/?referer=https://manganelo.com&url=https://s3.mkklcdnv6temp.com/mangakakalot/g1/genzo_hitogata_kiwa/vol02_chapter_5/43.jpg",
    "https://img-proxy.imgfo.com/?referer=https://manganelo.com&url=https://s3.mkklcdnv6temp.com/mangakakalot/g1/genzo_hitogata_kiwa/vol02_chapter_5/44.jpg",
    "https://img-proxy.imgfo.com/?referer=https://manganelo.com&url=https://s3.mkklcdnv6temp.com/mangakakalot/g1/genzo_hitogata_kiwa/vol02_chapter_5/45.jpg",
    "https://img-proxy.imgfo.com/?referer=https://manganelo.com&url=https://s3.mkklcdnv6temp.com/mangakakalot/g1/genzo_hitogata_kiwa/vol02_chapter_5/46.jpg",
    "https://img-proxy.imgfo.com/?referer=https://manganelo.com&url=https://s3.mkklcdnv6temp.com/mangakakalot/g1/genzo_hitogata_kiwa/vol02_chapter_5/47.jpg",
    "https://img-proxy.imgfo.com/?referer=https://manganelo.com&url=https://s3.mkklcdnv6temp.com/mangakakalot/g1/genzo_hitogata_kiwa/vol02_chapter_5/48.jpg",
    "https://img-proxy.imgfo.com/?referer=https://manganelo.com&url=https://s3.mkklcdnv6temp.com/mangakakalot/g1/genzo_hitogata_kiwa/vol02_chapter_5/49.jpg",
    "https://img-proxy.imgfo.com/?referer=https://manganelo.com&url=https://s3.mkklcdnv6temp.com/mangakakalot/g1/genzo_hitogata_kiwa/vol02_chapter_5/50.jpg"
  ]
}