{
  "cover": "https://avt.mkklcdnv6.com/18/g/5-1583472560.jpg",
  "title": "Hajimete No Chuu Ijou",
  "original": "はじめてのチュウ以上",
  "genre": "Comedy, Ecchi, Oneshot, Seinen, Manga",
  "author": "Takashima Tomohiro",
  "status": "Completed",
  "backlink": "https://manganu.com/collections/takashima-tomohiro/hajimete-no-chuu-ijou/",
  "description": "The young Saori-chan visits her cousin, asking about sex nervously after just learning that her friends had done it.\nNote: Nothing of the sort actually really happens at all.",
  "language": "English",
  "images": [
    "https://img-proxy.imgfo.com/?referer=https://manganelo.com&url=https://s6.mkklcdnv6temp.com/mangakakalot/h1/hajimete_no_chuu_ijou/vol01_chapter_001/1.jpg",
    "https://img-proxy.imgfo.com/?referer=https://manganelo.com&url=https://s6.mkklcdnv6temp.com/mangakakalot/h1/hajimete_no_chuu_ijou/vol01_chapter_001/2.jpg",
    "https://img-proxy.imgfo.com/?referer=https://manganelo.com&url=https://s6.mkklcdnv6temp.com/mangakakalot/h1/hajimete_no_chuu_ijou/vol01_chapter_001/3.jpg",
    "https://img-proxy.imgfo.com/?referer=https://manganelo.com&url=https://s6.mkklcdnv6temp.com/mangakakalot/h1/hajimete_no_chuu_ijou/vol01_chapter_001/4.jpg",
    "https://img-proxy.imgfo.com/?referer=https://manganelo.com&url=https://s6.mkklcdnv6temp.com/mangakakalot/h1/hajimete_no_chuu_ijou/vol01_chapter_001/5.jpg",
    "https://img-proxy.imgfo.com/?referer=https://manganelo.com&url=https://s6.mkklcdnv6temp.com/mangakakalot/h1/hajimete_no_chuu_ijou/vol01_chapter_001/6.jpg",
    "https://img-proxy.imgfo.com/?referer=https://manganelo.com&url=https://s6.mkklcdnv6temp.com/mangakakalot/h1/hajimete_no_chuu_ijou/vol01_chapter_001/7.jpg",
    "https://img-proxy.imgfo.com/?referer=https://manganelo.com&url=https://s6.mkklcdnv6temp.com/mangakakalot/h1/hajimete_no_chuu_ijou/vol01_chapter_001/8.jpg",
    "https://img-proxy.imgfo.com/?referer=https://manganelo.com&url=https://s6.mkklcdnv6temp.com/mangakakalot/h1/hajimete_no_chuu_ijou/vol01_chapter_001/9.jpg",
    "https://img-proxy.imgfo.com/?referer=https://manganelo.com&url=https://s6.mkklcdnv6temp.com/mangakakalot/h1/hajimete_no_chuu_ijou/vol01_chapter_001/10.jpg",
    "https://img-proxy.imgfo.com/?referer=https://manganelo.com&url=https://s6.mkklcdnv6temp.com/mangakakalot/h1/hajimete_no_chuu_ijou/vol01_chapter_001/11.jpg",
    "https://img-proxy.imgfo.com/?referer=https://manganelo.com&url=https://s6.mkklcdnv6temp.com/mangakakalot/h1/hajimete_no_chuu_ijou/vol01_chapter_001/12.jpg",
    "https://img-proxy.imgfo.com/?referer=https://manganelo.com&url=https://s6.mkklcdnv6temp.com/mangakakalot/h1/hajimete_no_chuu_ijou/vol01_chapter_001/13.jpg",
    "https://img-proxy.imgfo.com/?referer=https://manganelo.com&url=https://s6.mkklcdnv6temp.com/mangakakalot/h1/hajimete_no_chuu_ijou/vol01_chapter_001/14.jpg",
    "https://img-proxy.imgfo.com/?referer=https://manganelo.com&url=https://s6.mkklcdnv6temp.com/mangakakalot/h1/hajimete_no_chuu_ijou/vol01_chapter_001/15.jpg",
    "https://img-proxy.imgfo.com/?referer=https://manganelo.com&url=https://s6.mkklcdnv6temp.com/mangakakalot/h1/hajimete_no_chuu_ijou/vol01_chapter_001/16.jpg",
    "https://img-proxy.imgfo.com/?referer=https://manganelo.com&url=https://s6.mkklcdnv6temp.com/mangakakalot/h1/hajimete_no_chuu_ijou/vol01_chapter_001/17.jpg"
  ]
}