{
  "cover": "https://avt.mkklcdnv6.com/7/p/6-1583474407.jpg",
  "title": "Zero (Matsumoto Taiyo)",
  "genre": "Mature, Psychological, Seinen, Sports, Manga",
  "author": "Matsumoto Taiyo",
  "status": "Completed",
  "backlink": "https://manganu.com/collections/matsumoto-taiyo/zero-matsumoto-taiyo/",
  "description": "From: MAL\nThe story of a boxer who's been undefeated for nearly 10 years and has thus earned himself the nickname, \"Zero.\"",
  "language": "English",
  "images": [
    "https://img-proxy.imgfo.com/?referer=https://manganelo.com&url=https://s3.mkklcdnv6temp.com/mangakakalot/z1/zero_matsumoto_taiyo/vol1_chapter_2_legend/1.jpg",
    "https://img-proxy.imgfo.com/?referer=https://manganelo.com&url=https://s3.mkklcdnv6temp.com/mangakakalot/z1/zero_matsumoto_taiyo/vol1_chapter_2_legend/2.jpg",
    "https://img-proxy.imgfo.com/?referer=https://manganelo.com&url=https://s3.mkklcdnv6temp.com/mangakakalot/z1/zero_matsumoto_taiyo/vol1_chapter_2_legend/3.jpg",
    "https://img-proxy.imgfo.com/?referer=https://manganelo.com&url=https://s3.mkklcdnv6temp.com/mangakakalot/z1/zero_matsumoto_taiyo/vol1_chapter_2_legend/4.jpg",
    "https://img-proxy.imgfo.com/?referer=https://manganelo.com&url=https://s3.mkklcdnv6temp.com/mangakakalot/z1/zero_matsumoto_taiyo/vol1_chapter_2_legend/5.jpg",
    "https://img-proxy.imgfo.com/?referer=https://manganelo.com&url=https://s3.mkklcdnv6temp.com/mangakakalot/z1/zero_matsumoto_taiyo/vol1_chapter_2_legend/6.jpg",
    "https://img-proxy.imgfo.com/?referer=https://manganelo.com&url=https://s3.mkklcdnv6temp.com/mangakakalot/z1/zero_matsumoto_taiyo/vol1_chapter_2_legend/7.jpg",
    "https://img-proxy.imgfo.com/?referer=https://manganelo.com&url=https://s3.mkklcdnv6temp.com/mangakakalot/z1/zero_matsumoto_taiyo/vol1_chapter_2_legend/8.jpg",
    "https://img-proxy.imgfo.com/?referer=https://manganelo.com&url=https://s3.mkklcdnv6temp.com/mangakakalot/z1/zero_matsumoto_taiyo/vol1_chapter_2_legend/9.jpg",
    "https://img-proxy.imgfo.com/?referer=https://manganelo.com&url=https://s3.mkklcdnv6temp.com/mangakakalot/z1/zero_matsumoto_taiyo/vol1_chapter_2_legend/10.jpg",
    "https://img-proxy.imgfo.com/?referer=https://manganelo.com&url=https://s3.mkklcdnv6temp.com/mangakakalot/z1/zero_matsumoto_taiyo/vol1_chapter_2_legend/11.jpg",
    "https://img-proxy.imgfo.com/?referer=https://manganelo.com&url=https://s3.mkklcdnv6temp.com/mangakakalot/z1/zero_matsumoto_taiyo/vol1_chapter_2_legend/12.jpg",
    "https://img-proxy.imgfo.com/?referer=https://manganelo.com&url=https://s3.mkklcdnv6temp.com/mangakakalot/z1/zero_matsumoto_taiyo/vol1_chapter_2_legend/13.jpg",
    "https://img-proxy.imgfo.com/?referer=https://manganelo.com&url=https://s3.mkklcdnv6temp.com/mangakakalot/z1/zero_matsumoto_taiyo/vol1_chapter_2_legend/14.jpg",
    "https://img-proxy.imgfo.com/?referer=https://manganelo.com&url=https://s3.mkklcdnv6temp.com/mangakakalot/z1/zero_matsumoto_taiyo/vol1_chapter_2_legend/15.jpg",
    "https://img-proxy.imgfo.com/?referer=https://manganelo.com&url=https://s3.mkklcdnv6temp.com/mangakakalot/z1/zero_matsumoto_taiyo/vol1_chapter_2_legend/16.jpg",
    "https://img-proxy.imgfo.com/?referer=https://manganelo.com&url=https://s3.mkklcdnv6temp.com/mangakakalot/z1/zero_matsumoto_taiyo/vol1_chapter_2_legend/17.jpg",
    "https://img-proxy.imgfo.com/?referer=https://manganelo.com&url=https://s3.mkklcdnv6temp.com/mangakakalot/z1/zero_matsumoto_taiyo/vol1_chapter_2_legend/18.jpg",
    "https://img-proxy.imgfo.com/?referer=https://manganelo.com&url=https://s3.mkklcdnv6temp.com/mangakakalot/z1/zero_matsumoto_taiyo/vol1_chapter_2_legend/19.jpg",
    "https://img-proxy.imgfo.com/?referer=https://manganelo.com&url=https://s3.mkklcdnv6temp.com/mangakakalot/z1/zero_matsumoto_taiyo/vol1_chapter_2_legend/20.jpg"
  ]
}