{
  "cover": "https://avt.mkklcdnv6.com/4/b/4-1583469819.jpg",
  "title": "Code: Breaker",
  "original": "コード:ブレイカー ; 法外制裁者 ; Code - Breaker ; Code Breaker ; CODE：BREAKER ~コード:ブレイカー~ ; Code:Breaker",
  "genre": "Action, Adult, Adventure, Comedy, Cooking, Drama, Mystery, Romance, School life, Shounen, Supernatural, Manga",
  "author": "Kamijyo Akimine",
  "status": "Completed",
  "backlink": "https://manganu.com/collections/kamijyo-akimine/code-breaker/",
  "description": "One-day, riding the bus, Sakura Sakurakoji stands over individuals and seems out the window to see people being burned alive with a fire as a boy her age stays unharmed. There are not any corpses or evidence of any type of homicide, only a little fire when she dates back straight back to the website a day later. She finds the new transfer student is exactly the same boy she saw the day before, when Sakura goes to course. Sakura soon learns he is Rei ?gami, the sixth &quot;Code: Breaker,&quot; a particular type of assassin with a peculiar power and also an associate of a secret organization that functions the authorities.\n\nMasaomi Heike is a Code:Breaker, whose code-name is Code:02, while also performing as the judge who rate their operation. He&#39;s also among the Four Founders of Eden, identified as Heike Masaomi the Wonder. He&#39;s got the capacity to control light\n\nHeike seems to be pretty tall (at least 180 cm). He&#39;s quite buff, although slender. He has yellow irises at the same time, and has pretty long silver hair that is white. Among his characteristics that are concealed is that he&#39;s got no brows as Toki stated early in the manga. (Heike seems to dis-like this significantly, but it&#39;s barely detected due to his hair). Heike&#39;s normal dress (his black jacket) has gear assembled into it so that you can avoid his electricity from being over used (he provides an extremely glowing, harmful light once this has been been eliminated).",
  "language": "English",
  "images": [
    "https://img-proxy.imgfo.com/?referer=https://manganelo.com&url=https://s7.mkklcdnv6temp.com/mangakakalot/r1/read_code_breaker_manga/vol9_chapter_74_at_the_end_of_the_fierce_battle/1.jpg",
    "https://img-proxy.imgfo.com/?referer=https://manganelo.com&url=https://s7.mkklcdnv6temp.com/mangakakalot/r1/read_code_breaker_manga/vol9_chapter_74_at_the_end_of_the_fierce_battle/2.jpg",
    "https://img-proxy.imgfo.com/?referer=https://manganelo.com&url=https://s7.mkklcdnv6temp.com/mangakakalot/r1/read_code_breaker_manga/vol9_chapter_74_at_the_end_of_the_fierce_battle/3.jpg",
    "https://img-proxy.imgfo.com/?referer=https://manganelo.com&url=https://s7.mkklcdnv6temp.com/mangakakalot/r1/read_code_breaker_manga/vol9_chapter_74_at_the_end_of_the_fierce_battle/4.jpg",
    "https://img-proxy.imgfo.com/?referer=https://manganelo.com&url=https://s7.mkklcdnv6temp.com/mangakakalot/r1/read_code_breaker_manga/vol9_chapter_74_at_the_end_of_the_fierce_battle/5.jpg",
    "https://img-proxy.imgfo.com/?referer=https://manganelo.com&url=https://s7.mkklcdnv6temp.com/mangakakalot/r1/read_code_breaker_manga/vol9_chapter_74_at_the_end_of_the_fierce_battle/6.jpg",
    "https://img-proxy.imgfo.com/?referer=https://manganelo.com&url=https://s7.mkklcdnv6temp.com/mangakakalot/r1/read_code_breaker_manga/vol9_chapter_74_at_the_end_of_the_fierce_battle/7.jpg",
    "https://img-proxy.imgfo.com/?referer=https://manganelo.com&url=https://s7.mkklcdnv6temp.com/mangakakalot/r1/read_code_breaker_manga/vol9_chapter_74_at_the_end_of_the_fierce_battle/8.jpg",
    "https://img-proxy.imgfo.com/?referer=https://manganelo.com&url=https://s7.mkklcdnv6temp.com/mangakakalot/r1/read_code_breaker_manga/vol9_chapter_74_at_the_end_of_the_fierce_battle/9.jpg",
    "https://img-proxy.imgfo.com/?referer=https://manganelo.com&url=https://s7.mkklcdnv6temp.com/mangakakalot/r1/read_code_breaker_manga/vol9_chapter_74_at_the_end_of_the_fierce_battle/10.jpg",
    "https://img-proxy.imgfo.com/?referer=https://manganelo.com&url=https://s7.mkklcdnv6temp.com/mangakakalot/r1/read_code_breaker_manga/vol9_chapter_74_at_the_end_of_the_fierce_battle/11.jpg",
    "https://img-proxy.imgfo.com/?referer=https://manganelo.com&url=https://s7.mkklcdnv6temp.com/mangakakalot/r1/read_code_breaker_manga/vol9_chapter_74_at_the_end_of_the_fierce_battle/12.jpg",
    "https://img-proxy.imgfo.com/?referer=https://manganelo.com&url=https://s7.mkklcdnv6temp.com/mangakakalot/r1/read_code_breaker_manga/vol9_chapter_74_at_the_end_of_the_fierce_battle/13.jpg",
    "https://img-proxy.imgfo.com/?referer=https://manganelo.com&url=https://s7.mkklcdnv6temp.com/mangakakalot/r1/read_code_breaker_manga/vol9_chapter_74_at_the_end_of_the_fierce_battle/14.jpg",
    "https://img-proxy.imgfo.com/?referer=https://manganelo.com&url=https://s7.mkklcdnv6temp.com/mangakakalot/r1/read_code_breaker_manga/vol9_chapter_74_at_the_end_of_the_fierce_battle/15.jpg",
    "https://img-proxy.imgfo.com/?referer=https://manganelo.com&url=https://s7.mkklcdnv6temp.com/mangakakalot/r1/read_code_breaker_manga/vol9_chapter_74_at_the_end_of_the_fierce_battle/16.jpg",
    "https://img-proxy.imgfo.com/?referer=https://manganelo.com&url=https://s7.mkklcdnv6temp.com/mangakakalot/r1/read_code_breaker_manga/vol9_chapter_74_at_the_end_of_the_fierce_battle/17.jpg",
    "https://img-proxy.imgfo.com/?referer=https://manganelo.com&url=https://s7.mkklcdnv6temp.com/mangakakalot/r1/read_code_breaker_manga/vol9_chapter_74_at_the_end_of_the_fierce_battle/18.jpg",
    "https://img-proxy.imgfo.com/?referer=https://manganelo.com&url=https://s7.mkklcdnv6temp.com/mangakakalot/r1/read_code_breaker_manga/vol9_chapter_74_at_the_end_of_the_fierce_battle/19.jpg",
    "https://img-proxy.imgfo.com/?referer=https://manganelo.com&url=https://s7.mkklcdnv6temp.com/mangakakalot/r1/read_code_breaker_manga/vol9_chapter_74_at_the_end_of_the_fierce_battle/20.jpg"
  ]
}