{
  "cover": "https://avt.mkklcdnv6.com/13/z/10-1583482678.jpg",
  "title": "Tau",
  "original": "タウ",
  "genre": "Fantasy, Oneshot, Romance, Shoujo, Manga",
  "author": "Tachibana Kaimu",
  "status": "Completed",
  "backlink": "https://manganu.com/collections/tachibana-kaimu/tau/",
  "description": "1) Crossroad : Sol, fiance to Prince Ni, is about to have a wedding ceremony. Suddenly, she said she wanted to go for a trip and the idea was denied. She couldn't give up on the idea and tried to run away from the castle...\nHeart warming romantic love fantasy\n2) Treasure\n3) Mystery\n4) Entrust!",
  "language": "English",
  "images": [
    "https://img-proxy.imgfo.com/?referer=https://manganelo.com&url=https://s5.mkklcdnv6temp.com/mangakakalot/t1/tau/vol1_chapter_12_cross_roads_pt_1/1.jpg",
    "https://img-proxy.imgfo.com/?referer=https://manganelo.com&url=https://s5.mkklcdnv6temp.com/mangakakalot/t1/tau/vol1_chapter_12_cross_roads_pt_1/2.jpg",
    "https://img-proxy.imgfo.com/?referer=https://manganelo.com&url=https://s5.mkklcdnv6temp.com/mangakakalot/t1/tau/vol1_chapter_12_cross_roads_pt_1/3.jpg",
    "https://img-proxy.imgfo.com/?referer=https://manganelo.com&url=https://s5.mkklcdnv6temp.com/mangakakalot/t1/tau/vol1_chapter_12_cross_roads_pt_1/4.jpg",
    "https://img-proxy.imgfo.com/?referer=https://manganelo.com&url=https://s5.mkklcdnv6temp.com/mangakakalot/t1/tau/vol1_chapter_12_cross_roads_pt_1/5.jpg",
    "https://img-proxy.imgfo.com/?referer=https://manganelo.com&url=https://s5.mkklcdnv6temp.com/mangakakalot/t1/tau/vol1_chapter_12_cross_roads_pt_1/6.jpg",
    "https://img-proxy.imgfo.com/?referer=https://manganelo.com&url=https://s5.mkklcdnv6temp.com/mangakakalot/t1/tau/vol1_chapter_12_cross_roads_pt_1/7.jpg",
    "https://img-proxy.imgfo.com/?referer=https://manganelo.com&url=https://s5.mkklcdnv6temp.com/mangakakalot/t1/tau/vol1_chapter_12_cross_roads_pt_1/8.jpg",
    "https://img-proxy.imgfo.com/?referer=https://manganelo.com&url=https://s5.mkklcdnv6temp.com/mangakakalot/t1/tau/vol1_chapter_12_cross_roads_pt_1/9.jpg",
    "https://img-proxy.imgfo.com/?referer=https://manganelo.com&url=https://s5.mkklcdnv6temp.com/mangakakalot/t1/tau/vol1_chapter_12_cross_roads_pt_1/10.jpg",
    "https://img-proxy.imgfo.com/?referer=https://manganelo.com&url=https://s5.mkklcdnv6temp.com/mangakakalot/t1/tau/vol1_chapter_12_cross_roads_pt_1/11.jpg",
    "https://img-proxy.imgfo.com/?referer=https://manganelo.com&url=https://s5.mkklcdnv6temp.com/mangakakalot/t1/tau/vol1_chapter_12_cross_roads_pt_1/12.jpg",
    "https://img-proxy.imgfo.com/?referer=https://manganelo.com&url=https://s5.mkklcdnv6temp.com/mangakakalot/t1/tau/vol1_chapter_12_cross_roads_pt_1/13.jpg",
    "https://img-proxy.imgfo.com/?referer=https://manganelo.com&url=https://s5.mkklcdnv6temp.com/mangakakalot/t1/tau/vol1_chapter_12_cross_roads_pt_1/14.jpg",
    "https://img-proxy.imgfo.com/?referer=https://manganelo.com&url=https://s5.mkklcdnv6temp.com/mangakakalot/t1/tau/vol1_chapter_12_cross_roads_pt_1/15.jpg",
    "https://img-proxy.imgfo.com/?referer=https://manganelo.com&url=https://s5.mkklcdnv6temp.com/mangakakalot/t1/tau/vol1_chapter_12_cross_roads_pt_1/16.jpg",
    "https://img-proxy.imgfo.com/?referer=https://manganelo.com&url=https://s5.mkklcdnv6temp.com/mangakakalot/t1/tau/vol1_chapter_12_cross_roads_pt_1/17.jpg",
    "https://img-proxy.imgfo.com/?referer=https://manganelo.com&url=https://s5.mkklcdnv6temp.com/mangakakalot/t1/tau/vol1_chapter_12_cross_roads_pt_1/18.jpg",
    "https://img-proxy.imgfo.com/?referer=https://manganelo.com&url=https://s5.mkklcdnv6temp.com/mangakakalot/t1/tau/vol1_chapter_12_cross_roads_pt_1/19.jpg",
    "https://img-proxy.imgfo.com/?referer=https://manganelo.com&url=https://s5.mkklcdnv6temp.com/mangakakalot/t1/tau/vol1_chapter_12_cross_roads_pt_1/20.jpg",
    "https://img-proxy.imgfo.com/?referer=https://manganelo.com&url=https://s5.mkklcdnv6temp.com/mangakakalot/t1/tau/vol1_chapter_12_cross_roads_pt_1/21.jpg"
  ]
}