{
  "cover": "https://avt.mkklcdnv6.com/4/a/2-1583465847.jpg",
  "title": "Love So Life",
  "original": "ラブ・ソー・ライフ (Japanese) ; 温馨的爱 (Chinese) ; 러브 소 라이프 (Korean) ; Rakasta elämää ( Finnish) ; Τόση Αγάπη Για Ζωή (Greek) ; Älskar så Livet (Swedish) ; الحب حياة (Arabic) ; لوف سو ليف (Arabic); Love So Life เลิฟ โซ ไลฟ์ (Thai)",
  "genre": "Comedy, Drama, Romance, Shoujo, Slice of life, Manga",
  "author": "Kouichi Kaede",
  "status": "Completed",
  "backlink": "https://manganu.com/collections/kouichi-kaede/love-so-life/",
  "description": "From Which Scanlations: Shiharu is a high school student who loves kids, lives in an orphanage, and works at a daycare... Until the handsome uncle of two-year-old twins offers her a raise if she&#39;ll be their babysitter. Often relying on memories of her mother&#39;s actions for guidance, Shiharu quickly finds herself falling in love with her new makeshift family.",
  "language": "English",
  "images": [
    "https://img-proxy.imgfo.com/?referer=https://manganelo.com&url=https://s3.mkklcdnv6temp.com/mangakakalot/l2/love_so_life/vol8_chapter_41/1.jpg",
    "https://img-proxy.imgfo.com/?referer=https://manganelo.com&url=https://s3.mkklcdnv6temp.com/mangakakalot/l2/love_so_life/vol8_chapter_41/2.jpg",
    "https://img-proxy.imgfo.com/?referer=https://manganelo.com&url=https://s3.mkklcdnv6temp.com/mangakakalot/l2/love_so_life/vol8_chapter_41/3.jpg",
    "https://img-proxy.imgfo.com/?referer=https://manganelo.com&url=https://s3.mkklcdnv6temp.com/mangakakalot/l2/love_so_life/vol8_chapter_41/4.jpg",
    "https://img-proxy.imgfo.com/?referer=https://manganelo.com&url=https://s3.mkklcdnv6temp.com/mangakakalot/l2/love_so_life/vol8_chapter_41/5.jpg",
    "https://img-proxy.imgfo.com/?referer=https://manganelo.com&url=https://s3.mkklcdnv6temp.com/mangakakalot/l2/love_so_life/vol8_chapter_41/6.jpg",
    "https://img-proxy.imgfo.com/?referer=https://manganelo.com&url=https://s3.mkklcdnv6temp.com/mangakakalot/l2/love_so_life/vol8_chapter_41/7.jpg",
    "https://img-proxy.imgfo.com/?referer=https://manganelo.com&url=https://s3.mkklcdnv6temp.com/mangakakalot/l2/love_so_life/vol8_chapter_41/8.jpg",
    "https://img-proxy.imgfo.com/?referer=https://manganelo.com&url=https://s3.mkklcdnv6temp.com/mangakakalot/l2/love_so_life/vol8_chapter_41/9.jpg",
    "https://img-proxy.imgfo.com/?referer=https://manganelo.com&url=https://s3.mkklcdnv6temp.com/mangakakalot/l2/love_so_life/vol8_chapter_41/10.jpg",
    "https://img-proxy.imgfo.com/?referer=https://manganelo.com&url=https://s3.mkklcdnv6temp.com/mangakakalot/l2/love_so_life/vol8_chapter_41/11.jpg",
    "https://img-proxy.imgfo.com/?referer=https://manganelo.com&url=https://s3.mkklcdnv6temp.com/mangakakalot/l2/love_so_life/vol8_chapter_41/12.jpg",
    "https://img-proxy.imgfo.com/?referer=https://manganelo.com&url=https://s3.mkklcdnv6temp.com/mangakakalot/l2/love_so_life/vol8_chapter_41/13.jpg",
    "https://img-proxy.imgfo.com/?referer=https://manganelo.com&url=https://s3.mkklcdnv6temp.com/mangakakalot/l2/love_so_life/vol8_chapter_41/14.jpg",
    "https://img-proxy.imgfo.com/?referer=https://manganelo.com&url=https://s3.mkklcdnv6temp.com/mangakakalot/l2/love_so_life/vol8_chapter_41/15.jpg",
    "https://img-proxy.imgfo.com/?referer=https://manganelo.com&url=https://s3.mkklcdnv6temp.com/mangakakalot/l2/love_so_life/vol8_chapter_41/16.jpg",
    "https://img-proxy.imgfo.com/?referer=https://manganelo.com&url=https://s3.mkklcdnv6temp.com/mangakakalot/l2/love_so_life/vol8_chapter_41/17.jpg",
    "https://img-proxy.imgfo.com/?referer=https://manganelo.com&url=https://s3.mkklcdnv6temp.com/mangakakalot/l2/love_so_life/vol8_chapter_41/18.jpg",
    "https://img-proxy.imgfo.com/?referer=https://manganelo.com&url=https://s3.mkklcdnv6temp.com/mangakakalot/l2/love_so_life/vol8_chapter_41/19.jpg",
    "https://img-proxy.imgfo.com/?referer=https://manganelo.com&url=https://s3.mkklcdnv6temp.com/mangakakalot/l2/love_so_life/vol8_chapter_41/20.jpg",
    "https://img-proxy.imgfo.com/?referer=https://manganelo.com&url=https://s3.mkklcdnv6temp.com/mangakakalot/l2/love_so_life/vol8_chapter_41/21.jpg",
    "https://img-proxy.imgfo.com/?referer=https://manganelo.com&url=https://s3.mkklcdnv6temp.com/mangakakalot/l2/love_so_life/vol8_chapter_41/22.jpg",
    "https://img-proxy.imgfo.com/?referer=https://manganelo.com&url=https://s3.mkklcdnv6temp.com/mangakakalot/l2/love_so_life/vol8_chapter_41/23.jpg",
    "https://img-proxy.imgfo.com/?referer=https://manganelo.com&url=https://s3.mkklcdnv6temp.com/mangakakalot/l2/love_so_life/vol8_chapter_41/24.jpg",
    "https://img-proxy.imgfo.com/?referer=https://manganelo.com&url=https://s3.mkklcdnv6temp.com/mangakakalot/l2/love_so_life/vol8_chapter_41/25.jpg",
    "https://img-proxy.imgfo.com/?referer=https://manganelo.com&url=https://s3.mkklcdnv6temp.com/mangakakalot/l2/love_so_life/vol8_chapter_41/26.jpg",
    "https://img-proxy.imgfo.com/?referer=https://manganelo.com&url=https://s3.mkklcdnv6temp.com/mangakakalot/l2/love_so_life/vol8_chapter_41/27.jpg",
    "https://img-proxy.imgfo.com/?referer=https://manganelo.com&url=https://s3.mkklcdnv6temp.com/mangakakalot/l2/love_so_life/vol8_chapter_41/28.jpg",
    "https://img-proxy.imgfo.com/?referer=https://manganelo.com&url=https://s3.mkklcdnv6temp.com/mangakakalot/l2/love_so_life/vol8_chapter_41/29.jpg",
    "https://img-proxy.imgfo.com/?referer=https://manganelo.com&url=https://s3.mkklcdnv6temp.com/mangakakalot/l2/love_so_life/vol8_chapter_41/30.jpg"
  ]
}