{
  "cover": "https://avt.mkklcdnv6.com/7/i/16-1583493724.jpg",
  "title": "New Grappler Baki",
  "original": "Baki ; Baki: The Search of Our Strongest Hero ; New Grappler Baki In Search Of Our Strongest Hero",
  "genre": "Action, Martial arts, Mature, Shounen, Manga",
  "author": "Itagaki Keisuke",
  "status": "Completed",
  "backlink": "https://manganu.com/collections/itagaki-keisuke/new-grappler-baki/",
  "description": "There is three series of Baki, this one is Baki, the 2nd one.\n1-Baki the Grappler(1991-1999) 42 volumes\n2-Baki(1999-2005) 31 volumes\n3-Hanma Baki(2005-12-05) ? volumes\nBaki Hanma is a generally happy student with a rather odd hobby; he likes fighting. Specifically, he likes fighting in a secret martial arts tournament that gathers the greatest fighters of the world and pits them against each other in really nasty combat. Whether you're a sumo wrestler, a karate expert, or a guy who specializes in ripping out your opponent's nerves, you're welcome to participate (as long as you can keep quiet about it, of course). Anyway, Baki may be the youngest fighter the tournament has ever seen, but he's also the best, and he really enjoys what he does.",
  "language": "English",
  "images": [
    "https://img-proxy.imgfo.com/?referer=https://manganelo.com&url=https://s5.mkklcdnv6temp.com/mangakakalot/n1/new_grappler_baki/vol11_chapter_097_bravo/1.jpg",
    "https://img-proxy.imgfo.com/?referer=https://manganelo.com&url=https://s5.mkklcdnv6temp.com/mangakakalot/n1/new_grappler_baki/vol11_chapter_097_bravo/2.jpg",
    "https://img-proxy.imgfo.com/?referer=https://manganelo.com&url=https://s5.mkklcdnv6temp.com/mangakakalot/n1/new_grappler_baki/vol11_chapter_097_bravo/3.jpg",
    "https://img-proxy.imgfo.com/?referer=https://manganelo.com&url=https://s5.mkklcdnv6temp.com/mangakakalot/n1/new_grappler_baki/vol11_chapter_097_bravo/4.jpg",
    "https://img-proxy.imgfo.com/?referer=https://manganelo.com&url=https://s5.mkklcdnv6temp.com/mangakakalot/n1/new_grappler_baki/vol11_chapter_097_bravo/5.jpg",
    "https://img-proxy.imgfo.com/?referer=https://manganelo.com&url=https://s5.mkklcdnv6temp.com/mangakakalot/n1/new_grappler_baki/vol11_chapter_097_bravo/6.jpg",
    "https://img-proxy.imgfo.com/?referer=https://manganelo.com&url=https://s5.mkklcdnv6temp.com/mangakakalot/n1/new_grappler_baki/vol11_chapter_097_bravo/7.jpg",
    "https://img-proxy.imgfo.com/?referer=https://manganelo.com&url=https://s5.mkklcdnv6temp.com/mangakakalot/n1/new_grappler_baki/vol11_chapter_097_bravo/8.jpg",
    "https://img-proxy.imgfo.com/?referer=https://manganelo.com&url=https://s5.mkklcdnv6temp.com/mangakakalot/n1/new_grappler_baki/vol11_chapter_097_bravo/9.jpg",
    "https://img-proxy.imgfo.com/?referer=https://manganelo.com&url=https://s5.mkklcdnv6temp.com/mangakakalot/n1/new_grappler_baki/vol11_chapter_097_bravo/10.jpg",
    "https://img-proxy.imgfo.com/?referer=https://manganelo.com&url=https://s5.mkklcdnv6temp.com/mangakakalot/n1/new_grappler_baki/vol11_chapter_097_bravo/11.jpg",
    "https://img-proxy.imgfo.com/?referer=https://manganelo.com&url=https://s5.mkklcdnv6temp.com/mangakakalot/n1/new_grappler_baki/vol11_chapter_097_bravo/12.jpg",
    "https://img-proxy.imgfo.com/?referer=https://manganelo.com&url=https://s5.mkklcdnv6temp.com/mangakakalot/n1/new_grappler_baki/vol11_chapter_097_bravo/13.jpg",
    "https://img-proxy.imgfo.com/?referer=https://manganelo.com&url=https://s5.mkklcdnv6temp.com/mangakakalot/n1/new_grappler_baki/vol11_chapter_097_bravo/14.jpg",
    "https://img-proxy.imgfo.com/?referer=https://manganelo.com&url=https://s5.mkklcdnv6temp.com/mangakakalot/n1/new_grappler_baki/vol11_chapter_097_bravo/15.jpg",
    "https://img-proxy.imgfo.com/?referer=https://manganelo.com&url=https://s5.mkklcdnv6temp.com/mangakakalot/n1/new_grappler_baki/vol11_chapter_097_bravo/16.jpg",
    "https://img-proxy.imgfo.com/?referer=https://manganelo.com&url=https://s5.mkklcdnv6temp.com/mangakakalot/n1/new_grappler_baki/vol11_chapter_097_bravo/17.jpg",
    "https://img-proxy.imgfo.com/?referer=https://manganelo.com&url=https://s5.mkklcdnv6temp.com/mangakakalot/n1/new_grappler_baki/vol11_chapter_097_bravo/18.jpg",
    "https://img-proxy.imgfo.com/?referer=https://manganelo.com&url=https://s5.mkklcdnv6temp.com/mangakakalot/n1/new_grappler_baki/vol11_chapter_097_bravo/19.jpg",
    "https://img-proxy.imgfo.com/?referer=https://manganelo.com&url=https://s5.mkklcdnv6temp.com/mangakakalot/n1/new_grappler_baki/vol11_chapter_097_bravo/20.jpg",
    "https://img-proxy.imgfo.com/?referer=https://manganelo.com&url=https://s5.mkklcdnv6temp.com/mangakakalot/n1/new_grappler_baki/vol11_chapter_097_bravo/21.jpg",
    "https://img-proxy.imgfo.com/?referer=https://manganelo.com&url=https://s5.mkklcdnv6temp.com/mangakakalot/n1/new_grappler_baki/vol11_chapter_097_bravo/22.jpg",
    "https://img-proxy.imgfo.com/?referer=https://manganelo.com&url=https://s5.mkklcdnv6temp.com/mangakakalot/n1/new_grappler_baki/vol11_chapter_097_bravo/23.jpg",
    "https://img-proxy.imgfo.com/?referer=https://manganelo.com&url=https://s5.mkklcdnv6temp.com/mangakakalot/n1/new_grappler_baki/vol11_chapter_097_bravo/24.jpg",
    "https://img-proxy.imgfo.com/?referer=https://manganelo.com&url=https://s5.mkklcdnv6temp.com/mangakakalot/n1/new_grappler_baki/vol11_chapter_097_bravo/25.jpg",
    "https://img-proxy.imgfo.com/?referer=https://manganelo.com&url=https://s5.mkklcdnv6temp.com/mangakakalot/n1/new_grappler_baki/vol11_chapter_097_bravo/26.jpg",
    "https://img-proxy.imgfo.com/?referer=https://manganelo.com&url=https://s5.mkklcdnv6temp.com/mangakakalot/n1/new_grappler_baki/vol11_chapter_097_bravo/27.jpg",
    "https://img-proxy.imgfo.com/?referer=https://manganelo.com&url=https://s5.mkklcdnv6temp.com/mangakakalot/n1/new_grappler_baki/vol11_chapter_097_bravo/28.jpg",
    "https://img-proxy.imgfo.com/?referer=https://manganelo.com&url=https://s5.mkklcdnv6temp.com/mangakakalot/n1/new_grappler_baki/vol11_chapter_097_bravo/29.jpg",
    "https://img-proxy.imgfo.com/?referer=https://manganelo.com&url=https://s5.mkklcdnv6temp.com/mangakakalot/n1/new_grappler_baki/vol11_chapter_097_bravo/30.jpg"
  ]
}