{
  "cover": "https://avt.mkklcdnv6.com/25/s/4-1583470744.jpg",
  "title": "Shiawase Kissa Sanchoume",
  "original": "幸福喫茶3丁目 ; 推定青年少女 ; 행복카페 3번가 ; Hana to Ageha, Natsu ; Happy Cafe ; Number One DX ; Shiawase Kissa 3chome ; Shiawase Kissa San Choume ; Shiawase Kissa Sanchôme ; Suitei Seinen Shoujo ; Joyeux Café ,Café Bonheur(french) ; Happy Lucky Café ; Tiệm cà phê hạnh phúc(vietnam) ; Palaiminta kavinė (Lithuanian) ; المقهى السعيد (Arabic) ; Cafeneaua Fericirii (Roumanian)",
  "genre": "Comedy, Drama, Harem, Romance, Shoujo, Slice of life, Manga",
  "author": "Matsuzuki Kou",
  "status": "Completed",
  "backlink": "https://manganu.com/collections/matsuzuki-kou/shiawase-kissa-sanchoume/",
  "description": "Uru is a very short girl and is constantly mistaken for an elementary school kid, but despite that, she is ridiculously strong and decides to live by herself after her mother gets remarried. She ends up working at a small cafe with two rather unique co-workers, Shindou(demon king), who acts gruff and intimidating, but who is really a nice guy who loves to make cakes and pies and the like, and Ichirou(weirdo), who is really good-looking but who instantly falls asleep when he gets hungry and doesn't wake up again until he's given something to eat. What will the future bring to them?\n*Also includes the following short stories in:\nVol. 2) Suitei Seinen Shoujo\nVol. 4) Hana to Ageha, Natsu\nVol. 7) Number One DX\nVol. 9) Sora no Namae",
  "language": "English",
  "images": [
    "https://img-proxy.imgfo.com/?referer=https://manganelo.com&url=https://s5.mkklcdnv6temp.com/mangakakalot/s1/shiawase_kissa_sanchoume/vol13_chapter_69/1.jpg",
    "https://img-proxy.imgfo.com/?referer=https://manganelo.com&url=https://s5.mkklcdnv6temp.com/mangakakalot/s1/shiawase_kissa_sanchoume/vol13_chapter_69/2.jpg",
    "https://img-proxy.imgfo.com/?referer=https://manganelo.com&url=https://s5.mkklcdnv6temp.com/mangakakalot/s1/shiawase_kissa_sanchoume/vol13_chapter_69/3.jpg",
    "https://img-proxy.imgfo.com/?referer=https://manganelo.com&url=https://s5.mkklcdnv6temp.com/mangakakalot/s1/shiawase_kissa_sanchoume/vol13_chapter_69/4.jpg",
    "https://img-proxy.imgfo.com/?referer=https://manganelo.com&url=https://s5.mkklcdnv6temp.com/mangakakalot/s1/shiawase_kissa_sanchoume/vol13_chapter_69/5.jpg",
    "https://img-proxy.imgfo.com/?referer=https://manganelo.com&url=https://s5.mkklcdnv6temp.com/mangakakalot/s1/shiawase_kissa_sanchoume/vol13_chapter_69/6.jpg",
    "https://img-proxy.imgfo.com/?referer=https://manganelo.com&url=https://s5.mkklcdnv6temp.com/mangakakalot/s1/shiawase_kissa_sanchoume/vol13_chapter_69/7.jpg",
    "https://img-proxy.imgfo.com/?referer=https://manganelo.com&url=https://s5.mkklcdnv6temp.com/mangakakalot/s1/shiawase_kissa_sanchoume/vol13_chapter_69/8.jpg",
    "https://img-proxy.imgfo.com/?referer=https://manganelo.com&url=https://s5.mkklcdnv6temp.com/mangakakalot/s1/shiawase_kissa_sanchoume/vol13_chapter_69/9.jpg",
    "https://img-proxy.imgfo.com/?referer=https://manganelo.com&url=https://s5.mkklcdnv6temp.com/mangakakalot/s1/shiawase_kissa_sanchoume/vol13_chapter_69/10.jpg",
    "https://img-proxy.imgfo.com/?referer=https://manganelo.com&url=https://s5.mkklcdnv6temp.com/mangakakalot/s1/shiawase_kissa_sanchoume/vol13_chapter_69/11.jpg",
    "https://img-proxy.imgfo.com/?referer=https://manganelo.com&url=https://s5.mkklcdnv6temp.com/mangakakalot/s1/shiawase_kissa_sanchoume/vol13_chapter_69/12.jpg",
    "https://img-proxy.imgfo.com/?referer=https://manganelo.com&url=https://s5.mkklcdnv6temp.com/mangakakalot/s1/shiawase_kissa_sanchoume/vol13_chapter_69/13.jpg",
    "https://img-proxy.imgfo.com/?referer=https://manganelo.com&url=https://s5.mkklcdnv6temp.com/mangakakalot/s1/shiawase_kissa_sanchoume/vol13_chapter_69/14.jpg",
    "https://img-proxy.imgfo.com/?referer=https://manganelo.com&url=https://s5.mkklcdnv6temp.com/mangakakalot/s1/shiawase_kissa_sanchoume/vol13_chapter_69/15.jpg",
    "https://img-proxy.imgfo.com/?referer=https://manganelo.com&url=https://s5.mkklcdnv6temp.com/mangakakalot/s1/shiawase_kissa_sanchoume/vol13_chapter_69/16.jpg",
    "https://img-proxy.imgfo.com/?referer=https://manganelo.com&url=https://s5.mkklcdnv6temp.com/mangakakalot/s1/shiawase_kissa_sanchoume/vol13_chapter_69/17.jpg",
    "https://img-proxy.imgfo.com/?referer=https://manganelo.com&url=https://s5.mkklcdnv6temp.com/mangakakalot/s1/shiawase_kissa_sanchoume/vol13_chapter_69/18.jpg",
    "https://img-proxy.imgfo.com/?referer=https://manganelo.com&url=https://s5.mkklcdnv6temp.com/mangakakalot/s1/shiawase_kissa_sanchoume/vol13_chapter_69/19.jpg",
    "https://img-proxy.imgfo.com/?referer=https://manganelo.com&url=https://s5.mkklcdnv6temp.com/mangakakalot/s1/shiawase_kissa_sanchoume/vol13_chapter_69/20.jpg",
    "https://img-proxy.imgfo.com/?referer=https://manganelo.com&url=https://s5.mkklcdnv6temp.com/mangakakalot/s1/shiawase_kissa_sanchoume/vol13_chapter_69/21.jpg",
    "https://img-proxy.imgfo.com/?referer=https://manganelo.com&url=https://s5.mkklcdnv6temp.com/mangakakalot/s1/shiawase_kissa_sanchoume/vol13_chapter_69/22.jpg",
    "https://img-proxy.imgfo.com/?referer=https://manganelo.com&url=https://s5.mkklcdnv6temp.com/mangakakalot/s1/shiawase_kissa_sanchoume/vol13_chapter_69/23.jpg",
    "https://img-proxy.imgfo.com/?referer=https://manganelo.com&url=https://s5.mkklcdnv6temp.com/mangakakalot/s1/shiawase_kissa_sanchoume/vol13_chapter_69/24.jpg",
    "https://img-proxy.imgfo.com/?referer=https://manganelo.com&url=https://s5.mkklcdnv6temp.com/mangakakalot/s1/shiawase_kissa_sanchoume/vol13_chapter_69/25.jpg",
    "https://img-proxy.imgfo.com/?referer=https://manganelo.com&url=https://s5.mkklcdnv6temp.com/mangakakalot/s1/shiawase_kissa_sanchoume/vol13_chapter_69/26.jpg",
    "https://img-proxy.imgfo.com/?referer=https://manganelo.com&url=https://s5.mkklcdnv6temp.com/mangakakalot/s1/shiawase_kissa_sanchoume/vol13_chapter_69/27.jpg",
    "https://img-proxy.imgfo.com/?referer=https://manganelo.com&url=https://s5.mkklcdnv6temp.com/mangakakalot/s1/shiawase_kissa_sanchoume/vol13_chapter_69/28.jpg",
    "https://img-proxy.imgfo.com/?referer=https://manganelo.com&url=https://s5.mkklcdnv6temp.com/mangakakalot/s1/shiawase_kissa_sanchoume/vol13_chapter_69/29.jpg",
    "https://img-proxy.imgfo.com/?referer=https://manganelo.com&url=https://s5.mkklcdnv6temp.com/mangakakalot/s1/shiawase_kissa_sanchoume/vol13_chapter_69/30.jpg",
    "https://img-proxy.imgfo.com/?referer=https://manganelo.com&url=https://s5.mkklcdnv6temp.com/mangakakalot/s1/shiawase_kissa_sanchoume/vol13_chapter_69/31.jpg",
    "https://img-proxy.imgfo.com/?referer=https://manganelo.com&url=https://s5.mkklcdnv6temp.com/mangakakalot/s1/shiawase_kissa_sanchoume/vol13_chapter_69/32.jpg"
  ]
}