{
  "cover": "https://avt.mkklcdnv6.com/20/b/2-1583466487.jpg",
  "title": "Koishii Akuma",
  "original": "こいしい悪魔 ; 懷念的惡魔",
  "genre": "Comedy, Drama, Romance, School life, Yaoi, Manga",
  "author": "Madarame Hiro",
  "status": "Completed",
  "backlink": "https://manganu.com/collections/madarame-hiro/koishii-akuma/",
  "description": "From Blissful Sin:\nDespite his best efforts, Akiyoshi Tooru has fallen for the very beautiful but sadistic and perverted demon, Naruse Fuuta. Not only do they attend the same university, they’re now living together! Though Akiyoshi has always tried to be careful about their night life, he never expected Naruse to stop touching him altogether, and then all of a sudden, Naruse is in an accident and reverts to his adolescent self!\nSequel to Itoshii Akuma",
  "language": "English",
  "images": [
    "https://img-proxy.imgfo.com/?referer=https://manganelo.com&url=https://s6.mkklcdnv6temp.com/mangakakalot/k2/koishii_akuma/vol1_chapter_8/1.jpg",
    "https://img-proxy.imgfo.com/?referer=https://manganelo.com&url=https://s6.mkklcdnv6temp.com/mangakakalot/k2/koishii_akuma/vol1_chapter_8/2.jpg",
    "https://img-proxy.imgfo.com/?referer=https://manganelo.com&url=https://s6.mkklcdnv6temp.com/mangakakalot/k2/koishii_akuma/vol1_chapter_8/3.jpg",
    "https://img-proxy.imgfo.com/?referer=https://manganelo.com&url=https://s6.mkklcdnv6temp.com/mangakakalot/k2/koishii_akuma/vol1_chapter_8/4.jpg",
    "https://img-proxy.imgfo.com/?referer=https://manganelo.com&url=https://s6.mkklcdnv6temp.com/mangakakalot/k2/koishii_akuma/vol1_chapter_8/5.jpg",
    "https://img-proxy.imgfo.com/?referer=https://manganelo.com&url=https://s6.mkklcdnv6temp.com/mangakakalot/k2/koishii_akuma/vol1_chapter_8/6.jpg",
    "https://img-proxy.imgfo.com/?referer=https://manganelo.com&url=https://s6.mkklcdnv6temp.com/mangakakalot/k2/koishii_akuma/vol1_chapter_8/7.jpg",
    "https://img-proxy.imgfo.com/?referer=https://manganelo.com&url=https://s6.mkklcdnv6temp.com/mangakakalot/k2/koishii_akuma/vol1_chapter_8/8.jpg",
    "https://img-proxy.imgfo.com/?referer=https://manganelo.com&url=https://s6.mkklcdnv6temp.com/mangakakalot/k2/koishii_akuma/vol1_chapter_8/9.jpg",
    "https://img-proxy.imgfo.com/?referer=https://manganelo.com&url=https://s6.mkklcdnv6temp.com/mangakakalot/k2/koishii_akuma/vol1_chapter_8/10.jpg",
    "https://img-proxy.imgfo.com/?referer=https://manganelo.com&url=https://s6.mkklcdnv6temp.com/mangakakalot/k2/koishii_akuma/vol1_chapter_8/11.jpg",
    "https://img-proxy.imgfo.com/?referer=https://manganelo.com&url=https://s6.mkklcdnv6temp.com/mangakakalot/k2/koishii_akuma/vol1_chapter_8/12.jpg"
  ]
}