{
  "cover": "https://avt.mkklcdnv6.com/35/y/3-1583469089.jpg",
  "title": "Slam Dunk",
  "original": "スラムダンク",
  "genre": "Action, Adult, Comedy, Cooking, Romance, Shounen, Sports, Manga",
  "author": "Inoue Takehiko",
  "status": "Completed",
  "backlink": "https://manganu.com/collections/inoue-takehiko/slam-dunk/",
  "description": "There are many different popular mangas out there in the real world, but this particular form of anime can be hard to find, especially if looking for something that was originally in print years or even decades ago. In this case if you want to find some quality old stories, like being able to read&nbsp;Slam Dunk manga&nbsp;online resources are your best hope.\n\nThe reason you need to read&nbsp;Slam Dunk manga&nbsp;online is simple: because the original print run is going to be extremely hard to find. This sports manga was a serialized story that ran from 1990 through 1996 and although it was adapted into an on screen anime, many people prefer to view the original story in its original form.\n&nbsp;\n5 Characters in Slam-Dunk Manga\n&nbsp;\nHowever, the collected versions became extremely popular, selling millions of copies once they were completely collected and that is an option for people who want to buy the Slam Dunk manga online. However, for actual reading, why invest all that money in getting hard copies when you actually can just sit down, find the right websites that show great high-quality manga online and read up on all the issues that you haven&rsquo;t been caught up on.\n\nSlam Dunk Manga transform to Anime",
  "language": "English",
  "images": [
    "https://img-proxy.imgfo.com/?referer=https://manganelo.com&url=https://s6.mkklcdnv6temp.com/mangakakalot/r1/read_slam_dunk_manga/vol19_chapter_163_the_disappointing_first_half/1.jpg",
    "https://img-proxy.imgfo.com/?referer=https://manganelo.com&url=https://s6.mkklcdnv6temp.com/mangakakalot/r1/read_slam_dunk_manga/vol19_chapter_163_the_disappointing_first_half/2.jpg",
    "https://img-proxy.imgfo.com/?referer=https://manganelo.com&url=https://s6.mkklcdnv6temp.com/mangakakalot/r1/read_slam_dunk_manga/vol19_chapter_163_the_disappointing_first_half/3.jpg",
    "https://img-proxy.imgfo.com/?referer=https://manganelo.com&url=https://s6.mkklcdnv6temp.com/mangakakalot/r1/read_slam_dunk_manga/vol19_chapter_163_the_disappointing_first_half/4.jpg",
    "https://img-proxy.imgfo.com/?referer=https://manganelo.com&url=https://s6.mkklcdnv6temp.com/mangakakalot/r1/read_slam_dunk_manga/vol19_chapter_163_the_disappointing_first_half/5.jpg",
    "https://img-proxy.imgfo.com/?referer=https://manganelo.com&url=https://s6.mkklcdnv6temp.com/mangakakalot/r1/read_slam_dunk_manga/vol19_chapter_163_the_disappointing_first_half/6.jpg",
    "https://img-proxy.imgfo.com/?referer=https://manganelo.com&url=https://s6.mkklcdnv6temp.com/mangakakalot/r1/read_slam_dunk_manga/vol19_chapter_163_the_disappointing_first_half/7.jpg",
    "https://img-proxy.imgfo.com/?referer=https://manganelo.com&url=https://s6.mkklcdnv6temp.com/mangakakalot/r1/read_slam_dunk_manga/vol19_chapter_163_the_disappointing_first_half/8.jpg",
    "https://img-proxy.imgfo.com/?referer=https://manganelo.com&url=https://s6.mkklcdnv6temp.com/mangakakalot/r1/read_slam_dunk_manga/vol19_chapter_163_the_disappointing_first_half/9.jpg",
    "https://img-proxy.imgfo.com/?referer=https://manganelo.com&url=https://s6.mkklcdnv6temp.com/mangakakalot/r1/read_slam_dunk_manga/vol19_chapter_163_the_disappointing_first_half/10.jpg",
    "https://img-proxy.imgfo.com/?referer=https://manganelo.com&url=https://s6.mkklcdnv6temp.com/mangakakalot/r1/read_slam_dunk_manga/vol19_chapter_163_the_disappointing_first_half/11.jpg",
    "https://img-proxy.imgfo.com/?referer=https://manganelo.com&url=https://s6.mkklcdnv6temp.com/mangakakalot/r1/read_slam_dunk_manga/vol19_chapter_163_the_disappointing_first_half/12.jpg",
    "https://img-proxy.imgfo.com/?referer=https://manganelo.com&url=https://s6.mkklcdnv6temp.com/mangakakalot/r1/read_slam_dunk_manga/vol19_chapter_163_the_disappointing_first_half/13.jpg",
    "https://img-proxy.imgfo.com/?referer=https://manganelo.com&url=https://s6.mkklcdnv6temp.com/mangakakalot/r1/read_slam_dunk_manga/vol19_chapter_163_the_disappointing_first_half/14.jpg",
    "https://img-proxy.imgfo.com/?referer=https://manganelo.com&url=https://s6.mkklcdnv6temp.com/mangakakalot/r1/read_slam_dunk_manga/vol19_chapter_163_the_disappointing_first_half/15.jpg",
    "https://img-proxy.imgfo.com/?referer=https://manganelo.com&url=https://s6.mkklcdnv6temp.com/mangakakalot/r1/read_slam_dunk_manga/vol19_chapter_163_the_disappointing_first_half/16.jpg",
    "https://img-proxy.imgfo.com/?referer=https://manganelo.com&url=https://s6.mkklcdnv6temp.com/mangakakalot/r1/read_slam_dunk_manga/vol19_chapter_163_the_disappointing_first_half/17.jpg",
    "https://img-proxy.imgfo.com/?referer=https://manganelo.com&url=https://s6.mkklcdnv6temp.com/mangakakalot/r1/read_slam_dunk_manga/vol19_chapter_163_the_disappointing_first_half/18.jpg"
  ]
}