{
  "cover": "https://avt.mkklcdnv6.com/48/b/4-1583471704.jpg",
  "title": "Legend Of Tyr",
  "original": "Легенда Тира ; ทิล บันทึกภารกิจ ล่าสมรภูมิ ; 티르전기 ; The Legend of Tyr ; The Tyr Chronicles ; Tireujeongi ; Try Jeongi",
  "genre": "Action, Adventure, Comedy, Fantasy, Shounen, Manhwa",
  "author": "Ra In-Soo",
  "status": "Completed",
  "backlink": "https://manganu.com/collections/ra-in-soo/legend-of-tyr/",
  "description": "Fantasy Action Legend that follows brother's diary!!\nAfter his brother Loki's death, on Tyr's 17th birthday.... Loki's diary is delivered to Tyr. When following the diary step by step, Tyr realizes that everything that's happening around him is already recorded within the diary.",
  "language": "English",
  "images": [
    "https://img-proxy.imgfo.com/?referer=https://manganelo.com&url=https://s5.mkklcdnv6temp.com/mangakakalot/l1/legend_of_tyr/vol2_chapter_9/1.jpg",
    "https://img-proxy.imgfo.com/?referer=https://manganelo.com&url=https://s5.mkklcdnv6temp.com/mangakakalot/l1/legend_of_tyr/vol2_chapter_9/2.jpg",
    "https://img-proxy.imgfo.com/?referer=https://manganelo.com&url=https://s5.mkklcdnv6temp.com/mangakakalot/l1/legend_of_tyr/vol2_chapter_9/3.jpg",
    "https://img-proxy.imgfo.com/?referer=https://manganelo.com&url=https://s5.mkklcdnv6temp.com/mangakakalot/l1/legend_of_tyr/vol2_chapter_9/4.jpg",
    "https://img-proxy.imgfo.com/?referer=https://manganelo.com&url=https://s5.mkklcdnv6temp.com/mangakakalot/l1/legend_of_tyr/vol2_chapter_9/5.jpg",
    "https://img-proxy.imgfo.com/?referer=https://manganelo.com&url=https://s5.mkklcdnv6temp.com/mangakakalot/l1/legend_of_tyr/vol2_chapter_9/6.jpg",
    "https://img-proxy.imgfo.com/?referer=https://manganelo.com&url=https://s5.mkklcdnv6temp.com/mangakakalot/l1/legend_of_tyr/vol2_chapter_9/7.jpg",
    "https://img-proxy.imgfo.com/?referer=https://manganelo.com&url=https://s5.mkklcdnv6temp.com/mangakakalot/l1/legend_of_tyr/vol2_chapter_9/8.jpg",
    "https://img-proxy.imgfo.com/?referer=https://manganelo.com&url=https://s5.mkklcdnv6temp.com/mangakakalot/l1/legend_of_tyr/vol2_chapter_9/9.jpg",
    "https://img-proxy.imgfo.com/?referer=https://manganelo.com&url=https://s5.mkklcdnv6temp.com/mangakakalot/l1/legend_of_tyr/vol2_chapter_9/10.jpg",
    "https://img-proxy.imgfo.com/?referer=https://manganelo.com&url=https://s5.mkklcdnv6temp.com/mangakakalot/l1/legend_of_tyr/vol2_chapter_9/11.jpg",
    "https://img-proxy.imgfo.com/?referer=https://manganelo.com&url=https://s5.mkklcdnv6temp.com/mangakakalot/l1/legend_of_tyr/vol2_chapter_9/12.jpg",
    "https://img-proxy.imgfo.com/?referer=https://manganelo.com&url=https://s5.mkklcdnv6temp.com/mangakakalot/l1/legend_of_tyr/vol2_chapter_9/13.jpg",
    "https://img-proxy.imgfo.com/?referer=https://manganelo.com&url=https://s5.mkklcdnv6temp.com/mangakakalot/l1/legend_of_tyr/vol2_chapter_9/14.jpg",
    "https://img-proxy.imgfo.com/?referer=https://manganelo.com&url=https://s5.mkklcdnv6temp.com/mangakakalot/l1/legend_of_tyr/vol2_chapter_9/15.jpg",
    "https://img-proxy.imgfo.com/?referer=https://manganelo.com&url=https://s5.mkklcdnv6temp.com/mangakakalot/l1/legend_of_tyr/vol2_chapter_9/16.jpg",
    "https://img-proxy.imgfo.com/?referer=https://manganelo.com&url=https://s5.mkklcdnv6temp.com/mangakakalot/l1/legend_of_tyr/vol2_chapter_9/17.jpg",
    "https://img-proxy.imgfo.com/?referer=https://manganelo.com&url=https://s5.mkklcdnv6temp.com/mangakakalot/l1/legend_of_tyr/vol2_chapter_9/18.jpg",
    "https://img-proxy.imgfo.com/?referer=https://manganelo.com&url=https://s5.mkklcdnv6temp.com/mangakakalot/l1/legend_of_tyr/vol2_chapter_9/19.jpg",
    "https://img-proxy.imgfo.com/?referer=https://manganelo.com&url=https://s5.mkklcdnv6temp.com/mangakakalot/l1/legend_of_tyr/vol2_chapter_9/20.jpg",
    "https://img-proxy.imgfo.com/?referer=https://manganelo.com&url=https://s5.mkklcdnv6temp.com/mangakakalot/l1/legend_of_tyr/vol2_chapter_9/21.jpg",
    "https://img-proxy.imgfo.com/?referer=https://manganelo.com&url=https://s5.mkklcdnv6temp.com/mangakakalot/l1/legend_of_tyr/vol2_chapter_9/22.jpg",
    "https://img-proxy.imgfo.com/?referer=https://manganelo.com&url=https://s5.mkklcdnv6temp.com/mangakakalot/l1/legend_of_tyr/vol2_chapter_9/23.jpg",
    "https://img-proxy.imgfo.com/?referer=https://manganelo.com&url=https://s5.mkklcdnv6temp.com/mangakakalot/l1/legend_of_tyr/vol2_chapter_9/24.jpg",
    "https://img-proxy.imgfo.com/?referer=https://manganelo.com&url=https://s5.mkklcdnv6temp.com/mangakakalot/l1/legend_of_tyr/vol2_chapter_9/25.jpg",
    "https://img-proxy.imgfo.com/?referer=https://manganelo.com&url=https://s5.mkklcdnv6temp.com/mangakakalot/l1/legend_of_tyr/vol2_chapter_9/26.jpg",
    "https://img-proxy.imgfo.com/?referer=https://manganelo.com&url=https://s5.mkklcdnv6temp.com/mangakakalot/l1/legend_of_tyr/vol2_chapter_9/27.jpg",
    "https://img-proxy.imgfo.com/?referer=https://manganelo.com&url=https://s5.mkklcdnv6temp.com/mangakakalot/l1/legend_of_tyr/vol2_chapter_9/28.jpg",
    "https://img-proxy.imgfo.com/?referer=https://manganelo.com&url=https://s5.mkklcdnv6temp.com/mangakakalot/l1/legend_of_tyr/vol2_chapter_9/29.jpg"
  ]
}