{
  "cover": "https://avt.mkklcdnv6.com/3/w/5-1583471983.jpg",
  "title": "Tenshi Kouryaku Manual",
  "original": "天使攻略マニュアル ; Ange mode d'emploi (French) ; Angel Manual",
  "genre": "Comedy, Fantasy, Romance, Shoujo, Manga",
  "author": "Kikuchi Kumiko",
  "status": "Completed",
  "backlink": "https://manganu.com/collections/kikuchi-kumiko/tenshi-kouryaku-manual/",
  "description": "Tenko, a girl who always went to an all-girl school, after making friends with a stuffed dinosaur who also speaks, decides to try the entrance exam of a mixed school, previously an all boy school, because she fell in love at the first sight with one of their students: Madoka. A cute and lovely story about a first love!!",
  "language": "English",
  "images": [
    "https://img-proxy.imgfo.com/?referer=https://manganelo.com&url=https://s3.mkklcdnv6temp.com/mangakakalot/t1/tenshi_kouryaku_manual/vol3_chapter_14_my_name_is/1.jpg",
    "https://img-proxy.imgfo.com/?referer=https://manganelo.com&url=https://s3.mkklcdnv6temp.com/mangakakalot/t1/tenshi_kouryaku_manual/vol3_chapter_14_my_name_is/2.jpg",
    "https://img-proxy.imgfo.com/?referer=https://manganelo.com&url=https://s3.mkklcdnv6temp.com/mangakakalot/t1/tenshi_kouryaku_manual/vol3_chapter_14_my_name_is/3.jpg",
    "https://img-proxy.imgfo.com/?referer=https://manganelo.com&url=https://s3.mkklcdnv6temp.com/mangakakalot/t1/tenshi_kouryaku_manual/vol3_chapter_14_my_name_is/4.jpg",
    "https://img-proxy.imgfo.com/?referer=https://manganelo.com&url=https://s3.mkklcdnv6temp.com/mangakakalot/t1/tenshi_kouryaku_manual/vol3_chapter_14_my_name_is/5.jpg",
    "https://img-proxy.imgfo.com/?referer=https://manganelo.com&url=https://s3.mkklcdnv6temp.com/mangakakalot/t1/tenshi_kouryaku_manual/vol3_chapter_14_my_name_is/6.jpg",
    "https://img-proxy.imgfo.com/?referer=https://manganelo.com&url=https://s3.mkklcdnv6temp.com/mangakakalot/t1/tenshi_kouryaku_manual/vol3_chapter_14_my_name_is/7.jpg",
    "https://img-proxy.imgfo.com/?referer=https://manganelo.com&url=https://s3.mkklcdnv6temp.com/mangakakalot/t1/tenshi_kouryaku_manual/vol3_chapter_14_my_name_is/8.jpg",
    "https://img-proxy.imgfo.com/?referer=https://manganelo.com&url=https://s3.mkklcdnv6temp.com/mangakakalot/t1/tenshi_kouryaku_manual/vol3_chapter_14_my_name_is/9.jpg",
    "https://img-proxy.imgfo.com/?referer=https://manganelo.com&url=https://s3.mkklcdnv6temp.com/mangakakalot/t1/tenshi_kouryaku_manual/vol3_chapter_14_my_name_is/10.jpg",
    "https://img-proxy.imgfo.com/?referer=https://manganelo.com&url=https://s3.mkklcdnv6temp.com/mangakakalot/t1/tenshi_kouryaku_manual/vol3_chapter_14_my_name_is/11.jpg",
    "https://img-proxy.imgfo.com/?referer=https://manganelo.com&url=https://s3.mkklcdnv6temp.com/mangakakalot/t1/tenshi_kouryaku_manual/vol3_chapter_14_my_name_is/12.jpg",
    "https://img-proxy.imgfo.com/?referer=https://manganelo.com&url=https://s3.mkklcdnv6temp.com/mangakakalot/t1/tenshi_kouryaku_manual/vol3_chapter_14_my_name_is/13.jpg",
    "https://img-proxy.imgfo.com/?referer=https://manganelo.com&url=https://s3.mkklcdnv6temp.com/mangakakalot/t1/tenshi_kouryaku_manual/vol3_chapter_14_my_name_is/14.jpg",
    "https://img-proxy.imgfo.com/?referer=https://manganelo.com&url=https://s3.mkklcdnv6temp.com/mangakakalot/t1/tenshi_kouryaku_manual/vol3_chapter_14_my_name_is/15.jpg",
    "https://img-proxy.imgfo.com/?referer=https://manganelo.com&url=https://s3.mkklcdnv6temp.com/mangakakalot/t1/tenshi_kouryaku_manual/vol3_chapter_14_my_name_is/16.jpg",
    "https://img-proxy.imgfo.com/?referer=https://manganelo.com&url=https://s3.mkklcdnv6temp.com/mangakakalot/t1/tenshi_kouryaku_manual/vol3_chapter_14_my_name_is/17.jpg",
    "https://img-proxy.imgfo.com/?referer=https://manganelo.com&url=https://s3.mkklcdnv6temp.com/mangakakalot/t1/tenshi_kouryaku_manual/vol3_chapter_14_my_name_is/18.jpg",
    "https://img-proxy.imgfo.com/?referer=https://manganelo.com&url=https://s3.mkklcdnv6temp.com/mangakakalot/t1/tenshi_kouryaku_manual/vol3_chapter_14_my_name_is/19.jpg",
    "https://img-proxy.imgfo.com/?referer=https://manganelo.com&url=https://s3.mkklcdnv6temp.com/mangakakalot/t1/tenshi_kouryaku_manual/vol3_chapter_14_my_name_is/20.jpg",
    "https://img-proxy.imgfo.com/?referer=https://manganelo.com&url=https://s3.mkklcdnv6temp.com/mangakakalot/t1/tenshi_kouryaku_manual/vol3_chapter_14_my_name_is/21.jpg",
    "https://img-proxy.imgfo.com/?referer=https://manganelo.com&url=https://s3.mkklcdnv6temp.com/mangakakalot/t1/tenshi_kouryaku_manual/vol3_chapter_14_my_name_is/22.jpg",
    "https://img-proxy.imgfo.com/?referer=https://manganelo.com&url=https://s3.mkklcdnv6temp.com/mangakakalot/t1/tenshi_kouryaku_manual/vol3_chapter_14_my_name_is/23.jpg",
    "https://img-proxy.imgfo.com/?referer=https://manganelo.com&url=https://s3.mkklcdnv6temp.com/mangakakalot/t1/tenshi_kouryaku_manual/vol3_chapter_14_my_name_is/24.jpg",
    "https://img-proxy.imgfo.com/?referer=https://manganelo.com&url=https://s3.mkklcdnv6temp.com/mangakakalot/t1/tenshi_kouryaku_manual/vol3_chapter_14_my_name_is/25.jpg",
    "https://img-proxy.imgfo.com/?referer=https://manganelo.com&url=https://s3.mkklcdnv6temp.com/mangakakalot/t1/tenshi_kouryaku_manual/vol3_chapter_14_my_name_is/26.jpg",
    "https://img-proxy.imgfo.com/?referer=https://manganelo.com&url=https://s3.mkklcdnv6temp.com/mangakakalot/t1/tenshi_kouryaku_manual/vol3_chapter_14_my_name_is/27.jpg",
    "https://img-proxy.imgfo.com/?referer=https://manganelo.com&url=https://s3.mkklcdnv6temp.com/mangakakalot/t1/tenshi_kouryaku_manual/vol3_chapter_14_my_name_is/28.jpg",
    "https://img-proxy.imgfo.com/?referer=https://manganelo.com&url=https://s3.mkklcdnv6temp.com/mangakakalot/t1/tenshi_kouryaku_manual/vol3_chapter_14_my_name_is/29.jpg",
    "https://img-proxy.imgfo.com/?referer=https://manganelo.com&url=https://s3.mkklcdnv6temp.com/mangakakalot/t1/tenshi_kouryaku_manual/vol3_chapter_14_my_name_is/30.jpg",
    "https://img-proxy.imgfo.com/?referer=https://manganelo.com&url=https://s3.mkklcdnv6temp.com/mangakakalot/t1/tenshi_kouryaku_manual/vol3_chapter_14_my_name_is/31.jpg",
    "https://img-proxy.imgfo.com/?referer=https://manganelo.com&url=https://s3.mkklcdnv6temp.com/mangakakalot/t1/tenshi_kouryaku_manual/vol3_chapter_14_my_name_is/32.jpg",
    "https://img-proxy.imgfo.com/?referer=https://manganelo.com&url=https://s3.mkklcdnv6temp.com/mangakakalot/t1/tenshi_kouryaku_manual/vol3_chapter_14_my_name_is/33.jpg",
    "https://img-proxy.imgfo.com/?referer=https://manganelo.com&url=https://s3.mkklcdnv6temp.com/mangakakalot/t1/tenshi_kouryaku_manual/vol3_chapter_14_my_name_is/34.jpg",
    "https://img-proxy.imgfo.com/?referer=https://manganelo.com&url=https://s3.mkklcdnv6temp.com/mangakakalot/t1/tenshi_kouryaku_manual/vol3_chapter_14_my_name_is/35.jpg",
    "https://img-proxy.imgfo.com/?referer=https://manganelo.com&url=https://s3.mkklcdnv6temp.com/mangakakalot/t1/tenshi_kouryaku_manual/vol3_chapter_14_my_name_is/36.jpg",
    "https://img-proxy.imgfo.com/?referer=https://manganelo.com&url=https://s3.mkklcdnv6temp.com/mangakakalot/t1/tenshi_kouryaku_manual/vol3_chapter_14_my_name_is/37.jpg",
    "https://img-proxy.imgfo.com/?referer=https://manganelo.com&url=https://s3.mkklcdnv6temp.com/mangakakalot/t1/tenshi_kouryaku_manual/vol3_chapter_14_my_name_is/38.jpg",
    "https://img-proxy.imgfo.com/?referer=https://manganelo.com&url=https://s3.mkklcdnv6temp.com/mangakakalot/t1/tenshi_kouryaku_manual/vol3_chapter_14_my_name_is/39.jpg",
    "https://img-proxy.imgfo.com/?referer=https://manganelo.com&url=https://s3.mkklcdnv6temp.com/mangakakalot/t1/tenshi_kouryaku_manual/vol3_chapter_14_my_name_is/40.jpg",
    "https://img-proxy.imgfo.com/?referer=https://manganelo.com&url=https://s3.mkklcdnv6temp.com/mangakakalot/t1/tenshi_kouryaku_manual/vol3_chapter_14_my_name_is/41.jpg"
  ]
}