{
  "cover": "https://avt.mkklcdnv6.com/45/s/3-1583469474.jpg",
  "title": "Poor Poor Lips",
  "original": "プアプアLIPS ; Pua Pua Lips",
  "genre": "Comedy, Seinen, Slice of life, Yuri, Manga",
  "author": "Goto Hayako",
  "status": "Completed",
  "backlink": "https://manganu.com/collections/goto-hayako/poor-poor-lips/",
  "description": "Nako is a poverty-stricken 21 year-old in desperate need of a job. She applies for a job at a jewelry store. When shop owner Ren identifies herself as a lesbian, the competition for the position evaporates, leaving only Nako. Ren asks her if her sexual orientation will be a problem, Nako sensibly replies that she's not interested, so she doesn't see any problem.",
  "language": "English",
  "images": [
    "https://img-proxy.imgfo.com/?referer=https://manganelo.com&url=https://s5.mkklcdnv6temp.com/mangakakalot/p2/poor_poor_lips/vol3_chapter_46/1.jpg",
    "https://img-proxy.imgfo.com/?referer=https://manganelo.com&url=https://s5.mkklcdnv6temp.com/mangakakalot/p2/poor_poor_lips/vol3_chapter_46/2.jpg",
    "https://img-proxy.imgfo.com/?referer=https://manganelo.com&url=https://s5.mkklcdnv6temp.com/mangakakalot/p2/poor_poor_lips/vol3_chapter_46/3.jpg",
    "https://img-proxy.imgfo.com/?referer=https://manganelo.com&url=https://s5.mkklcdnv6temp.com/mangakakalot/p2/poor_poor_lips/vol3_chapter_46/4.jpg",
    "https://img-proxy.imgfo.com/?referer=https://manganelo.com&url=https://s5.mkklcdnv6temp.com/mangakakalot/p2/poor_poor_lips/vol3_chapter_46/5.jpg",
    "https://img-proxy.imgfo.com/?referer=https://manganelo.com&url=https://s5.mkklcdnv6temp.com/mangakakalot/p2/poor_poor_lips/vol3_chapter_46/6.jpg"
  ]
}