{
  "cover": "https://avt.mkklcdnv6.com/10/j/5-1583472263.jpg",
  "title": "Natsujikan",
  "original": "夏時間 ; Natsu Jikan ; Summertime ; Summertime Memory",
  "genre": "Comedy, Drama, Romance, Supernatural, Tragedy, Yaoi, Manga",
  "author": "Kunieda Saika",
  "status": "Completed",
  "backlink": "https://manganu.com/collections/kunieda-saika/natsujikan/",
  "description": "Series of 5 oneshots:\n1) Natsu Jikan\nA boy goes to meet a stranger after his mother died. The mother left a lot of love-letters to this man...\n2) Torrid Night\nAfter years have past Takaaki has returned to his childhood home and his stepbrother Nozomi. They are the only family they have left, and both hold secrets from the past that can destroy them. But the dark passion they feel is dangerous too...\n3-4) That's What God Says & Sweet Little Devil\nIzumi and Tetsuya are neighbors, both with very similar problems. Does one's appearance really determine who you are or how you should be? Were these neighbors fated to be together?\n5) The Sleeping Man\nNaoki and Tatsuya were high school classmates and close friends, with Tatsuya having the task of waking up his ever sleeping friend. They agreed to meet at the dawn of the new millennium, and though they both show up, there's something off....",
  "language": "English",
  "images": [
    "https://img-proxy.imgfo.com/?referer=https://manganelo.com&url=https://s6.mkklcdnv6temp.com/mangakakalot/n1/natsujikan/vol1_chapter_5_the_sleeping_man/1.jpg",
    "https://img-proxy.imgfo.com/?referer=https://manganelo.com&url=https://s6.mkklcdnv6temp.com/mangakakalot/n1/natsujikan/vol1_chapter_5_the_sleeping_man/2.jpg",
    "https://img-proxy.imgfo.com/?referer=https://manganelo.com&url=https://s6.mkklcdnv6temp.com/mangakakalot/n1/natsujikan/vol1_chapter_5_the_sleeping_man/3.jpg",
    "https://img-proxy.imgfo.com/?referer=https://manganelo.com&url=https://s6.mkklcdnv6temp.com/mangakakalot/n1/natsujikan/vol1_chapter_5_the_sleeping_man/4.jpg",
    "https://img-proxy.imgfo.com/?referer=https://manganelo.com&url=https://s6.mkklcdnv6temp.com/mangakakalot/n1/natsujikan/vol1_chapter_5_the_sleeping_man/5.jpg",
    "https://img-proxy.imgfo.com/?referer=https://manganelo.com&url=https://s6.mkklcdnv6temp.com/mangakakalot/n1/natsujikan/vol1_chapter_5_the_sleeping_man/6.jpg",
    "https://img-proxy.imgfo.com/?referer=https://manganelo.com&url=https://s6.mkklcdnv6temp.com/mangakakalot/n1/natsujikan/vol1_chapter_5_the_sleeping_man/7.jpg",
    "https://img-proxy.imgfo.com/?referer=https://manganelo.com&url=https://s6.mkklcdnv6temp.com/mangakakalot/n1/natsujikan/vol1_chapter_5_the_sleeping_man/8.jpg",
    "https://img-proxy.imgfo.com/?referer=https://manganelo.com&url=https://s6.mkklcdnv6temp.com/mangakakalot/n1/natsujikan/vol1_chapter_5_the_sleeping_man/9.jpg",
    "https://img-proxy.imgfo.com/?referer=https://manganelo.com&url=https://s6.mkklcdnv6temp.com/mangakakalot/n1/natsujikan/vol1_chapter_5_the_sleeping_man/10.jpg",
    "https://img-proxy.imgfo.com/?referer=https://manganelo.com&url=https://s6.mkklcdnv6temp.com/mangakakalot/n1/natsujikan/vol1_chapter_5_the_sleeping_man/11.jpg",
    "https://img-proxy.imgfo.com/?referer=https://manganelo.com&url=https://s6.mkklcdnv6temp.com/mangakakalot/n1/natsujikan/vol1_chapter_5_the_sleeping_man/12.jpg",
    "https://img-proxy.imgfo.com/?referer=https://manganelo.com&url=https://s6.mkklcdnv6temp.com/mangakakalot/n1/natsujikan/vol1_chapter_5_the_sleeping_man/13.jpg",
    "https://img-proxy.imgfo.com/?referer=https://manganelo.com&url=https://s6.mkklcdnv6temp.com/mangakakalot/n1/natsujikan/vol1_chapter_5_the_sleeping_man/14.jpg",
    "https://img-proxy.imgfo.com/?referer=https://manganelo.com&url=https://s6.mkklcdnv6temp.com/mangakakalot/n1/natsujikan/vol1_chapter_5_the_sleeping_man/15.jpg",
    "https://img-proxy.imgfo.com/?referer=https://manganelo.com&url=https://s6.mkklcdnv6temp.com/mangakakalot/n1/natsujikan/vol1_chapter_5_the_sleeping_man/16.jpg",
    "https://img-proxy.imgfo.com/?referer=https://manganelo.com&url=https://s6.mkklcdnv6temp.com/mangakakalot/n1/natsujikan/vol1_chapter_5_the_sleeping_man/17.jpg",
    "https://img-proxy.imgfo.com/?referer=https://manganelo.com&url=https://s6.mkklcdnv6temp.com/mangakakalot/n1/natsujikan/vol1_chapter_5_the_sleeping_man/18.jpg",
    "https://img-proxy.imgfo.com/?referer=https://manganelo.com&url=https://s6.mkklcdnv6temp.com/mangakakalot/n1/natsujikan/vol1_chapter_5_the_sleeping_man/19.jpg",
    "https://img-proxy.imgfo.com/?referer=https://manganelo.com&url=https://s6.mkklcdnv6temp.com/mangakakalot/n1/natsujikan/vol1_chapter_5_the_sleeping_man/20.jpg",
    "https://img-proxy.imgfo.com/?referer=https://manganelo.com&url=https://s6.mkklcdnv6temp.com/mangakakalot/n1/natsujikan/vol1_chapter_5_the_sleeping_man/21.jpg",
    "https://img-proxy.imgfo.com/?referer=https://manganelo.com&url=https://s6.mkklcdnv6temp.com/mangakakalot/n1/natsujikan/vol1_chapter_5_the_sleeping_man/22.jpg",
    "https://img-proxy.imgfo.com/?referer=https://manganelo.com&url=https://s6.mkklcdnv6temp.com/mangakakalot/n1/natsujikan/vol1_chapter_5_the_sleeping_man/23.jpg",
    "https://img-proxy.imgfo.com/?referer=https://manganelo.com&url=https://s6.mkklcdnv6temp.com/mangakakalot/n1/natsujikan/vol1_chapter_5_the_sleeping_man/24.jpg",
    "https://img-proxy.imgfo.com/?referer=https://manganelo.com&url=https://s6.mkklcdnv6temp.com/mangakakalot/n1/natsujikan/vol1_chapter_5_the_sleeping_man/25.jpg"
  ]
}