{
  "cover": "https://avt.mkklcdnv6.com/27/w/10-1583483179.jpg",
  "title": "Position",
  "original": "ポジジション",
  "genre": "Drama, Seinen, Slice of life, Supernatural, Manga",
  "author": "Ashinano Hitoshi",
  "status": "Completed",
  "backlink": "https://manganu.com/collections/ashinano-hitoshi/position/",
  "description": "This manga is about the every day occurrences in Sukiya Keiko's not all that ordinary life. From meeting a person that can fly to being all alone in the world she experiences things beyond and within your average day.",
  "language": "English",
  "images": [
    "https://img-proxy.imgfo.com/?referer=https://manganelo.com&url=https://s3.mkklcdnv6temp.com/mangakakalot/p2/position/vol1_chapter_6/1.jpg",
    "https://img-proxy.imgfo.com/?referer=https://manganelo.com&url=https://s3.mkklcdnv6temp.com/mangakakalot/p2/position/vol1_chapter_6/2.jpg",
    "https://img-proxy.imgfo.com/?referer=https://manganelo.com&url=https://s3.mkklcdnv6temp.com/mangakakalot/p2/position/vol1_chapter_6/3.jpg",
    "https://img-proxy.imgfo.com/?referer=https://manganelo.com&url=https://s3.mkklcdnv6temp.com/mangakakalot/p2/position/vol1_chapter_6/4.jpg",
    "https://img-proxy.imgfo.com/?referer=https://manganelo.com&url=https://s3.mkklcdnv6temp.com/mangakakalot/p2/position/vol1_chapter_6/5.jpg",
    "https://img-proxy.imgfo.com/?referer=https://manganelo.com&url=https://s3.mkklcdnv6temp.com/mangakakalot/p2/position/vol1_chapter_6/6.jpg",
    "https://img-proxy.imgfo.com/?referer=https://manganelo.com&url=https://s3.mkklcdnv6temp.com/mangakakalot/p2/position/vol1_chapter_6/7.jpg",
    "https://img-proxy.imgfo.com/?referer=https://manganelo.com&url=https://s3.mkklcdnv6temp.com/mangakakalot/p2/position/vol1_chapter_6/8.jpg"
  ]
}