{
  "cover": "https://avt.mkklcdnv6.com/4/b/7-1583476438.jpg",
  "title": "Ali's Dream Castle",
  "original": "阿狸·梦之城堡",
  "genre": "Fantasy, Slice of life, Manhua",
  "author": "Hans",
  "status": "Completed",
  "backlink": "https://manganu.com/collections/hans/alis-dream-castle/",
  "description": "Buffalorules: A short story about Ali’s life. The first chapter shows how he used his nine lives. The second chapter reveals his parents who have passed away. The third chapter is about the continuous chain of love between animals; there is some gender identity mistakes in this one by the author. The fourth chapter highlights the past when he was with his mother. The fifth chapter is about the friend he had when young. And the last chapter is about the shadows which somehow feel like he is in his own world.",
  "language": "English",
  "images": [
    "https://img-proxy.imgfo.com/?referer=https://manganelo.com&url=https://s7.mkklcdnv6temp.com/mangakakalot/a1/alis_dream_castle/vol1_chapter_4_mother/1.jpg",
    "https://img-proxy.imgfo.com/?referer=https://manganelo.com&url=https://s7.mkklcdnv6temp.com/mangakakalot/a1/alis_dream_castle/vol1_chapter_4_mother/2.jpg",
    "https://img-proxy.imgfo.com/?referer=https://manganelo.com&url=https://s7.mkklcdnv6temp.com/mangakakalot/a1/alis_dream_castle/vol1_chapter_4_mother/3.jpg",
    "https://img-proxy.imgfo.com/?referer=https://manganelo.com&url=https://s7.mkklcdnv6temp.com/mangakakalot/a1/alis_dream_castle/vol1_chapter_4_mother/4.jpg",
    "https://img-proxy.imgfo.com/?referer=https://manganelo.com&url=https://s7.mkklcdnv6temp.com/mangakakalot/a1/alis_dream_castle/vol1_chapter_4_mother/5.jpg",
    "https://img-proxy.imgfo.com/?referer=https://manganelo.com&url=https://s7.mkklcdnv6temp.com/mangakakalot/a1/alis_dream_castle/vol1_chapter_4_mother/6.jpg",
    "https://img-proxy.imgfo.com/?referer=https://manganelo.com&url=https://s7.mkklcdnv6temp.com/mangakakalot/a1/alis_dream_castle/vol1_chapter_4_mother/7.jpg",
    "https://img-proxy.imgfo.com/?referer=https://manganelo.com&url=https://s7.mkklcdnv6temp.com/mangakakalot/a1/alis_dream_castle/vol1_chapter_4_mother/8.jpg",
    "https://img-proxy.imgfo.com/?referer=https://manganelo.com&url=https://s7.mkklcdnv6temp.com/mangakakalot/a1/alis_dream_castle/vol1_chapter_4_mother/9.jpg",
    "https://img-proxy.imgfo.com/?referer=https://manganelo.com&url=https://s7.mkklcdnv6temp.com/mangakakalot/a1/alis_dream_castle/vol1_chapter_4_mother/10.jpg",
    "https://img-proxy.imgfo.com/?referer=https://manganelo.com&url=https://s7.mkklcdnv6temp.com/mangakakalot/a1/alis_dream_castle/vol1_chapter_4_mother/11.jpg",
    "https://img-proxy.imgfo.com/?referer=https://manganelo.com&url=https://s7.mkklcdnv6temp.com/mangakakalot/a1/alis_dream_castle/vol1_chapter_4_mother/12.jpg",
    "https://img-proxy.imgfo.com/?referer=https://manganelo.com&url=https://s7.mkklcdnv6temp.com/mangakakalot/a1/alis_dream_castle/vol1_chapter_4_mother/13.jpg",
    "https://img-proxy.imgfo.com/?referer=https://manganelo.com&url=https://s7.mkklcdnv6temp.com/mangakakalot/a1/alis_dream_castle/vol1_chapter_4_mother/14.jpg",
    "https://img-proxy.imgfo.com/?referer=https://manganelo.com&url=https://s7.mkklcdnv6temp.com/mangakakalot/a1/alis_dream_castle/vol1_chapter_4_mother/15.jpg",
    "https://img-proxy.imgfo.com/?referer=https://manganelo.com&url=https://s7.mkklcdnv6temp.com/mangakakalot/a1/alis_dream_castle/vol1_chapter_4_mother/16.jpg",
    "https://img-proxy.imgfo.com/?referer=https://manganelo.com&url=https://s7.mkklcdnv6temp.com/mangakakalot/a1/alis_dream_castle/vol1_chapter_4_mother/17.jpg",
    "https://img-proxy.imgfo.com/?referer=https://manganelo.com&url=https://s7.mkklcdnv6temp.com/mangakakalot/a1/alis_dream_castle/vol1_chapter_4_mother/18.jpg",
    "https://img-proxy.imgfo.com/?referer=https://manganelo.com&url=https://s7.mkklcdnv6temp.com/mangakakalot/a1/alis_dream_castle/vol1_chapter_4_mother/19.jpg",
    "https://img-proxy.imgfo.com/?referer=https://manganelo.com&url=https://s7.mkklcdnv6temp.com/mangakakalot/a1/alis_dream_castle/vol1_chapter_4_mother/20.jpg",
    "https://img-proxy.imgfo.com/?referer=https://manganelo.com&url=https://s7.mkklcdnv6temp.com/mangakakalot/a1/alis_dream_castle/vol1_chapter_4_mother/21.jpg",
    "https://img-proxy.imgfo.com/?referer=https://manganelo.com&url=https://s7.mkklcdnv6temp.com/mangakakalot/a1/alis_dream_castle/vol1_chapter_4_mother/22.jpg",
    "https://img-proxy.imgfo.com/?referer=https://manganelo.com&url=https://s7.mkklcdnv6temp.com/mangakakalot/a1/alis_dream_castle/vol1_chapter_4_mother/23.jpg",
    "https://img-proxy.imgfo.com/?referer=https://manganelo.com&url=https://s7.mkklcdnv6temp.com/mangakakalot/a1/alis_dream_castle/vol1_chapter_4_mother/24.jpg",
    "https://img-proxy.imgfo.com/?referer=https://manganelo.com&url=https://s7.mkklcdnv6temp.com/mangakakalot/a1/alis_dream_castle/vol1_chapter_4_mother/25.jpg",
    "https://img-proxy.imgfo.com/?referer=https://manganelo.com&url=https://s7.mkklcdnv6temp.com/mangakakalot/a1/alis_dream_castle/vol1_chapter_4_mother/26.jpg",
    "https://img-proxy.imgfo.com/?referer=https://manganelo.com&url=https://s7.mkklcdnv6temp.com/mangakakalot/a1/alis_dream_castle/vol1_chapter_4_mother/27.jpg",
    "https://img-proxy.imgfo.com/?referer=https://manganelo.com&url=https://s7.mkklcdnv6temp.com/mangakakalot/a1/alis_dream_castle/vol1_chapter_4_mother/28.jpg"
  ]
}