{
  "cover": "https://avt.mkklcdnv6.com/35/d/7-1583477598.jpg",
  "title": "Gapz Garden",
  "original": "甲子園 ; Kinoe Garden ; Jia Zi Yuan",
  "genre": "Drama, Psychological, Romance, Shoujo, Manga",
  "author": "Li Zhi",
  "status": "Completed",
  "backlink": "https://manganu.com/collections/li-zhi/gapz-garden/",
  "description": "Julie’s family is very poor and since she’s plain and ugly, as her sister has told her time and time again, she does most of the chores in her house. By accident she meets the Yee family while trying to get her plane back from a tree in their yard. She meets the family again a year later and is adopted into their family. Soon she becomes a pawn between Mr. Yee’s new wife and his oldest son Ryan. Both of which will use Julie as a means to hurt one another. Can Julie survive her new life till she’s of legal age to leave?\nFrom Manga Jouhou:\nThis young girl is often mistreated by her family, being called ugly and useless. One day, she meets the new wife of the Yee family, which changes her life forever. The woman adopts her into her wealthy family, and now she lives with 3 other boys around her age. But for what purpose? Even though this is a miracle, the girl plans to leave the luxurious lifestyle once she turns 18. So see how she survives more than 10 years of her life.",
  "language": "English",
  "images": [
    "https://img-proxy.imgfo.com/?referer=https://manganelo.com&url=https://s41.mkklcdnv6temp.com/mangakakalot/g1/gapz_garden/vol3_chapter_41_hallucination_or_reality/1.jpg",
    "https://img-proxy.imgfo.com/?referer=https://manganelo.com&url=https://s41.mkklcdnv6temp.com/mangakakalot/g1/gapz_garden/vol3_chapter_41_hallucination_or_reality/2.jpg",
    "https://img-proxy.imgfo.com/?referer=https://manganelo.com&url=https://s41.mkklcdnv6temp.com/mangakakalot/g1/gapz_garden/vol3_chapter_41_hallucination_or_reality/3.jpg",
    "https://img-proxy.imgfo.com/?referer=https://manganelo.com&url=https://s41.mkklcdnv6temp.com/mangakakalot/g1/gapz_garden/vol3_chapter_41_hallucination_or_reality/4.jpg",
    "https://img-proxy.imgfo.com/?referer=https://manganelo.com&url=https://s41.mkklcdnv6temp.com/mangakakalot/g1/gapz_garden/vol3_chapter_41_hallucination_or_reality/5.jpg",
    "https://img-proxy.imgfo.com/?referer=https://manganelo.com&url=https://s41.mkklcdnv6temp.com/mangakakalot/g1/gapz_garden/vol3_chapter_41_hallucination_or_reality/6.jpg",
    "https://img-proxy.imgfo.com/?referer=https://manganelo.com&url=https://s41.mkklcdnv6temp.com/mangakakalot/g1/gapz_garden/vol3_chapter_41_hallucination_or_reality/7.jpg"
  ]
}