{
  "cover": "https://avt.mkklcdnv6.com/18/t/5-1583472578.jpg",
  "title": "Girls Saurus Dx",
  "original": "ガールズザウルスDX ; 美女恐龙妹DX ; 걸즈 사우르스 DX ; Girls Saurus Deluxe",
  "genre": "Comedy, Ecchi, Harem, Romance, School life, Seinen, Manga",
  "author": "Kusunoki Kei",
  "status": "Completed",
  "backlink": "https://manganu.com/collections/kusunoki-kei/girls-saurus-dx/",
  "description": "Shingo Chiryuu isn't much different than any other guy except for one thing... He's afraid of girls. Now he finds himself surrounded by girls, including the one whose attack originally instilled the fear in him, as he attempts to cure himself of his gynophobia.",
  "language": "English",
  "images": [
    "https://img-proxy.imgfo.com/?referer=https://manganelo.com&url=https://s3.mkklcdnv6temp.com/mangakakalot/g1/girls_saurus_dx/vol6_chapter_39_transformed_saurus/1.jpg",
    "https://img-proxy.imgfo.com/?referer=https://manganelo.com&url=https://s3.mkklcdnv6temp.com/mangakakalot/g1/girls_saurus_dx/vol6_chapter_39_transformed_saurus/2.jpg",
    "https://img-proxy.imgfo.com/?referer=https://manganelo.com&url=https://s3.mkklcdnv6temp.com/mangakakalot/g1/girls_saurus_dx/vol6_chapter_39_transformed_saurus/3.jpg",
    "https://img-proxy.imgfo.com/?referer=https://manganelo.com&url=https://s3.mkklcdnv6temp.com/mangakakalot/g1/girls_saurus_dx/vol6_chapter_39_transformed_saurus/4.jpg",
    "https://img-proxy.imgfo.com/?referer=https://manganelo.com&url=https://s3.mkklcdnv6temp.com/mangakakalot/g1/girls_saurus_dx/vol6_chapter_39_transformed_saurus/5.jpg",
    "https://img-proxy.imgfo.com/?referer=https://manganelo.com&url=https://s3.mkklcdnv6temp.com/mangakakalot/g1/girls_saurus_dx/vol6_chapter_39_transformed_saurus/6.jpg",
    "https://img-proxy.imgfo.com/?referer=https://manganelo.com&url=https://s3.mkklcdnv6temp.com/mangakakalot/g1/girls_saurus_dx/vol6_chapter_39_transformed_saurus/7.jpg",
    "https://img-proxy.imgfo.com/?referer=https://manganelo.com&url=https://s3.mkklcdnv6temp.com/mangakakalot/g1/girls_saurus_dx/vol6_chapter_39_transformed_saurus/8.jpg",
    "https://img-proxy.imgfo.com/?referer=https://manganelo.com&url=https://s3.mkklcdnv6temp.com/mangakakalot/g1/girls_saurus_dx/vol6_chapter_39_transformed_saurus/9.jpg",
    "https://img-proxy.imgfo.com/?referer=https://manganelo.com&url=https://s3.mkklcdnv6temp.com/mangakakalot/g1/girls_saurus_dx/vol6_chapter_39_transformed_saurus/10.jpg",
    "https://img-proxy.imgfo.com/?referer=https://manganelo.com&url=https://s3.mkklcdnv6temp.com/mangakakalot/g1/girls_saurus_dx/vol6_chapter_39_transformed_saurus/11.jpg",
    "https://img-proxy.imgfo.com/?referer=https://manganelo.com&url=https://s3.mkklcdnv6temp.com/mangakakalot/g1/girls_saurus_dx/vol6_chapter_39_transformed_saurus/12.jpg",
    "https://img-proxy.imgfo.com/?referer=https://manganelo.com&url=https://s3.mkklcdnv6temp.com/mangakakalot/g1/girls_saurus_dx/vol6_chapter_39_transformed_saurus/13.jpg",
    "https://img-proxy.imgfo.com/?referer=https://manganelo.com&url=https://s3.mkklcdnv6temp.com/mangakakalot/g1/girls_saurus_dx/vol6_chapter_39_transformed_saurus/14.jpg",
    "https://img-proxy.imgfo.com/?referer=https://manganelo.com&url=https://s3.mkklcdnv6temp.com/mangakakalot/g1/girls_saurus_dx/vol6_chapter_39_transformed_saurus/15.jpg"
  ]
}