{
  "cover": "https://avt.mkklcdnv6.com/49/x/6-1583476267.jpg",
  "title": "Aoi Shiro - Kaeishou",
  "original": "アオイシロ 花影抄 ; アオイシロ -かえいしょう- ; アオイシロ -花影抄- ; Aoi Shiro ; Aoi Shiro -Kaeishou- ; Aoishiro",
  "genre": "Drama, Mystery, Shoujo ai, Shounen, Manga",
  "author": "Fumotogawa Tomoyuki",
  "status": "Completed",
  "backlink": "https://manganu.com/collections/fumotogawa-tomoyuki/aoi-shiro-kaeishou/",
  "description": "The Seijou Girls Academy's Kendo Club is traveling to Shoushinji for summer training camp. Near there is an island, Urashima, where a demon extermination took place long ago.\nIt happens that this summer something related to that demon extermination is also going to take place as the captain of the team, Osanai Syouko finds a young girl washed up on the beach...\nThis is the official comic based on the PS2 game Aoishiro which is a sister game to Akaiito.",
  "language": "English",
  "images": [
    "https://img-proxy.imgfo.com/?referer=https://manganelo.com&url=https://s7.mkklcdnv6temp.com/mangakakalot/a2/aoi_shiro_kaeishou/vol2_chapter_6/43.jpg",
    "https://img-proxy.imgfo.com/?referer=https://manganelo.com&url=https://s7.mkklcdnv6temp.com/mangakakalot/a2/aoi_shiro_kaeishou/vol2_chapter_6/44.jpg",
    "https://img-proxy.imgfo.com/?referer=https://manganelo.com&url=https://s7.mkklcdnv6temp.com/mangakakalot/a2/aoi_shiro_kaeishou/vol2_chapter_6/45.jpg",
    "https://img-proxy.imgfo.com/?referer=https://manganelo.com&url=https://s7.mkklcdnv6temp.com/mangakakalot/a2/aoi_shiro_kaeishou/vol2_chapter_6/46.jpg",
    "https://img-proxy.imgfo.com/?referer=https://manganelo.com&url=https://s7.mkklcdnv6temp.com/mangakakalot/a2/aoi_shiro_kaeishou/vol2_chapter_6/47.jpg",
    "https://img-proxy.imgfo.com/?referer=https://manganelo.com&url=https://s7.mkklcdnv6temp.com/mangakakalot/a2/aoi_shiro_kaeishou/vol2_chapter_6/48.jpg",
    "https://img-proxy.imgfo.com/?referer=https://manganelo.com&url=https://s7.mkklcdnv6temp.com/mangakakalot/a2/aoi_shiro_kaeishou/vol2_chapter_6/49.jpg",
    "https://img-proxy.imgfo.com/?referer=https://manganelo.com&url=https://s7.mkklcdnv6temp.com/mangakakalot/a2/aoi_shiro_kaeishou/vol2_chapter_6/50.jpg",
    "https://img-proxy.imgfo.com/?referer=https://manganelo.com&url=https://s7.mkklcdnv6temp.com/mangakakalot/a2/aoi_shiro_kaeishou/vol2_chapter_6/51.jpg",
    "https://img-proxy.imgfo.com/?referer=https://manganelo.com&url=https://s7.mkklcdnv6temp.com/mangakakalot/a2/aoi_shiro_kaeishou/vol2_chapter_6/52.jpg",
    "https://img-proxy.imgfo.com/?referer=https://manganelo.com&url=https://s7.mkklcdnv6temp.com/mangakakalot/a2/aoi_shiro_kaeishou/vol2_chapter_6/53.jpg",
    "https://img-proxy.imgfo.com/?referer=https://manganelo.com&url=https://s7.mkklcdnv6temp.com/mangakakalot/a2/aoi_shiro_kaeishou/vol2_chapter_6/54.jpg",
    "https://img-proxy.imgfo.com/?referer=https://manganelo.com&url=https://s7.mkklcdnv6temp.com/mangakakalot/a2/aoi_shiro_kaeishou/vol2_chapter_6/55.jpg",
    "https://img-proxy.imgfo.com/?referer=https://manganelo.com&url=https://s7.mkklcdnv6temp.com/mangakakalot/a2/aoi_shiro_kaeishou/vol2_chapter_6/56.jpg",
    "https://img-proxy.imgfo.com/?referer=https://manganelo.com&url=https://s7.mkklcdnv6temp.com/mangakakalot/a2/aoi_shiro_kaeishou/vol2_chapter_6/57.jpg",
    "https://img-proxy.imgfo.com/?referer=https://manganelo.com&url=https://s7.mkklcdnv6temp.com/mangakakalot/a2/aoi_shiro_kaeishou/vol2_chapter_6/58.jpg",
    "https://img-proxy.imgfo.com/?referer=https://manganelo.com&url=https://s7.mkklcdnv6temp.com/mangakakalot/a2/aoi_shiro_kaeishou/vol2_chapter_6/59.jpg",
    "https://img-proxy.imgfo.com/?referer=https://manganelo.com&url=https://s7.mkklcdnv6temp.com/mangakakalot/a2/aoi_shiro_kaeishou/vol2_chapter_6/60.jpg",
    "https://img-proxy.imgfo.com/?referer=https://manganelo.com&url=https://s7.mkklcdnv6temp.com/mangakakalot/a2/aoi_shiro_kaeishou/vol2_chapter_6/61.jpg",
    "https://img-proxy.imgfo.com/?referer=https://manganelo.com&url=https://s7.mkklcdnv6temp.com/mangakakalot/a2/aoi_shiro_kaeishou/vol2_chapter_6/62.jpg",
    "https://img-proxy.imgfo.com/?referer=https://manganelo.com&url=https://s7.mkklcdnv6temp.com/mangakakalot/a2/aoi_shiro_kaeishou/vol2_chapter_6/63.jpg",
    "https://img-proxy.imgfo.com/?referer=https://manganelo.com&url=https://s7.mkklcdnv6temp.com/mangakakalot/a2/aoi_shiro_kaeishou/vol2_chapter_6/64.jpg",
    "https://img-proxy.imgfo.com/?referer=https://manganelo.com&url=https://s7.mkklcdnv6temp.com/mangakakalot/a2/aoi_shiro_kaeishou/vol2_chapter_6/65.jpg",
    "https://img-proxy.imgfo.com/?referer=https://manganelo.com&url=https://s7.mkklcdnv6temp.com/mangakakalot/a2/aoi_shiro_kaeishou/vol2_chapter_6/66.jpg",
    "https://img-proxy.imgfo.com/?referer=https://manganelo.com&url=https://s7.mkklcdnv6temp.com/mangakakalot/a2/aoi_shiro_kaeishou/vol2_chapter_6/67.jpg",
    "https://img-proxy.imgfo.com/?referer=https://manganelo.com&url=https://s7.mkklcdnv6temp.com/mangakakalot/a2/aoi_shiro_kaeishou/vol2_chapter_6/68.jpg",
    "https://img-proxy.imgfo.com/?referer=https://manganelo.com&url=https://s7.mkklcdnv6temp.com/mangakakalot/a2/aoi_shiro_kaeishou/vol2_chapter_6/69.jpg",
    "https://img-proxy.imgfo.com/?referer=https://manganelo.com&url=https://s7.mkklcdnv6temp.com/mangakakalot/a2/aoi_shiro_kaeishou/vol2_chapter_6/70.jpg",
    "https://img-proxy.imgfo.com/?referer=https://manganelo.com&url=https://s7.mkklcdnv6temp.com/mangakakalot/a2/aoi_shiro_kaeishou/vol2_chapter_6/71.jpg",
    "https://img-proxy.imgfo.com/?referer=https://manganelo.com&url=https://s7.mkklcdnv6temp.com/mangakakalot/a2/aoi_shiro_kaeishou/vol2_chapter_6/72.jpg",
    "https://img-proxy.imgfo.com/?referer=https://manganelo.com&url=https://s7.mkklcdnv6temp.com/mangakakalot/a2/aoi_shiro_kaeishou/vol2_chapter_6/73.jpg",
    "https://img-proxy.imgfo.com/?referer=https://manganelo.com&url=https://s7.mkklcdnv6temp.com/mangakakalot/a2/aoi_shiro_kaeishou/vol2_chapter_6/74.jpg",
    "https://img-proxy.imgfo.com/?referer=https://manganelo.com&url=https://s7.mkklcdnv6temp.com/mangakakalot/a2/aoi_shiro_kaeishou/vol2_chapter_6/75.jpg",
    "https://img-proxy.imgfo.com/?referer=https://manganelo.com&url=https://s7.mkklcdnv6temp.com/mangakakalot/a2/aoi_shiro_kaeishou/vol2_chapter_6/76.jpg",
    "https://img-proxy.imgfo.com/?referer=https://manganelo.com&url=https://s7.mkklcdnv6temp.com/mangakakalot/a2/aoi_shiro_kaeishou/vol2_chapter_6/77.jpg",
    "https://img-proxy.imgfo.com/?referer=https://manganelo.com&url=https://s7.mkklcdnv6temp.com/mangakakalot/a2/aoi_shiro_kaeishou/vol2_chapter_6/78.jpg",
    "https://img-proxy.imgfo.com/?referer=https://manganelo.com&url=https://s7.mkklcdnv6temp.com/mangakakalot/a2/aoi_shiro_kaeishou/vol2_chapter_6/79.jpg",
    "https://img-proxy.imgfo.com/?referer=https://manganelo.com&url=https://s7.mkklcdnv6temp.com/mangakakalot/a2/aoi_shiro_kaeishou/vol2_chapter_6/80.jpg",
    "https://img-proxy.imgfo.com/?referer=https://manganelo.com&url=https://s7.mkklcdnv6temp.com/mangakakalot/a2/aoi_shiro_kaeishou/vol2_chapter_6/81.jpg",
    "https://img-proxy.imgfo.com/?referer=https://manganelo.com&url=https://s7.mkklcdnv6temp.com/mangakakalot/a2/aoi_shiro_kaeishou/vol2_chapter_6/82.jpg",
    "https://img-proxy.imgfo.com/?referer=https://manganelo.com&url=https://s7.mkklcdnv6temp.com/mangakakalot/a2/aoi_shiro_kaeishou/vol2_chapter_6/83.jpg",
    "https://img-proxy.imgfo.com/?referer=https://manganelo.com&url=https://s7.mkklcdnv6temp.com/mangakakalot/a2/aoi_shiro_kaeishou/vol2_chapter_6/84.jpg"
  ]
}