{
  "cover": "https://avt.mkklcdnv6.com/44/n/6-1583475996.jpg",
  "title": "Baramon No Kazoku",
  "original": "瑪羅門の家族 ; Family of Brahman",
  "genre": "Action, Martial arts, Shounen, Manga",
  "author": "Miyashita Akira",
  "status": "Completed",
  "backlink": "https://manganu.com/collections/miyashita-akira/baramon-no-kazoku/",
  "description": "Baramon no Kazoku summary is updating. Come visit our website sometime to read the latest chapter of Baramon no Kazoku. If you have any question about this manga, Please don't hesitate to contact us or translate team. Hope you enjoy it.",
  "language": "English",
  "images": [
    "https://img-proxy.imgfo.com/?referer=https://manganelo.com&url=https://s3.mkklcdnv6temp.com/mangakakalot/b1/baramon_no_kazoku/vol4_chapter_32_cleansing_strike_to_the_root_of_evil/1.jpg",
    "https://img-proxy.imgfo.com/?referer=https://manganelo.com&url=https://s3.mkklcdnv6temp.com/mangakakalot/b1/baramon_no_kazoku/vol4_chapter_32_cleansing_strike_to_the_root_of_evil/2.jpg",
    "https://img-proxy.imgfo.com/?referer=https://manganelo.com&url=https://s3.mkklcdnv6temp.com/mangakakalot/b1/baramon_no_kazoku/vol4_chapter_32_cleansing_strike_to_the_root_of_evil/3.jpg",
    "https://img-proxy.imgfo.com/?referer=https://manganelo.com&url=https://s3.mkklcdnv6temp.com/mangakakalot/b1/baramon_no_kazoku/vol4_chapter_32_cleansing_strike_to_the_root_of_evil/4.jpg",
    "https://img-proxy.imgfo.com/?referer=https://manganelo.com&url=https://s3.mkklcdnv6temp.com/mangakakalot/b1/baramon_no_kazoku/vol4_chapter_32_cleansing_strike_to_the_root_of_evil/5.jpg",
    "https://img-proxy.imgfo.com/?referer=https://manganelo.com&url=https://s3.mkklcdnv6temp.com/mangakakalot/b1/baramon_no_kazoku/vol4_chapter_32_cleansing_strike_to_the_root_of_evil/6.jpg",
    "https://img-proxy.imgfo.com/?referer=https://manganelo.com&url=https://s3.mkklcdnv6temp.com/mangakakalot/b1/baramon_no_kazoku/vol4_chapter_32_cleansing_strike_to_the_root_of_evil/7.jpg",
    "https://img-proxy.imgfo.com/?referer=https://manganelo.com&url=https://s3.mkklcdnv6temp.com/mangakakalot/b1/baramon_no_kazoku/vol4_chapter_32_cleansing_strike_to_the_root_of_evil/8.jpg",
    "https://img-proxy.imgfo.com/?referer=https://manganelo.com&url=https://s3.mkklcdnv6temp.com/mangakakalot/b1/baramon_no_kazoku/vol4_chapter_32_cleansing_strike_to_the_root_of_evil/9.jpg",
    "https://img-proxy.imgfo.com/?referer=https://manganelo.com&url=https://s3.mkklcdnv6temp.com/mangakakalot/b1/baramon_no_kazoku/vol4_chapter_32_cleansing_strike_to_the_root_of_evil/10.jpg",
    "https://img-proxy.imgfo.com/?referer=https://manganelo.com&url=https://s3.mkklcdnv6temp.com/mangakakalot/b1/baramon_no_kazoku/vol4_chapter_32_cleansing_strike_to_the_root_of_evil/11.jpg",
    "https://img-proxy.imgfo.com/?referer=https://manganelo.com&url=https://s3.mkklcdnv6temp.com/mangakakalot/b1/baramon_no_kazoku/vol4_chapter_32_cleansing_strike_to_the_root_of_evil/12.jpg",
    "https://img-proxy.imgfo.com/?referer=https://manganelo.com&url=https://s3.mkklcdnv6temp.com/mangakakalot/b1/baramon_no_kazoku/vol4_chapter_32_cleansing_strike_to_the_root_of_evil/13.jpg",
    "https://img-proxy.imgfo.com/?referer=https://manganelo.com&url=https://s3.mkklcdnv6temp.com/mangakakalot/b1/baramon_no_kazoku/vol4_chapter_32_cleansing_strike_to_the_root_of_evil/14.jpg",
    "https://img-proxy.imgfo.com/?referer=https://manganelo.com&url=https://s3.mkklcdnv6temp.com/mangakakalot/b1/baramon_no_kazoku/vol4_chapter_32_cleansing_strike_to_the_root_of_evil/15.jpg",
    "https://img-proxy.imgfo.com/?referer=https://manganelo.com&url=https://s3.mkklcdnv6temp.com/mangakakalot/b1/baramon_no_kazoku/vol4_chapter_32_cleansing_strike_to_the_root_of_evil/16.jpg",
    "https://img-proxy.imgfo.com/?referer=https://manganelo.com&url=https://s3.mkklcdnv6temp.com/mangakakalot/b1/baramon_no_kazoku/vol4_chapter_32_cleansing_strike_to_the_root_of_evil/17.jpg",
    "https://img-proxy.imgfo.com/?referer=https://manganelo.com&url=https://s3.mkklcdnv6temp.com/mangakakalot/b1/baramon_no_kazoku/vol4_chapter_32_cleansing_strike_to_the_root_of_evil/18.jpg",
    "https://img-proxy.imgfo.com/?referer=https://manganelo.com&url=https://s3.mkklcdnv6temp.com/mangakakalot/b1/baramon_no_kazoku/vol4_chapter_32_cleansing_strike_to_the_root_of_evil/19.jpg",
    "https://img-proxy.imgfo.com/?referer=https://manganelo.com&url=https://s3.mkklcdnv6temp.com/mangakakalot/b1/baramon_no_kazoku/vol4_chapter_32_cleansing_strike_to_the_root_of_evil/20.jpg",
    "https://img-proxy.imgfo.com/?referer=https://manganelo.com&url=https://s3.mkklcdnv6temp.com/mangakakalot/b1/baramon_no_kazoku/vol4_chapter_32_cleansing_strike_to_the_root_of_evil/21.jpg",
    "https://img-proxy.imgfo.com/?referer=https://manganelo.com&url=https://s3.mkklcdnv6temp.com/mangakakalot/b1/baramon_no_kazoku/vol4_chapter_32_cleansing_strike_to_the_root_of_evil/22.jpg",
    "https://img-proxy.imgfo.com/?referer=https://manganelo.com&url=https://s3.mkklcdnv6temp.com/mangakakalot/b1/baramon_no_kazoku/vol4_chapter_32_cleansing_strike_to_the_root_of_evil/23.jpg",
    "https://img-proxy.imgfo.com/?referer=https://manganelo.com&url=https://s3.mkklcdnv6temp.com/mangakakalot/b1/baramon_no_kazoku/vol4_chapter_32_cleansing_strike_to_the_root_of_evil/24.jpg"
  ]
}