{
  "cover": "https://avt.mkklcdnv6.com/44/n/6-1583475996.jpg",
  "title": "Baramon No Kazoku",
  "original": "瑪羅門の家族 ; Family of Brahman",
  "genre": "Action, Martial arts, Shounen, Manga",
  "author": "Miyashita Akira",
  "status": "Completed",
  "backlink": "https://manganu.com/collections/miyashita-akira/baramon-no-kazoku/",
  "description": "Baramon no Kazoku summary is updating. Come visit our website sometime to read the latest chapter of Baramon no Kazoku. If you have any question about this manga, Please don't hesitate to contact us or translate team. Hope you enjoy it.",
  "language": "English",
  "images": [
    "https://img-proxy.imgfo.com/?referer=https://manganelo.com&url=https://s3.mkklcdnv6temp.com/mangakakalot/b1/baramon_no_kazoku/vol3_chapter_23_stormy_first_step_to_the_solid_prison_isle/1.jpg",
    "https://img-proxy.imgfo.com/?referer=https://manganelo.com&url=https://s3.mkklcdnv6temp.com/mangakakalot/b1/baramon_no_kazoku/vol3_chapter_23_stormy_first_step_to_the_solid_prison_isle/2.jpg",
    "https://img-proxy.imgfo.com/?referer=https://manganelo.com&url=https://s3.mkklcdnv6temp.com/mangakakalot/b1/baramon_no_kazoku/vol3_chapter_23_stormy_first_step_to_the_solid_prison_isle/3.jpg",
    "https://img-proxy.imgfo.com/?referer=https://manganelo.com&url=https://s3.mkklcdnv6temp.com/mangakakalot/b1/baramon_no_kazoku/vol3_chapter_23_stormy_first_step_to_the_solid_prison_isle/4.jpg",
    "https://img-proxy.imgfo.com/?referer=https://manganelo.com&url=https://s3.mkklcdnv6temp.com/mangakakalot/b1/baramon_no_kazoku/vol3_chapter_23_stormy_first_step_to_the_solid_prison_isle/5.jpg",
    "https://img-proxy.imgfo.com/?referer=https://manganelo.com&url=https://s3.mkklcdnv6temp.com/mangakakalot/b1/baramon_no_kazoku/vol3_chapter_23_stormy_first_step_to_the_solid_prison_isle/6.jpg",
    "https://img-proxy.imgfo.com/?referer=https://manganelo.com&url=https://s3.mkklcdnv6temp.com/mangakakalot/b1/baramon_no_kazoku/vol3_chapter_23_stormy_first_step_to_the_solid_prison_isle/7.jpg",
    "https://img-proxy.imgfo.com/?referer=https://manganelo.com&url=https://s3.mkklcdnv6temp.com/mangakakalot/b1/baramon_no_kazoku/vol3_chapter_23_stormy_first_step_to_the_solid_prison_isle/8.jpg",
    "https://img-proxy.imgfo.com/?referer=https://manganelo.com&url=https://s3.mkklcdnv6temp.com/mangakakalot/b1/baramon_no_kazoku/vol3_chapter_23_stormy_first_step_to_the_solid_prison_isle/9.jpg",
    "https://img-proxy.imgfo.com/?referer=https://manganelo.com&url=https://s3.mkklcdnv6temp.com/mangakakalot/b1/baramon_no_kazoku/vol3_chapter_23_stormy_first_step_to_the_solid_prison_isle/10.jpg",
    "https://img-proxy.imgfo.com/?referer=https://manganelo.com&url=https://s3.mkklcdnv6temp.com/mangakakalot/b1/baramon_no_kazoku/vol3_chapter_23_stormy_first_step_to_the_solid_prison_isle/11.jpg",
    "https://img-proxy.imgfo.com/?referer=https://manganelo.com&url=https://s3.mkklcdnv6temp.com/mangakakalot/b1/baramon_no_kazoku/vol3_chapter_23_stormy_first_step_to_the_solid_prison_isle/12.jpg",
    "https://img-proxy.imgfo.com/?referer=https://manganelo.com&url=https://s3.mkklcdnv6temp.com/mangakakalot/b1/baramon_no_kazoku/vol3_chapter_23_stormy_first_step_to_the_solid_prison_isle/13.jpg",
    "https://img-proxy.imgfo.com/?referer=https://manganelo.com&url=https://s3.mkklcdnv6temp.com/mangakakalot/b1/baramon_no_kazoku/vol3_chapter_23_stormy_first_step_to_the_solid_prison_isle/14.jpg",
    "https://img-proxy.imgfo.com/?referer=https://manganelo.com&url=https://s3.mkklcdnv6temp.com/mangakakalot/b1/baramon_no_kazoku/vol3_chapter_23_stormy_first_step_to_the_solid_prison_isle/15.jpg",
    "https://img-proxy.imgfo.com/?referer=https://manganelo.com&url=https://s3.mkklcdnv6temp.com/mangakakalot/b1/baramon_no_kazoku/vol3_chapter_23_stormy_first_step_to_the_solid_prison_isle/16.jpg",
    "https://img-proxy.imgfo.com/?referer=https://manganelo.com&url=https://s3.mkklcdnv6temp.com/mangakakalot/b1/baramon_no_kazoku/vol3_chapter_23_stormy_first_step_to_the_solid_prison_isle/17.jpg",
    "https://img-proxy.imgfo.com/?referer=https://manganelo.com&url=https://s3.mkklcdnv6temp.com/mangakakalot/b1/baramon_no_kazoku/vol3_chapter_23_stormy_first_step_to_the_solid_prison_isle/18.jpg",
    "https://img-proxy.imgfo.com/?referer=https://manganelo.com&url=https://s3.mkklcdnv6temp.com/mangakakalot/b1/baramon_no_kazoku/vol3_chapter_23_stormy_first_step_to_the_solid_prison_isle/19.jpg",
    "https://img-proxy.imgfo.com/?referer=https://manganelo.com&url=https://s3.mkklcdnv6temp.com/mangakakalot/b1/baramon_no_kazoku/vol3_chapter_23_stormy_first_step_to_the_solid_prison_isle/20.jpg",
    "https://img-proxy.imgfo.com/?referer=https://manganelo.com&url=https://s3.mkklcdnv6temp.com/mangakakalot/b1/baramon_no_kazoku/vol3_chapter_23_stormy_first_step_to_the_solid_prison_isle/21.jpg"
  ]
}