{
  "cover": "https://avt.mkklcdnv6.com/44/o/9-1583481967.jpg",
  "title": "Mars",
  "original": "マース ; 战神mars ; Chiến Thần",
  "genre": "Drama, Josei, Mature, Psychological, Romance, School life, Shoujo, Manga",
  "author": "Souryo Fuyumi",
  "status": "Completed",
  "backlink": "https://manganu.com/collections/souryo-fuyumi/mars/",
  "description": "Kira believes that Rei and all other men in the world are dirty. She stays away from her classmates, hiding in her art. What happens when the delinquent motorcyclist and playboy, Rei, gets ahold of one of her drawings, and actually wants to keep it?\nNote: Was adapted into a 21 episode Taiwanese Drama, MARS",
  "language": "English",
  "images": [
    "https://img-proxy.imgfo.com/?referer=https://manganelo.com&url=https://s3.mkklcdnv6temp.com/mangakakalot/m1/mars/vol4_chapter_20_the_arrival_of_uraeus/1.jpg",
    "https://img-proxy.imgfo.com/?referer=https://manganelo.com&url=https://s3.mkklcdnv6temp.com/mangakakalot/m1/mars/vol4_chapter_20_the_arrival_of_uraeus/2.jpg",
    "https://img-proxy.imgfo.com/?referer=https://manganelo.com&url=https://s3.mkklcdnv6temp.com/mangakakalot/m1/mars/vol4_chapter_20_the_arrival_of_uraeus/3.jpg",
    "https://img-proxy.imgfo.com/?referer=https://manganelo.com&url=https://s3.mkklcdnv6temp.com/mangakakalot/m1/mars/vol4_chapter_20_the_arrival_of_uraeus/4.jpg",
    "https://img-proxy.imgfo.com/?referer=https://manganelo.com&url=https://s3.mkklcdnv6temp.com/mangakakalot/m1/mars/vol4_chapter_20_the_arrival_of_uraeus/5.jpg",
    "https://img-proxy.imgfo.com/?referer=https://manganelo.com&url=https://s3.mkklcdnv6temp.com/mangakakalot/m1/mars/vol4_chapter_20_the_arrival_of_uraeus/6.jpg",
    "https://img-proxy.imgfo.com/?referer=https://manganelo.com&url=https://s3.mkklcdnv6temp.com/mangakakalot/m1/mars/vol4_chapter_20_the_arrival_of_uraeus/7.jpg",
    "https://img-proxy.imgfo.com/?referer=https://manganelo.com&url=https://s3.mkklcdnv6temp.com/mangakakalot/m1/mars/vol4_chapter_20_the_arrival_of_uraeus/8.jpg",
    "https://img-proxy.imgfo.com/?referer=https://manganelo.com&url=https://s3.mkklcdnv6temp.com/mangakakalot/m1/mars/vol4_chapter_20_the_arrival_of_uraeus/9.jpg",
    "https://img-proxy.imgfo.com/?referer=https://manganelo.com&url=https://s3.mkklcdnv6temp.com/mangakakalot/m1/mars/vol4_chapter_20_the_arrival_of_uraeus/10.jpg",
    "https://img-proxy.imgfo.com/?referer=https://manganelo.com&url=https://s3.mkklcdnv6temp.com/mangakakalot/m1/mars/vol4_chapter_20_the_arrival_of_uraeus/11.jpg",
    "https://img-proxy.imgfo.com/?referer=https://manganelo.com&url=https://s3.mkklcdnv6temp.com/mangakakalot/m1/mars/vol4_chapter_20_the_arrival_of_uraeus/12.jpg",
    "https://img-proxy.imgfo.com/?referer=https://manganelo.com&url=https://s3.mkklcdnv6temp.com/mangakakalot/m1/mars/vol4_chapter_20_the_arrival_of_uraeus/13.jpg",
    "https://img-proxy.imgfo.com/?referer=https://manganelo.com&url=https://s3.mkklcdnv6temp.com/mangakakalot/m1/mars/vol4_chapter_20_the_arrival_of_uraeus/14.jpg",
    "https://img-proxy.imgfo.com/?referer=https://manganelo.com&url=https://s3.mkklcdnv6temp.com/mangakakalot/m1/mars/vol4_chapter_20_the_arrival_of_uraeus/15.jpg",
    "https://img-proxy.imgfo.com/?referer=https://manganelo.com&url=https://s3.mkklcdnv6temp.com/mangakakalot/m1/mars/vol4_chapter_20_the_arrival_of_uraeus/16.jpg",
    "https://img-proxy.imgfo.com/?referer=https://manganelo.com&url=https://s3.mkklcdnv6temp.com/mangakakalot/m1/mars/vol4_chapter_20_the_arrival_of_uraeus/17.jpg",
    "https://img-proxy.imgfo.com/?referer=https://manganelo.com&url=https://s3.mkklcdnv6temp.com/mangakakalot/m1/mars/vol4_chapter_20_the_arrival_of_uraeus/18.jpg",
    "https://img-proxy.imgfo.com/?referer=https://manganelo.com&url=https://s3.mkklcdnv6temp.com/mangakakalot/m1/mars/vol4_chapter_20_the_arrival_of_uraeus/19.jpg",
    "https://img-proxy.imgfo.com/?referer=https://manganelo.com&url=https://s3.mkklcdnv6temp.com/mangakakalot/m1/mars/vol4_chapter_20_the_arrival_of_uraeus/20.jpg",
    "https://img-proxy.imgfo.com/?referer=https://manganelo.com&url=https://s3.mkklcdnv6temp.com/mangakakalot/m1/mars/vol4_chapter_20_the_arrival_of_uraeus/21.jpg",
    "https://img-proxy.imgfo.com/?referer=https://manganelo.com&url=https://s3.mkklcdnv6temp.com/mangakakalot/m1/mars/vol4_chapter_20_the_arrival_of_uraeus/22.jpg",
    "https://img-proxy.imgfo.com/?referer=https://manganelo.com&url=https://s3.mkklcdnv6temp.com/mangakakalot/m1/mars/vol4_chapter_20_the_arrival_of_uraeus/23.jpg",
    "https://img-proxy.imgfo.com/?referer=https://manganelo.com&url=https://s3.mkklcdnv6temp.com/mangakakalot/m1/mars/vol4_chapter_20_the_arrival_of_uraeus/24.jpg",
    "https://img-proxy.imgfo.com/?referer=https://manganelo.com&url=https://s3.mkklcdnv6temp.com/mangakakalot/m1/mars/vol4_chapter_20_the_arrival_of_uraeus/25.jpg",
    "https://img-proxy.imgfo.com/?referer=https://manganelo.com&url=https://s3.mkklcdnv6temp.com/mangakakalot/m1/mars/vol4_chapter_20_the_arrival_of_uraeus/26.jpg",
    "https://img-proxy.imgfo.com/?referer=https://manganelo.com&url=https://s3.mkklcdnv6temp.com/mangakakalot/m1/mars/vol4_chapter_20_the_arrival_of_uraeus/27.jpg",
    "https://img-proxy.imgfo.com/?referer=https://manganelo.com&url=https://s3.mkklcdnv6temp.com/mangakakalot/m1/mars/vol4_chapter_20_the_arrival_of_uraeus/28.jpg",
    "https://img-proxy.imgfo.com/?referer=https://manganelo.com&url=https://s3.mkklcdnv6temp.com/mangakakalot/m1/mars/vol4_chapter_20_the_arrival_of_uraeus/29.jpg",
    "https://img-proxy.imgfo.com/?referer=https://manganelo.com&url=https://s3.mkklcdnv6temp.com/mangakakalot/m1/mars/vol4_chapter_20_the_arrival_of_uraeus/30.jpg",
    "https://img-proxy.imgfo.com/?referer=https://manganelo.com&url=https://s3.mkklcdnv6temp.com/mangakakalot/m1/mars/vol4_chapter_20_the_arrival_of_uraeus/31.jpg",
    "https://img-proxy.imgfo.com/?referer=https://manganelo.com&url=https://s3.mkklcdnv6temp.com/mangakakalot/m1/mars/vol4_chapter_20_the_arrival_of_uraeus/32.jpg",
    "https://img-proxy.imgfo.com/?referer=https://manganelo.com&url=https://s3.mkklcdnv6temp.com/mangakakalot/m1/mars/vol4_chapter_20_the_arrival_of_uraeus/33.jpg",
    "https://img-proxy.imgfo.com/?referer=https://manganelo.com&url=https://s3.mkklcdnv6temp.com/mangakakalot/m1/mars/vol4_chapter_20_the_arrival_of_uraeus/34.jpg",
    "https://img-proxy.imgfo.com/?referer=https://manganelo.com&url=https://s3.mkklcdnv6temp.com/mangakakalot/m1/mars/vol4_chapter_20_the_arrival_of_uraeus/35.jpg",
    "https://img-proxy.imgfo.com/?referer=https://manganelo.com&url=https://s3.mkklcdnv6temp.com/mangakakalot/m1/mars/vol4_chapter_20_the_arrival_of_uraeus/36.jpg",
    "https://img-proxy.imgfo.com/?referer=https://manganelo.com&url=https://s3.mkklcdnv6temp.com/mangakakalot/m1/mars/vol4_chapter_20_the_arrival_of_uraeus/37.jpg",
    "https://img-proxy.imgfo.com/?referer=https://manganelo.com&url=https://s3.mkklcdnv6temp.com/mangakakalot/m1/mars/vol4_chapter_20_the_arrival_of_uraeus/38.jpg",
    "https://img-proxy.imgfo.com/?referer=https://manganelo.com&url=https://s3.mkklcdnv6temp.com/mangakakalot/m1/mars/vol4_chapter_20_the_arrival_of_uraeus/39.jpg",
    "https://img-proxy.imgfo.com/?referer=https://manganelo.com&url=https://s3.mkklcdnv6temp.com/mangakakalot/m1/mars/vol4_chapter_20_the_arrival_of_uraeus/40.jpg",
    "https://img-proxy.imgfo.com/?referer=https://manganelo.com&url=https://s3.mkklcdnv6temp.com/mangakakalot/m1/mars/vol4_chapter_20_the_arrival_of_uraeus/41.jpg"
  ]
}