{
  "cover": "https://avt.mkklcdnv6.com/4/y/9-1583480285.jpg",
  "title": "Uchuu Kaizoku Captain Harlock",
  "original": "宇宙海賊キャプテンハーロック ; Albator, le corsaire de l'espace [French] ; Captain Harlock ; Space Pirate Captain Harlock ; Space Pirate Captain Herlock",
  "genre": "Action, Adventure, Drama, Romance, Sci fi, Seinen, Manga",
  "author": "Matsumoto Leiji",
  "status": "Completed",
  "backlink": "https://manganu.com/collections/matsumoto-leiji/uchuu-kaizoku-captain-harlock/",
  "description": "&quot;I fight only for what I believe in...for no one&#39;s sake...only for what&#39;s deep in my heart. I sail amongst the stars...people call me: Captain Harlock.&quot; Truer words never spoken. Now! Embark upon an adventure into the infinite sea with the last brave souls of humanity aboard the Arcadia!",
  "language": "English",
  "images": [
    "https://img-proxy.imgfo.com/?referer=https://manganelo.com&url=https://s3.mkklcdnv6temp.com/mangakakalot/u1/uchuu_kaizoku_captain_harlock/vol3_chapter_37/1.jpg",
    "https://img-proxy.imgfo.com/?referer=https://manganelo.com&url=https://s3.mkklcdnv6temp.com/mangakakalot/u1/uchuu_kaizoku_captain_harlock/vol3_chapter_37/2.jpg",
    "https://img-proxy.imgfo.com/?referer=https://manganelo.com&url=https://s3.mkklcdnv6temp.com/mangakakalot/u1/uchuu_kaizoku_captain_harlock/vol3_chapter_37/3.jpg",
    "https://img-proxy.imgfo.com/?referer=https://manganelo.com&url=https://s3.mkklcdnv6temp.com/mangakakalot/u1/uchuu_kaizoku_captain_harlock/vol3_chapter_37/4.jpg",
    "https://img-proxy.imgfo.com/?referer=https://manganelo.com&url=https://s3.mkklcdnv6temp.com/mangakakalot/u1/uchuu_kaizoku_captain_harlock/vol3_chapter_37/5.jpg",
    "https://img-proxy.imgfo.com/?referer=https://manganelo.com&url=https://s3.mkklcdnv6temp.com/mangakakalot/u1/uchuu_kaizoku_captain_harlock/vol3_chapter_37/6.jpg",
    "https://img-proxy.imgfo.com/?referer=https://manganelo.com&url=https://s3.mkklcdnv6temp.com/mangakakalot/u1/uchuu_kaizoku_captain_harlock/vol3_chapter_37/7.jpg",
    "https://img-proxy.imgfo.com/?referer=https://manganelo.com&url=https://s3.mkklcdnv6temp.com/mangakakalot/u1/uchuu_kaizoku_captain_harlock/vol3_chapter_37/8.jpg",
    "https://img-proxy.imgfo.com/?referer=https://manganelo.com&url=https://s3.mkklcdnv6temp.com/mangakakalot/u1/uchuu_kaizoku_captain_harlock/vol3_chapter_37/9.jpg",
    "https://img-proxy.imgfo.com/?referer=https://manganelo.com&url=https://s3.mkklcdnv6temp.com/mangakakalot/u1/uchuu_kaizoku_captain_harlock/vol3_chapter_37/10.jpg",
    "https://img-proxy.imgfo.com/?referer=https://manganelo.com&url=https://s3.mkklcdnv6temp.com/mangakakalot/u1/uchuu_kaizoku_captain_harlock/vol3_chapter_37/11.jpg",
    "https://img-proxy.imgfo.com/?referer=https://manganelo.com&url=https://s3.mkklcdnv6temp.com/mangakakalot/u1/uchuu_kaizoku_captain_harlock/vol3_chapter_37/12.jpg",
    "https://img-proxy.imgfo.com/?referer=https://manganelo.com&url=https://s3.mkklcdnv6temp.com/mangakakalot/u1/uchuu_kaizoku_captain_harlock/vol3_chapter_37/13.jpg",
    "https://img-proxy.imgfo.com/?referer=https://manganelo.com&url=https://s3.mkklcdnv6temp.com/mangakakalot/u1/uchuu_kaizoku_captain_harlock/vol3_chapter_37/14.jpg",
    "https://img-proxy.imgfo.com/?referer=https://manganelo.com&url=https://s3.mkklcdnv6temp.com/mangakakalot/u1/uchuu_kaizoku_captain_harlock/vol3_chapter_37/15.jpg",
    "https://img-proxy.imgfo.com/?referer=https://manganelo.com&url=https://s3.mkklcdnv6temp.com/mangakakalot/u1/uchuu_kaizoku_captain_harlock/vol3_chapter_37/16.jpg",
    "https://img-proxy.imgfo.com/?referer=https://manganelo.com&url=https://s3.mkklcdnv6temp.com/mangakakalot/u1/uchuu_kaizoku_captain_harlock/vol3_chapter_37/17.jpg",
    "https://img-proxy.imgfo.com/?referer=https://manganelo.com&url=https://s3.mkklcdnv6temp.com/mangakakalot/u1/uchuu_kaizoku_captain_harlock/vol3_chapter_37/18.jpg"
  ]
}