{
  "cover": "https://avt.mkklcdnv6.com/5/b/6-1583474296.jpg",
  "title": "Sukima Shiki",
  "original": "スキマ式 ; Sukima Style ; Sukima-Shiki",
  "genre": "Romance, Shoujo, Slice of life, Manga",
  "author": "Sahara Mizu",
  "status": "Completed",
  "backlink": "https://manganu.com/collections/sahara-mizu/sukima-shiki/",
  "description": "From Storm in Heaven:\nA series of romantic short stories drawn by Sahara Mizu and inspired by the music of the Japanese band Sukima Switch. Each chapter is inspired by a different song.",
  "language": "English",
  "images": [
    "https://img-proxy.imgfo.com/?referer=https://manganelo.com&url=https://s6.mkklcdnv6temp.com/mangakakalot/s2/sukima_shiki/vol1_chapter_4_11/1.jpg",
    "https://img-proxy.imgfo.com/?referer=https://manganelo.com&url=https://s6.mkklcdnv6temp.com/mangakakalot/s2/sukima_shiki/vol1_chapter_4_11/2.jpg",
    "https://img-proxy.imgfo.com/?referer=https://manganelo.com&url=https://s6.mkklcdnv6temp.com/mangakakalot/s2/sukima_shiki/vol1_chapter_4_11/3.jpg",
    "https://img-proxy.imgfo.com/?referer=https://manganelo.com&url=https://s6.mkklcdnv6temp.com/mangakakalot/s2/sukima_shiki/vol1_chapter_4_11/4.jpg",
    "https://img-proxy.imgfo.com/?referer=https://manganelo.com&url=https://s6.mkklcdnv6temp.com/mangakakalot/s2/sukima_shiki/vol1_chapter_4_11/5.jpg",
    "https://img-proxy.imgfo.com/?referer=https://manganelo.com&url=https://s6.mkklcdnv6temp.com/mangakakalot/s2/sukima_shiki/vol1_chapter_4_11/6.jpg",
    "https://img-proxy.imgfo.com/?referer=https://manganelo.com&url=https://s6.mkklcdnv6temp.com/mangakakalot/s2/sukima_shiki/vol1_chapter_4_11/7.jpg",
    "https://img-proxy.imgfo.com/?referer=https://manganelo.com&url=https://s6.mkklcdnv6temp.com/mangakakalot/s2/sukima_shiki/vol1_chapter_4_11/8.jpg",
    "https://img-proxy.imgfo.com/?referer=https://manganelo.com&url=https://s6.mkklcdnv6temp.com/mangakakalot/s2/sukima_shiki/vol1_chapter_4_11/9.jpg",
    "https://img-proxy.imgfo.com/?referer=https://manganelo.com&url=https://s6.mkklcdnv6temp.com/mangakakalot/s2/sukima_shiki/vol1_chapter_4_11/10.jpg",
    "https://img-proxy.imgfo.com/?referer=https://manganelo.com&url=https://s6.mkklcdnv6temp.com/mangakakalot/s2/sukima_shiki/vol1_chapter_4_11/11.jpg",
    "https://img-proxy.imgfo.com/?referer=https://manganelo.com&url=https://s6.mkklcdnv6temp.com/mangakakalot/s2/sukima_shiki/vol1_chapter_4_11/12.jpg",
    "https://img-proxy.imgfo.com/?referer=https://manganelo.com&url=https://s6.mkklcdnv6temp.com/mangakakalot/s2/sukima_shiki/vol1_chapter_4_11/13.jpg",
    "https://img-proxy.imgfo.com/?referer=https://manganelo.com&url=https://s6.mkklcdnv6temp.com/mangakakalot/s2/sukima_shiki/vol1_chapter_4_11/14.jpg",
    "https://img-proxy.imgfo.com/?referer=https://manganelo.com&url=https://s6.mkklcdnv6temp.com/mangakakalot/s2/sukima_shiki/vol1_chapter_4_11/15.jpg",
    "https://img-proxy.imgfo.com/?referer=https://manganelo.com&url=https://s6.mkklcdnv6temp.com/mangakakalot/s2/sukima_shiki/vol1_chapter_4_11/16.jpg",
    "https://img-proxy.imgfo.com/?referer=https://manganelo.com&url=https://s6.mkklcdnv6temp.com/mangakakalot/s2/sukima_shiki/vol1_chapter_4_11/17.jpg",
    "https://img-proxy.imgfo.com/?referer=https://manganelo.com&url=https://s6.mkklcdnv6temp.com/mangakakalot/s2/sukima_shiki/vol1_chapter_4_11/18.jpg"
  ]
}