{
  "cover": "https://avt.mkklcdnv6.com/18/w/9-1583480815.jpg",
  "title": "Holyland",
  "original": "ホーリーランド ; 捍卫圣域 ; Holy Land ; Свещена земя (Bulgarian) ; Święta Ziemia (Polish) ; Terra Santa (Portuguese) ; Pamantul Sacru (Romanian) ; الارض المقدسة(Arabic) ; Banal na Lupain (Filipino)",
  "genre": "Action, Drama, Martial arts, Psychological, Seinen, Manga",
  "author": "Mori Kouji",
  "status": "Completed",
  "backlink": "https://manganu.com/collections/mori-kouji/holyland/",
  "description": "BNC Scanlations descrip.:\nYuu is a high school kid who doesn't really fit anywhere. To find a place he can belong, be accepted, he will do anything. However one thing leads to another and he is forced to fight to keep his place, his holyland.",
  "language": "English",
  "images": [
    "https://img-proxy.imgfo.com/?referer=https://manganelo.com&url=https://s7.mkklcdnv6temp.com/mangakakalot/h2/holyland/vol5_chapter_44_fusion/21.jpg",
    "https://img-proxy.imgfo.com/?referer=https://manganelo.com&url=https://s7.mkklcdnv6temp.com/mangakakalot/h2/holyland/vol5_chapter_44_fusion/22.jpg",
    "https://img-proxy.imgfo.com/?referer=https://manganelo.com&url=https://s7.mkklcdnv6temp.com/mangakakalot/h2/holyland/vol5_chapter_44_fusion/23.jpg",
    "https://img-proxy.imgfo.com/?referer=https://manganelo.com&url=https://s7.mkklcdnv6temp.com/mangakakalot/h2/holyland/vol5_chapter_44_fusion/24.jpg",
    "https://img-proxy.imgfo.com/?referer=https://manganelo.com&url=https://s7.mkklcdnv6temp.com/mangakakalot/h2/holyland/vol5_chapter_44_fusion/25.jpg",
    "https://img-proxy.imgfo.com/?referer=https://manganelo.com&url=https://s7.mkklcdnv6temp.com/mangakakalot/h2/holyland/vol5_chapter_44_fusion/26.jpg",
    "https://img-proxy.imgfo.com/?referer=https://manganelo.com&url=https://s7.mkklcdnv6temp.com/mangakakalot/h2/holyland/vol5_chapter_44_fusion/27.jpg",
    "https://img-proxy.imgfo.com/?referer=https://manganelo.com&url=https://s7.mkklcdnv6temp.com/mangakakalot/h2/holyland/vol5_chapter_44_fusion/28.jpg",
    "https://img-proxy.imgfo.com/?referer=https://manganelo.com&url=https://s7.mkklcdnv6temp.com/mangakakalot/h2/holyland/vol5_chapter_44_fusion/29.jpg",
    "https://img-proxy.imgfo.com/?referer=https://manganelo.com&url=https://s7.mkklcdnv6temp.com/mangakakalot/h2/holyland/vol5_chapter_44_fusion/30.jpg",
    "https://img-proxy.imgfo.com/?referer=https://manganelo.com&url=https://s7.mkklcdnv6temp.com/mangakakalot/h2/holyland/vol5_chapter_44_fusion/31.jpg",
    "https://img-proxy.imgfo.com/?referer=https://manganelo.com&url=https://s7.mkklcdnv6temp.com/mangakakalot/h2/holyland/vol5_chapter_44_fusion/32.jpg",
    "https://img-proxy.imgfo.com/?referer=https://manganelo.com&url=https://s7.mkklcdnv6temp.com/mangakakalot/h2/holyland/vol5_chapter_44_fusion/33.jpg",
    "https://img-proxy.imgfo.com/?referer=https://manganelo.com&url=https://s7.mkklcdnv6temp.com/mangakakalot/h2/holyland/vol5_chapter_44_fusion/34.jpg",
    "https://img-proxy.imgfo.com/?referer=https://manganelo.com&url=https://s7.mkklcdnv6temp.com/mangakakalot/h2/holyland/vol5_chapter_44_fusion/35.jpg",
    "https://img-proxy.imgfo.com/?referer=https://manganelo.com&url=https://s7.mkklcdnv6temp.com/mangakakalot/h2/holyland/vol5_chapter_44_fusion/36.jpg",
    "https://img-proxy.imgfo.com/?referer=https://manganelo.com&url=https://s7.mkklcdnv6temp.com/mangakakalot/h2/holyland/vol5_chapter_44_fusion/37.jpg",
    "https://img-proxy.imgfo.com/?referer=https://manganelo.com&url=https://s7.mkklcdnv6temp.com/mangakakalot/h2/holyland/vol5_chapter_44_fusion/38.jpg",
    "https://img-proxy.imgfo.com/?referer=https://manganelo.com&url=https://s7.mkklcdnv6temp.com/mangakakalot/h2/holyland/vol5_chapter_44_fusion/39.jpg",
    "https://img-proxy.imgfo.com/?referer=https://manganelo.com&url=https://s7.mkklcdnv6temp.com/mangakakalot/h2/holyland/vol5_chapter_44_fusion/40.jpg"
  ]
}