{
  "cover": "https://avt.mkklcdnv6.com/18/w/9-1583480815.jpg",
  "title": "Holyland",
  "original": "ホーリーランド ; 捍卫圣域 ; Holy Land ; Свещена земя (Bulgarian) ; Święta Ziemia (Polish) ; Terra Santa (Portuguese) ; Pamantul Sacru (Romanian) ; الارض المقدسة(Arabic) ; Banal na Lupain (Filipino)",
  "genre": "Action, Drama, Martial arts, Psychological, Seinen, Manga",
  "author": "Mori Kouji",
  "status": "Completed",
  "backlink": "https://manganu.com/collections/mori-kouji/holyland/",
  "description": "BNC Scanlations descrip.:\nYuu is a high school kid who doesn't really fit anywhere. To find a place he can belong, be accepted, he will do anything. However one thing leads to another and he is forced to fight to keep his place, his holyland.",
  "language": "English",
  "images": [
    "https://img-proxy.imgfo.com/?referer=https://manganelo.com&url=https://s7.mkklcdnv6temp.com/mangakakalot/h2/holyland/vol11_chapter_107_nervous/1.jpg",
    "https://img-proxy.imgfo.com/?referer=https://manganelo.com&url=https://s7.mkklcdnv6temp.com/mangakakalot/h2/holyland/vol11_chapter_107_nervous/2.jpg",
    "https://img-proxy.imgfo.com/?referer=https://manganelo.com&url=https://s7.mkklcdnv6temp.com/mangakakalot/h2/holyland/vol11_chapter_107_nervous/3.jpg",
    "https://img-proxy.imgfo.com/?referer=https://manganelo.com&url=https://s7.mkklcdnv6temp.com/mangakakalot/h2/holyland/vol11_chapter_107_nervous/4.jpg",
    "https://img-proxy.imgfo.com/?referer=https://manganelo.com&url=https://s7.mkklcdnv6temp.com/mangakakalot/h2/holyland/vol11_chapter_107_nervous/5.jpg",
    "https://img-proxy.imgfo.com/?referer=https://manganelo.com&url=https://s7.mkklcdnv6temp.com/mangakakalot/h2/holyland/vol11_chapter_107_nervous/6.jpg",
    "https://img-proxy.imgfo.com/?referer=https://manganelo.com&url=https://s7.mkklcdnv6temp.com/mangakakalot/h2/holyland/vol11_chapter_107_nervous/7.jpg",
    "https://img-proxy.imgfo.com/?referer=https://manganelo.com&url=https://s7.mkklcdnv6temp.com/mangakakalot/h2/holyland/vol11_chapter_107_nervous/8.jpg",
    "https://img-proxy.imgfo.com/?referer=https://manganelo.com&url=https://s7.mkklcdnv6temp.com/mangakakalot/h2/holyland/vol11_chapter_107_nervous/9.jpg",
    "https://img-proxy.imgfo.com/?referer=https://manganelo.com&url=https://s7.mkklcdnv6temp.com/mangakakalot/h2/holyland/vol11_chapter_107_nervous/10.jpg",
    "https://img-proxy.imgfo.com/?referer=https://manganelo.com&url=https://s7.mkklcdnv6temp.com/mangakakalot/h2/holyland/vol11_chapter_107_nervous/11.jpg",
    "https://img-proxy.imgfo.com/?referer=https://manganelo.com&url=https://s7.mkklcdnv6temp.com/mangakakalot/h2/holyland/vol11_chapter_107_nervous/12.jpg",
    "https://img-proxy.imgfo.com/?referer=https://manganelo.com&url=https://s7.mkklcdnv6temp.com/mangakakalot/h2/holyland/vol11_chapter_107_nervous/13.jpg",
    "https://img-proxy.imgfo.com/?referer=https://manganelo.com&url=https://s7.mkklcdnv6temp.com/mangakakalot/h2/holyland/vol11_chapter_107_nervous/14.jpg",
    "https://img-proxy.imgfo.com/?referer=https://manganelo.com&url=https://s7.mkklcdnv6temp.com/mangakakalot/h2/holyland/vol11_chapter_107_nervous/15.jpg",
    "https://img-proxy.imgfo.com/?referer=https://manganelo.com&url=https://s7.mkklcdnv6temp.com/mangakakalot/h2/holyland/vol11_chapter_107_nervous/16.jpg",
    "https://img-proxy.imgfo.com/?referer=https://manganelo.com&url=https://s7.mkklcdnv6temp.com/mangakakalot/h2/holyland/vol11_chapter_107_nervous/17.jpg",
    "https://img-proxy.imgfo.com/?referer=https://manganelo.com&url=https://s7.mkklcdnv6temp.com/mangakakalot/h2/holyland/vol11_chapter_107_nervous/18.jpg",
    "https://img-proxy.imgfo.com/?referer=https://manganelo.com&url=https://s7.mkklcdnv6temp.com/mangakakalot/h2/holyland/vol11_chapter_107_nervous/19.jpg",
    "https://img-proxy.imgfo.com/?referer=https://manganelo.com&url=https://s7.mkklcdnv6temp.com/mangakakalot/h2/holyland/vol11_chapter_107_nervous/20.jpg"
  ]
}