{
  "cover": "https://avt.mkklcdnv6.com/23/e/4-1583470633.jpg",
  "title": "Kaibutsu Oujo",
  "original": "怪物王女 ; Monster Princess ; Princess Resurrection",
  "genre": "Action, Comedy, Fantasy, Horror, School life, Shounen, Supernatural, Manga",
  "author": "Mitsunaga Yasunori",
  "status": "Completed",
  "backlink": "https://manganu.com/collections/mitsunaga-yasunori/kaibutsu-oujo/",
  "description": "Hiro Hiyorimi is a boy who has just moved to the Sasanaki City to meet his sister. While walking down the sidewalk, he is suddenly hit by a car (crushed by construction beams in the anime). On the verge of death, he is seen by a young woman clad in gothic clothes. She then resurrects him, leaving him alive in the hospital morgue. He wakes up confused over what happened, only to encounter the woman again as she eliminates some wolf creatures. She addresses Hiro as \"her servant\" and introduces herself as \"Hime\" (Japanese for Princess) and explains that she is a member of the royal family of the Monster Realm.\nAll members of the royal family are endowed with the power to turn a dead body into an immortal warrior that will serve and protect them;\nHiro is now Hime's semi-immortal warrior, but she herself is not immortal yet (which is why she needs help from warriors). The story then follows Hiro as he assists Hime in killing creatures that have been sent by her siblings to attack her in the competition for the Monster Kingdom's throne.",
  "language": "English",
  "images": [
    "https://img-proxy.imgfo.com/?referer=https://manganelo.com&url=https://s41.mkklcdnv6temp.com/mangakakalot/k1/kaibutsu_oujo/vol8_chapter_33_princess_erebus/1.jpg",
    "https://img-proxy.imgfo.com/?referer=https://manganelo.com&url=https://s41.mkklcdnv6temp.com/mangakakalot/k1/kaibutsu_oujo/vol8_chapter_33_princess_erebus/2.jpg",
    "https://img-proxy.imgfo.com/?referer=https://manganelo.com&url=https://s41.mkklcdnv6temp.com/mangakakalot/k1/kaibutsu_oujo/vol8_chapter_33_princess_erebus/3.jpg",
    "https://img-proxy.imgfo.com/?referer=https://manganelo.com&url=https://s41.mkklcdnv6temp.com/mangakakalot/k1/kaibutsu_oujo/vol8_chapter_33_princess_erebus/4.jpg",
    "https://img-proxy.imgfo.com/?referer=https://manganelo.com&url=https://s41.mkklcdnv6temp.com/mangakakalot/k1/kaibutsu_oujo/vol8_chapter_33_princess_erebus/5.jpg",
    "https://img-proxy.imgfo.com/?referer=https://manganelo.com&url=https://s41.mkklcdnv6temp.com/mangakakalot/k1/kaibutsu_oujo/vol8_chapter_33_princess_erebus/6.jpg",
    "https://img-proxy.imgfo.com/?referer=https://manganelo.com&url=https://s41.mkklcdnv6temp.com/mangakakalot/k1/kaibutsu_oujo/vol8_chapter_33_princess_erebus/7.jpg",
    "https://img-proxy.imgfo.com/?referer=https://manganelo.com&url=https://s41.mkklcdnv6temp.com/mangakakalot/k1/kaibutsu_oujo/vol8_chapter_33_princess_erebus/8.jpg",
    "https://img-proxy.imgfo.com/?referer=https://manganelo.com&url=https://s41.mkklcdnv6temp.com/mangakakalot/k1/kaibutsu_oujo/vol8_chapter_33_princess_erebus/9.jpg",
    "https://img-proxy.imgfo.com/?referer=https://manganelo.com&url=https://s41.mkklcdnv6temp.com/mangakakalot/k1/kaibutsu_oujo/vol8_chapter_33_princess_erebus/10.jpg",
    "https://img-proxy.imgfo.com/?referer=https://manganelo.com&url=https://s41.mkklcdnv6temp.com/mangakakalot/k1/kaibutsu_oujo/vol8_chapter_33_princess_erebus/11.jpg",
    "https://img-proxy.imgfo.com/?referer=https://manganelo.com&url=https://s41.mkklcdnv6temp.com/mangakakalot/k1/kaibutsu_oujo/vol8_chapter_33_princess_erebus/12.jpg",
    "https://img-proxy.imgfo.com/?referer=https://manganelo.com&url=https://s41.mkklcdnv6temp.com/mangakakalot/k1/kaibutsu_oujo/vol8_chapter_33_princess_erebus/13.jpg",
    "https://img-proxy.imgfo.com/?referer=https://manganelo.com&url=https://s41.mkklcdnv6temp.com/mangakakalot/k1/kaibutsu_oujo/vol8_chapter_33_princess_erebus/14.jpg",
    "https://img-proxy.imgfo.com/?referer=https://manganelo.com&url=https://s41.mkklcdnv6temp.com/mangakakalot/k1/kaibutsu_oujo/vol8_chapter_33_princess_erebus/15.jpg",
    "https://img-proxy.imgfo.com/?referer=https://manganelo.com&url=https://s41.mkklcdnv6temp.com/mangakakalot/k1/kaibutsu_oujo/vol8_chapter_33_princess_erebus/16.jpg",
    "https://img-proxy.imgfo.com/?referer=https://manganelo.com&url=https://s41.mkklcdnv6temp.com/mangakakalot/k1/kaibutsu_oujo/vol8_chapter_33_princess_erebus/17.jpg",
    "https://img-proxy.imgfo.com/?referer=https://manganelo.com&url=https://s41.mkklcdnv6temp.com/mangakakalot/k1/kaibutsu_oujo/vol8_chapter_33_princess_erebus/18.jpg",
    "https://img-proxy.imgfo.com/?referer=https://manganelo.com&url=https://s41.mkklcdnv6temp.com/mangakakalot/k1/kaibutsu_oujo/vol8_chapter_33_princess_erebus/19.jpg",
    "https://img-proxy.imgfo.com/?referer=https://manganelo.com&url=https://s41.mkklcdnv6temp.com/mangakakalot/k1/kaibutsu_oujo/vol8_chapter_33_princess_erebus/20.jpg",
    "https://img-proxy.imgfo.com/?referer=https://manganelo.com&url=https://s41.mkklcdnv6temp.com/mangakakalot/k1/kaibutsu_oujo/vol8_chapter_33_princess_erebus/21.jpg",
    "https://img-proxy.imgfo.com/?referer=https://manganelo.com&url=https://s41.mkklcdnv6temp.com/mangakakalot/k1/kaibutsu_oujo/vol8_chapter_33_princess_erebus/22.jpg",
    "https://img-proxy.imgfo.com/?referer=https://manganelo.com&url=https://s41.mkklcdnv6temp.com/mangakakalot/k1/kaibutsu_oujo/vol8_chapter_33_princess_erebus/23.jpg",
    "https://img-proxy.imgfo.com/?referer=https://manganelo.com&url=https://s41.mkklcdnv6temp.com/mangakakalot/k1/kaibutsu_oujo/vol8_chapter_33_princess_erebus/24.jpg",
    "https://img-proxy.imgfo.com/?referer=https://manganelo.com&url=https://s41.mkklcdnv6temp.com/mangakakalot/k1/kaibutsu_oujo/vol8_chapter_33_princess_erebus/25.jpg",
    "https://img-proxy.imgfo.com/?referer=https://manganelo.com&url=https://s41.mkklcdnv6temp.com/mangakakalot/k1/kaibutsu_oujo/vol8_chapter_33_princess_erebus/26.jpg",
    "https://img-proxy.imgfo.com/?referer=https://manganelo.com&url=https://s41.mkklcdnv6temp.com/mangakakalot/k1/kaibutsu_oujo/vol8_chapter_33_princess_erebus/27.jpg",
    "https://img-proxy.imgfo.com/?referer=https://manganelo.com&url=https://s41.mkklcdnv6temp.com/mangakakalot/k1/kaibutsu_oujo/vol8_chapter_33_princess_erebus/28.jpg",
    "https://img-proxy.imgfo.com/?referer=https://manganelo.com&url=https://s41.mkklcdnv6temp.com/mangakakalot/k1/kaibutsu_oujo/vol8_chapter_33_princess_erebus/29.jpg",
    "https://img-proxy.imgfo.com/?referer=https://manganelo.com&url=https://s41.mkklcdnv6temp.com/mangakakalot/k1/kaibutsu_oujo/vol8_chapter_33_princess_erebus/30.jpg",
    "https://img-proxy.imgfo.com/?referer=https://manganelo.com&url=https://s41.mkklcdnv6temp.com/mangakakalot/k1/kaibutsu_oujo/vol8_chapter_33_princess_erebus/31.jpg",
    "https://img-proxy.imgfo.com/?referer=https://manganelo.com&url=https://s41.mkklcdnv6temp.com/mangakakalot/k1/kaibutsu_oujo/vol8_chapter_33_princess_erebus/32.jpg",
    "https://img-proxy.imgfo.com/?referer=https://manganelo.com&url=https://s41.mkklcdnv6temp.com/mangakakalot/k1/kaibutsu_oujo/vol8_chapter_33_princess_erebus/33.jpg",
    "https://img-proxy.imgfo.com/?referer=https://manganelo.com&url=https://s41.mkklcdnv6temp.com/mangakakalot/k1/kaibutsu_oujo/vol8_chapter_33_princess_erebus/34.jpg",
    "https://img-proxy.imgfo.com/?referer=https://manganelo.com&url=https://s41.mkklcdnv6temp.com/mangakakalot/k1/kaibutsu_oujo/vol8_chapter_33_princess_erebus/35.jpg",
    "https://img-proxy.imgfo.com/?referer=https://manganelo.com&url=https://s41.mkklcdnv6temp.com/mangakakalot/k1/kaibutsu_oujo/vol8_chapter_33_princess_erebus/36.jpg",
    "https://img-proxy.imgfo.com/?referer=https://manganelo.com&url=https://s41.mkklcdnv6temp.com/mangakakalot/k1/kaibutsu_oujo/vol8_chapter_33_princess_erebus/37.jpg",
    "https://img-proxy.imgfo.com/?referer=https://manganelo.com&url=https://s41.mkklcdnv6temp.com/mangakakalot/k1/kaibutsu_oujo/vol8_chapter_33_princess_erebus/38.jpg",
    "https://img-proxy.imgfo.com/?referer=https://manganelo.com&url=https://s41.mkklcdnv6temp.com/mangakakalot/k1/kaibutsu_oujo/vol8_chapter_33_princess_erebus/39.jpg",
    "https://img-proxy.imgfo.com/?referer=https://manganelo.com&url=https://s41.mkklcdnv6temp.com/mangakakalot/k1/kaibutsu_oujo/vol8_chapter_33_princess_erebus/40.jpg",
    "https://img-proxy.imgfo.com/?referer=https://manganelo.com&url=https://s41.mkklcdnv6temp.com/mangakakalot/k1/kaibutsu_oujo/vol8_chapter_33_princess_erebus/41.jpg",
    "https://img-proxy.imgfo.com/?referer=https://manganelo.com&url=https://s41.mkklcdnv6temp.com/mangakakalot/k1/kaibutsu_oujo/vol8_chapter_33_princess_erebus/42.jpg",
    "https://img-proxy.imgfo.com/?referer=https://manganelo.com&url=https://s41.mkklcdnv6temp.com/mangakakalot/k1/kaibutsu_oujo/vol8_chapter_33_princess_erebus/43.jpg"
  ]
}