{
  "cover": "https://avt.mkklcdnv6.com/6/x/4-1583469950.jpg",
  "title": "Bokura Ga Ita",
  "original": "僕等がいた ; We Were There ; C'était nous ; Noi c'eravamo",
  "genre": "Comedy, Drama, Romance, School life, Shoujo, Slice of life, Tragedy, Manga",
  "author": "Obata Yuuki",
  "status": "Completed",
  "backlink": "https://manganu.com/collections/obata-yuuki/bokura-ga-ita/",
  "description": "The start of high school life. To the girls, that also meant the start of their love lives. For brand new first year student, Takahashi Nanami (Nana for short), it was no different... She happens to end up in the same class as the incredibly popular Yano Motoharu, who rumors say that two thirds of all the girls are guaranteed to fall in love with. But will that hold true for Nana, who says that if she had to choose between like or dislike, she&#39;d say she dislikes him!?",
  "language": "English",
  "images": [
    "https://img-proxy.imgfo.com/?referer=https://manganelo.com&url=https://s5.mkklcdnv6temp.com/mangakakalot/b2/bokura_ga_ita/vol15_chapter_60/1.jpg",
    "https://img-proxy.imgfo.com/?referer=https://manganelo.com&url=https://s5.mkklcdnv6temp.com/mangakakalot/b2/bokura_ga_ita/vol15_chapter_60/2.jpg",
    "https://img-proxy.imgfo.com/?referer=https://manganelo.com&url=https://s5.mkklcdnv6temp.com/mangakakalot/b2/bokura_ga_ita/vol15_chapter_60/3.jpg",
    "https://img-proxy.imgfo.com/?referer=https://manganelo.com&url=https://s5.mkklcdnv6temp.com/mangakakalot/b2/bokura_ga_ita/vol15_chapter_60/4.jpg",
    "https://img-proxy.imgfo.com/?referer=https://manganelo.com&url=https://s5.mkklcdnv6temp.com/mangakakalot/b2/bokura_ga_ita/vol15_chapter_60/5.jpg",
    "https://img-proxy.imgfo.com/?referer=https://manganelo.com&url=https://s5.mkklcdnv6temp.com/mangakakalot/b2/bokura_ga_ita/vol15_chapter_60/6.jpg",
    "https://img-proxy.imgfo.com/?referer=https://manganelo.com&url=https://s5.mkklcdnv6temp.com/mangakakalot/b2/bokura_ga_ita/vol15_chapter_60/7.jpg",
    "https://img-proxy.imgfo.com/?referer=https://manganelo.com&url=https://s5.mkklcdnv6temp.com/mangakakalot/b2/bokura_ga_ita/vol15_chapter_60/8.jpg",
    "https://img-proxy.imgfo.com/?referer=https://manganelo.com&url=https://s5.mkklcdnv6temp.com/mangakakalot/b2/bokura_ga_ita/vol15_chapter_60/9.jpg",
    "https://img-proxy.imgfo.com/?referer=https://manganelo.com&url=https://s5.mkklcdnv6temp.com/mangakakalot/b2/bokura_ga_ita/vol15_chapter_60/10.jpg",
    "https://img-proxy.imgfo.com/?referer=https://manganelo.com&url=https://s5.mkklcdnv6temp.com/mangakakalot/b2/bokura_ga_ita/vol15_chapter_60/11.jpg",
    "https://img-proxy.imgfo.com/?referer=https://manganelo.com&url=https://s5.mkklcdnv6temp.com/mangakakalot/b2/bokura_ga_ita/vol15_chapter_60/12.jpg",
    "https://img-proxy.imgfo.com/?referer=https://manganelo.com&url=https://s5.mkklcdnv6temp.com/mangakakalot/b2/bokura_ga_ita/vol15_chapter_60/13.jpg",
    "https://img-proxy.imgfo.com/?referer=https://manganelo.com&url=https://s5.mkklcdnv6temp.com/mangakakalot/b2/bokura_ga_ita/vol15_chapter_60/14.jpg",
    "https://img-proxy.imgfo.com/?referer=https://manganelo.com&url=https://s5.mkklcdnv6temp.com/mangakakalot/b2/bokura_ga_ita/vol15_chapter_60/15.jpg",
    "https://img-proxy.imgfo.com/?referer=https://manganelo.com&url=https://s5.mkklcdnv6temp.com/mangakakalot/b2/bokura_ga_ita/vol15_chapter_60/16.jpg",
    "https://img-proxy.imgfo.com/?referer=https://manganelo.com&url=https://s5.mkklcdnv6temp.com/mangakakalot/b2/bokura_ga_ita/vol15_chapter_60/17.jpg",
    "https://img-proxy.imgfo.com/?referer=https://manganelo.com&url=https://s5.mkklcdnv6temp.com/mangakakalot/b2/bokura_ga_ita/vol15_chapter_60/18.jpg",
    "https://img-proxy.imgfo.com/?referer=https://manganelo.com&url=https://s5.mkklcdnv6temp.com/mangakakalot/b2/bokura_ga_ita/vol15_chapter_60/19.jpg",
    "https://img-proxy.imgfo.com/?referer=https://manganelo.com&url=https://s5.mkklcdnv6temp.com/mangakakalot/b2/bokura_ga_ita/vol15_chapter_60/20.jpg",
    "https://img-proxy.imgfo.com/?referer=https://manganelo.com&url=https://s5.mkklcdnv6temp.com/mangakakalot/b2/bokura_ga_ita/vol15_chapter_60/21.jpg",
    "https://img-proxy.imgfo.com/?referer=https://manganelo.com&url=https://s5.mkklcdnv6temp.com/mangakakalot/b2/bokura_ga_ita/vol15_chapter_60/22.jpg",
    "https://img-proxy.imgfo.com/?referer=https://manganelo.com&url=https://s5.mkklcdnv6temp.com/mangakakalot/b2/bokura_ga_ita/vol15_chapter_60/23.jpg",
    "https://img-proxy.imgfo.com/?referer=https://manganelo.com&url=https://s5.mkklcdnv6temp.com/mangakakalot/b2/bokura_ga_ita/vol15_chapter_60/24.jpg",
    "https://img-proxy.imgfo.com/?referer=https://manganelo.com&url=https://s5.mkklcdnv6temp.com/mangakakalot/b2/bokura_ga_ita/vol15_chapter_60/25.jpg",
    "https://img-proxy.imgfo.com/?referer=https://manganelo.com&url=https://s5.mkklcdnv6temp.com/mangakakalot/b2/bokura_ga_ita/vol15_chapter_60/26.jpg",
    "https://img-proxy.imgfo.com/?referer=https://manganelo.com&url=https://s5.mkklcdnv6temp.com/mangakakalot/b2/bokura_ga_ita/vol15_chapter_60/27.jpg",
    "https://img-proxy.imgfo.com/?referer=https://manganelo.com&url=https://s5.mkklcdnv6temp.com/mangakakalot/b2/bokura_ga_ita/vol15_chapter_60/28.jpg",
    "https://img-proxy.imgfo.com/?referer=https://manganelo.com&url=https://s5.mkklcdnv6temp.com/mangakakalot/b2/bokura_ga_ita/vol15_chapter_60/29.jpg",
    "https://img-proxy.imgfo.com/?referer=https://manganelo.com&url=https://s5.mkklcdnv6temp.com/mangakakalot/b2/bokura_ga_ita/vol15_chapter_60/30.jpg",
    "https://img-proxy.imgfo.com/?referer=https://manganelo.com&url=https://s5.mkklcdnv6temp.com/mangakakalot/b2/bokura_ga_ita/vol15_chapter_60/31.jpg",
    "https://img-proxy.imgfo.com/?referer=https://manganelo.com&url=https://s5.mkklcdnv6temp.com/mangakakalot/b2/bokura_ga_ita/vol15_chapter_60/32.jpg",
    "https://img-proxy.imgfo.com/?referer=https://manganelo.com&url=https://s5.mkklcdnv6temp.com/mangakakalot/b2/bokura_ga_ita/vol15_chapter_60/33.jpg"
  ]
}