{
  "cover": "https://avt.mkklcdnv6.com/24/s/10-1583483063.jpg",
  "title": "Ruka To Ita Natsu",
  "original": "るかといたなつ ; 琉伽といた夏 ; 迷失之夏 ; Luca, the Summer I Shared with You ; لوكا، الصيف الذي قضيناه معاً (Arabic)",
  "genre": "Romance, Sci fi, Seinen, Slice of life, Manga",
  "author": "Hokazono Masaya",
  "status": "Completed",
  "backlink": "https://manganu.com/collections/hokazono-masaya/ruka-to-ita-natsu/",
  "description": "Toono-kun’s life has gone out of control, all due to a strange accident that he can’t explain. There was a flash out in the school yard where his younger sister Yayoi was doing track and field, and a number of people were injured, including Yayoi. Yayoi was lucky and got out of the hospital the next day – only she doesn’t act like herself anymore. What Toono has discovered is that his little sister is gone, and has been replaced by a soldier named Luca from 31 years in the future – and he alone knows it!",
  "language": "English",
  "images": [
    "https://img-proxy.imgfo.com/?referer=https://manganelo.com&url=https://s41.mkklcdnv6temp.com/mangakakalot/r2/ruka_to_ita_natsu/vol3_chapter_18_the_terminal_experiment/1.jpg",
    "https://img-proxy.imgfo.com/?referer=https://manganelo.com&url=https://s41.mkklcdnv6temp.com/mangakakalot/r2/ruka_to_ita_natsu/vol3_chapter_18_the_terminal_experiment/2.jpg",
    "https://img-proxy.imgfo.com/?referer=https://manganelo.com&url=https://s41.mkklcdnv6temp.com/mangakakalot/r2/ruka_to_ita_natsu/vol3_chapter_18_the_terminal_experiment/3.jpg",
    "https://img-proxy.imgfo.com/?referer=https://manganelo.com&url=https://s41.mkklcdnv6temp.com/mangakakalot/r2/ruka_to_ita_natsu/vol3_chapter_18_the_terminal_experiment/4.jpg",
    "https://img-proxy.imgfo.com/?referer=https://manganelo.com&url=https://s41.mkklcdnv6temp.com/mangakakalot/r2/ruka_to_ita_natsu/vol3_chapter_18_the_terminal_experiment/5.jpg",
    "https://img-proxy.imgfo.com/?referer=https://manganelo.com&url=https://s41.mkklcdnv6temp.com/mangakakalot/r2/ruka_to_ita_natsu/vol3_chapter_18_the_terminal_experiment/6.jpg",
    "https://img-proxy.imgfo.com/?referer=https://manganelo.com&url=https://s41.mkklcdnv6temp.com/mangakakalot/r2/ruka_to_ita_natsu/vol3_chapter_18_the_terminal_experiment/7.jpg",
    "https://img-proxy.imgfo.com/?referer=https://manganelo.com&url=https://s41.mkklcdnv6temp.com/mangakakalot/r2/ruka_to_ita_natsu/vol3_chapter_18_the_terminal_experiment/8.jpg",
    "https://img-proxy.imgfo.com/?referer=https://manganelo.com&url=https://s41.mkklcdnv6temp.com/mangakakalot/r2/ruka_to_ita_natsu/vol3_chapter_18_the_terminal_experiment/9.jpg",
    "https://img-proxy.imgfo.com/?referer=https://manganelo.com&url=https://s41.mkklcdnv6temp.com/mangakakalot/r2/ruka_to_ita_natsu/vol3_chapter_18_the_terminal_experiment/10.jpg",
    "https://img-proxy.imgfo.com/?referer=https://manganelo.com&url=https://s41.mkklcdnv6temp.com/mangakakalot/r2/ruka_to_ita_natsu/vol3_chapter_18_the_terminal_experiment/11.jpg",
    "https://img-proxy.imgfo.com/?referer=https://manganelo.com&url=https://s41.mkklcdnv6temp.com/mangakakalot/r2/ruka_to_ita_natsu/vol3_chapter_18_the_terminal_experiment/12.jpg",
    "https://img-proxy.imgfo.com/?referer=https://manganelo.com&url=https://s41.mkklcdnv6temp.com/mangakakalot/r2/ruka_to_ita_natsu/vol3_chapter_18_the_terminal_experiment/13.jpg",
    "https://img-proxy.imgfo.com/?referer=https://manganelo.com&url=https://s41.mkklcdnv6temp.com/mangakakalot/r2/ruka_to_ita_natsu/vol3_chapter_18_the_terminal_experiment/14.jpg",
    "https://img-proxy.imgfo.com/?referer=https://manganelo.com&url=https://s41.mkklcdnv6temp.com/mangakakalot/r2/ruka_to_ita_natsu/vol3_chapter_18_the_terminal_experiment/15.jpg",
    "https://img-proxy.imgfo.com/?referer=https://manganelo.com&url=https://s41.mkklcdnv6temp.com/mangakakalot/r2/ruka_to_ita_natsu/vol3_chapter_18_the_terminal_experiment/16.jpg",
    "https://img-proxy.imgfo.com/?referer=https://manganelo.com&url=https://s41.mkklcdnv6temp.com/mangakakalot/r2/ruka_to_ita_natsu/vol3_chapter_18_the_terminal_experiment/17.jpg",
    "https://img-proxy.imgfo.com/?referer=https://manganelo.com&url=https://s41.mkklcdnv6temp.com/mangakakalot/r2/ruka_to_ita_natsu/vol3_chapter_18_the_terminal_experiment/18.jpg",
    "https://img-proxy.imgfo.com/?referer=https://manganelo.com&url=https://s41.mkklcdnv6temp.com/mangakakalot/r2/ruka_to_ita_natsu/vol3_chapter_18_the_terminal_experiment/19.jpg",
    "https://img-proxy.imgfo.com/?referer=https://manganelo.com&url=https://s41.mkklcdnv6temp.com/mangakakalot/r2/ruka_to_ita_natsu/vol3_chapter_18_the_terminal_experiment/20.jpg",
    "https://img-proxy.imgfo.com/?referer=https://manganelo.com&url=https://s41.mkklcdnv6temp.com/mangakakalot/r2/ruka_to_ita_natsu/vol3_chapter_18_the_terminal_experiment/21.jpg",
    "https://img-proxy.imgfo.com/?referer=https://manganelo.com&url=https://s41.mkklcdnv6temp.com/mangakakalot/r2/ruka_to_ita_natsu/vol3_chapter_18_the_terminal_experiment/22.jpg",
    "https://img-proxy.imgfo.com/?referer=https://manganelo.com&url=https://s41.mkklcdnv6temp.com/mangakakalot/r2/ruka_to_ita_natsu/vol3_chapter_18_the_terminal_experiment/23.jpg",
    "https://img-proxy.imgfo.com/?referer=https://manganelo.com&url=https://s41.mkklcdnv6temp.com/mangakakalot/r2/ruka_to_ita_natsu/vol3_chapter_18_the_terminal_experiment/24.jpg",
    "https://img-proxy.imgfo.com/?referer=https://manganelo.com&url=https://s41.mkklcdnv6temp.com/mangakakalot/r2/ruka_to_ita_natsu/vol3_chapter_18_the_terminal_experiment/25.jpg",
    "https://img-proxy.imgfo.com/?referer=https://manganelo.com&url=https://s41.mkklcdnv6temp.com/mangakakalot/r2/ruka_to_ita_natsu/vol3_chapter_18_the_terminal_experiment/26.jpg",
    "https://img-proxy.imgfo.com/?referer=https://manganelo.com&url=https://s41.mkklcdnv6temp.com/mangakakalot/r2/ruka_to_ita_natsu/vol3_chapter_18_the_terminal_experiment/27.jpg",
    "https://img-proxy.imgfo.com/?referer=https://manganelo.com&url=https://s41.mkklcdnv6temp.com/mangakakalot/r2/ruka_to_ita_natsu/vol3_chapter_18_the_terminal_experiment/28.jpg",
    "https://img-proxy.imgfo.com/?referer=https://manganelo.com&url=https://s41.mkklcdnv6temp.com/mangakakalot/r2/ruka_to_ita_natsu/vol3_chapter_18_the_terminal_experiment/29.jpg",
    "https://img-proxy.imgfo.com/?referer=https://manganelo.com&url=https://s41.mkklcdnv6temp.com/mangakakalot/r2/ruka_to_ita_natsu/vol3_chapter_18_the_terminal_experiment/30.jpg"
  ]
}