{
  "cover": "https://avt.mkklcdnv6.com/15/g/4-1583470292.jpg",
  "title": "0 Kara Hajimeru Manga Kyoushitsu",
  "original": "0から始めるまんが教室",
  "genre": "Comedy, Romance, Shoujo, Manga",
  "author": "Kurumatani Haruko",
  "status": "Completed",
  "backlink": "https://manganu.com/collections/kurumatani-haruko/0-kara-hajimeru-manga-kyoushitsu/",
  "description": "It's a how-to-draw-manga thing KURUMATANI Haruko posts on Sho-Comi. There's about 2-3 pages of it each issue. It's not really a story or anything, it just talks about how to draw manga and techniques, etc.\nFrom Midnight Scans:\nReika is a rich girl who wants to pursue her dream of being a mangaka; and so, she hired a butler, one whom specializes in teaching people how to draw manga. That is how Seba* came here.\nHowever, since his knowledge about manga is vast, he turns into the ultimate Spartan whenever he teaches her! Even today, he whips her still.\nThe secret teaching debut, and the enthusiasm over cool butlers will start soon!\n*Seba: Sebastian, but it is a common term to call a butler that, however, in this case, it might also be his name.",
  "language": "English",
  "images": [
    "https://img-proxy.imgfo.com/?referer=https://manganelo.com&url=https://s41.mkklcdnv6temp.com/mangakakalot/02/0_kara_hajimeru_manga_kyoushitsu/vol1_chapter_5/1.jpg",
    "https://img-proxy.imgfo.com/?referer=https://manganelo.com&url=https://s41.mkklcdnv6temp.com/mangakakalot/02/0_kara_hajimeru_manga_kyoushitsu/vol1_chapter_5/2.jpg",
    "https://img-proxy.imgfo.com/?referer=https://manganelo.com&url=https://s41.mkklcdnv6temp.com/mangakakalot/02/0_kara_hajimeru_manga_kyoushitsu/vol1_chapter_5/3.jpg",
    "https://img-proxy.imgfo.com/?referer=https://manganelo.com&url=https://s41.mkklcdnv6temp.com/mangakakalot/02/0_kara_hajimeru_manga_kyoushitsu/vol1_chapter_5/4.jpg",
    "https://img-proxy.imgfo.com/?referer=https://manganelo.com&url=https://s41.mkklcdnv6temp.com/mangakakalot/02/0_kara_hajimeru_manga_kyoushitsu/vol1_chapter_5/5.jpg",
    "https://img-proxy.imgfo.com/?referer=https://manganelo.com&url=https://s41.mkklcdnv6temp.com/mangakakalot/02/0_kara_hajimeru_manga_kyoushitsu/vol1_chapter_5/6.jpg",
    "https://img-proxy.imgfo.com/?referer=https://manganelo.com&url=https://s41.mkklcdnv6temp.com/mangakakalot/02/0_kara_hajimeru_manga_kyoushitsu/vol1_chapter_5/7.jpg",
    "https://img-proxy.imgfo.com/?referer=https://manganelo.com&url=https://s41.mkklcdnv6temp.com/mangakakalot/02/0_kara_hajimeru_manga_kyoushitsu/vol1_chapter_5/8.jpg",
    "https://img-proxy.imgfo.com/?referer=https://manganelo.com&url=https://s41.mkklcdnv6temp.com/mangakakalot/02/0_kara_hajimeru_manga_kyoushitsu/vol1_chapter_5/9.jpg",
    "https://img-proxy.imgfo.com/?referer=https://manganelo.com&url=https://s41.mkklcdnv6temp.com/mangakakalot/02/0_kara_hajimeru_manga_kyoushitsu/vol1_chapter_5/10.jpg",
    "https://img-proxy.imgfo.com/?referer=https://manganelo.com&url=https://s41.mkklcdnv6temp.com/mangakakalot/02/0_kara_hajimeru_manga_kyoushitsu/vol1_chapter_5/11.jpg",
    "https://img-proxy.imgfo.com/?referer=https://manganelo.com&url=https://s41.mkklcdnv6temp.com/mangakakalot/02/0_kara_hajimeru_manga_kyoushitsu/vol1_chapter_5/12.jpg",
    "https://img-proxy.imgfo.com/?referer=https://manganelo.com&url=https://s41.mkklcdnv6temp.com/mangakakalot/02/0_kara_hajimeru_manga_kyoushitsu/vol1_chapter_5/13.jpg",
    "https://img-proxy.imgfo.com/?referer=https://manganelo.com&url=https://s41.mkklcdnv6temp.com/mangakakalot/02/0_kara_hajimeru_manga_kyoushitsu/vol1_chapter_5/14.jpg",
    "https://img-proxy.imgfo.com/?referer=https://manganelo.com&url=https://s41.mkklcdnv6temp.com/mangakakalot/02/0_kara_hajimeru_manga_kyoushitsu/vol1_chapter_5/15.jpg",
    "https://img-proxy.imgfo.com/?referer=https://manganelo.com&url=https://s41.mkklcdnv6temp.com/mangakakalot/02/0_kara_hajimeru_manga_kyoushitsu/vol1_chapter_5/16.jpg",
    "https://img-proxy.imgfo.com/?referer=https://manganelo.com&url=https://s41.mkklcdnv6temp.com/mangakakalot/02/0_kara_hajimeru_manga_kyoushitsu/vol1_chapter_5/17.jpg",
    "https://img-proxy.imgfo.com/?referer=https://manganelo.com&url=https://s41.mkklcdnv6temp.com/mangakakalot/02/0_kara_hajimeru_manga_kyoushitsu/vol1_chapter_5/18.jpg",
    "https://img-proxy.imgfo.com/?referer=https://manganelo.com&url=https://s41.mkklcdnv6temp.com/mangakakalot/02/0_kara_hajimeru_manga_kyoushitsu/vol1_chapter_5/19.jpg",
    "https://img-proxy.imgfo.com/?referer=https://manganelo.com&url=https://s41.mkklcdnv6temp.com/mangakakalot/02/0_kara_hajimeru_manga_kyoushitsu/vol1_chapter_5/20.jpg",
    "https://img-proxy.imgfo.com/?referer=https://manganelo.com&url=https://s41.mkklcdnv6temp.com/mangakakalot/02/0_kara_hajimeru_manga_kyoushitsu/vol1_chapter_5/21.jpg",
    "https://img-proxy.imgfo.com/?referer=https://manganelo.com&url=https://s41.mkklcdnv6temp.com/mangakakalot/02/0_kara_hajimeru_manga_kyoushitsu/vol1_chapter_5/22.jpg",
    "https://img-proxy.imgfo.com/?referer=https://manganelo.com&url=https://s41.mkklcdnv6temp.com/mangakakalot/02/0_kara_hajimeru_manga_kyoushitsu/vol1_chapter_5/23.jpg",
    "https://img-proxy.imgfo.com/?referer=https://manganelo.com&url=https://s41.mkklcdnv6temp.com/mangakakalot/02/0_kara_hajimeru_manga_kyoushitsu/vol1_chapter_5/24.jpg",
    "https://img-proxy.imgfo.com/?referer=https://manganelo.com&url=https://s41.mkklcdnv6temp.com/mangakakalot/02/0_kara_hajimeru_manga_kyoushitsu/vol1_chapter_5/25.jpg",
    "https://img-proxy.imgfo.com/?referer=https://manganelo.com&url=https://s41.mkklcdnv6temp.com/mangakakalot/02/0_kara_hajimeru_manga_kyoushitsu/vol1_chapter_5/26.jpg",
    "https://img-proxy.imgfo.com/?referer=https://manganelo.com&url=https://s41.mkklcdnv6temp.com/mangakakalot/02/0_kara_hajimeru_manga_kyoushitsu/vol1_chapter_5/27.jpg",
    "https://img-proxy.imgfo.com/?referer=https://manganelo.com&url=https://s41.mkklcdnv6temp.com/mangakakalot/02/0_kara_hajimeru_manga_kyoushitsu/vol1_chapter_5/28.jpg",
    "https://img-proxy.imgfo.com/?referer=https://manganelo.com&url=https://s41.mkklcdnv6temp.com/mangakakalot/02/0_kara_hajimeru_manga_kyoushitsu/vol1_chapter_5/29.jpg",
    "https://img-proxy.imgfo.com/?referer=https://manganelo.com&url=https://s41.mkklcdnv6temp.com/mangakakalot/02/0_kara_hajimeru_manga_kyoushitsu/vol1_chapter_5/30.jpg",
    "https://img-proxy.imgfo.com/?referer=https://manganelo.com&url=https://s41.mkklcdnv6temp.com/mangakakalot/02/0_kara_hajimeru_manga_kyoushitsu/vol1_chapter_5/31.jpg",
    "https://img-proxy.imgfo.com/?referer=https://manganelo.com&url=https://s41.mkklcdnv6temp.com/mangakakalot/02/0_kara_hajimeru_manga_kyoushitsu/vol1_chapter_5/32.jpg",
    "https://img-proxy.imgfo.com/?referer=https://manganelo.com&url=https://s41.mkklcdnv6temp.com/mangakakalot/02/0_kara_hajimeru_manga_kyoushitsu/vol1_chapter_5/33.jpg",
    "https://img-proxy.imgfo.com/?referer=https://manganelo.com&url=https://s41.mkklcdnv6temp.com/mangakakalot/02/0_kara_hajimeru_manga_kyoushitsu/vol1_chapter_5/34.jpg",
    "https://img-proxy.imgfo.com/?referer=https://manganelo.com&url=https://s41.mkklcdnv6temp.com/mangakakalot/02/0_kara_hajimeru_manga_kyoushitsu/vol1_chapter_5/35.jpg",
    "https://img-proxy.imgfo.com/?referer=https://manganelo.com&url=https://s41.mkklcdnv6temp.com/mangakakalot/02/0_kara_hajimeru_manga_kyoushitsu/vol1_chapter_5/36.jpg"
  ]
}