{
  "cover": "https://avt.mkklcdnv6.com/50/v/10-1583484015.jpg",
  "title": "Japan Tengu Party Illustrated",
  "original": "大日本天狗党絵詞 ; Dainichi Moto Tengu Toukaishi",
  "genre": "Drama, Fantasy, Seinen, Supernatural, Manga",
  "author": "Kuroda Iou",
  "status": "Completed",
  "backlink": "https://manganu.com/collections/kuroda-iou/japan-tengu-party-illustrated/",
  "description": "A tengu is an utterly proud and arrogant creature (so much that the Japanese saying, \"to become a tengu,\" means to preen conceitedly) that is said to steal young children away from their homes. In this story, the fractured and disgraced remnants of the tengu species come together from all over the country to rise up, reclaim their pride, and rule over the nation of Japan, as is their right. What kind of effect will the \"Tengu Party\" have on the humans of Japan, and more importantly, what exactly makes a tengu?",
  "language": "English",
  "images": [
    "https://img-proxy.imgfo.com/?referer=https://manganelo.com&url=https://s7.mkklcdnv6temp.com/mangakakalot/j1/japan_tengu_party_illustrated/vol3_chapter_15_of_returning_home/1.jpg",
    "https://img-proxy.imgfo.com/?referer=https://manganelo.com&url=https://s7.mkklcdnv6temp.com/mangakakalot/j1/japan_tengu_party_illustrated/vol3_chapter_15_of_returning_home/2.jpg",
    "https://img-proxy.imgfo.com/?referer=https://manganelo.com&url=https://s7.mkklcdnv6temp.com/mangakakalot/j1/japan_tengu_party_illustrated/vol3_chapter_15_of_returning_home/3.jpg",
    "https://img-proxy.imgfo.com/?referer=https://manganelo.com&url=https://s7.mkklcdnv6temp.com/mangakakalot/j1/japan_tengu_party_illustrated/vol3_chapter_15_of_returning_home/4.jpg",
    "https://img-proxy.imgfo.com/?referer=https://manganelo.com&url=https://s7.mkklcdnv6temp.com/mangakakalot/j1/japan_tengu_party_illustrated/vol3_chapter_15_of_returning_home/5.jpg",
    "https://img-proxy.imgfo.com/?referer=https://manganelo.com&url=https://s7.mkklcdnv6temp.com/mangakakalot/j1/japan_tengu_party_illustrated/vol3_chapter_15_of_returning_home/6.jpg",
    "https://img-proxy.imgfo.com/?referer=https://manganelo.com&url=https://s7.mkklcdnv6temp.com/mangakakalot/j1/japan_tengu_party_illustrated/vol3_chapter_15_of_returning_home/7.jpg",
    "https://img-proxy.imgfo.com/?referer=https://manganelo.com&url=https://s7.mkklcdnv6temp.com/mangakakalot/j1/japan_tengu_party_illustrated/vol3_chapter_15_of_returning_home/8.jpg",
    "https://img-proxy.imgfo.com/?referer=https://manganelo.com&url=https://s7.mkklcdnv6temp.com/mangakakalot/j1/japan_tengu_party_illustrated/vol3_chapter_15_of_returning_home/9.jpg",
    "https://img-proxy.imgfo.com/?referer=https://manganelo.com&url=https://s7.mkklcdnv6temp.com/mangakakalot/j1/japan_tengu_party_illustrated/vol3_chapter_15_of_returning_home/10.jpg",
    "https://img-proxy.imgfo.com/?referer=https://manganelo.com&url=https://s7.mkklcdnv6temp.com/mangakakalot/j1/japan_tengu_party_illustrated/vol3_chapter_15_of_returning_home/11.jpg",
    "https://img-proxy.imgfo.com/?referer=https://manganelo.com&url=https://s7.mkklcdnv6temp.com/mangakakalot/j1/japan_tengu_party_illustrated/vol3_chapter_15_of_returning_home/12.jpg",
    "https://img-proxy.imgfo.com/?referer=https://manganelo.com&url=https://s7.mkklcdnv6temp.com/mangakakalot/j1/japan_tengu_party_illustrated/vol3_chapter_15_of_returning_home/13.jpg",
    "https://img-proxy.imgfo.com/?referer=https://manganelo.com&url=https://s7.mkklcdnv6temp.com/mangakakalot/j1/japan_tengu_party_illustrated/vol3_chapter_15_of_returning_home/14.jpg",
    "https://img-proxy.imgfo.com/?referer=https://manganelo.com&url=https://s7.mkklcdnv6temp.com/mangakakalot/j1/japan_tengu_party_illustrated/vol3_chapter_15_of_returning_home/15.jpg",
    "https://img-proxy.imgfo.com/?referer=https://manganelo.com&url=https://s7.mkklcdnv6temp.com/mangakakalot/j1/japan_tengu_party_illustrated/vol3_chapter_15_of_returning_home/16.jpg",
    "https://img-proxy.imgfo.com/?referer=https://manganelo.com&url=https://s7.mkklcdnv6temp.com/mangakakalot/j1/japan_tengu_party_illustrated/vol3_chapter_15_of_returning_home/17.jpg",
    "https://img-proxy.imgfo.com/?referer=https://manganelo.com&url=https://s7.mkklcdnv6temp.com/mangakakalot/j1/japan_tengu_party_illustrated/vol3_chapter_15_of_returning_home/18.jpg",
    "https://img-proxy.imgfo.com/?referer=https://manganelo.com&url=https://s7.mkklcdnv6temp.com/mangakakalot/j1/japan_tengu_party_illustrated/vol3_chapter_15_of_returning_home/19.jpg",
    "https://img-proxy.imgfo.com/?referer=https://manganelo.com&url=https://s7.mkklcdnv6temp.com/mangakakalot/j1/japan_tengu_party_illustrated/vol3_chapter_15_of_returning_home/20.jpg",
    "https://img-proxy.imgfo.com/?referer=https://manganelo.com&url=https://s7.mkklcdnv6temp.com/mangakakalot/j1/japan_tengu_party_illustrated/vol3_chapter_15_of_returning_home/21.jpg",
    "https://img-proxy.imgfo.com/?referer=https://manganelo.com&url=https://s7.mkklcdnv6temp.com/mangakakalot/j1/japan_tengu_party_illustrated/vol3_chapter_15_of_returning_home/22.jpg",
    "https://img-proxy.imgfo.com/?referer=https://manganelo.com&url=https://s7.mkklcdnv6temp.com/mangakakalot/j1/japan_tengu_party_illustrated/vol3_chapter_15_of_returning_home/23.jpg",
    "https://img-proxy.imgfo.com/?referer=https://manganelo.com&url=https://s7.mkklcdnv6temp.com/mangakakalot/j1/japan_tengu_party_illustrated/vol3_chapter_15_of_returning_home/24.jpg",
    "https://img-proxy.imgfo.com/?referer=https://manganelo.com&url=https://s7.mkklcdnv6temp.com/mangakakalot/j1/japan_tengu_party_illustrated/vol3_chapter_15_of_returning_home/25.jpg",
    "https://img-proxy.imgfo.com/?referer=https://manganelo.com&url=https://s7.mkklcdnv6temp.com/mangakakalot/j1/japan_tengu_party_illustrated/vol3_chapter_15_of_returning_home/26.jpg",
    "https://img-proxy.imgfo.com/?referer=https://manganelo.com&url=https://s7.mkklcdnv6temp.com/mangakakalot/j1/japan_tengu_party_illustrated/vol3_chapter_15_of_returning_home/27.jpg",
    "https://img-proxy.imgfo.com/?referer=https://manganelo.com&url=https://s7.mkklcdnv6temp.com/mangakakalot/j1/japan_tengu_party_illustrated/vol3_chapter_15_of_returning_home/28.jpg",
    "https://img-proxy.imgfo.com/?referer=https://manganelo.com&url=https://s7.mkklcdnv6temp.com/mangakakalot/j1/japan_tengu_party_illustrated/vol3_chapter_15_of_returning_home/29.jpg",
    "https://img-proxy.imgfo.com/?referer=https://manganelo.com&url=https://s7.mkklcdnv6temp.com/mangakakalot/j1/japan_tengu_party_illustrated/vol3_chapter_15_of_returning_home/30.jpg",
    "https://img-proxy.imgfo.com/?referer=https://manganelo.com&url=https://s7.mkklcdnv6temp.com/mangakakalot/j1/japan_tengu_party_illustrated/vol3_chapter_15_of_returning_home/31.jpg",
    "https://img-proxy.imgfo.com/?referer=https://manganelo.com&url=https://s7.mkklcdnv6temp.com/mangakakalot/j1/japan_tengu_party_illustrated/vol3_chapter_15_of_returning_home/32.jpg",
    "https://img-proxy.imgfo.com/?referer=https://manganelo.com&url=https://s7.mkklcdnv6temp.com/mangakakalot/j1/japan_tengu_party_illustrated/vol3_chapter_15_of_returning_home/33.jpg"
  ]
}