{
  "cover": "https://avt.mkklcdnv6.com/4/e/13-1583487880.jpg",
  "title": "Kidou Senshi Crossbone Gundam Koutetsu No Shichinin",
  "original": "機動戦士クロスボーン・ガンダム 鋼鉄の七人 ; 機動戦士クロスボーン・ガンダム 鋼鉄の7人 ; Crossbone Gundam Steel 7 ; Kidou Senshi Crossbone Gundam Koutetsu no 7 Nin ; Mobile Suit Crossbone Gundam Koutetsu no 7 Nin ; Mobile Suit Crossbone Gundam Steel 7 ; Mobile Suit Crossbone Gundam: The Steel Seven",
  "genre": "Mature, Mecha, Sci fi, Shounen, Manga",
  "author": "Hajime Yatate Tomino Yoshiyuki",
  "status": "Completed",
  "backlink": "https://manganu.com/collections/hajime-yatate-tomino-yoshiyuki/kidou-senshi-crossbone-gundam-koutetsu-no-shichinin/",
  "description": "While in their usual patrolling duty, the Crossbone Vanguard managed to find jovian forces trying to kill an escapee. While rescuing the woman, they happen to stumble in Jupiter's newest \"wipe out the entire world\" scheme. Unlike the previous times, they actually are too late to organize counter measures and there is almost no hope of stopping them due to many adverse circumstances.\n...The pirates must now fall back on desperate plans, taking huge risk while trying to stop the abominable \"Zeus Thunder\" project before mother Earth is completely engulfed by the flames of war.",
  "language": "English",
  "images": [
    "https://img-proxy.imgfo.com/?referer=https://manganelo.com&url=https://s41.mkklcdnv6temp.com/mangakakalot/k1/kidou_senshi_crossbone_gundam_koutetsu_no_shichinin/vol1_chapter_5_what_awaits_the_search_on_the_blue_planet/1.jpg",
    "https://img-proxy.imgfo.com/?referer=https://manganelo.com&url=https://s41.mkklcdnv6temp.com/mangakakalot/k1/kidou_senshi_crossbone_gundam_koutetsu_no_shichinin/vol1_chapter_5_what_awaits_the_search_on_the_blue_planet/2.jpg",
    "https://img-proxy.imgfo.com/?referer=https://manganelo.com&url=https://s41.mkklcdnv6temp.com/mangakakalot/k1/kidou_senshi_crossbone_gundam_koutetsu_no_shichinin/vol1_chapter_5_what_awaits_the_search_on_the_blue_planet/3.jpg",
    "https://img-proxy.imgfo.com/?referer=https://manganelo.com&url=https://s41.mkklcdnv6temp.com/mangakakalot/k1/kidou_senshi_crossbone_gundam_koutetsu_no_shichinin/vol1_chapter_5_what_awaits_the_search_on_the_blue_planet/4.jpg",
    "https://img-proxy.imgfo.com/?referer=https://manganelo.com&url=https://s41.mkklcdnv6temp.com/mangakakalot/k1/kidou_senshi_crossbone_gundam_koutetsu_no_shichinin/vol1_chapter_5_what_awaits_the_search_on_the_blue_planet/5.jpg",
    "https://img-proxy.imgfo.com/?referer=https://manganelo.com&url=https://s41.mkklcdnv6temp.com/mangakakalot/k1/kidou_senshi_crossbone_gundam_koutetsu_no_shichinin/vol1_chapter_5_what_awaits_the_search_on_the_blue_planet/6.jpg",
    "https://img-proxy.imgfo.com/?referer=https://manganelo.com&url=https://s41.mkklcdnv6temp.com/mangakakalot/k1/kidou_senshi_crossbone_gundam_koutetsu_no_shichinin/vol1_chapter_5_what_awaits_the_search_on_the_blue_planet/7.jpg",
    "https://img-proxy.imgfo.com/?referer=https://manganelo.com&url=https://s41.mkklcdnv6temp.com/mangakakalot/k1/kidou_senshi_crossbone_gundam_koutetsu_no_shichinin/vol1_chapter_5_what_awaits_the_search_on_the_blue_planet/8.jpg",
    "https://img-proxy.imgfo.com/?referer=https://manganelo.com&url=https://s41.mkklcdnv6temp.com/mangakakalot/k1/kidou_senshi_crossbone_gundam_koutetsu_no_shichinin/vol1_chapter_5_what_awaits_the_search_on_the_blue_planet/9.jpg",
    "https://img-proxy.imgfo.com/?referer=https://manganelo.com&url=https://s41.mkklcdnv6temp.com/mangakakalot/k1/kidou_senshi_crossbone_gundam_koutetsu_no_shichinin/vol1_chapter_5_what_awaits_the_search_on_the_blue_planet/10.jpg",
    "https://img-proxy.imgfo.com/?referer=https://manganelo.com&url=https://s41.mkklcdnv6temp.com/mangakakalot/k1/kidou_senshi_crossbone_gundam_koutetsu_no_shichinin/vol1_chapter_5_what_awaits_the_search_on_the_blue_planet/11.jpg",
    "https://img-proxy.imgfo.com/?referer=https://manganelo.com&url=https://s41.mkklcdnv6temp.com/mangakakalot/k1/kidou_senshi_crossbone_gundam_koutetsu_no_shichinin/vol1_chapter_5_what_awaits_the_search_on_the_blue_planet/12.jpg",
    "https://img-proxy.imgfo.com/?referer=https://manganelo.com&url=https://s41.mkklcdnv6temp.com/mangakakalot/k1/kidou_senshi_crossbone_gundam_koutetsu_no_shichinin/vol1_chapter_5_what_awaits_the_search_on_the_blue_planet/13.jpg",
    "https://img-proxy.imgfo.com/?referer=https://manganelo.com&url=https://s41.mkklcdnv6temp.com/mangakakalot/k1/kidou_senshi_crossbone_gundam_koutetsu_no_shichinin/vol1_chapter_5_what_awaits_the_search_on_the_blue_planet/14.jpg",
    "https://img-proxy.imgfo.com/?referer=https://manganelo.com&url=https://s41.mkklcdnv6temp.com/mangakakalot/k1/kidou_senshi_crossbone_gundam_koutetsu_no_shichinin/vol1_chapter_5_what_awaits_the_search_on_the_blue_planet/15.jpg",
    "https://img-proxy.imgfo.com/?referer=https://manganelo.com&url=https://s41.mkklcdnv6temp.com/mangakakalot/k1/kidou_senshi_crossbone_gundam_koutetsu_no_shichinin/vol1_chapter_5_what_awaits_the_search_on_the_blue_planet/16.jpg",
    "https://img-proxy.imgfo.com/?referer=https://manganelo.com&url=https://s41.mkklcdnv6temp.com/mangakakalot/k1/kidou_senshi_crossbone_gundam_koutetsu_no_shichinin/vol1_chapter_5_what_awaits_the_search_on_the_blue_planet/17.jpg",
    "https://img-proxy.imgfo.com/?referer=https://manganelo.com&url=https://s41.mkklcdnv6temp.com/mangakakalot/k1/kidou_senshi_crossbone_gundam_koutetsu_no_shichinin/vol1_chapter_5_what_awaits_the_search_on_the_blue_planet/18.jpg",
    "https://img-proxy.imgfo.com/?referer=https://manganelo.com&url=https://s41.mkklcdnv6temp.com/mangakakalot/k1/kidou_senshi_crossbone_gundam_koutetsu_no_shichinin/vol1_chapter_5_what_awaits_the_search_on_the_blue_planet/19.jpg",
    "https://img-proxy.imgfo.com/?referer=https://manganelo.com&url=https://s41.mkklcdnv6temp.com/mangakakalot/k1/kidou_senshi_crossbone_gundam_koutetsu_no_shichinin/vol1_chapter_5_what_awaits_the_search_on_the_blue_planet/20.jpg",
    "https://img-proxy.imgfo.com/?referer=https://manganelo.com&url=https://s41.mkklcdnv6temp.com/mangakakalot/k1/kidou_senshi_crossbone_gundam_koutetsu_no_shichinin/vol1_chapter_5_what_awaits_the_search_on_the_blue_planet/21.jpg",
    "https://img-proxy.imgfo.com/?referer=https://manganelo.com&url=https://s41.mkklcdnv6temp.com/mangakakalot/k1/kidou_senshi_crossbone_gundam_koutetsu_no_shichinin/vol1_chapter_5_what_awaits_the_search_on_the_blue_planet/22.jpg",
    "https://img-proxy.imgfo.com/?referer=https://manganelo.com&url=https://s41.mkklcdnv6temp.com/mangakakalot/k1/kidou_senshi_crossbone_gundam_koutetsu_no_shichinin/vol1_chapter_5_what_awaits_the_search_on_the_blue_planet/23.jpg",
    "https://img-proxy.imgfo.com/?referer=https://manganelo.com&url=https://s41.mkklcdnv6temp.com/mangakakalot/k1/kidou_senshi_crossbone_gundam_koutetsu_no_shichinin/vol1_chapter_5_what_awaits_the_search_on_the_blue_planet/24.jpg",
    "https://img-proxy.imgfo.com/?referer=https://manganelo.com&url=https://s41.mkklcdnv6temp.com/mangakakalot/k1/kidou_senshi_crossbone_gundam_koutetsu_no_shichinin/vol1_chapter_5_what_awaits_the_search_on_the_blue_planet/25.jpg",
    "https://img-proxy.imgfo.com/?referer=https://manganelo.com&url=https://s41.mkklcdnv6temp.com/mangakakalot/k1/kidou_senshi_crossbone_gundam_koutetsu_no_shichinin/vol1_chapter_5_what_awaits_the_search_on_the_blue_planet/26.jpg",
    "https://img-proxy.imgfo.com/?referer=https://manganelo.com&url=https://s41.mkklcdnv6temp.com/mangakakalot/k1/kidou_senshi_crossbone_gundam_koutetsu_no_shichinin/vol1_chapter_5_what_awaits_the_search_on_the_blue_planet/27.jpg",
    "https://img-proxy.imgfo.com/?referer=https://manganelo.com&url=https://s41.mkklcdnv6temp.com/mangakakalot/k1/kidou_senshi_crossbone_gundam_koutetsu_no_shichinin/vol1_chapter_5_what_awaits_the_search_on_the_blue_planet/28.jpg",
    "https://img-proxy.imgfo.com/?referer=https://manganelo.com&url=https://s41.mkklcdnv6temp.com/mangakakalot/k1/kidou_senshi_crossbone_gundam_koutetsu_no_shichinin/vol1_chapter_5_what_awaits_the_search_on_the_blue_planet/29.jpg",
    "https://img-proxy.imgfo.com/?referer=https://manganelo.com&url=https://s41.mkklcdnv6temp.com/mangakakalot/k1/kidou_senshi_crossbone_gundam_koutetsu_no_shichinin/vol1_chapter_5_what_awaits_the_search_on_the_blue_planet/30.jpg",
    "https://img-proxy.imgfo.com/?referer=https://manganelo.com&url=https://s41.mkklcdnv6temp.com/mangakakalot/k1/kidou_senshi_crossbone_gundam_koutetsu_no_shichinin/vol1_chapter_5_what_awaits_the_search_on_the_blue_planet/31.jpg",
    "https://img-proxy.imgfo.com/?referer=https://manganelo.com&url=https://s41.mkklcdnv6temp.com/mangakakalot/k1/kidou_senshi_crossbone_gundam_koutetsu_no_shichinin/vol1_chapter_5_what_awaits_the_search_on_the_blue_planet/32.jpg",
    "https://img-proxy.imgfo.com/?referer=https://manganelo.com&url=https://s41.mkklcdnv6temp.com/mangakakalot/k1/kidou_senshi_crossbone_gundam_koutetsu_no_shichinin/vol1_chapter_5_what_awaits_the_search_on_the_blue_planet/33.jpg"
  ]
}