{
  "cover": "https://avt.mkklcdnv6.com/13/q/5-1583472379.jpg",
  "title": "Mar Omega",
  "original": "MÄRΩ ; Märchen Awakens Romance Omega ; MAR Ω 欧米伽 ; MÄR Omega ; MAR Ω（オメガ） ; MARΩ ; Marchen Awakens Romance Omega",
  "genre": "Action, Comedy, Fantasy, Shounen, Manga",
  "author": "Hoshino Koichiro",
  "status": "Completed",
  "backlink": "https://manganu.com/collections/hoshino-koichiro/mar-omega/",
  "description": "Young Kai has been passionately idolizing Ginta ever since his heroic battle in the War Games of six years ago. Since then, ARMs have become a common thing, Guardians especially! Kai himself doesn't have one though, and dreams big of being able to get an ARM like Ginta's! When his caretaker, the old ARM-smith that took him in after his parents' deaths, sends him out on an errand, he is attacked by a bandit from \"chess\"! In his escape attempt, he finds more than he bargained for when he comes across Babbo! But, now with Babbo's awakening, the fake ARMs are going out of control! Is it Kai's turn to save MARHeaven following in his hero's footsteps?",
  "language": "English",
  "images": [
    "https://img-proxy.imgfo.com/?referer=https://manganelo.com&url=https://s41.mkklcdnv6temp.com/mangakakalot/m1/mar_omega/vol4_chapter_30_the_scoop_of_earth/1.jpg",
    "https://img-proxy.imgfo.com/?referer=https://manganelo.com&url=https://s41.mkklcdnv6temp.com/mangakakalot/m1/mar_omega/vol4_chapter_30_the_scoop_of_earth/2.jpg",
    "https://img-proxy.imgfo.com/?referer=https://manganelo.com&url=https://s41.mkklcdnv6temp.com/mangakakalot/m1/mar_omega/vol4_chapter_30_the_scoop_of_earth/3.jpg",
    "https://img-proxy.imgfo.com/?referer=https://manganelo.com&url=https://s41.mkklcdnv6temp.com/mangakakalot/m1/mar_omega/vol4_chapter_30_the_scoop_of_earth/4.jpg",
    "https://img-proxy.imgfo.com/?referer=https://manganelo.com&url=https://s41.mkklcdnv6temp.com/mangakakalot/m1/mar_omega/vol4_chapter_30_the_scoop_of_earth/5.jpg",
    "https://img-proxy.imgfo.com/?referer=https://manganelo.com&url=https://s41.mkklcdnv6temp.com/mangakakalot/m1/mar_omega/vol4_chapter_30_the_scoop_of_earth/6.jpg",
    "https://img-proxy.imgfo.com/?referer=https://manganelo.com&url=https://s41.mkklcdnv6temp.com/mangakakalot/m1/mar_omega/vol4_chapter_30_the_scoop_of_earth/7.jpg",
    "https://img-proxy.imgfo.com/?referer=https://manganelo.com&url=https://s41.mkklcdnv6temp.com/mangakakalot/m1/mar_omega/vol4_chapter_30_the_scoop_of_earth/8.jpg",
    "https://img-proxy.imgfo.com/?referer=https://manganelo.com&url=https://s41.mkklcdnv6temp.com/mangakakalot/m1/mar_omega/vol4_chapter_30_the_scoop_of_earth/9.jpg",
    "https://img-proxy.imgfo.com/?referer=https://manganelo.com&url=https://s41.mkklcdnv6temp.com/mangakakalot/m1/mar_omega/vol4_chapter_30_the_scoop_of_earth/10.jpg",
    "https://img-proxy.imgfo.com/?referer=https://manganelo.com&url=https://s41.mkklcdnv6temp.com/mangakakalot/m1/mar_omega/vol4_chapter_30_the_scoop_of_earth/11.jpg",
    "https://img-proxy.imgfo.com/?referer=https://manganelo.com&url=https://s41.mkklcdnv6temp.com/mangakakalot/m1/mar_omega/vol4_chapter_30_the_scoop_of_earth/12.jpg",
    "https://img-proxy.imgfo.com/?referer=https://manganelo.com&url=https://s41.mkklcdnv6temp.com/mangakakalot/m1/mar_omega/vol4_chapter_30_the_scoop_of_earth/13.jpg",
    "https://img-proxy.imgfo.com/?referer=https://manganelo.com&url=https://s41.mkklcdnv6temp.com/mangakakalot/m1/mar_omega/vol4_chapter_30_the_scoop_of_earth/14.jpg",
    "https://img-proxy.imgfo.com/?referer=https://manganelo.com&url=https://s41.mkklcdnv6temp.com/mangakakalot/m1/mar_omega/vol4_chapter_30_the_scoop_of_earth/15.jpg",
    "https://img-proxy.imgfo.com/?referer=https://manganelo.com&url=https://s41.mkklcdnv6temp.com/mangakakalot/m1/mar_omega/vol4_chapter_30_the_scoop_of_earth/16.jpg",
    "https://img-proxy.imgfo.com/?referer=https://manganelo.com&url=https://s41.mkklcdnv6temp.com/mangakakalot/m1/mar_omega/vol4_chapter_30_the_scoop_of_earth/17.jpg",
    "https://img-proxy.imgfo.com/?referer=https://manganelo.com&url=https://s41.mkklcdnv6temp.com/mangakakalot/m1/mar_omega/vol4_chapter_30_the_scoop_of_earth/18.jpg",
    "https://img-proxy.imgfo.com/?referer=https://manganelo.com&url=https://s41.mkklcdnv6temp.com/mangakakalot/m1/mar_omega/vol4_chapter_30_the_scoop_of_earth/19.jpg",
    "https://img-proxy.imgfo.com/?referer=https://manganelo.com&url=https://s41.mkklcdnv6temp.com/mangakakalot/m1/mar_omega/vol4_chapter_30_the_scoop_of_earth/20.jpg"
  ]
}