{
  "cover": "http://ww1.heaventoon.com/content/upload/images/1286-doraemon.jpg",
  "title": "Doraemon",
  "genre": "Adventure, Comedy, Doraemon, Fantasy, Manga, School Life, Slice of life",
  "author": "Fujiko F. Fujio",
  "status": "Ongoing",
  "backlink": "https://manganu.com/collections/fujiko-f-fujio/doraemon/",
  "description": "From Aku Tenshi: Doraemon, a cat shaped robot which came from the 22nd century in the future, goes back in time in order to help Nobita, a below average lazy kid, to make his life less miserable and improve his descendents life. With many of Doreamons gadgets from the future, Nobitas life will never be as the same. Its the start of many interesting adventures after between the group of friends: Nobita Nobi, Doraemon, Shizuka Minamoto, Suneo Honekawa, and Takeshi \"Giant\" Goda. This title is a classic manga/anime that dates back to 1973/08 and is still a childs favorite even today. Doraemon was awarded the first Shogakukan Manga Award for childrens manga in 1982, and the first Osamu Tezuka Culture Award in 1997.",
  "language": "English",
  "images": [
    "https://img-proxy.imgfo.com/?referer=https://manganelo.com&url=https://s8.mkklcdnv6temp.com/mangakakalot/d2/doraemon/vol4_chapter_70/1.jpg",
    "https://img-proxy.imgfo.com/?referer=https://manganelo.com&url=https://s8.mkklcdnv6temp.com/mangakakalot/d2/doraemon/vol4_chapter_70/2.jpg",
    "https://img-proxy.imgfo.com/?referer=https://manganelo.com&url=https://s8.mkklcdnv6temp.com/mangakakalot/d2/doraemon/vol4_chapter_70/3.jpg",
    "https://img-proxy.imgfo.com/?referer=https://manganelo.com&url=https://s8.mkklcdnv6temp.com/mangakakalot/d2/doraemon/vol4_chapter_70/4.jpg",
    "https://img-proxy.imgfo.com/?referer=https://manganelo.com&url=https://s8.mkklcdnv6temp.com/mangakakalot/d2/doraemon/vol4_chapter_70/5.jpg",
    "https://img-proxy.imgfo.com/?referer=https://manganelo.com&url=https://s8.mkklcdnv6temp.com/mangakakalot/d2/doraemon/vol4_chapter_70/6.jpg",
    "https://img-proxy.imgfo.com/?referer=https://manganelo.com&url=https://s8.mkklcdnv6temp.com/mangakakalot/d2/doraemon/vol4_chapter_70/7.jpg",
    "https://img-proxy.imgfo.com/?referer=https://manganelo.com&url=https://s8.mkklcdnv6temp.com/mangakakalot/d2/doraemon/vol4_chapter_70/8.jpg",
    "https://img-proxy.imgfo.com/?referer=https://manganelo.com&url=https://s8.mkklcdnv6temp.com/mangakakalot/d2/doraemon/vol4_chapter_70/9.jpg",
    "https://img-proxy.imgfo.com/?referer=https://manganelo.com&url=https://s8.mkklcdnv6temp.com/mangakakalot/d2/doraemon/vol4_chapter_70/10.jpg",
    "https://img-proxy.imgfo.com/?referer=https://manganelo.com&url=https://s8.mkklcdnv6temp.com/mangakakalot/d2/doraemon/vol4_chapter_70/11.jpg",
    "https://img-proxy.imgfo.com/?referer=https://manganelo.com&url=https://s8.mkklcdnv6temp.com/mangakakalot/d2/doraemon/vol4_chapter_70/12.jpg",
    "https://img-proxy.imgfo.com/?referer=https://manganelo.com&url=https://s8.mkklcdnv6temp.com/mangakakalot/d2/doraemon/vol4_chapter_70/13.jpg",
    "https://img-proxy.imgfo.com/?referer=https://manganelo.com&url=https://s8.mkklcdnv6temp.com/mangakakalot/d2/doraemon/vol4_chapter_70/14.jpg",
    "https://img-proxy.imgfo.com/?referer=https://manganelo.com&url=https://s8.mkklcdnv6temp.com/mangakakalot/d2/doraemon/vol4_chapter_70/15.jpg",
    "https://img-proxy.imgfo.com/?referer=https://manganelo.com&url=https://s8.mkklcdnv6temp.com/mangakakalot/d2/doraemon/vol4_chapter_70/16.jpg"
  ]
}