{
  "cover": "https://avt.mkklcdnv6.com/24/r/8-1583479113.jpg",
  "title": "Idol-Sama No Yoru No Okao",
  "original": "アイドル様の夜のお顔 ; 偶像男友的假面 ; Idol-sama's Face in the Night!",
  "genre": "Romance, School life, Shoujo, Smut, Manga",
  "author": "Kurumatani Haruko",
  "status": "Completed",
  "backlink": "https://manganu.com/collections/kurumatani-haruko/idol-sama-no-yoru-no-okao/",
  "description": "From Shoujo Manga Maniac:\nAya is totally in love with Zero, the sexiest idol in all Japan, and wants to have her first time with him! She tries to get close to him by going to his school! Aya meets him and confess to him, but Zero promise her to be her boyfriend at one condition: being his puppet and do whatever he asks her to do! Aya agrees to it but is he really the guy Aya expects him to be?",
  "language": "English",
  "images": [
    "https://img-proxy.imgfo.com/?referer=https://manganelo.com&url=https://s3.mkklcdnv6temp.com/mangakakalot/i1/idolsama_no_yoru_no_okao/vol1_chapter_51/1.jpg",
    "https://img-proxy.imgfo.com/?referer=https://manganelo.com&url=https://s3.mkklcdnv6temp.com/mangakakalot/i1/idolsama_no_yoru_no_okao/vol1_chapter_51/2.jpg",
    "https://img-proxy.imgfo.com/?referer=https://manganelo.com&url=https://s3.mkklcdnv6temp.com/mangakakalot/i1/idolsama_no_yoru_no_okao/vol1_chapter_51/3.jpg",
    "https://img-proxy.imgfo.com/?referer=https://manganelo.com&url=https://s3.mkklcdnv6temp.com/mangakakalot/i1/idolsama_no_yoru_no_okao/vol1_chapter_51/4.jpg",
    "https://img-proxy.imgfo.com/?referer=https://manganelo.com&url=https://s3.mkklcdnv6temp.com/mangakakalot/i1/idolsama_no_yoru_no_okao/vol1_chapter_51/5.jpg",
    "https://img-proxy.imgfo.com/?referer=https://manganelo.com&url=https://s3.mkklcdnv6temp.com/mangakakalot/i1/idolsama_no_yoru_no_okao/vol1_chapter_51/6.jpg",
    "https://img-proxy.imgfo.com/?referer=https://manganelo.com&url=https://s3.mkklcdnv6temp.com/mangakakalot/i1/idolsama_no_yoru_no_okao/vol1_chapter_51/7.jpg",
    "https://img-proxy.imgfo.com/?referer=https://manganelo.com&url=https://s3.mkklcdnv6temp.com/mangakakalot/i1/idolsama_no_yoru_no_okao/vol1_chapter_51/8.jpg",
    "https://img-proxy.imgfo.com/?referer=https://manganelo.com&url=https://s3.mkklcdnv6temp.com/mangakakalot/i1/idolsama_no_yoru_no_okao/vol1_chapter_51/9.jpg",
    "https://img-proxy.imgfo.com/?referer=https://manganelo.com&url=https://s3.mkklcdnv6temp.com/mangakakalot/i1/idolsama_no_yoru_no_okao/vol1_chapter_51/10.jpg",
    "https://img-proxy.imgfo.com/?referer=https://manganelo.com&url=https://s3.mkklcdnv6temp.com/mangakakalot/i1/idolsama_no_yoru_no_okao/vol1_chapter_51/11.jpg",
    "https://img-proxy.imgfo.com/?referer=https://manganelo.com&url=https://s3.mkklcdnv6temp.com/mangakakalot/i1/idolsama_no_yoru_no_okao/vol1_chapter_51/12.jpg",
    "https://img-proxy.imgfo.com/?referer=https://manganelo.com&url=https://s3.mkklcdnv6temp.com/mangakakalot/i1/idolsama_no_yoru_no_okao/vol1_chapter_51/13.jpg",
    "https://img-proxy.imgfo.com/?referer=https://manganelo.com&url=https://s3.mkklcdnv6temp.com/mangakakalot/i1/idolsama_no_yoru_no_okao/vol1_chapter_51/14.jpg",
    "https://img-proxy.imgfo.com/?referer=https://manganelo.com&url=https://s3.mkklcdnv6temp.com/mangakakalot/i1/idolsama_no_yoru_no_okao/vol1_chapter_51/15.jpg",
    "https://img-proxy.imgfo.com/?referer=https://manganelo.com&url=https://s3.mkklcdnv6temp.com/mangakakalot/i1/idolsama_no_yoru_no_okao/vol1_chapter_51/16.jpg",
    "https://img-proxy.imgfo.com/?referer=https://manganelo.com&url=https://s3.mkklcdnv6temp.com/mangakakalot/i1/idolsama_no_yoru_no_okao/vol1_chapter_51/17.jpg",
    "https://img-proxy.imgfo.com/?referer=https://manganelo.com&url=https://s3.mkklcdnv6temp.com/mangakakalot/i1/idolsama_no_yoru_no_okao/vol1_chapter_51/18.jpg",
    "https://img-proxy.imgfo.com/?referer=https://manganelo.com&url=https://s3.mkklcdnv6temp.com/mangakakalot/i1/idolsama_no_yoru_no_okao/vol1_chapter_51/19.jpg",
    "https://img-proxy.imgfo.com/?referer=https://manganelo.com&url=https://s3.mkklcdnv6temp.com/mangakakalot/i1/idolsama_no_yoru_no_okao/vol1_chapter_51/20.jpg",
    "https://img-proxy.imgfo.com/?referer=https://manganelo.com&url=https://s3.mkklcdnv6temp.com/mangakakalot/i1/idolsama_no_yoru_no_okao/vol1_chapter_51/21.jpg",
    "https://img-proxy.imgfo.com/?referer=https://manganelo.com&url=https://s3.mkklcdnv6temp.com/mangakakalot/i1/idolsama_no_yoru_no_okao/vol1_chapter_51/22.jpg",
    "https://img-proxy.imgfo.com/?referer=https://manganelo.com&url=https://s3.mkklcdnv6temp.com/mangakakalot/i1/idolsama_no_yoru_no_okao/vol1_chapter_51/23.jpg",
    "https://img-proxy.imgfo.com/?referer=https://manganelo.com&url=https://s3.mkklcdnv6temp.com/mangakakalot/i1/idolsama_no_yoru_no_okao/vol1_chapter_51/24.jpg",
    "https://img-proxy.imgfo.com/?referer=https://manganelo.com&url=https://s3.mkklcdnv6temp.com/mangakakalot/i1/idolsama_no_yoru_no_okao/vol1_chapter_51/25.jpg",
    "https://img-proxy.imgfo.com/?referer=https://manganelo.com&url=https://s3.mkklcdnv6temp.com/mangakakalot/i1/idolsama_no_yoru_no_okao/vol1_chapter_51/26.jpg",
    "https://img-proxy.imgfo.com/?referer=https://manganelo.com&url=https://s3.mkklcdnv6temp.com/mangakakalot/i1/idolsama_no_yoru_no_okao/vol1_chapter_51/27.jpg",
    "https://img-proxy.imgfo.com/?referer=https://manganelo.com&url=https://s3.mkklcdnv6temp.com/mangakakalot/i1/idolsama_no_yoru_no_okao/vol1_chapter_51/28.jpg",
    "https://img-proxy.imgfo.com/?referer=https://manganelo.com&url=https://s3.mkklcdnv6temp.com/mangakakalot/i1/idolsama_no_yoru_no_okao/vol1_chapter_51/29.jpg",
    "https://img-proxy.imgfo.com/?referer=https://manganelo.com&url=https://s3.mkklcdnv6temp.com/mangakakalot/i1/idolsama_no_yoru_no_okao/vol1_chapter_51/30.jpg",
    "https://img-proxy.imgfo.com/?referer=https://manganelo.com&url=https://s3.mkklcdnv6temp.com/mangakakalot/i1/idolsama_no_yoru_no_okao/vol1_chapter_51/31.jpg",
    "https://img-proxy.imgfo.com/?referer=https://manganelo.com&url=https://s3.mkklcdnv6temp.com/mangakakalot/i1/idolsama_no_yoru_no_okao/vol1_chapter_51/32.jpg",
    "https://img-proxy.imgfo.com/?referer=https://manganelo.com&url=https://s3.mkklcdnv6temp.com/mangakakalot/i1/idolsama_no_yoru_no_okao/vol1_chapter_51/33.jpg",
    "https://img-proxy.imgfo.com/?referer=https://manganelo.com&url=https://s3.mkklcdnv6temp.com/mangakakalot/i1/idolsama_no_yoru_no_okao/vol1_chapter_51/34.jpg",
    "https://img-proxy.imgfo.com/?referer=https://manganelo.com&url=https://s3.mkklcdnv6temp.com/mangakakalot/i1/idolsama_no_yoru_no_okao/vol1_chapter_51/35.jpg",
    "https://img-proxy.imgfo.com/?referer=https://manganelo.com&url=https://s3.mkklcdnv6temp.com/mangakakalot/i1/idolsama_no_yoru_no_okao/vol1_chapter_51/36.jpg"
  ]
}