{
  "cover": "https://avt.mkklcdnv6.com/13/m/14-1583490232.jpg",
  "title": "Koisuru Nante Kiitenai",
  "original": "恋するなんて聞いてない (Japanese)",
  "genre": "Comedy, Drama, Josei, Romance, Slice of life, Manga",
  "author": "Muro Tata",
  "status": "Completed",
  "backlink": "https://manganu.com/collections/muro-tata/koisuru-nante-kiitenai/",
  "description": "Kanna is an office lady who is at a critical point in her career. For some reason, she is assigned to receive training from the dull and plain Haruki...?",
  "language": "English",
  "images": [
    "https://img-proxy.imgfo.com/?referer=https://manganelo.com&url=https://s5.mkklcdnv6temp.com/mangakakalot/k2/koisuru_nante_kiitenai/vol1_chapter_1_hes_not_my_quottypequot/1.jpg",
    "https://img-proxy.imgfo.com/?referer=https://manganelo.com&url=https://s5.mkklcdnv6temp.com/mangakakalot/k2/koisuru_nante_kiitenai/vol1_chapter_1_hes_not_my_quottypequot/2.jpg",
    "https://img-proxy.imgfo.com/?referer=https://manganelo.com&url=https://s5.mkklcdnv6temp.com/mangakakalot/k2/koisuru_nante_kiitenai/vol1_chapter_1_hes_not_my_quottypequot/3.jpg",
    "https://img-proxy.imgfo.com/?referer=https://manganelo.com&url=https://s5.mkklcdnv6temp.com/mangakakalot/k2/koisuru_nante_kiitenai/vol1_chapter_1_hes_not_my_quottypequot/4.jpg",
    "https://img-proxy.imgfo.com/?referer=https://manganelo.com&url=https://s5.mkklcdnv6temp.com/mangakakalot/k2/koisuru_nante_kiitenai/vol1_chapter_1_hes_not_my_quottypequot/5.jpg",
    "https://img-proxy.imgfo.com/?referer=https://manganelo.com&url=https://s5.mkklcdnv6temp.com/mangakakalot/k2/koisuru_nante_kiitenai/vol1_chapter_1_hes_not_my_quottypequot/6.jpg",
    "https://img-proxy.imgfo.com/?referer=https://manganelo.com&url=https://s5.mkklcdnv6temp.com/mangakakalot/k2/koisuru_nante_kiitenai/vol1_chapter_1_hes_not_my_quottypequot/7.jpg",
    "https://img-proxy.imgfo.com/?referer=https://manganelo.com&url=https://s5.mkklcdnv6temp.com/mangakakalot/k2/koisuru_nante_kiitenai/vol1_chapter_1_hes_not_my_quottypequot/8.jpg",
    "https://img-proxy.imgfo.com/?referer=https://manganelo.com&url=https://s5.mkklcdnv6temp.com/mangakakalot/k2/koisuru_nante_kiitenai/vol1_chapter_1_hes_not_my_quottypequot/9.jpg",
    "https://img-proxy.imgfo.com/?referer=https://manganelo.com&url=https://s5.mkklcdnv6temp.com/mangakakalot/k2/koisuru_nante_kiitenai/vol1_chapter_1_hes_not_my_quottypequot/10.jpg",
    "https://img-proxy.imgfo.com/?referer=https://manganelo.com&url=https://s5.mkklcdnv6temp.com/mangakakalot/k2/koisuru_nante_kiitenai/vol1_chapter_1_hes_not_my_quottypequot/11.jpg",
    "https://img-proxy.imgfo.com/?referer=https://manganelo.com&url=https://s5.mkklcdnv6temp.com/mangakakalot/k2/koisuru_nante_kiitenai/vol1_chapter_1_hes_not_my_quottypequot/12.jpg",
    "https://img-proxy.imgfo.com/?referer=https://manganelo.com&url=https://s5.mkklcdnv6temp.com/mangakakalot/k2/koisuru_nante_kiitenai/vol1_chapter_1_hes_not_my_quottypequot/13.jpg",
    "https://img-proxy.imgfo.com/?referer=https://manganelo.com&url=https://s5.mkklcdnv6temp.com/mangakakalot/k2/koisuru_nante_kiitenai/vol1_chapter_1_hes_not_my_quottypequot/14.jpg",
    "https://img-proxy.imgfo.com/?referer=https://manganelo.com&url=https://s5.mkklcdnv6temp.com/mangakakalot/k2/koisuru_nante_kiitenai/vol1_chapter_1_hes_not_my_quottypequot/15.jpg",
    "https://img-proxy.imgfo.com/?referer=https://manganelo.com&url=https://s5.mkklcdnv6temp.com/mangakakalot/k2/koisuru_nante_kiitenai/vol1_chapter_1_hes_not_my_quottypequot/16.jpg",
    "https://img-proxy.imgfo.com/?referer=https://manganelo.com&url=https://s5.mkklcdnv6temp.com/mangakakalot/k2/koisuru_nante_kiitenai/vol1_chapter_1_hes_not_my_quottypequot/17.jpg",
    "https://img-proxy.imgfo.com/?referer=https://manganelo.com&url=https://s5.mkklcdnv6temp.com/mangakakalot/k2/koisuru_nante_kiitenai/vol1_chapter_1_hes_not_my_quottypequot/18.jpg",
    "https://img-proxy.imgfo.com/?referer=https://manganelo.com&url=https://s5.mkklcdnv6temp.com/mangakakalot/k2/koisuru_nante_kiitenai/vol1_chapter_1_hes_not_my_quottypequot/19.jpg",
    "https://img-proxy.imgfo.com/?referer=https://manganelo.com&url=https://s5.mkklcdnv6temp.com/mangakakalot/k2/koisuru_nante_kiitenai/vol1_chapter_1_hes_not_my_quottypequot/20.jpg",
    "https://img-proxy.imgfo.com/?referer=https://manganelo.com&url=https://s5.mkklcdnv6temp.com/mangakakalot/k2/koisuru_nante_kiitenai/vol1_chapter_1_hes_not_my_quottypequot/21.jpg",
    "https://img-proxy.imgfo.com/?referer=https://manganelo.com&url=https://s5.mkklcdnv6temp.com/mangakakalot/k2/koisuru_nante_kiitenai/vol1_chapter_1_hes_not_my_quottypequot/22.jpg",
    "https://img-proxy.imgfo.com/?referer=https://manganelo.com&url=https://s5.mkklcdnv6temp.com/mangakakalot/k2/koisuru_nante_kiitenai/vol1_chapter_1_hes_not_my_quottypequot/23.jpg",
    "https://img-proxy.imgfo.com/?referer=https://manganelo.com&url=https://s5.mkklcdnv6temp.com/mangakakalot/k2/koisuru_nante_kiitenai/vol1_chapter_1_hes_not_my_quottypequot/24.jpg",
    "https://img-proxy.imgfo.com/?referer=https://manganelo.com&url=https://s5.mkklcdnv6temp.com/mangakakalot/k2/koisuru_nante_kiitenai/vol1_chapter_1_hes_not_my_quottypequot/25.jpg",
    "https://img-proxy.imgfo.com/?referer=https://manganelo.com&url=https://s5.mkklcdnv6temp.com/mangakakalot/k2/koisuru_nante_kiitenai/vol1_chapter_1_hes_not_my_quottypequot/26.jpg",
    "https://img-proxy.imgfo.com/?referer=https://manganelo.com&url=https://s5.mkklcdnv6temp.com/mangakakalot/k2/koisuru_nante_kiitenai/vol1_chapter_1_hes_not_my_quottypequot/27.jpg",
    "https://img-proxy.imgfo.com/?referer=https://manganelo.com&url=https://s5.mkklcdnv6temp.com/mangakakalot/k2/koisuru_nante_kiitenai/vol1_chapter_1_hes_not_my_quottypequot/28.jpg",
    "https://img-proxy.imgfo.com/?referer=https://manganelo.com&url=https://s5.mkklcdnv6temp.com/mangakakalot/k2/koisuru_nante_kiitenai/vol1_chapter_1_hes_not_my_quottypequot/29.jpg",
    "https://img-proxy.imgfo.com/?referer=https://manganelo.com&url=https://s5.mkklcdnv6temp.com/mangakakalot/k2/koisuru_nante_kiitenai/vol1_chapter_1_hes_not_my_quottypequot/30.jpg",
    "https://img-proxy.imgfo.com/?referer=https://manganelo.com&url=https://s5.mkklcdnv6temp.com/mangakakalot/k2/koisuru_nante_kiitenai/vol1_chapter_1_hes_not_my_quottypequot/31.jpg",
    "https://img-proxy.imgfo.com/?referer=https://manganelo.com&url=https://s5.mkklcdnv6temp.com/mangakakalot/k2/koisuru_nante_kiitenai/vol1_chapter_1_hes_not_my_quottypequot/32.jpg",
    "https://img-proxy.imgfo.com/?referer=https://manganelo.com&url=https://s5.mkklcdnv6temp.com/mangakakalot/k2/koisuru_nante_kiitenai/vol1_chapter_1_hes_not_my_quottypequot/33.jpg",
    "https://img-proxy.imgfo.com/?referer=https://manganelo.com&url=https://s5.mkklcdnv6temp.com/mangakakalot/k2/koisuru_nante_kiitenai/vol1_chapter_1_hes_not_my_quottypequot/34.jpg",
    "https://img-proxy.imgfo.com/?referer=https://manganelo.com&url=https://s5.mkklcdnv6temp.com/mangakakalot/k2/koisuru_nante_kiitenai/vol1_chapter_1_hes_not_my_quottypequot/35.jpg",
    "https://img-proxy.imgfo.com/?referer=https://manganelo.com&url=https://s5.mkklcdnv6temp.com/mangakakalot/k2/koisuru_nante_kiitenai/vol1_chapter_1_hes_not_my_quottypequot/36.jpg",
    "https://img-proxy.imgfo.com/?referer=https://manganelo.com&url=https://s5.mkklcdnv6temp.com/mangakakalot/k2/koisuru_nante_kiitenai/vol1_chapter_1_hes_not_my_quottypequot/37.jpg",
    "https://img-proxy.imgfo.com/?referer=https://manganelo.com&url=https://s5.mkklcdnv6temp.com/mangakakalot/k2/koisuru_nante_kiitenai/vol1_chapter_1_hes_not_my_quottypequot/38.jpg",
    "https://img-proxy.imgfo.com/?referer=https://manganelo.com&url=https://s5.mkklcdnv6temp.com/mangakakalot/k2/koisuru_nante_kiitenai/vol1_chapter_1_hes_not_my_quottypequot/39.jpg"
  ]
}