{
  "cover": "https://avt.mkklcdnv6.com/49/r/4-1583471780.jpg",
  "title": "Hapi Mari",
  "original": "はぴまり ～Happy Marriage!?～ ; زواج سعيد (Arabic) ; 快乐婚礼 ; วิวาห์อลวน คนอลเวง ; Happy Marriage ; Happy Marriage!?",
  "genre": "Action, Adult, Comedy, Cooking, Drama, Josei, Romance, Smut, Manga",
  "author": "Enjouji Maki",
  "status": "Completed",
  "backlink": "https://manganu.com/collections/enjouji-maki/hapi-mari/",
  "description": "From Aerandria Scans: Men - they&#39;re the root of Takanashi Chiwa&#39;s problems, which is why she never had the time nor the opportunity to have a boyfriend in her entire life. A full-time office lady and a part-time hostess, she works night and day to pay off her dad&#39;s debt from his failed business. One night at her part-time job, a high-class customer has her fired. Then the next day, she&#39;s called in to see the president - whom she had never even seen before in the office - only to find out she&#39;s to marry him! But what kind of guy is Mamiya Hokuto anyway? Will he become one of Chiwa&#39;s problems, or will he save her from them? And will this marriage even last?!",
  "language": "English",
  "images": [
    "https://img-proxy.imgfo.com/?referer=https://manganelo.com&url=https://s41.mkklcdnv6temp.com/mangakakalot/h1/hapi_mari/vol6_chapter_245_sm_holic_the_sm_holic_came_home_n/1.jpg",
    "https://img-proxy.imgfo.com/?referer=https://manganelo.com&url=https://s41.mkklcdnv6temp.com/mangakakalot/h1/hapi_mari/vol6_chapter_245_sm_holic_the_sm_holic_came_home_n/2.jpg",
    "https://img-proxy.imgfo.com/?referer=https://manganelo.com&url=https://s41.mkklcdnv6temp.com/mangakakalot/h1/hapi_mari/vol6_chapter_245_sm_holic_the_sm_holic_came_home_n/3.jpg",
    "https://img-proxy.imgfo.com/?referer=https://manganelo.com&url=https://s41.mkklcdnv6temp.com/mangakakalot/h1/hapi_mari/vol6_chapter_245_sm_holic_the_sm_holic_came_home_n/4.jpg",
    "https://img-proxy.imgfo.com/?referer=https://manganelo.com&url=https://s41.mkklcdnv6temp.com/mangakakalot/h1/hapi_mari/vol6_chapter_245_sm_holic_the_sm_holic_came_home_n/5.jpg",
    "https://img-proxy.imgfo.com/?referer=https://manganelo.com&url=https://s41.mkklcdnv6temp.com/mangakakalot/h1/hapi_mari/vol6_chapter_245_sm_holic_the_sm_holic_came_home_n/6.jpg",
    "https://img-proxy.imgfo.com/?referer=https://manganelo.com&url=https://s41.mkklcdnv6temp.com/mangakakalot/h1/hapi_mari/vol6_chapter_245_sm_holic_the_sm_holic_came_home_n/7.jpg"
  ]
}