{
  "cover": "https://avt.mkklcdnv6.com/49/r/4-1583471780.jpg",
  "title": "Hapi Mari",
  "original": "はぴまり ～Happy Marriage!?～ ; زواج سعيد (Arabic) ; 快乐婚礼 ; วิวาห์อลวน คนอลเวง ; Happy Marriage ; Happy Marriage!?",
  "genre": "Action, Adult, Comedy, Cooking, Drama, Josei, Romance, Smut, Manga",
  "author": "Enjouji Maki",
  "status": "Completed",
  "backlink": "https://manganu.com/collections/enjouji-maki/hapi-mari/",
  "description": "From Aerandria Scans: Men - they&#39;re the root of Takanashi Chiwa&#39;s problems, which is why she never had the time nor the opportunity to have a boyfriend in her entire life. A full-time office lady and a part-time hostess, she works night and day to pay off her dad&#39;s debt from his failed business. One night at her part-time job, a high-class customer has her fired. Then the next day, she&#39;s called in to see the president - whom she had never even seen before in the office - only to find out she&#39;s to marry him! But what kind of guy is Mamiya Hokuto anyway? Will he become one of Chiwa&#39;s problems, or will he save her from them? And will this marriage even last?!",
  "language": "English",
  "images": [
    "https://img-proxy.imgfo.com/?referer=https://manganelo.com&url=https://s41.mkklcdnv6temp.com/mangakakalot/h1/hapi_mari/vol3_chapter_12_can_i_snuggle_up_to_you/1.jpg",
    "https://img-proxy.imgfo.com/?referer=https://manganelo.com&url=https://s41.mkklcdnv6temp.com/mangakakalot/h1/hapi_mari/vol3_chapter_12_can_i_snuggle_up_to_you/2.jpg",
    "https://img-proxy.imgfo.com/?referer=https://manganelo.com&url=https://s41.mkklcdnv6temp.com/mangakakalot/h1/hapi_mari/vol3_chapter_12_can_i_snuggle_up_to_you/3.jpg",
    "https://img-proxy.imgfo.com/?referer=https://manganelo.com&url=https://s41.mkklcdnv6temp.com/mangakakalot/h1/hapi_mari/vol3_chapter_12_can_i_snuggle_up_to_you/4.jpg",
    "https://img-proxy.imgfo.com/?referer=https://manganelo.com&url=https://s41.mkklcdnv6temp.com/mangakakalot/h1/hapi_mari/vol3_chapter_12_can_i_snuggle_up_to_you/5.jpg",
    "https://img-proxy.imgfo.com/?referer=https://manganelo.com&url=https://s41.mkklcdnv6temp.com/mangakakalot/h1/hapi_mari/vol3_chapter_12_can_i_snuggle_up_to_you/6.jpg",
    "https://img-proxy.imgfo.com/?referer=https://manganelo.com&url=https://s41.mkklcdnv6temp.com/mangakakalot/h1/hapi_mari/vol3_chapter_12_can_i_snuggle_up_to_you/7.jpg",
    "https://img-proxy.imgfo.com/?referer=https://manganelo.com&url=https://s41.mkklcdnv6temp.com/mangakakalot/h1/hapi_mari/vol3_chapter_12_can_i_snuggle_up_to_you/8.jpg",
    "https://img-proxy.imgfo.com/?referer=https://manganelo.com&url=https://s41.mkklcdnv6temp.com/mangakakalot/h1/hapi_mari/vol3_chapter_12_can_i_snuggle_up_to_you/9.jpg",
    "https://img-proxy.imgfo.com/?referer=https://manganelo.com&url=https://s41.mkklcdnv6temp.com/mangakakalot/h1/hapi_mari/vol3_chapter_12_can_i_snuggle_up_to_you/10.jpg",
    "https://img-proxy.imgfo.com/?referer=https://manganelo.com&url=https://s41.mkklcdnv6temp.com/mangakakalot/h1/hapi_mari/vol3_chapter_12_can_i_snuggle_up_to_you/11.jpg",
    "https://img-proxy.imgfo.com/?referer=https://manganelo.com&url=https://s41.mkklcdnv6temp.com/mangakakalot/h1/hapi_mari/vol3_chapter_12_can_i_snuggle_up_to_you/12.jpg",
    "https://img-proxy.imgfo.com/?referer=https://manganelo.com&url=https://s41.mkklcdnv6temp.com/mangakakalot/h1/hapi_mari/vol3_chapter_12_can_i_snuggle_up_to_you/13.jpg",
    "https://img-proxy.imgfo.com/?referer=https://manganelo.com&url=https://s41.mkklcdnv6temp.com/mangakakalot/h1/hapi_mari/vol3_chapter_12_can_i_snuggle_up_to_you/14.jpg",
    "https://img-proxy.imgfo.com/?referer=https://manganelo.com&url=https://s41.mkklcdnv6temp.com/mangakakalot/h1/hapi_mari/vol3_chapter_12_can_i_snuggle_up_to_you/15.jpg",
    "https://img-proxy.imgfo.com/?referer=https://manganelo.com&url=https://s41.mkklcdnv6temp.com/mangakakalot/h1/hapi_mari/vol3_chapter_12_can_i_snuggle_up_to_you/16.jpg",
    "https://img-proxy.imgfo.com/?referer=https://manganelo.com&url=https://s41.mkklcdnv6temp.com/mangakakalot/h1/hapi_mari/vol3_chapter_12_can_i_snuggle_up_to_you/17.jpg",
    "https://img-proxy.imgfo.com/?referer=https://manganelo.com&url=https://s41.mkklcdnv6temp.com/mangakakalot/h1/hapi_mari/vol3_chapter_12_can_i_snuggle_up_to_you/18.jpg",
    "https://img-proxy.imgfo.com/?referer=https://manganelo.com&url=https://s41.mkklcdnv6temp.com/mangakakalot/h1/hapi_mari/vol3_chapter_12_can_i_snuggle_up_to_you/19.jpg",
    "https://img-proxy.imgfo.com/?referer=https://manganelo.com&url=https://s41.mkklcdnv6temp.com/mangakakalot/h1/hapi_mari/vol3_chapter_12_can_i_snuggle_up_to_you/20.jpg",
    "https://img-proxy.imgfo.com/?referer=https://manganelo.com&url=https://s41.mkklcdnv6temp.com/mangakakalot/h1/hapi_mari/vol3_chapter_12_can_i_snuggle_up_to_you/21.jpg",
    "https://img-proxy.imgfo.com/?referer=https://manganelo.com&url=https://s41.mkklcdnv6temp.com/mangakakalot/h1/hapi_mari/vol3_chapter_12_can_i_snuggle_up_to_you/22.jpg",
    "https://img-proxy.imgfo.com/?referer=https://manganelo.com&url=https://s41.mkklcdnv6temp.com/mangakakalot/h1/hapi_mari/vol3_chapter_12_can_i_snuggle_up_to_you/23.jpg",
    "https://img-proxy.imgfo.com/?referer=https://manganelo.com&url=https://s41.mkklcdnv6temp.com/mangakakalot/h1/hapi_mari/vol3_chapter_12_can_i_snuggle_up_to_you/24.jpg",
    "https://img-proxy.imgfo.com/?referer=https://manganelo.com&url=https://s41.mkklcdnv6temp.com/mangakakalot/h1/hapi_mari/vol3_chapter_12_can_i_snuggle_up_to_you/25.jpg",
    "https://img-proxy.imgfo.com/?referer=https://manganelo.com&url=https://s41.mkklcdnv6temp.com/mangakakalot/h1/hapi_mari/vol3_chapter_12_can_i_snuggle_up_to_you/26.jpg",
    "https://img-proxy.imgfo.com/?referer=https://manganelo.com&url=https://s41.mkklcdnv6temp.com/mangakakalot/h1/hapi_mari/vol3_chapter_12_can_i_snuggle_up_to_you/27.jpg",
    "https://img-proxy.imgfo.com/?referer=https://manganelo.com&url=https://s41.mkklcdnv6temp.com/mangakakalot/h1/hapi_mari/vol3_chapter_12_can_i_snuggle_up_to_you/28.jpg",
    "https://img-proxy.imgfo.com/?referer=https://manganelo.com&url=https://s41.mkklcdnv6temp.com/mangakakalot/h1/hapi_mari/vol3_chapter_12_can_i_snuggle_up_to_you/29.jpg",
    "https://img-proxy.imgfo.com/?referer=https://manganelo.com&url=https://s41.mkklcdnv6temp.com/mangakakalot/h1/hapi_mari/vol3_chapter_12_can_i_snuggle_up_to_you/30.jpg",
    "https://img-proxy.imgfo.com/?referer=https://manganelo.com&url=https://s41.mkklcdnv6temp.com/mangakakalot/h1/hapi_mari/vol3_chapter_12_can_i_snuggle_up_to_you/31.jpg",
    "https://img-proxy.imgfo.com/?referer=https://manganelo.com&url=https://s41.mkklcdnv6temp.com/mangakakalot/h1/hapi_mari/vol3_chapter_12_can_i_snuggle_up_to_you/32.jpg",
    "https://img-proxy.imgfo.com/?referer=https://manganelo.com&url=https://s41.mkklcdnv6temp.com/mangakakalot/h1/hapi_mari/vol3_chapter_12_can_i_snuggle_up_to_you/33.jpg",
    "https://img-proxy.imgfo.com/?referer=https://manganelo.com&url=https://s41.mkklcdnv6temp.com/mangakakalot/h1/hapi_mari/vol3_chapter_12_can_i_snuggle_up_to_you/34.jpg",
    "https://img-proxy.imgfo.com/?referer=https://manganelo.com&url=https://s41.mkklcdnv6temp.com/mangakakalot/h1/hapi_mari/vol3_chapter_12_can_i_snuggle_up_to_you/35.jpg",
    "https://img-proxy.imgfo.com/?referer=https://manganelo.com&url=https://s41.mkklcdnv6temp.com/mangakakalot/h1/hapi_mari/vol3_chapter_12_can_i_snuggle_up_to_you/36.jpg",
    "https://img-proxy.imgfo.com/?referer=https://manganelo.com&url=https://s41.mkklcdnv6temp.com/mangakakalot/h1/hapi_mari/vol3_chapter_12_can_i_snuggle_up_to_you/37.jpg",
    "https://img-proxy.imgfo.com/?referer=https://manganelo.com&url=https://s41.mkklcdnv6temp.com/mangakakalot/h1/hapi_mari/vol3_chapter_12_can_i_snuggle_up_to_you/38.jpg",
    "https://img-proxy.imgfo.com/?referer=https://manganelo.com&url=https://s41.mkklcdnv6temp.com/mangakakalot/h1/hapi_mari/vol3_chapter_12_can_i_snuggle_up_to_you/39.jpg",
    "https://img-proxy.imgfo.com/?referer=https://manganelo.com&url=https://s41.mkklcdnv6temp.com/mangakakalot/h1/hapi_mari/vol3_chapter_12_can_i_snuggle_up_to_you/40.jpg",
    "https://img-proxy.imgfo.com/?referer=https://manganelo.com&url=https://s41.mkklcdnv6temp.com/mangakakalot/h1/hapi_mari/vol3_chapter_12_can_i_snuggle_up_to_you/41.jpg",
    "https://img-proxy.imgfo.com/?referer=https://manganelo.com&url=https://s41.mkklcdnv6temp.com/mangakakalot/h1/hapi_mari/vol3_chapter_12_can_i_snuggle_up_to_you/42.jpg",
    "https://img-proxy.imgfo.com/?referer=https://manganelo.com&url=https://s41.mkklcdnv6temp.com/mangakakalot/h1/hapi_mari/vol3_chapter_12_can_i_snuggle_up_to_you/43.jpg",
    "https://img-proxy.imgfo.com/?referer=https://manganelo.com&url=https://s41.mkklcdnv6temp.com/mangakakalot/h1/hapi_mari/vol3_chapter_12_can_i_snuggle_up_to_you/44.jpg",
    "https://img-proxy.imgfo.com/?referer=https://manganelo.com&url=https://s41.mkklcdnv6temp.com/mangakakalot/h1/hapi_mari/vol3_chapter_12_can_i_snuggle_up_to_you/45.jpg"
  ]
}