{
  "cover": "https://avt.mkklcdnv6.com/21/h/4-1583470542.jpg",
  "title": "Trigun Maximum",
  "genre": "Action, Adventure, Comedy, Sci fi, Seinen, Manga",
  "author": "Nightow Yasuhiro",
  "status": "Completed",
  "backlink": "https://manganu.com/collections/nightow-yasuhiro/trigun-maximum/",
  "description": "Our hero Vash the Stampede disappeared for two years after blasting a crater onto the moon above the desert planet he saved from annihilation. But with good people and bad alike trying to track him down, he won't stay lost for long! Count on more crazy gunslinger action, new dastardly villains...and a new outfit, to boot!\nNightow changed publishers to Shonen Gahosha and the series continued to be serialized in Young King Ours magazine. Due to the original publisher retaining the name Trigun, Nightow had to change the title to Trigun MAXIMUM, which isn't a sequel; just a new name for the rest of the same series.",
  "language": "English",
  "images": [
    "https://img-proxy.imgfo.com/?referer=https://manganelo.com&url=https://s41.mkklcdnv6temp.com/mangakakalot/t2/trigun_maximum/vol12_chapter_75_the_gunslinger/1.jpg",
    "https://img-proxy.imgfo.com/?referer=https://manganelo.com&url=https://s41.mkklcdnv6temp.com/mangakakalot/t2/trigun_maximum/vol12_chapter_75_the_gunslinger/2.jpg",
    "https://img-proxy.imgfo.com/?referer=https://manganelo.com&url=https://s41.mkklcdnv6temp.com/mangakakalot/t2/trigun_maximum/vol12_chapter_75_the_gunslinger/3.jpg",
    "https://img-proxy.imgfo.com/?referer=https://manganelo.com&url=https://s41.mkklcdnv6temp.com/mangakakalot/t2/trigun_maximum/vol12_chapter_75_the_gunslinger/4.jpg",
    "https://img-proxy.imgfo.com/?referer=https://manganelo.com&url=https://s41.mkklcdnv6temp.com/mangakakalot/t2/trigun_maximum/vol12_chapter_75_the_gunslinger/5.jpg",
    "https://img-proxy.imgfo.com/?referer=https://manganelo.com&url=https://s41.mkklcdnv6temp.com/mangakakalot/t2/trigun_maximum/vol12_chapter_75_the_gunslinger/6.jpg",
    "https://img-proxy.imgfo.com/?referer=https://manganelo.com&url=https://s41.mkklcdnv6temp.com/mangakakalot/t2/trigun_maximum/vol12_chapter_75_the_gunslinger/7.jpg",
    "https://img-proxy.imgfo.com/?referer=https://manganelo.com&url=https://s41.mkklcdnv6temp.com/mangakakalot/t2/trigun_maximum/vol12_chapter_75_the_gunslinger/8.jpg",
    "https://img-proxy.imgfo.com/?referer=https://manganelo.com&url=https://s41.mkklcdnv6temp.com/mangakakalot/t2/trigun_maximum/vol12_chapter_75_the_gunslinger/9.jpg",
    "https://img-proxy.imgfo.com/?referer=https://manganelo.com&url=https://s41.mkklcdnv6temp.com/mangakakalot/t2/trigun_maximum/vol12_chapter_75_the_gunslinger/10.jpg",
    "https://img-proxy.imgfo.com/?referer=https://manganelo.com&url=https://s41.mkklcdnv6temp.com/mangakakalot/t2/trigun_maximum/vol12_chapter_75_the_gunslinger/11.jpg",
    "https://img-proxy.imgfo.com/?referer=https://manganelo.com&url=https://s41.mkklcdnv6temp.com/mangakakalot/t2/trigun_maximum/vol12_chapter_75_the_gunslinger/12.jpg",
    "https://img-proxy.imgfo.com/?referer=https://manganelo.com&url=https://s41.mkklcdnv6temp.com/mangakakalot/t2/trigun_maximum/vol12_chapter_75_the_gunslinger/13.jpg",
    "https://img-proxy.imgfo.com/?referer=https://manganelo.com&url=https://s41.mkklcdnv6temp.com/mangakakalot/t2/trigun_maximum/vol12_chapter_75_the_gunslinger/14.jpg",
    "https://img-proxy.imgfo.com/?referer=https://manganelo.com&url=https://s41.mkklcdnv6temp.com/mangakakalot/t2/trigun_maximum/vol12_chapter_75_the_gunslinger/15.jpg",
    "https://img-proxy.imgfo.com/?referer=https://manganelo.com&url=https://s41.mkklcdnv6temp.com/mangakakalot/t2/trigun_maximum/vol12_chapter_75_the_gunslinger/16.jpg",
    "https://img-proxy.imgfo.com/?referer=https://manganelo.com&url=https://s41.mkklcdnv6temp.com/mangakakalot/t2/trigun_maximum/vol12_chapter_75_the_gunslinger/17.jpg",
    "https://img-proxy.imgfo.com/?referer=https://manganelo.com&url=https://s41.mkklcdnv6temp.com/mangakakalot/t2/trigun_maximum/vol12_chapter_75_the_gunslinger/18.jpg",
    "https://img-proxy.imgfo.com/?referer=https://manganelo.com&url=https://s41.mkklcdnv6temp.com/mangakakalot/t2/trigun_maximum/vol12_chapter_75_the_gunslinger/19.jpg",
    "https://img-proxy.imgfo.com/?referer=https://manganelo.com&url=https://s41.mkklcdnv6temp.com/mangakakalot/t2/trigun_maximum/vol12_chapter_75_the_gunslinger/20.jpg",
    "https://img-proxy.imgfo.com/?referer=https://manganelo.com&url=https://s41.mkklcdnv6temp.com/mangakakalot/t2/trigun_maximum/vol12_chapter_75_the_gunslinger/21.jpg",
    "https://img-proxy.imgfo.com/?referer=https://manganelo.com&url=https://s41.mkklcdnv6temp.com/mangakakalot/t2/trigun_maximum/vol12_chapter_75_the_gunslinger/22.jpg",
    "https://img-proxy.imgfo.com/?referer=https://manganelo.com&url=https://s41.mkklcdnv6temp.com/mangakakalot/t2/trigun_maximum/vol12_chapter_75_the_gunslinger/23.jpg",
    "https://img-proxy.imgfo.com/?referer=https://manganelo.com&url=https://s41.mkklcdnv6temp.com/mangakakalot/t2/trigun_maximum/vol12_chapter_75_the_gunslinger/24.jpg",
    "https://img-proxy.imgfo.com/?referer=https://manganelo.com&url=https://s41.mkklcdnv6temp.com/mangakakalot/t2/trigun_maximum/vol12_chapter_75_the_gunslinger/25.jpg"
  ]
}