{
  "cover": "https://avt.mkklcdnv6.com/26/l/3-1583468717.jpg",
  "title": "Shamo",
  "original": "軍鶏 (Chinese); Gamecock (English); Coq de Combat; นักสู้สังเวียนเลือด (Thai)",
  "genre": "Action, Drama, Martial arts, Mature, Psychological, Seinen, Tragedy, Manga",
  "author": "Hashimoto Izou",
  "status": "Completed",
  "backlink": "https://manganu.com/collections/hashimoto-izou/shamo/",
  "description": "At the age of sixteen Ryo Narushima was a genius and looked to have no trouble of getting into Tokyo University and joining the elite of society. However, that summer something cracked inside Ryo&#39;s head. With a small knife he brutally murdered both of his parents only leaving his sister alive and cowering in a corner. It is at this grotesque incident that our story begins. Extra Note: At volume 20, the series changed publishers, which created a restart of the chapter numbers. Starting from chapter 61 in volume 26, the first chapter from when the series returned from a long hiatus, the series has been completely written &amp; drawn by Tanaka Akio. While Hashimoto Izou did write the series in the beginning, he had been doing less and less work starting from volume 4. Tanaka &amp; Hashimoto reached a settlement and Shamo continued.",
  "language": "English",
  "images": [
    "https://img-proxy.imgfo.com/?referer=https://manganelo.com&url=https://s3.mkklcdnv6temp.com/mangakakalot/s1/shamo/vol16_chapter_159_enemies/1.jpg",
    "https://img-proxy.imgfo.com/?referer=https://manganelo.com&url=https://s3.mkklcdnv6temp.com/mangakakalot/s1/shamo/vol16_chapter_159_enemies/2.jpg",
    "https://img-proxy.imgfo.com/?referer=https://manganelo.com&url=https://s3.mkklcdnv6temp.com/mangakakalot/s1/shamo/vol16_chapter_159_enemies/3.jpg",
    "https://img-proxy.imgfo.com/?referer=https://manganelo.com&url=https://s3.mkklcdnv6temp.com/mangakakalot/s1/shamo/vol16_chapter_159_enemies/4.jpg",
    "https://img-proxy.imgfo.com/?referer=https://manganelo.com&url=https://s3.mkklcdnv6temp.com/mangakakalot/s1/shamo/vol16_chapter_159_enemies/5.jpg",
    "https://img-proxy.imgfo.com/?referer=https://manganelo.com&url=https://s3.mkklcdnv6temp.com/mangakakalot/s1/shamo/vol16_chapter_159_enemies/6.jpg",
    "https://img-proxy.imgfo.com/?referer=https://manganelo.com&url=https://s3.mkklcdnv6temp.com/mangakakalot/s1/shamo/vol16_chapter_159_enemies/7.jpg",
    "https://img-proxy.imgfo.com/?referer=https://manganelo.com&url=https://s3.mkklcdnv6temp.com/mangakakalot/s1/shamo/vol16_chapter_159_enemies/8.jpg",
    "https://img-proxy.imgfo.com/?referer=https://manganelo.com&url=https://s3.mkklcdnv6temp.com/mangakakalot/s1/shamo/vol16_chapter_159_enemies/9.jpg",
    "https://img-proxy.imgfo.com/?referer=https://manganelo.com&url=https://s3.mkklcdnv6temp.com/mangakakalot/s1/shamo/vol16_chapter_159_enemies/10.jpg",
    "https://img-proxy.imgfo.com/?referer=https://manganelo.com&url=https://s3.mkklcdnv6temp.com/mangakakalot/s1/shamo/vol16_chapter_159_enemies/11.jpg",
    "https://img-proxy.imgfo.com/?referer=https://manganelo.com&url=https://s3.mkklcdnv6temp.com/mangakakalot/s1/shamo/vol16_chapter_159_enemies/12.jpg",
    "https://img-proxy.imgfo.com/?referer=https://manganelo.com&url=https://s3.mkklcdnv6temp.com/mangakakalot/s1/shamo/vol16_chapter_159_enemies/13.jpg",
    "https://img-proxy.imgfo.com/?referer=https://manganelo.com&url=https://s3.mkklcdnv6temp.com/mangakakalot/s1/shamo/vol16_chapter_159_enemies/14.jpg",
    "https://img-proxy.imgfo.com/?referer=https://manganelo.com&url=https://s3.mkklcdnv6temp.com/mangakakalot/s1/shamo/vol16_chapter_159_enemies/15.jpg",
    "https://img-proxy.imgfo.com/?referer=https://manganelo.com&url=https://s3.mkklcdnv6temp.com/mangakakalot/s1/shamo/vol16_chapter_159_enemies/16.jpg",
    "https://img-proxy.imgfo.com/?referer=https://manganelo.com&url=https://s3.mkklcdnv6temp.com/mangakakalot/s1/shamo/vol16_chapter_159_enemies/17.jpg",
    "https://img-proxy.imgfo.com/?referer=https://manganelo.com&url=https://s3.mkklcdnv6temp.com/mangakakalot/s1/shamo/vol16_chapter_159_enemies/18.jpg",
    "https://img-proxy.imgfo.com/?referer=https://manganelo.com&url=https://s3.mkklcdnv6temp.com/mangakakalot/s1/shamo/vol16_chapter_159_enemies/19.jpg",
    "https://img-proxy.imgfo.com/?referer=https://manganelo.com&url=https://s3.mkklcdnv6temp.com/mangakakalot/s1/shamo/vol16_chapter_159_enemies/20.jpg",
    "https://img-proxy.imgfo.com/?referer=https://manganelo.com&url=https://s3.mkklcdnv6temp.com/mangakakalot/s1/shamo/vol16_chapter_159_enemies/21.jpg"
  ]
}