{
  "cover": "https://avt.mkklcdnv6.com/47/a/4-1583471666.jpg",
  "title": "Nadeshiko Club",
  "original": "ナデシコクラブ ; 淑女训练班 ; Nadeshiko ; Nadesico Club ; Cleaning Club",
  "genre": "Comedy, Romance, School life, Shoujo, Manga",
  "author": "Sakamoto Miku",
  "status": "Completed",
  "backlink": "https://manganu.com/collections/sakamoto-miku/nadeshiko-club/",
  "description": "Reo-chan, a first year girl, gets dumped by her boyfriend because she's not skilled in the home economic traits women should possess in his mind. Her ex tells her that she must apply to a \"housework\" club before he reconsiders going out with her. Therefore Reo-chan has little choice but to join. But here's the catch: the only members are four gorgeous bishies. The other first year in the club, Irinaka, competes with her a lot. As the story progresses Reo and Irinaka get forced into a lot of interesting situations together and in the meantime become closer and closer.",
  "language": "English",
  "images": [
    "https://img-proxy.imgfo.com/?referer=https://manganelo.com&url=https://s41.mkklcdnv6temp.com/mangakakalot/n1/nadeshiko_club/vol7_chapter_33/1.jpg",
    "https://img-proxy.imgfo.com/?referer=https://manganelo.com&url=https://s41.mkklcdnv6temp.com/mangakakalot/n1/nadeshiko_club/vol7_chapter_33/2.jpg",
    "https://img-proxy.imgfo.com/?referer=https://manganelo.com&url=https://s41.mkklcdnv6temp.com/mangakakalot/n1/nadeshiko_club/vol7_chapter_33/3.jpg",
    "https://img-proxy.imgfo.com/?referer=https://manganelo.com&url=https://s41.mkklcdnv6temp.com/mangakakalot/n1/nadeshiko_club/vol7_chapter_33/4.jpg",
    "https://img-proxy.imgfo.com/?referer=https://manganelo.com&url=https://s41.mkklcdnv6temp.com/mangakakalot/n1/nadeshiko_club/vol7_chapter_33/5.jpg",
    "https://img-proxy.imgfo.com/?referer=https://manganelo.com&url=https://s41.mkklcdnv6temp.com/mangakakalot/n1/nadeshiko_club/vol7_chapter_33/6.jpg",
    "https://img-proxy.imgfo.com/?referer=https://manganelo.com&url=https://s41.mkklcdnv6temp.com/mangakakalot/n1/nadeshiko_club/vol7_chapter_33/7.jpg",
    "https://img-proxy.imgfo.com/?referer=https://manganelo.com&url=https://s41.mkklcdnv6temp.com/mangakakalot/n1/nadeshiko_club/vol7_chapter_33/8.jpg",
    "https://img-proxy.imgfo.com/?referer=https://manganelo.com&url=https://s41.mkklcdnv6temp.com/mangakakalot/n1/nadeshiko_club/vol7_chapter_33/9.jpg",
    "https://img-proxy.imgfo.com/?referer=https://manganelo.com&url=https://s41.mkklcdnv6temp.com/mangakakalot/n1/nadeshiko_club/vol7_chapter_33/10.jpg",
    "https://img-proxy.imgfo.com/?referer=https://manganelo.com&url=https://s41.mkklcdnv6temp.com/mangakakalot/n1/nadeshiko_club/vol7_chapter_33/11.jpg",
    "https://img-proxy.imgfo.com/?referer=https://manganelo.com&url=https://s41.mkklcdnv6temp.com/mangakakalot/n1/nadeshiko_club/vol7_chapter_33/12.jpg",
    "https://img-proxy.imgfo.com/?referer=https://manganelo.com&url=https://s41.mkklcdnv6temp.com/mangakakalot/n1/nadeshiko_club/vol7_chapter_33/13.jpg",
    "https://img-proxy.imgfo.com/?referer=https://manganelo.com&url=https://s41.mkklcdnv6temp.com/mangakakalot/n1/nadeshiko_club/vol7_chapter_33/14.jpg",
    "https://img-proxy.imgfo.com/?referer=https://manganelo.com&url=https://s41.mkklcdnv6temp.com/mangakakalot/n1/nadeshiko_club/vol7_chapter_33/15.jpg",
    "https://img-proxy.imgfo.com/?referer=https://manganelo.com&url=https://s41.mkklcdnv6temp.com/mangakakalot/n1/nadeshiko_club/vol7_chapter_33/16.jpg",
    "https://img-proxy.imgfo.com/?referer=https://manganelo.com&url=https://s41.mkklcdnv6temp.com/mangakakalot/n1/nadeshiko_club/vol7_chapter_33/17.jpg",
    "https://img-proxy.imgfo.com/?referer=https://manganelo.com&url=https://s41.mkklcdnv6temp.com/mangakakalot/n1/nadeshiko_club/vol7_chapter_33/18.jpg",
    "https://img-proxy.imgfo.com/?referer=https://manganelo.com&url=https://s41.mkklcdnv6temp.com/mangakakalot/n1/nadeshiko_club/vol7_chapter_33/19.jpg",
    "https://img-proxy.imgfo.com/?referer=https://manganelo.com&url=https://s41.mkklcdnv6temp.com/mangakakalot/n1/nadeshiko_club/vol7_chapter_33/20.jpg",
    "https://img-proxy.imgfo.com/?referer=https://manganelo.com&url=https://s41.mkklcdnv6temp.com/mangakakalot/n1/nadeshiko_club/vol7_chapter_33/21.jpg",
    "https://img-proxy.imgfo.com/?referer=https://manganelo.com&url=https://s41.mkklcdnv6temp.com/mangakakalot/n1/nadeshiko_club/vol7_chapter_33/22.jpg",
    "https://img-proxy.imgfo.com/?referer=https://manganelo.com&url=https://s41.mkklcdnv6temp.com/mangakakalot/n1/nadeshiko_club/vol7_chapter_33/23.jpg",
    "https://img-proxy.imgfo.com/?referer=https://manganelo.com&url=https://s41.mkklcdnv6temp.com/mangakakalot/n1/nadeshiko_club/vol7_chapter_33/24.jpg",
    "https://img-proxy.imgfo.com/?referer=https://manganelo.com&url=https://s41.mkklcdnv6temp.com/mangakakalot/n1/nadeshiko_club/vol7_chapter_33/25.jpg",
    "https://img-proxy.imgfo.com/?referer=https://manganelo.com&url=https://s41.mkklcdnv6temp.com/mangakakalot/n1/nadeshiko_club/vol7_chapter_33/26.jpg",
    "https://img-proxy.imgfo.com/?referer=https://manganelo.com&url=https://s41.mkklcdnv6temp.com/mangakakalot/n1/nadeshiko_club/vol7_chapter_33/27.jpg",
    "https://img-proxy.imgfo.com/?referer=https://manganelo.com&url=https://s41.mkklcdnv6temp.com/mangakakalot/n1/nadeshiko_club/vol7_chapter_33/28.jpg",
    "https://img-proxy.imgfo.com/?referer=https://manganelo.com&url=https://s41.mkklcdnv6temp.com/mangakakalot/n1/nadeshiko_club/vol7_chapter_33/29.jpg",
    "https://img-proxy.imgfo.com/?referer=https://manganelo.com&url=https://s41.mkklcdnv6temp.com/mangakakalot/n1/nadeshiko_club/vol7_chapter_33/30.jpg",
    "https://img-proxy.imgfo.com/?referer=https://manganelo.com&url=https://s41.mkklcdnv6temp.com/mangakakalot/n1/nadeshiko_club/vol7_chapter_33/31.jpg",
    "https://img-proxy.imgfo.com/?referer=https://manganelo.com&url=https://s41.mkklcdnv6temp.com/mangakakalot/n1/nadeshiko_club/vol7_chapter_33/32.jpg",
    "https://img-proxy.imgfo.com/?referer=https://manganelo.com&url=https://s41.mkklcdnv6temp.com/mangakakalot/n1/nadeshiko_club/vol7_chapter_33/33.jpg",
    "https://img-proxy.imgfo.com/?referer=https://manganelo.com&url=https://s41.mkklcdnv6temp.com/mangakakalot/n1/nadeshiko_club/vol7_chapter_33/34.jpg",
    "https://img-proxy.imgfo.com/?referer=https://manganelo.com&url=https://s41.mkklcdnv6temp.com/mangakakalot/n1/nadeshiko_club/vol7_chapter_33/35.jpg",
    "https://img-proxy.imgfo.com/?referer=https://manganelo.com&url=https://s41.mkklcdnv6temp.com/mangakakalot/n1/nadeshiko_club/vol7_chapter_33/36.jpg",
    "https://img-proxy.imgfo.com/?referer=https://manganelo.com&url=https://s41.mkklcdnv6temp.com/mangakakalot/n1/nadeshiko_club/vol7_chapter_33/37.jpg",
    "https://img-proxy.imgfo.com/?referer=https://manganelo.com&url=https://s41.mkklcdnv6temp.com/mangakakalot/n1/nadeshiko_club/vol7_chapter_33/38.jpg",
    "https://img-proxy.imgfo.com/?referer=https://manganelo.com&url=https://s41.mkklcdnv6temp.com/mangakakalot/n1/nadeshiko_club/vol7_chapter_33/39.jpg",
    "https://img-proxy.imgfo.com/?referer=https://manganelo.com&url=https://s41.mkklcdnv6temp.com/mangakakalot/n1/nadeshiko_club/vol7_chapter_33/40.jpg",
    "https://img-proxy.imgfo.com/?referer=https://manganelo.com&url=https://s41.mkklcdnv6temp.com/mangakakalot/n1/nadeshiko_club/vol7_chapter_33/41.jpg",
    "https://img-proxy.imgfo.com/?referer=https://manganelo.com&url=https://s41.mkklcdnv6temp.com/mangakakalot/n1/nadeshiko_club/vol7_chapter_33/42.jpg",
    "https://img-proxy.imgfo.com/?referer=https://manganelo.com&url=https://s41.mkklcdnv6temp.com/mangakakalot/n1/nadeshiko_club/vol7_chapter_33/43.jpg",
    "https://img-proxy.imgfo.com/?referer=https://manganelo.com&url=https://s41.mkklcdnv6temp.com/mangakakalot/n1/nadeshiko_club/vol7_chapter_33/44.jpg",
    "https://img-proxy.imgfo.com/?referer=https://manganelo.com&url=https://s41.mkklcdnv6temp.com/mangakakalot/n1/nadeshiko_club/vol7_chapter_33/45.jpg",
    "https://img-proxy.imgfo.com/?referer=https://manganelo.com&url=https://s41.mkklcdnv6temp.com/mangakakalot/n1/nadeshiko_club/vol7_chapter_33/46.jpg",
    "https://img-proxy.imgfo.com/?referer=https://manganelo.com&url=https://s41.mkklcdnv6temp.com/mangakakalot/n1/nadeshiko_club/vol7_chapter_33/47.jpg"
  ]
}