{
  "cover": "https://avt.mkklcdnv6.com/46/u/8-1583479960.jpg",
  "title": "Shion No Ou",
  "original": "しおんの王 ; 紫音之王 ; Kings of Shogi ; Shion no Oh ; Shion no Ou: The Flowers of Hard Blood ; Shion's King",
  "genre": "Drama, Gender bender, Mystery, Seinen, Sports, Manga",
  "author": "Katori Masaru",
  "status": "Completed",
  "backlink": "https://manganu.com/collections/katori-masaru/shion-no-ou/",
  "description": "Yasuoka Shion lost her parents, and her voice, when she was young...in a murder.\nShe was found amidst a blood-soaked room, and the only hint for the suspect was a Shougi board and one piece: the King. Now, Shion steps into the world of female professional Shougi players. As her popularity and fame slowly rises, so do the questions about her past, particularly the murder case that was never solved.",
  "language": "English",
  "images": [
    "https://img-proxy.imgfo.com/?referer=https://manganelo.com&url=https://s5.mkklcdnv6temp.com/mangakakalot/s1/shion_no_ou/vol6_chapter_33_eyes_from_heaven/1.jpg",
    "https://img-proxy.imgfo.com/?referer=https://manganelo.com&url=https://s5.mkklcdnv6temp.com/mangakakalot/s1/shion_no_ou/vol6_chapter_33_eyes_from_heaven/2.jpg",
    "https://img-proxy.imgfo.com/?referer=https://manganelo.com&url=https://s5.mkklcdnv6temp.com/mangakakalot/s1/shion_no_ou/vol6_chapter_33_eyes_from_heaven/3.jpg",
    "https://img-proxy.imgfo.com/?referer=https://manganelo.com&url=https://s5.mkklcdnv6temp.com/mangakakalot/s1/shion_no_ou/vol6_chapter_33_eyes_from_heaven/4.jpg",
    "https://img-proxy.imgfo.com/?referer=https://manganelo.com&url=https://s5.mkklcdnv6temp.com/mangakakalot/s1/shion_no_ou/vol6_chapter_33_eyes_from_heaven/5.jpg",
    "https://img-proxy.imgfo.com/?referer=https://manganelo.com&url=https://s5.mkklcdnv6temp.com/mangakakalot/s1/shion_no_ou/vol6_chapter_33_eyes_from_heaven/6.jpg",
    "https://img-proxy.imgfo.com/?referer=https://manganelo.com&url=https://s5.mkklcdnv6temp.com/mangakakalot/s1/shion_no_ou/vol6_chapter_33_eyes_from_heaven/7.jpg",
    "https://img-proxy.imgfo.com/?referer=https://manganelo.com&url=https://s5.mkklcdnv6temp.com/mangakakalot/s1/shion_no_ou/vol6_chapter_33_eyes_from_heaven/8.jpg",
    "https://img-proxy.imgfo.com/?referer=https://manganelo.com&url=https://s5.mkklcdnv6temp.com/mangakakalot/s1/shion_no_ou/vol6_chapter_33_eyes_from_heaven/9.jpg",
    "https://img-proxy.imgfo.com/?referer=https://manganelo.com&url=https://s5.mkklcdnv6temp.com/mangakakalot/s1/shion_no_ou/vol6_chapter_33_eyes_from_heaven/10.jpg",
    "https://img-proxy.imgfo.com/?referer=https://manganelo.com&url=https://s5.mkklcdnv6temp.com/mangakakalot/s1/shion_no_ou/vol6_chapter_33_eyes_from_heaven/11.jpg",
    "https://img-proxy.imgfo.com/?referer=https://manganelo.com&url=https://s5.mkklcdnv6temp.com/mangakakalot/s1/shion_no_ou/vol6_chapter_33_eyes_from_heaven/12.jpg",
    "https://img-proxy.imgfo.com/?referer=https://manganelo.com&url=https://s5.mkklcdnv6temp.com/mangakakalot/s1/shion_no_ou/vol6_chapter_33_eyes_from_heaven/13.jpg",
    "https://img-proxy.imgfo.com/?referer=https://manganelo.com&url=https://s5.mkklcdnv6temp.com/mangakakalot/s1/shion_no_ou/vol6_chapter_33_eyes_from_heaven/14.jpg",
    "https://img-proxy.imgfo.com/?referer=https://manganelo.com&url=https://s5.mkklcdnv6temp.com/mangakakalot/s1/shion_no_ou/vol6_chapter_33_eyes_from_heaven/15.jpg",
    "https://img-proxy.imgfo.com/?referer=https://manganelo.com&url=https://s5.mkklcdnv6temp.com/mangakakalot/s1/shion_no_ou/vol6_chapter_33_eyes_from_heaven/16.jpg",
    "https://img-proxy.imgfo.com/?referer=https://manganelo.com&url=https://s5.mkklcdnv6temp.com/mangakakalot/s1/shion_no_ou/vol6_chapter_33_eyes_from_heaven/17.jpg",
    "https://img-proxy.imgfo.com/?referer=https://manganelo.com&url=https://s5.mkklcdnv6temp.com/mangakakalot/s1/shion_no_ou/vol6_chapter_33_eyes_from_heaven/18.jpg",
    "https://img-proxy.imgfo.com/?referer=https://manganelo.com&url=https://s5.mkklcdnv6temp.com/mangakakalot/s1/shion_no_ou/vol6_chapter_33_eyes_from_heaven/19.jpg",
    "https://img-proxy.imgfo.com/?referer=https://manganelo.com&url=https://s5.mkklcdnv6temp.com/mangakakalot/s1/shion_no_ou/vol6_chapter_33_eyes_from_heaven/20.jpg",
    "https://img-proxy.imgfo.com/?referer=https://manganelo.com&url=https://s5.mkklcdnv6temp.com/mangakakalot/s1/shion_no_ou/vol6_chapter_33_eyes_from_heaven/21.jpg",
    "https://img-proxy.imgfo.com/?referer=https://manganelo.com&url=https://s5.mkklcdnv6temp.com/mangakakalot/s1/shion_no_ou/vol6_chapter_33_eyes_from_heaven/22.jpg",
    "https://img-proxy.imgfo.com/?referer=https://manganelo.com&url=https://s5.mkklcdnv6temp.com/mangakakalot/s1/shion_no_ou/vol6_chapter_33_eyes_from_heaven/23.jpg",
    "https://img-proxy.imgfo.com/?referer=https://manganelo.com&url=https://s5.mkklcdnv6temp.com/mangakakalot/s1/shion_no_ou/vol6_chapter_33_eyes_from_heaven/24.jpg",
    "https://img-proxy.imgfo.com/?referer=https://manganelo.com&url=https://s5.mkklcdnv6temp.com/mangakakalot/s1/shion_no_ou/vol6_chapter_33_eyes_from_heaven/25.jpg",
    "https://img-proxy.imgfo.com/?referer=https://manganelo.com&url=https://s5.mkklcdnv6temp.com/mangakakalot/s1/shion_no_ou/vol6_chapter_33_eyes_from_heaven/26.jpg",
    "https://img-proxy.imgfo.com/?referer=https://manganelo.com&url=https://s5.mkklcdnv6temp.com/mangakakalot/s1/shion_no_ou/vol6_chapter_33_eyes_from_heaven/27.jpg",
    "https://img-proxy.imgfo.com/?referer=https://manganelo.com&url=https://s5.mkklcdnv6temp.com/mangakakalot/s1/shion_no_ou/vol6_chapter_33_eyes_from_heaven/28.jpg",
    "https://img-proxy.imgfo.com/?referer=https://manganelo.com&url=https://s5.mkklcdnv6temp.com/mangakakalot/s1/shion_no_ou/vol6_chapter_33_eyes_from_heaven/29.jpg",
    "https://img-proxy.imgfo.com/?referer=https://manganelo.com&url=https://s5.mkklcdnv6temp.com/mangakakalot/s1/shion_no_ou/vol6_chapter_33_eyes_from_heaven/30.jpg",
    "https://img-proxy.imgfo.com/?referer=https://manganelo.com&url=https://s5.mkklcdnv6temp.com/mangakakalot/s1/shion_no_ou/vol6_chapter_33_eyes_from_heaven/31.jpg",
    "https://img-proxy.imgfo.com/?referer=https://manganelo.com&url=https://s5.mkklcdnv6temp.com/mangakakalot/s1/shion_no_ou/vol6_chapter_33_eyes_from_heaven/32.jpg",
    "https://img-proxy.imgfo.com/?referer=https://manganelo.com&url=https://s5.mkklcdnv6temp.com/mangakakalot/s1/shion_no_ou/vol6_chapter_33_eyes_from_heaven/33.jpg",
    "https://img-proxy.imgfo.com/?referer=https://manganelo.com&url=https://s5.mkklcdnv6temp.com/mangakakalot/s1/shion_no_ou/vol6_chapter_33_eyes_from_heaven/34.jpg",
    "https://img-proxy.imgfo.com/?referer=https://manganelo.com&url=https://s5.mkklcdnv6temp.com/mangakakalot/s1/shion_no_ou/vol6_chapter_33_eyes_from_heaven/35.jpg",
    "https://img-proxy.imgfo.com/?referer=https://manganelo.com&url=https://s5.mkklcdnv6temp.com/mangakakalot/s1/shion_no_ou/vol6_chapter_33_eyes_from_heaven/36.jpg"
  ]
}