{
  "cover": "https://avt.mkklcdnv6.com/48/a/4-1583471702.jpg",
  "title": "Leona Explosion",
  "original": "レオナEXPLOSION ; Reona Explosion",
  "genre": "Action, Comedy, Ecchi, Martial arts, Mature, Romance, Shounen, Smut, Sports, Manga",
  "author": "Kotoyoshi Yumisuke",
  "status": "Completed",
  "backlink": "https://manganu.com/collections/kotoyoshi-yumisuke/leona-explosion/",
  "description": "This is Dakichi Kamiyama. A College Student at Toudai University. He had came back to his home town to attend such a prestigious University. He happened upon a cafe where once stood a great wrestling arena lead by the \"Amazoness kitty.\" Now three daughters remain running it. Yukihyou (Who has taken a sudden interest in him.) Ferris (A rather ditzy young woman.) And Leona (A Tsundere-ish big boobed girl with a rather \"Unique\" Ability in the wrestling ring.) Join Daikichi \"sandbag\" Kamiyama as he endures the trails ahead of him with these Bombshells.",
  "language": "English",
  "images": [
    "https://img-proxy.imgfo.com/?referer=https://manganelo.com&url=https://s6.mkklcdnv6temp.com/mangakakalot/l1/leona_explosion/vol1_chapter_5/1.jpg",
    "https://img-proxy.imgfo.com/?referer=https://manganelo.com&url=https://s6.mkklcdnv6temp.com/mangakakalot/l1/leona_explosion/vol1_chapter_5/2.jpg",
    "https://img-proxy.imgfo.com/?referer=https://manganelo.com&url=https://s6.mkklcdnv6temp.com/mangakakalot/l1/leona_explosion/vol1_chapter_5/3.jpg",
    "https://img-proxy.imgfo.com/?referer=https://manganelo.com&url=https://s6.mkklcdnv6temp.com/mangakakalot/l1/leona_explosion/vol1_chapter_5/4.jpg",
    "https://img-proxy.imgfo.com/?referer=https://manganelo.com&url=https://s6.mkklcdnv6temp.com/mangakakalot/l1/leona_explosion/vol1_chapter_5/5.jpg",
    "https://img-proxy.imgfo.com/?referer=https://manganelo.com&url=https://s6.mkklcdnv6temp.com/mangakakalot/l1/leona_explosion/vol1_chapter_5/6.jpg",
    "https://img-proxy.imgfo.com/?referer=https://manganelo.com&url=https://s6.mkklcdnv6temp.com/mangakakalot/l1/leona_explosion/vol1_chapter_5/7.jpg",
    "https://img-proxy.imgfo.com/?referer=https://manganelo.com&url=https://s6.mkklcdnv6temp.com/mangakakalot/l1/leona_explosion/vol1_chapter_5/8.jpg",
    "https://img-proxy.imgfo.com/?referer=https://manganelo.com&url=https://s6.mkklcdnv6temp.com/mangakakalot/l1/leona_explosion/vol1_chapter_5/9.jpg",
    "https://img-proxy.imgfo.com/?referer=https://manganelo.com&url=https://s6.mkklcdnv6temp.com/mangakakalot/l1/leona_explosion/vol1_chapter_5/10.jpg",
    "https://img-proxy.imgfo.com/?referer=https://manganelo.com&url=https://s6.mkklcdnv6temp.com/mangakakalot/l1/leona_explosion/vol1_chapter_5/11.jpg",
    "https://img-proxy.imgfo.com/?referer=https://manganelo.com&url=https://s6.mkklcdnv6temp.com/mangakakalot/l1/leona_explosion/vol1_chapter_5/12.jpg",
    "https://img-proxy.imgfo.com/?referer=https://manganelo.com&url=https://s6.mkklcdnv6temp.com/mangakakalot/l1/leona_explosion/vol1_chapter_5/13.jpg",
    "https://img-proxy.imgfo.com/?referer=https://manganelo.com&url=https://s6.mkklcdnv6temp.com/mangakakalot/l1/leona_explosion/vol1_chapter_5/14.jpg",
    "https://img-proxy.imgfo.com/?referer=https://manganelo.com&url=https://s6.mkklcdnv6temp.com/mangakakalot/l1/leona_explosion/vol1_chapter_5/15.jpg",
    "https://img-proxy.imgfo.com/?referer=https://manganelo.com&url=https://s6.mkklcdnv6temp.com/mangakakalot/l1/leona_explosion/vol1_chapter_5/16.jpg",
    "https://img-proxy.imgfo.com/?referer=https://manganelo.com&url=https://s6.mkklcdnv6temp.com/mangakakalot/l1/leona_explosion/vol1_chapter_5/17.jpg",
    "https://img-proxy.imgfo.com/?referer=https://manganelo.com&url=https://s6.mkklcdnv6temp.com/mangakakalot/l1/leona_explosion/vol1_chapter_5/18.jpg",
    "https://img-proxy.imgfo.com/?referer=https://manganelo.com&url=https://s6.mkklcdnv6temp.com/mangakakalot/l1/leona_explosion/vol1_chapter_5/19.jpg"
  ]
}